<?xml version="1.0" encoding="UTF-8" standalone="no"?>
<!DOCTYPE svg PUBLIC "-//W3C//DTD SVG 1.1//EN"
 "http://www.w3.org/Graphics/SVG/1.1/DTD/svg11.dtd">
<!-- Generated by graphviz version 2.38.0 (20140413.2041)
 -->
<!-- Title: main Pages: 1 -->
<svg width="203pt" height="39pt"
 viewBox="0.00 0.00 203.00 39.00" xmlns="http://www.w3.org/2000/svg" xmlns:xlink="http://www.w3.org/1999/xlink">
<g id="graph0" class="graph" transform="scale(1 1) rotate(0) translate(4 35)">
<title>main</title>
<polygon fill="white" stroke="none" points="-4,4 -4,-35 199,-35 199,4 -4,4"/>
<!-- Node0 -->
<g id="node1" class="node"><title>Node0</title>
<polygon fill="#bfbfbf" stroke="black" points="0,-6 0,-25 38,-25 38,-6 0,-6"/>
<text text-anchor="middle" x="19" y="-13" font-family="FreeSans" font-size="10.00">main</text>
</g>
<!-- Node1 -->
<g id="node2" class="node"><title>Node1</title>
<g id="a_node2"><a xlink:href="classSeeSawN_1_1ApplicationN_1_1ApplicationC.html#a10e0643b9133472ae925936804a12939" target="_top" xlink:title="Runs the application with the command line options. ">
<polygon fill="white" stroke="black" points="74,-0.5 74,-30.5 195,-30.5 195,-0.5 74,-0.5"/>
<text text-anchor="start" x="82" y="-18.5" font-family="FreeSans" font-size="10.00">SeeSawN::ApplicationN</text>
<text text-anchor="middle" x="134.5" y="-7.5" font-family="FreeSans" font-size="10.00">::ApplicationC::Run</text>
</a>
</g>
</g>
<!-- Node0&#45;&gt;Node1 -->
<g id="edge1" class="edge"><title>Node0&#45;&gt;Node1</title>
<path fill="none" stroke="midnightblue" d="M38.2357,-15.5C45.4146,-15.5 54.1505,-15.5 63.387,-15.5"/>
<polygon fill="midnightblue" stroke="midnightblue" points="63.5562,-19.0001 73.5562,-15.5 63.5562,-12.0001 63.5562,-19.0001"/>
</g>
</g>
</svg>
