<?xml version="1.0" encoding="UTF-8" standalone="no"?>
<!DOCTYPE svg PUBLIC "-//W3C//DTD SVG 1.1//EN"
 "http://www.w3.org/Graphics/SVG/1.1/DTD/svg11.dtd">
<!-- Generated by graphviz version 2.38.0 (20140413.2041)
 -->
<!-- Title: src/Wrappers/BoostBimap.h Pages: 1 -->
<svg width="1271pt" height="151pt"
 viewBox="0.00 0.00 1271.00 151.00" xmlns="http://www.w3.org/2000/svg" xmlns:xlink="http://www.w3.org/1999/xlink">
<g id="graph0" class="graph" transform="scale(1 1) rotate(0) translate(4 147)">
<title>src/Wrappers/BoostBimap.h</title>
<polygon fill="white" stroke="none" points="-4,4 -4,-147 1267,-147 1267,4 -4,4"/>
<!-- Node0 -->
<g id="node1" class="node"><title>Node0</title>
<polygon fill="#bfbfbf" stroke="black" points="957,-123.5 957,-142.5 1095,-142.5 1095,-123.5 957,-123.5"/>
<text text-anchor="middle" x="1026" y="-130.5" font-family="FreeSans" font-size="10.00">src/Wrappers/BoostBimap.h</text>
</g>
<!-- Node1 -->
<g id="node2" class="node"><title>Node1</title>
<g id="a_node2"><a xlink:href="BoostBimap_8ipp.html" target="_top" xlink:title="BoostBimap.ipp">
<polygon fill="white" stroke="black" points="818.5,-67.5 818.5,-86.5 903.5,-86.5 903.5,-67.5 818.5,-67.5"/>
<text text-anchor="middle" x="861" y="-74.5" font-family="FreeSans" font-size="10.00">BoostBimap.ipp</text>
</a>
</g>
</g>
<!-- Node0&#45;&gt;Node1 -->
<g id="edge1" class="edge"><title>Node0&#45;&gt;Node1</title>
<path fill="none" stroke="midnightblue" d="M999.855,-123.444C971.977,-114.32 927.652,-99.8133 896.6,-89.6509"/>
<polygon fill="midnightblue" stroke="midnightblue" points="897.615,-86.3005 887.022,-86.5164 895.438,-92.9533 897.615,-86.3005"/>
</g>
<!-- Node15 -->
<g id="node16" class="node"><title>Node15</title>
<polygon fill="white" stroke="#bfbfbf" points="922,-67.5 922,-86.5 1010,-86.5 1010,-67.5 922,-67.5"/>
<text text-anchor="middle" x="966" y="-74.5" font-family="FreeSans" font-size="10.00">boost/bimap.hpp</text>
</g>
<!-- Node0&#45;&gt;Node15 -->
<g id="edge15" class="edge"><title>Node0&#45;&gt;Node15</title>
<path fill="none" stroke="midnightblue" d="M1016.36,-123.324C1007.49,-115.341 994.125,-103.313 983.392,-93.6529"/>
<polygon fill="midnightblue" stroke="midnightblue" points="985.59,-90.922 975.815,-86.8339 980.907,-96.1251 985.59,-90.922"/>
</g>
<!-- Node16 -->
<g id="node17" class="node"><title>Node16</title>
<polygon fill="white" stroke="#bfbfbf" points="1028.5,-67.5 1028.5,-86.5 1145.5,-86.5 1145.5,-67.5 1028.5,-67.5"/>
<text text-anchor="middle" x="1087" y="-74.5" font-family="FreeSans" font-size="10.00">boost/bimap/list_of.hpp</text>
</g>
<!-- Node0&#45;&gt;Node16 -->
<g id="edge16" class="edge"><title>Node0&#45;&gt;Node16</title>
<path fill="none" stroke="midnightblue" d="M1035.8,-123.324C1044.82,-115.341 1058.41,-103.313 1069.32,-93.6529"/>
<polygon fill="midnightblue" stroke="midnightblue" points="1071.85,-96.083 1077.02,-86.8339 1067.21,-90.8416 1071.85,-96.083"/>
</g>
<!-- Node17 -->
<g id="node18" class="node"><title>Node17</title>
<polygon fill="white" stroke="#bfbfbf" points="1163.5,-67.5 1163.5,-86.5 1192.5,-86.5 1192.5,-67.5 1163.5,-67.5"/>
<text text-anchor="middle" x="1178" y="-74.5" font-family="FreeSans" font-size="10.00">list</text>
</g>
<!-- Node0&#45;&gt;Node17 -->
<g id="edge17" class="edge"><title>Node0&#45;&gt;Node17</title>
<path fill="none" stroke="midnightblue" d="M1051.31,-123.482C1075.51,-115.272 1113.23,-102.299 1153.88,-87.329"/>
<polygon fill="midnightblue" stroke="midnightblue" points="1155.27,-90.5484 1163.43,-83.7956 1152.84,-83.9834 1155.27,-90.5484"/>
</g>
<!-- Node2 -->
<g id="node3" class="node"><title>Node2</title>
<polygon fill="white" stroke="#bfbfbf" points="0,-6 0,-25 128,-25 128,-6 0,-6"/>
<text text-anchor="middle" x="64" y="-13" font-family="FreeSans" font-size="10.00">boost/concept_check.hpp</text>
</g>
<!-- Node1&#45;&gt;Node2 -->
<g id="edge2" class="edge"><title>Node1&#45;&gt;Node2</title>
<path fill="none" stroke="midnightblue" d="M818.376,-75.3423C706.303,-73.1828 394.272,-64.3934 137,-31 128.892,-29.9476 120.333,-28.5297 112.04,-26.9912"/>
<polygon fill="midnightblue" stroke="midnightblue" points="112.589,-23.5324 102.106,-25.0712 111.26,-30.4052 112.589,-23.5324"/>
</g>
<!-- Node3 -->
<g id="node4" class="node"><title>Node3</title>
<polygon fill="white" stroke="#bfbfbf" points="146,-6 146,-25 274,-25 274,-6 146,-6"/>
<text text-anchor="middle" x="210" y="-13" font-family="FreeSans" font-size="10.00">boost/range/concepts.hpp</text>
</g>
<!-- Node1&#45;&gt;Node3 -->
<g id="edge3" class="edge"><title>Node1&#45;&gt;Node3</title>
<path fill="none" stroke="midnightblue" d="M818.394,-74.4107C722.427,-70.4538 482.169,-58.4355 283,-31 274.992,-29.8969 266.538,-28.4669 258.334,-26.9358"/>
<polygon fill="midnightblue" stroke="midnightblue" points="258.982,-23.4962 248.499,-25.0331 257.652,-30.3688 258.982,-23.4962"/>
</g>
<!-- Node4 -->
<g id="node5" class="node"><title>Node4</title>
<polygon fill="white" stroke="#bfbfbf" points="292,-6 292,-25 442,-25 442,-6 292,-6"/>
<text text-anchor="middle" x="367" y="-13" font-family="FreeSans" font-size="10.00">boost/range/metafunctions.hpp</text>
</g>
<!-- Node1&#45;&gt;Node4 -->
<g id="edge4" class="edge"><title>Node1&#45;&gt;Node4</title>
<path fill="none" stroke="midnightblue" d="M818.395,-72.1963C743.777,-65.3399 584.658,-49.8526 451,-31 442.163,-29.7535 432.828,-28.2897 423.72,-26.7801"/>
<polygon fill="midnightblue" stroke="midnightblue" points="424.016,-23.2805 413.572,-25.0653 422.849,-30.1826 424.016,-23.2805"/>
</g>
<!-- Node5 -->
<g id="node6" class="node"><title>Node5</title>
<polygon fill="white" stroke="#bfbfbf" points="460,-6 460,-25 588,-25 588,-6 460,-6"/>
<text text-anchor="middle" x="524" y="-13" font-family="FreeSans" font-size="10.00">boost/range/functions.hpp</text>
</g>
<!-- Node1&#45;&gt;Node5 -->
<g id="edge5" class="edge"><title>Node1&#45;&gt;Node5</title>
<path fill="none" stroke="midnightblue" d="M818.414,-69.1075C766.177,-60.5688 674.957,-45.3836 597,-31 590.256,-29.7556 583.17,-28.4039 576.174,-27.0428"/>
<polygon fill="midnightblue" stroke="midnightblue" points="576.526,-23.5452 566.039,-25.0535 575.178,-30.4142 576.526,-23.5452"/>
</g>
<!-- Node6 -->
<g id="node7" class="node"><title>Node6</title>
<polygon fill="white" stroke="#bfbfbf" points="606.5,-0.5 606.5,-30.5 695.5,-30.5 695.5,-0.5 606.5,-0.5"/>
<text text-anchor="start" x="614.5" y="-18.5" font-family="FreeSans" font-size="10.00">boost/iterator/zip</text>
<text text-anchor="middle" x="651" y="-7.5" font-family="FreeSans" font-size="10.00">_iterator.hpp</text>
</g>
<!-- Node1&#45;&gt;Node6 -->
<g id="edge6" class="edge"><title>Node1&#45;&gt;Node6</title>
<path fill="none" stroke="midnightblue" d="M830.912,-67.4751C798.292,-58.2327 745.545,-43.2876 705.578,-31.9637"/>
<polygon fill="midnightblue" stroke="midnightblue" points="706.288,-28.5271 695.712,-29.1685 704.379,-35.262 706.288,-28.5271"/>
</g>
<!-- Node7 -->
<g id="node8" class="node"><title>Node7</title>
<polygon fill="white" stroke="#bfbfbf" points="713.5,-6 713.5,-25 820.5,-25 820.5,-6 713.5,-6"/>
<text text-anchor="middle" x="767" y="-13" font-family="FreeSans" font-size="10.00">boost/tuple/tuple.hpp</text>
</g>
<!-- Node1&#45;&gt;Node7 -->
<g id="edge7" class="edge"><title>Node1&#45;&gt;Node7</title>
<path fill="none" stroke="midnightblue" d="M847.532,-67.4751C832.315,-57.8431 807.313,-42.0175 789.199,-30.5517"/>
<polygon fill="midnightblue" stroke="midnightblue" points="790.764,-27.4002 780.443,-25.0091 787.021,-33.3149 790.764,-27.4002"/>
</g>
<!-- Node8 -->
<g id="node9" class="node"><title>Node8</title>
<polygon fill="white" stroke="#bfbfbf" points="839,-6 839,-25 883,-25 883,-6 839,-6"/>
<text text-anchor="middle" x="861" y="-13" font-family="FreeSans" font-size="10.00">vector</text>
</g>
<!-- Node1&#45;&gt;Node8 -->
<g id="edge8" class="edge"><title>Node1&#45;&gt;Node8</title>
<path fill="none" stroke="midnightblue" d="M861,-67.4751C861,-59.0803 861,-45.9806 861,-35.1631"/>
<polygon fill="midnightblue" stroke="midnightblue" points="864.5,-35.0091 861,-25.0091 857.5,-35.0091 864.5,-35.0091"/>
</g>
<!-- Node9 -->
<g id="node10" class="node"><title>Node9</title>
<polygon fill="white" stroke="#bfbfbf" points="901,-6 901,-25 931,-25 931,-6 901,-6"/>
<text text-anchor="middle" x="916" y="-13" font-family="FreeSans" font-size="10.00">set</text>
</g>
<!-- Node1&#45;&gt;Node9 -->
<g id="edge9" class="edge"><title>Node1&#45;&gt;Node9</title>
<path fill="none" stroke="midnightblue" d="M868.88,-67.4751C877.294,-58.3733 890.819,-43.741 901.226,-32.483"/>
<polygon fill="midnightblue" stroke="midnightblue" points="903.917,-34.7282 908.134,-25.0091 898.776,-29.9766 903.917,-34.7282"/>
</g>
<!-- Node10 -->
<g id="node11" class="node"><title>Node10</title>
<polygon fill="white" stroke="#bfbfbf" points="949,-6 949,-25 987,-25 987,-6 949,-6"/>
<text text-anchor="middle" x="968" y="-13" font-family="FreeSans" font-size="10.00">tuple</text>
</g>
<!-- Node1&#45;&gt;Node10 -->
<g id="edge10" class="edge"><title>Node1&#45;&gt;Node10</title>
<path fill="none" stroke="midnightblue" d="M876.33,-67.4751C893.97,-57.6664 923.16,-41.4346 943.858,-29.925"/>
<polygon fill="midnightblue" stroke="midnightblue" points="945.659,-32.9279 952.698,-25.0091 942.257,-26.8102 945.659,-32.9279"/>
</g>
<!-- Node11 -->
<g id="node12" class="node"><title>Node11</title>
<polygon fill="white" stroke="#bfbfbf" points="1005.5,-6 1005.5,-25 1054.5,-25 1054.5,-6 1005.5,-6"/>
<text text-anchor="middle" x="1030" y="-13" font-family="FreeSans" font-size="10.00">cstddef</text>
</g>
<!-- Node1&#45;&gt;Node11 -->
<g id="edge11" class="edge"><title>Node1&#45;&gt;Node11</title>
<path fill="none" stroke="midnightblue" d="M888.898,-67.4313C916.36,-58.8254 959.386,-44.8834 996,-31 997.65,-30.3743 999.338,-29.7157 1001.04,-29.0385"/>
<polygon fill="midnightblue" stroke="midnightblue" points="1002.78,-32.1046 1010.69,-25.056 1000.11,-25.6334 1002.78,-32.1046"/>
</g>
<!-- Node12 -->
<g id="node13" class="node"><title>Node12</title>
<polygon fill="white" stroke="#bfbfbf" points="1073,-6 1073,-25 1135,-25 1135,-6 1073,-6"/>
<text text-anchor="middle" x="1104" y="-13" font-family="FreeSans" font-size="10.00">type_traits</text>
</g>
<!-- Node1&#45;&gt;Node12 -->
<g id="edge12" class="edge"><title>Node1&#45;&gt;Node12</title>
<path fill="none" stroke="midnightblue" d="M903.785,-68.1907C945.15,-60.2485 1009.41,-46.8738 1064,-31 1066.64,-30.2337 1069.35,-29.3844 1072.06,-28.4923"/>
<polygon fill="midnightblue" stroke="midnightblue" points="1073.44,-31.7206 1081.74,-25.1462 1071.15,-25.1045 1073.44,-31.7206"/>
</g>
<!-- Node13 -->
<g id="node14" class="node"><title>Node13</title>
<polygon fill="white" stroke="#bfbfbf" points="1153.5,-6 1153.5,-25 1200.5,-25 1200.5,-6 1153.5,-6"/>
<text text-anchor="middle" x="1177" y="-13" font-family="FreeSans" font-size="10.00">iterator</text>
</g>
<!-- Node1&#45;&gt;Node13 -->
<g id="edge13" class="edge"><title>Node1&#45;&gt;Node13</title>
<path fill="none" stroke="midnightblue" d="M903.557,-68.5745C906.752,-68.0354 909.926,-67.5055 913,-67 1015.53,-50.1393 1044.27,-60.1441 1144,-31 1146.15,-30.3725 1148.34,-29.6375 1150.52,-28.8372"/>
<polygon fill="midnightblue" stroke="midnightblue" points="1151.9,-32.0529 1159.85,-25.0422 1149.26,-25.5691 1151.9,-32.0529"/>
</g>
<!-- Node14 -->
<g id="node15" class="node"><title>Node14</title>
<polygon fill="white" stroke="#bfbfbf" points="1219,-6 1219,-25 1263,-25 1263,-6 1219,-6"/>
<text text-anchor="middle" x="1241" y="-13" font-family="FreeSans" font-size="10.00">cmath</text>
</g>
<!-- Node1&#45;&gt;Node14 -->
<g id="edge14" class="edge"><title>Node1&#45;&gt;Node14</title>
<path fill="none" stroke="midnightblue" d="M903.539,-68.4565C906.738,-67.9448 909.918,-67.4532 913,-67 1044.55,-47.6557 1082.18,-67.6267 1210,-31 1211.93,-30.4476 1213.89,-29.7889 1215.83,-29.0614"/>
<polygon fill="midnightblue" stroke="midnightblue" points="1217.46,-32.1714 1225.28,-25.0256 1214.71,-25.7337 1217.46,-32.1714"/>
</g>
</g>
</svg>
