<?xml version="1.0" encoding="UTF-8" standalone="no"?>
<!DOCTYPE svg PUBLIC "-//W3C//DTD SVG 1.1//EN"
 "http://www.w3.org/Graphics/SVG/1.1/DTD/svg11.dtd">
<!-- Generated by graphviz version 2.38.0 (20140413.2041)
 -->
<!-- Title: src/Wrappers/BoostFilesystem.ipp Pages: 1 -->
<svg width="188pt" height="84pt"
 viewBox="0.00 0.00 188.00 84.00" xmlns="http://www.w3.org/2000/svg" xmlns:xlink="http://www.w3.org/1999/xlink">
<g id="graph0" class="graph" transform="scale(1 1) rotate(0) translate(4 80)">
<title>src/Wrappers/BoostFilesystem.ipp</title>
<polygon fill="white" stroke="none" points="-4,4 -4,-80 184,-80 184,4 -4,4"/>
<!-- Node0 -->
<g id="node1" class="node"><title>Node0</title>
<polygon fill="#bfbfbf" stroke="black" points="15,-56.5 15,-75.5 180,-75.5 180,-56.5 15,-56.5"/>
<text text-anchor="middle" x="97.5" y="-63.5" font-family="FreeSans" font-size="10.00">src/Wrappers/BoostFilesystem.ipp</text>
</g>
<!-- Node1 -->
<g id="node2" class="node"><title>Node1</title>
<polygon fill="white" stroke="#bfbfbf" points="0,-0.5 0,-19.5 105,-19.5 105,-0.5 0,-0.5"/>
<text text-anchor="middle" x="52.5" y="-7.5" font-family="FreeSans" font-size="10.00">boost/filesystem.hpp</text>
</g>
<!-- Node0&#45;&gt;Node1 -->
<g id="edge1" class="edge"><title>Node0&#45;&gt;Node1</title>
<path fill="none" stroke="midnightblue" d="M90.0692,-56.083C83.6473,-48.3768 74.1944,-37.0333 66.3775,-27.6531"/>
<polygon fill="midnightblue" stroke="midnightblue" points="68.8832,-25.1927 59.7926,-19.7511 63.5057,-29.674 68.8832,-25.1927"/>
</g>
<!-- Node2 -->
<g id="node3" class="node"><title>Node2</title>
<polygon fill="white" stroke="#bfbfbf" points="123,-0.5 123,-19.5 164,-19.5 164,-0.5 123,-0.5"/>
<text text-anchor="middle" x="143.5" y="-7.5" font-family="FreeSans" font-size="10.00">string</text>
</g>
<!-- Node0&#45;&gt;Node2 -->
<g id="edge2" class="edge"><title>Node0&#45;&gt;Node2</title>
<path fill="none" stroke="midnightblue" d="M105.096,-56.083C111.727,-48.2982 121.521,-36.8015 129.558,-27.3665"/>
<polygon fill="midnightblue" stroke="midnightblue" points="132.225,-29.6332 136.045,-19.7511 126.896,-25.0939 132.225,-29.6332"/>
</g>
</g>
</svg>
