<?xml version="1.0" encoding="UTF-8" standalone="no"?>
<!DOCTYPE svg PUBLIC "-//W3C//DTD SVG 1.1//EN"
 "http://www.w3.org/Graphics/SVG/1.1/DTD/svg11.dtd">
<!-- Generated by graphviz version 2.38.0 (20140413.2041)
 -->
<!-- Title: src/Wrappers/BoostFilesystem.h Pages: 1 -->
<!--zoomable 95 -->
<svg id="main" version="1.1" xmlns="http://www.w3.org/2000/svg" xmlns:xlink="http://www.w3.org/1999/xlink" xml:space="preserve" onload="init(evt)">
<style type="text/css"><![CDATA[
.edge:hover path { stroke: red; }
.edge:hover polygon { stroke: red; fill: red; }
]]></style>
<script type="text/javascript"><![CDATA[
var edges = document.getElementsByTagName('g');
if (edges && edges.length) {
  for (var i=0;i<edges.length;i++) {
    if (edges[i].id.substr(0,4)=='edge') {
      edges[i].setAttribute('class','edge');
    }
  }
}
]]></script>
        <defs>
                <circle id="rim" cx="0" cy="0" r="7"/>
                <circle id="rim2" cx="0" cy="0" r="3.5"/>
                <g id="zoomPlus">
                        <use xlink:href="#rim" fill="#404040">
                                <set attributeName="fill" to="#808080" begin="zoomplus.mouseover" end="zoomplus.mouseout"/>
                        </use>
                        <path d="M-4,0h8M0,-4v8" fill="none" stroke="white" stroke-width="1.5" pointer-events="none"/>
                </g>
                <g id="zoomMin">
                        <use xlink:href="#rim" fill="#404040">
                                <set attributeName="fill" to="#808080" begin="zoomminus.mouseover" end="zoomminus.mouseout"/>
                        </use>
                        <path d="M-4,0h8" fill="none" stroke="white" stroke-width="1.5" pointer-events="none"/>
                </g>
                <g id="dirArrow">
                        <path fill="none" stroke="white" stroke-width="1.5" d="M0,-3.0v7 M-2.5,-0.5L0,-3.0L2.5,-0.5"/>
                </g>
               <g id="resetDef">
                       <use xlink:href="#rim2" fill="#404040">
                               <set attributeName="fill" to="#808080" begin="reset.mouseover" end="reset.mouseout"/>
                       </use>
               </g>
        </defs>

<script type="text/javascript">
var viewWidth = 2789;
var viewHeight = 95;
var sectionId = 'dynsection-1';
</script>
<script xlink:href="svgpan.js"/>
<svg id="graph" class="graph">
<g id="viewport">
<title>src/Wrappers/BoostFilesystem.h</title>
<polygon fill="white" stroke="none" points="-4,4 -4,-91 2784.5,-91 2784.5,4 -4,4"/>
<!-- Node4 -->
<g id="node1" class="node"><title>Node4</title>
<polygon fill="#bfbfbf" stroke="black" points="1322.5,-67.5 1322.5,-86.5 1480.5,-86.5 1480.5,-67.5 1322.5,-67.5"/>
<text text-anchor="middle" x="1401.5" y="-74.5" font-family="FreeSans" font-size="10.00">src/Wrappers/BoostFilesystem.h</text>
</g>
<!-- Node5 -->
<g id="node2" class="node"><title>Node5</title>
<g id="a_node2"><a xlink:href="AppCalibrationVerification_8cpp.html" target="_top" xlink:title="src/Application/AppCalibration\lVerification.cpp">
<polygon fill="white" stroke="black" points="0,-0.5 0,-30.5 147,-30.5 147,-0.5 0,-0.5"/>
<text text-anchor="start" x="8" y="-18.5" font-family="FreeSans" font-size="10.00">src/Application/AppCalibration</text>
<text text-anchor="middle" x="73.5" y="-7.5" font-family="FreeSans" font-size="10.00">Verification.cpp</text>
</a>
</g>
</g>
<!-- Node4&#45;&gt;Node5 -->
<g id="edge1" class="edge"><title>Node4&#45;&gt;Node5</title>
<path fill="none" stroke="midnightblue" d="M1311.92,-74.3832C1065.32,-69.674 379.909,-54.777 155.5,-31 152.768,-30.7106 149.991,-30.3843 147.189,-30.0281"/>
<polygon fill="midnightblue" stroke="midnightblue" points="1312.21,-77.8892 1322.28,-74.5798 1312.34,-70.8905 1312.21,-77.8892"/>
</g>
<!-- Node6 -->
<g id="node3" class="node"><title>Node6</title>
<g id="a_node3"><a xlink:href="AppGeometryEstimator22_8cpp.html" target="_top" xlink:title="src/Application/AppGeometry\lEstimator22.cpp">
<polygon fill="white" stroke="black" points="165,-0.5 165,-30.5 308,-30.5 308,-0.5 165,-0.5"/>
<text text-anchor="start" x="173" y="-18.5" font-family="FreeSans" font-size="10.00">src/Application/AppGeometry</text>
<text text-anchor="middle" x="236.5" y="-7.5" font-family="FreeSans" font-size="10.00">Estimator22.cpp</text>
</a>
</g>
</g>
<!-- Node4&#45;&gt;Node6 -->
<g id="edge2" class="edge"><title>Node4&#45;&gt;Node6</title>
<path fill="none" stroke="midnightblue" d="M1311.98,-76.4506C1125.97,-76.472 684.312,-71.7637 316.5,-31 313.834,-30.7046 311.124,-30.3731 308.39,-30.0127"/>
<polygon fill="midnightblue" stroke="midnightblue" points="1312.26,-79.9506 1322.26,-76.4446 1312.25,-72.9506 1312.26,-79.9506"/>
</g>
<!-- Node7 -->
<g id="node4" class="node"><title>Node7</title>
<g id="a_node4"><a xlink:href="AppGeometryEstimator32_8cpp.html" target="_top" xlink:title="src/Application/AppGeometry\lEstimator32.cpp">
<polygon fill="white" stroke="black" points="326,-0.5 326,-30.5 469,-30.5 469,-0.5 326,-0.5"/>
<text text-anchor="start" x="334" y="-18.5" font-family="FreeSans" font-size="10.00">src/Application/AppGeometry</text>
<text text-anchor="middle" x="397.5" y="-7.5" font-family="FreeSans" font-size="10.00">Estimator32.cpp</text>
</a>
</g>
</g>
<!-- Node4&#45;&gt;Node7 -->
<g id="edge3" class="edge"><title>Node4&#45;&gt;Node7</title>
<path fill="none" stroke="midnightblue" d="M1312.31,-75.5212C1147.09,-73.7771 782.465,-65.9122 477.5,-31 474.836,-30.695 472.126,-30.3553 469.392,-29.9879"/>
<polygon fill="midnightblue" stroke="midnightblue" points="1312.39,-79.0221 1322.42,-75.6229 1312.46,-72.0224 1312.39,-79.0221"/>
</g>
<!-- Node8 -->
<g id="node5" class="node"><title>Node8</title>
<g id="a_node5"><a xlink:href="AppGeometryEstimator33_8cpp.html" target="_top" xlink:title="src/Application/AppGeometry\lEstimator33.cpp">
<polygon fill="white" stroke="black" points="487,-0.5 487,-30.5 630,-30.5 630,-0.5 487,-0.5"/>
<text text-anchor="start" x="495" y="-18.5" font-family="FreeSans" font-size="10.00">src/Application/AppGeometry</text>
<text text-anchor="middle" x="558.5" y="-7.5" font-family="FreeSans" font-size="10.00">Estimator33.cpp</text>
</a>
</g>
</g>
<!-- Node4&#45;&gt;Node8 -->
<g id="edge4" class="edge"><title>Node4&#45;&gt;Node8</title>
<path fill="none" stroke="midnightblue" d="M1312.39,-74.2204C1169.67,-70.5899 881.199,-60.0445 638.5,-31 635.837,-30.6813 633.129,-30.3301 630.397,-29.9529"/>
<polygon fill="midnightblue" stroke="midnightblue" points="1312.33,-77.7198 1322.41,-74.47 1312.5,-70.722 1312.33,-77.7198"/>
</g>
<!-- Node9 -->
<g id="node6" class="node"><title>Node9</title>
<g id="a_node6"><a xlink:href="AppIntrinsicsEstimator_8cpp.html" target="_top" xlink:title="src/Application/AppIntrinsics\lEstimator.cpp">
<polygon fill="white" stroke="black" points="648,-0.5 648,-30.5 789,-30.5 789,-0.5 648,-0.5"/>
<text text-anchor="start" x="656" y="-18.5" font-family="FreeSans" font-size="10.00">src/Application/AppIntrinsics</text>
<text text-anchor="middle" x="718.5" y="-7.5" font-family="FreeSans" font-size="10.00">Estimator.cpp</text>
</a>
</g>
</g>
<!-- Node4&#45;&gt;Node9 -->
<g id="edge5" class="edge"><title>Node4&#45;&gt;Node9</title>
<path fill="none" stroke="midnightblue" d="M1311.99,-72.3322C1193.81,-66.8039 979.403,-54.4014 797.5,-31 794.734,-30.6442 791.918,-30.2554 789.077,-29.8411"/>
<polygon fill="midnightblue" stroke="midnightblue" points="1311.93,-75.8328 1322.08,-72.7982 1312.25,-68.8403 1311.93,-75.8328"/>
</g>
<!-- Node10 -->
<g id="node7" class="node"><title>Node10</title>
<g id="a_node7"><a xlink:href="AppMatchmaker_8cpp.html" target="_top" xlink:title="src/Application/AppMatchmaker.cpp">
<polygon fill="white" stroke="black" points="807,-6 807,-25 980,-25 980,-6 807,-6"/>
<text text-anchor="middle" x="893.5" y="-13" font-family="FreeSans" font-size="10.00">src/Application/AppMatchmaker.cpp</text>
</a>
</g>
</g>
<!-- Node4&#45;&gt;Node10 -->
<g id="edge6" class="edge"><title>Node4&#45;&gt;Node10</title>
<path fill="none" stroke="midnightblue" d="M1312.22,-67.3891C1228.48,-59.0483 1099.83,-45.5549 988.5,-31 974.935,-29.2265 960.312,-27.1015 946.702,-25.0321"/>
<polygon fill="midnightblue" stroke="midnightblue" points="1311.91,-70.8753 1322.2,-68.3805 1312.6,-63.9095 1311.91,-70.8753"/>
</g>
<!-- Node11 -->
<g id="node8" class="node"><title>Node11</title>
<g id="a_node8"><a xlink:href="AppMulticameraSynchronisation_8cpp.html" target="_top" xlink:title="src/Application/AppMulticamera\lSynchronisation.cpp">
<polygon fill="white" stroke="black" points="998,-0.5 998,-30.5 1153,-30.5 1153,-0.5 998,-0.5"/>
<text text-anchor="start" x="1006" y="-18.5" font-family="FreeSans" font-size="10.00">src/Application/AppMulticamera</text>
<text text-anchor="middle" x="1075.5" y="-7.5" font-family="FreeSans" font-size="10.00">Synchronisation.cpp</text>
</a>
</g>
</g>
<!-- Node4&#45;&gt;Node11 -->
<g id="edge7" class="edge"><title>Node4&#45;&gt;Node11</title>
<path fill="none" stroke="midnightblue" d="M1344.84,-65.6582C1291.55,-55.9325 1211.36,-41.2967 1152.33,-30.523"/>
<polygon fill="midnightblue" stroke="midnightblue" points="1344.33,-69.1226 1354.79,-67.4751 1345.58,-62.2364 1344.33,-69.1226"/>
</g>
<!-- Node12 -->
<g id="node9" class="node"><title>Node12</title>
<g id="a_node9"><a xlink:href="AppMultimodelGeometryEstimator22_8cpp.html" target="_top" xlink:title="src/Application/AppMultimodel\lGeometryEstimator22.cpp">
<polygon fill="white" stroke="black" points="1171,-0.5 1171,-30.5 1320,-30.5 1320,-0.5 1171,-0.5"/>
<text text-anchor="start" x="1179" y="-18.5" font-family="FreeSans" font-size="10.00">src/Application/AppMultimodel</text>
<text text-anchor="middle" x="1245.5" y="-7.5" font-family="FreeSans" font-size="10.00">GeometryEstimator22.cpp</text>
</a>
</g>
</g>
<!-- Node4&#45;&gt;Node12 -->
<g id="edge8" class="edge"><title>Node4&#45;&gt;Node12</title>
<path fill="none" stroke="midnightblue" d="M1369.64,-63.8475C1344.3,-54.1817 1308.81,-40.6471 1282.27,-30.523"/>
<polygon fill="midnightblue" stroke="midnightblue" points="1368.56,-67.1816 1379.15,-67.4751 1371.05,-60.6411 1368.56,-67.1816"/>
</g>
<!-- Node13 -->
<g id="node10" class="node"><title>Node13</title>
<g id="a_node10"><a xlink:href="AppNodalCameraTracker_8cpp.html" target="_top" xlink:title="src/Application/AppNodal\lCameraTracker.cpp">
<polygon fill="white" stroke="black" points="1338,-0.5 1338,-30.5 1465,-30.5 1465,-0.5 1338,-0.5"/>
<text text-anchor="start" x="1346" y="-18.5" font-family="FreeSans" font-size="10.00">src/Application/AppNodal</text>
<text text-anchor="middle" x="1401.5" y="-7.5" font-family="FreeSans" font-size="10.00">CameraTracker.cpp</text>
</a>
</g>
</g>
<!-- Node4&#45;&gt;Node13 -->
<g id="edge9" class="edge"><title>Node4&#45;&gt;Node13</title>
<path fill="none" stroke="midnightblue" d="M1401.5,-57.2349C1401.5,-48.5864 1401.5,-38.4969 1401.5,-30.523"/>
<polygon fill="midnightblue" stroke="midnightblue" points="1398,-57.4751 1401.5,-67.4751 1405,-57.4751 1398,-57.4751"/>
</g>
<!-- Node14 -->
<g id="node11" class="node"><title>Node14</title>
<g id="a_node11"><a xlink:href="AppPfM_8cpp.html" target="_top" xlink:title="src/Application/AppPfM.cpp">
<polygon fill="white" stroke="black" points="1483,-6 1483,-25 1620,-25 1620,-6 1483,-6"/>
<text text-anchor="middle" x="1551.5" y="-13" font-family="FreeSans" font-size="10.00">src/Application/AppPfM.cpp</text>
</a>
</g>
</g>
<!-- Node4&#45;&gt;Node14 -->
<g id="edge10" class="edge"><title>Node4&#45;&gt;Node14</title>
<path fill="none" stroke="midnightblue" d="M1432.3,-63.7824C1461.45,-52.2199 1504.45,-35.1641 1530.05,-25.0091"/>
<polygon fill="midnightblue" stroke="midnightblue" points="1431,-60.5345 1422.99,-67.4751 1433.58,-67.0413 1431,-60.5345"/>
</g>
<!-- Node15 -->
<g id="node12" class="node"><title>Node15</title>
<g id="a_node12"><a xlink:href="AppSparseModelBuilder_8cpp.html" target="_top" xlink:title="src/Application/AppSparse\lModelBuilder.cpp">
<polygon fill="white" stroke="black" points="1638.5,-0.5 1638.5,-30.5 1770.5,-30.5 1770.5,-0.5 1638.5,-0.5"/>
<text text-anchor="start" x="1646.5" y="-18.5" font-family="FreeSans" font-size="10.00">src/Application/AppSparse</text>
<text text-anchor="middle" x="1704.5" y="-7.5" font-family="FreeSans" font-size="10.00">ModelBuilder.cpp</text>
</a>
</g>
</g>
<!-- Node4&#45;&gt;Node15 -->
<g id="edge11" class="edge"><title>Node4&#45;&gt;Node15</title>
<path fill="none" stroke="midnightblue" d="M1454.77,-65.5391C1505.89,-55.5015 1583.23,-40.3141 1638.28,-29.5029"/>
<polygon fill="midnightblue" stroke="midnightblue" points="1454.05,-62.1137 1444.91,-67.4751 1455.4,-68.9825 1454.05,-62.1137"/>
</g>
<!-- Node16 -->
<g id="node13" class="node"><title>Node16</title>
<g id="a_node13"><a xlink:href="AppSparseUnitSphereBuilder_8cpp.html" target="_top" xlink:title="src/Application/AppSparse\lUnitSphereBuilder.cpp">
<polygon fill="white" stroke="black" points="1788.5,-0.5 1788.5,-30.5 1920.5,-30.5 1920.5,-0.5 1788.5,-0.5"/>
<text text-anchor="start" x="1796.5" y="-18.5" font-family="FreeSans" font-size="10.00">src/Application/AppSparse</text>
<text text-anchor="middle" x="1854.5" y="-7.5" font-family="FreeSans" font-size="10.00">UnitSphereBuilder.cpp</text>
</a>
</g>
</g>
<!-- Node4&#45;&gt;Node16 -->
<g id="edge12" class="edge"><title>Node4&#45;&gt;Node16</title>
<path fill="none" stroke="midnightblue" d="M1490.75,-67.2186C1567.51,-59.2268 1681.07,-46.3526 1779.5,-31 1782.38,-30.5503 1785.32,-30.0709 1788.29,-29.5701"/>
<polygon fill="midnightblue" stroke="midnightblue" points="1490.23,-63.7542 1480.64,-68.2654 1490.95,-70.7169 1490.23,-63.7542"/>
</g>
<!-- Node17 -->
<g id="node14" class="node"><title>Node17</title>
<g id="a_node14"><a xlink:href="AppStalker_8cpp.html" target="_top" xlink:title="src/Application/AppStalker.cpp">
<polygon fill="white" stroke="black" points="1938.5,-6 1938.5,-25 2088.5,-25 2088.5,-6 1938.5,-6"/>
<text text-anchor="middle" x="2013.5" y="-13" font-family="FreeSans" font-size="10.00">src/Application/AppStalker.cpp</text>
</a>
</g>
</g>
<!-- Node4&#45;&gt;Node17 -->
<g id="edge13" class="edge"><title>Node4&#45;&gt;Node17</title>
<path fill="none" stroke="midnightblue" d="M1491.15,-70.7145C1596.4,-63.9653 1776.07,-50.7438 1929.5,-31 1942.12,-29.3756 1955.74,-27.2063 1968.27,-25.0414"/>
<polygon fill="midnightblue" stroke="midnightblue" points="1490.65,-67.2394 1480.89,-71.3672 1491.09,-74.2253 1490.65,-67.2394"/>
</g>
<!-- Node18 -->
<g id="node15" class="node"><title>Node18</title>
<g id="a_node15"><a xlink:href="AppWitnessCoverageStatistics_8cpp.html" target="_top" xlink:title="src/Application/AppWitness\lCoverageStatistics.cpp">
<polygon fill="white" stroke="black" points="2107,-0.5 2107,-30.5 2244,-30.5 2244,-0.5 2107,-0.5"/>
<text text-anchor="start" x="2115" y="-18.5" font-family="FreeSans" font-size="10.00">src/Application/AppWitness</text>
<text text-anchor="middle" x="2175.5" y="-7.5" font-family="FreeSans" font-size="10.00">CoverageStatistics.cpp</text>
</a>
</g>
</g>
<!-- Node4&#45;&gt;Node18 -->
<g id="edge14" class="edge"><title>Node4&#45;&gt;Node18</title>
<path fill="none" stroke="midnightblue" d="M1490.71,-73.6338C1623.44,-69.3448 1880.57,-58.0785 2097.5,-31 2100.51,-30.6247 2103.57,-30.2068 2106.67,-29.7564"/>
<polygon fill="midnightblue" stroke="midnightblue" points="1490.48,-70.1393 1480.59,-73.9549 1490.7,-77.1358 1490.48,-70.1393"/>
</g>
<!-- Node19 -->
<g id="node16" class="node"><title>Node19</title>
<g id="a_node16"><a xlink:href="BoostFilesystem_8cpp.html" target="_top" xlink:title="src/Wrappers/BoostFilesystem.cpp">
<polygon fill="white" stroke="black" points="2262.5,-6 2262.5,-25 2430.5,-25 2430.5,-6 2262.5,-6"/>
<text text-anchor="middle" x="2346.5" y="-13" font-family="FreeSans" font-size="10.00">src/Wrappers/BoostFilesystem.cpp</text>
</a>
</g>
</g>
<!-- Node4&#45;&gt;Node19 -->
<g id="edge15" class="edge"><title>Node4&#45;&gt;Node19</title>
<path fill="none" stroke="midnightblue" d="M1491.15,-74.2674C1646.68,-70.5913 1976.45,-59.8391 2253.5,-31 2267.97,-29.4943 2283.61,-27.283 2297.87,-25.0387"/>
<polygon fill="midnightblue" stroke="midnightblue" points="1490.62,-70.7786 1480.7,-74.5097 1490.78,-77.7767 1490.62,-70.7786"/>
</g>
<!-- Node20 -->
<g id="node17" class="node"><title>Node20</title>
<g id="a_node17"><a xlink:href="TestWrappers_8cpp.html" target="_top" xlink:title="src/Wrappers/TestWrappers.cpp">
<polygon fill="white" stroke="black" points="2448.5,-6 2448.5,-25 2604.5,-25 2604.5,-6 2448.5,-6"/>
<text text-anchor="middle" x="2526.5" y="-13" font-family="FreeSans" font-size="10.00">src/Wrappers/TestWrappers.cpp</text>
</a>
</g>
</g>
<!-- Node4&#45;&gt;Node20 -->
<g id="edge16" class="edge"><title>Node4&#45;&gt;Node20</title>
<path fill="none" stroke="midnightblue" d="M1490.73,-75.7857C1670.67,-74.5483 2089.74,-67.5911 2439.5,-31 2453.21,-29.5661 2468.03,-27.3482 2481.49,-25.0749"/>
<polygon fill="midnightblue" stroke="midnightblue" points="1490.5,-72.2871 1480.52,-75.8515 1490.54,-79.2869 1490.5,-72.2871"/>
</g>
<!-- Node21 -->
<g id="node18" class="node"><title>Node21</title>
<g id="a_node18"><a xlink:href="AppZeroReconstructionEvaluation_8cpp.html" target="_top" xlink:title="src/Zero/AppZeroReconstruction\lEvaluation.cpp">
<polygon fill="white" stroke="black" points="2622.5,-0.5 2622.5,-30.5 2780.5,-30.5 2780.5,-0.5 2622.5,-0.5"/>
<text text-anchor="start" x="2630.5" y="-18.5" font-family="FreeSans" font-size="10.00">src/Zero/AppZeroReconstruction</text>
<text text-anchor="middle" x="2701.5" y="-7.5" font-family="FreeSans" font-size="10.00">Evaluation.cpp</text>
</a>
</g>
</g>
<!-- Node4&#45;&gt;Node21 -->
<g id="edge17" class="edge"><title>Node4&#45;&gt;Node21</title>
<path fill="none" stroke="midnightblue" d="M1491.01,-76.5319C1692.18,-76.8843 2195.22,-73.0566 2613.5,-31 2616.43,-30.7057 2619.4,-30.3752 2622.41,-30.0155"/>
<polygon fill="midnightblue" stroke="midnightblue" points="1490.8,-73.0315 1480.79,-76.5099 1490.78,-80.0315 1490.8,-73.0315"/>
</g>
</g>
</svg>
        <g id="navigator" transform="translate(0 0)" fill="#404254">
                <rect fill="#f2f5e9" fill-opacity="0.5" stroke="#606060" stroke-width=".5" x="0" y="0" width="60" height="60"/>
                <use id="zoomplus" xlink:href="#zoomPlus" x="17" y="9" onmousedown="handleZoom(evt,'in')"/>
                <use id="zoomminus" xlink:href="#zoomMin" x="42" y="9" onmousedown="handleZoom(evt,'out')"/>
                <use id="reset" xlink:href="#resetDef" x="30" y="36" onmousedown="handleReset()"/>
                <g id="arrowUp" xlink:href="#dirArrow" transform="translate(30 24)" onmousedown="handlePan(0,-1)">
                  <use xlink:href="#rim" fill="#404040">
                        <set attributeName="fill" to="#808080" begin="arrowUp.mouseover" end="arrowUp.mouseout"/>
                  </use>
                  <path fill="none" stroke="white" stroke-width="1.5" d="M0,-3.0v7 M-2.5,-0.5L0,-3.0L2.5,-0.5"/>
                </g>
                <g id="arrowRight" xlink:href="#dirArrow" transform="rotate(90) translate(36 -43)" onmousedown="handlePan(1,0)">
                  <use xlink:href="#rim" fill="#404040">
                        <set attributeName="fill" to="#808080" begin="arrowRight.mouseover" end="arrowRight.mouseout"/>
                  </use>
                  <path fill="none" stroke="white" stroke-width="1.5" d="M0,-3.0v7 M-2.5,-0.5L0,-3.0L2.5,-0.5"/>
                </g>
                <g id="arrowDown" xlink:href="#dirArrow" transform="rotate(180) translate(-30 -48)" onmousedown="handlePan(0,1)">
                  <use xlink:href="#rim" fill="#404040">
                        <set attributeName="fill" to="#808080" begin="arrowDown.mouseover" end="arrowDown.mouseout"/>
                  </use>
                  <path fill="none" stroke="white" stroke-width="1.5" d="M0,-3.0v7 M-2.5,-0.5L0,-3.0L2.5,-0.5"/>
                </g>
                <g id="arrowLeft" xlink:href="#dirArrow" transform="rotate(270) translate(-36 17)" onmousedown="handlePan(-1,0)">
                  <use xlink:href="#rim" fill="#404040">
                        <set attributeName="fill" to="#808080" begin="arrowLeft.mouseover" end="arrowLeft.mouseout"/>
                  </use>
                  <path fill="none" stroke="white" stroke-width="1.5" d="M0,-3.0v7 M-2.5,-0.5L0,-3.0L2.5,-0.5"/>
                </g>
        </g>
        <svg viewBox="0 0 15 15" width="100%" height="30px" preserveAspectRatio="xMaxYMin meet">
         <g id="arrow_out" transform="scale(0.3 0.3)">
          <a xlink:href="BoostFilesystem_8h__dep__incl_org.svg" target="_base">
           <rect id="button" ry="5" rx="5" y="6" x="6" height="38" width="38"
                fill="#f2f5e9" fill-opacity="0.5" stroke="#606060" stroke-width="1.0"/>
           <path id="arrow"
             d="M 11.500037,31.436501 C 11.940474,20.09759 22.043105,11.32322 32.158766,21.979434 L 37.068811,17.246167 C 37.068811,17.246167 37.088388,32 37.088388,32 L 22.160133,31.978069 C 22.160133,31.978069 26.997745,27.140456 26.997745,27.140456 C 18.528582,18.264221 13.291696,25.230495 11.500037,31.436501 z"
             style="fill:#404040;"/>
          </a>
         </g>
        </svg>
</svg>
