<?xml version="1.0" encoding="UTF-8" standalone="no"?>
<!DOCTYPE svg PUBLIC "-//W3C//DTD SVG 1.1//EN"
 "http://www.w3.org/Graphics/SVG/1.1/DTD/svg11.dtd">
<!-- Generated by graphviz version 2.38.0 (20140413.2041)
 -->
<!-- Title: src/Wrappers/BoostGeometry.ipp Pages: 1 -->
<!--zoomable 720 -->
<svg id="main" version="1.1" xmlns="http://www.w3.org/2000/svg" xmlns:xlink="http://www.w3.org/1999/xlink" xml:space="preserve" onload="init(evt)">
<style type="text/css"><![CDATA[
.edge:hover path { stroke: red; }
.edge:hover polygon { stroke: red; fill: red; }
]]></style>
<script type="text/javascript"><![CDATA[
var edges = document.getElementsByTagName('g');
if (edges && edges.length) {
  for (var i=0;i<edges.length;i++) {
    if (edges[i].id.substr(0,4)=='edge') {
      edges[i].setAttribute('class','edge');
    }
  }
}
]]></script>
        <defs>
                <circle id="rim" cx="0" cy="0" r="7"/>
                <circle id="rim2" cx="0" cy="0" r="3.5"/>
                <g id="zoomPlus">
                        <use xlink:href="#rim" fill="#404040">
                                <set attributeName="fill" to="#808080" begin="zoomplus.mouseover" end="zoomplus.mouseout"/>
                        </use>
                        <path d="M-4,0h8M0,-4v8" fill="none" stroke="white" stroke-width="1.5" pointer-events="none"/>
                </g>
                <g id="zoomMin">
                        <use xlink:href="#rim" fill="#404040">
                                <set attributeName="fill" to="#808080" begin="zoomminus.mouseover" end="zoomminus.mouseout"/>
                        </use>
                        <path d="M-4,0h8" fill="none" stroke="white" stroke-width="1.5" pointer-events="none"/>
                </g>
                <g id="dirArrow">
                        <path fill="none" stroke="white" stroke-width="1.5" d="M0,-3.0v7 M-2.5,-0.5L0,-3.0L2.5,-0.5"/>
                </g>
               <g id="resetDef">
                       <use xlink:href="#rim2" fill="#404040">
                               <set attributeName="fill" to="#808080" begin="reset.mouseover" end="reset.mouseout"/>
                       </use>
               </g>
        </defs>

<script type="text/javascript">
var viewWidth = 963;
var viewHeight = 720;
var sectionId = 'dynsection-1';
</script>
<script xlink:href="svgpan.js"/>
<svg id="graph" class="graph">
<g id="viewport">
<title>src/Wrappers/BoostGeometry.ipp</title>
<polygon fill="white" stroke="none" points="-4,4 -4,-716 959,-716 959,4 -4,4"/>
<!-- Node19 -->
<g id="node1" class="node"><title>Node19</title>
<polygon fill="#bfbfbf" stroke="black" points="535,-692.5 535,-711.5 695,-711.5 695,-692.5 535,-692.5"/>
<text text-anchor="middle" x="615" y="-699.5" font-family="FreeSans" font-size="10.00">src/Wrappers/BoostGeometry.ipp</text>
</g>
<!-- Node20 -->
<g id="node2" class="node"><title>Node20</title>
<g id="a_node2"><a xlink:href="BoostGeometry_8h.html" target="_top" xlink:title="src/Wrappers/BoostGeometry.h">
<polygon fill="white" stroke="black" points="539,-636.5 539,-655.5 691,-655.5 691,-636.5 539,-636.5"/>
<text text-anchor="middle" x="615" y="-643.5" font-family="FreeSans" font-size="10.00">src/Wrappers/BoostGeometry.h</text>
</a>
</g>
</g>
<!-- Node19&#45;&gt;Node20 -->
<g id="edge1" class="edge"><title>Node19&#45;&gt;Node20</title>
<path fill="none" stroke="midnightblue" d="M615,-681.805C615,-672.91 615,-662.78 615,-655.751"/>
<polygon fill="midnightblue" stroke="midnightblue" points="611.5,-682.083 615,-692.083 618.5,-682.083 611.5,-682.083"/>
</g>
<!-- Node21 -->
<g id="node3" class="node"><title>Node21</title>
<g id="a_node3"><a xlink:href="FeatureTracker_8ipp.html" target="_top" xlink:title="src/Tracker/FeatureTracker.ipp">
<polygon fill="white" stroke="black" points="330,-441 330,-460 480,-460 480,-441 330,-441"/>
<text text-anchor="middle" x="405" y="-448" font-family="FreeSans" font-size="10.00">src/Tracker/FeatureTracker.ipp</text>
</a>
</g>
</g>
<!-- Node20&#45;&gt;Node21 -->
<g id="edge2" class="edge"><title>Node20&#45;&gt;Node21</title>
<path fill="none" stroke="midnightblue" d="M528.59,-636.468C502.208,-630.028 474.935,-618.951 455,-600 413.596,-560.64 406.475,-485.927 405.252,-460.349"/>
<polygon fill="midnightblue" stroke="midnightblue" points="528.118,-639.949 538.641,-638.716 529.646,-633.117 528.118,-639.949"/>
</g>
<!-- Node34 -->
<g id="node16" class="node"><title>Node34</title>
<g id="a_node16"><a xlink:href="FeatureTrackerDistanceConstraint_8ipp.html" target="_top" xlink:title="src/Tracker/FeatureTracker\lDistanceConstraint.ipp">
<polygon fill="white" stroke="black" points="464.5,-569.5 464.5,-599.5 599.5,-599.5 599.5,-569.5 464.5,-569.5"/>
<text text-anchor="start" x="472.5" y="-587.5" font-family="FreeSans" font-size="10.00">src/Tracker/FeatureTracker</text>
<text text-anchor="middle" x="532" y="-576.5" font-family="FreeSans" font-size="10.00">DistanceConstraint.ipp</text>
</a>
</g>
</g>
<!-- Node20&#45;&gt;Node34 -->
<g id="edge17" class="edge"><title>Node20&#45;&gt;Node34</title>
<path fill="none" stroke="midnightblue" d="M594.728,-630.468C581.587,-621.047 564.559,-608.841 551.561,-599.523"/>
<polygon fill="midnightblue" stroke="midnightblue" points="592.941,-633.493 603.108,-636.475 597.02,-627.804 592.941,-633.493"/>
</g>
<!-- Node40 -->
<g id="node22" class="node"><title>Node40</title>
<g id="a_node22"><a xlink:href="BoostGeometry_8cpp.html" target="_top" xlink:title="src/Wrappers/BoostGeometry.cpp">
<polygon fill="white" stroke="black" points="617.5,-575 617.5,-594 780.5,-594 780.5,-575 617.5,-575"/>
<text text-anchor="middle" x="699" y="-582" font-family="FreeSans" font-size="10.00">src/Wrappers/BoostGeometry.cpp</text>
</a>
</g>
</g>
<!-- Node20&#45;&gt;Node40 -->
<g id="edge28" class="edge"><title>Node20&#45;&gt;Node40</title>
<path fill="none" stroke="midnightblue" d="M635.311,-630.613C651.467,-619.169 673.523,-603.546 686.987,-594.009"/>
<polygon fill="midnightblue" stroke="midnightblue" points="633.172,-627.839 627.035,-636.475 637.218,-633.551 633.172,-627.839"/>
</g>
<!-- Node41 -->
<g id="node23" class="node"><title>Node41</title>
<g id="a_node23"><a xlink:href="TestWrappers_8cpp.html" target="_top" xlink:title="src/Wrappers/TestWrappers.cpp">
<polygon fill="white" stroke="black" points="799,-575 799,-594 955,-594 955,-575 799,-575"/>
<text text-anchor="middle" x="877" y="-582" font-family="FreeSans" font-size="10.00">src/Wrappers/TestWrappers.cpp</text>
</a>
</g>
</g>
<!-- Node20&#45;&gt;Node41 -->
<g id="edge29" class="edge"><title>Node20&#45;&gt;Node41</title>
<path fill="none" stroke="midnightblue" d="M662.299,-634.258C713.124,-622.716 792.871,-604.606 839.531,-594.009"/>
<polygon fill="midnightblue" stroke="midnightblue" points="661.515,-630.847 652.538,-636.475 663.065,-637.674 661.515,-630.847"/>
</g>
<!-- Node22 -->
<g id="node4" class="node"><title>Node22</title>
<g id="a_node4"><a xlink:href="FeatureTracker_8h.html" target="_top" xlink:title="src/Tracker/FeatureTracker.h">
<polygon fill="white" stroke="black" points="335.5,-374 335.5,-393 478.5,-393 478.5,-374 335.5,-374"/>
<text text-anchor="middle" x="407" y="-381" font-family="FreeSans" font-size="10.00">src/Tracker/FeatureTracker.h</text>
</a>
</g>
</g>
<!-- Node21&#45;&gt;Node22 -->
<g id="edge3" class="edge"><title>Node21&#45;&gt;Node22</title>
<path fill="none" stroke="midnightblue" d="M405.583,-430.537C405.964,-418.17 406.442,-402.62 406.735,-393.127"/>
<polygon fill="midnightblue" stroke="midnightblue" points="402.079,-430.631 405.27,-440.734 409.076,-430.846 402.079,-430.631"/>
</g>
<!-- Node23 -->
<g id="node5" class="node"><title>Node23</title>
<g id="a_node5"><a xlink:href="ImageFeatureTrackingPipeline_8ipp.html" target="_top" xlink:title="src/Tracker/ImageFeature\lTrackingPipeline.ipp">
<polygon fill="white" stroke="black" points="355.5,-301.5 355.5,-331.5 484.5,-331.5 484.5,-301.5 355.5,-301.5"/>
<text text-anchor="start" x="363.5" y="-319.5" font-family="FreeSans" font-size="10.00">src/Tracker/ImageFeature</text>
<text text-anchor="middle" x="420" y="-308.5" font-family="FreeSans" font-size="10.00">TrackingPipeline.ipp</text>
</a>
</g>
</g>
<!-- Node22&#45;&gt;Node23 -->
<g id="edge4" class="edge"><title>Node22&#45;&gt;Node23</title>
<path fill="none" stroke="midnightblue" d="M410.752,-363.739C412.803,-353.487 415.3,-341.001 417.182,-331.589"/>
<polygon fill="midnightblue" stroke="midnightblue" points="407.282,-363.242 408.753,-373.734 414.147,-364.614 407.282,-363.242"/>
</g>
<!-- Node30 -->
<g id="node12" class="node"><title>Node30</title>
<g id="a_node12"><a xlink:href="TestTracker_8cpp.html" target="_top" xlink:title="src/Tracker/TestTracker.cpp">
<polygon fill="white" stroke="black" points="649,-167.5 649,-186.5 789,-186.5 789,-167.5 649,-167.5"/>
<text text-anchor="middle" x="719" y="-174.5" font-family="FreeSans" font-size="10.00">src/Tracker/TestTracker.cpp</text>
</a>
</g>
</g>
<!-- Node22&#45;&gt;Node30 -->
<g id="edge16" class="edge"><title>Node22&#45;&gt;Node30</title>
<path fill="none" stroke="midnightblue" d="M431.333,-368.792C448.7,-358.869 472.512,-344.975 493,-332 536.02,-304.755 665.614,-215.049 706.5,-186.681"/>
<polygon fill="midnightblue" stroke="midnightblue" points="429.374,-365.88 422.411,-373.866 432.834,-371.966 429.374,-365.88"/>
</g>
<!-- Node31 -->
<g id="node13" class="node"><title>Node31</title>
<g id="a_node13"><a xlink:href="InterfaceFeatureTracker_8ipp.html" target="_top" xlink:title="src/ApplicationInterface\l/InterfaceFeatureTracker.ipp">
<polygon fill="white" stroke="black" points="183.5,-301.5 183.5,-331.5 322.5,-331.5 322.5,-301.5 183.5,-301.5"/>
<text text-anchor="start" x="191.5" y="-319.5" font-family="FreeSans" font-size="10.00">src/ApplicationInterface</text>
<text text-anchor="middle" x="253" y="-308.5" font-family="FreeSans" font-size="10.00">/InterfaceFeatureTracker.ipp</text>
</a>
</g>
</g>
<!-- Node22&#45;&gt;Node31 -->
<g id="edge12" class="edge"><title>Node22&#45;&gt;Node31</title>
<path fill="none" stroke="midnightblue" d="M377.178,-369.913C351.101,-358.906 313.278,-342.942 286.236,-331.528"/>
<polygon fill="midnightblue" stroke="midnightblue" points="375.976,-373.204 386.55,-373.869 378.698,-366.755 375.976,-373.204"/>
</g>
<!-- Node24 -->
<g id="node6" class="node"><title>Node24</title>
<g id="a_node6"><a xlink:href="ImageFeatureTrackingPipeline_8h.html" target="_top" xlink:title="src/Tracker/ImageFeature\lTrackingPipeline.h">
<polygon fill="white" stroke="black" points="355.5,-234.5 355.5,-264.5 484.5,-264.5 484.5,-234.5 355.5,-234.5"/>
<text text-anchor="start" x="363.5" y="-252.5" font-family="FreeSans" font-size="10.00">src/Tracker/ImageFeature</text>
<text text-anchor="middle" x="420" y="-241.5" font-family="FreeSans" font-size="10.00">TrackingPipeline.h</text>
</a>
</g>
</g>
<!-- Node23&#45;&gt;Node24 -->
<g id="edge5" class="edge"><title>Node23&#45;&gt;Node24</title>
<path fill="none" stroke="midnightblue" d="M420,-291.108C420,-282.154 420,-272.323 420,-264.577"/>
<polygon fill="midnightblue" stroke="midnightblue" points="416.5,-291.396 420,-301.396 423.5,-291.396 416.5,-291.396"/>
</g>
<!-- Node25 -->
<g id="node7" class="node"><title>Node25</title>
<g id="a_node7"><a xlink:href="AppStalker_8cpp.html" target="_top" xlink:title="src/Application/AppStalker.cpp">
<polygon fill="white" stroke="black" points="481,-167.5 481,-186.5 631,-186.5 631,-167.5 481,-167.5"/>
<text text-anchor="middle" x="556" y="-174.5" font-family="FreeSans" font-size="10.00">src/Application/AppStalker.cpp</text>
</a>
</g>
</g>
<!-- Node24&#45;&gt;Node25 -->
<g id="edge6" class="edge"><title>Node24&#45;&gt;Node25</title>
<path fill="none" stroke="midnightblue" d="M456.362,-229.651C483.402,-215.633 519.032,-197.164 539.538,-186.534"/>
<polygon fill="midnightblue" stroke="midnightblue" points="454.462,-226.693 447.195,-234.403 457.684,-232.908 454.462,-226.693"/>
</g>
<!-- Node26 -->
<g id="node8" class="node"><title>Node26</title>
<g id="a_node8"><a xlink:href="InterfaceImageFeatureTrackingPipeline_8ipp.html" target="_top" xlink:title="src/ApplicationInterface\l/InterfaceImageFeatureTracking\lPipeline.ipp">
<polygon fill="white" stroke="black" points="160.5,-156.5 160.5,-197.5 315.5,-197.5 315.5,-156.5 160.5,-156.5"/>
<text text-anchor="start" x="168.5" y="-185.5" font-family="FreeSans" font-size="10.00">src/ApplicationInterface</text>
<text text-anchor="start" x="168.5" y="-174.5" font-family="FreeSans" font-size="10.00">/InterfaceImageFeatureTracking</text>
<text text-anchor="middle" x="238" y="-163.5" font-family="FreeSans" font-size="10.00">Pipeline.ipp</text>
</a>
</g>
</g>
<!-- Node24&#45;&gt;Node26 -->
<g id="edge7" class="edge"><title>Node24&#45;&gt;Node26</title>
<path fill="none" stroke="midnightblue" d="M373.961,-230.666C347.885,-220.565 315.231,-207.916 288.46,-197.546"/>
<polygon fill="midnightblue" stroke="midnightblue" points="373.018,-234.054 383.607,-234.403 375.546,-227.527 373.018,-234.054"/>
</g>
<!-- Node29 -->
<g id="node11" class="node"><title>Node29</title>
<g id="a_node11"><a xlink:href="ImageFeatureTrackingPipeline_8cpp.html" target="_top" xlink:title="src/Tracker/ImageFeature\lTrackingPipeline.cpp">
<polygon fill="white" stroke="black" points="333.5,-162 333.5,-192 462.5,-192 462.5,-162 333.5,-162"/>
<text text-anchor="start" x="341.5" y="-180" font-family="FreeSans" font-size="10.00">src/Tracker/ImageFeature</text>
<text text-anchor="middle" x="398" y="-169" font-family="FreeSans" font-size="10.00">TrackingPipeline.cpp</text>
</a>
</g>
</g>
<!-- Node24&#45;&gt;Node29 -->
<g id="edge10" class="edge"><title>Node24&#45;&gt;Node29</title>
<path fill="none" stroke="midnightblue" d="M412.531,-224.564C409.178,-213.821 405.336,-201.51 402.445,-192.246"/>
<polygon fill="midnightblue" stroke="midnightblue" points="409.228,-225.73 415.548,-234.233 415.91,-223.645 409.228,-225.73"/>
</g>
<!-- Node24&#45;&gt;Node30 -->
<g id="edge11" class="edge"><title>Node24&#45;&gt;Node30</title>
<path fill="none" stroke="midnightblue" d="M492.937,-232.187C535.817,-222.489 591.052,-209.812 640,-198 655.128,-194.349 671.842,-190.143 685.985,-186.533"/>
<polygon fill="midnightblue" stroke="midnightblue" points="492.134,-228.78 483.151,-234.397 493.676,-235.608 492.134,-228.78"/>
</g>
<!-- Node27 -->
<g id="node9" class="node"><title>Node27</title>
<g id="a_node9"><a xlink:href="InterfaceImageFeatureTrackingPipeline_8h.html" target="_top" xlink:title="src/ApplicationInterface\l/InterfaceImageFeatureTracking\lPipeline.h">
<polygon fill="white" stroke="black" points="160.5,-78.5 160.5,-119.5 315.5,-119.5 315.5,-78.5 160.5,-78.5"/>
<text text-anchor="start" x="168.5" y="-107.5" font-family="FreeSans" font-size="10.00">src/ApplicationInterface</text>
<text text-anchor="start" x="168.5" y="-96.5" font-family="FreeSans" font-size="10.00">/InterfaceImageFeatureTracking</text>
<text text-anchor="middle" x="238" y="-85.5" font-family="FreeSans" font-size="10.00">Pipeline.h</text>
</a>
</g>
</g>
<!-- Node26&#45;&gt;Node27 -->
<g id="edge8" class="edge"><title>Node26&#45;&gt;Node27</title>
<path fill="none" stroke="midnightblue" d="M238,-146.297C238,-137.301 238,-127.653 238,-119.506"/>
<polygon fill="midnightblue" stroke="midnightblue" points="234.5,-146.428 238,-156.428 241.5,-146.428 234.5,-146.428"/>
</g>
<!-- Node28 -->
<g id="node10" class="node"><title>Node28</title>
<g id="a_node10"><a xlink:href="InterfaceImageFeatureTrackingPipeline_8cpp.html" target="_top" xlink:title="src/ApplicationInterface\l/InterfaceImageFeatureTracking\lPipeline.cpp">
<polygon fill="white" stroke="black" points="160.5,-0.5 160.5,-41.5 315.5,-41.5 315.5,-0.5 160.5,-0.5"/>
<text text-anchor="start" x="168.5" y="-29.5" font-family="FreeSans" font-size="10.00">src/ApplicationInterface</text>
<text text-anchor="start" x="168.5" y="-18.5" font-family="FreeSans" font-size="10.00">/InterfaceImageFeatureTracking</text>
<text text-anchor="middle" x="238" y="-7.5" font-family="FreeSans" font-size="10.00">Pipeline.cpp</text>
</a>
</g>
</g>
<!-- Node27&#45;&gt;Node28 -->
<g id="edge9" class="edge"><title>Node27&#45;&gt;Node28</title>
<path fill="none" stroke="midnightblue" d="M238,-68.2965C238,-59.3009 238,-49.6532 238,-41.5056"/>
<polygon fill="midnightblue" stroke="midnightblue" points="234.5,-68.4281 238,-78.4281 241.5,-68.4281 234.5,-68.4281"/>
</g>
<!-- Node32 -->
<g id="node14" class="node"><title>Node32</title>
<g id="a_node14"><a xlink:href="InterfaceFeatureTracker_8h.html" target="_top" xlink:title="src/ApplicationInterface\l/InterfaceFeatureTracker.h">
<polygon fill="white" stroke="black" points="172.5,-234.5 172.5,-264.5 303.5,-264.5 303.5,-234.5 172.5,-234.5"/>
<text text-anchor="start" x="180.5" y="-252.5" font-family="FreeSans" font-size="10.00">src/ApplicationInterface</text>
<text text-anchor="middle" x="238" y="-241.5" font-family="FreeSans" font-size="10.00">/InterfaceFeatureTracker.h</text>
</a>
</g>
</g>
<!-- Node31&#45;&gt;Node32 -->
<g id="edge13" class="edge"><title>Node31&#45;&gt;Node32</title>
<path fill="none" stroke="midnightblue" d="M247.439,-291.403C245.355,-282.37 243.056,-272.408 241.248,-264.577"/>
<polygon fill="midnightblue" stroke="midnightblue" points="244.086,-292.439 249.745,-301.396 250.907,-290.865 244.086,-292.439"/>
</g>
<!-- Node32&#45;&gt;Node26 -->
<g id="edge15" class="edge"><title>Node32&#45;&gt;Node26</title>
<path fill="none" stroke="midnightblue" d="M238,-223.982C238,-215.347 238,-205.762 238,-197.588"/>
<polygon fill="midnightblue" stroke="midnightblue" points="234.5,-224.233 238,-234.233 241.5,-224.233 234.5,-224.233"/>
</g>
<!-- Node33 -->
<g id="node15" class="node"><title>Node33</title>
<g id="a_node15"><a xlink:href="InterfaceFeatureTracker_8cpp.html" target="_top" xlink:title="src/ApplicationInterface\l/InterfaceFeatureTracker.cpp">
<polygon fill="white" stroke="black" points="0,-162 0,-192 142,-192 142,-162 0,-162"/>
<text text-anchor="start" x="8" y="-180" font-family="FreeSans" font-size="10.00">src/ApplicationInterface</text>
<text text-anchor="middle" x="71" y="-169" font-family="FreeSans" font-size="10.00">/InterfaceFeatureTracker.cpp</text>
</a>
</g>
</g>
<!-- Node32&#45;&gt;Node33 -->
<g id="edge14" class="edge"><title>Node32&#45;&gt;Node33</title>
<path fill="none" stroke="midnightblue" d="M195.36,-230.499C167.075,-218.559 130.489,-203.114 104.336,-192.073"/>
<polygon fill="midnightblue" stroke="midnightblue" points="194.032,-233.738 204.606,-234.403 196.755,-227.289 194.032,-233.738"/>
</g>
<!-- Node35 -->
<g id="node17" class="node"><title>Node35</title>
<g id="a_node17"><a xlink:href="FeatureTrackerDistanceConstraint_8h.html" target="_top" xlink:title="src/Tracker/FeatureTracker\lDistanceConstraint.h">
<polygon fill="white" stroke="black" points="495.5,-502.5 495.5,-532.5 630.5,-532.5 630.5,-502.5 495.5,-502.5"/>
<text text-anchor="start" x="503.5" y="-520.5" font-family="FreeSans" font-size="10.00">src/Tracker/FeatureTracker</text>
<text text-anchor="middle" x="563" y="-509.5" font-family="FreeSans" font-size="10.00">DistanceConstraint.h</text>
</a>
</g>
</g>
<!-- Node34&#45;&gt;Node35 -->
<g id="edge18" class="edge"><title>Node34&#45;&gt;Node35</title>
<path fill="none" stroke="midnightblue" d="M543.072,-560.283C547.489,-551.022 552.43,-540.663 556.287,-532.577"/>
<polygon fill="midnightblue" stroke="midnightblue" points="539.872,-558.863 538.727,-569.396 546.19,-561.877 539.872,-558.863"/>
</g>
<!-- Node35&#45;&gt;Node21 -->
<g id="edge19" class="edge"><title>Node35&#45;&gt;Node21</title>
<path fill="none" stroke="midnightblue" d="M519.145,-498.458C488.619,-485.9 449.298,-469.724 425.679,-460.007"/>
<polygon fill="midnightblue" stroke="midnightblue" points="518.137,-501.828 528.716,-502.396 520.8,-495.355 518.137,-501.828"/>
</g>
<!-- Node35&#45;&gt;Node30 -->
<g id="edge27" class="edge"><title>Node35&#45;&gt;Node30</title>
<path fill="none" stroke="midnightblue" d="M640.856,-508.061C697.952,-500.285 769.023,-486.766 790,-466 816.433,-439.834 809,-421.694 809,-384.5 809,-384.5 809,-384.5 809,-315.5 809,-258.439 754.068,-206.612 730.036,-186.669"/>
<polygon fill="midnightblue" stroke="midnightblue" points="640.191,-504.618 630.737,-509.4 641.11,-511.558 640.191,-504.618"/>
</g>
<!-- Node36 -->
<g id="node18" class="node"><title>Node36</title>
<g id="a_node18"><a xlink:href="ImageFeatureTrackingProblem_8ipp.html" target="_top" xlink:title="src/Tracker/ImageFeature\lTrackingProblem.ipp">
<polygon fill="white" stroke="black" points="498.5,-435.5 498.5,-465.5 627.5,-465.5 627.5,-435.5 498.5,-435.5"/>
<text text-anchor="start" x="506.5" y="-453.5" font-family="FreeSans" font-size="10.00">src/Tracker/ImageFeature</text>
<text text-anchor="middle" x="563" y="-442.5" font-family="FreeSans" font-size="10.00">TrackingProblem.ipp</text>
</a>
</g>
</g>
<!-- Node35&#45;&gt;Node36 -->
<g id="edge20" class="edge"><title>Node35&#45;&gt;Node36</title>
<path fill="none" stroke="midnightblue" d="M563,-492.108C563,-483.154 563,-473.323 563,-465.577"/>
<polygon fill="midnightblue" stroke="midnightblue" points="559.5,-492.396 563,-502.396 566.5,-492.396 559.5,-492.396"/>
</g>
<!-- Node39 -->
<g id="node21" class="node"><title>Node39</title>
<g id="a_node21"><a xlink:href="FeatureTrackerDistanceConstraint_8cpp.html" target="_top" xlink:title="src/Tracker/FeatureTracker\lDistanceConstraint.cpp">
<polygon fill="white" stroke="black" points="645.5,-435.5 645.5,-465.5 780.5,-465.5 780.5,-435.5 645.5,-435.5"/>
<text text-anchor="start" x="653.5" y="-453.5" font-family="FreeSans" font-size="10.00">src/Tracker/FeatureTracker</text>
<text text-anchor="middle" x="713" y="-442.5" font-family="FreeSans" font-size="10.00">DistanceConstraint.cpp</text>
</a>
</g>
</g>
<!-- Node35&#45;&gt;Node39 -->
<g id="edge26" class="edge"><title>Node35&#45;&gt;Node39</title>
<path fill="none" stroke="midnightblue" d="M604.754,-498.407C628.701,-488.029 658.318,-475.195 680.516,-465.577"/>
<polygon fill="midnightblue" stroke="midnightblue" points="603.332,-495.208 595.548,-502.396 606.115,-501.631 603.332,-495.208"/>
</g>
<!-- Node37 -->
<g id="node19" class="node"><title>Node37</title>
<g id="a_node19"><a xlink:href="ImageFeatureTrackingProblem_8h.html" target="_top" xlink:title="src/Tracker/ImageFeature\lTrackingProblem.h">
<polygon fill="white" stroke="black" points="498.5,-368.5 498.5,-398.5 627.5,-398.5 627.5,-368.5 498.5,-368.5"/>
<text text-anchor="start" x="506.5" y="-386.5" font-family="FreeSans" font-size="10.00">src/Tracker/ImageFeature</text>
<text text-anchor="middle" x="563" y="-375.5" font-family="FreeSans" font-size="10.00">TrackingProblem.h</text>
</a>
</g>
</g>
<!-- Node36&#45;&gt;Node37 -->
<g id="edge21" class="edge"><title>Node36&#45;&gt;Node37</title>
<path fill="none" stroke="midnightblue" d="M563,-425.108C563,-416.154 563,-406.323 563,-398.577"/>
<polygon fill="midnightblue" stroke="midnightblue" points="559.5,-425.396 563,-435.396 566.5,-425.396 559.5,-425.396"/>
</g>
<!-- Node37&#45;&gt;Node23 -->
<g id="edge22" class="edge"><title>Node37&#45;&gt;Node23</title>
<path fill="none" stroke="midnightblue" d="M522.587,-364.131C499.865,-353.802 471.943,-341.11 450.968,-331.577"/>
<polygon fill="midnightblue" stroke="midnightblue" points="521.419,-367.444 531.971,-368.396 524.316,-361.072 521.419,-367.444"/>
</g>
<!-- Node37&#45;&gt;Node25 -->
<g id="edge23" class="edge"><title>Node37&#45;&gt;Node25</title>
<path fill="none" stroke="midnightblue" d="M562.171,-358.282C560.612,-312.731 557.309,-216.23 556.299,-186.742"/>
<polygon fill="midnightblue" stroke="midnightblue" points="558.679,-358.57 562.519,-368.444 565.675,-358.33 558.679,-358.57"/>
</g>
<!-- Node37&#45;&gt;Node30 -->
<g id="edge25" class="edge"><title>Node37&#45;&gt;Node30</title>
<path fill="none" stroke="midnightblue" d="M576.319,-359.225C586.134,-342.591 600.135,-319.901 614,-301 647.213,-255.722 692.618,-206.118 710.893,-186.582"/>
<polygon fill="midnightblue" stroke="midnightblue" points="573.073,-357.844 571.056,-368.245 579.119,-361.372 573.073,-357.844"/>
</g>
<!-- Node38 -->
<g id="node20" class="node"><title>Node38</title>
<g id="a_node20"><a xlink:href="ImageFeatureTrackingProblem_8cpp.html" target="_top" xlink:title="src/Tracker/ImageFeature\lTrackingProblem.cpp">
<polygon fill="white" stroke="black" points="622.5,-301.5 622.5,-331.5 751.5,-331.5 751.5,-301.5 622.5,-301.5"/>
<text text-anchor="start" x="630.5" y="-319.5" font-family="FreeSans" font-size="10.00">src/Tracker/ImageFeature</text>
<text text-anchor="middle" x="687" y="-308.5" font-family="FreeSans" font-size="10.00">TrackingProblem.cpp</text>
</a>
</g>
</g>
<!-- Node37&#45;&gt;Node38 -->
<g id="edge24" class="edge"><title>Node37&#45;&gt;Node38</title>
<path fill="none" stroke="midnightblue" d="M598.837,-363.714C618.394,-353.463 642.202,-340.983 660.146,-331.577"/>
<polygon fill="midnightblue" stroke="midnightblue" points="597.138,-360.653 589.906,-368.396 600.388,-366.853 597.138,-360.653"/>
</g>
</g>
</svg>
        <g id="navigator" transform="translate(0 0)" fill="#404254">
                <rect fill="#f2f5e9" fill-opacity="0.5" stroke="#606060" stroke-width=".5" x="0" y="0" width="60" height="60"/>
                <use id="zoomplus" xlink:href="#zoomPlus" x="17" y="9" onmousedown="handleZoom(evt,'in')"/>
                <use id="zoomminus" xlink:href="#zoomMin" x="42" y="9" onmousedown="handleZoom(evt,'out')"/>
                <use id="reset" xlink:href="#resetDef" x="30" y="36" onmousedown="handleReset()"/>
                <g id="arrowUp" xlink:href="#dirArrow" transform="translate(30 24)" onmousedown="handlePan(0,-1)">
                  <use xlink:href="#rim" fill="#404040">
                        <set attributeName="fill" to="#808080" begin="arrowUp.mouseover" end="arrowUp.mouseout"/>
                  </use>
                  <path fill="none" stroke="white" stroke-width="1.5" d="M0,-3.0v7 M-2.5,-0.5L0,-3.0L2.5,-0.5"/>
                </g>
                <g id="arrowRight" xlink:href="#dirArrow" transform="rotate(90) translate(36 -43)" onmousedown="handlePan(1,0)">
                  <use xlink:href="#rim" fill="#404040">
                        <set attributeName="fill" to="#808080" begin="arrowRight.mouseover" end="arrowRight.mouseout"/>
                  </use>
                  <path fill="none" stroke="white" stroke-width="1.5" d="M0,-3.0v7 M-2.5,-0.5L0,-3.0L2.5,-0.5"/>
                </g>
                <g id="arrowDown" xlink:href="#dirArrow" transform="rotate(180) translate(-30 -48)" onmousedown="handlePan(0,1)">
                  <use xlink:href="#rim" fill="#404040">
                        <set attributeName="fill" to="#808080" begin="arrowDown.mouseover" end="arrowDown.mouseout"/>
                  </use>
                  <path fill="none" stroke="white" stroke-width="1.5" d="M0,-3.0v7 M-2.5,-0.5L0,-3.0L2.5,-0.5"/>
                </g>
                <g id="arrowLeft" xlink:href="#dirArrow" transform="rotate(270) translate(-36 17)" onmousedown="handlePan(-1,0)">
                  <use xlink:href="#rim" fill="#404040">
                        <set attributeName="fill" to="#808080" begin="arrowLeft.mouseover" end="arrowLeft.mouseout"/>
                  </use>
                  <path fill="none" stroke="white" stroke-width="1.5" d="M0,-3.0v7 M-2.5,-0.5L0,-3.0L2.5,-0.5"/>
                </g>
        </g>
        <svg viewBox="0 0 15 15" width="100%" height="30px" preserveAspectRatio="xMaxYMin meet">
         <g id="arrow_out" transform="scale(0.3 0.3)">
          <a xlink:href="BoostGeometry_8ipp__dep__incl_org.svg" target="_base">
           <rect id="button" ry="5" rx="5" y="6" x="6" height="38" width="38"
                fill="#f2f5e9" fill-opacity="0.5" stroke="#606060" stroke-width="1.0"/>
           <path id="arrow"
             d="M 11.500037,31.436501 C 11.940474,20.09759 22.043105,11.32322 32.158766,21.979434 L 37.068811,17.246167 C 37.068811,17.246167 37.088388,32 37.088388,32 L 22.160133,31.978069 C 22.160133,31.978069 26.997745,27.140456 26.997745,27.140456 C 18.528582,18.264221 13.291696,25.230495 11.500037,31.436501 z"
             style="fill:#404040;"/>
          </a>
         </g>
        </svg>
</svg>
