<?xml version="1.0" encoding="UTF-8" standalone="no"?>
<!DOCTYPE svg PUBLIC "-//W3C//DTD SVG 1.1//EN"
 "http://www.w3.org/Graphics/SVG/1.1/DTD/svg11.dtd">
<!-- Generated by graphviz version 2.38.0 (20140413.2041)
 -->
<!-- Title: src/Wrappers/BoostDynamicBitset.h Pages: 1 -->
<svg width="2136pt" height="229pt"
 viewBox="0.00 0.00 2136.00 229.00" xmlns="http://www.w3.org/2000/svg" xmlns:xlink="http://www.w3.org/1999/xlink">
<g id="graph0" class="graph" transform="scale(1 1) rotate(0) translate(4 225)">
<title>src/Wrappers/BoostDynamicBitset.h</title>
<polygon fill="white" stroke="none" points="-4,4 -4,-225 2132,-225 2132,4 -4,4"/>
<!-- Node0 -->
<g id="node1" class="node"><title>Node0</title>
<polygon fill="#bfbfbf" stroke="black" points="696,-190.5 696,-220.5 836,-220.5 836,-190.5 696,-190.5"/>
<text text-anchor="start" x="704" y="-208.5" font-family="FreeSans" font-size="10.00">src/Wrappers/BoostDynamic</text>
<text text-anchor="middle" x="766" y="-197.5" font-family="FreeSans" font-size="10.00">Bitset.h</text>
</g>
<!-- Node1 -->
<g id="node2" class="node"><title>Node1</title>
<g id="a_node2"><a xlink:href="BoostDynamicBitset_8ipp.html" target="_top" xlink:title="BoostDynamicBitset.ipp">
<polygon fill="white" stroke="black" points="515,-134.5 515,-153.5 635,-153.5 635,-134.5 515,-134.5"/>
<text text-anchor="middle" x="575" y="-141.5" font-family="FreeSans" font-size="10.00">BoostDynamicBitset.ipp</text>
</a>
</g>
</g>
<!-- Node0&#45;&gt;Node1 -->
<g id="edge1" class="edge"><title>Node0&#45;&gt;Node1</title>
<path fill="none" stroke="midnightblue" d="M720.736,-190.399C687.588,-180.073 643.153,-166.231 612.096,-156.556"/>
<polygon fill="midnightblue" stroke="midnightblue" points="613.102,-153.204 602.513,-153.571 611.02,-159.887 613.102,-153.204"/>
</g>
<!-- Node6 -->
<g id="node7" class="node"><title>Node6</title>
<g id="a_node7"><a xlink:href="boost__dynamic__bitset_8hpp.html" target="_top" xlink:title="../Modified/boost_dynamic\l_bitset.hpp">
<polygon fill="white" stroke="black" points="754,-67.5 754,-97.5 882,-97.5 882,-67.5 754,-67.5"/>
<text text-anchor="start" x="762" y="-85.5" font-family="FreeSans" font-size="10.00">../Modified/boost_dynamic</text>
<text text-anchor="middle" x="818" y="-74.5" font-family="FreeSans" font-size="10.00">_bitset.hpp</text>
</a>
</g>
</g>
<!-- Node0&#45;&gt;Node6 -->
<g id="edge29" class="edge"><title>Node0&#45;&gt;Node6</title>
<path fill="none" stroke="midnightblue" d="M768.462,-190.275C771.294,-175.709 776.659,-152.627 785,-134 789.321,-124.352 795.364,-114.461 801.101,-106.019"/>
<polygon fill="midnightblue" stroke="midnightblue" points="803.982,-108.007 806.882,-97.8167 798.26,-103.974 803.982,-108.007"/>
</g>
<!-- Node29 -->
<g id="node30" class="node"><title>Node29</title>
<polygon fill="white" stroke="#bfbfbf" points="794,-134.5 794,-153.5 824,-153.5 824,-134.5 794,-134.5"/>
<text text-anchor="middle" x="809" y="-141.5" font-family="FreeSans" font-size="10.00">set</text>
</g>
<!-- Node0&#45;&gt;Node29 -->
<g id="edge30" class="edge"><title>Node0&#45;&gt;Node29</title>
<path fill="none" stroke="midnightblue" d="M776.19,-190.399C782.374,-181.842 790.303,-170.871 796.818,-161.857"/>
<polygon fill="midnightblue" stroke="midnightblue" points="799.722,-163.813 802.743,-153.658 794.049,-159.713 799.722,-163.813"/>
</g>
<!-- Node2 -->
<g id="node3" class="node"><title>Node2</title>
<polygon fill="white" stroke="#bfbfbf" points="0,-73 0,-92 128,-92 128,-73 0,-73"/>
<text text-anchor="middle" x="64" y="-80" font-family="FreeSans" font-size="10.00">boost/concept_check.hpp</text>
</g>
<!-- Node1&#45;&gt;Node2 -->
<g id="edge2" class="edge"><title>Node1&#45;&gt;Node2</title>
<path fill="none" stroke="midnightblue" d="M514.911,-138.619C430.302,-132.044 271.365,-118.201 137,-98 129.274,-96.8384 121.124,-95.4165 113.183,-93.9221"/>
<polygon fill="midnightblue" stroke="midnightblue" points="113.766,-90.47 103.283,-92.0046 112.435,-97.3423 113.766,-90.47"/>
</g>
<!-- Node3 -->
<g id="node4" class="node"><title>Node3</title>
<polygon fill="white" stroke="#bfbfbf" points="146,-73 146,-92 274,-92 274,-73 146,-73"/>
<text text-anchor="middle" x="210" y="-80" font-family="FreeSans" font-size="10.00">boost/range/concepts.hpp</text>
</g>
<!-- Node1&#45;&gt;Node3 -->
<g id="edge3" class="edge"><title>Node1&#45;&gt;Node3</title>
<path fill="none" stroke="midnightblue" d="M514.757,-134.491C455.628,-125.957 362.938,-112.092 283,-98 275.914,-96.7508 268.456,-95.359 261.124,-93.9456"/>
<polygon fill="midnightblue" stroke="midnightblue" points="261.736,-90.4991 251.25,-92.0164 260.394,-97.3691 261.736,-90.4991"/>
</g>
<!-- Node4 -->
<g id="node5" class="node"><title>Node4</title>
<polygon fill="white" stroke="#bfbfbf" points="292,-73 292,-92 442,-92 442,-73 292,-73"/>
<text text-anchor="middle" x="367" y="-80" font-family="FreeSans" font-size="10.00">boost/range/metafunctions.hpp</text>
</g>
<!-- Node1&#45;&gt;Node4 -->
<g id="edge4" class="edge"><title>Node1&#45;&gt;Node4</title>
<path fill="none" stroke="midnightblue" d="M545.199,-134.475C508.747,-124.048 446.92,-106.362 406.526,-94.8066"/>
<polygon fill="midnightblue" stroke="midnightblue" points="407.323,-91.3944 396.746,-92.0091 405.398,-98.1244 407.323,-91.3944"/>
</g>
<!-- Node5 -->
<g id="node6" class="node"><title>Node5</title>
<polygon fill="white" stroke="#bfbfbf" points="460,-73 460,-92 588,-92 588,-73 460,-73"/>
<text text-anchor="middle" x="524" y="-80" font-family="FreeSans" font-size="10.00">boost/range/functions.hpp</text>
</g>
<!-- Node1&#45;&gt;Node5 -->
<g id="edge5" class="edge"><title>Node1&#45;&gt;Node5</title>
<path fill="none" stroke="midnightblue" d="M567.693,-134.475C559.967,-125.462 547.592,-111.025 537.982,-99.8118"/>
<polygon fill="midnightblue" stroke="midnightblue" points="540.459,-97.3239 531.294,-92.0091 535.144,-101.879 540.459,-97.3239"/>
</g>
<!-- Node1&#45;&gt;Node6 -->
<g id="edge6" class="edge"><title>Node1&#45;&gt;Node6</title>
<path fill="none" stroke="midnightblue" d="M609.816,-134.475C646.495,-125.494 705.165,-111.128 750.888,-99.9328"/>
<polygon fill="midnightblue" stroke="midnightblue" points="751.849,-103.301 760.73,-97.523 750.184,-96.5018 751.849,-103.301"/>
</g>
<!-- Node27 -->
<g id="node28" class="node"><title>Node27</title>
<polygon fill="white" stroke="#bfbfbf" points="606.5,-73 606.5,-92 655.5,-92 655.5,-73 606.5,-73"/>
<text text-anchor="middle" x="631" y="-80" font-family="FreeSans" font-size="10.00">cstddef</text>
</g>
<!-- Node1&#45;&gt;Node27 -->
<g id="edge27" class="edge"><title>Node1&#45;&gt;Node27</title>
<path fill="none" stroke="midnightblue" d="M583.023,-134.475C591.59,-125.373 605.361,-110.741 615.957,-99.483"/>
<polygon fill="midnightblue" stroke="midnightblue" points="618.686,-101.69 622.991,-92.0091 613.589,-96.8923 618.686,-101.69"/>
</g>
<!-- Node28 -->
<g id="node29" class="node"><title>Node28</title>
<polygon fill="white" stroke="#bfbfbf" points="674,-73 674,-92 736,-92 736,-73 674,-73"/>
<text text-anchor="middle" x="705" y="-80" font-family="FreeSans" font-size="10.00">type_traits</text>
</g>
<!-- Node1&#45;&gt;Node28 -->
<g id="edge28" class="edge"><title>Node1&#45;&gt;Node28</title>
<path fill="none" stroke="midnightblue" d="M593.626,-134.475C615.443,-124.49 651.804,-107.848 677.017,-96.3075"/>
<polygon fill="midnightblue" stroke="midnightblue" points="678.772,-99.3534 686.409,-92.0091 675.859,-92.9884 678.772,-99.3534"/>
</g>
<!-- Node7 -->
<g id="node8" class="node"><title>Node7</title>
<polygon fill="white" stroke="#bfbfbf" points="81.5,-6 81.5,-25 132.5,-25 132.5,-6 81.5,-6"/>
<text text-anchor="middle" x="107" y="-13" font-family="FreeSans" font-size="10.00">assert.h</text>
</g>
<!-- Node6&#45;&gt;Node7 -->
<g id="edge7" class="edge"><title>Node6&#45;&gt;Node7</title>
<path fill="none" stroke="midnightblue" d="M753.987,-68.2714C750.955,-67.8066 747.948,-67.3788 745,-67 478.272,-32.724 402.758,-92.6545 141,-31 138.486,-30.4078 135.922,-29.6434 133.386,-28.7756"/>
<polygon fill="midnightblue" stroke="midnightblue" points="134.495,-25.4513 123.908,-25.0615 131.941,-31.9688 134.495,-25.4513"/>
</g>
<!-- Node8 -->
<g id="node9" class="node"><title>Node8</title>
<polygon fill="white" stroke="#bfbfbf" points="150.5,-6 150.5,-25 191.5,-25 191.5,-6 150.5,-6"/>
<text text-anchor="middle" x="171" y="-13" font-family="FreeSans" font-size="10.00">string</text>
</g>
<!-- Node6&#45;&gt;Node8 -->
<g id="edge8" class="edge"><title>Node6&#45;&gt;Node8</title>
<path fill="none" stroke="midnightblue" d="M753.984,-68.295C750.953,-67.8238 747.946,-67.3883 745,-67 504.33,-35.2861 434.289,-94.5324 200,-31 198.282,-30.5341 196.546,-29.962 194.822,-29.3171"/>
<polygon fill="midnightblue" stroke="midnightblue" points="195.86,-25.9471 185.302,-25.0592 193.002,-32.3371 195.86,-25.9471"/>
</g>
<!-- Node9 -->
<g id="node10" class="node"><title>Node9</title>
<polygon fill="white" stroke="#bfbfbf" points="209.5,-6 209.5,-25 268.5,-25 268.5,-6 209.5,-6"/>
<text text-anchor="middle" x="239" y="-13" font-family="FreeSans" font-size="10.00">stdexcept</text>
</g>
<!-- Node6&#45;&gt;Node9 -->
<g id="edge9" class="edge"><title>Node6&#45;&gt;Node9</title>
<path fill="none" stroke="midnightblue" d="M753.979,-68.3351C750.949,-67.8532 747.944,-67.4044 745,-67 538.765,-38.6714 481.314,-75.707 278,-31 274.924,-30.3237 271.765,-29.4573 268.64,-28.4851"/>
<polygon fill="midnightblue" stroke="midnightblue" points="269.514,-25.0837 258.919,-25.1225 267.225,-31.6992 269.514,-25.0837"/>
</g>
<!-- Node10 -->
<g id="node11" class="node"><title>Node10</title>
<polygon fill="white" stroke="#bfbfbf" points="287,-6 287,-25 343,-25 343,-6 287,-6"/>
<text text-anchor="middle" x="315" y="-13" font-family="FreeSans" font-size="10.00">algorithm</text>
</g>
<!-- Node6&#45;&gt;Node10 -->
<g id="edge10" class="edge"><title>Node6&#45;&gt;Node10</title>
<path fill="none" stroke="midnightblue" d="M753.971,-68.3878C750.943,-67.8918 747.941,-67.4256 745,-67 571.41,-41.8797 522.682,-71.4004 352,-31 349.168,-30.3296 346.264,-29.4863 343.389,-28.5454"/>
<polygon fill="midnightblue" stroke="midnightblue" points="344.468,-25.2135 333.874,-25.0796 342.072,-31.7908 344.468,-25.2135"/>
</g>
<!-- Node11 -->
<g id="node12" class="node"><title>Node11</title>
<polygon fill="white" stroke="#bfbfbf" points="361,-6 361,-25 405,-25 405,-6 361,-6"/>
<text text-anchor="middle" x="383" y="-13" font-family="FreeSans" font-size="10.00">vector</text>
</g>
<!-- Node6&#45;&gt;Node11 -->
<g id="edge11" class="edge"><title>Node6&#45;&gt;Node11</title>
<path fill="none" stroke="midnightblue" d="M753.962,-68.4499C750.936,-67.9373 747.938,-67.4506 745,-67 598.732,-44.5635 556.502,-70.8872 414,-31 412.069,-30.4595 410.108,-29.8095 408.159,-29.0882"/>
<polygon fill="midnightblue" stroke="midnightblue" points="409.276,-25.7598 398.704,-25.0655 406.536,-32.2011 409.276,-25.7598"/>
</g>
<!-- Node12 -->
<g id="node13" class="node"><title>Node12</title>
<polygon fill="white" stroke="#bfbfbf" points="423.5,-6 423.5,-25 468.5,-25 468.5,-6 423.5,-6"/>
<text text-anchor="middle" x="446" y="-13" font-family="FreeSans" font-size="10.00">climits</text>
</g>
<!-- Node6&#45;&gt;Node12 -->
<g id="edge12" class="edge"><title>Node6&#45;&gt;Node12</title>
<path fill="none" stroke="midnightblue" d="M753.947,-68.5418C750.926,-68.0046 747.932,-67.4876 745,-67 626.447,-47.2833 592.315,-64.8497 477,-31 475.119,-30.4478 473.207,-29.7969 471.305,-29.0821"/>
<polygon fill="midnightblue" stroke="midnightblue" points="472.619,-25.8376 462.047,-25.1351 469.873,-32.2768 472.619,-25.8376"/>
</g>
<!-- Node13 -->
<g id="node14" class="node"><title>Node13</title>
<polygon fill="white" stroke="#bfbfbf" points="486.5,-0.5 486.5,-30.5 595.5,-30.5 595.5,-0.5 486.5,-0.5"/>
<text text-anchor="start" x="494.5" y="-18.5" font-family="FreeSans" font-size="10.00">boost/dynamic_bitset</text>
<text text-anchor="middle" x="541" y="-7.5" font-family="FreeSans" font-size="10.00">/config.hpp</text>
</g>
<!-- Node6&#45;&gt;Node13 -->
<g id="edge13" class="edge"><title>Node6&#45;&gt;Node13</title>
<path fill="none" stroke="midnightblue" d="M758.236,-67.476C713.34,-56.9408 651.915,-42.527 605.835,-31.714"/>
<polygon fill="midnightblue" stroke="midnightblue" points="606.487,-28.272 595.952,-29.3949 604.888,-35.0869 606.487,-28.272"/>
</g>
<!-- Node14 -->
<g id="node15" class="node"><title>Node14</title>
<polygon fill="white" stroke="#bfbfbf" points="614,-6 614,-25 656,-25 656,-6 614,-6"/>
<text text-anchor="middle" x="635" y="-13" font-family="FreeSans" font-size="10.00">locale</text>
</g>
<!-- Node6&#45;&gt;Node14 -->
<g id="edge14" class="edge"><title>Node6&#45;&gt;Node14</title>
<path fill="none" stroke="midnightblue" d="M770.206,-67.4987C739.736,-58.139 699.616,-45.0076 665,-31 663.626,-30.444 662.226,-29.8539 660.82,-29.2423"/>
<polygon fill="midnightblue" stroke="midnightblue" points="662.192,-26.0207 651.644,-25.0239 659.268,-32.3809 662.192,-26.0207"/>
</g>
<!-- Node15 -->
<g id="node16" class="node"><title>Node15</title>
<polygon fill="white" stroke="#bfbfbf" points="674.5,-6 674.5,-25 723.5,-25 723.5,-6 674.5,-6"/>
<text text-anchor="middle" x="699" y="-13" font-family="FreeSans" font-size="10.00">istream</text>
</g>
<!-- Node6&#45;&gt;Node15 -->
<g id="edge15" class="edge"><title>Node6&#45;&gt;Node15</title>
<path fill="none" stroke="midnightblue" d="M792.179,-67.396C771.761,-56.2433 743.453,-40.7812 723.411,-29.8336"/>
<polygon fill="midnightblue" stroke="midnightblue" points="725.028,-26.7291 714.574,-25.007 721.673,-32.8724 725.028,-26.7291"/>
</g>
<!-- Node16 -->
<g id="node17" class="node"><title>Node16</title>
<polygon fill="white" stroke="#bfbfbf" points="742,-6 742,-25 794,-25 794,-6 742,-6"/>
<text text-anchor="middle" x="768" y="-13" font-family="FreeSans" font-size="10.00">ostream</text>
</g>
<!-- Node6&#45;&gt;Node16 -->
<g id="edge16" class="edge"><title>Node6&#45;&gt;Node16</title>
<path fill="none" stroke="midnightblue" d="M807.151,-67.396C799.432,-57.3614 789.029,-43.8382 780.887,-33.2535"/>
<polygon fill="midnightblue" stroke="midnightblue" points="783.559,-30.9868 774.688,-25.1945 778.011,-35.2548 783.559,-30.9868"/>
</g>
<!-- Node17 -->
<g id="node18" class="node"><title>Node17</title>
<polygon fill="white" stroke="#bfbfbf" points="812.5,-0.5 812.5,-30.5 921.5,-30.5 921.5,-0.5 812.5,-0.5"/>
<text text-anchor="start" x="820.5" y="-18.5" font-family="FreeSans" font-size="10.00">boost/dynamic_bitset</text>
<text text-anchor="middle" x="867" y="-7.5" font-family="FreeSans" font-size="10.00">_fwd.hpp</text>
</g>
<!-- Node6&#45;&gt;Node17 -->
<g id="edge17" class="edge"><title>Node6&#45;&gt;Node17</title>
<path fill="none" stroke="midnightblue" d="M828.632,-67.396C834.925,-59.0486 843.037,-48.2871 850.181,-38.8113"/>
<polygon fill="midnightblue" stroke="midnightblue" points="853.164,-40.6686 856.388,-30.5765 847.574,-36.4549 853.164,-40.6686"/>
</g>
<!-- Node18 -->
<g id="node19" class="node"><title>Node18</title>
<polygon fill="white" stroke="#bfbfbf" points="940,-0.5 940,-30.5 1046,-30.5 1046,-0.5 940,-0.5"/>
<text text-anchor="start" x="948" y="-18.5" font-family="FreeSans" font-size="10.00">boost/detail/dynamic</text>
<text text-anchor="middle" x="993" y="-7.5" font-family="FreeSans" font-size="10.00">_bitset.hpp</text>
</g>
<!-- Node6&#45;&gt;Node18 -->
<g id="edge18" class="edge"><title>Node6&#45;&gt;Node18</title>
<path fill="none" stroke="midnightblue" d="M855.972,-67.396C882.23,-57.6432 917.36,-44.5949 945.475,-34.152"/>
<polygon fill="midnightblue" stroke="midnightblue" points="946.946,-37.3394 955.102,-30.5765 944.509,-30.7774 946.946,-37.3394"/>
</g>
<!-- Node19 -->
<g id="node20" class="node"><title>Node19</title>
<polygon fill="white" stroke="#bfbfbf" points="1064,-6 1064,-25 1182,-25 1182,-6 1064,-6"/>
<text text-anchor="middle" x="1123" y="-13" font-family="FreeSans" font-size="10.00">boost/detail/iterator.hpp</text>
</g>
<!-- Node6&#45;&gt;Node19 -->
<g id="edge19" class="edge"><title>Node6&#45;&gt;Node19</title>
<path fill="none" stroke="midnightblue" d="M882.126,-67.8387C929.81,-57.6795 996.471,-43.4759 1055,-31 1060.82,-29.7587 1066.93,-28.4573 1072.99,-27.1652"/>
<polygon fill="midnightblue" stroke="midnightblue" points="1074.04,-30.5201 1083.09,-25.0117 1072.58,-23.674 1074.04,-30.5201"/>
</g>
<!-- Node20 -->
<g id="node21" class="node"><title>Node20</title>
<polygon fill="white" stroke="#bfbfbf" points="1200.5,-6 1200.5,-25 1313.5,-25 1313.5,-6 1200.5,-6"/>
<text text-anchor="middle" x="1257" y="-13" font-family="FreeSans" font-size="10.00">boost/move/move.hpp</text>
</g>
<!-- Node6&#45;&gt;Node20 -->
<g id="edge20" class="edge"><title>Node6&#45;&gt;Node20</title>
<path fill="none" stroke="midnightblue" d="M882.27,-74.4157C956.799,-65.8267 1083.22,-50.1023 1191,-31 1197.37,-29.8714 1204.05,-28.5565 1210.62,-27.1879"/>
<polygon fill="midnightblue" stroke="midnightblue" points="1211.75,-30.5267 1220.8,-25.012 1210.28,-23.6816 1211.75,-30.5267"/>
</g>
<!-- Node21 -->
<g id="node22" class="node"><title>Node21</title>
<polygon fill="white" stroke="#bfbfbf" points="1331.5,-6 1331.5,-25 1416.5,-25 1416.5,-6 1331.5,-6"/>
<text text-anchor="middle" x="1374" y="-13" font-family="FreeSans" font-size="10.00">boost/limits.hpp</text>
</g>
<!-- Node6&#45;&gt;Node21 -->
<g id="edge21" class="edge"><title>Node6&#45;&gt;Node21</title>
<path fill="none" stroke="midnightblue" d="M882.297,-78.7248C978.761,-73.74 1166.34,-60.8588 1323,-31 1327.78,-30.0893 1332.76,-28.9367 1337.65,-27.6809"/>
<polygon fill="midnightblue" stroke="midnightblue" points="1338.75,-31.0083 1347.48,-25.0027 1336.91,-24.2544 1338.75,-31.0083"/>
</g>
<!-- Node22 -->
<g id="node23" class="node"><title>Node22</title>
<polygon fill="white" stroke="#bfbfbf" points="1434.5,-0.5 1434.5,-30.5 1543.5,-30.5 1543.5,-0.5 1434.5,-0.5"/>
<text text-anchor="start" x="1442.5" y="-18.5" font-family="FreeSans" font-size="10.00">boost/pending/lowest</text>
<text text-anchor="middle" x="1489" y="-7.5" font-family="FreeSans" font-size="10.00">_bit.hpp</text>
</g>
<!-- Node6&#45;&gt;Node22 -->
<g id="edge22" class="edge"><title>Node6&#45;&gt;Node22</title>
<path fill="none" stroke="midnightblue" d="M882.258,-79.1916C991.782,-74.594 1221.68,-62.0642 1424.51,-31.0937"/>
<polygon fill="midnightblue" stroke="midnightblue" points="1425.11,-34.5434 1434.46,-29.5572 1424.04,-27.6255 1425.11,-34.5434"/>
</g>
<!-- Node23 -->
<g id="node24" class="node"><title>Node23</title>
<polygon fill="white" stroke="#bfbfbf" points="1562,-6 1562,-25 1680,-25 1680,-6 1562,-6"/>
<text text-anchor="middle" x="1621" y="-13" font-family="FreeSans" font-size="10.00">boost/static_assert.hpp</text>
</g>
<!-- Node6&#45;&gt;Node23 -->
<g id="edge23" class="edge"><title>Node6&#45;&gt;Node23</title>
<path fill="none" stroke="midnightblue" d="M882.22,-80.1393C1010.36,-76.7526 1306.64,-65.5533 1553,-31 1560.31,-29.9741 1568.02,-28.6103 1575.5,-27.1287"/>
<polygon fill="midnightblue" stroke="midnightblue" points="1576.44,-30.5092 1585.52,-25.056 1575.02,-23.6543 1576.44,-30.5092"/>
</g>
<!-- Node24 -->
<g id="node25" class="node"><title>Node24</title>
<polygon fill="white" stroke="#bfbfbf" points="1698,-6 1698,-25 1828,-25 1828,-6 1698,-6"/>
<text text-anchor="middle" x="1763" y="-13" font-family="FreeSans" font-size="10.00">boost/utility/addressof.hpp</text>
</g>
<!-- Node6&#45;&gt;Node24 -->
<g id="edge24" class="edge"><title>Node6&#45;&gt;Node24</title>
<path fill="none" stroke="midnightblue" d="M882.199,-80.7513C1026.8,-78.4155 1388.83,-68.933 1689,-31 1697.4,-29.9383 1706.28,-28.4873 1714.86,-26.9115"/>
<polygon fill="midnightblue" stroke="midnightblue" points="1715.59,-30.3365 1724.75,-25.0203 1714.27,-23.4611 1715.59,-30.3365"/>
</g>
<!-- Node25 -->
<g id="node26" class="node"><title>Node25</title>
<polygon fill="white" stroke="#bfbfbf" points="1846,-0.5 1846,-30.5 1978,-30.5 1978,-0.5 1846,-0.5"/>
<text text-anchor="start" x="1854" y="-18.5" font-family="FreeSans" font-size="10.00">boost/detail/no_exceptions</text>
<text text-anchor="middle" x="1912" y="-7.5" font-family="FreeSans" font-size="10.00">_support.hpp</text>
</g>
<!-- Node6&#45;&gt;Node25 -->
<g id="edge25" class="edge"><title>Node6&#45;&gt;Node25</title>
<path fill="none" stroke="midnightblue" d="M882.055,-81.4637C1041.67,-80.6995 1470,-74.5118 1835.84,-31.0186"/>
<polygon fill="midnightblue" stroke="midnightblue" points="1836.32,-34.4866 1845.83,-29.8199 1835.48,-27.5364 1836.32,-34.4866"/>
</g>
<!-- Node26 -->
<g id="node27" class="node"><title>Node26</title>
<polygon fill="white" stroke="#bfbfbf" points="1996,-6 1996,-25 2128,-25 2128,-6 1996,-6"/>
<text text-anchor="middle" x="2062" y="-13" font-family="FreeSans" font-size="10.00">boost/throw_exception.hpp</text>
</g>
<!-- Node6&#45;&gt;Node26 -->
<g id="edge26" class="edge"><title>Node6&#45;&gt;Node26</title>
<path fill="none" stroke="midnightblue" d="M882.26,-82.0479C1059.14,-82.84 1567.86,-80.2957 1987,-31 1995.71,-29.9758 2004.92,-28.5134 2013.8,-26.9075"/>
<polygon fill="midnightblue" stroke="midnightblue" points="2014.45,-30.3454 2023.63,-25.0492 2013.15,-23.4671 2014.45,-30.3454"/>
</g>
</g>
</svg>
