<?xml version="1.0" encoding="UTF-8" standalone="no"?>
<!DOCTYPE svg PUBLIC "-//W3C//DTD SVG 1.1//EN"
 "http://www.w3.org/Graphics/SVG/1.1/DTD/svg11.dtd">
<!-- Generated by graphviz version 2.38.0 (20140413.2041)
 -->
<!-- Title: src/Wrappers/BoostTokenizer.h Pages: 1 -->
<svg width="494pt" height="140pt"
 viewBox="0.00 0.00 494.00 140.00" xmlns="http://www.w3.org/2000/svg" xmlns:xlink="http://www.w3.org/1999/xlink">
<g id="graph0" class="graph" transform="scale(1 1) rotate(0) translate(4 136)">
<title>src/Wrappers/BoostTokenizer.h</title>
<polygon fill="white" stroke="none" points="-4,4 -4,-136 490,-136 490,4 -4,4"/>
<!-- Node0 -->
<g id="node1" class="node"><title>Node0</title>
<polygon fill="#bfbfbf" stroke="black" points="226.5,-112.5 226.5,-131.5 378.5,-131.5 378.5,-112.5 226.5,-112.5"/>
<text text-anchor="middle" x="302.5" y="-119.5" font-family="FreeSans" font-size="10.00">src/Wrappers/BoostTokenizer.h</text>
</g>
<!-- Node1 -->
<g id="node2" class="node"><title>Node1</title>
<g id="a_node2"><a xlink:href="BoostTokenizer_8ipp.html" target="_top" xlink:title="BoostTokenizer.ipp">
<polygon fill="white" stroke="black" points="253,-56.5 253,-75.5 352,-75.5 352,-56.5 253,-56.5"/>
<text text-anchor="middle" x="302.5" y="-63.5" font-family="FreeSans" font-size="10.00">BoostTokenizer.ipp</text>
</a>
</g>
</g>
<!-- Node0&#45;&gt;Node1 -->
<g id="edge1" class="edge"><title>Node0&#45;&gt;Node1</title>
<path fill="none" stroke="midnightblue" d="M302.5,-112.083C302.5,-105.006 302.5,-94.8611 302.5,-85.9865"/>
<polygon fill="midnightblue" stroke="midnightblue" points="306,-85.751 302.5,-75.7511 299,-85.7511 306,-85.751"/>
</g>
<!-- Node2 -->
<g id="node3" class="node"><title>Node2</title>
<polygon fill="white" stroke="#bfbfbf" points="0,-0.5 0,-19.5 113,-19.5 113,-0.5 0,-0.5"/>
<text text-anchor="middle" x="56.5" y="-7.5" font-family="FreeSans" font-size="10.00">boost/lexical_cast.hpp</text>
</g>
<!-- Node1&#45;&gt;Node2 -->
<g id="edge2" class="edge"><title>Node1&#45;&gt;Node2</title>
<path fill="none" stroke="midnightblue" d="M263.521,-56.4435C220.606,-47.0234 151.554,-31.8656 105.131,-21.6752"/>
<polygon fill="midnightblue" stroke="midnightblue" points="105.815,-18.242 95.2971,-19.5164 104.314,-25.0792 105.815,-18.242"/>
</g>
<!-- Node3 -->
<g id="node4" class="node"><title>Node3</title>
<polygon fill="white" stroke="#bfbfbf" points="131,-0.5 131,-19.5 232,-19.5 232,-0.5 131,-0.5"/>
<text text-anchor="middle" x="181.5" y="-7.5" font-family="FreeSans" font-size="10.00">boost/tokenizer.hpp</text>
</g>
<!-- Node1&#45;&gt;Node3 -->
<g id="edge3" class="edge"><title>Node1&#45;&gt;Node3</title>
<path fill="none" stroke="midnightblue" d="M283.327,-56.4435C263.591,-47.6356 232.615,-33.8116 210.007,-23.722"/>
<polygon fill="midnightblue" stroke="midnightblue" points="211.141,-20.3957 200.583,-19.5164 208.289,-26.788 211.141,-20.3957"/>
</g>
<!-- Node4 -->
<g id="node5" class="node"><title>Node4</title>
<polygon fill="white" stroke="#bfbfbf" points="250.5,-0.5 250.5,-19.5 294.5,-19.5 294.5,-0.5 250.5,-0.5"/>
<text text-anchor="middle" x="272.5" y="-7.5" font-family="FreeSans" font-size="10.00">vector</text>
</g>
<!-- Node1&#45;&gt;Node4 -->
<g id="edge4" class="edge"><title>Node1&#45;&gt;Node4</title>
<path fill="none" stroke="midnightblue" d="M297.546,-56.083C293.396,-48.6127 287.347,-37.7244 282.233,-28.5199"/>
<polygon fill="midnightblue" stroke="midnightblue" points="285.278,-26.7929 277.362,-19.7511 279.159,-30.1924 285.278,-26.7929"/>
</g>
<!-- Node5 -->
<g id="node6" class="node"><title>Node5</title>
<polygon fill="white" stroke="#bfbfbf" points="313,-0.5 313,-19.5 354,-19.5 354,-0.5 313,-0.5"/>
<text text-anchor="middle" x="333.5" y="-7.5" font-family="FreeSans" font-size="10.00">string</text>
</g>
<!-- Node1&#45;&gt;Node5 -->
<g id="edge5" class="edge"><title>Node1&#45;&gt;Node5</title>
<path fill="none" stroke="midnightblue" d="M307.619,-56.083C311.908,-48.6127 318.158,-37.7244 323.442,-28.5199"/>
<polygon fill="midnightblue" stroke="midnightblue" points="326.533,-30.1662 328.476,-19.7511 320.462,-26.6811 326.533,-30.1662"/>
</g>
<!-- Node6 -->
<g id="node7" class="node"><title>Node6</title>
<polygon fill="white" stroke="#bfbfbf" points="372,-0.5 372,-19.5 421,-19.5 421,-0.5 372,-0.5"/>
<text text-anchor="middle" x="396.5" y="-7.5" font-family="FreeSans" font-size="10.00">cstddef</text>
</g>
<!-- Node1&#45;&gt;Node6 -->
<g id="edge6" class="edge"><title>Node1&#45;&gt;Node6</title>
<path fill="none" stroke="midnightblue" d="M317.603,-56.324C332.403,-47.8215 355.194,-34.7288 372.482,-24.7975"/>
<polygon fill="midnightblue" stroke="midnightblue" points="374.507,-27.6707 381.435,-19.6545 371.02,-21.6009 374.507,-27.6707"/>
</g>
<!-- Node7 -->
<g id="node8" class="node"><title>Node7</title>
<polygon fill="white" stroke="#bfbfbf" points="439,-0.5 439,-19.5 486,-19.5 486,-0.5 439,-0.5"/>
<text text-anchor="middle" x="462.5" y="-7.5" font-family="FreeSans" font-size="10.00">iterator</text>
</g>
<!-- Node1&#45;&gt;Node7 -->
<g id="edge7" class="edge"><title>Node1&#45;&gt;Node7</title>
<path fill="none" stroke="midnightblue" d="M327.852,-56.4435C355.244,-47.1988 399.009,-32.4281 429.168,-22.2495"/>
<polygon fill="midnightblue" stroke="midnightblue" points="430.475,-25.5024 438.831,-18.9883 428.237,-18.8699 430.475,-25.5024"/>
</g>
</g>
</svg>
