<?xml version="1.0" encoding="UTF-8" standalone="no"?>
<!DOCTYPE svg PUBLIC "-//W3C//DTD SVG 1.1//EN"
 "http://www.w3.org/Graphics/SVG/1.1/DTD/svg11.dtd">
<!-- Generated by graphviz version 2.38.0 (20140413.2041)
 -->
<!-- Title: src/GeometryEstimationPipeline/CalibrationVerificationPipeline.h Pages: 1 -->
<!--zoomable 273 -->
<svg id="main" version="1.1" xmlns="http://www.w3.org/2000/svg" xmlns:xlink="http://www.w3.org/1999/xlink" xml:space="preserve" onload="init(evt)">
<style type="text/css"><![CDATA[
.edge:hover path { stroke: red; }
.edge:hover polygon { stroke: red; fill: red; }
]]></style>
<script type="text/javascript"><![CDATA[
var edges = document.getElementsByTagName('g');
if (edges && edges.length) {
  for (var i=0;i<edges.length;i++) {
    if (edges[i].id.substr(0,4)=='edge') {
      edges[i].setAttribute('class','edge');
    }
  }
}
]]></script>
        <defs>
                <circle id="rim" cx="0" cy="0" r="7"/>
                <circle id="rim2" cx="0" cy="0" r="3.5"/>
                <g id="zoomPlus">
                        <use xlink:href="#rim" fill="#404040">
                                <set attributeName="fill" to="#808080" begin="zoomplus.mouseover" end="zoomplus.mouseout"/>
                        </use>
                        <path d="M-4,0h8M0,-4v8" fill="none" stroke="white" stroke-width="1.5" pointer-events="none"/>
                </g>
                <g id="zoomMin">
                        <use xlink:href="#rim" fill="#404040">
                                <set attributeName="fill" to="#808080" begin="zoomminus.mouseover" end="zoomminus.mouseout"/>
                        </use>
                        <path d="M-4,0h8" fill="none" stroke="white" stroke-width="1.5" pointer-events="none"/>
                </g>
                <g id="dirArrow">
                        <path fill="none" stroke="white" stroke-width="1.5" d="M0,-3.0v7 M-2.5,-0.5L0,-3.0L2.5,-0.5"/>
                </g>
               <g id="resetDef">
                       <use xlink:href="#rim2" fill="#404040">
                               <set attributeName="fill" to="#808080" begin="reset.mouseover" end="reset.mouseout"/>
                       </use>
               </g>
        </defs>

<script type="text/javascript">
var viewWidth = 643;
var viewHeight = 273;
var sectionId = 'dynsection-1';
</script>
<script xlink:href="svgpan.js"/>
<svg id="graph" class="graph">
<g id="viewport">
<title>src/GeometryEstimationPipeline/CalibrationVerificationPipeline.h</title>
<polygon fill="white" stroke="none" points="-4,4 -4,-269 639,-269 639,4 -4,4"/>
<!-- Node218 -->
<g id="node1" class="node"><title>Node218</title>
<polygon fill="#bfbfbf" stroke="black" points="188,-234.5 188,-264.5 343,-264.5 343,-234.5 188,-234.5"/>
<text text-anchor="start" x="196" y="-252.5" font-family="FreeSans" font-size="10.00">src/GeometryEstimationPipeline</text>
<text text-anchor="middle" x="265.5" y="-241.5" font-family="FreeSans" font-size="10.00">/CalibrationVerificationPipeline.h</text>
</g>
<!-- Node219 -->
<g id="node2" class="node"><title>Node219</title>
<g id="a_node2"><a xlink:href="AppCalibrationVerification_8cpp.html" target="_top" xlink:title="src/Application/AppCalibration\lVerification.cpp">
<polygon fill="white" stroke="black" points="0,-6 0,-36 147,-36 147,-6 0,-6"/>
<text text-anchor="start" x="8" y="-24" font-family="FreeSans" font-size="10.00">src/Application/AppCalibration</text>
<text text-anchor="middle" x="73.5" y="-13" font-family="FreeSans" font-size="10.00">Verification.cpp</text>
</a>
</g>
</g>
<!-- Node218&#45;&gt;Node219 -->
<g id="edge1" class="edge"><title>Node218&#45;&gt;Node219</title>
<path fill="none" stroke="midnightblue" d="M177.657,-242.744C146.281,-236.127 113.527,-223.108 92.5,-198 52.8388,-150.64 63.7451,-69.1513 70.2621,-36.3226"/>
<polygon fill="midnightblue" stroke="midnightblue" points="177.3,-246.239 187.779,-244.675 178.612,-239.363 177.3,-246.239"/>
</g>
<!-- Node220 -->
<g id="node3" class="node"><title>Node220</title>
<g id="a_node3"><a xlink:href="InterfaceCalibrationVerificationPipeline_8ipp.html" target="_top" xlink:title="src/ApplicationInterface\l/InterfaceCalibrationVerification\lPipeline.ipp">
<polygon fill="white" stroke="black" points="101.5,-156.5 101.5,-197.5 253.5,-197.5 253.5,-156.5 101.5,-156.5"/>
<text text-anchor="start" x="109.5" y="-185.5" font-family="FreeSans" font-size="10.00">src/ApplicationInterface</text>
<text text-anchor="start" x="109.5" y="-174.5" font-family="FreeSans" font-size="10.00">/InterfaceCalibrationVerification</text>
<text text-anchor="middle" x="177.5" y="-163.5" font-family="FreeSans" font-size="10.00">Pipeline.ipp</text>
</a>
</g>
</g>
<!-- Node218&#45;&gt;Node220 -->
<g id="edge2" class="edge"><title>Node218&#45;&gt;Node220</title>
<path fill="none" stroke="midnightblue" d="M239.828,-227.933C227.882,-218.363 213.741,-207.034 201.951,-197.588"/>
<polygon fill="midnightblue" stroke="midnightblue" points="237.699,-230.712 247.692,-234.233 242.076,-225.249 237.699,-230.712"/>
</g>
<!-- Node223 -->
<g id="node6" class="node"><title>Node223</title>
<g id="a_node6"><a xlink:href="CalibrationVerificationPipeline_8cpp.html" target="_top" xlink:title="src/GeometryEstimationPipeline\l/CalibrationVerificationPipeline.cpp">
<polygon fill="white" stroke="black" points="271.5,-162 271.5,-192 437.5,-192 437.5,-162 271.5,-162"/>
<text text-anchor="start" x="279.5" y="-180" font-family="FreeSans" font-size="10.00">src/GeometryEstimationPipeline</text>
<text text-anchor="middle" x="354.5" y="-169" font-family="FreeSans" font-size="10.00">/CalibrationVerificationPipeline.cpp</text>
</a>
</g>
</g>
<!-- Node218&#45;&gt;Node223 -->
<g id="edge6" class="edge"><title>Node218&#45;&gt;Node223</title>
<path fill="none" stroke="midnightblue" d="M291.647,-227.788C306.192,-216.266 323.908,-202.233 336.82,-192.005"/>
<polygon fill="midnightblue" stroke="midnightblue" points="289.176,-225.28 283.51,-234.233 293.522,-230.767 289.176,-225.28"/>
</g>
<!-- Node224 -->
<g id="node7" class="node"><title>Node224</title>
<g id="a_node7"><a xlink:href="TestGeometryEstimationPipeline_8cpp.html" target="_top" xlink:title="src/GeometryEstimationPipeline\l/TestGeometryEstimationPipeline.cpp">
<polygon fill="white" stroke="black" points="456,-162 456,-192 635,-192 635,-162 456,-162"/>
<text text-anchor="start" x="464" y="-180" font-family="FreeSans" font-size="10.00">src/GeometryEstimationPipeline</text>
<text text-anchor="middle" x="545.5" y="-169" font-family="FreeSans" font-size="10.00">/TestGeometryEstimationPipeline.cpp</text>
</a>
</g>
</g>
<!-- Node218&#45;&gt;Node224 -->
<g id="edge7" class="edge"><title>Node218&#45;&gt;Node224</title>
<path fill="none" stroke="midnightblue" d="M331.152,-231.97C379.238,-219.862 443.808,-203.605 489.473,-192.107"/>
<polygon fill="midnightblue" stroke="midnightblue" points="329.996,-228.651 321.154,-234.487 331.706,-235.44 329.996,-228.651"/>
</g>
<!-- Node221 -->
<g id="node4" class="node"><title>Node221</title>
<g id="a_node4"><a xlink:href="InterfaceCalibrationVerificationPipeline_8h.html" target="_top" xlink:title="src/ApplicationInterface\l/InterfaceCalibrationVerification\lPipeline.h">
<polygon fill="white" stroke="black" points="101.5,-78.5 101.5,-119.5 253.5,-119.5 253.5,-78.5 101.5,-78.5"/>
<text text-anchor="start" x="109.5" y="-107.5" font-family="FreeSans" font-size="10.00">src/ApplicationInterface</text>
<text text-anchor="start" x="109.5" y="-96.5" font-family="FreeSans" font-size="10.00">/InterfaceCalibrationVerification</text>
<text text-anchor="middle" x="177.5" y="-85.5" font-family="FreeSans" font-size="10.00">Pipeline.h</text>
</a>
</g>
</g>
<!-- Node220&#45;&gt;Node221 -->
<g id="edge3" class="edge"><title>Node220&#45;&gt;Node221</title>
<path fill="none" stroke="midnightblue" d="M177.5,-146.297C177.5,-137.301 177.5,-127.653 177.5,-119.506"/>
<polygon fill="midnightblue" stroke="midnightblue" points="174,-146.428 177.5,-156.428 181,-146.428 174,-146.428"/>
</g>
<!-- Node221&#45;&gt;Node219 -->
<g id="edge4" class="edge"><title>Node221&#45;&gt;Node219</title>
<path fill="none" stroke="midnightblue" d="M142.364,-72.3238C125.87,-60.2703 106.837,-46.3617 92.9663,-36.2254"/>
<polygon fill="midnightblue" stroke="midnightblue" points="140.578,-75.3538 150.717,-78.4281 144.709,-69.702 140.578,-75.3538"/>
</g>
<!-- Node222 -->
<g id="node5" class="node"><title>Node222</title>
<g id="a_node5"><a xlink:href="InterfaceCalibrationVerificationPipeline_8cpp.html" target="_top" xlink:title="src/ApplicationInterface\l/InterfaceCalibrationVerification\lPipeline.cpp">
<polygon fill="white" stroke="black" points="165.5,-0.5 165.5,-41.5 317.5,-41.5 317.5,-0.5 165.5,-0.5"/>
<text text-anchor="start" x="173.5" y="-29.5" font-family="FreeSans" font-size="10.00">src/ApplicationInterface</text>
<text text-anchor="start" x="173.5" y="-18.5" font-family="FreeSans" font-size="10.00">/InterfaceCalibrationVerification</text>
<text text-anchor="middle" x="241.5" y="-7.5" font-family="FreeSans" font-size="10.00">Pipeline.cpp</text>
</a>
</g>
</g>
<!-- Node221&#45;&gt;Node222 -->
<g id="edge5" class="edge"><title>Node221&#45;&gt;Node222</title>
<path fill="none" stroke="midnightblue" d="M200.551,-70.627C208.666,-60.9901 217.617,-50.3617 225.074,-41.5056"/>
<polygon fill="midnightblue" stroke="midnightblue" points="197.746,-68.5245 193.982,-78.4281 203.1,-73.0335 197.746,-68.5245"/>
</g>
</g>
</svg>
        <g id="navigator" transform="translate(0 0)" fill="#404254">
                <rect fill="#f2f5e9" fill-opacity="0.5" stroke="#606060" stroke-width=".5" x="0" y="0" width="60" height="60"/>
                <use id="zoomplus" xlink:href="#zoomPlus" x="17" y="9" onmousedown="handleZoom(evt,'in')"/>
                <use id="zoomminus" xlink:href="#zoomMin" x="42" y="9" onmousedown="handleZoom(evt,'out')"/>
                <use id="reset" xlink:href="#resetDef" x="30" y="36" onmousedown="handleReset()"/>
                <g id="arrowUp" xlink:href="#dirArrow" transform="translate(30 24)" onmousedown="handlePan(0,-1)">
                  <use xlink:href="#rim" fill="#404040">
                        <set attributeName="fill" to="#808080" begin="arrowUp.mouseover" end="arrowUp.mouseout"/>
                  </use>
                  <path fill="none" stroke="white" stroke-width="1.5" d="M0,-3.0v7 M-2.5,-0.5L0,-3.0L2.5,-0.5"/>
                </g>
                <g id="arrowRight" xlink:href="#dirArrow" transform="rotate(90) translate(36 -43)" onmousedown="handlePan(1,0)">
                  <use xlink:href="#rim" fill="#404040">
                        <set attributeName="fill" to="#808080" begin="arrowRight.mouseover" end="arrowRight.mouseout"/>
                  </use>
                  <path fill="none" stroke="white" stroke-width="1.5" d="M0,-3.0v7 M-2.5,-0.5L0,-3.0L2.5,-0.5"/>
                </g>
                <g id="arrowDown" xlink:href="#dirArrow" transform="rotate(180) translate(-30 -48)" onmousedown="handlePan(0,1)">
                  <use xlink:href="#rim" fill="#404040">
                        <set attributeName="fill" to="#808080" begin="arrowDown.mouseover" end="arrowDown.mouseout"/>
                  </use>
                  <path fill="none" stroke="white" stroke-width="1.5" d="M0,-3.0v7 M-2.5,-0.5L0,-3.0L2.5,-0.5"/>
                </g>
                <g id="arrowLeft" xlink:href="#dirArrow" transform="rotate(270) translate(-36 17)" onmousedown="handlePan(-1,0)">
                  <use xlink:href="#rim" fill="#404040">
                        <set attributeName="fill" to="#808080" begin="arrowLeft.mouseover" end="arrowLeft.mouseout"/>
                  </use>
                  <path fill="none" stroke="white" stroke-width="1.5" d="M0,-3.0v7 M-2.5,-0.5L0,-3.0L2.5,-0.5"/>
                </g>
        </g>
        <svg viewBox="0 0 15 15" width="100%" height="30px" preserveAspectRatio="xMaxYMin meet">
         <g id="arrow_out" transform="scale(0.3 0.3)">
          <a xlink:href="CalibrationVerificationPipeline_8h__dep__incl_org.svg" target="_base">
           <rect id="button" ry="5" rx="5" y="6" x="6" height="38" width="38"
                fill="#f2f5e9" fill-opacity="0.5" stroke="#606060" stroke-width="1.0"/>
           <path id="arrow"
             d="M 11.500037,31.436501 C 11.940474,20.09759 22.043105,11.32322 32.158766,21.979434 L 37.068811,17.246167 C 37.068811,17.246167 37.088388,32 37.088388,32 L 22.160133,31.978069 C 22.160133,31.978069 26.997745,27.140456 26.997745,27.140456 C 18.528582,18.264221 13.291696,25.230495 11.500037,31.436501 z"
             style="fill:#404040;"/>
          </a>
         </g>
        </svg>
</svg>
