<?xml version="1.0" encoding="UTF-8" standalone="no"?>
<!DOCTYPE svg PUBLIC "-//W3C//DTD SVG 1.1//EN"
 "http://www.w3.org/Graphics/SVG/1.1/DTD/svg11.dtd">
<!-- Generated by graphviz version 2.38.0 (20140413.2041)
 -->
<!-- Title: src/IO/CameraIO.ipp Pages: 1 -->
<svg width="2337pt" height="151pt"
 viewBox="0.00 0.00 2336.50 151.00" xmlns="http://www.w3.org/2000/svg" xmlns:xlink="http://www.w3.org/1999/xlink">
<g id="graph0" class="graph" transform="scale(1 1) rotate(0) translate(4 147)">
<title>src/IO/CameraIO.ipp</title>
<polygon fill="white" stroke="none" points="-4,4 -4,-147 2332.5,-147 2332.5,4 -4,4"/>
<!-- Node100 -->
<g id="node1" class="node"><title>Node100</title>
<polygon fill="#bfbfbf" stroke="black" points="1146.5,-123.5 1146.5,-142.5 1252.5,-142.5 1252.5,-123.5 1146.5,-123.5"/>
<text text-anchor="middle" x="1199.5" y="-130.5" font-family="FreeSans" font-size="10.00">src/IO/CameraIO.ipp</text>
</g>
<!-- Node101 -->
<g id="node2" class="node"><title>Node101</title>
<g id="a_node2"><a xlink:href="CameraIO_8h.html" target="_top" xlink:title="src/IO/CameraIO.h">
<polygon fill="white" stroke="black" points="1150.5,-67.5 1150.5,-86.5 1248.5,-86.5 1248.5,-67.5 1150.5,-67.5"/>
<text text-anchor="middle" x="1199.5" y="-74.5" font-family="FreeSans" font-size="10.00">src/IO/CameraIO.h</text>
</a>
</g>
</g>
<!-- Node100&#45;&gt;Node101 -->
<g id="edge1" class="edge"><title>Node100&#45;&gt;Node101</title>
<path fill="none" stroke="midnightblue" d="M1199.5,-112.805C1199.5,-103.91 1199.5,-93.7798 1199.5,-86.7511"/>
<polygon fill="midnightblue" stroke="midnightblue" points="1196,-113.083 1199.5,-123.083 1203,-113.083 1196,-113.083"/>
</g>
<!-- Node102 -->
<g id="node3" class="node"><title>Node102</title>
<g id="a_node3"><a xlink:href="AppCalibrationVerification_8cpp.html" target="_top" xlink:title="src/Application/AppCalibration\lVerification.cpp">
<polygon fill="white" stroke="black" points="0,-0.5 0,-30.5 147,-30.5 147,-0.5 0,-0.5"/>
<text text-anchor="start" x="8" y="-18.5" font-family="FreeSans" font-size="10.00">src/Application/AppCalibration</text>
<text text-anchor="middle" x="73.5" y="-7.5" font-family="FreeSans" font-size="10.00">Verification.cpp</text>
</a>
</g>
</g>
<!-- Node101&#45;&gt;Node102 -->
<g id="edge2" class="edge"><title>Node101&#45;&gt;Node102</title>
<path fill="none" stroke="midnightblue" d="M1140.32,-76.1772C980.806,-76.066 528.726,-71.8618 155.5,-31 152.769,-30.7011 149.993,-30.3666 147.191,-30.0036"/>
<polygon fill="midnightblue" stroke="midnightblue" points="1140.4,-79.6771 1150.41,-76.1789 1140.41,-72.6771 1140.4,-79.6771"/>
</g>
<!-- Node103 -->
<g id="node4" class="node"><title>Node103</title>
<g id="a_node4"><a xlink:href="AppGeometryEstimator22_8cpp.html" target="_top" xlink:title="src/Application/AppGeometry\lEstimator22.cpp">
<polygon fill="white" stroke="black" points="165,-0.5 165,-30.5 308,-30.5 308,-0.5 165,-0.5"/>
<text text-anchor="start" x="173" y="-18.5" font-family="FreeSans" font-size="10.00">src/Application/AppGeometry</text>
<text text-anchor="middle" x="236.5" y="-7.5" font-family="FreeSans" font-size="10.00">Estimator22.cpp</text>
</a>
</g>
</g>
<!-- Node101&#45;&gt;Node103 -->
<g id="edge3" class="edge"><title>Node101&#45;&gt;Node103</title>
<path fill="none" stroke="midnightblue" d="M1140.24,-75.6016C997.814,-74.074 625.175,-66.6897 316.5,-31 313.836,-30.692 311.127,-30.3498 308.393,-29.9802"/>
<polygon fill="midnightblue" stroke="midnightblue" points="1140.46,-79.1039 1150.5,-75.7057 1140.53,-72.1043 1140.46,-79.1039"/>
</g>
<!-- Node104 -->
<g id="node5" class="node"><title>Node104</title>
<g id="a_node5"><a xlink:href="AppGeometryEstimator32_8cpp.html" target="_top" xlink:title="src/Application/AppGeometry\lEstimator32.cpp">
<polygon fill="white" stroke="black" points="326,-0.5 326,-30.5 469,-30.5 469,-0.5 326,-0.5"/>
<text text-anchor="start" x="334" y="-18.5" font-family="FreeSans" font-size="10.00">src/Application/AppGeometry</text>
<text text-anchor="middle" x="397.5" y="-7.5" font-family="FreeSans" font-size="10.00">Estimator32.cpp</text>
</a>
</g>
</g>
<!-- Node101&#45;&gt;Node104 -->
<g id="edge4" class="edge"><title>Node101&#45;&gt;Node104</title>
<path fill="none" stroke="midnightblue" d="M1140.28,-74.6546C1016.7,-71.3316 722.458,-60.7295 477.5,-31 474.838,-30.6769 472.13,-30.3219 469.398,-29.9414"/>
<polygon fill="midnightblue" stroke="midnightblue" points="1140.21,-78.1538 1150.29,-74.9179 1140.39,-71.1562 1140.21,-78.1538"/>
</g>
<!-- Node105 -->
<g id="node6" class="node"><title>Node105</title>
<g id="a_node6"><a xlink:href="AppIntrinsicsEstimator_8cpp.html" target="_top" xlink:title="src/Application/AppIntrinsics\lEstimator.cpp">
<polygon fill="white" stroke="black" points="487,-0.5 487,-30.5 628,-30.5 628,-0.5 487,-0.5"/>
<text text-anchor="start" x="495" y="-18.5" font-family="FreeSans" font-size="10.00">src/Application/AppIntrinsics</text>
<text text-anchor="middle" x="557.5" y="-7.5" font-family="FreeSans" font-size="10.00">Estimator.cpp</text>
</a>
</g>
</g>
<!-- Node101&#45;&gt;Node105 -->
<g id="edge5" class="edge"><title>Node101&#45;&gt;Node105</title>
<path fill="none" stroke="midnightblue" d="M1140.19,-73.2482C1037.32,-68.0323 819.313,-55.0198 636.5,-31 633.735,-30.6367 630.92,-30.2416 628.079,-29.822"/>
<polygon fill="midnightblue" stroke="midnightblue" points="1140.21,-76.7536 1150.37,-73.7582 1140.56,-69.7624 1140.21,-76.7536"/>
</g>
<!-- Node106 -->
<g id="node7" class="node"><title>Node106</title>
<g id="a_node7"><a xlink:href="AppMulticameraSynchronisation_8cpp.html" target="_top" xlink:title="src/Application/AppMulticamera\lSynchronisation.cpp">
<polygon fill="white" stroke="black" points="646,-0.5 646,-30.5 801,-30.5 801,-0.5 646,-0.5"/>
<text text-anchor="start" x="654" y="-18.5" font-family="FreeSans" font-size="10.00">src/Application/AppMulticamera</text>
<text text-anchor="middle" x="723.5" y="-7.5" font-family="FreeSans" font-size="10.00">Synchronisation.cpp</text>
</a>
</g>
</g>
<!-- Node101&#45;&gt;Node106 -->
<g id="edge6" class="edge"><title>Node101&#45;&gt;Node106</title>
<path fill="none" stroke="midnightblue" d="M1140.05,-70.115C1063.48,-62.3106 926.316,-47.5757 809.5,-31 806.802,-30.6171 804.057,-30.2164 801.287,-29.8022"/>
<polygon fill="midnightblue" stroke="midnightblue" points="1140.15,-73.6422 1150.45,-71.1697 1140.85,-66.678 1140.15,-73.6422"/>
</g>
<!-- Node107 -->
<g id="node8" class="node"><title>Node107</title>
<g id="a_node8"><a xlink:href="AppMultimodelGeometryEstimator22_8cpp.html" target="_top" xlink:title="src/Application/AppMultimodel\lGeometryEstimator22.cpp">
<polygon fill="white" stroke="black" points="819,-0.5 819,-30.5 968,-30.5 968,-0.5 819,-0.5"/>
<text text-anchor="start" x="827" y="-18.5" font-family="FreeSans" font-size="10.00">src/Application/AppMultimodel</text>
<text text-anchor="middle" x="893.5" y="-7.5" font-family="FreeSans" font-size="10.00">GeometryEstimator22.cpp</text>
</a>
</g>
</g>
<!-- Node101&#45;&gt;Node107 -->
<g id="edge7" class="edge"><title>Node101&#45;&gt;Node107</title>
<path fill="none" stroke="midnightblue" d="M1145.69,-65.5366C1095.67,-55.8109 1020.8,-41.2519 965.618,-30.523"/>
<polygon fill="midnightblue" stroke="midnightblue" points="1145.17,-69.002 1155.66,-67.4751 1146.51,-62.1307 1145.17,-69.002"/>
</g>
<!-- Node108 -->
<g id="node9" class="node"><title>Node108</title>
<g id="a_node9"><a xlink:href="AppNodalCameraTracker_8cpp.html" target="_top" xlink:title="src/Application/AppNodal\lCameraTracker.cpp">
<polygon fill="white" stroke="black" points="986,-0.5 986,-30.5 1113,-30.5 1113,-0.5 986,-0.5"/>
<text text-anchor="start" x="994" y="-18.5" font-family="FreeSans" font-size="10.00">src/Application/AppNodal</text>
<text text-anchor="middle" x="1049.5" y="-7.5" font-family="FreeSans" font-size="10.00">CameraTracker.cpp</text>
</a>
</g>
</g>
<!-- Node101&#45;&gt;Node108 -->
<g id="edge8" class="edge"><title>Node101&#45;&gt;Node108</title>
<path fill="none" stroke="midnightblue" d="M1168.54,-63.7189C1144.19,-54.062 1110.26,-40.6023 1084.85,-30.523"/>
<polygon fill="midnightblue" stroke="midnightblue" points="1167.42,-67.0413 1178.01,-67.4751 1170,-60.5345 1167.42,-67.0413"/>
</g>
<!-- Node109 -->
<g id="node10" class="node"><title>Node109</title>
<g id="a_node10"><a xlink:href="AppPfM_8cpp.html" target="_top" xlink:title="src/Application/AppPfM.cpp">
<polygon fill="white" stroke="black" points="1131,-6 1131,-25 1268,-25 1268,-6 1131,-6"/>
<text text-anchor="middle" x="1199.5" y="-13" font-family="FreeSans" font-size="10.00">src/Application/AppPfM.cpp</text>
</a>
</g>
</g>
<!-- Node101&#45;&gt;Node109 -->
<g id="edge9" class="edge"><title>Node101&#45;&gt;Node109</title>
<path fill="none" stroke="midnightblue" d="M1199.5,-57.3165C1199.5,-46.4962 1199.5,-33.398 1199.5,-25.0091"/>
<polygon fill="midnightblue" stroke="midnightblue" points="1196,-57.4751 1199.5,-67.4751 1203,-57.4751 1196,-57.4751"/>
</g>
<!-- Node110 -->
<g id="node11" class="node"><title>Node110</title>
<g id="a_node11"><a xlink:href="AppSparseModelBuilder_8cpp.html" target="_top" xlink:title="src/Application/AppSparse\lModelBuilder.cpp">
<polygon fill="white" stroke="black" points="1286.5,-0.5 1286.5,-30.5 1418.5,-30.5 1418.5,-0.5 1286.5,-0.5"/>
<text text-anchor="start" x="1294.5" y="-18.5" font-family="FreeSans" font-size="10.00">src/Application/AppSparse</text>
<text text-anchor="middle" x="1352.5" y="-7.5" font-family="FreeSans" font-size="10.00">ModelBuilder.cpp</text>
</a>
</g>
</g>
<!-- Node101&#45;&gt;Node110 -->
<g id="edge10" class="edge"><title>Node101&#45;&gt;Node110</title>
<path fill="none" stroke="midnightblue" d="M1230.75,-63.8475C1255.6,-54.1817 1290.41,-40.6471 1316.44,-30.523"/>
<polygon fill="midnightblue" stroke="midnightblue" points="1229.47,-60.5886 1221.42,-67.4751 1232.01,-67.1126 1229.47,-60.5886"/>
</g>
<!-- Node111 -->
<g id="node12" class="node"><title>Node111</title>
<g id="a_node12"><a xlink:href="AppSparseUnitSphereBuilder_8cpp.html" target="_top" xlink:title="src/Application/AppSparse\lUnitSphereBuilder.cpp">
<polygon fill="white" stroke="black" points="1436.5,-0.5 1436.5,-30.5 1568.5,-30.5 1568.5,-0.5 1436.5,-0.5"/>
<text text-anchor="start" x="1444.5" y="-18.5" font-family="FreeSans" font-size="10.00">src/Application/AppSparse</text>
<text text-anchor="middle" x="1502.5" y="-7.5" font-family="FreeSans" font-size="10.00">UnitSphereBuilder.cpp</text>
</a>
</g>
</g>
<!-- Node101&#45;&gt;Node111 -->
<g id="edge11" class="edge"><title>Node101&#45;&gt;Node111</title>
<path fill="none" stroke="midnightblue" d="M1252.77,-65.5391C1303.89,-55.5015 1381.23,-40.3141 1436.28,-29.5029"/>
<polygon fill="midnightblue" stroke="midnightblue" points="1252.05,-62.1137 1242.91,-67.4751 1253.4,-68.9825 1252.05,-62.1137"/>
</g>
<!-- Node112 -->
<g id="node13" class="node"><title>Node112</title>
<g id="a_node13"><a xlink:href="AppWitnessCoverageStatistics_8cpp.html" target="_top" xlink:title="src/Application/AppWitness\lCoverageStatistics.cpp">
<polygon fill="white" stroke="black" points="1587,-0.5 1587,-30.5 1724,-30.5 1724,-0.5 1587,-0.5"/>
<text text-anchor="start" x="1595" y="-18.5" font-family="FreeSans" font-size="10.00">src/Application/AppWitness</text>
<text text-anchor="middle" x="1655.5" y="-7.5" font-family="FreeSans" font-size="10.00">CoverageStatistics.cpp</text>
</a>
</g>
</g>
<!-- Node101&#45;&gt;Node112 -->
<g id="edge12" class="edge"><title>Node101&#45;&gt;Node112</title>
<path fill="none" stroke="midnightblue" d="M1258.7,-70.1615C1333.25,-62.5314 1465.18,-48.107 1577.5,-31 1580.5,-30.5437 1583.55,-30.0588 1586.64,-29.5535"/>
<polygon fill="midnightblue" stroke="midnightblue" points="1258.16,-66.6979 1248.57,-71.1926 1258.87,-73.6619 1258.16,-66.6979"/>
</g>
<!-- Node113 -->
<g id="node14" class="node"><title>Node113</title>
<g id="a_node14"><a xlink:href="CameraIO_8cpp.html" target="_top" xlink:title="src/IO/CameraIO.cpp">
<polygon fill="white" stroke="black" points="1742,-6 1742,-25 1851,-25 1851,-6 1742,-6"/>
<text text-anchor="middle" x="1796.5" y="-13" font-family="FreeSans" font-size="10.00">src/IO/CameraIO.cpp</text>
</a>
</g>
</g>
<!-- Node101&#45;&gt;Node113 -->
<g id="edge13" class="edge"><title>Node101&#45;&gt;Node113</title>
<path fill="none" stroke="midnightblue" d="M1258.84,-73.7556C1357.75,-69.3989 1562.38,-57.7633 1733.5,-31 1743.26,-29.4738 1753.75,-27.2835 1763.32,-25.066"/>
<polygon fill="midnightblue" stroke="midnightblue" points="1258.58,-70.2634 1248.74,-74.1911 1258.88,-77.2569 1258.58,-70.2634"/>
</g>
<!-- Node114 -->
<g id="node15" class="node"><title>Node114</title>
<g id="a_node15"><a xlink:href="TestIO_8cpp.html" target="_top" xlink:title="src/IO/TestIO.cpp">
<polygon fill="white" stroke="black" points="1869,-6 1869,-25 1964,-25 1964,-6 1869,-6"/>
<text text-anchor="middle" x="1916.5" y="-13" font-family="FreeSans" font-size="10.00">src/IO/TestIO.cpp</text>
</a>
</g>
</g>
<!-- Node101&#45;&gt;Node114 -->
<g id="edge14" class="edge"><title>Node101&#45;&gt;Node114</title>
<path fill="none" stroke="midnightblue" d="M1258.89,-75.6336C1375.15,-74.1074 1640.62,-66.6348 1860.5,-31 1869.42,-29.554 1878.99,-27.3326 1887.65,-25.0597"/>
<polygon fill="midnightblue" stroke="midnightblue" points="1258.74,-72.1352 1248.78,-75.7562 1258.82,-79.1346 1258.74,-72.1352"/>
</g>
<!-- Node115 -->
<g id="node16" class="node"><title>Node115</title>
<g id="a_node16"><a xlink:href="UtilCameraConverter_8cpp.html" target="_top" xlink:title="src/Utility/UtilCameraConverter.cpp">
<polygon fill="white" stroke="black" points="1982.5,-6 1982.5,-25 2152.5,-25 2152.5,-6 1982.5,-6"/>
<text text-anchor="middle" x="2067.5" y="-13" font-family="FreeSans" font-size="10.00">src/Utility/UtilCameraConverter.cpp</text>
</a>
</g>
</g>
<!-- Node101&#45;&gt;Node115 -->
<g id="edge15" class="edge"><title>Node101&#45;&gt;Node115</title>
<path fill="none" stroke="midnightblue" d="M1258.65,-74.4768C1388.4,-70.7159 1707.64,-59.1693 1973.5,-31 1987.95,-29.4689 2003.57,-27.2771 2017.86,-25.0597"/>
<polygon fill="midnightblue" stroke="midnightblue" points="1258.43,-70.9817 1248.53,-74.7654 1258.63,-77.9788 1258.43,-70.9817"/>
</g>
<!-- Node116 -->
<g id="node17" class="node"><title>Node116</title>
<g id="a_node17"><a xlink:href="AppZeroReconstructionEvaluation_8cpp.html" target="_top" xlink:title="src/Zero/AppZeroReconstruction\lEvaluation.cpp">
<polygon fill="white" stroke="black" points="2170.5,-0.5 2170.5,-30.5 2328.5,-30.5 2328.5,-0.5 2170.5,-0.5"/>
<text text-anchor="start" x="2178.5" y="-18.5" font-family="FreeSans" font-size="10.00">src/Zero/AppZeroReconstruction</text>
<text text-anchor="middle" x="2249.5" y="-7.5" font-family="FreeSans" font-size="10.00">Evaluation.cpp</text>
</a>
</g>
</g>
<!-- Node101&#45;&gt;Node116 -->
<g id="edge16" class="edge"><title>Node101&#45;&gt;Node116</title>
<path fill="none" stroke="midnightblue" d="M1259.15,-75.623C1410.45,-74.1436 1821.32,-66.8594 2161.5,-31 2164.43,-30.6916 2167.4,-30.3491 2170.4,-29.9793"/>
<polygon fill="midnightblue" stroke="midnightblue" points="1258.68,-72.1272 1248.71,-75.7198 1258.74,-79.1269 1258.68,-72.1272"/>
</g>
</g>
</svg>
