<?xml version="1.0" encoding="UTF-8" standalone="no"?>
<!DOCTYPE svg PUBLIC "-//W3C//DTD SVG 1.1//EN"
 "http://www.w3.org/Graphics/SVG/1.1/DTD/svg11.dtd">
<!-- Generated by graphviz version 2.38.0 (20140413.2041)
 -->
<!-- Title: SeeSawN::AppMulticameraSynchronisationN::AppMulticameraSynchronisationImplementationC::GenerateConfigFile Pages: 1 -->
<svg width="879pt" height="230pt"
 viewBox="0.00 0.00 879.00 230.00" xmlns="http://www.w3.org/2000/svg" xmlns:xlink="http://www.w3.org/1999/xlink">
<g id="graph0" class="graph" transform="scale(1 1) rotate(0) translate(4 226)">
<title>SeeSawN::AppMulticameraSynchronisationN::AppMulticameraSynchronisationImplementationC::GenerateConfigFile</title>
<polygon fill="white" stroke="none" points="-4,4 -4,-226 875,-226 875,4 -4,4"/>
<!-- Node2 -->
<g id="node1" class="node"><title>Node2</title>
<polygon fill="#bfbfbf" stroke="black" points="0,-60.5 0,-101.5 235,-101.5 235,-60.5 0,-60.5"/>
<text text-anchor="start" x="8" y="-89.5" font-family="FreeSans" font-size="10.00">SeeSawN::AppMulticameraSynchronisation</text>
<text text-anchor="start" x="8" y="-78.5" font-family="FreeSans" font-size="10.00">N::AppMulticameraSynchronisationImplementation</text>
<text text-anchor="middle" x="117.5" y="-67.5" font-family="FreeSans" font-size="10.00">C::GenerateConfigFile</text>
</g>
<!-- Node3 -->
<g id="node2" class="node"><title>Node3</title>
<g id="a_node2"><a xlink:href="classSeeSawN_1_1ApplicationN_1_1InterfaceMulticameraSynchronisationC.html#aa8cb827f8b3b19b8ee0bab7167644674" target="_top" xlink:title="Makes a property tree from a parameter object. ">
<polygon fill="white" stroke="black" points="271,-60.5 271,-101.5 453,-101.5 453,-60.5 271,-60.5"/>
<text text-anchor="start" x="279" y="-89.5" font-family="FreeSans" font-size="10.00">SeeSawN::ApplicationN</text>
<text text-anchor="start" x="279" y="-78.5" font-family="FreeSans" font-size="10.00">::InterfaceMulticameraSynchronisation</text>
<text text-anchor="middle" x="362" y="-67.5" font-family="FreeSans" font-size="10.00">C::MakeParameterTree</text>
</a>
</g>
</g>
<!-- Node2&#45;&gt;Node3 -->
<g id="edge1" class="edge"><title>Node2&#45;&gt;Node3</title>
<path fill="none" stroke="midnightblue" d="M235.133,-81C243.673,-81 252.244,-81 260.675,-81"/>
<polygon fill="midnightblue" stroke="midnightblue" points="260.879,-84.5001 270.879,-81 260.879,-77.5001 260.879,-84.5001"/>
</g>
<!-- Node4 -->
<g id="node3" class="node"><title>Node4</title>
<g id="a_node3"><a xlink:href="classSeeSawN_1_1ApplicationN_1_1InterfaceRelativeSynchronisationC.html#a4d1889d9ebb9429b7065b973750d27b8" target="_top" xlink:title="Makes a property tree from a parameter object. ">
<polygon fill="white" stroke="black" points="498,-90.5 498,-131.5 662,-131.5 662,-90.5 498,-90.5"/>
<text text-anchor="start" x="506" y="-119.5" font-family="FreeSans" font-size="10.00">SeeSawN::ApplicationN</text>
<text text-anchor="start" x="506" y="-108.5" font-family="FreeSans" font-size="10.00">::InterfaceRelativeSynchronisation</text>
<text text-anchor="middle" x="580" y="-97.5" font-family="FreeSans" font-size="10.00">C::MakeParameterTree</text>
</a>
</g>
</g>
<!-- Node3&#45;&gt;Node4 -->
<g id="edge2" class="edge"><title>Node3&#45;&gt;Node4</title>
<path fill="none" stroke="midnightblue" d="M453.039,-93.5055C464.499,-95.0971 476.237,-96.7274 487.716,-98.3217"/>
<polygon fill="midnightblue" stroke="midnightblue" points="487.338,-101.803 497.724,-99.7117 488.301,-94.8692 487.338,-101.803"/>
</g>
<!-- Node9 -->
<g id="node8" class="node"><title>Node9</title>
<g id="a_node8"><a xlink:href="classSeeSawN_1_1ApplicationN_1_1InterfaceMulticameraSynchronisationC.html#a48e6e922c9cdc799e2aafa1f5c44f8d8" target="_top" xlink:title="Removes the redundant relative synchronisation parameters. ">
<polygon fill="white" stroke="black" points="489,-30.5 489,-71.5 671,-71.5 671,-30.5 489,-30.5"/>
<text text-anchor="start" x="497" y="-59.5" font-family="FreeSans" font-size="10.00">SeeSawN::ApplicationN</text>
<text text-anchor="start" x="497" y="-48.5" font-family="FreeSans" font-size="10.00">::InterfaceMulticameraSynchronisation</text>
<text text-anchor="middle" x="580" y="-37.5" font-family="FreeSans" font-size="10.00">C::PruneRelativeSynchronisation</text>
</a>
</g>
</g>
<!-- Node3&#45;&gt;Node9 -->
<g id="edge7" class="edge"><title>Node3&#45;&gt;Node9</title>
<path fill="none" stroke="midnightblue" d="M453.039,-68.4945C461.526,-67.3159 470.165,-66.116 478.738,-64.9253"/>
<polygon fill="midnightblue" stroke="midnightblue" points="479.336,-68.3759 488.759,-63.5334 478.373,-61.4425 479.336,-68.3759"/>
</g>
<!-- Node5 -->
<g id="node4" class="node"><title>Node5</title>
<g id="a_node4"><a xlink:href="classSeeSawN_1_1ApplicationN_1_1InterfaceFeatureMatcherC.html#a8f472195d3cff175bf0fc44d10e23687" target="_top" xlink:title="Makes a property tree from a parameter object. ">
<polygon fill="white" stroke="black" points="722,-180.5 722,-221.5 856,-221.5 856,-180.5 722,-180.5"/>
<text text-anchor="start" x="730" y="-209.5" font-family="FreeSans" font-size="10.00">SeeSawN::ApplicationN</text>
<text text-anchor="start" x="730" y="-198.5" font-family="FreeSans" font-size="10.00">::InterfaceFeatureMatcherC</text>
<text text-anchor="middle" x="789" y="-187.5" font-family="FreeSans" font-size="10.00">::MakeParameterTree</text>
</a>
</g>
</g>
<!-- Node4&#45;&gt;Node5 -->
<g id="edge3" class="edge"><title>Node4&#45;&gt;Node5</title>
<path fill="none" stroke="midnightblue" d="M621.719,-131.532C646.192,-143.584 678.095,-158.794 707,-171 711.63,-172.955 716.436,-174.913 721.293,-176.838"/>
<polygon fill="midnightblue" stroke="midnightblue" points="720.074,-180.119 730.662,-180.493 722.618,-173.598 720.074,-180.119"/>
</g>
<!-- Node6 -->
<g id="node5" class="node"><title>Node6</title>
<g id="a_node5"><a xlink:href="classSeeSawN_1_1ApplicationN_1_1InterfacePowellDogLegC.html#a63d658fac13be5c76a2c90a8e9c451e5" target="_top" xlink:title="Makes a property tree from a parameter object. ">
<polygon fill="white" stroke="black" points="724.5,-120.5 724.5,-161.5 853.5,-161.5 853.5,-120.5 724.5,-120.5"/>
<text text-anchor="start" x="732.5" y="-149.5" font-family="FreeSans" font-size="10.00">SeeSawN::ApplicationN</text>
<text text-anchor="start" x="732.5" y="-138.5" font-family="FreeSans" font-size="10.00">::InterfacePowellDogLegC</text>
<text text-anchor="middle" x="789" y="-127.5" font-family="FreeSans" font-size="10.00">::MakeParameterTree</text>
</a>
</g>
</g>
<!-- Node4&#45;&gt;Node6 -->
<g id="edge4" class="edge"><title>Node4&#45;&gt;Node6</title>
<path fill="none" stroke="midnightblue" d="M662.218,-122.771C679.289,-125.245 697.209,-127.842 714,-130.275"/>
<polygon fill="midnightblue" stroke="midnightblue" points="713.892,-133.796 724.29,-131.767 714.896,-126.869 713.892,-133.796"/>
</g>
<!-- Node7 -->
<g id="node6" class="node"><title>Node7</title>
<g id="a_node6"><a xlink:href="classSeeSawN_1_1ApplicationN_1_1InterfaceRelativeSynchronisationC.html#acb8c9fadc442cbbb1c037002088ee92b" target="_top" xlink:title="Removes the redundant feature matcher parameters. ">
<polygon fill="white" stroke="black" points="707,-60.5 707,-101.5 871,-101.5 871,-60.5 707,-60.5"/>
<text text-anchor="start" x="715" y="-89.5" font-family="FreeSans" font-size="10.00">SeeSawN::ApplicationN</text>
<text text-anchor="start" x="715" y="-78.5" font-family="FreeSans" font-size="10.00">::InterfaceRelativeSynchronisation</text>
<text text-anchor="middle" x="789" y="-67.5" font-family="FreeSans" font-size="10.00">C::PruneFeatureMatcher</text>
</a>
</g>
</g>
<!-- Node4&#45;&gt;Node7 -->
<g id="edge5" class="edge"><title>Node4&#45;&gt;Node7</title>
<path fill="none" stroke="midnightblue" d="M662.218,-99.2293C673.519,-97.5915 685.192,-95.8998 696.663,-94.2373"/>
<polygon fill="midnightblue" stroke="midnightblue" points="697.282,-97.6842 706.677,-92.786 696.278,-90.7565 697.282,-97.6842"/>
</g>
<!-- Node8 -->
<g id="node7" class="node"><title>Node8</title>
<g id="a_node7"><a xlink:href="classSeeSawN_1_1ApplicationN_1_1InterfaceRelativeSynchronisationC.html#aad2ad5995ad2026bf4799712e5aff7e7" target="_top" xlink:title="Removes the redundant PDL parameters. ">
<polygon fill="white" stroke="black" points="707,-0.5 707,-41.5 871,-41.5 871,-0.5 707,-0.5"/>
<text text-anchor="start" x="715" y="-29.5" font-family="FreeSans" font-size="10.00">SeeSawN::ApplicationN</text>
<text text-anchor="start" x="715" y="-18.5" font-family="FreeSans" font-size="10.00">::InterfaceRelativeSynchronisation</text>
<text text-anchor="middle" x="789" y="-7.5" font-family="FreeSans" font-size="10.00">C::PrunePDL</text>
</a>
</g>
</g>
<!-- Node4&#45;&gt;Node8 -->
<g id="edge6" class="edge"><title>Node4&#45;&gt;Node8</title>
<path fill="none" stroke="midnightblue" d="M651.386,-90.4127C658.165,-87.5816 664.813,-84.4465 671,-81 689.195,-70.8645 688.975,-61.4339 707,-51 710.011,-49.2568 713.142,-47.5832 716.346,-45.9809"/>
<polygon fill="midnightblue" stroke="midnightblue" points="717.976,-49.0824 725.531,-41.6551 714.993,-42.7496 717.976,-49.0824"/>
</g>
</g>
</svg>
