<?xml version="1.0" encoding="UTF-8" standalone="no"?>
<!DOCTYPE svg PUBLIC "-//W3C//DTD SVG 1.1//EN"
 "http://www.w3.org/Graphics/SVG/1.1/DTD/svg11.dtd">
<!-- Generated by graphviz version 2.38.0 (20140413.2041)
 -->
<!-- Title: SeeSawN::MatcherN::FeatureMatcherC::Run Pages: 1 -->
<svg width="364pt" height="160pt"
 viewBox="0.00 0.00 364.00 160.00" xmlns="http://www.w3.org/2000/svg" xmlns:xlink="http://www.w3.org/1999/xlink">
<g id="graph0" class="graph" transform="scale(1 1) rotate(0) translate(4 156)">
<title>SeeSawN::MatcherN::FeatureMatcherC::Run</title>
<polygon fill="white" stroke="none" points="-4,4 -4,-156 360,-156 360,4 -4,4"/>
<!-- Node16 -->
<g id="node1" class="node"><title>Node16</title>
<polygon fill="#bfbfbf" stroke="black" points="0,-61 0,-91 113,-91 113,-61 0,-61"/>
<text text-anchor="start" x="8" y="-79" font-family="FreeSans" font-size="10.00">SeeSawN::MatcherN::</text>
<text text-anchor="middle" x="56.5" y="-68" font-family="FreeSans" font-size="10.00">FeatureMatcherC::Run</text>
</g>
<!-- Node17 -->
<g id="node2" class="node"><title>Node17</title>
<g id="a_node2"><a xlink:href="classSeeSawN_1_1StateEstimationN_1_1ViterbiRelativeSynchronisationProblemC.html#a43718d5b9e26fc49daf463872292d414" target="_top" xlink:title="Computes the probability that a measurement originates from a specified state. ">
<polygon fill="white" stroke="black" points="149,-110.5 149,-151.5 356,-151.5 356,-110.5 149,-110.5"/>
<text text-anchor="start" x="157" y="-139.5" font-family="FreeSans" font-size="10.00">SeeSawN::StateEstimation</text>
<text text-anchor="start" x="157" y="-128.5" font-family="FreeSans" font-size="10.00">N::ViterbiRelativeSynchronisation</text>
<text text-anchor="middle" x="252.5" y="-117.5" font-family="FreeSans" font-size="10.00">ProblemC::ComputeMeasurementProbability</text>
</a>
</g>
</g>
<!-- Node16&#45;&gt;Node17 -->
<g id="edge1" class="edge"><title>Node16&#45;&gt;Node17</title>
<path fill="none" stroke="midnightblue" d="M120.377,-93.8258C139.057,-99.1218 159.673,-104.966 178.917,-110.422"/>
<polygon fill="midnightblue" stroke="midnightblue" points="121.087,-90.3893 110.511,-91.029 119.178,-97.1239 121.087,-90.3893"/>
</g>
<!-- Node18 -->
<g id="node3" class="node"><title>Node18</title>
<g id="a_node3"><a xlink:href="classSeeSawN_1_1MatcherN_1_1MultisourceFeatureMatcherC.html#a58b57ed45fb5e66fc2d6a998970f2aca" target="_top" xlink:title="Runs the algorithm. ">
<polygon fill="white" stroke="black" points="170.5,-61 170.5,-91 334.5,-91 334.5,-61 170.5,-61"/>
<text text-anchor="start" x="178.5" y="-79" font-family="FreeSans" font-size="10.00">SeeSawN::MatcherN::</text>
<text text-anchor="middle" x="252.5" y="-68" font-family="FreeSans" font-size="10.00">MultisourceFeatureMatcherC::Run</text>
</a>
</g>
</g>
<!-- Node16&#45;&gt;Node18 -->
<g id="edge2" class="edge"><title>Node16&#45;&gt;Node18</title>
<path fill="none" stroke="midnightblue" d="M123.327,-76C138.4,-76 154.597,-76 170.233,-76"/>
<polygon fill="midnightblue" stroke="midnightblue" points="123.093,-72.5001 113.093,-76 123.093,-79.5001 123.093,-72.5001"/>
</g>
<!-- Node19 -->
<g id="node4" class="node"><title>Node19</title>
<g id="a_node4"><a xlink:href="classSeeSawN_1_1GeometryN_1_1MultimodelGeometryEstimationPipelineC.html#a7e5abe43af465c9c68052203d04b8a5e" target="_top" xlink:title="Solves a geometry estimation problem. ">
<polygon fill="white" stroke="black" points="174.5,-0.5 174.5,-41.5 330.5,-41.5 330.5,-0.5 174.5,-0.5"/>
<text text-anchor="start" x="182.5" y="-29.5" font-family="FreeSans" font-size="10.00">SeeSawN::GeometryN</text>
<text text-anchor="start" x="182.5" y="-18.5" font-family="FreeSans" font-size="10.00">::MultimodelGeometryEstimation</text>
<text text-anchor="middle" x="252.5" y="-7.5" font-family="FreeSans" font-size="10.00">PipelineC::Run</text>
</a>
</g>
</g>
<!-- Node16&#45;&gt;Node19 -->
<g id="edge3" class="edge"><title>Node16&#45;&gt;Node19</title>
<path fill="none" stroke="midnightblue" d="M120.377,-58.1742C139.057,-52.8782 159.673,-47.0336 178.917,-41.5777"/>
<polygon fill="midnightblue" stroke="midnightblue" points="119.178,-54.8761 110.511,-60.971 121.087,-61.6107 119.178,-54.8761"/>
</g>
</g>
</svg>
