<?xml version="1.0" encoding="UTF-8" standalone="no"?>
<!DOCTYPE svg PUBLIC "-//W3C//DTD SVG 1.1//EN"
 "http://www.w3.org/Graphics/SVG/1.1/DTD/svg11.dtd">
<!-- Generated by graphviz version 2.38.0 (20140413.2041)
 -->
<!-- Title: SeeSawN::OptimisationN::PDLGeometryEstimationProblemBaseC&lt; DerivedT, GeometrySolverT &gt; Pages: 1 -->
<!--zoomable 1080 -->
<svg id="main" version="1.1" xmlns="http://www.w3.org/2000/svg" xmlns:xlink="http://www.w3.org/1999/xlink" xml:space="preserve" onload="init(evt)">
<style type="text/css"><![CDATA[
.edge:hover path { stroke: red; }
.edge:hover polygon { stroke: red; fill: red; }
]]></style>
<script type="text/javascript"><![CDATA[
var edges = document.getElementsByTagName('g');
if (edges && edges.length) {
  for (var i=0;i<edges.length;i++) {
    if (edges[i].id.substr(0,4)=='edge') {
      edges[i].setAttribute('class','edge');
    }
  }
}
]]></script>
        <defs>
                <circle id="rim" cx="0" cy="0" r="7"/>
                <circle id="rim2" cx="0" cy="0" r="3.5"/>
                <g id="zoomPlus">
                        <use xlink:href="#rim" fill="#404040">
                                <set attributeName="fill" to="#808080" begin="zoomplus.mouseover" end="zoomplus.mouseout"/>
                        </use>
                        <path d="M-4,0h8M0,-4v8" fill="none" stroke="white" stroke-width="1.5" pointer-events="none"/>
                </g>
                <g id="zoomMin">
                        <use xlink:href="#rim" fill="#404040">
                                <set attributeName="fill" to="#808080" begin="zoomminus.mouseover" end="zoomminus.mouseout"/>
                        </use>
                        <path d="M-4,0h8" fill="none" stroke="white" stroke-width="1.5" pointer-events="none"/>
                </g>
                <g id="dirArrow">
                        <path fill="none" stroke="white" stroke-width="1.5" d="M0,-3.0v7 M-2.5,-0.5L0,-3.0L2.5,-0.5"/>
                </g>
               <g id="resetDef">
                       <use xlink:href="#rim2" fill="#404040">
                               <set attributeName="fill" to="#808080" begin="reset.mouseover" end="reset.mouseout"/>
                       </use>
               </g>
        </defs>

<script type="text/javascript">
var viewWidth = 2265;
var viewHeight = 1080;
var sectionId = 'dynsection-0';
</script>
<script xlink:href="svgpan.js"/>
<svg id="graph" class="graph">
<g id="viewport">
<title>SeeSawN::OptimisationN::PDLGeometryEstimationProblemBaseC&lt; DerivedT, GeometrySolverT &gt;</title>
<polygon fill="white" stroke="none" points="-4,4 -4,-1076 2261,-1076 2261,4 -4,4"/>
<!-- Node0 -->
<g id="node1" class="node"><title>Node0</title>
<polygon fill="#bfbfbf" stroke="black" points="1071,-761.5 1071,-1071.5 1253,-1071.5 1253,-761.5 1071,-761.5"/>
<text text-anchor="start" x="1079" y="-1059.5" font-family="FreeSans" font-size="10.00">SeeSawN::OptimisationN</text>
<text text-anchor="start" x="1079" y="-1048.5" font-family="FreeSans" font-size="10.00">::PDLGeometryEstimationProblem</text>
<text text-anchor="middle" x="1162" y="-1037.5" font-family="FreeSans" font-size="10.00">BaseC&lt; DerivedT, GeometrySolverT &gt;</text>
<polyline fill="none" stroke="black" points="1071,-1030.5 1253,-1030.5 "/>
<text text-anchor="middle" x="1162" y="-1018.5" font-family="FreeSans" font-size="10.00"> </text>
<polyline fill="none" stroke="black" points="1071,-1011.5 1253,-1011.5 "/>
<text text-anchor="start" x="1079" y="-999.5" font-family="FreeSans" font-size="10.00">* result_type</text>
<text text-anchor="start" x="1079" y="-988.5" font-family="FreeSans" font-size="10.00">* has_normal_solver</text>
<text text-anchor="start" x="1079" y="-977.5" font-family="FreeSans" font-size="10.00">* has_covariance_estimator</text>
<text text-anchor="start" x="1079" y="-966.5" font-family="FreeSans" font-size="10.00">* has_nontrivial_update</text>
<text text-anchor="start" x="1079" y="-955.5" font-family="FreeSans" font-size="10.00">* observation_set_type</text>
<text text-anchor="start" x="1079" y="-944.5" font-family="FreeSans" font-size="10.00">* Configure()</text>
<text text-anchor="start" x="1079" y="-933.5" font-family="FreeSans" font-size="10.00">* IsValid()</text>
<text text-anchor="start" x="1079" y="-922.5" font-family="FreeSans" font-size="10.00">* InitialEstimate()</text>
<text text-anchor="start" x="1079" y="-911.5" font-family="FreeSans" font-size="10.00">* ComputeError()</text>
<text text-anchor="start" x="1079" y="-900.5" font-family="FreeSans" font-size="10.00">* Update()</text>
<text text-anchor="start" x="1079" y="-889.5" font-family="FreeSans" font-size="10.00">and 7 more...</text>
<text text-anchor="start" x="1079" y="-878.5" font-family="FreeSans" font-size="10.00">* initialEstimate</text>
<text text-anchor="start" x="1079" y="-867.5" font-family="FreeSans" font-size="10.00">* correspondences</text>
<text text-anchor="start" x="1079" y="-856.5" font-family="FreeSans" font-size="10.00">* solver</text>
<text text-anchor="start" x="1079" y="-845.5" font-family="FreeSans" font-size="10.00">* errorMetric</text>
<text text-anchor="start" x="1079" y="-834.5" font-family="FreeSans" font-size="10.00">* flagValid</text>
<text text-anchor="start" x="1079" y="-823.5" font-family="FreeSans" font-size="10.00">* ComputeError()</text>
<text text-anchor="start" x="1079" y="-812.5" font-family="FreeSans" font-size="10.00">* ComputeJacobian()</text>
<text text-anchor="start" x="1079" y="-801.5" font-family="FreeSans" font-size="10.00">* PDLGeometryEstimationProblem</text>
<text text-anchor="start" x="1079" y="-790.5" font-family="FreeSans" font-size="10.00">BaseC()</text>
<text text-anchor="start" x="1079" y="-779.5" font-family="FreeSans" font-size="10.00">* PDLGeometryEstimationProblem</text>
<text text-anchor="start" x="1079" y="-768.5" font-family="FreeSans" font-size="10.00">BaseC()</text>
</g>
<!-- Node1 -->
<g id="node2" class="node"><title>Node1</title>
<g id="a_node2"><a xlink:href="classSeeSawN_1_1OptimisationN_1_1PDLGeometryEstimationProblemBaseC.html" target="_top" xlink:title="{SeeSawN::OptimisationN\l::PDLGeometryEstimationProblem\lBaseC\&lt; PDLOneSidedFundamentalMatrix\lEstimationProblemC, OneSidedFundamentalSolverC \&gt;\n|# initialEstimate\l# correspondences\l# solver\l# errorMetric\l# flagValid\l|+ PDLGeometryEstimationProblem\lBaseC()\l+ PDLGeometryEstimationProblem\lBaseC()\l# ComputeError()\l# ComputeJacobian()\l* result_type\l* has_normal_solver\l* has_covariance_estimator\l* has_nontrivial_update\l* observation_set_type\l* ComputeError()\l* Configure()\l* IsValid()\l* InitialEstimate()\l* Update()\land 7 more...\l* initialEstimate\l* correspondences\l* solver\l* errorMetric\l* flagValid\l* ComputeError()\l* ComputeJacobian()\l* PDLGeometryEstimationProblem\lBaseC()\l* PDLGeometryEstimationProblem\lBaseC()\l}">
<polygon fill="white" stroke="black" points="0,-260.5 0,-691.5 252,-691.5 252,-260.5 0,-260.5"/>
<text text-anchor="start" x="8" y="-679.5" font-family="FreeSans" font-size="10.00">SeeSawN::OptimisationN</text>
<text text-anchor="start" x="8" y="-668.5" font-family="FreeSans" font-size="10.00">::PDLGeometryEstimationProblem</text>
<text text-anchor="start" x="8" y="-657.5" font-family="FreeSans" font-size="10.00">BaseC&lt; PDLOneSidedFundamentalMatrix</text>
<text text-anchor="middle" x="126" y="-646.5" font-family="FreeSans" font-size="10.00">EstimationProblemC, OneSidedFundamentalSolverC &gt;</text>
<polyline fill="none" stroke="black" points="0,-639.5 252,-639.5 "/>
<text text-anchor="start" x="8" y="-627.5" font-family="FreeSans" font-size="10.00"># initialEstimate</text>
<text text-anchor="start" x="8" y="-616.5" font-family="FreeSans" font-size="10.00"># correspondences</text>
<text text-anchor="start" x="8" y="-605.5" font-family="FreeSans" font-size="10.00"># solver</text>
<text text-anchor="start" x="8" y="-594.5" font-family="FreeSans" font-size="10.00"># errorMetric</text>
<text text-anchor="start" x="8" y="-583.5" font-family="FreeSans" font-size="10.00"># flagValid</text>
<polyline fill="none" stroke="black" points="0,-576.5 252,-576.5 "/>
<text text-anchor="start" x="8" y="-564.5" font-family="FreeSans" font-size="10.00">+ PDLGeometryEstimationProblem</text>
<text text-anchor="start" x="8" y="-553.5" font-family="FreeSans" font-size="10.00">BaseC()</text>
<text text-anchor="start" x="8" y="-542.5" font-family="FreeSans" font-size="10.00">+ PDLGeometryEstimationProblem</text>
<text text-anchor="start" x="8" y="-531.5" font-family="FreeSans" font-size="10.00">BaseC()</text>
<text text-anchor="start" x="8" y="-520.5" font-family="FreeSans" font-size="10.00"># ComputeError()</text>
<text text-anchor="start" x="8" y="-509.5" font-family="FreeSans" font-size="10.00"># ComputeJacobian()</text>
<text text-anchor="start" x="8" y="-498.5" font-family="FreeSans" font-size="10.00">* result_type</text>
<text text-anchor="start" x="8" y="-487.5" font-family="FreeSans" font-size="10.00">* has_normal_solver</text>
<text text-anchor="start" x="8" y="-476.5" font-family="FreeSans" font-size="10.00">* has_covariance_estimator</text>
<text text-anchor="start" x="8" y="-465.5" font-family="FreeSans" font-size="10.00">* has_nontrivial_update</text>
<text text-anchor="start" x="8" y="-454.5" font-family="FreeSans" font-size="10.00">* observation_set_type</text>
<text text-anchor="start" x="8" y="-443.5" font-family="FreeSans" font-size="10.00">* ComputeError()</text>
<text text-anchor="start" x="8" y="-432.5" font-family="FreeSans" font-size="10.00">* Configure()</text>
<text text-anchor="start" x="8" y="-421.5" font-family="FreeSans" font-size="10.00">* IsValid()</text>
<text text-anchor="start" x="8" y="-410.5" font-family="FreeSans" font-size="10.00">* InitialEstimate()</text>
<text text-anchor="start" x="8" y="-399.5" font-family="FreeSans" font-size="10.00">* Update()</text>
<text text-anchor="start" x="8" y="-388.5" font-family="FreeSans" font-size="10.00">and 7 more...</text>
<text text-anchor="start" x="8" y="-377.5" font-family="FreeSans" font-size="10.00">* initialEstimate</text>
<text text-anchor="start" x="8" y="-366.5" font-family="FreeSans" font-size="10.00">* correspondences</text>
<text text-anchor="start" x="8" y="-355.5" font-family="FreeSans" font-size="10.00">* solver</text>
<text text-anchor="start" x="8" y="-344.5" font-family="FreeSans" font-size="10.00">* errorMetric</text>
<text text-anchor="start" x="8" y="-333.5" font-family="FreeSans" font-size="10.00">* flagValid</text>
<text text-anchor="start" x="8" y="-322.5" font-family="FreeSans" font-size="10.00">* ComputeError()</text>
<text text-anchor="start" x="8" y="-311.5" font-family="FreeSans" font-size="10.00">* ComputeJacobian()</text>
<text text-anchor="start" x="8" y="-300.5" font-family="FreeSans" font-size="10.00">* PDLGeometryEstimationProblem</text>
<text text-anchor="start" x="8" y="-289.5" font-family="FreeSans" font-size="10.00">BaseC()</text>
<text text-anchor="start" x="8" y="-278.5" font-family="FreeSans" font-size="10.00">* PDLGeometryEstimationProblem</text>
<text text-anchor="start" x="8" y="-267.5" font-family="FreeSans" font-size="10.00">BaseC()</text>
</a>
</g>
</g>
<!-- Node0&#45;&gt;Node1 -->
<g id="edge1" class="edge"><title>Node0&#45;&gt;Node1</title>
<path fill="none" stroke="orange" d="M1060.91,-902.035C851.884,-872.385 381.566,-795.753 261,-692 257.993,-689.413 255.031,-686.741 252.114,-683.995"/>
<polygon fill="orange" stroke="orange" points="1060.58,-905.523 1070.97,-903.454 1061.55,-898.591 1060.58,-905.523"/>
<text text-anchor="start" x="341" y="-735" font-family="FreeSans" font-size="10.00"> &lt; PDLOneSidedFundamental</text>
<text text-anchor="start" x="341" y="-724" font-family="FreeSans" font-size="10.00">MatrixEstimationProblemC,</text>
<text text-anchor="middle" x="413.5" y="-713" font-family="FreeSans" font-size="10.00"> OneSidedFundamentalSolverC &gt;</text>
</g>
<!-- Node3 -->
<g id="node4" class="node"><title>Node3</title>
<g id="a_node4"><a xlink:href="classSeeSawN_1_1OptimisationN_1_1PDLGeometryEstimationProblemBaseC.html" target="_top" xlink:title="{SeeSawN::OptimisationN\l::PDLGeometryEstimationProblem\lBaseC\&lt; PDLHomographyXDEstimationProblem\lC\&lt; HomographySolverT \&gt;, HomographySolverT \&gt;\n|# initialEstimate\l# correspondences\l# solver\l# errorMetric\l# flagValid\l|+ PDLGeometryEstimationProblem\lBaseC()\l+ PDLGeometryEstimationProblem\lBaseC()\l# ComputeError()\l# ComputeJacobian()\l* result_type\l* has_normal_solver\l* has_covariance_estimator\l* has_nontrivial_update\l* observation_set_type\l* ComputeError()\l* Configure()\l* IsValid()\l* InitialEstimate()\l* Update()\land 7 more...\l* initialEstimate\l* correspondences\l* solver\l* errorMetric\l* flagValid\l* ComputeError()\l* ComputeJacobian()\l* PDLGeometryEstimationProblem\lBaseC()\l* PDLGeometryEstimationProblem\lBaseC()\l}">
<polygon fill="white" stroke="black" points="270,-260.5 270,-691.5 500,-691.5 500,-260.5 270,-260.5"/>
<text text-anchor="start" x="278" y="-679.5" font-family="FreeSans" font-size="10.00">SeeSawN::OptimisationN</text>
<text text-anchor="start" x="278" y="-668.5" font-family="FreeSans" font-size="10.00">::PDLGeometryEstimationProblem</text>
<text text-anchor="start" x="278" y="-657.5" font-family="FreeSans" font-size="10.00">BaseC&lt; PDLHomographyXDEstimationProblem</text>
<text text-anchor="middle" x="385" y="-646.5" font-family="FreeSans" font-size="10.00">C&lt; HomographySolverT &gt;, HomographySolverT &gt;</text>
<polyline fill="none" stroke="black" points="270,-639.5 500,-639.5 "/>
<text text-anchor="start" x="278" y="-627.5" font-family="FreeSans" font-size="10.00"># initialEstimate</text>
<text text-anchor="start" x="278" y="-616.5" font-family="FreeSans" font-size="10.00"># correspondences</text>
<text text-anchor="start" x="278" y="-605.5" font-family="FreeSans" font-size="10.00"># solver</text>
<text text-anchor="start" x="278" y="-594.5" font-family="FreeSans" font-size="10.00"># errorMetric</text>
<text text-anchor="start" x="278" y="-583.5" font-family="FreeSans" font-size="10.00"># flagValid</text>
<polyline fill="none" stroke="black" points="270,-576.5 500,-576.5 "/>
<text text-anchor="start" x="278" y="-564.5" font-family="FreeSans" font-size="10.00">+ PDLGeometryEstimationProblem</text>
<text text-anchor="start" x="278" y="-553.5" font-family="FreeSans" font-size="10.00">BaseC()</text>
<text text-anchor="start" x="278" y="-542.5" font-family="FreeSans" font-size="10.00">+ PDLGeometryEstimationProblem</text>
<text text-anchor="start" x="278" y="-531.5" font-family="FreeSans" font-size="10.00">BaseC()</text>
<text text-anchor="start" x="278" y="-520.5" font-family="FreeSans" font-size="10.00"># ComputeError()</text>
<text text-anchor="start" x="278" y="-509.5" font-family="FreeSans" font-size="10.00"># ComputeJacobian()</text>
<text text-anchor="start" x="278" y="-498.5" font-family="FreeSans" font-size="10.00">* result_type</text>
<text text-anchor="start" x="278" y="-487.5" font-family="FreeSans" font-size="10.00">* has_normal_solver</text>
<text text-anchor="start" x="278" y="-476.5" font-family="FreeSans" font-size="10.00">* has_covariance_estimator</text>
<text text-anchor="start" x="278" y="-465.5" font-family="FreeSans" font-size="10.00">* has_nontrivial_update</text>
<text text-anchor="start" x="278" y="-454.5" font-family="FreeSans" font-size="10.00">* observation_set_type</text>
<text text-anchor="start" x="278" y="-443.5" font-family="FreeSans" font-size="10.00">* ComputeError()</text>
<text text-anchor="start" x="278" y="-432.5" font-family="FreeSans" font-size="10.00">* Configure()</text>
<text text-anchor="start" x="278" y="-421.5" font-family="FreeSans" font-size="10.00">* IsValid()</text>
<text text-anchor="start" x="278" y="-410.5" font-family="FreeSans" font-size="10.00">* InitialEstimate()</text>
<text text-anchor="start" x="278" y="-399.5" font-family="FreeSans" font-size="10.00">* Update()</text>
<text text-anchor="start" x="278" y="-388.5" font-family="FreeSans" font-size="10.00">and 7 more...</text>
<text text-anchor="start" x="278" y="-377.5" font-family="FreeSans" font-size="10.00">* initialEstimate</text>
<text text-anchor="start" x="278" y="-366.5" font-family="FreeSans" font-size="10.00">* correspondences</text>
<text text-anchor="start" x="278" y="-355.5" font-family="FreeSans" font-size="10.00">* solver</text>
<text text-anchor="start" x="278" y="-344.5" font-family="FreeSans" font-size="10.00">* errorMetric</text>
<text text-anchor="start" x="278" y="-333.5" font-family="FreeSans" font-size="10.00">* flagValid</text>
<text text-anchor="start" x="278" y="-322.5" font-family="FreeSans" font-size="10.00">* ComputeError()</text>
<text text-anchor="start" x="278" y="-311.5" font-family="FreeSans" font-size="10.00">* ComputeJacobian()</text>
<text text-anchor="start" x="278" y="-300.5" font-family="FreeSans" font-size="10.00">* PDLGeometryEstimationProblem</text>
<text text-anchor="start" x="278" y="-289.5" font-family="FreeSans" font-size="10.00">BaseC()</text>
<text text-anchor="start" x="278" y="-278.5" font-family="FreeSans" font-size="10.00">* PDLGeometryEstimationProblem</text>
<text text-anchor="start" x="278" y="-267.5" font-family="FreeSans" font-size="10.00">BaseC()</text>
</a>
</g>
</g>
<!-- Node0&#45;&gt;Node3 -->
<g id="edge3" class="edge"><title>Node0&#45;&gt;Node3</title>
<path fill="none" stroke="orange" d="M1060.93,-896.313C941.765,-871.288 739.711,-821.241 580,-743 545.109,-725.907 535.069,-720.809 509,-692 505.964,-688.645 502.969,-685.204 500.016,-681.689"/>
<polygon fill="orange" stroke="orange" points="1060.28,-899.752 1070.79,-898.364 1061.71,-892.899 1060.28,-899.752"/>
<text text-anchor="start" x="580" y="-735" font-family="FreeSans" font-size="10.00"> &lt; PDLHomographyXDEstimation</text>
<text text-anchor="start" x="580" y="-724" font-family="FreeSans" font-size="10.00">ProblemC&lt; HomographySolverT</text>
<text text-anchor="middle" x="652.5" y="-713" font-family="FreeSans" font-size="10.00"> &gt;, HomographySolverT &gt;</text>
</g>
<!-- Node5 -->
<g id="node6" class="node"><title>Node5</title>
<g id="a_node6"><a xlink:href="classSeeSawN_1_1OptimisationN_1_1PDLGeometryEstimationProblemBaseC.html" target="_top" xlink:title="{SeeSawN::OptimisationN\l::PDLGeometryEstimationProblem\lBaseC\&lt; PDLP2PProblemC, P2PSolverC \&gt;\n|# initialEstimate\l# correspondences\l# solver\l# errorMetric\l# flagValid\l|+ PDLGeometryEstimationProblem\lBaseC()\l+ PDLGeometryEstimationProblem\lBaseC()\l# ComputeError()\l# ComputeJacobian()\l* result_type\l* has_normal_solver\l* has_covariance_estimator\l* has_nontrivial_update\l* observation_set_type\l* ComputeError()\l* Configure()\l* IsValid()\l* InitialEstimate()\l* Update()\land 7 more...\l* initialEstimate\l* correspondences\l* solver\l* errorMetric\l* flagValid\l* ComputeError()\l* ComputeJacobian()\l* PDLGeometryEstimationProblem\lBaseC()\l* PDLGeometryEstimationProblem\lBaseC()\l}">
<polygon fill="white" stroke="black" points="518,-266 518,-686 720,-686 720,-266 518,-266"/>
<text text-anchor="start" x="526" y="-674" font-family="FreeSans" font-size="10.00">SeeSawN::OptimisationN</text>
<text text-anchor="start" x="526" y="-663" font-family="FreeSans" font-size="10.00">::PDLGeometryEstimationProblem</text>
<text text-anchor="middle" x="619" y="-652" font-family="FreeSans" font-size="10.00">BaseC&lt; PDLP2PProblemC, P2PSolverC &gt;</text>
<polyline fill="none" stroke="black" points="518,-645 720,-645 "/>
<text text-anchor="start" x="526" y="-633" font-family="FreeSans" font-size="10.00"># initialEstimate</text>
<text text-anchor="start" x="526" y="-622" font-family="FreeSans" font-size="10.00"># correspondences</text>
<text text-anchor="start" x="526" y="-611" font-family="FreeSans" font-size="10.00"># solver</text>
<text text-anchor="start" x="526" y="-600" font-family="FreeSans" font-size="10.00"># errorMetric</text>
<text text-anchor="start" x="526" y="-589" font-family="FreeSans" font-size="10.00"># flagValid</text>
<polyline fill="none" stroke="black" points="518,-582 720,-582 "/>
<text text-anchor="start" x="526" y="-570" font-family="FreeSans" font-size="10.00">+ PDLGeometryEstimationProblem</text>
<text text-anchor="start" x="526" y="-559" font-family="FreeSans" font-size="10.00">BaseC()</text>
<text text-anchor="start" x="526" y="-548" font-family="FreeSans" font-size="10.00">+ PDLGeometryEstimationProblem</text>
<text text-anchor="start" x="526" y="-537" font-family="FreeSans" font-size="10.00">BaseC()</text>
<text text-anchor="start" x="526" y="-526" font-family="FreeSans" font-size="10.00"># ComputeError()</text>
<text text-anchor="start" x="526" y="-515" font-family="FreeSans" font-size="10.00"># ComputeJacobian()</text>
<text text-anchor="start" x="526" y="-504" font-family="FreeSans" font-size="10.00">* result_type</text>
<text text-anchor="start" x="526" y="-493" font-family="FreeSans" font-size="10.00">* has_normal_solver</text>
<text text-anchor="start" x="526" y="-482" font-family="FreeSans" font-size="10.00">* has_covariance_estimator</text>
<text text-anchor="start" x="526" y="-471" font-family="FreeSans" font-size="10.00">* has_nontrivial_update</text>
<text text-anchor="start" x="526" y="-460" font-family="FreeSans" font-size="10.00">* observation_set_type</text>
<text text-anchor="start" x="526" y="-449" font-family="FreeSans" font-size="10.00">* ComputeError()</text>
<text text-anchor="start" x="526" y="-438" font-family="FreeSans" font-size="10.00">* Configure()</text>
<text text-anchor="start" x="526" y="-427" font-family="FreeSans" font-size="10.00">* IsValid()</text>
<text text-anchor="start" x="526" y="-416" font-family="FreeSans" font-size="10.00">* InitialEstimate()</text>
<text text-anchor="start" x="526" y="-405" font-family="FreeSans" font-size="10.00">* Update()</text>
<text text-anchor="start" x="526" y="-394" font-family="FreeSans" font-size="10.00">and 7 more...</text>
<text text-anchor="start" x="526" y="-383" font-family="FreeSans" font-size="10.00">* initialEstimate</text>
<text text-anchor="start" x="526" y="-372" font-family="FreeSans" font-size="10.00">* correspondences</text>
<text text-anchor="start" x="526" y="-361" font-family="FreeSans" font-size="10.00">* solver</text>
<text text-anchor="start" x="526" y="-350" font-family="FreeSans" font-size="10.00">* errorMetric</text>
<text text-anchor="start" x="526" y="-339" font-family="FreeSans" font-size="10.00">* flagValid</text>
<text text-anchor="start" x="526" y="-328" font-family="FreeSans" font-size="10.00">* ComputeError()</text>
<text text-anchor="start" x="526" y="-317" font-family="FreeSans" font-size="10.00">* ComputeJacobian()</text>
<text text-anchor="start" x="526" y="-306" font-family="FreeSans" font-size="10.00">* PDLGeometryEstimationProblem</text>
<text text-anchor="start" x="526" y="-295" font-family="FreeSans" font-size="10.00">BaseC()</text>
<text text-anchor="start" x="526" y="-284" font-family="FreeSans" font-size="10.00">* PDLGeometryEstimationProblem</text>
<text text-anchor="start" x="526" y="-273" font-family="FreeSans" font-size="10.00">BaseC()</text>
</a>
</g>
</g>
<!-- Node0&#45;&gt;Node5 -->
<g id="edge5" class="edge"><title>Node0&#45;&gt;Node5</title>
<path fill="none" stroke="orange" d="M1060.92,-893.036C971.705,-868.834 842.721,-822.635 756,-743 737.922,-726.399 721.85,-706.864 707.659,-686.044"/>
<polygon fill="orange" stroke="orange" points="1060.21,-896.47 1070.78,-895.665 1062.02,-889.707 1060.21,-896.47"/>
<text text-anchor="middle" x="835.5" y="-724" font-family="FreeSans" font-size="10.00"> &lt; PDLP2PProblemC, P2PSolverC &gt;</text>
</g>
<!-- Node7 -->
<g id="node8" class="node"><title>Node7</title>
<g id="a_node8"><a xlink:href="classSeeSawN_1_1OptimisationN_1_1PDLGeometryEstimationProblemBaseC.html" target="_top" xlink:title="{SeeSawN::OptimisationN\l::PDLGeometryEstimationProblem\lBaseC\&lt; PDLSimilarity3DEstimationProblem\lC, Similarity3DSolverC \&gt;\n|# initialEstimate\l# correspondences\l# solver\l# errorMetric\l# flagValid\l|+ PDLGeometryEstimationProblem\lBaseC()\l+ PDLGeometryEstimationProblem\lBaseC()\l# ComputeError()\l# ComputeJacobian()\l* result_type\l* has_normal_solver\l* has_covariance_estimator\l* has_nontrivial_update\l* observation_set_type\l* ComputeError()\l* Configure()\l* IsValid()\l* InitialEstimate()\l* Update()\land 7 more...\l* initialEstimate\l* correspondences\l* solver\l* errorMetric\l* flagValid\l* ComputeError()\l* ComputeJacobian()\l* PDLGeometryEstimationProblem\lBaseC()\l* PDLGeometryEstimationProblem\lBaseC()\l}">
<polygon fill="white" stroke="black" points="738.5,-260.5 738.5,-691.5 945.5,-691.5 945.5,-260.5 738.5,-260.5"/>
<text text-anchor="start" x="746.5" y="-679.5" font-family="FreeSans" font-size="10.00">SeeSawN::OptimisationN</text>
<text text-anchor="start" x="746.5" y="-668.5" font-family="FreeSans" font-size="10.00">::PDLGeometryEstimationProblem</text>
<text text-anchor="start" x="746.5" y="-657.5" font-family="FreeSans" font-size="10.00">BaseC&lt; PDLSimilarity3DEstimationProblem</text>
<text text-anchor="middle" x="842" y="-646.5" font-family="FreeSans" font-size="10.00">C, Similarity3DSolverC &gt;</text>
<polyline fill="none" stroke="black" points="738.5,-639.5 945.5,-639.5 "/>
<text text-anchor="start" x="746.5" y="-627.5" font-family="FreeSans" font-size="10.00"># initialEstimate</text>
<text text-anchor="start" x="746.5" y="-616.5" font-family="FreeSans" font-size="10.00"># correspondences</text>
<text text-anchor="start" x="746.5" y="-605.5" font-family="FreeSans" font-size="10.00"># solver</text>
<text text-anchor="start" x="746.5" y="-594.5" font-family="FreeSans" font-size="10.00"># errorMetric</text>
<text text-anchor="start" x="746.5" y="-583.5" font-family="FreeSans" font-size="10.00"># flagValid</text>
<polyline fill="none" stroke="black" points="738.5,-576.5 945.5,-576.5 "/>
<text text-anchor="start" x="746.5" y="-564.5" font-family="FreeSans" font-size="10.00">+ PDLGeometryEstimationProblem</text>
<text text-anchor="start" x="746.5" y="-553.5" font-family="FreeSans" font-size="10.00">BaseC()</text>
<text text-anchor="start" x="746.5" y="-542.5" font-family="FreeSans" font-size="10.00">+ PDLGeometryEstimationProblem</text>
<text text-anchor="start" x="746.5" y="-531.5" font-family="FreeSans" font-size="10.00">BaseC()</text>
<text text-anchor="start" x="746.5" y="-520.5" font-family="FreeSans" font-size="10.00"># ComputeError()</text>
<text text-anchor="start" x="746.5" y="-509.5" font-family="FreeSans" font-size="10.00"># ComputeJacobian()</text>
<text text-anchor="start" x="746.5" y="-498.5" font-family="FreeSans" font-size="10.00">* result_type</text>
<text text-anchor="start" x="746.5" y="-487.5" font-family="FreeSans" font-size="10.00">* has_normal_solver</text>
<text text-anchor="start" x="746.5" y="-476.5" font-family="FreeSans" font-size="10.00">* has_covariance_estimator</text>
<text text-anchor="start" x="746.5" y="-465.5" font-family="FreeSans" font-size="10.00">* has_nontrivial_update</text>
<text text-anchor="start" x="746.5" y="-454.5" font-family="FreeSans" font-size="10.00">* observation_set_type</text>
<text text-anchor="start" x="746.5" y="-443.5" font-family="FreeSans" font-size="10.00">* ComputeError()</text>
<text text-anchor="start" x="746.5" y="-432.5" font-family="FreeSans" font-size="10.00">* Configure()</text>
<text text-anchor="start" x="746.5" y="-421.5" font-family="FreeSans" font-size="10.00">* IsValid()</text>
<text text-anchor="start" x="746.5" y="-410.5" font-family="FreeSans" font-size="10.00">* InitialEstimate()</text>
<text text-anchor="start" x="746.5" y="-399.5" font-family="FreeSans" font-size="10.00">* Update()</text>
<text text-anchor="start" x="746.5" y="-388.5" font-family="FreeSans" font-size="10.00">and 7 more...</text>
<text text-anchor="start" x="746.5" y="-377.5" font-family="FreeSans" font-size="10.00">* initialEstimate</text>
<text text-anchor="start" x="746.5" y="-366.5" font-family="FreeSans" font-size="10.00">* correspondences</text>
<text text-anchor="start" x="746.5" y="-355.5" font-family="FreeSans" font-size="10.00">* solver</text>
<text text-anchor="start" x="746.5" y="-344.5" font-family="FreeSans" font-size="10.00">* errorMetric</text>
<text text-anchor="start" x="746.5" y="-333.5" font-family="FreeSans" font-size="10.00">* flagValid</text>
<text text-anchor="start" x="746.5" y="-322.5" font-family="FreeSans" font-size="10.00">* ComputeError()</text>
<text text-anchor="start" x="746.5" y="-311.5" font-family="FreeSans" font-size="10.00">* ComputeJacobian()</text>
<text text-anchor="start" x="746.5" y="-300.5" font-family="FreeSans" font-size="10.00">* PDLGeometryEstimationProblem</text>
<text text-anchor="start" x="746.5" y="-289.5" font-family="FreeSans" font-size="10.00">BaseC()</text>
<text text-anchor="start" x="746.5" y="-278.5" font-family="FreeSans" font-size="10.00">* PDLGeometryEstimationProblem</text>
<text text-anchor="start" x="746.5" y="-267.5" font-family="FreeSans" font-size="10.00">BaseC()</text>
</a>
</g>
</g>
<!-- Node0&#45;&gt;Node7 -->
<g id="edge7" class="edge"><title>Node0&#45;&gt;Node7</title>
<path fill="none" stroke="orange" d="M1062.3,-856.486C1019.47,-826.963 971.826,-787.923 939,-743 927.4,-727.125 917.056,-709.716 907.86,-691.641"/>
<polygon fill="orange" stroke="orange" points="1060.55,-859.534 1070.79,-862.263 1064.49,-853.746 1060.55,-859.534"/>
<text text-anchor="start" x="939" y="-729.5" font-family="FreeSans" font-size="10.00"> &lt; PDLSimilarity3DEstimation</text>
<text text-anchor="middle" x="1010.5" y="-718.5" font-family="FreeSans" font-size="10.00">ProblemC, Similarity3DSolverC &gt;</text>
</g>
<!-- Node9 -->
<g id="node10" class="node"><title>Node9</title>
<g id="a_node10"><a xlink:href="classSeeSawN_1_1OptimisationN_1_1PDLGeometryEstimationProblemBaseC.html" target="_top" xlink:title="{SeeSawN::OptimisationN\l::PDLGeometryEstimationProblem\lBaseC\&lt; PDLEssentialMatrixEstimation\lProblemC, EssentialSolverC \&gt;\n|# initialEstimate\l# correspondences\l# solver\l# errorMetric\l# flagValid\l|+ PDLGeometryEstimationProblem\lBaseC()\l+ PDLGeometryEstimationProblem\lBaseC()\l# ComputeError()\l# ComputeJacobian()\l* result_type\l* has_normal_solver\l* has_covariance_estimator\l* has_nontrivial_update\l* observation_set_type\l* ComputeError()\l* Configure()\l* IsValid()\l* InitialEstimate()\l* Update()\land 7 more...\l* initialEstimate\l* correspondences\l* solver\l* errorMetric\l* flagValid\l* ComputeError()\l* ComputeJacobian()\l* PDLGeometryEstimationProblem\lBaseC()\l* PDLGeometryEstimationProblem\lBaseC()\l}">
<polygon fill="white" stroke="black" points="963.5,-260.5 963.5,-691.5 1148.5,-691.5 1148.5,-260.5 963.5,-260.5"/>
<text text-anchor="start" x="971.5" y="-679.5" font-family="FreeSans" font-size="10.00">SeeSawN::OptimisationN</text>
<text text-anchor="start" x="971.5" y="-668.5" font-family="FreeSans" font-size="10.00">::PDLGeometryEstimationProblem</text>
<text text-anchor="start" x="971.5" y="-657.5" font-family="FreeSans" font-size="10.00">BaseC&lt; PDLEssentialMatrixEstimation</text>
<text text-anchor="middle" x="1056" y="-646.5" font-family="FreeSans" font-size="10.00">ProblemC, EssentialSolverC &gt;</text>
<polyline fill="none" stroke="black" points="963.5,-639.5 1148.5,-639.5 "/>
<text text-anchor="start" x="971.5" y="-627.5" font-family="FreeSans" font-size="10.00"># initialEstimate</text>
<text text-anchor="start" x="971.5" y="-616.5" font-family="FreeSans" font-size="10.00"># correspondences</text>
<text text-anchor="start" x="971.5" y="-605.5" font-family="FreeSans" font-size="10.00"># solver</text>
<text text-anchor="start" x="971.5" y="-594.5" font-family="FreeSans" font-size="10.00"># errorMetric</text>
<text text-anchor="start" x="971.5" y="-583.5" font-family="FreeSans" font-size="10.00"># flagValid</text>
<polyline fill="none" stroke="black" points="963.5,-576.5 1148.5,-576.5 "/>
<text text-anchor="start" x="971.5" y="-564.5" font-family="FreeSans" font-size="10.00">+ PDLGeometryEstimationProblem</text>
<text text-anchor="start" x="971.5" y="-553.5" font-family="FreeSans" font-size="10.00">BaseC()</text>
<text text-anchor="start" x="971.5" y="-542.5" font-family="FreeSans" font-size="10.00">+ PDLGeometryEstimationProblem</text>
<text text-anchor="start" x="971.5" y="-531.5" font-family="FreeSans" font-size="10.00">BaseC()</text>
<text text-anchor="start" x="971.5" y="-520.5" font-family="FreeSans" font-size="10.00"># ComputeError()</text>
<text text-anchor="start" x="971.5" y="-509.5" font-family="FreeSans" font-size="10.00"># ComputeJacobian()</text>
<text text-anchor="start" x="971.5" y="-498.5" font-family="FreeSans" font-size="10.00">* result_type</text>
<text text-anchor="start" x="971.5" y="-487.5" font-family="FreeSans" font-size="10.00">* has_normal_solver</text>
<text text-anchor="start" x="971.5" y="-476.5" font-family="FreeSans" font-size="10.00">* has_covariance_estimator</text>
<text text-anchor="start" x="971.5" y="-465.5" font-family="FreeSans" font-size="10.00">* has_nontrivial_update</text>
<text text-anchor="start" x="971.5" y="-454.5" font-family="FreeSans" font-size="10.00">* observation_set_type</text>
<text text-anchor="start" x="971.5" y="-443.5" font-family="FreeSans" font-size="10.00">* ComputeError()</text>
<text text-anchor="start" x="971.5" y="-432.5" font-family="FreeSans" font-size="10.00">* Configure()</text>
<text text-anchor="start" x="971.5" y="-421.5" font-family="FreeSans" font-size="10.00">* IsValid()</text>
<text text-anchor="start" x="971.5" y="-410.5" font-family="FreeSans" font-size="10.00">* InitialEstimate()</text>
<text text-anchor="start" x="971.5" y="-399.5" font-family="FreeSans" font-size="10.00">* Update()</text>
<text text-anchor="start" x="971.5" y="-388.5" font-family="FreeSans" font-size="10.00">and 7 more...</text>
<text text-anchor="start" x="971.5" y="-377.5" font-family="FreeSans" font-size="10.00">* initialEstimate</text>
<text text-anchor="start" x="971.5" y="-366.5" font-family="FreeSans" font-size="10.00">* correspondences</text>
<text text-anchor="start" x="971.5" y="-355.5" font-family="FreeSans" font-size="10.00">* solver</text>
<text text-anchor="start" x="971.5" y="-344.5" font-family="FreeSans" font-size="10.00">* errorMetric</text>
<text text-anchor="start" x="971.5" y="-333.5" font-family="FreeSans" font-size="10.00">* flagValid</text>
<text text-anchor="start" x="971.5" y="-322.5" font-family="FreeSans" font-size="10.00">* ComputeError()</text>
<text text-anchor="start" x="971.5" y="-311.5" font-family="FreeSans" font-size="10.00">* ComputeJacobian()</text>
<text text-anchor="start" x="971.5" y="-300.5" font-family="FreeSans" font-size="10.00">* PDLGeometryEstimationProblem</text>
<text text-anchor="start" x="971.5" y="-289.5" font-family="FreeSans" font-size="10.00">BaseC()</text>
<text text-anchor="start" x="971.5" y="-278.5" font-family="FreeSans" font-size="10.00">* PDLGeometryEstimationProblem</text>
<text text-anchor="start" x="971.5" y="-267.5" font-family="FreeSans" font-size="10.00">BaseC()</text>
</a>
</g>
</g>
<!-- Node0&#45;&gt;Node9 -->
<g id="edge9" class="edge"><title>Node0&#45;&gt;Node9</title>
<path fill="none" stroke="orange" d="M1094.38,-751.608C1093.55,-748.726 1092.76,-745.855 1092,-743 1087.6,-726.45 1083.72,-709.169 1080.3,-691.71"/>
<polygon fill="orange" stroke="orange" points="1091.1,-752.857 1097.31,-761.444 1097.81,-750.861 1091.1,-752.857"/>
<text text-anchor="start" x="1092" y="-729.5" font-family="FreeSans" font-size="10.00"> &lt; PDLEssentialMatrixEstimation</text>
<text text-anchor="middle" x="1163" y="-718.5" font-family="FreeSans" font-size="10.00">ProblemC, EssentialSolverC &gt;</text>
</g>
<!-- Node11 -->
<g id="node12" class="node"><title>Node11</title>
<g id="a_node12"><a xlink:href="classSeeSawN_1_1OptimisationN_1_1PDLGeometryEstimationProblemBaseC.html" target="_top" xlink:title="{SeeSawN::OptimisationN\l::PDLGeometryEstimationProblem\lBaseC\&lt; PDLFundamentalMatrixEstimation\lProblemC, Fundamental7SolverC \&gt;\n|# initialEstimate\l# correspondences\l# solver\l# errorMetric\l# flagValid\l|+ PDLGeometryEstimationProblem\lBaseC()\l+ PDLGeometryEstimationProblem\lBaseC()\l# ComputeError()\l# ComputeJacobian()\l* result_type\l* has_normal_solver\l* has_covariance_estimator\l* has_nontrivial_update\l* observation_set_type\l* ComputeError()\l* Configure()\l* IsValid()\l* InitialEstimate()\l* Update()\land 7 more...\l* initialEstimate\l* correspondences\l* solver\l* errorMetric\l* flagValid\l* ComputeError()\l* ComputeJacobian()\l* PDLGeometryEstimationProblem\lBaseC()\l* PDLGeometryEstimationProblem\lBaseC()\l}">
<polygon fill="white" stroke="black" points="1167,-260.5 1167,-691.5 1369,-691.5 1369,-260.5 1167,-260.5"/>
<text text-anchor="start" x="1175" y="-679.5" font-family="FreeSans" font-size="10.00">SeeSawN::OptimisationN</text>
<text text-anchor="start" x="1175" y="-668.5" font-family="FreeSans" font-size="10.00">::PDLGeometryEstimationProblem</text>
<text text-anchor="start" x="1175" y="-657.5" font-family="FreeSans" font-size="10.00">BaseC&lt; PDLFundamentalMatrixEstimation</text>
<text text-anchor="middle" x="1268" y="-646.5" font-family="FreeSans" font-size="10.00">ProblemC, Fundamental7SolverC &gt;</text>
<polyline fill="none" stroke="black" points="1167,-639.5 1369,-639.5 "/>
<text text-anchor="start" x="1175" y="-627.5" font-family="FreeSans" font-size="10.00"># initialEstimate</text>
<text text-anchor="start" x="1175" y="-616.5" font-family="FreeSans" font-size="10.00"># correspondences</text>
<text text-anchor="start" x="1175" y="-605.5" font-family="FreeSans" font-size="10.00"># solver</text>
<text text-anchor="start" x="1175" y="-594.5" font-family="FreeSans" font-size="10.00"># errorMetric</text>
<text text-anchor="start" x="1175" y="-583.5" font-family="FreeSans" font-size="10.00"># flagValid</text>
<polyline fill="none" stroke="black" points="1167,-576.5 1369,-576.5 "/>
<text text-anchor="start" x="1175" y="-564.5" font-family="FreeSans" font-size="10.00">+ PDLGeometryEstimationProblem</text>
<text text-anchor="start" x="1175" y="-553.5" font-family="FreeSans" font-size="10.00">BaseC()</text>
<text text-anchor="start" x="1175" y="-542.5" font-family="FreeSans" font-size="10.00">+ PDLGeometryEstimationProblem</text>
<text text-anchor="start" x="1175" y="-531.5" font-family="FreeSans" font-size="10.00">BaseC()</text>
<text text-anchor="start" x="1175" y="-520.5" font-family="FreeSans" font-size="10.00"># ComputeError()</text>
<text text-anchor="start" x="1175" y="-509.5" font-family="FreeSans" font-size="10.00"># ComputeJacobian()</text>
<text text-anchor="start" x="1175" y="-498.5" font-family="FreeSans" font-size="10.00">* result_type</text>
<text text-anchor="start" x="1175" y="-487.5" font-family="FreeSans" font-size="10.00">* has_normal_solver</text>
<text text-anchor="start" x="1175" y="-476.5" font-family="FreeSans" font-size="10.00">* has_covariance_estimator</text>
<text text-anchor="start" x="1175" y="-465.5" font-family="FreeSans" font-size="10.00">* has_nontrivial_update</text>
<text text-anchor="start" x="1175" y="-454.5" font-family="FreeSans" font-size="10.00">* observation_set_type</text>
<text text-anchor="start" x="1175" y="-443.5" font-family="FreeSans" font-size="10.00">* ComputeError()</text>
<text text-anchor="start" x="1175" y="-432.5" font-family="FreeSans" font-size="10.00">* Configure()</text>
<text text-anchor="start" x="1175" y="-421.5" font-family="FreeSans" font-size="10.00">* IsValid()</text>
<text text-anchor="start" x="1175" y="-410.5" font-family="FreeSans" font-size="10.00">* InitialEstimate()</text>
<text text-anchor="start" x="1175" y="-399.5" font-family="FreeSans" font-size="10.00">* Update()</text>
<text text-anchor="start" x="1175" y="-388.5" font-family="FreeSans" font-size="10.00">and 7 more...</text>
<text text-anchor="start" x="1175" y="-377.5" font-family="FreeSans" font-size="10.00">* initialEstimate</text>
<text text-anchor="start" x="1175" y="-366.5" font-family="FreeSans" font-size="10.00">* correspondences</text>
<text text-anchor="start" x="1175" y="-355.5" font-family="FreeSans" font-size="10.00">* solver</text>
<text text-anchor="start" x="1175" y="-344.5" font-family="FreeSans" font-size="10.00">* errorMetric</text>
<text text-anchor="start" x="1175" y="-333.5" font-family="FreeSans" font-size="10.00">* flagValid</text>
<text text-anchor="start" x="1175" y="-322.5" font-family="FreeSans" font-size="10.00">* ComputeError()</text>
<text text-anchor="start" x="1175" y="-311.5" font-family="FreeSans" font-size="10.00">* ComputeJacobian()</text>
<text text-anchor="start" x="1175" y="-300.5" font-family="FreeSans" font-size="10.00">* PDLGeometryEstimationProblem</text>
<text text-anchor="start" x="1175" y="-289.5" font-family="FreeSans" font-size="10.00">BaseC()</text>
<text text-anchor="start" x="1175" y="-278.5" font-family="FreeSans" font-size="10.00">* PDLGeometryEstimationProblem</text>
<text text-anchor="start" x="1175" y="-267.5" font-family="FreeSans" font-size="10.00">BaseC()</text>
</a>
</g>
</g>
<!-- Node0&#45;&gt;Node11 -->
<g id="edge11" class="edge"><title>Node0&#45;&gt;Node11</title>
<path fill="none" stroke="orange" d="M1231.66,-751.416C1232.47,-748.599 1233.25,-745.792 1234,-743 1238.42,-726.471 1242.27,-709.206 1245.63,-691.757"/>
<polygon fill="orange" stroke="orange" points="1228.3,-750.441 1228.77,-761.025 1235,-752.453 1228.3,-750.441"/>
<text text-anchor="start" x="1241" y="-729.5" font-family="FreeSans" font-size="10.00"> &lt; PDLFundamentalMatrixEstimation</text>
<text text-anchor="middle" x="1320.5" y="-718.5" font-family="FreeSans" font-size="10.00">ProblemC, Fundamental7SolverC &gt;</text>
</g>
<!-- Node13 -->
<g id="node14" class="node"><title>Node13</title>
<g id="a_node14"><a xlink:href="classSeeSawN_1_1OptimisationN_1_1PDLGeometryEstimationProblemBaseC.html" target="_top" xlink:title="{SeeSawN::OptimisationN\l::PDLGeometryEstimationProblem\lBaseC\&lt; PDLRotation3DEstimationProblem\lC, Rotation3DSolverC \&gt;\n|# initialEstimate\l# correspondences\l# solver\l# errorMetric\l# flagValid\l|+ PDLGeometryEstimationProblem\lBaseC()\l+ PDLGeometryEstimationProblem\lBaseC()\l# ComputeError()\l# ComputeJacobian()\l* result_type\l* has_normal_solver\l* has_covariance_estimator\l* has_nontrivial_update\l* observation_set_type\l* ComputeError()\l* Configure()\l* IsValid()\l* InitialEstimate()\l* Update()\land 7 more...\l* initialEstimate\l* correspondences\l* solver\l* errorMetric\l* flagValid\l* ComputeError()\l* ComputeJacobian()\l* PDLGeometryEstimationProblem\lBaseC()\l* PDLGeometryEstimationProblem\lBaseC()\l}">
<polygon fill="white" stroke="black" points="1387.5,-260.5 1387.5,-691.5 1590.5,-691.5 1590.5,-260.5 1387.5,-260.5"/>
<text text-anchor="start" x="1395.5" y="-679.5" font-family="FreeSans" font-size="10.00">SeeSawN::OptimisationN</text>
<text text-anchor="start" x="1395.5" y="-668.5" font-family="FreeSans" font-size="10.00">::PDLGeometryEstimationProblem</text>
<text text-anchor="start" x="1395.5" y="-657.5" font-family="FreeSans" font-size="10.00">BaseC&lt; PDLRotation3DEstimationProblem</text>
<text text-anchor="middle" x="1489" y="-646.5" font-family="FreeSans" font-size="10.00">C, Rotation3DSolverC &gt;</text>
<polyline fill="none" stroke="black" points="1387.5,-639.5 1590.5,-639.5 "/>
<text text-anchor="start" x="1395.5" y="-627.5" font-family="FreeSans" font-size="10.00"># initialEstimate</text>
<text text-anchor="start" x="1395.5" y="-616.5" font-family="FreeSans" font-size="10.00"># correspondences</text>
<text text-anchor="start" x="1395.5" y="-605.5" font-family="FreeSans" font-size="10.00"># solver</text>
<text text-anchor="start" x="1395.5" y="-594.5" font-family="FreeSans" font-size="10.00"># errorMetric</text>
<text text-anchor="start" x="1395.5" y="-583.5" font-family="FreeSans" font-size="10.00"># flagValid</text>
<polyline fill="none" stroke="black" points="1387.5,-576.5 1590.5,-576.5 "/>
<text text-anchor="start" x="1395.5" y="-564.5" font-family="FreeSans" font-size="10.00">+ PDLGeometryEstimationProblem</text>
<text text-anchor="start" x="1395.5" y="-553.5" font-family="FreeSans" font-size="10.00">BaseC()</text>
<text text-anchor="start" x="1395.5" y="-542.5" font-family="FreeSans" font-size="10.00">+ PDLGeometryEstimationProblem</text>
<text text-anchor="start" x="1395.5" y="-531.5" font-family="FreeSans" font-size="10.00">BaseC()</text>
<text text-anchor="start" x="1395.5" y="-520.5" font-family="FreeSans" font-size="10.00"># ComputeError()</text>
<text text-anchor="start" x="1395.5" y="-509.5" font-family="FreeSans" font-size="10.00"># ComputeJacobian()</text>
<text text-anchor="start" x="1395.5" y="-498.5" font-family="FreeSans" font-size="10.00">* result_type</text>
<text text-anchor="start" x="1395.5" y="-487.5" font-family="FreeSans" font-size="10.00">* has_normal_solver</text>
<text text-anchor="start" x="1395.5" y="-476.5" font-family="FreeSans" font-size="10.00">* has_covariance_estimator</text>
<text text-anchor="start" x="1395.5" y="-465.5" font-family="FreeSans" font-size="10.00">* has_nontrivial_update</text>
<text text-anchor="start" x="1395.5" y="-454.5" font-family="FreeSans" font-size="10.00">* observation_set_type</text>
<text text-anchor="start" x="1395.5" y="-443.5" font-family="FreeSans" font-size="10.00">* ComputeError()</text>
<text text-anchor="start" x="1395.5" y="-432.5" font-family="FreeSans" font-size="10.00">* Configure()</text>
<text text-anchor="start" x="1395.5" y="-421.5" font-family="FreeSans" font-size="10.00">* IsValid()</text>
<text text-anchor="start" x="1395.5" y="-410.5" font-family="FreeSans" font-size="10.00">* InitialEstimate()</text>
<text text-anchor="start" x="1395.5" y="-399.5" font-family="FreeSans" font-size="10.00">* Update()</text>
<text text-anchor="start" x="1395.5" y="-388.5" font-family="FreeSans" font-size="10.00">and 7 more...</text>
<text text-anchor="start" x="1395.5" y="-377.5" font-family="FreeSans" font-size="10.00">* initialEstimate</text>
<text text-anchor="start" x="1395.5" y="-366.5" font-family="FreeSans" font-size="10.00">* correspondences</text>
<text text-anchor="start" x="1395.5" y="-355.5" font-family="FreeSans" font-size="10.00">* solver</text>
<text text-anchor="start" x="1395.5" y="-344.5" font-family="FreeSans" font-size="10.00">* errorMetric</text>
<text text-anchor="start" x="1395.5" y="-333.5" font-family="FreeSans" font-size="10.00">* flagValid</text>
<text text-anchor="start" x="1395.5" y="-322.5" font-family="FreeSans" font-size="10.00">* ComputeError()</text>
<text text-anchor="start" x="1395.5" y="-311.5" font-family="FreeSans" font-size="10.00">* ComputeJacobian()</text>
<text text-anchor="start" x="1395.5" y="-300.5" font-family="FreeSans" font-size="10.00">* PDLGeometryEstimationProblem</text>
<text text-anchor="start" x="1395.5" y="-289.5" font-family="FreeSans" font-size="10.00">BaseC()</text>
<text text-anchor="start" x="1395.5" y="-278.5" font-family="FreeSans" font-size="10.00">* PDLGeometryEstimationProblem</text>
<text text-anchor="start" x="1395.5" y="-267.5" font-family="FreeSans" font-size="10.00">BaseC()</text>
</a>
</g>
</g>
<!-- Node0&#45;&gt;Node13 -->
<g id="edge13" class="edge"><title>Node0&#45;&gt;Node13</title>
<path fill="none" stroke="orange" d="M1261.95,-864.417C1310.92,-834.876 1367.13,-793.522 1404,-743 1415.5,-727.237 1425.49,-709.855 1434.15,-691.754"/>
<polygon fill="orange" stroke="orange" points="1260.02,-861.491 1253.21,-869.609 1263.59,-867.509 1260.02,-861.491"/>
<text text-anchor="start" x="1425" y="-729.5" font-family="FreeSans" font-size="10.00"> &lt; PDLRotation3DEstimation</text>
<text text-anchor="middle" x="1494.5" y="-718.5" font-family="FreeSans" font-size="10.00">ProblemC, Rotation3DSolverC &gt;</text>
</g>
<!-- Node15 -->
<g id="node16" class="node"><title>Node15</title>
<g id="a_node16"><a xlink:href="classSeeSawN_1_1OptimisationN_1_1PDLGeometryEstimationProblemBaseC.html" target="_top" xlink:title="{SeeSawN::OptimisationN\l::PDLGeometryEstimationProblem\lBaseC\&lt; PDLP2PfProblemC, P2PfSolverC \&gt;\n|# initialEstimate\l# correspondences\l# solver\l# errorMetric\l# flagValid\l|+ PDLGeometryEstimationProblem\lBaseC()\l+ PDLGeometryEstimationProblem\lBaseC()\l# ComputeError()\l# ComputeJacobian()\l* result_type\l* has_normal_solver\l* has_covariance_estimator\l* has_nontrivial_update\l* observation_set_type\l* ComputeError()\l* Configure()\l* IsValid()\l* InitialEstimate()\l* Update()\land 7 more...\l* initialEstimate\l* correspondences\l* solver\l* errorMetric\l* flagValid\l* ComputeError()\l* ComputeJacobian()\l* PDLGeometryEstimationProblem\lBaseC()\l* PDLGeometryEstimationProblem\lBaseC()\l}">
<polygon fill="white" stroke="black" points="1609,-266 1609,-686 1817,-686 1817,-266 1609,-266"/>
<text text-anchor="start" x="1617" y="-674" font-family="FreeSans" font-size="10.00">SeeSawN::OptimisationN</text>
<text text-anchor="start" x="1617" y="-663" font-family="FreeSans" font-size="10.00">::PDLGeometryEstimationProblem</text>
<text text-anchor="middle" x="1713" y="-652" font-family="FreeSans" font-size="10.00">BaseC&lt; PDLP2PfProblemC, P2PfSolverC &gt;</text>
<polyline fill="none" stroke="black" points="1609,-645 1817,-645 "/>
<text text-anchor="start" x="1617" y="-633" font-family="FreeSans" font-size="10.00"># initialEstimate</text>
<text text-anchor="start" x="1617" y="-622" font-family="FreeSans" font-size="10.00"># correspondences</text>
<text text-anchor="start" x="1617" y="-611" font-family="FreeSans" font-size="10.00"># solver</text>
<text text-anchor="start" x="1617" y="-600" font-family="FreeSans" font-size="10.00"># errorMetric</text>
<text text-anchor="start" x="1617" y="-589" font-family="FreeSans" font-size="10.00"># flagValid</text>
<polyline fill="none" stroke="black" points="1609,-582 1817,-582 "/>
<text text-anchor="start" x="1617" y="-570" font-family="FreeSans" font-size="10.00">+ PDLGeometryEstimationProblem</text>
<text text-anchor="start" x="1617" y="-559" font-family="FreeSans" font-size="10.00">BaseC()</text>
<text text-anchor="start" x="1617" y="-548" font-family="FreeSans" font-size="10.00">+ PDLGeometryEstimationProblem</text>
<text text-anchor="start" x="1617" y="-537" font-family="FreeSans" font-size="10.00">BaseC()</text>
<text text-anchor="start" x="1617" y="-526" font-family="FreeSans" font-size="10.00"># ComputeError()</text>
<text text-anchor="start" x="1617" y="-515" font-family="FreeSans" font-size="10.00"># ComputeJacobian()</text>
<text text-anchor="start" x="1617" y="-504" font-family="FreeSans" font-size="10.00">* result_type</text>
<text text-anchor="start" x="1617" y="-493" font-family="FreeSans" font-size="10.00">* has_normal_solver</text>
<text text-anchor="start" x="1617" y="-482" font-family="FreeSans" font-size="10.00">* has_covariance_estimator</text>
<text text-anchor="start" x="1617" y="-471" font-family="FreeSans" font-size="10.00">* has_nontrivial_update</text>
<text text-anchor="start" x="1617" y="-460" font-family="FreeSans" font-size="10.00">* observation_set_type</text>
<text text-anchor="start" x="1617" y="-449" font-family="FreeSans" font-size="10.00">* ComputeError()</text>
<text text-anchor="start" x="1617" y="-438" font-family="FreeSans" font-size="10.00">* Configure()</text>
<text text-anchor="start" x="1617" y="-427" font-family="FreeSans" font-size="10.00">* IsValid()</text>
<text text-anchor="start" x="1617" y="-416" font-family="FreeSans" font-size="10.00">* InitialEstimate()</text>
<text text-anchor="start" x="1617" y="-405" font-family="FreeSans" font-size="10.00">* Update()</text>
<text text-anchor="start" x="1617" y="-394" font-family="FreeSans" font-size="10.00">and 7 more...</text>
<text text-anchor="start" x="1617" y="-383" font-family="FreeSans" font-size="10.00">* initialEstimate</text>
<text text-anchor="start" x="1617" y="-372" font-family="FreeSans" font-size="10.00">* correspondences</text>
<text text-anchor="start" x="1617" y="-361" font-family="FreeSans" font-size="10.00">* solver</text>
<text text-anchor="start" x="1617" y="-350" font-family="FreeSans" font-size="10.00">* errorMetric</text>
<text text-anchor="start" x="1617" y="-339" font-family="FreeSans" font-size="10.00">* flagValid</text>
<text text-anchor="start" x="1617" y="-328" font-family="FreeSans" font-size="10.00">* ComputeError()</text>
<text text-anchor="start" x="1617" y="-317" font-family="FreeSans" font-size="10.00">* ComputeJacobian()</text>
<text text-anchor="start" x="1617" y="-306" font-family="FreeSans" font-size="10.00">* PDLGeometryEstimationProblem</text>
<text text-anchor="start" x="1617" y="-295" font-family="FreeSans" font-size="10.00">BaseC()</text>
<text text-anchor="start" x="1617" y="-284" font-family="FreeSans" font-size="10.00">* PDLGeometryEstimationProblem</text>
<text text-anchor="start" x="1617" y="-273" font-family="FreeSans" font-size="10.00">BaseC()</text>
</a>
</g>
</g>
<!-- Node0&#45;&gt;Node15 -->
<g id="edge15" class="edge"><title>Node0&#45;&gt;Node15</title>
<path fill="none" stroke="orange" d="M1262.81,-891.553C1351.25,-866.46 1479.24,-819.79 1568,-743 1586.99,-726.569 1603.95,-707.012 1618.96,-686.069"/>
<polygon fill="orange" stroke="orange" points="1261.72,-888.222 1253.03,-894.284 1263.6,-894.964 1261.72,-888.222"/>
<text text-anchor="start" x="1597" y="-729.5" font-family="FreeSans" font-size="10.00"> &lt; PDLP2PfProblemC,</text>
<text text-anchor="middle" x="1646" y="-718.5" font-family="FreeSans" font-size="10.00"> P2PfSolverC &gt;</text>
</g>
<!-- Node17 -->
<g id="node18" class="node"><title>Node17</title>
<g id="a_node18"><a xlink:href="classSeeSawN_1_1OptimisationN_1_1PDLGeometryEstimationProblemBaseC.html" target="_top" xlink:title="{SeeSawN::OptimisationN\l::PDLGeometryEstimationProblem\lBaseC\&lt; PDLP3PProblemC, P3PSolverC \&gt;\n|# initialEstimate\l# correspondences\l# solver\l# errorMetric\l# flagValid\l|+ PDLGeometryEstimationProblem\lBaseC()\l+ PDLGeometryEstimationProblem\lBaseC()\l# ComputeError()\l# ComputeJacobian()\l* result_type\l* has_normal_solver\l* has_covariance_estimator\l* has_nontrivial_update\l* observation_set_type\l* ComputeError()\l* Configure()\l* IsValid()\l* InitialEstimate()\l* Update()\land 7 more...\l* initialEstimate\l* correspondences\l* solver\l* errorMetric\l* flagValid\l* ComputeError()\l* ComputeJacobian()\l* PDLGeometryEstimationProblem\lBaseC()\l* PDLGeometryEstimationProblem\lBaseC()\l}">
<polygon fill="white" stroke="black" points="1835,-266 1835,-686 2037,-686 2037,-266 1835,-266"/>
<text text-anchor="start" x="1843" y="-674" font-family="FreeSans" font-size="10.00">SeeSawN::OptimisationN</text>
<text text-anchor="start" x="1843" y="-663" font-family="FreeSans" font-size="10.00">::PDLGeometryEstimationProblem</text>
<text text-anchor="middle" x="1936" y="-652" font-family="FreeSans" font-size="10.00">BaseC&lt; PDLP3PProblemC, P3PSolverC &gt;</text>
<polyline fill="none" stroke="black" points="1835,-645 2037,-645 "/>
<text text-anchor="start" x="1843" y="-633" font-family="FreeSans" font-size="10.00"># initialEstimate</text>
<text text-anchor="start" x="1843" y="-622" font-family="FreeSans" font-size="10.00"># correspondences</text>
<text text-anchor="start" x="1843" y="-611" font-family="FreeSans" font-size="10.00"># solver</text>
<text text-anchor="start" x="1843" y="-600" font-family="FreeSans" font-size="10.00"># errorMetric</text>
<text text-anchor="start" x="1843" y="-589" font-family="FreeSans" font-size="10.00"># flagValid</text>
<polyline fill="none" stroke="black" points="1835,-582 2037,-582 "/>
<text text-anchor="start" x="1843" y="-570" font-family="FreeSans" font-size="10.00">+ PDLGeometryEstimationProblem</text>
<text text-anchor="start" x="1843" y="-559" font-family="FreeSans" font-size="10.00">BaseC()</text>
<text text-anchor="start" x="1843" y="-548" font-family="FreeSans" font-size="10.00">+ PDLGeometryEstimationProblem</text>
<text text-anchor="start" x="1843" y="-537" font-family="FreeSans" font-size="10.00">BaseC()</text>
<text text-anchor="start" x="1843" y="-526" font-family="FreeSans" font-size="10.00"># ComputeError()</text>
<text text-anchor="start" x="1843" y="-515" font-family="FreeSans" font-size="10.00"># ComputeJacobian()</text>
<text text-anchor="start" x="1843" y="-504" font-family="FreeSans" font-size="10.00">* result_type</text>
<text text-anchor="start" x="1843" y="-493" font-family="FreeSans" font-size="10.00">* has_normal_solver</text>
<text text-anchor="start" x="1843" y="-482" font-family="FreeSans" font-size="10.00">* has_covariance_estimator</text>
<text text-anchor="start" x="1843" y="-471" font-family="FreeSans" font-size="10.00">* has_nontrivial_update</text>
<text text-anchor="start" x="1843" y="-460" font-family="FreeSans" font-size="10.00">* observation_set_type</text>
<text text-anchor="start" x="1843" y="-449" font-family="FreeSans" font-size="10.00">* ComputeError()</text>
<text text-anchor="start" x="1843" y="-438" font-family="FreeSans" font-size="10.00">* Configure()</text>
<text text-anchor="start" x="1843" y="-427" font-family="FreeSans" font-size="10.00">* IsValid()</text>
<text text-anchor="start" x="1843" y="-416" font-family="FreeSans" font-size="10.00">* InitialEstimate()</text>
<text text-anchor="start" x="1843" y="-405" font-family="FreeSans" font-size="10.00">* Update()</text>
<text text-anchor="start" x="1843" y="-394" font-family="FreeSans" font-size="10.00">and 7 more...</text>
<text text-anchor="start" x="1843" y="-383" font-family="FreeSans" font-size="10.00">* initialEstimate</text>
<text text-anchor="start" x="1843" y="-372" font-family="FreeSans" font-size="10.00">* correspondences</text>
<text text-anchor="start" x="1843" y="-361" font-family="FreeSans" font-size="10.00">* solver</text>
<text text-anchor="start" x="1843" y="-350" font-family="FreeSans" font-size="10.00">* errorMetric</text>
<text text-anchor="start" x="1843" y="-339" font-family="FreeSans" font-size="10.00">* flagValid</text>
<text text-anchor="start" x="1843" y="-328" font-family="FreeSans" font-size="10.00">* ComputeError()</text>
<text text-anchor="start" x="1843" y="-317" font-family="FreeSans" font-size="10.00">* ComputeJacobian()</text>
<text text-anchor="start" x="1843" y="-306" font-family="FreeSans" font-size="10.00">* PDLGeometryEstimationProblem</text>
<text text-anchor="start" x="1843" y="-295" font-family="FreeSans" font-size="10.00">BaseC()</text>
<text text-anchor="start" x="1843" y="-284" font-family="FreeSans" font-size="10.00">* PDLGeometryEstimationProblem</text>
<text text-anchor="start" x="1843" y="-273" font-family="FreeSans" font-size="10.00">BaseC()</text>
</a>
</g>
</g>
<!-- Node0&#45;&gt;Node17 -->
<g id="edge17" class="edge"><title>Node0&#45;&gt;Node17</title>
<path fill="none" stroke="orange" d="M1263.13,-906.759C1405.48,-889.409 1665.46,-838.551 1826,-692 1828.94,-689.315 1831.82,-686.532 1834.63,-683.664"/>
<polygon fill="orange" stroke="orange" points="1262.6,-903.297 1253.08,-907.952 1263.43,-910.248 1262.6,-903.297"/>
<text text-anchor="middle" x="1877.5" y="-724" font-family="FreeSans" font-size="10.00"> &lt; PDLP3PProblemC, P3PSolverC &gt;</text>
</g>
<!-- Node19 -->
<g id="node20" class="node"><title>Node19</title>
<g id="a_node20"><a xlink:href="classSeeSawN_1_1OptimisationN_1_1PDLGeometryEstimationProblemBaseC.html" target="_top" xlink:title="{SeeSawN::OptimisationN\l::PDLGeometryEstimationProblem\lBaseC\&lt; PDLP4PProblemC, P4PSolverC \&gt;\n|# initialEstimate\l# correspondences\l# solver\l# errorMetric\l# flagValid\l|+ PDLGeometryEstimationProblem\lBaseC()\l+ PDLGeometryEstimationProblem\lBaseC()\l# ComputeError()\l# ComputeJacobian()\l* result_type\l* has_normal_solver\l* has_covariance_estimator\l* has_nontrivial_update\l* observation_set_type\l* ComputeError()\l* Configure()\l* IsValid()\l* InitialEstimate()\l* Update()\land 7 more...\l* initialEstimate\l* correspondences\l* solver\l* errorMetric\l* flagValid\l* ComputeError()\l* ComputeJacobian()\l* PDLGeometryEstimationProblem\lBaseC()\l* PDLGeometryEstimationProblem\lBaseC()\l}">
<polygon fill="white" stroke="black" points="2055,-266 2055,-686 2257,-686 2257,-266 2055,-266"/>
<text text-anchor="start" x="2063" y="-674" font-family="FreeSans" font-size="10.00">SeeSawN::OptimisationN</text>
<text text-anchor="start" x="2063" y="-663" font-family="FreeSans" font-size="10.00">::PDLGeometryEstimationProblem</text>
<text text-anchor="middle" x="2156" y="-652" font-family="FreeSans" font-size="10.00">BaseC&lt; PDLP4PProblemC, P4PSolverC &gt;</text>
<polyline fill="none" stroke="black" points="2055,-645 2257,-645 "/>
<text text-anchor="start" x="2063" y="-633" font-family="FreeSans" font-size="10.00"># initialEstimate</text>
<text text-anchor="start" x="2063" y="-622" font-family="FreeSans" font-size="10.00"># correspondences</text>
<text text-anchor="start" x="2063" y="-611" font-family="FreeSans" font-size="10.00"># solver</text>
<text text-anchor="start" x="2063" y="-600" font-family="FreeSans" font-size="10.00"># errorMetric</text>
<text text-anchor="start" x="2063" y="-589" font-family="FreeSans" font-size="10.00"># flagValid</text>
<polyline fill="none" stroke="black" points="2055,-582 2257,-582 "/>
<text text-anchor="start" x="2063" y="-570" font-family="FreeSans" font-size="10.00">+ PDLGeometryEstimationProblem</text>
<text text-anchor="start" x="2063" y="-559" font-family="FreeSans" font-size="10.00">BaseC()</text>
<text text-anchor="start" x="2063" y="-548" font-family="FreeSans" font-size="10.00">+ PDLGeometryEstimationProblem</text>
<text text-anchor="start" x="2063" y="-537" font-family="FreeSans" font-size="10.00">BaseC()</text>
<text text-anchor="start" x="2063" y="-526" font-family="FreeSans" font-size="10.00"># ComputeError()</text>
<text text-anchor="start" x="2063" y="-515" font-family="FreeSans" font-size="10.00"># ComputeJacobian()</text>
<text text-anchor="start" x="2063" y="-504" font-family="FreeSans" font-size="10.00">* result_type</text>
<text text-anchor="start" x="2063" y="-493" font-family="FreeSans" font-size="10.00">* has_normal_solver</text>
<text text-anchor="start" x="2063" y="-482" font-family="FreeSans" font-size="10.00">* has_covariance_estimator</text>
<text text-anchor="start" x="2063" y="-471" font-family="FreeSans" font-size="10.00">* has_nontrivial_update</text>
<text text-anchor="start" x="2063" y="-460" font-family="FreeSans" font-size="10.00">* observation_set_type</text>
<text text-anchor="start" x="2063" y="-449" font-family="FreeSans" font-size="10.00">* ComputeError()</text>
<text text-anchor="start" x="2063" y="-438" font-family="FreeSans" font-size="10.00">* Configure()</text>
<text text-anchor="start" x="2063" y="-427" font-family="FreeSans" font-size="10.00">* IsValid()</text>
<text text-anchor="start" x="2063" y="-416" font-family="FreeSans" font-size="10.00">* InitialEstimate()</text>
<text text-anchor="start" x="2063" y="-405" font-family="FreeSans" font-size="10.00">* Update()</text>
<text text-anchor="start" x="2063" y="-394" font-family="FreeSans" font-size="10.00">and 7 more...</text>
<text text-anchor="start" x="2063" y="-383" font-family="FreeSans" font-size="10.00">* initialEstimate</text>
<text text-anchor="start" x="2063" y="-372" font-family="FreeSans" font-size="10.00">* correspondences</text>
<text text-anchor="start" x="2063" y="-361" font-family="FreeSans" font-size="10.00">* solver</text>
<text text-anchor="start" x="2063" y="-350" font-family="FreeSans" font-size="10.00">* errorMetric</text>
<text text-anchor="start" x="2063" y="-339" font-family="FreeSans" font-size="10.00">* flagValid</text>
<text text-anchor="start" x="2063" y="-328" font-family="FreeSans" font-size="10.00">* ComputeError()</text>
<text text-anchor="start" x="2063" y="-317" font-family="FreeSans" font-size="10.00">* ComputeJacobian()</text>
<text text-anchor="start" x="2063" y="-306" font-family="FreeSans" font-size="10.00">* PDLGeometryEstimationProblem</text>
<text text-anchor="start" x="2063" y="-295" font-family="FreeSans" font-size="10.00">BaseC()</text>
<text text-anchor="start" x="2063" y="-284" font-family="FreeSans" font-size="10.00">* PDLGeometryEstimationProblem</text>
<text text-anchor="start" x="2063" y="-273" font-family="FreeSans" font-size="10.00">BaseC()</text>
</a>
</g>
</g>
<!-- Node0&#45;&gt;Node19 -->
<g id="edge19" class="edge"><title>Node0&#45;&gt;Node19</title>
<path fill="none" stroke="orange" d="M1263.16,-904.438C1417.88,-885.155 1720.65,-838.033 1961,-743 2001.97,-726.801 2015.92,-724.186 2046,-692 2049.01,-688.784 2051.95,-685.47 2054.83,-682.071"/>
<polygon fill="orange" stroke="orange" points="1262.68,-900.97 1253.19,-905.668 1263.54,-907.917 1262.68,-900.97"/>
<text text-anchor="middle" x="2106.5" y="-724" font-family="FreeSans" font-size="10.00"> &lt; PDLP4PProblemC, P4PSolverC &gt;</text>
</g>
<!-- Node2 -->
<g id="node3" class="node"><title>Node2</title>
<g id="a_node3"><a xlink:href="classSeeSawN_1_1OptimisationN_1_1PDLOneSidedFundamentalMatrixEstimationProblemC.html" target="_top" xlink:title="Problem for Powell&#39;s dog leg algorithm, for the estimation of a one&#45;sided fundamental matrix...">
<polygon fill="white" stroke="black" points="42.5,-0.5 42.5,-222.5 209.5,-222.5 209.5,-0.5 42.5,-0.5"/>
<text text-anchor="start" x="50.5" y="-210.5" font-family="FreeSans" font-size="10.00">SeeSawN::OptimisationN</text>
<text text-anchor="start" x="50.5" y="-199.5" font-family="FreeSans" font-size="10.00">::PDLOneSidedFundamentalMatrix</text>
<text text-anchor="middle" x="126" y="-188.5" font-family="FreeSans" font-size="10.00">EstimationProblemC</text>
<polyline fill="none" stroke="black" points="42.5,-181.5 209.5,-181.5 "/>
<text text-anchor="middle" x="126" y="-169.5" font-family="FreeSans" font-size="10.00"> </text>
<polyline fill="none" stroke="black" points="42.5,-162.5 209.5,-162.5 "/>
<text text-anchor="start" x="50.5" y="-150.5" font-family="FreeSans" font-size="10.00">* BimapT</text>
<text text-anchor="start" x="50.5" y="-139.5" font-family="FreeSans" font-size="10.00">* configurationValidators</text>
<text text-anchor="start" x="50.5" y="-128.5" font-family="FreeSans" font-size="10.00">* SetConfigurationValidators()</text>
<text text-anchor="start" x="50.5" y="-117.5" font-family="FreeSans" font-size="10.00">* MakeEssential()</text>
<text text-anchor="start" x="50.5" y="-106.5" font-family="FreeSans" font-size="10.00">* PDLOneSidedFundamentalMatrix</text>
<text text-anchor="start" x="50.5" y="-95.5" font-family="FreeSans" font-size="10.00">EstimationProblemC()</text>
<text text-anchor="start" x="50.5" y="-84.5" font-family="FreeSans" font-size="10.00">* PDLOneSidedFundamentalMatrix</text>
<text text-anchor="start" x="50.5" y="-73.5" font-family="FreeSans" font-size="10.00">EstimationProblemC()</text>
<text text-anchor="start" x="50.5" y="-62.5" font-family="FreeSans" font-size="10.00">* ComputeJacobian()</text>
<text text-anchor="start" x="50.5" y="-51.5" font-family="FreeSans" font-size="10.00">* InitialEstimate()</text>
<text text-anchor="start" x="50.5" y="-40.5" font-family="FreeSans" font-size="10.00">* ComputeError()</text>
<text text-anchor="start" x="50.5" y="-29.5" font-family="FreeSans" font-size="10.00">* Update()</text>
<text text-anchor="start" x="50.5" y="-18.5" font-family="FreeSans" font-size="10.00">* MakeResult()</text>
<text text-anchor="start" x="50.5" y="-7.5" font-family="FreeSans" font-size="10.00">* ComputeRelativeModelDistance()</text>
</a>
</g>
</g>
<!-- Node1&#45;&gt;Node2 -->
<g id="edge2" class="edge"><title>Node1&#45;&gt;Node2</title>
<path fill="none" stroke="midnightblue" d="M126,-250.286C126,-240.96 126,-231.797 126,-222.904"/>
<polygon fill="none" stroke="midnightblue" points="122.5,-250.465 126,-260.465 129.5,-250.465 122.5,-250.465"/>
</g>
<!-- Node4 -->
<g id="node5" class="node"><title>Node4</title>
<g id="a_node5"><a xlink:href="classSeeSawN_1_1OptimisationN_1_1PDLHomographyXDEstimationProblemC.html" target="_top" xlink:title="Problem for Powell&#39;s dog leg algorithm, for the estimation of NxN homographies. ">
<polygon fill="white" stroke="black" points="289.5,-44.5 289.5,-178.5 480.5,-178.5 480.5,-44.5 289.5,-44.5"/>
<text text-anchor="start" x="297.5" y="-166.5" font-family="FreeSans" font-size="10.00">SeeSawN::OptimisationN</text>
<text text-anchor="start" x="297.5" y="-155.5" font-family="FreeSans" font-size="10.00">::PDLHomographyXDEstimationProblem</text>
<text text-anchor="middle" x="385" y="-144.5" font-family="FreeSans" font-size="10.00">C&lt; HomographySolverT &gt;</text>
<polyline fill="none" stroke="black" points="289.5,-137.5 480.5,-137.5 "/>
<text text-anchor="middle" x="385" y="-125.5" font-family="FreeSans" font-size="10.00"> </text>
<polyline fill="none" stroke="black" points="289.5,-118.5 480.5,-118.5 "/>
<text text-anchor="start" x="297.5" y="-106.5" font-family="FreeSans" font-size="10.00">* PDLHomographyXDEstimation</text>
<text text-anchor="start" x="297.5" y="-95.5" font-family="FreeSans" font-size="10.00">ProblemC()</text>
<text text-anchor="start" x="297.5" y="-84.5" font-family="FreeSans" font-size="10.00">* PDLHomographyXDEstimation</text>
<text text-anchor="start" x="297.5" y="-73.5" font-family="FreeSans" font-size="10.00">ProblemC()</text>
<text text-anchor="start" x="297.5" y="-62.5" font-family="FreeSans" font-size="10.00">* ComputeJacobian()</text>
<text text-anchor="start" x="297.5" y="-51.5" font-family="FreeSans" font-size="10.00">* Configure()</text>
</a>
</g>
</g>
<!-- Node3&#45;&gt;Node4 -->
<g id="edge4" class="edge"><title>Node3&#45;&gt;Node4</title>
<path fill="none" stroke="midnightblue" d="M385,-250.439C385,-224.426 385,-199.678 385,-178.512"/>
<polygon fill="none" stroke="midnightblue" points="381.5,-250.465 385,-260.465 388.5,-250.465 381.5,-250.465"/>
</g>
<!-- Node6 -->
<g id="node7" class="node"><title>Node6</title>
<g id="a_node7"><a xlink:href="classSeeSawN_1_1OptimisationN_1_1PDLP2PProblemC.html" target="_top" xlink:title="Problem for Powell&#39;s dog leg optimisation algorithm, for 2&#45;point orientation estimation. ">
<polygon fill="white" stroke="black" points="535.5,-39 535.5,-184 702.5,-184 702.5,-39 535.5,-39"/>
<text text-anchor="start" x="543.5" y="-172" font-family="FreeSans" font-size="10.00">SeeSawN::OptimisationN</text>
<text text-anchor="middle" x="619" y="-161" font-family="FreeSans" font-size="10.00">::PDLP2PProblemC</text>
<polyline fill="none" stroke="black" points="535.5,-154 702.5,-154 "/>
<text text-anchor="middle" x="619" y="-142" font-family="FreeSans" font-size="10.00"> </text>
<polyline fill="none" stroke="black" points="535.5,-135 702.5,-135 "/>
<text text-anchor="start" x="543.5" y="-123" font-family="FreeSans" font-size="10.00">* PDLP2PProblemC()</text>
<text text-anchor="start" x="543.5" y="-112" font-family="FreeSans" font-size="10.00">* PDLP2PProblemC()</text>
<text text-anchor="start" x="543.5" y="-101" font-family="FreeSans" font-size="10.00">* ComputeJacobian()</text>
<text text-anchor="start" x="543.5" y="-90" font-family="FreeSans" font-size="10.00">* InitialEstimate()</text>
<text text-anchor="start" x="543.5" y="-79" font-family="FreeSans" font-size="10.00">* ComputeError()</text>
<text text-anchor="start" x="543.5" y="-68" font-family="FreeSans" font-size="10.00">* Update()</text>
<text text-anchor="start" x="543.5" y="-57" font-family="FreeSans" font-size="10.00">* MakeResult()</text>
<text text-anchor="start" x="543.5" y="-46" font-family="FreeSans" font-size="10.00">* ComputeRelativeModelDistance()</text>
</a>
</g>
</g>
<!-- Node5&#45;&gt;Node6 -->
<g id="edge6" class="edge"><title>Node5&#45;&gt;Node6</title>
<path fill="none" stroke="midnightblue" d="M619,-255.737C619,-230.17 619,-205.659 619,-184.366"/>
<polygon fill="none" stroke="midnightblue" points="615.5,-255.97 619,-265.97 622.5,-255.97 615.5,-255.97"/>
</g>
<!-- Node8 -->
<g id="node9" class="node"><title>Node8</title>
<g id="a_node9"><a xlink:href="classSeeSawN_1_1OptimisationN_1_1PDLSimilarity3DEstimationProblemC.html" target="_top" xlink:title="Problem for Powell&#39;s dog leg algorithm, for the estimation of 3D similarity transformations. ">
<polygon fill="white" stroke="black" points="751.5,-28 751.5,-195 932.5,-195 932.5,-28 751.5,-28"/>
<text text-anchor="start" x="759.5" y="-183" font-family="FreeSans" font-size="10.00">SeeSawN::OptimisationN</text>
<text text-anchor="middle" x="842" y="-172" font-family="FreeSans" font-size="10.00">::PDLSimilarity3DEstimationProblemC</text>
<polyline fill="none" stroke="black" points="751.5,-165 932.5,-165 "/>
<text text-anchor="middle" x="842" y="-153" font-family="FreeSans" font-size="10.00"> </text>
<polyline fill="none" stroke="black" points="751.5,-146 932.5,-146 "/>
<text text-anchor="start" x="759.5" y="-134" font-family="FreeSans" font-size="10.00">* PDLSimilarity3DEstimation</text>
<text text-anchor="start" x="759.5" y="-123" font-family="FreeSans" font-size="10.00">ProblemC()</text>
<text text-anchor="start" x="759.5" y="-112" font-family="FreeSans" font-size="10.00">* PDLSimilarity3DEstimation</text>
<text text-anchor="start" x="759.5" y="-101" font-family="FreeSans" font-size="10.00">ProblemC()</text>
<text text-anchor="start" x="759.5" y="-90" font-family="FreeSans" font-size="10.00">* ComputeJacobian()</text>
<text text-anchor="start" x="759.5" y="-79" font-family="FreeSans" font-size="10.00">* InitialEstimate()</text>
<text text-anchor="start" x="759.5" y="-68" font-family="FreeSans" font-size="10.00">* ComputeError()</text>
<text text-anchor="start" x="759.5" y="-57" font-family="FreeSans" font-size="10.00">* Update()</text>
<text text-anchor="start" x="759.5" y="-46" font-family="FreeSans" font-size="10.00">* MakeResult()</text>
<text text-anchor="start" x="759.5" y="-35" font-family="FreeSans" font-size="10.00">* ComputeRelativeModelDistance()</text>
</a>
</g>
</g>
<!-- Node7&#45;&gt;Node8 -->
<g id="edge8" class="edge"><title>Node7&#45;&gt;Node8</title>
<path fill="none" stroke="midnightblue" d="M842,-250.24C842,-230.801 842,-212.072 842,-195.02"/>
<polygon fill="none" stroke="midnightblue" points="838.5,-250.465 842,-260.465 845.5,-250.465 838.5,-250.465"/>
</g>
<!-- Node10 -->
<g id="node11" class="node"><title>Node10</title>
<g id="a_node11"><a xlink:href="classSeeSawN_1_1OptimisationN_1_1PDLEssentialMatrixEstimationProblemC.html" target="_top" xlink:title="Problem for Powell&#39;s dog leg algorithm, for the estimation of an essential matrix. ">
<polygon fill="white" stroke="black" points="972.5,-6 972.5,-217 1139.5,-217 1139.5,-6 972.5,-6"/>
<text text-anchor="start" x="980.5" y="-205" font-family="FreeSans" font-size="10.00">SeeSawN::OptimisationN</text>
<text text-anchor="start" x="980.5" y="-194" font-family="FreeSans" font-size="10.00">::PDLEssentialMatrixEstimation</text>
<text text-anchor="middle" x="1056" y="-183" font-family="FreeSans" font-size="10.00">ProblemC</text>
<polyline fill="none" stroke="black" points="972.5,-176 1139.5,-176 "/>
<text text-anchor="middle" x="1056" y="-164" font-family="FreeSans" font-size="10.00"> </text>
<polyline fill="none" stroke="black" points="972.5,-157 1139.5,-157 "/>
<text text-anchor="start" x="980.5" y="-145" font-family="FreeSans" font-size="10.00">* BimapT</text>
<text text-anchor="start" x="980.5" y="-134" font-family="FreeSans" font-size="10.00">* configurationValidators</text>
<text text-anchor="start" x="980.5" y="-123" font-family="FreeSans" font-size="10.00">* SetConfigurationValidators()</text>
<text text-anchor="start" x="980.5" y="-112" font-family="FreeSans" font-size="10.00">* PDLEssentialMatrixEstimation</text>
<text text-anchor="start" x="980.5" y="-101" font-family="FreeSans" font-size="10.00">ProblemC()</text>
<text text-anchor="start" x="980.5" y="-90" font-family="FreeSans" font-size="10.00">* PDLEssentialMatrixEstimation</text>
<text text-anchor="start" x="980.5" y="-79" font-family="FreeSans" font-size="10.00">ProblemC()</text>
<text text-anchor="start" x="980.5" y="-68" font-family="FreeSans" font-size="10.00">* ComputeJacobian()</text>
<text text-anchor="start" x="980.5" y="-57" font-family="FreeSans" font-size="10.00">* InitialEstimate()</text>
<text text-anchor="start" x="980.5" y="-46" font-family="FreeSans" font-size="10.00">* ComputeError()</text>
<text text-anchor="start" x="980.5" y="-35" font-family="FreeSans" font-size="10.00">* Update()</text>
<text text-anchor="start" x="980.5" y="-24" font-family="FreeSans" font-size="10.00">* MakeResult()</text>
<text text-anchor="start" x="980.5" y="-13" font-family="FreeSans" font-size="10.00">* ComputeRelativeModelDistance()</text>
</a>
</g>
</g>
<!-- Node9&#45;&gt;Node10 -->
<g id="edge10" class="edge"><title>Node9&#45;&gt;Node10</title>
<path fill="none" stroke="midnightblue" d="M1056,-250.439C1056,-239.094 1056,-227.99 1056,-217.319"/>
<polygon fill="none" stroke="midnightblue" points="1052.5,-250.465 1056,-260.465 1059.5,-250.465 1052.5,-250.465"/>
</g>
<!-- Node12 -->
<g id="node13" class="node"><title>Node12</title>
<g id="a_node13"><a xlink:href="classSeeSawN_1_1OptimisationN_1_1PDLFundamentalMatrixEstimationProblemC.html" target="_top" xlink:title="Problem for Powell&#39;s dog leg algorithm, for the estimation of a fundamental matrix. ">
<polygon fill="white" stroke="black" points="1183,-22.5 1183,-200.5 1353,-200.5 1353,-22.5 1183,-22.5"/>
<text text-anchor="start" x="1191" y="-188.5" font-family="FreeSans" font-size="10.00">SeeSawN::OptimisationN</text>
<text text-anchor="start" x="1191" y="-177.5" font-family="FreeSans" font-size="10.00">::PDLFundamentalMatrixEstimation</text>
<text text-anchor="middle" x="1268" y="-166.5" font-family="FreeSans" font-size="10.00">ProblemC</text>
<polyline fill="none" stroke="black" points="1183,-159.5 1353,-159.5 "/>
<text text-anchor="middle" x="1268" y="-147.5" font-family="FreeSans" font-size="10.00"> </text>
<polyline fill="none" stroke="black" points="1183,-140.5 1353,-140.5 "/>
<text text-anchor="start" x="1191" y="-128.5" font-family="FreeSans" font-size="10.00">* PDLFundamentalMatrixEstimation</text>
<text text-anchor="start" x="1191" y="-117.5" font-family="FreeSans" font-size="10.00">ProblemC()</text>
<text text-anchor="start" x="1191" y="-106.5" font-family="FreeSans" font-size="10.00">* PDLFundamentalMatrixEstimation</text>
<text text-anchor="start" x="1191" y="-95.5" font-family="FreeSans" font-size="10.00">ProblemC()</text>
<text text-anchor="start" x="1191" y="-84.5" font-family="FreeSans" font-size="10.00">* ComputeJacobian()</text>
<text text-anchor="start" x="1191" y="-73.5" font-family="FreeSans" font-size="10.00">* InitialEstimate()</text>
<text text-anchor="start" x="1191" y="-62.5" font-family="FreeSans" font-size="10.00">* ComputeError()</text>
<text text-anchor="start" x="1191" y="-51.5" font-family="FreeSans" font-size="10.00">* Update()</text>
<text text-anchor="start" x="1191" y="-40.5" font-family="FreeSans" font-size="10.00">* MakeResult()</text>
<text text-anchor="start" x="1191" y="-29.5" font-family="FreeSans" font-size="10.00">* ComputeRelativeModelDistance()</text>
</a>
</g>
</g>
<!-- Node11&#45;&gt;Node12 -->
<g id="edge12" class="edge"><title>Node11&#45;&gt;Node12</title>
<path fill="none" stroke="midnightblue" d="M1268,-250.212C1268,-232.899 1268,-216.15 1268,-200.648"/>
<polygon fill="none" stroke="midnightblue" points="1264.5,-250.465 1268,-260.465 1271.5,-250.465 1264.5,-250.465"/>
</g>
<!-- Node14 -->
<g id="node15" class="node"><title>Node14</title>
<g id="a_node15"><a xlink:href="classSeeSawN_1_1OptimisationN_1_1PDLRotation3DEstimationProblemC.html" target="_top" xlink:title="Problem for Powell&#39;s dog leg algorithm, for the estimation of 3D rotations. ">
<polygon fill="white" stroke="black" points="1396.5,-39 1396.5,-184 1581.5,-184 1581.5,-39 1396.5,-39"/>
<text text-anchor="start" x="1404.5" y="-172" font-family="FreeSans" font-size="10.00">SeeSawN::OptimisationN</text>
<text text-anchor="middle" x="1489" y="-161" font-family="FreeSans" font-size="10.00">::PDLRotation3DEstimationProblemC</text>
<polyline fill="none" stroke="black" points="1396.5,-154 1581.5,-154 "/>
<text text-anchor="middle" x="1489" y="-142" font-family="FreeSans" font-size="10.00"> </text>
<polyline fill="none" stroke="black" points="1396.5,-135 1581.5,-135 "/>
<text text-anchor="start" x="1404.5" y="-123" font-family="FreeSans" font-size="10.00">* PDLRotation3DEstimationProblemC()</text>
<text text-anchor="start" x="1404.5" y="-112" font-family="FreeSans" font-size="10.00">* PDLRotation3DEstimationProblemC()</text>
<text text-anchor="start" x="1404.5" y="-101" font-family="FreeSans" font-size="10.00">* ComputeJacobian()</text>
<text text-anchor="start" x="1404.5" y="-90" font-family="FreeSans" font-size="10.00">* InitialEstimate()</text>
<text text-anchor="start" x="1404.5" y="-79" font-family="FreeSans" font-size="10.00">* ComputeError()</text>
<text text-anchor="start" x="1404.5" y="-68" font-family="FreeSans" font-size="10.00">* Update()</text>
<text text-anchor="start" x="1404.5" y="-57" font-family="FreeSans" font-size="10.00">* MakeResult()</text>
<text text-anchor="start" x="1404.5" y="-46" font-family="FreeSans" font-size="10.00">* ComputeRelativeModelDistance()</text>
</a>
</g>
</g>
<!-- Node13&#45;&gt;Node14 -->
<g id="edge14" class="edge"><title>Node13&#45;&gt;Node14</title>
<path fill="none" stroke="midnightblue" d="M1489,-250.258C1489,-226.58 1489,-203.953 1489,-184.129"/>
<polygon fill="none" stroke="midnightblue" points="1485.5,-250.465 1489,-260.465 1492.5,-250.465 1485.5,-250.465"/>
</g>
<!-- Node16 -->
<g id="node17" class="node"><title>Node16</title>
<g id="a_node17"><a xlink:href="classSeeSawN_1_1OptimisationN_1_1PDLP2PfProblemC.html" target="_top" xlink:title="Problem for Powell&#39;s dog leg optimisation algorithm, for orientation and focal length estimation...">
<polygon fill="white" stroke="black" points="1629.5,-39 1629.5,-184 1796.5,-184 1796.5,-39 1629.5,-39"/>
<text text-anchor="start" x="1637.5" y="-172" font-family="FreeSans" font-size="10.00">SeeSawN::OptimisationN</text>
<text text-anchor="middle" x="1713" y="-161" font-family="FreeSans" font-size="10.00">::PDLP2PfProblemC</text>
<polyline fill="none" stroke="black" points="1629.5,-154 1796.5,-154 "/>
<text text-anchor="middle" x="1713" y="-142" font-family="FreeSans" font-size="10.00"> </text>
<polyline fill="none" stroke="black" points="1629.5,-135 1796.5,-135 "/>
<text text-anchor="start" x="1637.5" y="-123" font-family="FreeSans" font-size="10.00">* PDLP2PfProblemC()</text>
<text text-anchor="start" x="1637.5" y="-112" font-family="FreeSans" font-size="10.00">* PDLP2PfProblemC()</text>
<text text-anchor="start" x="1637.5" y="-101" font-family="FreeSans" font-size="10.00">* ComputeJacobian()</text>
<text text-anchor="start" x="1637.5" y="-90" font-family="FreeSans" font-size="10.00">* InitialEstimate()</text>
<text text-anchor="start" x="1637.5" y="-79" font-family="FreeSans" font-size="10.00">* ComputeError()</text>
<text text-anchor="start" x="1637.5" y="-68" font-family="FreeSans" font-size="10.00">* Update()</text>
<text text-anchor="start" x="1637.5" y="-57" font-family="FreeSans" font-size="10.00">* MakeResult()</text>
<text text-anchor="start" x="1637.5" y="-46" font-family="FreeSans" font-size="10.00">* ComputeRelativeModelDistance()</text>
</a>
</g>
</g>
<!-- Node15&#45;&gt;Node16 -->
<g id="edge16" class="edge"><title>Node15&#45;&gt;Node16</title>
<path fill="none" stroke="midnightblue" d="M1713,-255.737C1713,-230.17 1713,-205.659 1713,-184.366"/>
<polygon fill="none" stroke="midnightblue" points="1709.5,-255.97 1713,-265.97 1716.5,-255.97 1709.5,-255.97"/>
</g>
<!-- Node18 -->
<g id="node19" class="node"><title>Node18</title>
<g id="a_node19"><a xlink:href="classSeeSawN_1_1OptimisationN_1_1PDLP3PProblemC.html" target="_top" xlink:title="Problem for Powell&#39;s dog leg optimisation algorithm, for pose estimation. ">
<polygon fill="white" stroke="black" points="1852.5,-39 1852.5,-184 2019.5,-184 2019.5,-39 1852.5,-39"/>
<text text-anchor="start" x="1860.5" y="-172" font-family="FreeSans" font-size="10.00">SeeSawN::OptimisationN</text>
<text text-anchor="middle" x="1936" y="-161" font-family="FreeSans" font-size="10.00">::PDLP3PProblemC</text>
<polyline fill="none" stroke="black" points="1852.5,-154 2019.5,-154 "/>
<text text-anchor="middle" x="1936" y="-142" font-family="FreeSans" font-size="10.00"> </text>
<polyline fill="none" stroke="black" points="1852.5,-135 2019.5,-135 "/>
<text text-anchor="start" x="1860.5" y="-123" font-family="FreeSans" font-size="10.00">* PDLP3PProblemC()</text>
<text text-anchor="start" x="1860.5" y="-112" font-family="FreeSans" font-size="10.00">* PDLP3PProblemC()</text>
<text text-anchor="start" x="1860.5" y="-101" font-family="FreeSans" font-size="10.00">* ComputeJacobian()</text>
<text text-anchor="start" x="1860.5" y="-90" font-family="FreeSans" font-size="10.00">* InitialEstimate()</text>
<text text-anchor="start" x="1860.5" y="-79" font-family="FreeSans" font-size="10.00">* ComputeError()</text>
<text text-anchor="start" x="1860.5" y="-68" font-family="FreeSans" font-size="10.00">* Update()</text>
<text text-anchor="start" x="1860.5" y="-57" font-family="FreeSans" font-size="10.00">* MakeResult()</text>
<text text-anchor="start" x="1860.5" y="-46" font-family="FreeSans" font-size="10.00">* ComputeRelativeModelDistance()</text>
</a>
</g>
</g>
<!-- Node17&#45;&gt;Node18 -->
<g id="edge18" class="edge"><title>Node17&#45;&gt;Node18</title>
<path fill="none" stroke="midnightblue" d="M1936,-255.737C1936,-230.17 1936,-205.659 1936,-184.366"/>
<polygon fill="none" stroke="midnightblue" points="1932.5,-255.97 1936,-265.97 1939.5,-255.97 1932.5,-255.97"/>
</g>
<!-- Node20 -->
<g id="node21" class="node"><title>Node20</title>
<g id="a_node21"><a xlink:href="classSeeSawN_1_1OptimisationN_1_1PDLP4PProblemC.html" target="_top" xlink:title="Problem for Powell&#39;s dog leg optimisation algorithm, for pose and focal length estimation. ">
<polygon fill="white" stroke="black" points="2072.5,-39 2072.5,-184 2239.5,-184 2239.5,-39 2072.5,-39"/>
<text text-anchor="start" x="2080.5" y="-172" font-family="FreeSans" font-size="10.00">SeeSawN::OptimisationN</text>
<text text-anchor="middle" x="2156" y="-161" font-family="FreeSans" font-size="10.00">::PDLP4PProblemC</text>
<polyline fill="none" stroke="black" points="2072.5,-154 2239.5,-154 "/>
<text text-anchor="middle" x="2156" y="-142" font-family="FreeSans" font-size="10.00"> </text>
<polyline fill="none" stroke="black" points="2072.5,-135 2239.5,-135 "/>
<text text-anchor="start" x="2080.5" y="-123" font-family="FreeSans" font-size="10.00">* PDLP4PProblemC()</text>
<text text-anchor="start" x="2080.5" y="-112" font-family="FreeSans" font-size="10.00">* PDLP4PProblemC()</text>
<text text-anchor="start" x="2080.5" y="-101" font-family="FreeSans" font-size="10.00">* ComputeJacobian()</text>
<text text-anchor="start" x="2080.5" y="-90" font-family="FreeSans" font-size="10.00">* InitialEstimate()</text>
<text text-anchor="start" x="2080.5" y="-79" font-family="FreeSans" font-size="10.00">* ComputeError()</text>
<text text-anchor="start" x="2080.5" y="-68" font-family="FreeSans" font-size="10.00">* Update()</text>
<text text-anchor="start" x="2080.5" y="-57" font-family="FreeSans" font-size="10.00">* MakeResult()</text>
<text text-anchor="start" x="2080.5" y="-46" font-family="FreeSans" font-size="10.00">* ComputeRelativeModelDistance()</text>
</a>
</g>
</g>
<!-- Node19&#45;&gt;Node20 -->
<g id="edge20" class="edge"><title>Node19&#45;&gt;Node20</title>
<path fill="none" stroke="midnightblue" d="M2156,-255.737C2156,-230.17 2156,-205.659 2156,-184.366"/>
<polygon fill="none" stroke="midnightblue" points="2152.5,-255.97 2156,-265.97 2159.5,-255.97 2152.5,-255.97"/>
</g>
</g>
</svg>
        <g id="navigator" transform="translate(0 0)" fill="#404254">
                <rect fill="#f2f5e9" fill-opacity="0.5" stroke="#606060" stroke-width=".5" x="0" y="0" width="60" height="60"/>
                <use id="zoomplus" xlink:href="#zoomPlus" x="17" y="9" onmousedown="handleZoom(evt,'in')"/>
                <use id="zoomminus" xlink:href="#zoomMin" x="42" y="9" onmousedown="handleZoom(evt,'out')"/>
                <use id="reset" xlink:href="#resetDef" x="30" y="36" onmousedown="handleReset()"/>
                <g id="arrowUp" xlink:href="#dirArrow" transform="translate(30 24)" onmousedown="handlePan(0,-1)">
                  <use xlink:href="#rim" fill="#404040">
                        <set attributeName="fill" to="#808080" begin="arrowUp.mouseover" end="arrowUp.mouseout"/>
                  </use>
                  <path fill="none" stroke="white" stroke-width="1.5" d="M0,-3.0v7 M-2.5,-0.5L0,-3.0L2.5,-0.5"/>
                </g>
                <g id="arrowRight" xlink:href="#dirArrow" transform="rotate(90) translate(36 -43)" onmousedown="handlePan(1,0)">
                  <use xlink:href="#rim" fill="#404040">
                        <set attributeName="fill" to="#808080" begin="arrowRight.mouseover" end="arrowRight.mouseout"/>
                  </use>
                  <path fill="none" stroke="white" stroke-width="1.5" d="M0,-3.0v7 M-2.5,-0.5L0,-3.0L2.5,-0.5"/>
                </g>
                <g id="arrowDown" xlink:href="#dirArrow" transform="rotate(180) translate(-30 -48)" onmousedown="handlePan(0,1)">
                  <use xlink:href="#rim" fill="#404040">
                        <set attributeName="fill" to="#808080" begin="arrowDown.mouseover" end="arrowDown.mouseout"/>
                  </use>
                  <path fill="none" stroke="white" stroke-width="1.5" d="M0,-3.0v7 M-2.5,-0.5L0,-3.0L2.5,-0.5"/>
                </g>
                <g id="arrowLeft" xlink:href="#dirArrow" transform="rotate(270) translate(-36 17)" onmousedown="handlePan(-1,0)">
                  <use xlink:href="#rim" fill="#404040">
                        <set attributeName="fill" to="#808080" begin="arrowLeft.mouseover" end="arrowLeft.mouseout"/>
                  </use>
                  <path fill="none" stroke="white" stroke-width="1.5" d="M0,-3.0v7 M-2.5,-0.5L0,-3.0L2.5,-0.5"/>
                </g>
        </g>
        <svg viewBox="0 0 15 15" width="100%" height="30px" preserveAspectRatio="xMaxYMin meet">
         <g id="arrow_out" transform="scale(0.3 0.3)">
          <a xlink:href="classSeeSawN_1_1OptimisationN_1_1PDLGeometryEstimationProblemBaseC__inherit__graph_org.svg" target="_base">
           <rect id="button" ry="5" rx="5" y="6" x="6" height="38" width="38"
                fill="#f2f5e9" fill-opacity="0.5" stroke="#606060" stroke-width="1.0"/>
           <path id="arrow"
             d="M 11.500037,31.436501 C 11.940474,20.09759 22.043105,11.32322 32.158766,21.979434 L 37.068811,17.246167 C 37.068811,17.246167 37.088388,32 37.088388,32 L 22.160133,31.978069 C 22.160133,31.978069 26.997745,27.140456 26.997745,27.140456 C 18.528582,18.264221 13.291696,25.230495 11.500037,31.436501 z"
             style="fill:#404040;"/>
          </a>
         </g>
        </svg>
</svg>
