<?xml version="1.0" encoding="UTF-8" standalone="no"?>
<!DOCTYPE svg PUBLIC "-//W3C//DTD SVG 1.1//EN"
 "http://www.w3.org/Graphics/SVG/1.1/DTD/svg11.dtd">
<!-- Generated by graphviz version 2.38.0 (20140413.2041)
 -->
<!-- Title: SeeSawN::AppNodalCameraTrackerN::AppNodalCameraTrackerImplementationC::SaveOutput Pages: 1 -->
<svg width="552pt" height="235pt"
 viewBox="0.00 0.00 552.00 235.00" xmlns="http://www.w3.org/2000/svg" xmlns:xlink="http://www.w3.org/1999/xlink">
<g id="graph0" class="graph" transform="scale(1 1) rotate(0) translate(4 231)">
<title>SeeSawN::AppNodalCameraTrackerN::AppNodalCameraTrackerImplementationC::SaveOutput</title>
<polygon fill="white" stroke="none" points="-4,4 -4,-231 548,-231 548,4 -4,4"/>
<!-- Node71 -->
<g id="node1" class="node"><title>Node71</title>
<polygon fill="#bfbfbf" stroke="black" points="0,-93 0,-134 205,-134 205,-93 0,-93"/>
<text text-anchor="start" x="8" y="-122" font-family="FreeSans" font-size="10.00">SeeSawN::AppNodalCameraTracker</text>
<text text-anchor="start" x="8" y="-111" font-family="FreeSans" font-size="10.00">N::AppNodalCameraTrackerImplementation</text>
<text text-anchor="middle" x="102.5" y="-100" font-family="FreeSans" font-size="10.00">C::SaveOutput</text>
</g>
<!-- Node72 -->
<g id="node2" class="node"><title>Node72</title>
<g id="a_node2"><a xlink:href="group__Elements.html#ga55a635a974118036dd0778de74a63a82" target="_top" xlink:title="Decomposes a camera into its constituent elements. ">
<polygon fill="white" stroke="black" points="254,-196.5 254,-226.5 367,-226.5 367,-196.5 254,-196.5"/>
<text text-anchor="start" x="262" y="-214.5" font-family="FreeSans" font-size="10.00">SeeSawN::ElementsN</text>
<text text-anchor="middle" x="310.5" y="-203.5" font-family="FreeSans" font-size="10.00">::DecomposeCamera</text>
</a>
</g>
</g>
<!-- Node71&#45;&gt;Node72 -->
<g id="edge1" class="edge"><title>Node71&#45;&gt;Node72</title>
<path fill="none" stroke="midnightblue" d="M138.067,-134.063C165.427,-149.855 204.91,-171.584 241,-187.5 245.133,-189.323 249.451,-191.105 253.822,-192.824"/>
<polygon fill="midnightblue" stroke="midnightblue" points="252.832,-196.192 263.423,-196.473 255.319,-189.648 252.832,-196.192"/>
</g>
<!-- Node74 -->
<g id="node4" class="node"><title>Node74</title>
<g id="a_node4"><a xlink:href="classSeeSawN_1_1ElementsN_1_1CameraC.html#a1022fc3bcf3a5e280332ca357d1fe394" target="_top" xlink:title="Returns a constant reference to extrinsics. ">
<polygon fill="white" stroke="black" points="254,-147.5 254,-177.5 367,-177.5 367,-147.5 254,-147.5"/>
<text text-anchor="start" x="262" y="-165.5" font-family="FreeSans" font-size="10.00">SeeSawN::ElementsN</text>
<text text-anchor="middle" x="310.5" y="-154.5" font-family="FreeSans" font-size="10.00">::CameraC::Extrinsics</text>
</a>
</g>
</g>
<!-- Node71&#45;&gt;Node74 -->
<g id="edge3" class="edge"><title>Node71&#45;&gt;Node74</title>
<path fill="none" stroke="midnightblue" d="M189.967,-134.067C208.007,-138.359 226.742,-142.815 243.88,-146.891"/>
<polygon fill="midnightblue" stroke="midnightblue" points="243.23,-150.334 253.768,-149.243 244.85,-143.524 243.23,-150.334"/>
</g>
<!-- Node75 -->
<g id="node5" class="node"><title>Node75</title>
<g id="a_node5"><a xlink:href="classSeeSawN_1_1ElementsN_1_1CameraC.html#ae1d6bd0d36c351fe3703a0a62b4cd0a9" target="_top" xlink:title="Returns a constant reference to intrinsics. ">
<polygon fill="white" stroke="black" points="254,-98.5 254,-128.5 367,-128.5 367,-98.5 254,-98.5"/>
<text text-anchor="start" x="262" y="-116.5" font-family="FreeSans" font-size="10.00">SeeSawN::ElementsN</text>
<text text-anchor="middle" x="310.5" y="-105.5" font-family="FreeSans" font-size="10.00">::CameraC::Intrinsics</text>
</a>
</g>
</g>
<!-- Node71&#45;&gt;Node75 -->
<g id="edge4" class="edge"><title>Node71&#45;&gt;Node75</title>
<path fill="none" stroke="midnightblue" d="M205.293,-113.5C218.36,-113.5 231.452,-113.5 243.729,-113.5"/>
<polygon fill="midnightblue" stroke="midnightblue" points="243.832,-117 253.832,-113.5 243.832,-110 243.832,-117"/>
</g>
<!-- Node76 -->
<g id="node6" class="node"><title>Node76</title>
<g id="a_node6"><a xlink:href="classSeeSawN_1_1ElementsN_1_1CameraC.html#aeeaac89c5982bf066dc957c59a4b26c0" target="_top" xlink:title="Returns a constant reference to tag. ">
<polygon fill="white" stroke="black" points="254,-49.5 254,-79.5 367,-79.5 367,-49.5 254,-49.5"/>
<text text-anchor="start" x="262" y="-67.5" font-family="FreeSans" font-size="10.00">SeeSawN::ElementsN</text>
<text text-anchor="middle" x="310.5" y="-56.5" font-family="FreeSans" font-size="10.00">::CameraC::Tag</text>
</a>
</g>
</g>
<!-- Node71&#45;&gt;Node76 -->
<g id="edge5" class="edge"><title>Node71&#45;&gt;Node76</title>
<path fill="none" stroke="midnightblue" d="M189.967,-92.9326C208.007,-88.6415 226.742,-84.1851 243.88,-80.1087"/>
<polygon fill="midnightblue" stroke="midnightblue" points="244.85,-83.4757 253.768,-77.7566 243.23,-76.6657 244.85,-83.4757"/>
</g>
<!-- Node77 -->
<g id="node7" class="node"><title>Node77</title>
<g id="a_node7"><a xlink:href="classSeeSawN_1_1ION_1_1CameraIOC.html#a4759dcf917cf4b01f8a6e0855f8b1089" target="_top" xlink:title="Writes a camera range to a file. ">
<polygon fill="white" stroke="black" points="241,-0.5 241,-30.5 380,-30.5 380,-0.5 241,-0.5"/>
<text text-anchor="start" x="249" y="-18.5" font-family="FreeSans" font-size="10.00">SeeSawN::ION::CameraIOC</text>
<text text-anchor="middle" x="310.5" y="-7.5" font-family="FreeSans" font-size="10.00">::WriteCameraFile</text>
</a>
</g>
</g>
<!-- Node71&#45;&gt;Node77 -->
<g id="edge6" class="edge"><title>Node71&#45;&gt;Node77</title>
<path fill="none" stroke="midnightblue" d="M139.012,-92.9005C166.386,-77.4527 205.448,-56.3344 241,-40.5 245.722,-38.3971 250.679,-36.3291 255.678,-34.3383"/>
<polygon fill="midnightblue" stroke="midnightblue" points="257.228,-37.4913 265.29,-30.6163 254.701,-30.9636 257.228,-37.4913"/>
</g>
<!-- Node73 -->
<g id="node3" class="node"><title>Node73</title>
<g id="a_node3"><a xlink:href="namespaceSeeSawN_1_1NumericN.html#a1de61a43a6f9cc9d3040f3850008e202" target="_top" xlink:title="SeeSawN::NumericN::\lRQDecomposition33">
<polygon fill="white" stroke="black" points="423,-196.5 423,-226.5 537,-226.5 537,-196.5 423,-196.5"/>
<text text-anchor="start" x="431" y="-214.5" font-family="FreeSans" font-size="10.00">SeeSawN::NumericN::</text>
<text text-anchor="middle" x="480" y="-203.5" font-family="FreeSans" font-size="10.00">RQDecomposition33</text>
</a>
</g>
</g>
<!-- Node72&#45;&gt;Node73 -->
<g id="edge2" class="edge"><title>Node72&#45;&gt;Node73</title>
<path fill="none" stroke="midnightblue" d="M367.275,-211.5C381.812,-211.5 397.619,-211.5 412.645,-211.5"/>
<polygon fill="midnightblue" stroke="midnightblue" points="412.897,-215 422.897,-211.5 412.897,-208 412.897,-215"/>
</g>
<!-- Node78 -->
<g id="node8" class="node"><title>Node78</title>
<g id="a_node8"><a xlink:href="classSeeSawN_1_1ION_1_1ArrayIOC.html#aa793e397a91afe98f3a57b0e74011b12" target="_top" xlink:title="Writes an array into a file. ">
<polygon fill="white" stroke="black" points="416,-0.5 416,-30.5 544,-30.5 544,-0.5 416,-0.5"/>
<text text-anchor="start" x="424" y="-18.5" font-family="FreeSans" font-size="10.00">SeeSawN::ION::ArrayIOC</text>
<text text-anchor="middle" x="480" y="-7.5" font-family="FreeSans" font-size="10.00">::WriteArray</text>
</a>
</g>
</g>
<!-- Node77&#45;&gt;Node78 -->
<g id="edge7" class="edge"><title>Node77&#45;&gt;Node78</title>
<path fill="none" stroke="midnightblue" d="M380.112,-15.5C388.526,-15.5 397.151,-15.5 405.632,-15.5"/>
<polygon fill="midnightblue" stroke="midnightblue" points="405.882,-19.0001 415.881,-15.5 405.881,-12.0001 405.882,-19.0001"/>
</g>
</g>
</svg>
