<?xml version="1.0" encoding="UTF-8" standalone="no"?>
<!DOCTYPE svg PUBLIC "-//W3C//DTD SVG 1.1//EN"
 "http://www.w3.org/Graphics/SVG/1.1/DTD/svg11.dtd">
<!-- Generated by graphviz version 2.38.0 (20140413.2041)
 -->
<!-- Title: SeeSawN::UncertaintyEstimationN::SUTTriangulationProblemC::GetCovariance Pages: 1 -->
<svg width="560pt" height="74pt"
 viewBox="0.00 0.00 560.00 74.00" xmlns="http://www.w3.org/2000/svg" xmlns:xlink="http://www.w3.org/1999/xlink">
<g id="graph0" class="graph" transform="scale(1 1) rotate(0) translate(4 70)">
<title>SeeSawN::UncertaintyEstimationN::SUTTriangulationProblemC::GetCovariance</title>
<polygon fill="white" stroke="none" points="-4,4 -4,-70 556,-70 556,4 -4,4"/>
<!-- Node16 -->
<g id="node1" class="node"><title>Node16</title>
<polygon fill="#bfbfbf" stroke="black" points="0,-24.5 0,-65.5 161,-65.5 161,-24.5 0,-24.5"/>
<text text-anchor="start" x="8" y="-53.5" font-family="FreeSans" font-size="10.00">SeeSawN::UncertaintyEstimation</text>
<text text-anchor="start" x="8" y="-42.5" font-family="FreeSans" font-size="10.00">N::SUTTriangulationProblemC</text>
<text text-anchor="middle" x="80.5" y="-31.5" font-family="FreeSans" font-size="10.00">::GetCovariance</text>
</g>
<!-- Node17 -->
<g id="node2" class="node"><title>Node17</title>
<g id="a_node2"><a xlink:href="namespaceSeeSawN_1_1UnitTestsN_1_1TestUncertaintyEstimationN.html#a50e92ae5353eb4fc5ac7741caa87a793" target="_top" xlink:title="SeeSawN::UnitTestsN\l::TestUncertaintyEstimation\lN::BOOST_AUTO_TEST_CASE">
<polygon fill="white" stroke="black" points="394,-24.5 394,-65.5 552,-65.5 552,-24.5 394,-24.5"/>
<text text-anchor="start" x="402" y="-53.5" font-family="FreeSans" font-size="10.00">SeeSawN::UnitTestsN</text>
<text text-anchor="start" x="402" y="-42.5" font-family="FreeSans" font-size="10.00">::TestUncertaintyEstimation</text>
<text text-anchor="middle" x="473" y="-31.5" font-family="FreeSans" font-size="10.00">N::BOOST_AUTO_TEST_CASE</text>
</a>
</g>
</g>
<!-- Node16&#45;&gt;Node17 -->
<g id="edge1" class="edge"><title>Node16&#45;&gt;Node17</title>
<path fill="none" stroke="midnightblue" d="M171.216,-50.1178C179.927,-50.4772 188.632,-50.7828 197,-51 268.531,-52.8567 286.469,-52.8811 358,-51 369.59,-50.6952 381.836,-50.2164 393.833,-49.659"/>
<polygon fill="midnightblue" stroke="midnightblue" points="171.15,-46.6118 161.008,-49.6733 170.846,-53.6051 171.15,-46.6118"/>
</g>
<!-- Node18 -->
<g id="node3" class="node"><title>Node18</title>
<g id="a_node3"><a xlink:href="classSeeSawN_1_1UncertaintyEstimationN_1_1SUTTriangulationProblemC.html#a8f7c071891ed512c1481d018edad3885" target="_top" xlink:title="Decomposes the covariance into two symmetric factors. ">
<polygon fill="white" stroke="black" points="197,-0.5 197,-41.5 358,-41.5 358,-0.5 197,-0.5"/>
<text text-anchor="start" x="205" y="-29.5" font-family="FreeSans" font-size="10.00">SeeSawN::UncertaintyEstimation</text>
<text text-anchor="start" x="205" y="-18.5" font-family="FreeSans" font-size="10.00">N::SUTTriangulationProblemC</text>
<text text-anchor="middle" x="277.5" y="-7.5" font-family="FreeSans" font-size="10.00">::DecomposeCovariance</text>
</a>
</g>
</g>
<!-- Node16&#45;&gt;Node18 -->
<g id="edge2" class="edge"><title>Node16&#45;&gt;Node18</title>
<path fill="none" stroke="midnightblue" d="M171.117,-33.9702C179.7,-32.9139 188.365,-31.8474 196.843,-30.8039"/>
<polygon fill="midnightblue" stroke="midnightblue" points="170.593,-30.5082 161.095,-35.2037 171.448,-37.4558 170.593,-30.5082"/>
</g>
<!-- Node18&#45;&gt;Node17 -->
<g id="edge3" class="edge"><title>Node18&#45;&gt;Node17</title>
<path fill="none" stroke="midnightblue" d="M368.047,-32.1066C376.614,-33.1692 385.257,-34.2411 393.704,-35.2889"/>
<polygon fill="midnightblue" stroke="midnightblue" points="368.396,-28.6232 358.042,-30.8656 367.535,-35.57 368.396,-28.6232"/>
</g>
</g>
</svg>
