<?xml version="1.0" encoding="UTF-8" standalone="no"?>
<!DOCTYPE svg PUBLIC "-//W3C//DTD SVG 1.1//EN"
 "http://www.w3.org/Graphics/SVG/1.1/DTD/svg11.dtd">
<!-- Generated by graphviz version 2.38.0 (20140413.2041)
 -->
<!-- Title: SeeSawN::UncertaintyEstimationN::SUTTriangulationProblemC::TransformPerturbed Pages: 1 -->
<svg width="535pt" height="149pt"
 viewBox="0.00 0.00 535.00 148.50" xmlns="http://www.w3.org/2000/svg" xmlns:xlink="http://www.w3.org/1999/xlink">
<g id="graph0" class="graph" transform="scale(1 1) rotate(0) translate(4 144.5)">
<title>SeeSawN::UncertaintyEstimationN::SUTTriangulationProblemC::TransformPerturbed</title>
<polygon fill="white" stroke="none" points="-4,4 -4,-144.5 531,-144.5 531,4 -4,4"/>
<!-- Node35 -->
<g id="node1" class="node"><title>Node35</title>
<polygon fill="#bfbfbf" stroke="black" points="0,-55.5 0,-96.5 161,-96.5 161,-55.5 0,-55.5"/>
<text text-anchor="start" x="8" y="-84.5" font-family="FreeSans" font-size="10.00">SeeSawN::UncertaintyEstimation</text>
<text text-anchor="start" x="8" y="-73.5" font-family="FreeSans" font-size="10.00">N::SUTTriangulationProblemC</text>
<text text-anchor="middle" x="80.5" y="-62.5" font-family="FreeSans" font-size="10.00">::TransformPerturbed</text>
</g>
<!-- Node36 -->
<g id="node2" class="node"><title>Node36</title>
<g id="a_node2"><a xlink:href="classSeeSawN_1_1GeometryN_1_1TriangulatorC.html#aa79e87218bf7af60ec8dca394d60359f" target="_top" xlink:title="Optimal triangulation. ">
<polygon fill="white" stroke="black" points="197,-61 197,-91 328,-91 328,-61 197,-61"/>
<text text-anchor="start" x="205" y="-79" font-family="FreeSans" font-size="10.00">SeeSawN::GeometryN</text>
<text text-anchor="middle" x="262.5" y="-68" font-family="FreeSans" font-size="10.00">::TriangulatorC::Triangulate</text>
</a>
</g>
</g>
<!-- Node35&#45;&gt;Node36 -->
<g id="edge1" class="edge"><title>Node35&#45;&gt;Node36</title>
<path fill="none" stroke="midnightblue" d="M161.237,-76C169.727,-76 178.341,-76 186.771,-76"/>
<polygon fill="midnightblue" stroke="midnightblue" points="186.941,-79.5001 196.941,-76 186.941,-72.5001 186.941,-79.5001"/>
</g>
<!-- Node37 -->
<g id="node3" class="node"><title>Node37</title>
<g id="a_node3"><a xlink:href="classSeeSawN_1_1GeometryN_1_1TriangulatorC.html#a617ff091b073b5723c571f86a442fe6d" target="_top" xlink:title="Eigen triangulation. ">
<polygon fill="white" stroke="black" points="364,-110 364,-140 527,-140 527,-110 364,-110"/>
<text text-anchor="start" x="372" y="-128" font-family="FreeSans" font-size="10.00">SeeSawN::GeometryN</text>
<text text-anchor="middle" x="445.5" y="-117" font-family="FreeSans" font-size="10.00">::TriangulatorC::EigenTriangulation</text>
</a>
</g>
</g>
<!-- Node36&#45;&gt;Node37 -->
<g id="edge2" class="edge"><title>Node36&#45;&gt;Node37</title>
<path fill="none" stroke="midnightblue" d="M319.283,-91.1014C338.21,-96.2253 359.525,-101.996 379.13,-107.303"/>
<polygon fill="midnightblue" stroke="midnightblue" points="378.334,-110.714 388.901,-109.948 380.163,-103.957 378.334,-110.714"/>
</g>
<!-- Node38 -->
<g id="node4" class="node"><title>Node38</title>
<g id="a_node4"><a xlink:href="namespaceSeeSawN_1_1GeometryN.html#aa10dc98c6d315aede280319397c26122" target="_top" xlink:title="Projects a 2D correspondence to the epipolar manifold defined by a fundamental matrix. ">
<polygon fill="white" stroke="black" points="368.5,-61 368.5,-91 522.5,-91 522.5,-61 368.5,-61"/>
<text text-anchor="start" x="376.5" y="-79" font-family="FreeSans" font-size="10.00">SeeSawN::GeometryN</text>
<text text-anchor="middle" x="445.5" y="-68" font-family="FreeSans" font-size="10.00">::FastProjectToEpipolarManifold</text>
</a>
</g>
</g>
<!-- Node36&#45;&gt;Node38 -->
<g id="edge3" class="edge"><title>Node36&#45;&gt;Node38</title>
<path fill="none" stroke="midnightblue" d="M328.079,-76C337.825,-76 348.009,-76 358.125,-76"/>
<polygon fill="midnightblue" stroke="midnightblue" points="358.199,-79.5001 368.199,-76 358.199,-72.5001 358.199,-79.5001"/>
</g>
<!-- Node39 -->
<g id="node5" class="node"><title>Node39</title>
<g id="a_node5"><a xlink:href="namespaceSeeSawN_1_1GeometryN.html#a1eca736101f6ea54f29b54b133361cfc" target="_top" xlink:title="Projects a 2D correspondence to the epipolar manifold defined by a fundamental matrix. ">
<polygon fill="white" stroke="black" points="380,-0.5 380,-41.5 511,-41.5 511,-0.5 380,-0.5"/>
<text text-anchor="start" x="388" y="-29.5" font-family="FreeSans" font-size="10.00">SeeSawN::GeometryN</text>
<text text-anchor="start" x="388" y="-18.5" font-family="FreeSans" font-size="10.00">::OptimalProjectToEpipolar</text>
<text text-anchor="middle" x="445.5" y="-7.5" font-family="FreeSans" font-size="10.00">Manifold</text>
</a>
</g>
</g>
<!-- Node36&#45;&gt;Node39 -->
<g id="edge4" class="edge"><title>Node36&#45;&gt;Node39</title>
<path fill="none" stroke="midnightblue" d="M312.959,-60.971C330.599,-55.6109 350.878,-49.4488 370.147,-43.5934"/>
<polygon fill="midnightblue" stroke="midnightblue" points="371.259,-46.9136 379.81,-40.6573 369.224,-40.2159 371.259,-46.9136"/>
</g>
</g>
</svg>
