<?xml version="1.0" encoding="UTF-8" standalone="no"?>
<!DOCTYPE svg PUBLIC "-//W3C//DTD SVG 1.1//EN"
 "http://www.w3.org/Graphics/SVG/1.1/DTD/svg11.dtd">
<!-- Generated by graphviz version 2.38.0 (20140413.2041)
 -->
<!-- Title: SeeSawN::ApplicationN::InterfaceVisionGraphPipelineC::PruneGeometryEstimationPipeline Pages: 1 -->
<!--zoomable 230 -->
<svg id="main" version="1.1" xmlns="http://www.w3.org/2000/svg" xmlns:xlink="http://www.w3.org/1999/xlink" xml:space="preserve" onload="init(evt)">
<style type="text/css"><![CDATA[
.edge:hover path { stroke: red; }
.edge:hover polygon { stroke: red; fill: red; }
]]></style>
<script type="text/javascript"><![CDATA[
var edges = document.getElementsByTagName('g');
if (edges && edges.length) {
  for (var i=0;i<edges.length;i++) {
    if (edges[i].id.substr(0,4)=='edge') {
      edges[i].setAttribute('class','edge');
    }
  }
}
]]></script>
        <defs>
                <circle id="rim" cx="0" cy="0" r="7"/>
                <circle id="rim2" cx="0" cy="0" r="3.5"/>
                <g id="zoomPlus">
                        <use xlink:href="#rim" fill="#404040">
                                <set attributeName="fill" to="#808080" begin="zoomplus.mouseover" end="zoomplus.mouseout"/>
                        </use>
                        <path d="M-4,0h8M0,-4v8" fill="none" stroke="white" stroke-width="1.5" pointer-events="none"/>
                </g>
                <g id="zoomMin">
                        <use xlink:href="#rim" fill="#404040">
                                <set attributeName="fill" to="#808080" begin="zoomminus.mouseover" end="zoomminus.mouseout"/>
                        </use>
                        <path d="M-4,0h8" fill="none" stroke="white" stroke-width="1.5" pointer-events="none"/>
                </g>
                <g id="dirArrow">
                        <path fill="none" stroke="white" stroke-width="1.5" d="M0,-3.0v7 M-2.5,-0.5L0,-3.0L2.5,-0.5"/>
                </g>
               <g id="resetDef">
                       <use xlink:href="#rim2" fill="#404040">
                               <set attributeName="fill" to="#808080" begin="reset.mouseover" end="reset.mouseout"/>
                       </use>
               </g>
        </defs>

<script type="text/javascript">
var viewWidth = 775;
var viewHeight = 230;
var sectionId = 'dynsection-5';
</script>
<script xlink:href="svgpan.js"/>
<svg id="graph" class="graph">
<g id="viewport">
<title>SeeSawN::ApplicationN::InterfaceVisionGraphPipelineC::PruneGeometryEstimationPipeline</title>
<polygon fill="white" stroke="none" points="-4,4 -4,-226 771,-226 771,4 -4,4"/>
<!-- Node44 -->
<g id="node1" class="node"><title>Node44</title>
<polygon fill="#bfbfbf" stroke="black" points="0,-90.5 0,-131.5 176,-131.5 176,-90.5 0,-90.5"/>
<text text-anchor="start" x="8" y="-119.5" font-family="FreeSans" font-size="10.00">SeeSawN::ApplicationN</text>
<text text-anchor="start" x="8" y="-108.5" font-family="FreeSans" font-size="10.00">::InterfaceVisionGraphPipeline</text>
<text text-anchor="middle" x="88" y="-97.5" font-family="FreeSans" font-size="10.00">C::PruneGeometryEstimationPipeline</text>
</g>
<!-- Node45 -->
<g id="node2" class="node"><title>Node45</title>
<g id="a_node2"><a xlink:href="classSeeSawN_1_1ApplicationN_1_1InterfaceVisionGraphPipelineC.html#a6cc54cb46531eefd52ca842ad62570b7" target="_top" xlink:title="Makes a parameter object from a property tree. ">
<polygon fill="white" stroke="black" points="212,-120.5 212,-161.5 359,-161.5 359,-120.5 212,-120.5"/>
<text text-anchor="start" x="220" y="-149.5" font-family="FreeSans" font-size="10.00">SeeSawN::ApplicationN</text>
<text text-anchor="start" x="220" y="-138.5" font-family="FreeSans" font-size="10.00">::InterfaceVisionGraphPipeline</text>
<text text-anchor="middle" x="285.5" y="-127.5" font-family="FreeSans" font-size="10.00">C::MakeParameterObject</text>
</a>
</g>
</g>
<!-- Node44&#45;&gt;Node45 -->
<g id="edge1" class="edge"><title>Node44&#45;&gt;Node45</title>
<path fill="none" stroke="midnightblue" d="M186.259,-125.925C194.866,-127.245 203.479,-128.567 211.829,-129.849"/>
<polygon fill="midnightblue" stroke="midnightblue" points="186.588,-122.434 176.172,-124.377 185.526,-129.353 186.588,-122.434"/>
</g>
<!-- Node49 -->
<g id="node6" class="node"><title>Node49</title>
<g id="a_node6"><a xlink:href="classSeeSawN_1_1ApplicationN_1_1InterfaceVisionGraphPipelineC.html#a77a4bbe1e205b28c8b9a5c5df718c73d" target="_top" xlink:title="Makes a property tree from a parameter object. ">
<polygon fill="white" stroke="black" points="212,-60.5 212,-101.5 359,-101.5 359,-60.5 212,-60.5"/>
<text text-anchor="start" x="220" y="-89.5" font-family="FreeSans" font-size="10.00">SeeSawN::ApplicationN</text>
<text text-anchor="start" x="220" y="-78.5" font-family="FreeSans" font-size="10.00">::InterfaceVisionGraphPipeline</text>
<text text-anchor="middle" x="285.5" y="-67.5" font-family="FreeSans" font-size="10.00">C::MakeParameterTree</text>
</a>
</g>
</g>
<!-- Node44&#45;&gt;Node49 -->
<g id="edge5" class="edge"><title>Node44&#45;&gt;Node49</title>
<path fill="none" stroke="midnightblue" d="M186.259,-96.0754C194.866,-94.7546 203.479,-93.4329 211.829,-92.1515"/>
<polygon fill="midnightblue" stroke="midnightblue" points="185.526,-92.6468 176.172,-97.6231 186.588,-99.5658 185.526,-92.6468"/>
</g>
<!-- Node46 -->
<g id="node3" class="node"><title>Node46</title>
<g id="a_node3"><a xlink:href="classSeeSawN_1_1ApplicationN_1_1InterfacePfMPipelineC.html#acfbef1b92f2a55be0413a3c490ddeea0" target="_top" xlink:title="Makes a parameter object from a property tree. ">
<polygon fill="white" stroke="black" points="395,-180.5 395,-221.5 516,-221.5 516,-180.5 395,-180.5"/>
<text text-anchor="start" x="403" y="-209.5" font-family="FreeSans" font-size="10.00">SeeSawN::ApplicationN</text>
<text text-anchor="start" x="403" y="-198.5" font-family="FreeSans" font-size="10.00">::InterfacePfMPipelineC</text>
<text text-anchor="middle" x="455.5" y="-187.5" font-family="FreeSans" font-size="10.00">::MakeParameterObject</text>
</a>
</g>
</g>
<!-- Node45&#45;&gt;Node46 -->
<g id="edge2" class="edge"><title>Node45&#45;&gt;Node46</title>
<path fill="none" stroke="midnightblue" d="M354.019,-165.114C368.216,-170.184 383.067,-175.488 396.862,-180.415"/>
<polygon fill="midnightblue" stroke="midnightblue" points="354.911,-161.716 344.316,-161.649 352.556,-168.308 354.911,-161.716"/>
</g>
<!-- Node48 -->
<g id="node5" class="node"><title>Node48</title>
<g id="a_node5"><a xlink:href="classSeeSawN_1_1ApplicationN_1_1InterfaceSfMPipelineC.html#a2dcd6302c84357ab559b2ba37a7cbbf9" target="_top" xlink:title="Makes a parameter object from a property tree. ">
<polygon fill="white" stroke="black" points="395,-120.5 395,-161.5 516,-161.5 516,-120.5 395,-120.5"/>
<text text-anchor="start" x="403" y="-149.5" font-family="FreeSans" font-size="10.00">SeeSawN::ApplicationN</text>
<text text-anchor="start" x="403" y="-138.5" font-family="FreeSans" font-size="10.00">::InterfaceSfMPipelineC</text>
<text text-anchor="middle" x="455.5" y="-127.5" font-family="FreeSans" font-size="10.00">::MakeParameterObject</text>
</a>
</g>
</g>
<!-- Node45&#45;&gt;Node48 -->
<g id="edge4" class="edge"><title>Node45&#45;&gt;Node48</title>
<path fill="none" stroke="midnightblue" d="M369.288,-141C377.897,-141 386.524,-141 394.806,-141"/>
<polygon fill="midnightblue" stroke="midnightblue" points="369.21,-137.5 359.21,-141 369.21,-144.5 369.21,-137.5"/>
</g>
<!-- Node47 -->
<g id="node4" class="node"><title>Node47</title>
<g id="a_node4"><a xlink:href="classSeeSawN_1_1AppPfMN_1_1AppPfMImplementationC.html#abc73e8c53e5966a07e0da314df087d02" target="_top" xlink:title="Sets and validates the application parameters. ">
<polygon fill="white" stroke="black" points="552,-186 552,-216 767,-216 767,-186 552,-186"/>
<text text-anchor="start" x="560" y="-204" font-family="FreeSans" font-size="10.00">SeeSawN::AppPfMN::AppPfMImplementation</text>
<text text-anchor="middle" x="659.5" y="-193" font-family="FreeSans" font-size="10.00">C::SetParameters</text>
</a>
</g>
</g>
<!-- Node46&#45;&gt;Node47 -->
<g id="edge3" class="edge"><title>Node46&#45;&gt;Node47</title>
<path fill="none" stroke="midnightblue" d="M526.27,-201C534.512,-201 543.062,-201 551.668,-201"/>
<polygon fill="midnightblue" stroke="midnightblue" points="526.014,-197.5 516.014,-201 526.014,-204.5 526.014,-197.5"/>
</g>
<!-- Node50 -->
<g id="node7" class="node"><title>Node50</title>
<g id="a_node7"><a xlink:href="classSeeSawN_1_1ApplicationN_1_1InterfacePfMPipelineC.html#a87fe7e3fd13d810f533783a0ecc4f434" target="_top" xlink:title="Makes a property tree from a parameter object. ">
<polygon fill="white" stroke="black" points="395,-60.5 395,-101.5 516,-101.5 516,-60.5 395,-60.5"/>
<text text-anchor="start" x="403" y="-89.5" font-family="FreeSans" font-size="10.00">SeeSawN::ApplicationN</text>
<text text-anchor="start" x="403" y="-78.5" font-family="FreeSans" font-size="10.00">::InterfacePfMPipelineC</text>
<text text-anchor="middle" x="455.5" y="-67.5" font-family="FreeSans" font-size="10.00">::MakeParameterTree</text>
</a>
</g>
</g>
<!-- Node49&#45;&gt;Node50 -->
<g id="edge6" class="edge"><title>Node49&#45;&gt;Node50</title>
<path fill="none" stroke="midnightblue" d="M369.288,-81C377.897,-81 386.524,-81 394.806,-81"/>
<polygon fill="midnightblue" stroke="midnightblue" points="369.21,-77.5001 359.21,-81 369.21,-84.5001 369.21,-77.5001"/>
</g>
<!-- Node52 -->
<g id="node9" class="node"><title>Node52</title>
<g id="a_node9"><a xlink:href="classSeeSawN_1_1ApplicationN_1_1InterfaceSfMPipelineC.html#ab29100e83d78ae13ec578dd7cd246a34" target="_top" xlink:title="Makes a property tree from a parameter object. ">
<polygon fill="white" stroke="black" points="395,-0.5 395,-41.5 516,-41.5 516,-0.5 395,-0.5"/>
<text text-anchor="start" x="403" y="-29.5" font-family="FreeSans" font-size="10.00">SeeSawN::ApplicationN</text>
<text text-anchor="start" x="403" y="-18.5" font-family="FreeSans" font-size="10.00">::InterfaceSfMPipelineC</text>
<text text-anchor="middle" x="455.5" y="-7.5" font-family="FreeSans" font-size="10.00">::MakeParameterTree</text>
</a>
</g>
</g>
<!-- Node49&#45;&gt;Node52 -->
<g id="edge8" class="edge"><title>Node49&#45;&gt;Node52</title>
<path fill="none" stroke="midnightblue" d="M354.019,-56.886C368.216,-51.8156 383.067,-46.5118 396.862,-41.585"/>
<polygon fill="midnightblue" stroke="midnightblue" points="352.556,-53.6919 344.316,-60.3514 354.911,-60.2841 352.556,-53.6919"/>
</g>
<!-- Node51 -->
<g id="node8" class="node"><title>Node51</title>
<g id="a_node8"><a xlink:href="classSeeSawN_1_1AppPfMN_1_1AppPfMImplementationC.html#a5b65baefa5bbca910559afaec46d6170" target="_top" xlink:title="Generates a configuration file with default parameters. ">
<polygon fill="white" stroke="black" points="552,-66 552,-96 767,-96 767,-66 552,-66"/>
<text text-anchor="start" x="560" y="-84" font-family="FreeSans" font-size="10.00">SeeSawN::AppPfMN::AppPfMImplementation</text>
<text text-anchor="middle" x="659.5" y="-73" font-family="FreeSans" font-size="10.00">C::GenerateConfigFile</text>
</a>
</g>
</g>
<!-- Node50&#45;&gt;Node51 -->
<g id="edge7" class="edge"><title>Node50&#45;&gt;Node51</title>
<path fill="none" stroke="midnightblue" d="M526.27,-81C534.512,-81 543.062,-81 551.668,-81"/>
<polygon fill="midnightblue" stroke="midnightblue" points="526.014,-77.5001 516.014,-81 526.014,-84.5001 526.014,-77.5001"/>
</g>
</g>
</svg>
        <g id="navigator" transform="translate(0 0)" fill="#404254">
                <rect fill="#f2f5e9" fill-opacity="0.5" stroke="#606060" stroke-width=".5" x="0" y="0" width="60" height="60"/>
                <use id="zoomplus" xlink:href="#zoomPlus" x="17" y="9" onmousedown="handleZoom(evt,'in')"/>
                <use id="zoomminus" xlink:href="#zoomMin" x="42" y="9" onmousedown="handleZoom(evt,'out')"/>
                <use id="reset" xlink:href="#resetDef" x="30" y="36" onmousedown="handleReset()"/>
                <g id="arrowUp" xlink:href="#dirArrow" transform="translate(30 24)" onmousedown="handlePan(0,-1)">
                  <use xlink:href="#rim" fill="#404040">
                        <set attributeName="fill" to="#808080" begin="arrowUp.mouseover" end="arrowUp.mouseout"/>
                  </use>
                  <path fill="none" stroke="white" stroke-width="1.5" d="M0,-3.0v7 M-2.5,-0.5L0,-3.0L2.5,-0.5"/>
                </g>
                <g id="arrowRight" xlink:href="#dirArrow" transform="rotate(90) translate(36 -43)" onmousedown="handlePan(1,0)">
                  <use xlink:href="#rim" fill="#404040">
                        <set attributeName="fill" to="#808080" begin="arrowRight.mouseover" end="arrowRight.mouseout"/>
                  </use>
                  <path fill="none" stroke="white" stroke-width="1.5" d="M0,-3.0v7 M-2.5,-0.5L0,-3.0L2.5,-0.5"/>
                </g>
                <g id="arrowDown" xlink:href="#dirArrow" transform="rotate(180) translate(-30 -48)" onmousedown="handlePan(0,1)">
                  <use xlink:href="#rim" fill="#404040">
                        <set attributeName="fill" to="#808080" begin="arrowDown.mouseover" end="arrowDown.mouseout"/>
                  </use>
                  <path fill="none" stroke="white" stroke-width="1.5" d="M0,-3.0v7 M-2.5,-0.5L0,-3.0L2.5,-0.5"/>
                </g>
                <g id="arrowLeft" xlink:href="#dirArrow" transform="rotate(270) translate(-36 17)" onmousedown="handlePan(-1,0)">
                  <use xlink:href="#rim" fill="#404040">
                        <set attributeName="fill" to="#808080" begin="arrowLeft.mouseover" end="arrowLeft.mouseout"/>
                  </use>
                  <path fill="none" stroke="white" stroke-width="1.5" d="M0,-3.0v7 M-2.5,-0.5L0,-3.0L2.5,-0.5"/>
                </g>
        </g>
        <svg viewBox="0 0 15 15" width="100%" height="30px" preserveAspectRatio="xMaxYMin meet">
         <g id="arrow_out" transform="scale(0.3 0.3)">
          <a xlink:href="classSeeSawN_1_1ApplicationN_1_1InterfaceVisionGraphPipelineC_a6b40014b0a963b158dfb7cb1f6774be1_icgraph_org.svg" target="_base">
           <rect id="button" ry="5" rx="5" y="6" x="6" height="38" width="38"
                fill="#f2f5e9" fill-opacity="0.5" stroke="#606060" stroke-width="1.0"/>
           <path id="arrow"
             d="M 11.500037,31.436501 C 11.940474,20.09759 22.043105,11.32322 32.158766,21.979434 L 37.068811,17.246167 C 37.068811,17.246167 37.088388,32 37.088388,32 L 22.160133,31.978069 C 22.160133,31.978069 26.997745,27.140456 26.997745,27.140456 C 18.528582,18.264221 13.291696,25.230495 11.500037,31.436501 z"
             style="fill:#404040;"/>
          </a>
         </g>
        </svg>
</svg>
