<?xml version="1.0" encoding="UTF-8" standalone="no"?>
<!DOCTYPE svg PUBLIC "-//W3C//DTD SVG 1.1//EN"
 "http://www.w3.org/Graphics/SVG/1.1/DTD/svg11.dtd">
<!-- Generated by graphviz version 2.38.0 (20140413.2041)
 -->
<!-- Title: SeeSawN::OptimisationN::PDLOneSidedFundamentalMatrixEstimationProblemC::ComputeError Pages: 1 -->
<svg width="975pt" height="132pt"
 viewBox="0.00 0.00 975.00 132.00" xmlns="http://www.w3.org/2000/svg" xmlns:xlink="http://www.w3.org/1999/xlink">
<g id="graph0" class="graph" transform="scale(1 1) rotate(0) translate(4 128)">
<title>SeeSawN::OptimisationN::PDLOneSidedFundamentalMatrixEstimationProblemC::ComputeError</title>
<polygon fill="white" stroke="none" points="-4,4 -4,-128 971,-128 971,4 -4,4"/>
<!-- Node5 -->
<g id="node1" class="node"><title>Node5</title>
<polygon fill="#bfbfbf" stroke="black" points="0,-35.5 0,-76.5 169,-76.5 169,-35.5 0,-35.5"/>
<text text-anchor="start" x="8" y="-64.5" font-family="FreeSans" font-size="10.00">SeeSawN::OptimisationN</text>
<text text-anchor="start" x="8" y="-53.5" font-family="FreeSans" font-size="10.00">::PDLOneSidedFundamentalMatrix</text>
<text text-anchor="middle" x="84.5" y="-42.5" font-family="FreeSans" font-size="10.00">EstimationProblemC::ComputeError</text>
</g>
<!-- Node6 -->
<g id="node2" class="node"><title>Node6</title>
<g id="a_node2"><a xlink:href="classSeeSawN_1_1OptimisationN_1_1PDLGeometryEstimationProblemBaseC.html#a9f81afb650cce4e68feb41a103864120" target="_top" xlink:title="Computes the error vector for a model. ">
<polygon fill="white" stroke="black" points="205,-60.5 205,-123.5 442,-123.5 442,-60.5 205,-60.5"/>
<text text-anchor="start" x="213" y="-111.5" font-family="FreeSans" font-size="10.00">SeeSawN::OptimisationN</text>
<text text-anchor="start" x="213" y="-100.5" font-family="FreeSans" font-size="10.00">::PDLGeometryEstimationProblem</text>
<text text-anchor="start" x="213" y="-89.5" font-family="FreeSans" font-size="10.00">BaseC&lt; PDLOneSidedFundamentalMatrix</text>
<text text-anchor="start" x="213" y="-78.5" font-family="FreeSans" font-size="10.00">EstimationProblemC, OneSidedFundamentalSolver</text>
<text text-anchor="middle" x="323.5" y="-67.5" font-family="FreeSans" font-size="10.00">C &gt;::ComputeError</text>
</a>
</g>
</g>
<!-- Node5&#45;&gt;Node6 -->
<g id="edge1" class="edge"><title>Node5&#45;&gt;Node6</title>
<path fill="none" stroke="midnightblue" d="M169.057,-68.6923C177.481,-69.9719 186.164,-71.2908 194.913,-72.6198"/>
<polygon fill="midnightblue" stroke="midnightblue" points="194.397,-76.0814 204.81,-74.123 195.449,-69.1608 194.397,-76.0814"/>
</g>
<!-- Node7 -->
<g id="node3" class="node"><title>Node7</title>
<g id="a_node3"><a xlink:href="classSeeSawN_1_1OptimisationN_1_1PDLOneSidedFundamentalMatrixEstimationProblemC.html#a7b7b6f18eb19746e3ea904e09b5745ec" target="_top" xlink:title="Converts a vector to a model. ">
<polygon fill="white" stroke="black" points="240.5,-0.5 240.5,-41.5 406.5,-41.5 406.5,-0.5 240.5,-0.5"/>
<text text-anchor="start" x="248.5" y="-29.5" font-family="FreeSans" font-size="10.00">SeeSawN::OptimisationN</text>
<text text-anchor="start" x="248.5" y="-18.5" font-family="FreeSans" font-size="10.00">::PDLOneSidedFundamentalMatrix</text>
<text text-anchor="middle" x="323.5" y="-7.5" font-family="FreeSans" font-size="10.00">EstimationProblemC::MakeResult</text>
</a>
</g>
</g>
<!-- Node5&#45;&gt;Node7 -->
<g id="edge2" class="edge"><title>Node5&#45;&gt;Node7</title>
<path fill="none" stroke="midnightblue" d="M169.057,-43.6603C188.895,-40.7308 210.167,-37.5893 230.363,-34.6068"/>
<polygon fill="midnightblue" stroke="midnightblue" points="231.113,-38.034 240.495,-33.1105 230.091,-31.1091 231.113,-38.034"/>
</g>
<!-- Node8 -->
<g id="node4" class="node"><title>Node8</title>
<g id="a_node4"><a xlink:href="classSeeSawN_1_1OptimisationN_1_1PDLOneSidedFundamentalMatrixEstimationProblemC.html#abbd7765df04adb7159c414098b22e064" target="_top" xlink:title="Computes the essential matrix corresponding to the parameter vector. ">
<polygon fill="white" stroke="black" points="478,-0.5 478,-41.5 651,-41.5 651,-0.5 478,-0.5"/>
<text text-anchor="start" x="486" y="-29.5" font-family="FreeSans" font-size="10.00">SeeSawN::OptimisationN</text>
<text text-anchor="start" x="486" y="-18.5" font-family="FreeSans" font-size="10.00">::PDLOneSidedFundamentalMatrix</text>
<text text-anchor="middle" x="564.5" y="-7.5" font-family="FreeSans" font-size="10.00">EstimationProblemC::MakeEssential</text>
</a>
</g>
</g>
<!-- Node7&#45;&gt;Node8 -->
<g id="edge3" class="edge"><title>Node7&#45;&gt;Node8</title>
<path fill="none" stroke="midnightblue" d="M406.75,-21C426.387,-21 447.515,-21 467.703,-21"/>
<polygon fill="midnightblue" stroke="midnightblue" points="467.843,-24.5001 477.843,-21 467.843,-17.5001 467.843,-24.5001"/>
</g>
<!-- Node9 -->
<g id="node5" class="node"><title>Node9</title>
<g id="a_node5"><a xlink:href="group__Utility.html#gac3b857ffaf1804a2ae1802cb86192903" target="_top" xlink:title="Essential matrix from relative calibration. ">
<polygon fill="white" stroke="black" points="687,-6 687,-36 800,-36 800,-6 687,-6"/>
<text text-anchor="start" x="695" y="-24" font-family="FreeSans" font-size="10.00">SeeSawN::ElementsN</text>
<text text-anchor="middle" x="743.5" y="-13" font-family="FreeSans" font-size="10.00">::ComposeEssential</text>
</a>
</g>
</g>
<!-- Node8&#45;&gt;Node9 -->
<g id="edge4" class="edge"><title>Node8&#45;&gt;Node9</title>
<path fill="none" stroke="midnightblue" d="M651.148,-21C659.806,-21 668.5,-21 676.898,-21"/>
<polygon fill="midnightblue" stroke="midnightblue" points="676.973,-24.5001 686.973,-21 676.973,-17.5001 676.973,-24.5001"/>
</g>
<!-- Node10 -->
<g id="node6" class="node"><title>Node10</title>
<g id="a_node6"><a xlink:href="namespaceSeeSawN_1_1WrappersN.html#a7a58341e8f21a5c2a3a8d55453ec473d" target="_top" xlink:title="SeeSawN::WrappersN\l::MakeCrossProductMatrix">
<polygon fill="white" stroke="black" points="836,-6 836,-36 967,-36 967,-6 836,-6"/>
<text text-anchor="start" x="844" y="-24" font-family="FreeSans" font-size="10.00">SeeSawN::WrappersN</text>
<text text-anchor="middle" x="901.5" y="-13" font-family="FreeSans" font-size="10.00">::MakeCrossProductMatrix</text>
</a>
</g>
</g>
<!-- Node9&#45;&gt;Node10 -->
<g id="edge5" class="edge"><title>Node9&#45;&gt;Node10</title>
<path fill="none" stroke="midnightblue" d="M800.379,-21C808.674,-21 817.332,-21 825.935,-21"/>
<polygon fill="midnightblue" stroke="midnightblue" points="825.983,-24.5001 835.983,-21 825.983,-17.5001 825.983,-24.5001"/>
</g>
</g>
</svg>
