<?xml version="1.0" encoding="UTF-8" standalone="no"?>
<!DOCTYPE svg PUBLIC "-//W3C//DTD SVG 1.1//EN"
 "http://www.w3.org/Graphics/SVG/1.1/DTD/svg11.dtd">
<!-- Generated by graphviz version 2.38.0 (20140413.2041)
 -->
<!-- Title: SeeSawN::ION::ImageFeatureIOC::WriteFeatureFile Pages: 1 -->
<!--zoomable 345 -->
<svg id="main" version="1.1" xmlns="http://www.w3.org/2000/svg" xmlns:xlink="http://www.w3.org/1999/xlink" xml:space="preserve" onload="init(evt)">
<style type="text/css"><![CDATA[
.edge:hover path { stroke: red; }
.edge:hover polygon { stroke: red; fill: red; }
]]></style>
<script type="text/javascript"><![CDATA[
var edges = document.getElementsByTagName('g');
if (edges && edges.length) {
  for (var i=0;i<edges.length;i++) {
    if (edges[i].id.substr(0,4)=='edge') {
      edges[i].setAttribute('class','edge');
    }
  }
}
]]></script>
        <defs>
                <circle id="rim" cx="0" cy="0" r="7"/>
                <circle id="rim2" cx="0" cy="0" r="3.5"/>
                <g id="zoomPlus">
                        <use xlink:href="#rim" fill="#404040">
                                <set attributeName="fill" to="#808080" begin="zoomplus.mouseover" end="zoomplus.mouseout"/>
                        </use>
                        <path d="M-4,0h8M0,-4v8" fill="none" stroke="white" stroke-width="1.5" pointer-events="none"/>
                </g>
                <g id="zoomMin">
                        <use xlink:href="#rim" fill="#404040">
                                <set attributeName="fill" to="#808080" begin="zoomminus.mouseover" end="zoomminus.mouseout"/>
                        </use>
                        <path d="M-4,0h8" fill="none" stroke="white" stroke-width="1.5" pointer-events="none"/>
                </g>
                <g id="dirArrow">
                        <path fill="none" stroke="white" stroke-width="1.5" d="M0,-3.0v7 M-2.5,-0.5L0,-3.0L2.5,-0.5"/>
                </g>
               <g id="resetDef">
                       <use xlink:href="#rim2" fill="#404040">
                               <set attributeName="fill" to="#808080" begin="reset.mouseover" end="reset.mouseout"/>
                       </use>
               </g>
        </defs>

<script type="text/javascript">
var viewWidth = 789;
var viewHeight = 345;
var sectionId = 'dynsection-4';
</script>
<script xlink:href="svgpan.js"/>
<svg id="graph" class="graph">
<g id="viewport">
<title>SeeSawN::ION::ImageFeatureIOC::WriteFeatureFile</title>
<polygon fill="white" stroke="none" points="-4,4 -4,-341 785,-341 785,4 -4,4"/>
<!-- Node17 -->
<g id="node1" class="node"><title>Node17</title>
<polygon fill="#bfbfbf" stroke="black" points="0,-121 0,-151 148,-151 148,-121 0,-121"/>
<text text-anchor="start" x="8" y="-139" font-family="FreeSans" font-size="10.00">SeeSawN::ION::ImageFeature</text>
<text text-anchor="middle" x="74" y="-128" font-family="FreeSans" font-size="10.00">IOC::WriteFeatureFile</text>
</g>
<!-- Node18 -->
<g id="node2" class="node"><title>Node18</title>
<g id="a_node2"><a xlink:href="namespaceSeeSawN_1_1UnitTestsN_1_1TestION.html#aa78afa93b7f0232bdea8ac2b2870a15f" target="_top" xlink:title="SeeSawN::UnitTestsN\l::TestION::BOOST_AUTO\l_TEST_CASE">
<polygon fill="white" stroke="black" points="213,-246.5 213,-287.5 344,-287.5 344,-246.5 213,-246.5"/>
<text text-anchor="start" x="221" y="-275.5" font-family="FreeSans" font-size="10.00">SeeSawN::UnitTestsN</text>
<text text-anchor="start" x="221" y="-264.5" font-family="FreeSans" font-size="10.00">::TestION::BOOST_AUTO</text>
<text text-anchor="middle" x="278.5" y="-253.5" font-family="FreeSans" font-size="10.00">_TEST_CASE</text>
</a>
</g>
</g>
<!-- Node17&#45;&gt;Node18 -->
<g id="edge1" class="edge"><title>Node17&#45;&gt;Node18</title>
<path fill="none" stroke="midnightblue" d="M104.983,-156.935C126.731,-171.978 156.954,-192.59 184,-210 203.183,-222.348 224.926,-235.644 242.614,-246.287"/>
<polygon fill="midnightblue" stroke="midnightblue" points="106.718,-153.88 96.5064,-151.057 102.73,-159.632 106.718,-153.88"/>
</g>
<!-- Node21 -->
<g id="node5" class="node"><title>Node21</title>
<g id="a_node5"><a xlink:href="classSeeSawN_1_1ION_1_1BinaryImageFeatureIOC.html#a16a105a0609bbd4c625a5b21c8e29169" target="_top" xlink:title="Reads a feature file. ">
<polygon fill="white" stroke="black" points="207,-170 207,-200 350,-200 350,-170 207,-170"/>
<text text-anchor="start" x="215" y="-188" font-family="FreeSans" font-size="10.00">SeeSawN::ION::BinaryImage</text>
<text text-anchor="middle" x="278.5" y="-177" font-family="FreeSans" font-size="10.00">FeatureIOC::ReadFeatureFile</text>
</a>
</g>
</g>
<!-- Node17&#45;&gt;Node21 -->
<g id="edge5" class="edge"><title>Node17&#45;&gt;Node21</title>
<path fill="none" stroke="midnightblue" d="M146.924,-153.404C169.325,-158.824 193.822,-164.752 215.485,-169.994"/>
<polygon fill="midnightblue" stroke="midnightblue" points="147.676,-149.985 137.133,-151.035 146.029,-156.788 147.676,-149.985"/>
</g>
<!-- Node25 -->
<g id="node9" class="node"><title>Node25</title>
<g id="a_node9"><a xlink:href="classSeeSawN_1_1AppMatchmakerN_1_1MatchmakerImplementationC.html#ae2463083fa35c722e9b1d6f8775d85a0" target="_top" xlink:title="Runs the application. ">
<polygon fill="white" stroke="black" points="193.5,-121 193.5,-151 363.5,-151 363.5,-121 193.5,-121"/>
<text text-anchor="start" x="201.5" y="-139" font-family="FreeSans" font-size="10.00">SeeSawN::AppMatchmakerN</text>
<text text-anchor="middle" x="278.5" y="-128" font-family="FreeSans" font-size="10.00">::MatchmakerImplementationC::Run</text>
</a>
</g>
</g>
<!-- Node17&#45;&gt;Node25 -->
<g id="edge9" class="edge"><title>Node17&#45;&gt;Node25</title>
<path fill="none" stroke="midnightblue" d="M158.234,-136C169.872,-136 181.838,-136 193.491,-136"/>
<polygon fill="midnightblue" stroke="midnightblue" points="158.107,-132.5 148.107,-136 158.107,-139.5 158.107,-132.5"/>
</g>
<!-- Node26 -->
<g id="node10" class="node"><title>Node26</title>
<g id="a_node10"><a xlink:href="classSeeSawN_1_1AppGeometryEstimator32N_1_1GeometryEstimator32ImplementationC.html#a31305d664e38ab836f9660881e4212a2" target="_top" xlink:title="Saves the output. ">
<polygon fill="white" stroke="black" points="184,-60.5 184,-101.5 373,-101.5 373,-60.5 184,-60.5"/>
<text text-anchor="start" x="192" y="-89.5" font-family="FreeSans" font-size="10.00">SeeSawN::AppGeometryEstimator32</text>
<text text-anchor="start" x="192" y="-78.5" font-family="FreeSans" font-size="10.00">N::GeometryEstimator32Implementation</text>
<text text-anchor="middle" x="278.5" y="-67.5" font-family="FreeSans" font-size="10.00">C::SaveOutput</text>
</a>
</g>
</g>
<!-- Node17&#45;&gt;Node26 -->
<g id="edge10" class="edge"><title>Node17&#45;&gt;Node26</title>
<path fill="none" stroke="midnightblue" d="M140.093,-118.32C159.734,-112.986 181.464,-107.084 201.736,-101.578"/>
<polygon fill="midnightblue" stroke="midnightblue" points="139.067,-114.972 130.334,-120.971 140.902,-121.727 139.067,-114.972"/>
</g>
<!-- Node27 -->
<g id="node11" class="node"><title>Node27</title>
<g id="a_node11"><a xlink:href="classSeeSawN_1_1AppGeometryEstimator22N_1_1GeometryEstimator22ImplementationC.html#ac0d6722eaae10a6426be68537d6dd268" target="_top" xlink:title="Saves the output. ">
<polygon fill="white" stroke="black" points="184,-0.5 184,-41.5 373,-41.5 373,-0.5 184,-0.5"/>
<text text-anchor="start" x="192" y="-29.5" font-family="FreeSans" font-size="10.00">SeeSawN::AppGeometryEstimator22</text>
<text text-anchor="start" x="192" y="-18.5" font-family="FreeSans" font-size="10.00">N::GeometryEstimator22Implementation</text>
<text text-anchor="middle" x="278.5" y="-7.5" font-family="FreeSans" font-size="10.00">C::SaveOutput</text>
</a>
</g>
</g>
<!-- Node17&#45;&gt;Node27 -->
<g id="edge11" class="edge"><title>Node17&#45;&gt;Node27</title>
<path fill="none" stroke="midnightblue" d="M98.173,-113.947C119.154,-95.001 151.645,-68.1082 184,-51 190.48,-47.5734 197.422,-44.4515 204.486,-41.6287"/>
<polygon fill="midnightblue" stroke="midnightblue" points="95.724,-111.444 90.7196,-120.783 100.455,-116.603 95.724,-111.444"/>
</g>
<!-- Node19 -->
<g id="node3" class="node"><title>Node19</title>
<g id="a_node3"><a xlink:href="namespaceSeeSawN_1_1UnitTestsN_1_1TestION.html#a2aae24ec621ab1fd2c5eb24ced60d473" target="_top" xlink:title="SeeSawN::UnitTestsN\l::TestION::BOOST_AUTO\l_TEST_SUITE_END">
<polygon fill="white" stroke="black" points="446,-295.5 446,-336.5 577,-336.5 577,-295.5 446,-295.5"/>
<text text-anchor="start" x="454" y="-324.5" font-family="FreeSans" font-size="10.00">SeeSawN::UnitTestsN</text>
<text text-anchor="start" x="454" y="-313.5" font-family="FreeSans" font-size="10.00">::TestION::BOOST_AUTO</text>
<text text-anchor="middle" x="511.5" y="-302.5" font-family="FreeSans" font-size="10.00">_TEST_SUITE_END</text>
</a>
</g>
</g>
<!-- Node18&#45;&gt;Node19 -->
<g id="edge2" class="edge"><title>Node18&#45;&gt;Node19</title>
<path fill="none" stroke="midnightblue" d="M354.017,-282.807C383.609,-289.084 417.324,-296.235 445.862,-302.289"/>
<polygon fill="midnightblue" stroke="midnightblue" points="354.662,-279.366 344.154,-280.714 353.21,-286.213 354.662,-279.366"/>
</g>
<!-- Node20 -->
<g id="node4" class="node"><title>Node20</title>
<g id="a_node4"><a xlink:href="namespaceSeeSawN_1_1UnitTestsN_1_1TestION.html#afb727e43f59f1e398de236bcfc53f70e" target="_top" xlink:title="SeeSawN::UnitTestsN\l::TestION::BOOST_AUTO\l_TEST_CASE">
<polygon fill="white" stroke="black" points="650,-270.5 650,-311.5 781,-311.5 781,-270.5 650,-270.5"/>
<text text-anchor="start" x="658" y="-299.5" font-family="FreeSans" font-size="10.00">SeeSawN::UnitTestsN</text>
<text text-anchor="start" x="658" y="-288.5" font-family="FreeSans" font-size="10.00">::TestION::BOOST_AUTO</text>
<text text-anchor="middle" x="715.5" y="-277.5" font-family="FreeSans" font-size="10.00">_TEST_CASE</text>
</a>
</g>
</g>
<!-- Node18&#45;&gt;Node20 -->
<g id="edge4" class="edge"><title>Node18&#45;&gt;Node20</title>
<path fill="none" stroke="midnightblue" d="M354.309,-271.127C437.611,-275.723 570.895,-283.077 649.846,-287.433"/>
<polygon fill="midnightblue" stroke="midnightblue" points="354.332,-267.623 344.154,-270.567 353.946,-274.613 354.332,-267.623"/>
</g>
<!-- Node19&#45;&gt;Node20 -->
<g id="edge3" class="edge"><title>Node19&#45;&gt;Node20</title>
<path fill="none" stroke="midnightblue" d="M587.191,-306.756C607.735,-304.213 629.841,-301.478 649.773,-299.011"/>
<polygon fill="midnightblue" stroke="midnightblue" points="586.742,-303.285 577.248,-307.987 587.602,-310.232 586.742,-303.285"/>
</g>
<!-- Node22 -->
<g id="node6" class="node"><title>Node22</title>
<g id="a_node6"><a xlink:href="namespaceSeeSawN_1_1UnitTestsN_1_1TestION.html#abb08c3a73fe296a0795da284f8d514ec" target="_top" xlink:title="SeeSawN::UnitTestsN\l::TestION::BOOST_AUTO\l_TEST_CASE">
<polygon fill="white" stroke="black" points="446,-197.5 446,-238.5 577,-238.5 577,-197.5 446,-197.5"/>
<text text-anchor="start" x="454" y="-226.5" font-family="FreeSans" font-size="10.00">SeeSawN::UnitTestsN</text>
<text text-anchor="start" x="454" y="-215.5" font-family="FreeSans" font-size="10.00">::TestION::BOOST_AUTO</text>
<text text-anchor="middle" x="511.5" y="-204.5" font-family="FreeSans" font-size="10.00">_TEST_CASE</text>
</a>
</g>
</g>
<!-- Node21&#45;&gt;Node22 -->
<g id="edge6" class="edge"><title>Node21&#45;&gt;Node22</title>
<path fill="none" stroke="midnightblue" d="M360.24,-196.534C388.272,-200.539 419.316,-204.974 445.875,-208.768"/>
<polygon fill="midnightblue" stroke="midnightblue" points="360.457,-193.03 350.063,-195.08 359.467,-199.96 360.457,-193.03"/>
</g>
<!-- Node23 -->
<g id="node7" class="node"><title>Node23</title>
<g id="a_node7"><a xlink:href="classSeeSawN_1_1AppSparseUnitSphereBuilderN_1_1AppSparseUnitSphereBuilderImplementationC.html#a27bcf9fbdc0ff681a507b104890422b6" target="_top" xlink:title="Loads the features. ">
<polygon fill="white" stroke="black" points="419,-137.5 419,-178.5 604,-178.5 604,-137.5 419,-137.5"/>
<text text-anchor="start" x="427" y="-166.5" font-family="FreeSans" font-size="10.00">SeeSawN::AppSparseUnitSphere</text>
<text text-anchor="start" x="427" y="-155.5" font-family="FreeSans" font-size="10.00">BuilderN::AppSparseUnitSphereBuilder</text>
<text text-anchor="middle" x="511.5" y="-144.5" font-family="FreeSans" font-size="10.00">ImplementationC::LoadFeatures</text>
</a>
</g>
</g>
<!-- Node21&#45;&gt;Node23 -->
<g id="edge7" class="edge"><title>Node21&#45;&gt;Node23</title>
<path fill="none" stroke="midnightblue" d="M360.107,-175.578C379.008,-173.369 399.285,-170.999 418.638,-168.737"/>
<polygon fill="midnightblue" stroke="midnightblue" points="359.589,-172.115 350.063,-176.752 360.402,-179.068 359.589,-172.115"/>
</g>
<!-- Node24 -->
<g id="node8" class="node"><title>Node24</title>
<g id="a_node8"><a xlink:href="classSeeSawN_1_1AppNodalCameraTrackerN_1_1AppNodalCameraTrackerImplementationC.html#ae4778e31c23e2b726d86a72bd74ca39a" target="_top" xlink:title="Loads the features. ">
<polygon fill="white" stroke="black" points="409,-77.5 409,-118.5 614,-118.5 614,-77.5 409,-77.5"/>
<text text-anchor="start" x="417" y="-106.5" font-family="FreeSans" font-size="10.00">SeeSawN::AppNodalCameraTracker</text>
<text text-anchor="start" x="417" y="-95.5" font-family="FreeSans" font-size="10.00">N::AppNodalCameraTrackerImplementation</text>
<text text-anchor="middle" x="511.5" y="-84.5" font-family="FreeSans" font-size="10.00">C::LoadFeatures</text>
</a>
</g>
</g>
<!-- Node21&#45;&gt;Node24 -->
<g id="edge8" class="edge"><title>Node21&#45;&gt;Node24</title>
<path fill="none" stroke="midnightblue" d="M359.832,-167.218C364.378,-165.342 368.801,-163.276 373,-161 392.083,-150.659 390.107,-138.684 409,-128 415.238,-124.472 421.931,-121.323 428.796,-118.519"/>
<polygon fill="midnightblue" stroke="midnightblue" points="358.475,-163.989 350.364,-170.805 360.956,-170.535 358.475,-163.989"/>
</g>
</g>
</svg>
        <g id="navigator" transform="translate(0 0)" fill="#404254">
                <rect fill="#f2f5e9" fill-opacity="0.5" stroke="#606060" stroke-width=".5" x="0" y="0" width="60" height="60"/>
                <use id="zoomplus" xlink:href="#zoomPlus" x="17" y="9" onmousedown="handleZoom(evt,'in')"/>
                <use id="zoomminus" xlink:href="#zoomMin" x="42" y="9" onmousedown="handleZoom(evt,'out')"/>
                <use id="reset" xlink:href="#resetDef" x="30" y="36" onmousedown="handleReset()"/>
                <g id="arrowUp" xlink:href="#dirArrow" transform="translate(30 24)" onmousedown="handlePan(0,-1)">
                  <use xlink:href="#rim" fill="#404040">
                        <set attributeName="fill" to="#808080" begin="arrowUp.mouseover" end="arrowUp.mouseout"/>
                  </use>
                  <path fill="none" stroke="white" stroke-width="1.5" d="M0,-3.0v7 M-2.5,-0.5L0,-3.0L2.5,-0.5"/>
                </g>
                <g id="arrowRight" xlink:href="#dirArrow" transform="rotate(90) translate(36 -43)" onmousedown="handlePan(1,0)">
                  <use xlink:href="#rim" fill="#404040">
                        <set attributeName="fill" to="#808080" begin="arrowRight.mouseover" end="arrowRight.mouseout"/>
                  </use>
                  <path fill="none" stroke="white" stroke-width="1.5" d="M0,-3.0v7 M-2.5,-0.5L0,-3.0L2.5,-0.5"/>
                </g>
                <g id="arrowDown" xlink:href="#dirArrow" transform="rotate(180) translate(-30 -48)" onmousedown="handlePan(0,1)">
                  <use xlink:href="#rim" fill="#404040">
                        <set attributeName="fill" to="#808080" begin="arrowDown.mouseover" end="arrowDown.mouseout"/>
                  </use>
                  <path fill="none" stroke="white" stroke-width="1.5" d="M0,-3.0v7 M-2.5,-0.5L0,-3.0L2.5,-0.5"/>
                </g>
                <g id="arrowLeft" xlink:href="#dirArrow" transform="rotate(270) translate(-36 17)" onmousedown="handlePan(-1,0)">
                  <use xlink:href="#rim" fill="#404040">
                        <set attributeName="fill" to="#808080" begin="arrowLeft.mouseover" end="arrowLeft.mouseout"/>
                  </use>
                  <path fill="none" stroke="white" stroke-width="1.5" d="M0,-3.0v7 M-2.5,-0.5L0,-3.0L2.5,-0.5"/>
                </g>
        </g>
        <svg viewBox="0 0 15 15" width="100%" height="30px" preserveAspectRatio="xMaxYMin meet">
         <g id="arrow_out" transform="scale(0.3 0.3)">
          <a xlink:href="classSeeSawN_1_1ION_1_1ImageFeatureIOC_a63d0e9416bdc005d26aded5a6080667e_icgraph_org.svg" target="_base">
           <rect id="button" ry="5" rx="5" y="6" x="6" height="38" width="38"
                fill="#f2f5e9" fill-opacity="0.5" stroke="#606060" stroke-width="1.0"/>
           <path id="arrow"
             d="M 11.500037,31.436501 C 11.940474,20.09759 22.043105,11.32322 32.158766,21.979434 L 37.068811,17.246167 C 37.068811,17.246167 37.088388,32 37.088388,32 L 22.160133,31.978069 C 22.160133,31.978069 26.997745,27.140456 26.997745,27.140456 C 18.528582,18.264221 13.291696,25.230495 11.500037,31.436501 z"
             style="fill:#404040;"/>
          </a>
         </g>
        </svg>
</svg>
