<?xml version="1.0" encoding="UTF-8" standalone="no"?>
<!DOCTYPE svg PUBLIC "-//W3C//DTD SVG 1.1//EN"
 "http://www.w3.org/Graphics/SVG/1.1/DTD/svg11.dtd">
<!-- Generated by graphviz version 2.38.0 (20140413.2041)
 -->
<!-- Title: SeeSawN::GeometryN::MultiviewTriangulationC::FuseMeasurements Pages: 1 -->
<!--zoomable 296 -->
<svg id="main" version="1.1" xmlns="http://www.w3.org/2000/svg" xmlns:xlink="http://www.w3.org/1999/xlink" xml:space="preserve" onload="init(evt)">
<style type="text/css"><![CDATA[
.edge:hover path { stroke: red; }
.edge:hover polygon { stroke: red; fill: red; }
]]></style>
<script type="text/javascript"><![CDATA[
var edges = document.getElementsByTagName('g');
if (edges && edges.length) {
  for (var i=0;i<edges.length;i++) {
    if (edges[i].id.substr(0,4)=='edge') {
      edges[i].setAttribute('class','edge');
    }
  }
}
]]></script>
        <defs>
                <circle id="rim" cx="0" cy="0" r="7"/>
                <circle id="rim2" cx="0" cy="0" r="3.5"/>
                <g id="zoomPlus">
                        <use xlink:href="#rim" fill="#404040">
                                <set attributeName="fill" to="#808080" begin="zoomplus.mouseover" end="zoomplus.mouseout"/>
                        </use>
                        <path d="M-4,0h8M0,-4v8" fill="none" stroke="white" stroke-width="1.5" pointer-events="none"/>
                </g>
                <g id="zoomMin">
                        <use xlink:href="#rim" fill="#404040">
                                <set attributeName="fill" to="#808080" begin="zoomminus.mouseover" end="zoomminus.mouseout"/>
                        </use>
                        <path d="M-4,0h8" fill="none" stroke="white" stroke-width="1.5" pointer-events="none"/>
                </g>
                <g id="dirArrow">
                        <path fill="none" stroke="white" stroke-width="1.5" d="M0,-3.0v7 M-2.5,-0.5L0,-3.0L2.5,-0.5"/>
                </g>
               <g id="resetDef">
                       <use xlink:href="#rim2" fill="#404040">
                               <set attributeName="fill" to="#808080" begin="reset.mouseover" end="reset.mouseout"/>
                       </use>
               </g>
        </defs>

<script type="text/javascript">
var viewWidth = 524;
var viewHeight = 296;
var sectionId = 'dynsection-9';
</script>
<script xlink:href="svgpan.js"/>
<svg id="graph" class="graph">
<g id="viewport">
<title>SeeSawN::GeometryN::MultiviewTriangulationC::FuseMeasurements</title>
<polygon fill="white" stroke="none" points="-4,4 -4,-292 520,-292 520,4 -4,4"/>
<!-- Node76 -->
<g id="node1" class="node"><title>Node76</title>
<polygon fill="#bfbfbf" stroke="black" points="0,-117 0,-158 125,-158 125,-117 0,-117"/>
<text text-anchor="start" x="8" y="-146" font-family="FreeSans" font-size="10.00">SeeSawN::GeometryN</text>
<text text-anchor="start" x="8" y="-135" font-family="FreeSans" font-size="10.00">::MultiviewTriangulationC</text>
<text text-anchor="middle" x="62.5" y="-124" font-family="FreeSans" font-size="10.00">::FuseMeasurements</text>
</g>
<!-- Node77 -->
<g id="node2" class="node"><title>Node77</title>
<g id="a_node2"><a xlink:href="classSeeSawN_1_1StateEstimationN_1_1KalmanFilterC.html#a00f0c4d138e9189b17522a5591d171c5" target="_top" xlink:title="Clears the state. ">
<polygon fill="white" stroke="black" points="161,-257.5 161,-287.5 295,-287.5 295,-257.5 161,-257.5"/>
<text text-anchor="start" x="169" y="-275.5" font-family="FreeSans" font-size="10.00">SeeSawN::StateEstimation</text>
<text text-anchor="middle" x="228" y="-264.5" font-family="FreeSans" font-size="10.00">N::KalmanFilterC::Clear</text>
</a>
</g>
</g>
<!-- Node76&#45;&gt;Node77 -->
<g id="edge1" class="edge"><title>Node76&#45;&gt;Node77</title>
<path fill="none" stroke="midnightblue" d="M77.0265,-158.062C94.0111,-182.442 125.289,-222.867 161,-247.5 163.723,-249.378 166.606,-251.139 169.585,-252.785"/>
<polygon fill="midnightblue" stroke="midnightblue" points="168.237,-256.025 178.744,-257.385 171.379,-249.769 168.237,-256.025"/>
</g>
<!-- Node78 -->
<g id="node3" class="node"><title>Node78</title>
<g id="a_node3"><a xlink:href="classSeeSawN_1_1GeometryN_1_1MultiviewTriangulationC.html#a9bd0e8bf4be1157f5bc09451367cc07c" target="_top" xlink:title="Computes the covariance of a 3D point. ">
<polygon fill="white" stroke="black" points="165.5,-197 165.5,-238 290.5,-238 290.5,-197 165.5,-197"/>
<text text-anchor="start" x="173.5" y="-226" font-family="FreeSans" font-size="10.00">SeeSawN::GeometryN</text>
<text text-anchor="start" x="173.5" y="-215" font-family="FreeSans" font-size="10.00">::MultiviewTriangulationC</text>
<text text-anchor="middle" x="228" y="-204" font-family="FreeSans" font-size="10.00">::ComputeCovariance</text>
</a>
</g>
</g>
<!-- Node76&#45;&gt;Node78 -->
<g id="edge2" class="edge"><title>Node76&#45;&gt;Node78</title>
<path fill="none" stroke="midnightblue" d="M102.663,-158.118C120.381,-167.307 141.646,-178.145 161,-187.5 164.532,-189.207 168.183,-190.944 171.871,-192.677"/>
<polygon fill="midnightblue" stroke="midnightblue" points="170.526,-195.911 181.068,-196.959 173.48,-189.565 170.526,-195.911"/>
</g>
<!-- Node79 -->
<g id="node4" class="node"><title>Node79</title>
<g id="a_node4"><a xlink:href="classSeeSawN_1_1StateEstimationN_1_1KalmanFilterC.html#ac8e7ea4362e33ee57cc3806057910eaa" target="_top" xlink:title="Returns a constant reference to the state. ">
<polygon fill="white" stroke="black" points="161,-147.5 161,-177.5 295,-177.5 295,-147.5 161,-147.5"/>
<text text-anchor="start" x="169" y="-165.5" font-family="FreeSans" font-size="10.00">SeeSawN::StateEstimation</text>
<text text-anchor="middle" x="228" y="-154.5" font-family="FreeSans" font-size="10.00">N::KalmanFilterC::GetState</text>
</a>
</g>
</g>
<!-- Node76&#45;&gt;Node79 -->
<g id="edge3" class="edge"><title>Node76&#45;&gt;Node79</title>
<path fill="none" stroke="midnightblue" d="M125.312,-146.951C133.632,-148.224 142.245,-149.541 150.777,-150.845"/>
<polygon fill="midnightblue" stroke="midnightblue" points="150.32,-154.316 160.734,-152.368 151.378,-147.396 150.32,-154.316"/>
</g>
<!-- Node80 -->
<g id="node5" class="node"><title>Node80</title>
<g id="a_node5"><a xlink:href="classSeeSawN_1_1StateEstimationN_1_1KalmanFilterC.html#a4f277eccdf9ac3405ddc39d066543e38" target="_top" xlink:title="Returns flagValid. ">
<polygon fill="white" stroke="black" points="161,-98.5 161,-128.5 295,-128.5 295,-98.5 161,-98.5"/>
<text text-anchor="start" x="169" y="-116.5" font-family="FreeSans" font-size="10.00">SeeSawN::StateEstimation</text>
<text text-anchor="middle" x="228" y="-105.5" font-family="FreeSans" font-size="10.00">N::KalmanFilterC::IsValid</text>
</a>
</g>
</g>
<!-- Node76&#45;&gt;Node80 -->
<g id="edge4" class="edge"><title>Node76&#45;&gt;Node80</title>
<path fill="none" stroke="midnightblue" d="M125.312,-128.427C133.632,-127.205 142.245,-125.941 150.777,-124.689"/>
<polygon fill="midnightblue" stroke="midnightblue" points="151.348,-128.142 160.734,-123.227 150.332,-121.217 151.348,-128.142"/>
</g>
<!-- Node81 -->
<g id="node6" class="node"><title>Node81</title>
<g id="a_node6"><a xlink:href="classSeeSawN_1_1StateEstimationN_1_1KalmanFilterC.html#a968c9cc9f685c3a342d73ee1d29a46d2" target="_top" xlink:title="Sets the state. ">
<polygon fill="white" stroke="black" points="161,-49.5 161,-79.5 295,-79.5 295,-49.5 161,-49.5"/>
<text text-anchor="start" x="169" y="-67.5" font-family="FreeSans" font-size="10.00">SeeSawN::StateEstimation</text>
<text text-anchor="middle" x="228" y="-56.5" font-family="FreeSans" font-size="10.00">N::KalmanFilterC::SetState</text>
</a>
</g>
</g>
<!-- Node76&#45;&gt;Node81 -->
<g id="edge5" class="edge"><title>Node76&#45;&gt;Node81</title>
<path fill="none" stroke="midnightblue" d="M103.417,-116.777C120.91,-107.976 141.791,-97.8437 161,-89.5 165.794,-87.4177 170.823,-85.3352 175.875,-83.3104"/>
<polygon fill="midnightblue" stroke="midnightblue" points="177.537,-86.4179 185.564,-79.503 174.977,-79.9029 177.537,-86.4179"/>
</g>
<!-- Node82 -->
<g id="node7" class="node"><title>Node82</title>
<g id="a_node7"><a xlink:href="classSeeSawN_1_1StateEstimationN_1_1KalmanFilterC.html#af884de88020c1d5258565df0f0207ecc" target="_top" xlink:title="Updates the state. ">
<polygon fill="white" stroke="black" points="161,-0.5 161,-30.5 295,-30.5 295,-0.5 161,-0.5"/>
<text text-anchor="start" x="169" y="-18.5" font-family="FreeSans" font-size="10.00">SeeSawN::StateEstimation</text>
<text text-anchor="middle" x="228" y="-7.5" font-family="FreeSans" font-size="10.00">N::KalmanFilterC::Update</text>
</a>
</g>
</g>
<!-- Node76&#45;&gt;Node82 -->
<g id="edge6" class="edge"><title>Node76&#45;&gt;Node82</title>
<path fill="none" stroke="midnightblue" d="M79.8007,-116.744C97.703,-95.1429 128.285,-61.5829 161,-40.5 163.974,-38.5835 167.117,-36.7812 170.352,-35.0919"/>
<polygon fill="midnightblue" stroke="midnightblue" points="172.152,-38.1104 179.654,-30.6286 169.124,-31.7993 172.152,-38.1104"/>
</g>
<!-- Node83 -->
<g id="node8" class="node"><title>Node83</title>
<g id="a_node8"><a xlink:href="classSeeSawN_1_1StateEstimationN_1_1KalmanFilterC.html#a1ab04b6da58e3f7be6832587074de4b4" target="_top" xlink:title="Predicts the next measurement from the filter state. ">
<polygon fill="white" stroke="black" points="331,-0.5 331,-30.5 516,-30.5 516,-0.5 331,-0.5"/>
<text text-anchor="start" x="339" y="-18.5" font-family="FreeSans" font-size="10.00">SeeSawN::StateEstimation</text>
<text text-anchor="middle" x="423.5" y="-7.5" font-family="FreeSans" font-size="10.00">N::KalmanFilterC::PredictMeasurement</text>
</a>
</g>
</g>
<!-- Node82&#45;&gt;Node83 -->
<g id="edge7" class="edge"><title>Node82&#45;&gt;Node83</title>
<path fill="none" stroke="midnightblue" d="M295.051,-15.5C303.313,-15.5 311.909,-15.5 320.56,-15.5"/>
<polygon fill="midnightblue" stroke="midnightblue" points="320.725,-19.0001 330.725,-15.5 320.725,-12.0001 320.725,-19.0001"/>
</g>
</g>
</svg>
        <g id="navigator" transform="translate(0 0)" fill="#404254">
                <rect fill="#f2f5e9" fill-opacity="0.5" stroke="#606060" stroke-width=".5" x="0" y="0" width="60" height="60"/>
                <use id="zoomplus" xlink:href="#zoomPlus" x="17" y="9" onmousedown="handleZoom(evt,'in')"/>
                <use id="zoomminus" xlink:href="#zoomMin" x="42" y="9" onmousedown="handleZoom(evt,'out')"/>
                <use id="reset" xlink:href="#resetDef" x="30" y="36" onmousedown="handleReset()"/>
                <g id="arrowUp" xlink:href="#dirArrow" transform="translate(30 24)" onmousedown="handlePan(0,-1)">
                  <use xlink:href="#rim" fill="#404040">
                        <set attributeName="fill" to="#808080" begin="arrowUp.mouseover" end="arrowUp.mouseout"/>
                  </use>
                  <path fill="none" stroke="white" stroke-width="1.5" d="M0,-3.0v7 M-2.5,-0.5L0,-3.0L2.5,-0.5"/>
                </g>
                <g id="arrowRight" xlink:href="#dirArrow" transform="rotate(90) translate(36 -43)" onmousedown="handlePan(1,0)">
                  <use xlink:href="#rim" fill="#404040">
                        <set attributeName="fill" to="#808080" begin="arrowRight.mouseover" end="arrowRight.mouseout"/>
                  </use>
                  <path fill="none" stroke="white" stroke-width="1.5" d="M0,-3.0v7 M-2.5,-0.5L0,-3.0L2.5,-0.5"/>
                </g>
                <g id="arrowDown" xlink:href="#dirArrow" transform="rotate(180) translate(-30 -48)" onmousedown="handlePan(0,1)">
                  <use xlink:href="#rim" fill="#404040">
                        <set attributeName="fill" to="#808080" begin="arrowDown.mouseover" end="arrowDown.mouseout"/>
                  </use>
                  <path fill="none" stroke="white" stroke-width="1.5" d="M0,-3.0v7 M-2.5,-0.5L0,-3.0L2.5,-0.5"/>
                </g>
                <g id="arrowLeft" xlink:href="#dirArrow" transform="rotate(270) translate(-36 17)" onmousedown="handlePan(-1,0)">
                  <use xlink:href="#rim" fill="#404040">
                        <set attributeName="fill" to="#808080" begin="arrowLeft.mouseover" end="arrowLeft.mouseout"/>
                  </use>
                  <path fill="none" stroke="white" stroke-width="1.5" d="M0,-3.0v7 M-2.5,-0.5L0,-3.0L2.5,-0.5"/>
                </g>
        </g>
        <svg viewBox="0 0 15 15" width="100%" height="30px" preserveAspectRatio="xMaxYMin meet">
         <g id="arrow_out" transform="scale(0.3 0.3)">
          <a xlink:href="classSeeSawN_1_1GeometryN_1_1MultiviewTriangulationC_a5007ea26b28703862aa82764cf388061_cgraph_org.svg" target="_base">
           <rect id="button" ry="5" rx="5" y="6" x="6" height="38" width="38"
                fill="#f2f5e9" fill-opacity="0.5" stroke="#606060" stroke-width="1.0"/>
           <path id="arrow"
             d="M 11.500037,31.436501 C 11.940474,20.09759 22.043105,11.32322 32.158766,21.979434 L 37.068811,17.246167 C 37.068811,17.246167 37.088388,32 37.088388,32 L 22.160133,31.978069 C 22.160133,31.978069 26.997745,27.140456 26.997745,27.140456 C 18.528582,18.264221 13.291696,25.230495 11.500037,31.436501 z"
             style="fill:#404040;"/>
          </a>
         </g>
        </svg>
</svg>
