<?xml version="1.0" encoding="UTF-8" standalone="no"?>
<!DOCTYPE svg PUBLIC "-//W3C//DTD SVG 1.1//EN"
 "http://www.w3.org/Graphics/SVG/1.1/DTD/svg11.dtd">
<!-- Generated by graphviz version 2.38.0 (20140413.2041)
 -->
<!-- Title: SeeSawN::UncertaintyEstimationN::SUTTriangulationProblemC::ComputeTransformedGaussian Pages: 1 -->
<svg width="363pt" height="50pt"
 viewBox="0.00 0.00 363.00 50.00" xmlns="http://www.w3.org/2000/svg" xmlns:xlink="http://www.w3.org/1999/xlink">
<g id="graph0" class="graph" transform="scale(1 1) rotate(0) translate(4 46)">
<title>SeeSawN::UncertaintyEstimationN::SUTTriangulationProblemC::ComputeTransformedGaussian</title>
<polygon fill="white" stroke="none" points="-4,4 -4,-46 359,-46 359,4 -4,4"/>
<!-- Node9 -->
<g id="node1" class="node"><title>Node9</title>
<polygon fill="#bfbfbf" stroke="black" points="0,-0.5 0,-41.5 161,-41.5 161,-0.5 0,-0.5"/>
<text text-anchor="start" x="8" y="-29.5" font-family="FreeSans" font-size="10.00">SeeSawN::UncertaintyEstimation</text>
<text text-anchor="start" x="8" y="-18.5" font-family="FreeSans" font-size="10.00">N::SUTTriangulationProblemC</text>
<text text-anchor="middle" x="80.5" y="-7.5" font-family="FreeSans" font-size="10.00">::ComputeTransformedGaussian</text>
</g>
<!-- Node10 -->
<g id="node2" class="node"><title>Node10</title>
<g id="a_node2"><a xlink:href="namespaceSeeSawN_1_1UnitTestsN_1_1TestUncertaintyEstimationN.html#a50e92ae5353eb4fc5ac7741caa87a793" target="_top" xlink:title="SeeSawN::UnitTestsN\l::TestUncertaintyEstimation\lN::BOOST_AUTO_TEST_CASE">
<polygon fill="white" stroke="black" points="197,-0.5 197,-41.5 355,-41.5 355,-0.5 197,-0.5"/>
<text text-anchor="start" x="205" y="-29.5" font-family="FreeSans" font-size="10.00">SeeSawN::UnitTestsN</text>
<text text-anchor="start" x="205" y="-18.5" font-family="FreeSans" font-size="10.00">::TestUncertaintyEstimation</text>
<text text-anchor="middle" x="276" y="-7.5" font-family="FreeSans" font-size="10.00">N::BOOST_AUTO_TEST_CASE</text>
</a>
</g>
</g>
<!-- Node9&#45;&gt;Node10 -->
<g id="edge1" class="edge"><title>Node9&#45;&gt;Node10</title>
<path fill="none" stroke="midnightblue" d="M171.047,-21C179.614,-21 188.257,-21 196.704,-21"/>
<polygon fill="midnightblue" stroke="midnightblue" points="171.042,-17.5001 161.042,-21 171.041,-24.5001 171.042,-17.5001"/>
</g>
</g>
</svg>
