<?xml version="1.0" encoding="UTF-8" standalone="no"?>
<!DOCTYPE svg PUBLIC "-//W3C//DTD SVG 1.1//EN"
 "http://www.w3.org/Graphics/SVG/1.1/DTD/svg11.dtd">
<!-- Generated by graphviz version 2.38.0 (20140413.2041)
 -->
<!-- Title: SeeSawN::StateEstimationN::KalmanFilterC::GetState Pages: 1 -->
<svg width="1147pt" height="201pt"
 viewBox="0.00 0.00 1147.00 200.50" xmlns="http://www.w3.org/2000/svg" xmlns:xlink="http://www.w3.org/1999/xlink">
<g id="graph0" class="graph" transform="scale(1 1) rotate(0) translate(4 196.5)">
<title>SeeSawN::StateEstimationN::KalmanFilterC::GetState</title>
<polygon fill="white" stroke="none" points="-4,4 -4,-196.5 1143,-196.5 1143,4 -4,4"/>
<!-- Node15 -->
<g id="node1" class="node"><title>Node15</title>
<polygon fill="#bfbfbf" stroke="black" points="0,-71.5 0,-101.5 134,-101.5 134,-71.5 0,-71.5"/>
<text text-anchor="start" x="8" y="-89.5" font-family="FreeSans" font-size="10.00">SeeSawN::StateEstimation</text>
<text text-anchor="middle" x="67" y="-78.5" font-family="FreeSans" font-size="10.00">N::KalmanFilterC::GetState</text>
</g>
<!-- Node16 -->
<g id="node2" class="node"><title>Node16</title>
<g id="a_node2"><a xlink:href="classSeeSawN_1_1GeometryN_1_1MultiviewTriangulationC.html#a5007ea26b28703862aa82764cf388061" target="_top" xlink:title="Fuses the measurements into a single 3D point cloud. ">
<polygon fill="white" stroke="black" points="170,-66 170,-107 295,-107 295,-66 170,-66"/>
<text text-anchor="start" x="178" y="-95" font-family="FreeSans" font-size="10.00">SeeSawN::GeometryN</text>
<text text-anchor="start" x="178" y="-84" font-family="FreeSans" font-size="10.00">::MultiviewTriangulationC</text>
<text text-anchor="middle" x="232.5" y="-73" font-family="FreeSans" font-size="10.00">::FuseMeasurements</text>
</a>
</g>
</g>
<!-- Node15&#45;&gt;Node16 -->
<g id="edge1" class="edge"><title>Node15&#45;&gt;Node16</title>
<path fill="none" stroke="midnightblue" d="M144.137,-86.5C152.799,-86.5 161.545,-86.5 169.984,-86.5"/>
<polygon fill="midnightblue" stroke="midnightblue" points="144.03,-83.0001 134.03,-86.5 144.03,-90.0001 144.03,-83.0001"/>
</g>
<!-- Node17 -->
<g id="node3" class="node"><title>Node17</title>
<g id="a_node3"><a xlink:href="classSeeSawN_1_1GeometryN_1_1MultiviewTriangulationC.html#a89824d36ba52be840543d7d31020861d" target="_top" xlink:title="Runs the algorithm. ">
<polygon fill="white" stroke="black" points="331,-71.5 331,-101.5 477,-101.5 477,-71.5 331,-71.5"/>
<text text-anchor="start" x="339" y="-89.5" font-family="FreeSans" font-size="10.00">SeeSawN::GeometryN</text>
<text text-anchor="middle" x="404" y="-78.5" font-family="FreeSans" font-size="10.00">::MultiviewTriangulationC::Run</text>
</a>
</g>
</g>
<!-- Node16&#45;&gt;Node17 -->
<g id="edge2" class="edge"><title>Node16&#45;&gt;Node17</title>
<path fill="none" stroke="midnightblue" d="M305.319,-86.5C313.727,-86.5 322.309,-86.5 330.723,-86.5"/>
<polygon fill="midnightblue" stroke="midnightblue" points="305.173,-83.0001 295.173,-86.5 305.173,-90.0001 305.173,-83.0001"/>
</g>
<!-- Node18 -->
<g id="node4" class="node"><title>Node18</title>
<g id="a_node4"><a xlink:href="classSeeSawN_1_1GeometryN_1_1SfMPipelineC.html#a228bbaea7fbd4d88d0050341e4ebd4c8" target="_top" xlink:title="Performs multiview triangulation. ">
<polygon fill="white" stroke="black" points="524,-151 524,-192 685,-192 685,-151 524,-151"/>
<text text-anchor="start" x="532" y="-180" font-family="FreeSans" font-size="10.00">SeeSawN::GeometryN</text>
<text text-anchor="start" x="532" y="-169" font-family="FreeSans" font-size="10.00">::SfMPipelineC::PerformMultiview</text>
<text text-anchor="middle" x="604.5" y="-158" font-family="FreeSans" font-size="10.00">Triangulation</text>
</a>
</g>
</g>
<!-- Node17&#45;&gt;Node18 -->
<g id="edge3" class="edge"><title>Node17&#45;&gt;Node18</title>
<path fill="none" stroke="midnightblue" d="M441.04,-106.581C461.733,-117.67 488.417,-131.235 513,-141.5 520.79,-144.753 529.068,-147.9 537.33,-150.855"/>
<polygon fill="midnightblue" stroke="midnightblue" points="442.443,-103.361 431.983,-101.681 439.112,-109.518 442.443,-103.361"/>
</g>
<!-- Node21 -->
<g id="node7" class="node"><title>Node21</title>
<g id="a_node7"><a xlink:href="classSeeSawN_1_1GeometryN_1_1Sparse3DReconstructionPipelineC.html#a5cbc6f822733759c2ee28fc7df054719" target="_top" xlink:title="Runs the reconstruction pipeline. ">
<polygon fill="white" stroke="black" points="522.5,-91 522.5,-132 686.5,-132 686.5,-91 522.5,-91"/>
<text text-anchor="start" x="530.5" y="-120" font-family="FreeSans" font-size="10.00">SeeSawN::GeometryN</text>
<text text-anchor="start" x="530.5" y="-109" font-family="FreeSans" font-size="10.00">::Sparse3DReconstructionPipeline</text>
<text text-anchor="middle" x="604.5" y="-98" font-family="FreeSans" font-size="10.00">C::Reconstruct</text>
</a>
</g>
</g>
<!-- Node17&#45;&gt;Node21 -->
<g id="edge6" class="edge"><title>Node17&#45;&gt;Node21</title>
<path fill="none" stroke="midnightblue" d="M487.284,-96.8633C498.843,-98.319 510.718,-99.8146 522.257,-101.268"/>
<polygon fill="midnightblue" stroke="midnightblue" points="487.584,-93.3734 477.225,-95.5963 486.709,-100.319 487.584,-93.3734"/>
</g>
<!-- Node22 -->
<g id="node8" class="node"><title>Node22</title>
<g id="a_node8"><a xlink:href="classSeeSawN_1_1ZeroN_1_1ZeroReconstructionEvaluationModuleC.html#a867d3450b3c82e34059cc95320706589" target="_top" xlink:title="Performs a multiview 3D reconstruction from image observations. ">
<polygon fill="white" stroke="black" points="738.5,-49.5 738.5,-79.5 920.5,-79.5 920.5,-49.5 738.5,-49.5"/>
<text text-anchor="start" x="746.5" y="-67.5" font-family="FreeSans" font-size="10.00">SeeSawN::ZeroN::ZeroReconstruction</text>
<text text-anchor="middle" x="829.5" y="-56.5" font-family="FreeSans" font-size="10.00">EvaluationModuleC::Reconstruct</text>
</a>
</g>
</g>
<!-- Node17&#45;&gt;Node22 -->
<g id="edge7" class="edge"><title>Node17&#45;&gt;Node22</title>
<path fill="none" stroke="midnightblue" d="M487.719,-82.2029C559.834,-78.4567 664.217,-73.0342 738.424,-69.1793"/>
<polygon fill="midnightblue" stroke="midnightblue" points="487.126,-78.7289 477.321,-82.7431 487.489,-85.7195 487.126,-78.7289"/>
</g>
<!-- Node24 -->
<g id="node10" class="node"><title>Node24</title>
<g id="a_node10"><a xlink:href="classSeeSawN_1_1ZeroN_1_1ZeroReconstructionEvaluationModuleC.html#aa1b7a6fe75a85181bf1593b9b7054c26" target="_top" xlink:title="Reconstructs a 3D model of the scene from the specified cameras. ">
<polygon fill="white" stroke="black" points="513,-2.5 513,-32.5 696,-32.5 696,-2.5 513,-2.5"/>
<text text-anchor="start" x="521" y="-20.5" font-family="FreeSans" font-size="10.00">SeeSawN::ZeroN::ZeroReconstruction</text>
<text text-anchor="middle" x="604.5" y="-9.5" font-family="FreeSans" font-size="10.00">EvaluationModuleC::ReconstructModel</text>
</a>
</g>
</g>
<!-- Node17&#45;&gt;Node24 -->
<g id="edge9" class="edge"><title>Node17&#45;&gt;Node24</title>
<path fill="none" stroke="midnightblue" d="M457.138,-68.0569C474.856,-61.8154 494.78,-54.8257 513,-48.5 528.062,-43.2707 544.554,-37.604 559.285,-32.5633"/>
<polygon fill="midnightblue" stroke="midnightblue" points="455.814,-64.8126 447.546,-71.4384 458.141,-71.4144 455.814,-64.8126"/>
</g>
<!-- Node19 -->
<g id="node5" class="node"><title>Node19</title>
<g id="a_node5"><a xlink:href="classSeeSawN_1_1GeometryN_1_1SfMPipelineC.html#af69465c85b2ab27de0522cb35cea1407" target="_top" xlink:title="Estimates the camera poses. ">
<polygon fill="white" stroke="black" points="756.5,-156.5 756.5,-186.5 902.5,-186.5 902.5,-156.5 756.5,-156.5"/>
<text text-anchor="start" x="764.5" y="-174.5" font-family="FreeSans" font-size="10.00">SeeSawN::GeometryN</text>
<text text-anchor="middle" x="829.5" y="-163.5" font-family="FreeSans" font-size="10.00">::SfMPipelineC::EstimatePose</text>
</a>
</g>
</g>
<!-- Node18&#45;&gt;Node19 -->
<g id="edge4" class="edge"><title>Node18&#45;&gt;Node19</title>
<path fill="none" stroke="midnightblue" d="M695.265,-171.5C715.587,-171.5 736.912,-171.5 756.395,-171.5"/>
<polygon fill="midnightblue" stroke="midnightblue" points="695.064,-168 685.064,-171.5 695.064,-175 695.064,-168"/>
</g>
<!-- Node20 -->
<g id="node6" class="node"><title>Node20</title>
<g id="a_node6"><a xlink:href="classSeeSawN_1_1GeometryN_1_1SfMPipelineC.html#a3ce680beb7933e8917bb41fadf29c6b2" target="_top" xlink:title="Runs the algorithm. ">
<polygon fill="white" stroke="black" points="993.5,-156.5 993.5,-186.5 1108.5,-186.5 1108.5,-156.5 993.5,-156.5"/>
<text text-anchor="start" x="1001.5" y="-174.5" font-family="FreeSans" font-size="10.00">SeeSawN::GeometryN</text>
<text text-anchor="middle" x="1051" y="-163.5" font-family="FreeSans" font-size="10.00">::SfMPipelineC::Run</text>
</a>
</g>
</g>
<!-- Node19&#45;&gt;Node20 -->
<g id="edge5" class="edge"><title>Node19&#45;&gt;Node20</title>
<path fill="none" stroke="midnightblue" d="M912.842,-171.5C939.703,-171.5 968.904,-171.5 993.431,-171.5"/>
<polygon fill="midnightblue" stroke="midnightblue" points="912.677,-168 902.677,-171.5 912.676,-175 912.677,-168"/>
</g>
<!-- Node23 -->
<g id="node9" class="node"><title>Node23</title>
<g id="a_node9"><a xlink:href="classSeeSawN_1_1AppZeroReconstructionEvaluationN_1_1AppZeroReconstructionEvaluationImplementationC.html#a627d6c37454be6dba342f8321dad0e31" target="_top" xlink:title="Runs the application. ">
<polygon fill="white" stroke="black" points="963,-20 963,-61 1139,-61 1139,-20 963,-20"/>
<text text-anchor="start" x="971" y="-49" font-family="FreeSans" font-size="10.00">SeeSawN::AppZeroReconstruction</text>
<text text-anchor="start" x="971" y="-38" font-family="FreeSans" font-size="10.00">EvaluationN::AppZeroReconstruction</text>
<text text-anchor="middle" x="1051" y="-27" font-family="FreeSans" font-size="10.00">EvaluationImplementationC::Run</text>
</a>
</g>
</g>
<!-- Node22&#45;&gt;Node23 -->
<g id="edge8" class="edge"><title>Node22&#45;&gt;Node23</title>
<path fill="none" stroke="midnightblue" d="M930.93,-53.519C941.621,-52.35 952.432,-51.1681 962.951,-50.0179"/>
<polygon fill="midnightblue" stroke="midnightblue" points="930.29,-50.0681 920.729,-54.6344 931.05,-57.0266 930.29,-50.0681"/>
</g>
<!-- Node25 -->
<g id="node11" class="node"><title>Node25</title>
<g id="a_node11"><a xlink:href="classSeeSawN_1_1ZeroN_1_1ZeroReconstructionEvaluationModuleC.html#a4349de15b78a95932b4f253130d77b96" target="_top" xlink:title="Evaluates the consistency of reconstructions. ">
<polygon fill="white" stroke="black" points="732,-0.5 732,-30.5 927,-30.5 927,-0.5 732,-0.5"/>
<text text-anchor="start" x="740" y="-18.5" font-family="FreeSans" font-size="10.00">SeeSawN::ZeroN::ZeroReconstruction</text>
<text text-anchor="middle" x="829.5" y="-7.5" font-family="FreeSans" font-size="10.00">EvaluationModuleC::EvaluateConsistency</text>
</a>
</g>
</g>
<!-- Node24&#45;&gt;Node25 -->
<g id="edge10" class="edge"><title>Node24&#45;&gt;Node25</title>
<path fill="none" stroke="midnightblue" d="M706.412,-16.595C714.826,-16.5195 723.32,-16.4433 731.702,-16.3681"/>
<polygon fill="midnightblue" stroke="midnightblue" points="706.171,-13.0969 696.203,-16.6865 706.234,-20.0966 706.171,-13.0969"/>
</g>
<!-- Node25&#45;&gt;Node23 -->
<g id="edge11" class="edge"><title>Node25&#45;&gt;Node23</title>
<path fill="none" stroke="midnightblue" d="M937.128,-27.6444C945.695,-28.6201 954.287,-29.5987 962.695,-30.5564"/>
<polygon fill="midnightblue" stroke="midnightblue" points="937.427,-24.156 927.095,-26.5017 936.635,-31.111 937.427,-24.156"/>
</g>
</g>
</svg>
