<?xml version="1.0" encoding="UTF-8" standalone="no"?>
<!DOCTYPE svg PUBLIC "-//W3C//DTD SVG 1.1//EN"
 "http://www.w3.org/Graphics/SVG/1.1/DTD/svg11.dtd">
<!-- Generated by graphviz version 2.38.0 (20140413.2041)
 -->
<!-- Title: SeeSawN::GeometryN::Homography2DSolverC::MakeMinimal Pages: 1 -->
<svg width="324pt" height="170pt"
 viewBox="0.00 0.00 324.00 170.00" xmlns="http://www.w3.org/2000/svg" xmlns:xlink="http://www.w3.org/1999/xlink">
<g id="graph0" class="graph" transform="scale(1 1) rotate(0) translate(4 166)">
<title>SeeSawN::GeometryN::Homography2DSolverC::MakeMinimal</title>
<polygon fill="white" stroke="none" points="-4,4 -4,-166 320,-166 320,4 -4,4"/>
<!-- Node23 -->
<g id="node1" class="node"><title>Node23</title>
<polygon fill="#bfbfbf" stroke="black" points="0,-60.5 0,-101.5 122,-101.5 122,-60.5 0,-60.5"/>
<text text-anchor="start" x="8" y="-89.5" font-family="FreeSans" font-size="10.00">SeeSawN::GeometryN</text>
<text text-anchor="start" x="8" y="-78.5" font-family="FreeSans" font-size="10.00">::Homography2DSolverC</text>
<text text-anchor="middle" x="61" y="-67.5" font-family="FreeSans" font-size="10.00">::MakeMinimal</text>
</g>
<!-- Node24 -->
<g id="node2" class="node"><title>Node24</title>
<g id="a_node2"><a xlink:href="namespaceSeeSawN_1_1UnitTestsN_1_1TestUncertaintyEstimationN.html#af7d9d8857bf795bbee3d1501a4fda906" target="_top" xlink:title="SeeSawN::UnitTestsN\l::TestUncertaintyEstimation\lN::BOOST_AUTO_TEST_CASE">
<polygon fill="white" stroke="black" points="158,-120.5 158,-161.5 316,-161.5 316,-120.5 158,-120.5"/>
<text text-anchor="start" x="166" y="-149.5" font-family="FreeSans" font-size="10.00">SeeSawN::UnitTestsN</text>
<text text-anchor="start" x="166" y="-138.5" font-family="FreeSans" font-size="10.00">::TestUncertaintyEstimation</text>
<text text-anchor="middle" x="237" y="-127.5" font-family="FreeSans" font-size="10.00">N::BOOST_AUTO_TEST_CASE</text>
</a>
</g>
</g>
<!-- Node23&#45;&gt;Node24 -->
<g id="edge1" class="edge"><title>Node23&#45;&gt;Node24</title>
<path fill="none" stroke="midnightblue" d="M131.507,-104.968C146.339,-110.082 161.878,-115.441 176.304,-120.415"/>
<polygon fill="midnightblue" stroke="midnightblue" points="132.476,-101.6 121.881,-101.649 130.194,-108.217 132.476,-101.6"/>
</g>
<!-- Node25 -->
<g id="node3" class="node"><title>Node25</title>
<g id="a_node3"><a xlink:href="namespaceSeeSawN_1_1UnitTestsN_1_1TestGeometryN.html#a1129cd4f5f892d41855519cd71c5b327" target="_top" xlink:title="SeeSawN::UnitTestsN\l::TestGeometryN::BOOST\l_AUTO_TEST_CASE">
<polygon fill="white" stroke="black" points="172.5,-60.5 172.5,-101.5 301.5,-101.5 301.5,-60.5 172.5,-60.5"/>
<text text-anchor="start" x="180.5" y="-89.5" font-family="FreeSans" font-size="10.00">SeeSawN::UnitTestsN</text>
<text text-anchor="start" x="180.5" y="-78.5" font-family="FreeSans" font-size="10.00">::TestGeometryN::BOOST</text>
<text text-anchor="middle" x="237" y="-67.5" font-family="FreeSans" font-size="10.00">_AUTO_TEST_CASE</text>
</a>
</g>
</g>
<!-- Node23&#45;&gt;Node25 -->
<g id="edge2" class="edge"><title>Node23&#45;&gt;Node25</title>
<path fill="none" stroke="midnightblue" d="M132.385,-81C145.648,-81 159.446,-81 172.483,-81"/>
<polygon fill="midnightblue" stroke="midnightblue" points="132.368,-77.5001 122.368,-81 132.368,-84.5001 132.368,-77.5001"/>
</g>
<!-- Node26 -->
<g id="node4" class="node"><title>Node26</title>
<g id="a_node4"><a xlink:href="classSeeSawN_1_1GeometryN_1_1Homography2DSolverC.html#a15f779b19199640e5265c831f2e5789b" target="_top" xlink:title="Computes the sample statistics for a set of homographies. ">
<polygon fill="white" stroke="black" points="170,-0.5 170,-41.5 304,-41.5 304,-0.5 170,-0.5"/>
<text text-anchor="start" x="178" y="-29.5" font-family="FreeSans" font-size="10.00">SeeSawN::GeometryN</text>
<text text-anchor="start" x="178" y="-18.5" font-family="FreeSans" font-size="10.00">::Homography2DSolverC</text>
<text text-anchor="middle" x="237" y="-7.5" font-family="FreeSans" font-size="10.00">::ComputeSampleStatistics</text>
</a>
</g>
</g>
<!-- Node23&#45;&gt;Node26 -->
<g id="edge3" class="edge"><title>Node23&#45;&gt;Node26</title>
<path fill="none" stroke="midnightblue" d="M131.507,-57.0322C146.339,-51.9177 161.878,-46.5592 176.304,-41.585"/>
<polygon fill="midnightblue" stroke="midnightblue" points="130.194,-53.7826 121.881,-60.3514 132.476,-60.4002 130.194,-53.7826"/>
</g>
</g>
</svg>
