<?xml version="1.0" encoding="UTF-8" standalone="no"?>
<!DOCTYPE svg PUBLIC "-//W3C//DTD SVG 1.1//EN"
 "http://www.w3.org/Graphics/SVG/1.1/DTD/svg11.dtd">
<!-- Generated by graphviz version 2.38.0 (20140413.2041)
 -->
<!-- Title: boost::dynamic_bitset::dynamic_bitset Pages: 1 -->
<svg width="410pt" height="39pt"
 viewBox="0.00 0.00 410.00 39.00" xmlns="http://www.w3.org/2000/svg" xmlns:xlink="http://www.w3.org/1999/xlink">
<g id="graph0" class="graph" transform="scale(1 1) rotate(0) translate(4 35)">
<title>boost::dynamic_bitset::dynamic_bitset</title>
<polygon fill="white" stroke="none" points="-4,4 -4,-35 406,-35 406,4 -4,4"/>
<!-- Node46 -->
<g id="node1" class="node"><title>Node46</title>
<polygon fill="#bfbfbf" stroke="black" points="0,-0.5 0,-30.5 110,-30.5 110,-0.5 0,-0.5"/>
<text text-anchor="start" x="8" y="-18.5" font-family="FreeSans" font-size="10.00">boost::dynamic_bitset</text>
<text text-anchor="middle" x="55" y="-7.5" font-family="FreeSans" font-size="10.00">::dynamic_bitset</text>
</g>
<!-- Node47 -->
<g id="node2" class="node"><title>Node47</title>
<g id="a_node2"><a xlink:href="classboost_1_1dynamic__bitset.html#a70408d1e08eae2a5f7704607c05b2f2c" target="_top" xlink:title="boost::dynamic_bitset\l::init_from_string">
<polygon fill="white" stroke="black" points="146,-0.5 146,-30.5 256,-30.5 256,-0.5 146,-0.5"/>
<text text-anchor="start" x="154" y="-18.5" font-family="FreeSans" font-size="10.00">boost::dynamic_bitset</text>
<text text-anchor="middle" x="201" y="-7.5" font-family="FreeSans" font-size="10.00">::init_from_string</text>
</a>
</g>
</g>
<!-- Node46&#45;&gt;Node47 -->
<g id="edge1" class="edge"><title>Node46&#45;&gt;Node47</title>
<path fill="none" stroke="midnightblue" d="M110.03,-15.5C118.314,-15.5 126.936,-15.5 135.42,-15.5"/>
<polygon fill="midnightblue" stroke="midnightblue" points="135.667,-19.0001 145.667,-15.5 135.667,-12.0001 135.667,-19.0001"/>
</g>
<!-- Node48 -->
<g id="node3" class="node"><title>Node48</title>
<g id="a_node3"><a xlink:href="classboost_1_1dynamic__bitset.html#a8a05876109fd0b3e819a6347541d2f81" target="_top" xlink:title="boost::dynamic_bitset\l::calc_num_blocks">
<polygon fill="white" stroke="black" points="292,-0.5 292,-30.5 402,-30.5 402,-0.5 292,-0.5"/>
<text text-anchor="start" x="300" y="-18.5" font-family="FreeSans" font-size="10.00">boost::dynamic_bitset</text>
<text text-anchor="middle" x="347" y="-7.5" font-family="FreeSans" font-size="10.00">::calc_num_blocks</text>
</a>
</g>
</g>
<!-- Node47&#45;&gt;Node48 -->
<g id="edge2" class="edge"><title>Node47&#45;&gt;Node48</title>
<path fill="none" stroke="midnightblue" d="M256.03,-15.5C264.314,-15.5 272.936,-15.5 281.42,-15.5"/>
<polygon fill="midnightblue" stroke="midnightblue" points="281.667,-19.0001 291.667,-15.5 281.667,-12.0001 281.667,-19.0001"/>
</g>
</g>
</svg>
