<?xml version="1.0" encoding="UTF-8" standalone="no"?>
<!DOCTYPE svg PUBLIC "-//W3C//DTD SVG 1.1//EN"
 "http://www.w3.org/Graphics/SVG/1.1/DTD/svg11.dtd">
<!-- Generated by graphviz version 2.38.0 (20140413.2041)
 -->
<!-- Title: SeeSawN::ApplicationN::InterfaceRotationRegistrationPipelineC::MakeParameterTree Pages: 1 -->
<svg width="350pt" height="50pt"
 viewBox="0.00 0.00 350.00 50.00" xmlns="http://www.w3.org/2000/svg" xmlns:xlink="http://www.w3.org/1999/xlink">
<g id="graph0" class="graph" transform="scale(1 1) rotate(0) translate(4 46)">
<title>SeeSawN::ApplicationN::InterfaceRotationRegistrationPipelineC::MakeParameterTree</title>
<polygon fill="white" stroke="none" points="-4,4 -4,-46 346,-46 346,4 -4,4"/>
<!-- Node6 -->
<g id="node1" class="node"><title>Node6</title>
<polygon fill="#bfbfbf" stroke="black" points="0,-0.5 0,-41.5 151,-41.5 151,-0.5 0,-0.5"/>
<text text-anchor="start" x="8" y="-29.5" font-family="FreeSans" font-size="10.00">SeeSawN::ApplicationN</text>
<text text-anchor="start" x="8" y="-18.5" font-family="FreeSans" font-size="10.00">::InterfaceRotationRegistration</text>
<text text-anchor="middle" x="75.5" y="-7.5" font-family="FreeSans" font-size="10.00">PipelineC::MakeParameterTree</text>
</g>
<!-- Node7 -->
<g id="node2" class="node"><title>Node7</title>
<g id="a_node2"><a xlink:href="classSeeSawN_1_1ApplicationN_1_1InterfaceRandomSpanningTreeSamplerC.html#a9f00212663e90a208de73d5f49b3bb25" target="_top" xlink:title="Makes a property tree from a parameter object. ">
<polygon fill="white" stroke="black" points="187,-0.5 187,-41.5 342,-41.5 342,-0.5 187,-0.5"/>
<text text-anchor="start" x="195" y="-29.5" font-family="FreeSans" font-size="10.00">SeeSawN::ApplicationN</text>
<text text-anchor="start" x="195" y="-18.5" font-family="FreeSans" font-size="10.00">::InterfaceRandomSpanningTree</text>
<text text-anchor="middle" x="264.5" y="-7.5" font-family="FreeSans" font-size="10.00">SamplerC::MakeParameterTree</text>
</a>
</g>
</g>
<!-- Node6&#45;&gt;Node7 -->
<g id="edge1" class="edge"><title>Node6&#45;&gt;Node7</title>
<path fill="none" stroke="midnightblue" d="M151.214,-21C159.531,-21 168.055,-21 176.508,-21"/>
<polygon fill="midnightblue" stroke="midnightblue" points="176.765,-24.5001 186.765,-21 176.765,-17.5001 176.765,-24.5001"/>
</g>
</g>
</svg>
