<?xml version="1.0" encoding="UTF-8" standalone="no"?>
<!DOCTYPE svg PUBLIC "-//W3C//DTD SVG 1.1//EN"
 "http://www.w3.org/Graphics/SVG/1.1/DTD/svg11.dtd">
<!-- Generated by graphviz version 2.38.0 (20140413.2041)
 -->
<!-- Title: SeeSawN::RANSACN::RANSACDualAbsoluteQuadricProblemC::GetObservationSetSize Pages: 1 -->
<svg width="602pt" height="50pt"
 viewBox="0.00 0.00 602.00 50.00" xmlns="http://www.w3.org/2000/svg" xmlns:xlink="http://www.w3.org/1999/xlink">
<g id="graph0" class="graph" transform="scale(1 1) rotate(0) translate(4 46)">
<title>SeeSawN::RANSACN::RANSACDualAbsoluteQuadricProblemC::GetObservationSetSize</title>
<polygon fill="white" stroke="none" points="-4,4 -4,-46 598,-46 598,4 -4,4"/>
<!-- Node60 -->
<g id="node1" class="node"><title>Node60</title>
<polygon fill="#bfbfbf" stroke="black" points="0,-0.5 0,-41.5 179,-41.5 179,-0.5 0,-0.5"/>
<text text-anchor="start" x="8" y="-29.5" font-family="FreeSans" font-size="10.00">SeeSawN::RANSACN::RANSACDual</text>
<text text-anchor="start" x="8" y="-18.5" font-family="FreeSans" font-size="10.00">AbsoluteQuadricProblemC</text>
<text text-anchor="middle" x="89.5" y="-7.5" font-family="FreeSans" font-size="10.00">::GetObservationSetSize</text>
</g>
<!-- Node61 -->
<g id="node2" class="node"><title>Node61</title>
<g id="a_node2"><a xlink:href="classSeeSawN_1_1RANSACN_1_1RANSACDualAbsoluteQuadricProblemC.html#a13adaf08aa1174deafd4d922ab9b1e86" target="_top" xlink:title="Returns the observations that are inliers wrt/a model. ">
<polygon fill="white" stroke="black" points="215,-0.5 215,-41.5 394,-41.5 394,-0.5 215,-0.5"/>
<text text-anchor="start" x="223" y="-29.5" font-family="FreeSans" font-size="10.00">SeeSawN::RANSACN::RANSACDual</text>
<text text-anchor="start" x="223" y="-18.5" font-family="FreeSans" font-size="10.00">AbsoluteQuadricProblemC</text>
<text text-anchor="middle" x="304.5" y="-7.5" font-family="FreeSans" font-size="10.00">::GetInlierObservations</text>
</a>
</g>
</g>
<!-- Node60&#45;&gt;Node61 -->
<g id="edge1" class="edge"><title>Node60&#45;&gt;Node61</title>
<path fill="none" stroke="midnightblue" d="M189.545,-21C197.99,-21 206.498,-21 214.855,-21"/>
<polygon fill="midnightblue" stroke="midnightblue" points="189.289,-17.5001 179.289,-21 189.289,-24.5001 189.289,-17.5001"/>
</g>
<!-- Node62 -->
<g id="node3" class="node"><title>Node62</title>
<g id="a_node3"><a xlink:href="classSeeSawN_1_1GeometryN_1_1LinearAutocalibrationPipelineC.html#a431fc8c40c1f8362705ad3239e674c5b" target="_top" xlink:title="Estimates the rectifying homography. ">
<polygon fill="white" stroke="black" points="430,-0.5 430,-41.5 594,-41.5 594,-0.5 430,-0.5"/>
<text text-anchor="start" x="438" y="-29.5" font-family="FreeSans" font-size="10.00">SeeSawN::GeometryN</text>
<text text-anchor="start" x="438" y="-18.5" font-family="FreeSans" font-size="10.00">::LinearAutocalibrationPipeline</text>
<text text-anchor="middle" x="512" y="-7.5" font-family="FreeSans" font-size="10.00">C::EstimateRectifyingHomography</text>
</a>
</g>
</g>
<!-- Node61&#45;&gt;Node62 -->
<g id="edge2" class="edge"><title>Node61&#45;&gt;Node62</title>
<path fill="none" stroke="midnightblue" d="M404.178,-21C412.755,-21 421.37,-21 429.783,-21"/>
<polygon fill="midnightblue" stroke="midnightblue" points="404.142,-17.5001 394.142,-21 404.142,-24.5001 404.142,-17.5001"/>
</g>
</g>
</svg>
