<?xml version="1.0" encoding="UTF-8" standalone="no"?>
<!DOCTYPE svg PUBLIC "-//W3C//DTD SVG 1.1//EN"
 "http://www.w3.org/Graphics/SVG/1.1/DTD/svg11.dtd">
<!-- Generated by graphviz version 2.38.0 (20140413.2041)
 -->
<!-- Title: SeeSawN::StateEstimationN::ViterbiRelativeSynchronisationProblemC::ViterbiRelativeSynchronisationProblemC Pages: 1 -->
<svg width="401pt" height="61pt"
 viewBox="0.00 0.00 401.00 61.00" xmlns="http://www.w3.org/2000/svg" xmlns:xlink="http://www.w3.org/1999/xlink">
<g id="graph0" class="graph" transform="scale(1 1) rotate(0) translate(4 57)">
<title>SeeSawN::StateEstimationN::ViterbiRelativeSynchronisationProblemC::ViterbiRelativeSynchronisationProblemC</title>
<polygon fill="white" stroke="none" points="-4,4 -4,-57 397,-57 397,4 -4,4"/>
<!-- Node1 -->
<g id="node1" class="node"><title>Node1</title>
<polygon fill="#bfbfbf" stroke="black" points="0,-0.5 0,-52.5 196,-52.5 196,-0.5 0,-0.5"/>
<text text-anchor="start" x="8" y="-40.5" font-family="FreeSans" font-size="10.00">SeeSawN::StateEstimation</text>
<text text-anchor="start" x="8" y="-29.5" font-family="FreeSans" font-size="10.00">N::ViterbiRelativeSynchronisation</text>
<text text-anchor="start" x="8" y="-18.5" font-family="FreeSans" font-size="10.00">ProblemC::ViterbiRelativeSynchronisation</text>
<text text-anchor="middle" x="98" y="-7.5" font-family="FreeSans" font-size="10.00">ProblemC</text>
</g>
<!-- Node2 -->
<g id="node2" class="node"><title>Node2</title>
<g id="a_node2"><a xlink:href="classSeeSawN_1_1StateEstimationN_1_1ViterbiRelativeSynchronisationProblemC.html#a6f9feb3843bfc97baaf4708bdab46444" target="_top" xlink:title="Clears the state. ">
<polygon fill="white" stroke="black" points="232,-6 232,-47 393,-47 393,-6 232,-6"/>
<text text-anchor="start" x="240" y="-35" font-family="FreeSans" font-size="10.00">SeeSawN::StateEstimation</text>
<text text-anchor="start" x="240" y="-24" font-family="FreeSans" font-size="10.00">N::ViterbiRelativeSynchronisation</text>
<text text-anchor="middle" x="312.5" y="-13" font-family="FreeSans" font-size="10.00">ProblemC::Clear</text>
</a>
</g>
</g>
<!-- Node1&#45;&gt;Node2 -->
<g id="edge1" class="edge"><title>Node1&#45;&gt;Node2</title>
<path fill="none" stroke="midnightblue" d="M206.306,-26.5C214.895,-26.5 223.475,-26.5 231.821,-26.5"/>
<polygon fill="midnightblue" stroke="midnightblue" points="206.233,-23.0001 196.233,-26.5 206.233,-30.0001 206.233,-23.0001"/>
</g>
</g>
</svg>
