<?xml version="1.0" encoding="UTF-8" standalone="no"?>
<!DOCTYPE svg PUBLIC "-//W3C//DTD SVG 1.1//EN"
 "http://www.w3.org/Graphics/SVG/1.1/DTD/svg11.dtd">
<!-- Generated by graphviz version 2.38.0 (20140413.2041)
 -->
<!-- Title: SeeSawN::OptimisationN::PDLP2PfProblemC Pages: 1 -->
<svg width="821pt" height="1582pt"
 viewBox="0.00 0.00 820.54 1582.00" xmlns="http://www.w3.org/2000/svg" xmlns:xlink="http://www.w3.org/1999/xlink">
<g id="graph0" class="graph" transform="scale(1 1) rotate(0) translate(4 1578)">
<title>SeeSawN::OptimisationN::PDLP2PfProblemC</title>
<polygon fill="white" stroke="none" points="-4,4 -4,-1578 816.543,-1578 816.543,4 -4,4"/>
<!-- Node3 -->
<g id="node1" class="node"><title>Node3</title>
<polygon fill="#bfbfbf" stroke="black" points="287.043,-0.5 287.043,-145.5 454.043,-145.5 454.043,-0.5 287.043,-0.5"/>
<text text-anchor="start" x="295.043" y="-133.5" font-family="FreeSans" font-size="10.00">SeeSawN::OptimisationN</text>
<text text-anchor="middle" x="370.543" y="-122.5" font-family="FreeSans" font-size="10.00">::PDLP2PfProblemC</text>
<polyline fill="none" stroke="black" points="287.043,-115.5 454.043,-115.5 "/>
<text text-anchor="middle" x="370.543" y="-103.5" font-family="FreeSans" font-size="10.00"> </text>
<polyline fill="none" stroke="black" points="287.043,-96.5 454.043,-96.5 "/>
<text text-anchor="start" x="295.043" y="-84.5" font-family="FreeSans" font-size="10.00">* PDLP2PfProblemC()</text>
<text text-anchor="start" x="295.043" y="-73.5" font-family="FreeSans" font-size="10.00">* PDLP2PfProblemC()</text>
<text text-anchor="start" x="295.043" y="-62.5" font-family="FreeSans" font-size="10.00">* ComputeJacobian()</text>
<text text-anchor="start" x="295.043" y="-51.5" font-family="FreeSans" font-size="10.00">* InitialEstimate()</text>
<text text-anchor="start" x="295.043" y="-40.5" font-family="FreeSans" font-size="10.00">* ComputeError()</text>
<text text-anchor="start" x="295.043" y="-29.5" font-family="FreeSans" font-size="10.00">* Update()</text>
<text text-anchor="start" x="295.043" y="-18.5" font-family="FreeSans" font-size="10.00">* MakeResult()</text>
<text text-anchor="start" x="295.043" y="-7.5" font-family="FreeSans" font-size="10.00">* ComputeRelativeModelDistance()</text>
</g>
<!-- Node4 -->
<g id="node2" class="node"><title>Node4</title>
<g id="a_node2"><a xlink:href="classSeeSawN_1_1OptimisationN_1_1PDLGeometryEstimationProblemBaseC.html" target="_top" xlink:title="{SeeSawN::OptimisationN\l::PDLGeometryEstimationProblem\lBaseC\&lt; PDLP2PfProblemC, P2PfSolverC \&gt;\n||+ PDLGeometryEstimationProblem\lBaseC()\l+ PDLGeometryEstimationProblem\lBaseC()\l# ComputeError()\l# ComputeJacobian()\l* result_type\l* has_normal_solver\l* has_covariance_estimator\l* has_nontrivial_update\l* observation_set_type\l* ComputeError()\l* Configure()\l* IsValid()\l* InitialEstimate()\l* Update()\land 7 more...\l* ComputeError()\l* ComputeJacobian()\l* PDLGeometryEstimationProblem\lBaseC()\l* PDLGeometryEstimationProblem\lBaseC()\l}">
<polygon fill="white" stroke="black" points="266.543,-183.5 266.543,-504.5 474.543,-504.5 474.543,-183.5 266.543,-183.5"/>
<text text-anchor="start" x="274.543" y="-492.5" font-family="FreeSans" font-size="10.00">SeeSawN::OptimisationN</text>
<text text-anchor="start" x="274.543" y="-481.5" font-family="FreeSans" font-size="10.00">::PDLGeometryEstimationProblem</text>
<text text-anchor="middle" x="370.543" y="-470.5" font-family="FreeSans" font-size="10.00">BaseC&lt; PDLP2PfProblemC, P2PfSolverC &gt;</text>
<polyline fill="none" stroke="black" points="266.543,-463.5 474.543,-463.5 "/>
<text text-anchor="middle" x="370.543" y="-451.5" font-family="FreeSans" font-size="10.00"> </text>
<polyline fill="none" stroke="black" points="266.543,-444.5 474.543,-444.5 "/>
<text text-anchor="start" x="274.543" y="-432.5" font-family="FreeSans" font-size="10.00">+ PDLGeometryEstimationProblem</text>
<text text-anchor="start" x="274.543" y="-421.5" font-family="FreeSans" font-size="10.00">BaseC()</text>
<text text-anchor="start" x="274.543" y="-410.5" font-family="FreeSans" font-size="10.00">+ PDLGeometryEstimationProblem</text>
<text text-anchor="start" x="274.543" y="-399.5" font-family="FreeSans" font-size="10.00">BaseC()</text>
<text text-anchor="start" x="274.543" y="-388.5" font-family="FreeSans" font-size="10.00"># ComputeError()</text>
<text text-anchor="start" x="274.543" y="-377.5" font-family="FreeSans" font-size="10.00"># ComputeJacobian()</text>
<text text-anchor="start" x="274.543" y="-366.5" font-family="FreeSans" font-size="10.00">* result_type</text>
<text text-anchor="start" x="274.543" y="-355.5" font-family="FreeSans" font-size="10.00">* has_normal_solver</text>
<text text-anchor="start" x="274.543" y="-344.5" font-family="FreeSans" font-size="10.00">* has_covariance_estimator</text>
<text text-anchor="start" x="274.543" y="-333.5" font-family="FreeSans" font-size="10.00">* has_nontrivial_update</text>
<text text-anchor="start" x="274.543" y="-322.5" font-family="FreeSans" font-size="10.00">* observation_set_type</text>
<text text-anchor="start" x="274.543" y="-311.5" font-family="FreeSans" font-size="10.00">* ComputeError()</text>
<text text-anchor="start" x="274.543" y="-300.5" font-family="FreeSans" font-size="10.00">* Configure()</text>
<text text-anchor="start" x="274.543" y="-289.5" font-family="FreeSans" font-size="10.00">* IsValid()</text>
<text text-anchor="start" x="274.543" y="-278.5" font-family="FreeSans" font-size="10.00">* InitialEstimate()</text>
<text text-anchor="start" x="274.543" y="-267.5" font-family="FreeSans" font-size="10.00">* Update()</text>
<text text-anchor="start" x="274.543" y="-256.5" font-family="FreeSans" font-size="10.00">and 7 more...</text>
<text text-anchor="start" x="274.543" y="-245.5" font-family="FreeSans" font-size="10.00">* ComputeError()</text>
<text text-anchor="start" x="274.543" y="-234.5" font-family="FreeSans" font-size="10.00">* ComputeJacobian()</text>
<text text-anchor="start" x="274.543" y="-223.5" font-family="FreeSans" font-size="10.00">* PDLGeometryEstimationProblem</text>
<text text-anchor="start" x="274.543" y="-212.5" font-family="FreeSans" font-size="10.00">BaseC()</text>
<text text-anchor="start" x="274.543" y="-201.5" font-family="FreeSans" font-size="10.00">* PDLGeometryEstimationProblem</text>
<text text-anchor="start" x="274.543" y="-190.5" font-family="FreeSans" font-size="10.00">BaseC()</text>
</a>
</g>
</g>
<!-- Node4&#45;&gt;Node3 -->
<g id="edge1" class="edge"><title>Node4&#45;&gt;Node3</title>
<path fill="none" stroke="midnightblue" d="M370.543,-173.337C370.543,-163.749 370.543,-154.418 370.543,-145.557"/>
<polygon fill="none" stroke="midnightblue" points="367.043,-173.413 370.543,-183.413 374.043,-173.413 367.043,-173.413"/>
</g>
<!-- Node5 -->
<g id="node3" class="node"><title>Node5</title>
<polygon fill="white" stroke="#bfbfbf" points="265.043,-954.5 265.043,-1033.5 402.043,-1033.5 402.043,-954.5 265.043,-954.5"/>
<text text-anchor="start" x="273.043" y="-1021.5" font-family="FreeSans" font-size="10.00">bimap&lt; list_of&lt; Coordinate1</text>
<text text-anchor="start" x="273.043" y="-1010.5" font-family="FreeSans" font-size="10.00">T &gt;, list_of&lt; Coordinate2T</text>
<text text-anchor="middle" x="333.543" y="-999.5" font-family="FreeSans" font-size="10.00"> &gt;, left_based &gt;</text>
<polyline fill="none" stroke="#bfbfbf" points="265.043,-992.5 402.043,-992.5 "/>
<text text-anchor="middle" x="333.543" y="-980.5" font-family="FreeSans" font-size="10.00"> </text>
<polyline fill="none" stroke="#bfbfbf" points="265.043,-973.5 402.043,-973.5 "/>
<text text-anchor="middle" x="333.543" y="-961.5" font-family="FreeSans" font-size="10.00"> </text>
</g>
<!-- Node5&#45;&gt;Node4 -->
<g id="edge2" class="edge"><title>Node5&#45;&gt;Node4</title>
<path fill="none" stroke="#404040" d="M331.475,-954.214C327.985,-880.162 322.339,-713.581 333.543,-574 335.037,-555.383 337.204,-535.997 339.751,-516.73"/>
<polygon fill="none" stroke="#404040" points="339.762,-516.647 336.61,-510.162 341.384,-504.757 344.536,-511.243 339.762,-516.647"/>
<text text-anchor="middle" x="374.543" y="-699.5" font-family="FreeSans" font-size="10.00"> #correspondences</text>
</g>
<!-- Node13 -->
<g id="node11" class="node"><title>Node13</title>
<g id="a_node11"><a xlink:href="classSeeSawN_1_1OptimisationN_1_1PDLGeometryEstimationProblemBaseC.html" target="_top" xlink:title="Base problem class for Powell&#39;s dog leg geometry estimation problems. ">
<polygon fill="white" stroke="black" points="424.543,-574.5 424.543,-829.5 606.543,-829.5 606.543,-574.5 424.543,-574.5"/>
<text text-anchor="start" x="432.543" y="-817.5" font-family="FreeSans" font-size="10.00">SeeSawN::OptimisationN</text>
<text text-anchor="start" x="432.543" y="-806.5" font-family="FreeSans" font-size="10.00">::PDLGeometryEstimationProblem</text>
<text text-anchor="middle" x="515.543" y="-795.5" font-family="FreeSans" font-size="10.00">BaseC&lt; DerivedT, GeometrySolverT &gt;</text>
<polyline fill="none" stroke="black" points="424.543,-788.5 606.543,-788.5 "/>
<text text-anchor="middle" x="515.543" y="-776.5" font-family="FreeSans" font-size="10.00"> </text>
<polyline fill="none" stroke="black" points="424.543,-769.5 606.543,-769.5 "/>
<text text-anchor="start" x="432.543" y="-757.5" font-family="FreeSans" font-size="10.00">* ComputeError()</text>
<text text-anchor="start" x="432.543" y="-746.5" font-family="FreeSans" font-size="10.00">* ComputeJacobian()</text>
<text text-anchor="start" x="432.543" y="-735.5" font-family="FreeSans" font-size="10.00">* PDLGeometryEstimationProblem</text>
<text text-anchor="start" x="432.543" y="-724.5" font-family="FreeSans" font-size="10.00">BaseC()</text>
<text text-anchor="start" x="432.543" y="-713.5" font-family="FreeSans" font-size="10.00">* PDLGeometryEstimationProblem</text>
<text text-anchor="start" x="432.543" y="-702.5" font-family="FreeSans" font-size="10.00">BaseC()</text>
<text text-anchor="start" x="432.543" y="-691.5" font-family="FreeSans" font-size="10.00">* result_type</text>
<text text-anchor="start" x="432.543" y="-680.5" font-family="FreeSans" font-size="10.00">* has_normal_solver</text>
<text text-anchor="start" x="432.543" y="-669.5" font-family="FreeSans" font-size="10.00">* has_covariance_estimator</text>
<text text-anchor="start" x="432.543" y="-658.5" font-family="FreeSans" font-size="10.00">* has_nontrivial_update</text>
<text text-anchor="start" x="432.543" y="-647.5" font-family="FreeSans" font-size="10.00">* observation_set_type</text>
<text text-anchor="start" x="432.543" y="-636.5" font-family="FreeSans" font-size="10.00">* Configure()</text>
<text text-anchor="start" x="432.543" y="-625.5" font-family="FreeSans" font-size="10.00">* IsValid()</text>
<text text-anchor="start" x="432.543" y="-614.5" font-family="FreeSans" font-size="10.00">* InitialEstimate()</text>
<text text-anchor="start" x="432.543" y="-603.5" font-family="FreeSans" font-size="10.00">* ComputeError()</text>
<text text-anchor="start" x="432.543" y="-592.5" font-family="FreeSans" font-size="10.00">* Update()</text>
<text text-anchor="start" x="432.543" y="-581.5" font-family="FreeSans" font-size="10.00">and 7 more...</text>
</a>
</g>
</g>
<!-- Node5&#45;&gt;Node13 -->
<g id="edge14" class="edge"><title>Node5&#45;&gt;Node13</title>
<path fill="none" stroke="#404040" d="M339.396,-954.273C345.367,-923.601 356.795,-880.635 377.543,-848 383.959,-837.908 389.02,-838.389 397.543,-830 403.589,-824.049 409.734,-817.869 415.884,-811.582"/>
<polygon fill="none" stroke="#404040" points="415.902,-811.563 417.213,-804.472 424.263,-802.955 422.952,-810.046 415.902,-811.563"/>
<text text-anchor="middle" x="418.543" y="-851" font-family="FreeSans" font-size="10.00"> #correspondences</text>
</g>
<!-- Node6 -->
<g id="node4" class="node"><title>Node6</title>
<polygon fill="white" stroke="#bfbfbf" points="501.043,-1285 501.043,-1342 544.043,-1342 544.043,-1285 501.043,-1285"/>
<text text-anchor="middle" x="522.543" y="-1330" font-family="FreeSans" font-size="10.00">bimap</text>
<polyline fill="none" stroke="#bfbfbf" points="501.043,-1323 544.043,-1323 "/>
<text text-anchor="middle" x="522.543" y="-1311" font-family="FreeSans" font-size="10.00"> </text>
<polyline fill="none" stroke="#bfbfbf" points="501.043,-1304 544.043,-1304 "/>
<text text-anchor="middle" x="522.543" y="-1292" font-family="FreeSans" font-size="10.00"> </text>
</g>
<!-- Node6&#45;&gt;Node5 -->
<g id="edge3" class="edge"><title>Node6&#45;&gt;Node5</title>
<path fill="none" stroke="orange" d="M516.225,-1275.12C510.886,-1250.11 501.633,-1217.12 486.543,-1191 462.009,-1148.54 441.108,-1149.35 410.543,-1111 390.883,-1086.33 371.258,-1056.67 356.74,-1033.52"/>
<polygon fill="orange" stroke="orange" points="512.803,-1275.86 518.214,-1284.97 519.665,-1274.47 512.803,-1275.86"/>
<text text-anchor="start" x="474.543" y="-1159.5" font-family="FreeSans" font-size="10.00"> &lt; list_of&lt; Coordinate1T</text>
<text text-anchor="start" x="474.543" y="-1148.5" font-family="FreeSans" font-size="10.00"> &gt;, list_of&lt; Coordinate2T</text>
<text text-anchor="middle" x="527.543" y="-1137.5" font-family="FreeSans" font-size="10.00"> &gt;, left_based &gt;</text>
</g>
<!-- Node7 -->
<g id="node5" class="node"><title>Node7</title>
<g id="a_node5"><a xlink:href="classSeeSawN_1_1GeometryN_1_1P2PfSolverC.html" target="_top" xlink:title="2&#45;point orientation and focal length solver ">
<polygon fill="white" stroke="black" points="97.5428,-602 97.5428,-802 241.543,-802 241.543,-602 97.5428,-602"/>
<text text-anchor="start" x="105.543" y="-790" font-family="FreeSans" font-size="10.00">SeeSawN::GeometryN</text>
<text text-anchor="middle" x="169.543" y="-779" font-family="FreeSans" font-size="10.00">::P2PfSolverC</text>
<polyline fill="none" stroke="black" points="97.5428,-772 241.543,-772 "/>
<text text-anchor="middle" x="169.543" y="-760" font-family="FreeSans" font-size="10.00"> </text>
<polyline fill="none" stroke="black" points="97.5428,-753 241.543,-753 "/>
<text text-anchor="start" x="105.543" y="-741" font-family="FreeSans" font-size="10.00">+ MakeMinimal()</text>
<text text-anchor="start" x="105.543" y="-730" font-family="FreeSans" font-size="10.00">+ ComputeSampleStatistics()</text>
<text text-anchor="start" x="105.543" y="-719" font-family="FreeSans" font-size="10.00">+ operator()()</text>
<text text-anchor="start" x="105.543" y="-708" font-family="FreeSans" font-size="10.00">* minimal_model_type</text>
<text text-anchor="start" x="105.543" y="-697" font-family="FreeSans" font-size="10.00">* uncertainty_type</text>
<text text-anchor="start" x="105.543" y="-686" font-family="FreeSans" font-size="10.00">* operator()()</text>
<text text-anchor="start" x="105.543" y="-675" font-family="FreeSans" font-size="10.00">* Cost()</text>
<text text-anchor="start" x="105.543" y="-664" font-family="FreeSans" font-size="10.00">* MakeMinimal()</text>
<text text-anchor="start" x="105.543" y="-653" font-family="FreeSans" font-size="10.00">* MakeModelFromMinimal()</text>
<text text-anchor="start" x="105.543" y="-642" font-family="FreeSans" font-size="10.00">* ComputeSampleStatistics()</text>
<text text-anchor="start" x="105.543" y="-631" font-family="FreeSans" font-size="10.00">* ComputeDistance()</text>
<text text-anchor="start" x="105.543" y="-620" font-family="FreeSans" font-size="10.00">* MakeVector()</text>
<text text-anchor="start" x="105.543" y="-609" font-family="FreeSans" font-size="10.00">* MakeModel()</text>
</a>
</g>
</g>
<!-- Node7&#45;&gt;Node4 -->
<g id="edge4" class="edge"><title>Node7&#45;&gt;Node4</title>
<path fill="none" stroke="#404040" d="M196.911,-601.951C205.957,-575.535 217.194,-547.534 230.543,-523 239.021,-507.419 248.859,-491.801 259.314,-476.643"/>
<polygon fill="none" stroke="#404040" points="259.365,-476.571 259.543,-469.362 266.266,-466.754 266.088,-473.963 259.365,-476.571"/>
<text text-anchor="middle" x="264.043" y="-548" font-family="FreeSans" font-size="10.00"> #solver</text>
<text text-anchor="middle" x="264.043" y="-537" font-family="FreeSans" font-size="10.00">#errorMetric</text>
<text text-anchor="middle" x="264.043" y="-526" font-family="FreeSans" font-size="10.00">#initialEstimate</text>
</g>
<!-- Node8 -->
<g id="node6" class="node"><title>Node8</title>
<g id="a_node6"><a xlink:href="classSeeSawN_1_1GeometryN_1_1GeometrySolverBaseC.html" target="_top" xlink:title="{SeeSawN::GeometryN\l::GeometrySolverBaseC\l\&lt; P2PfSolverC, CameraMatrixT,\l TransferErrorH32DT, 3, 2,\l 2, false, 2, 12, 4 \&gt;\n||+ EvaluateModel()\l+ EvaluateModel()\l* coordinate_type1\l* coordinate_type2\l* model_type\l* real_type\l* error_type\l* constraint_type\l* loss_type\l* distance_type\l* GeneratorSize()\l* IsNonminimal()\land 8 more...\l}">
<polygon fill="white" stroke="black" points="92.0428,-877.5 92.0428,-1110.5 247.043,-1110.5 247.043,-877.5 92.0428,-877.5"/>
<text text-anchor="start" x="100.043" y="-1098.5" font-family="FreeSans" font-size="10.00">SeeSawN::GeometryN</text>
<text text-anchor="start" x="100.043" y="-1087.5" font-family="FreeSans" font-size="10.00">::GeometrySolverBaseC</text>
<text text-anchor="start" x="100.043" y="-1076.5" font-family="FreeSans" font-size="10.00">&lt; P2PfSolverC, CameraMatrixT,</text>
<text text-anchor="start" x="100.043" y="-1065.5" font-family="FreeSans" font-size="10.00"> TransferErrorH32DT, 3, 2,</text>
<text text-anchor="middle" x="169.543" y="-1054.5" font-family="FreeSans" font-size="10.00"> 2, false, 2, 12, 4 &gt;</text>
<polyline fill="none" stroke="black" points="92.0428,-1047.5 247.043,-1047.5 "/>
<text text-anchor="middle" x="169.543" y="-1035.5" font-family="FreeSans" font-size="10.00"> </text>
<polyline fill="none" stroke="black" points="92.0428,-1028.5 247.043,-1028.5 "/>
<text text-anchor="start" x="100.043" y="-1016.5" font-family="FreeSans" font-size="10.00">+ EvaluateModel()</text>
<text text-anchor="start" x="100.043" y="-1005.5" font-family="FreeSans" font-size="10.00">+ EvaluateModel()</text>
<text text-anchor="start" x="100.043" y="-994.5" font-family="FreeSans" font-size="10.00">* coordinate_type1</text>
<text text-anchor="start" x="100.043" y="-983.5" font-family="FreeSans" font-size="10.00">* coordinate_type2</text>
<text text-anchor="start" x="100.043" y="-972.5" font-family="FreeSans" font-size="10.00">* model_type</text>
<text text-anchor="start" x="100.043" y="-961.5" font-family="FreeSans" font-size="10.00">* real_type</text>
<text text-anchor="start" x="100.043" y="-950.5" font-family="FreeSans" font-size="10.00">* error_type</text>
<text text-anchor="start" x="100.043" y="-939.5" font-family="FreeSans" font-size="10.00">* constraint_type</text>
<text text-anchor="start" x="100.043" y="-928.5" font-family="FreeSans" font-size="10.00">* loss_type</text>
<text text-anchor="start" x="100.043" y="-917.5" font-family="FreeSans" font-size="10.00">* distance_type</text>
<text text-anchor="start" x="100.043" y="-906.5" font-family="FreeSans" font-size="10.00">* GeneratorSize()</text>
<text text-anchor="start" x="100.043" y="-895.5" font-family="FreeSans" font-size="10.00">* IsNonminimal()</text>
<text text-anchor="start" x="100.043" y="-884.5" font-family="FreeSans" font-size="10.00">and 8 more...</text>
</a>
</g>
</g>
<!-- Node8&#45;&gt;Node7 -->
<g id="edge5" class="edge"><title>Node8&#45;&gt;Node7</title>
<path fill="none" stroke="midnightblue" d="M169.543,-866.916C169.543,-845.303 169.543,-823.12 169.543,-802.332"/>
<polygon fill="none" stroke="midnightblue" points="166.043,-867.134 169.543,-877.134 173.043,-867.134 166.043,-867.134"/>
</g>
<!-- Node9 -->
<g id="node7" class="node"><title>Node9</title>
<polygon fill="white" stroke="#bfbfbf" points="31.0428,-1285 31.0428,-1342 170.043,-1342 170.043,-1285 31.0428,-1285"/>
<text text-anchor="middle" x="100.543" y="-1330" font-family="FreeSans" font-size="10.00">static constexpr unsigned int</text>
<polyline fill="none" stroke="#bfbfbf" points="31.0428,-1323 170.043,-1323 "/>
<text text-anchor="middle" x="100.543" y="-1311" font-family="FreeSans" font-size="10.00"> </text>
<polyline fill="none" stroke="#bfbfbf" points="31.0428,-1304 170.043,-1304 "/>
<text text-anchor="middle" x="100.543" y="-1292" font-family="FreeSans" font-size="10.00"> </text>
</g>
<!-- Node9&#45;&gt;Node8 -->
<g id="edge6" class="edge"><title>Node9&#45;&gt;Node8</title>
<path fill="none" stroke="#404040" d="M106.545,-1284.88C114.43,-1248.6 128.804,-1182.46 141.834,-1122.5"/>
<polygon fill="none" stroke="#404040" points="141.871,-1122.33 139.236,-1115.62 144.419,-1110.6 147.054,-1117.32 141.871,-1122.33"/>
<text text-anchor="middle" x="167.543" y="-1165" font-family="FreeSans" font-size="10.00"> #nDOF</text>
<text text-anchor="middle" x="167.543" y="-1154" font-family="FreeSans" font-size="10.00">#nParameter</text>
<text text-anchor="middle" x="167.543" y="-1143" font-family="FreeSans" font-size="10.00">#sGenerator</text>
<text text-anchor="middle" x="167.543" y="-1132" font-family="FreeSans" font-size="10.00">#nSolution</text>
</g>
<!-- Node10 -->
<g id="node8" class="node"><title>Node10</title>
<g id="a_node8"><a xlink:href="classbool.html" target="_top" xlink:title="{bool\n||}">
<polygon fill="white" stroke="black" points="492.043,-1516.5 492.043,-1573.5 527.043,-1573.5 527.043,-1516.5 492.043,-1516.5"/>
<text text-anchor="middle" x="509.543" y="-1561.5" font-family="FreeSans" font-size="10.00">bool</text>
<polyline fill="none" stroke="black" points="492.043,-1554.5 527.043,-1554.5 "/>
<text text-anchor="middle" x="509.543" y="-1542.5" font-family="FreeSans" font-size="10.00"> </text>
<polyline fill="none" stroke="black" points="492.043,-1535.5 527.043,-1535.5 "/>
<text text-anchor="middle" x="509.543" y="-1523.5" font-family="FreeSans" font-size="10.00"> </text>
</a>
</g>
</g>
<!-- Node10&#45;&gt;Node4 -->
<g id="edge12" class="edge"><title>Node10&#45;&gt;Node4</title>
<path fill="none" stroke="#404040" d="M527.276,-1538.14C585.566,-1517.66 767.543,-1443.39 767.543,-1314.5 767.543,-1314.5 767.543,-1314.5 767.543,-701 767.543,-548.426 603.003,-444.755 485.78,-390.256"/>
<polygon fill="none" stroke="#404040" points="485.502,-390.129 478.382,-391.269 474.591,-385.135 481.711,-383.995 485.502,-390.129"/>
<text text-anchor="middle" x="790.043" y="-991.5" font-family="FreeSans" font-size="10.00"> #flagValid</text>
</g>
<!-- Node10&#45;&gt;Node8 -->
<g id="edge7" class="edge"><title>Node10&#45;&gt;Node8</title>
<path fill="none" stroke="#404040" d="M491.811,-1529.24C470.178,-1510.14 434.3,-1474.68 416.543,-1436 358.922,-1310.49 467.053,-1225.79 368.543,-1129 334.818,-1095.86 303.71,-1131.58 257.752,-1111.02"/>
<polygon fill="none" stroke="#404040" points="257.657,-1110.97 250.481,-1111.69 247.062,-1105.34 254.237,-1104.63 257.657,-1110.97"/>
<text text-anchor="middle" x="454.043" y="-1311" font-family="FreeSans" font-size="10.00"> #flagNonminimal</text>
</g>
<!-- Node11 -->
<g id="node9" class="node"><title>Node11</title>
<g id="a_node9"><a xlink:href="classSeeSawN_1_1GeometryN_1_1GeometrySolverBaseC.html" target="_top" xlink:title="Base class for geometry solvers. ">
<polygon fill="white" stroke="black" points="188.043,-1191.5 188.043,-1435.5 371.043,-1435.5 371.043,-1191.5 188.043,-1191.5"/>
<text text-anchor="start" x="196.043" y="-1423.5" font-family="FreeSans" font-size="10.00">SeeSawN::GeometryN</text>
<text text-anchor="start" x="196.043" y="-1412.5" font-family="FreeSans" font-size="10.00">::GeometrySolverBaseC</text>
<text text-anchor="start" x="196.043" y="-1401.5" font-family="FreeSans" font-size="10.00">&lt; DerivedT, ModelT, ErrorT,</text>
<text text-anchor="start" x="196.043" y="-1390.5" font-family="FreeSans" font-size="10.00"> DIM1, DIM2, GENERATOR_SIZE,</text>
<text text-anchor="start" x="196.043" y="-1379.5" font-family="FreeSans" font-size="10.00"> FLAG_NONMINIMAL, NSOLUTION,</text>
<text text-anchor="middle" x="279.543" y="-1368.5" font-family="FreeSans" font-size="10.00"> NPARAMETER, NDOF &gt;</text>
<polyline fill="none" stroke="black" points="188.043,-1361.5 371.043,-1361.5 "/>
<text text-anchor="middle" x="279.543" y="-1349.5" font-family="FreeSans" font-size="10.00"> </text>
<polyline fill="none" stroke="black" points="188.043,-1342.5 371.043,-1342.5 "/>
<text text-anchor="start" x="196.043" y="-1330.5" font-family="FreeSans" font-size="10.00">+ EvaluateModel()</text>
<text text-anchor="start" x="196.043" y="-1319.5" font-family="FreeSans" font-size="10.00">+ EvaluateModel()</text>
<text text-anchor="start" x="196.043" y="-1308.5" font-family="FreeSans" font-size="10.00">* coordinate_type1</text>
<text text-anchor="start" x="196.043" y="-1297.5" font-family="FreeSans" font-size="10.00">* coordinate_type2</text>
<text text-anchor="start" x="196.043" y="-1286.5" font-family="FreeSans" font-size="10.00">* model_type</text>
<text text-anchor="start" x="196.043" y="-1275.5" font-family="FreeSans" font-size="10.00">* real_type</text>
<text text-anchor="start" x="196.043" y="-1264.5" font-family="FreeSans" font-size="10.00">* error_type</text>
<text text-anchor="start" x="196.043" y="-1253.5" font-family="FreeSans" font-size="10.00">* constraint_type</text>
<text text-anchor="start" x="196.043" y="-1242.5" font-family="FreeSans" font-size="10.00">* loss_type</text>
<text text-anchor="start" x="196.043" y="-1231.5" font-family="FreeSans" font-size="10.00">* distance_type</text>
<text text-anchor="start" x="196.043" y="-1220.5" font-family="FreeSans" font-size="10.00">* GeneratorSize()</text>
<text text-anchor="start" x="196.043" y="-1209.5" font-family="FreeSans" font-size="10.00">* IsNonminimal()</text>
<text text-anchor="start" x="196.043" y="-1198.5" font-family="FreeSans" font-size="10.00">and 8 more...</text>
</a>
</g>
</g>
<!-- Node10&#45;&gt;Node11 -->
<g id="edge10" class="edge"><title>Node10&#45;&gt;Node11</title>
<path fill="none" stroke="#404040" d="M491.793,-1542.13C449.165,-1537.27 342.75,-1522.87 318.543,-1498 304.744,-1483.83 295.298,-1466.05 288.916,-1447.17"/>
<polygon fill="none" stroke="#404040" points="288.897,-1447.11 283.328,-1442.53 285.414,-1435.63 290.984,-1440.21 288.897,-1447.11"/>
<text text-anchor="middle" x="356.043" y="-1473.5" font-family="FreeSans" font-size="10.00"> #flagNonminimal</text>
</g>
<!-- Node10&#45;&gt;Node13 -->
<g id="edge17" class="edge"><title>Node10&#45;&gt;Node13</title>
<path fill="none" stroke="#404040" d="M522.904,-1516.24C532.646,-1494.81 545.353,-1464.16 552.543,-1436 616.171,-1186.81 591.631,-1116.14 596.543,-859 596.636,-854.112 597.775,-852.731 596.543,-848 595.943,-845.698 595.299,-843.394 594.612,-841.089"/>
<polygon fill="none" stroke="#404040" points="594.579,-840.988 588.91,-836.531 590.844,-829.584 596.513,-834.041 594.579,-840.988"/>
<text text-anchor="middle" x="620.043" y="-1148.5" font-family="FreeSans" font-size="10.00"> #flagValid</text>
</g>
<!-- Node11&#45;&gt;Node8 -->
<g id="edge8" class="edge"><title>Node11&#45;&gt;Node8</title>
<path fill="none" stroke="orange" d="M234.138,-1181.45C225.995,-1157.94 217.562,-1133.6 209.584,-1110.57"/>
<polygon fill="orange" stroke="orange" points="230.905,-1182.8 237.486,-1191.11 237.519,-1180.51 230.905,-1182.8"/>
<text text-anchor="start" x="231.543" y="-1159.5" font-family="FreeSans" font-size="10.00"> &lt; P2PfSolverC, CameraMatrix</text>
<text text-anchor="start" x="231.543" y="-1148.5" font-family="FreeSans" font-size="10.00">T, TransferErrorH32DT, 3,</text>
<text text-anchor="middle" x="298.043" y="-1137.5" font-family="FreeSans" font-size="10.00"> 2, 2, false, 2, 12, 4 &gt;</text>
</g>
<!-- Node12 -->
<g id="node10" class="node"><title>Node12</title>
<polygon fill="white" stroke="#bfbfbf" points="46.0428,-1516.5 46.0428,-1573.5 75.0428,-1573.5 75.0428,-1516.5 46.0428,-1516.5"/>
<text text-anchor="middle" x="60.5428" y="-1561.5" font-family="FreeSans" font-size="10.00">int</text>
<polyline fill="none" stroke="#bfbfbf" points="46.0428,-1554.5 75.0428,-1554.5 "/>
<text text-anchor="middle" x="60.5428" y="-1542.5" font-family="FreeSans" font-size="10.00"> </text>
<polyline fill="none" stroke="#bfbfbf" points="46.0428,-1535.5 75.0428,-1535.5 "/>
<text text-anchor="middle" x="60.5428" y="-1523.5" font-family="FreeSans" font-size="10.00"> </text>
</g>
<!-- Node12&#45;&gt;Node7 -->
<g id="edge11" class="edge"><title>Node12&#45;&gt;Node7</title>
<path fill="none" stroke="#404040" d="M47.5219,-1516.31C38.2131,-1494.91 26.4919,-1464.28 21.5428,-1436 -21.5442,-1189.82 2.08743,-1113.61 82.5428,-877 89.7316,-855.858 99.0102,-834.031 108.82,-813.282"/>
<polygon fill="none" stroke="#404040" points="108.945,-813.021 107.944,-805.88 114.151,-802.209 115.152,-809.351 108.945,-813.021"/>
<text text-anchor="middle" x="42.0428" y="-1154" font-family="FreeSans" font-size="10.00"> +iFocalLength</text>
<text text-anchor="middle" x="42.0428" y="-1143" font-family="FreeSans" font-size="10.00">+iOrientation</text>
</g>
<!-- Node12&#45;&gt;Node11 -->
<g id="edge9" class="edge"><title>Node12&#45;&gt;Node11</title>
<path fill="none" stroke="#404040" d="M75.3008,-1531.64C98.2439,-1512.17 143.473,-1472.78 178.543,-1436 178.933,-1435.59 179.324,-1435.18 179.715,-1434.77"/>
<polygon fill="none" stroke="#404040" points="179.759,-1434.72 180.93,-1427.61 187.948,-1425.95 186.777,-1433.07 179.759,-1434.72"/>
<text text-anchor="middle" x="188.543" y="-1490" font-family="FreeSans" font-size="10.00"> #nDOF</text>
<text text-anchor="middle" x="188.543" y="-1479" font-family="FreeSans" font-size="10.00">#nParameter</text>
<text text-anchor="middle" x="188.543" y="-1468" font-family="FreeSans" font-size="10.00">#sGenerator</text>
<text text-anchor="middle" x="188.543" y="-1457" font-family="FreeSans" font-size="10.00">#nSolution</text>
</g>
<!-- Node13&#45;&gt;Node4 -->
<g id="edge13" class="edge"><title>Node13&#45;&gt;Node4</title>
<path fill="none" stroke="orange" d="M460.214,-565.159C452.168,-545.404 443.822,-524.914 435.605,-504.74"/>
<polygon fill="orange" stroke="orange" points="456.999,-566.544 464.013,-574.485 463.482,-563.904 456.999,-566.544"/>
<text text-anchor="start" x="456.543" y="-542.5" font-family="FreeSans" font-size="10.00"> &lt; PDLP2PfProblemC,</text>
<text text-anchor="middle" x="505.543" y="-531.5" font-family="FreeSans" font-size="10.00"> P2PfSolverC &gt;</text>
</g>
<!-- Node14 -->
<g id="node12" class="node"><title>Node14</title>
<polygon fill="white" stroke="#bfbfbf" points="420.043,-965.5 420.043,-1022.5 479.043,-1022.5 479.043,-965.5 420.043,-965.5"/>
<text text-anchor="middle" x="449.543" y="-1010.5" font-family="FreeSans" font-size="10.00">error_type</text>
<polyline fill="none" stroke="#bfbfbf" points="420.043,-1003.5 479.043,-1003.5 "/>
<text text-anchor="middle" x="449.543" y="-991.5" font-family="FreeSans" font-size="10.00"> </text>
<polyline fill="none" stroke="#bfbfbf" points="420.043,-984.5 479.043,-984.5 "/>
<text text-anchor="middle" x="449.543" y="-972.5" font-family="FreeSans" font-size="10.00"> </text>
</g>
<!-- Node14&#45;&gt;Node13 -->
<g id="edge15" class="edge"><title>Node14&#45;&gt;Node13</title>
<path fill="none" stroke="#404040" d="M450.469,-965.432C451.902,-936.03 455.514,-888.252 464.543,-848 465.026,-845.848 465.53,-843.683 466.055,-841.51"/>
<polygon fill="none" stroke="#404040" points="466.072,-841.443 463.682,-834.639 469.042,-829.816 471.433,-836.619 466.072,-841.443"/>
<text text-anchor="middle" x="492.043" y="-851" font-family="FreeSans" font-size="10.00"> #errorMetric</text>
</g>
<!-- Node15 -->
<g id="node13" class="node"><title>Node15</title>
<polygon fill="white" stroke="#bfbfbf" points="497.543,-965.5 497.543,-1022.5 563.543,-1022.5 563.543,-965.5 497.543,-965.5"/>
<text text-anchor="middle" x="530.543" y="-1010.5" font-family="FreeSans" font-size="10.00">model_type</text>
<polyline fill="none" stroke="#bfbfbf" points="497.543,-1003.5 563.543,-1003.5 "/>
<text text-anchor="middle" x="530.543" y="-991.5" font-family="FreeSans" font-size="10.00"> </text>
<polyline fill="none" stroke="#bfbfbf" points="497.543,-984.5 563.543,-984.5 "/>
<text text-anchor="middle" x="530.543" y="-972.5" font-family="FreeSans" font-size="10.00"> </text>
</g>
<!-- Node15&#45;&gt;Node13 -->
<g id="edge16" class="edge"><title>Node15&#45;&gt;Node13</title>
<path fill="none" stroke="#404040" d="M529.118,-965.456C527.621,-936.517 525.152,-888.771 522.726,-841.88"/>
<polygon fill="none" stroke="#404040" points="522.715,-841.651 518.41,-835.866 522.095,-829.667 526.399,-835.453 522.715,-841.651"/>
<text text-anchor="middle" x="558.043" y="-851" font-family="FreeSans" font-size="10.00"> #initialEstimate</text>
</g>
<!-- Node16 -->
<g id="node14" class="node"><title>Node16</title>
<polygon fill="white" stroke="#bfbfbf" points="639.543,-965.5 639.543,-1022.5 731.543,-1022.5 731.543,-965.5 639.543,-965.5"/>
<text text-anchor="middle" x="685.543" y="-1010.5" font-family="FreeSans" font-size="10.00">GeometrySolverT</text>
<polyline fill="none" stroke="#bfbfbf" points="639.543,-1003.5 731.543,-1003.5 "/>
<text text-anchor="middle" x="685.543" y="-991.5" font-family="FreeSans" font-size="10.00"> </text>
<polyline fill="none" stroke="#bfbfbf" points="639.543,-984.5 731.543,-984.5 "/>
<text text-anchor="middle" x="685.543" y="-972.5" font-family="FreeSans" font-size="10.00"> </text>
</g>
<!-- Node16&#45;&gt;Node13 -->
<g id="edge18" class="edge"><title>Node16&#45;&gt;Node13</title>
<path fill="none" stroke="#404040" d="M676.477,-965.297C666.142,-935.366 647.769,-886.759 625.543,-848 621.726,-841.344 617.644,-834.647 613.381,-827.975"/>
<polygon fill="none" stroke="#404040" points="613.113,-827.565 606.481,-824.733 606.545,-817.522 613.177,-820.355 613.113,-827.565"/>
<text text-anchor="middle" x="647.543" y="-851" font-family="FreeSans" font-size="10.00"> #solver</text>
</g>
</g>
</svg>
