<?xml version="1.0" encoding="UTF-8" standalone="no"?>
<!DOCTYPE svg PUBLIC "-//W3C//DTD SVG 1.1//EN"
 "http://www.w3.org/Graphics/SVG/1.1/DTD/svg11.dtd">
<!-- Generated by graphviz version 2.38.0 (20140413.2041)
 -->
<!-- Title: SeeSawN::ApplicationN::InterfaceRANSACC::InsertGeometryProblemParameters Pages: 1 -->
<svg width="1170pt" height="426pt"
 viewBox="0.00 0.00 1170.00 426.00" xmlns="http://www.w3.org/2000/svg" xmlns:xlink="http://www.w3.org/1999/xlink">
<g id="graph0" class="graph" transform="scale(1 1) rotate(0) translate(4 422)">
<title>SeeSawN::ApplicationN::InterfaceRANSACC::InsertGeometryProblemParameters</title>
<polygon fill="white" stroke="none" points="-4,4 -4,-422 1166,-422 1166,4 -4,4"/>
<!-- Node18 -->
<g id="node1" class="node"><title>Node18</title>
<polygon fill="#bfbfbf" stroke="black" points="0,-182.5 0,-223.5 179,-223.5 179,-182.5 0,-182.5"/>
<text text-anchor="start" x="8" y="-211.5" font-family="FreeSans" font-size="10.00">SeeSawN::ApplicationN</text>
<text text-anchor="start" x="8" y="-200.5" font-family="FreeSans" font-size="10.00">::InterfaceRANSACC::InsertGeometry</text>
<text text-anchor="middle" x="89.5" y="-189.5" font-family="FreeSans" font-size="10.00">ProblemParameters</text>
</g>
<!-- Node19 -->
<g id="node2" class="node"><title>Node19</title>
<g id="a_node2"><a xlink:href="classSeeSawN_1_1AppMultimodelGeometryEstimator22N_1_1AppMultimodelGeometryEstimator22ImplementationC.html#a4eeb3da1056bf30a7ad0bcb24dcf3de8" target="_top" xlink:title="Generates a configuration file with default parameters. ">
<polygon fill="white" stroke="black" points="215,-242.5 215,-283.5 444,-283.5 444,-242.5 215,-242.5"/>
<text text-anchor="start" x="223" y="-271.5" font-family="FreeSans" font-size="10.00">SeeSawN::AppMultimodelGeometry</text>
<text text-anchor="start" x="223" y="-260.5" font-family="FreeSans" font-size="10.00">Estimator22N::AppMultimodelGeometry</text>
<text text-anchor="middle" x="329.5" y="-249.5" font-family="FreeSans" font-size="10.00">Estimator22ImplementationC::GenerateConfigFile</text>
</a>
</g>
</g>
<!-- Node18&#45;&gt;Node19 -->
<g id="edge1" class="edge"><title>Node18&#45;&gt;Node19</title>
<path fill="none" stroke="midnightblue" d="M181.835,-226.026C203.299,-231.437 226.035,-237.168 247.033,-242.462"/>
<polygon fill="midnightblue" stroke="midnightblue" points="182.625,-222.615 172.073,-223.565 180.914,-229.403 182.625,-222.615"/>
</g>
<!-- Node20 -->
<g id="node3" class="node"><title>Node20</title>
<g id="a_node3"><a xlink:href="classSeeSawN_1_1ApplicationN_1_1InterfaceTwoStageRANSACC.html#a7e85422f8b1d8be4f0e488558d0cd5d2" target="_top" xlink:title="Augments the tree with the parameters for RANSACGeometryEstimationProblemC. ">
<polygon fill="white" stroke="black" points="242.5,-182.5 242.5,-223.5 416.5,-223.5 416.5,-182.5 242.5,-182.5"/>
<text text-anchor="start" x="250.5" y="-211.5" font-family="FreeSans" font-size="10.00">SeeSawN::ApplicationN</text>
<text text-anchor="start" x="250.5" y="-200.5" font-family="FreeSans" font-size="10.00">::InterfaceTwoStageRANSACC</text>
<text text-anchor="middle" x="329.5" y="-189.5" font-family="FreeSans" font-size="10.00">::InsertGeometryProblemParameters</text>
</a>
</g>
</g>
<!-- Node18&#45;&gt;Node20 -->
<g id="edge2" class="edge"><title>Node18&#45;&gt;Node20</title>
<path fill="none" stroke="midnightblue" d="M189.363,-203C206.895,-203 225.027,-203 242.177,-203"/>
<polygon fill="midnightblue" stroke="midnightblue" points="189.122,-199.5 179.122,-203 189.122,-206.5 189.122,-199.5"/>
</g>
<!-- Node32 -->
<g id="node15" class="node"><title>Node32</title>
<g id="a_node15"><a xlink:href="classSeeSawN_1_1ApplicationN_1_1InterfaceImageFeatureTrackingPipelineC.html#a893ec7ea11e98e77751cf4bf60236a57" target="_top" xlink:title="Makes a property tree from a parameter object. ">
<polygon fill="white" stroke="black" points="251,-122.5 251,-163.5 408,-163.5 408,-122.5 251,-122.5"/>
<text text-anchor="start" x="259" y="-151.5" font-family="FreeSans" font-size="10.00">SeeSawN::ApplicationN</text>
<text text-anchor="start" x="259" y="-140.5" font-family="FreeSans" font-size="10.00">::InterfaceImageFeatureTracking</text>
<text text-anchor="middle" x="329.5" y="-129.5" font-family="FreeSans" font-size="10.00">PipelineC::MakeParameterTree</text>
</a>
</g>
</g>
<!-- Node18&#45;&gt;Node32 -->
<g id="edge17" class="edge"><title>Node18&#45;&gt;Node32</title>
<path fill="none" stroke="midnightblue" d="M182.023,-179.927C204.67,-174.218 228.722,-168.154 250.648,-162.627"/>
<polygon fill="midnightblue" stroke="midnightblue" points="180.914,-176.597 172.073,-182.435 182.625,-183.385 180.914,-176.597"/>
</g>
<!-- Node21 -->
<g id="node4" class="node"><title>Node21</title>
<g id="a_node4"><a xlink:href="classSeeSawN_1_1AppGeometryEstimator32N_1_1GeometryEstimator32ImplementationC.html#aa0fbd5fa0ff7ccfcb56cb85d5c893efb" target="_top" xlink:title="Generates a configuration file with default parameters. ">
<polygon fill="white" stroke="black" points="480,-376.5 480,-417.5 669,-417.5 669,-376.5 480,-376.5"/>
<text text-anchor="start" x="488" y="-405.5" font-family="FreeSans" font-size="10.00">SeeSawN::AppGeometryEstimator32</text>
<text text-anchor="start" x="488" y="-394.5" font-family="FreeSans" font-size="10.00">N::GeometryEstimator32Implementation</text>
<text text-anchor="middle" x="574.5" y="-383.5" font-family="FreeSans" font-size="10.00">C::GenerateConfigFile</text>
</a>
</g>
</g>
<!-- Node20&#45;&gt;Node21 -->
<g id="edge3" class="edge"><title>Node20&#45;&gt;Node21</title>
<path fill="none" stroke="midnightblue" d="M425.959,-219.682C432.56,-223.321 438.688,-227.71 444,-233 487.694,-276.517 437.454,-322.36 480,-367 483.293,-370.455 486.985,-373.514 490.948,-376.221"/>
<polygon fill="midnightblue" stroke="midnightblue" points="427.221,-216.404 416.698,-215.173 424.157,-222.698 427.221,-216.404"/>
</g>
<!-- Node22 -->
<g id="node5" class="node"><title>Node22</title>
<g id="a_node5"><a xlink:href="classSeeSawN_1_1ApplicationN_1_1InterfaceCalibrationVerificationPipelineC.html#acb9e492cd114d3cb39a5bf5618322fc7" target="_top" xlink:title="Makes a property tree from a parameter object. ">
<polygon fill="white" stroke="black" points="498,-316.5 498,-357.5 651,-357.5 651,-316.5 498,-316.5"/>
<text text-anchor="start" x="506" y="-345.5" font-family="FreeSans" font-size="10.00">SeeSawN::ApplicationN</text>
<text text-anchor="start" x="506" y="-334.5" font-family="FreeSans" font-size="10.00">::InterfaceCalibrationVerification</text>
<text text-anchor="middle" x="574.5" y="-323.5" font-family="FreeSans" font-size="10.00">PipelineC::MakeParameterTree</text>
</a>
</g>
</g>
<!-- Node20&#45;&gt;Node22 -->
<g id="edge4" class="edge"><title>Node20&#45;&gt;Node22</title>
<path fill="none" stroke="midnightblue" d="M425.671,-221.227C432.223,-224.527 438.426,-228.416 444,-233 472.249,-256.23 452.365,-283.042 480,-307 485.281,-311.579 491.269,-315.46 497.602,-318.75"/>
<polygon fill="midnightblue" stroke="midnightblue" points="427.1,-218.032 416.548,-217.083 424.205,-224.405 427.1,-218.032"/>
</g>
<!-- Node24 -->
<g id="node7" class="node"><title>Node24</title>
<g id="a_node7"><a xlink:href="classSeeSawN_1_1ApplicationN_1_1InterfaceNodalCameraTrackingPipelineC.html#a049a7646dc39e30ba89a732839123cb5" target="_top" xlink:title="Makes a property tree from a parameter object. ">
<polygon fill="white" stroke="black" points="496.5,-256.5 496.5,-297.5 652.5,-297.5 652.5,-256.5 496.5,-256.5"/>
<text text-anchor="start" x="504.5" y="-285.5" font-family="FreeSans" font-size="10.00">SeeSawN::ApplicationN</text>
<text text-anchor="start" x="504.5" y="-274.5" font-family="FreeSans" font-size="10.00">::InterfaceNodalCameraTracking</text>
<text text-anchor="middle" x="574.5" y="-263.5" font-family="FreeSans" font-size="10.00">PipelineC::MakeParameterTree</text>
</a>
</g>
</g>
<!-- Node20&#45;&gt;Node24 -->
<g id="edge6" class="edge"><title>Node20&#45;&gt;Node24</title>
<path fill="none" stroke="midnightblue" d="M420.652,-226.219C428.567,-228.442 436.439,-230.719 444,-233 467.642,-240.132 493.448,-248.731 515.757,-256.428"/>
<polygon fill="midnightblue" stroke="midnightblue" points="421.564,-222.84 410.992,-223.538 419.692,-229.585 421.564,-222.84"/>
</g>
<!-- Node26 -->
<g id="node9" class="node"><title>Node26</title>
<g id="a_node9"><a xlink:href="classSeeSawN_1_1ApplicationN_1_1InterfacePfMPipelineC.html#a87fe7e3fd13d810f533783a0ecc4f434" target="_top" xlink:title="Makes a property tree from a parameter object. ">
<polygon fill="white" stroke="black" points="747.5,-183.5 747.5,-224.5 868.5,-224.5 868.5,-183.5 747.5,-183.5"/>
<text text-anchor="start" x="755.5" y="-212.5" font-family="FreeSans" font-size="10.00">SeeSawN::ApplicationN</text>
<text text-anchor="start" x="755.5" y="-201.5" font-family="FreeSans" font-size="10.00">::InterfacePfMPipelineC</text>
<text text-anchor="middle" x="808" y="-190.5" font-family="FreeSans" font-size="10.00">::MakeParameterTree</text>
</a>
</g>
</g>
<!-- Node20&#45;&gt;Node26 -->
<g id="edge8" class="edge"><title>Node20&#45;&gt;Node26</title>
<path fill="none" stroke="midnightblue" d="M426.957,-207.44C444.599,-208.09 462.849,-208.656 480,-209 563.983,-210.685 585.014,-210.521 669,-209 694.648,-208.536 722.964,-207.586 747.237,-206.638"/>
<polygon fill="midnightblue" stroke="midnightblue" points="426.778,-203.931 416.653,-207.048 426.512,-210.926 426.778,-203.931"/>
</g>
<!-- Node28 -->
<g id="node11" class="node"><title>Node28</title>
<g id="a_node11"><a xlink:href="classSeeSawN_1_1ApplicationN_1_1InterfacePoseGraphPipelineC.html#a48dd6d926e074f594cdf648d6e7bea8a" target="_top" xlink:title="Makes a property tree from a parameter object. ">
<polygon fill="white" stroke="black" points="503,-0.5 503,-41.5 646,-41.5 646,-0.5 503,-0.5"/>
<text text-anchor="start" x="511" y="-29.5" font-family="FreeSans" font-size="10.00">SeeSawN::ApplicationN</text>
<text text-anchor="start" x="511" y="-18.5" font-family="FreeSans" font-size="10.00">::InterfacePoseGraphPipeline</text>
<text text-anchor="middle" x="574.5" y="-7.5" font-family="FreeSans" font-size="10.00">C::MakeParameterTree</text>
</a>
</g>
</g>
<!-- Node20&#45;&gt;Node28 -->
<g id="edge10" class="edge"><title>Node20&#45;&gt;Node28</title>
<path fill="none" stroke="midnightblue" d="M425.818,-186.174C432.45,-182.567 438.624,-178.225 444,-173 484.541,-133.599 440.498,-91.443 480,-51 486.432,-44.4144 494.311,-39.2722 502.74,-35.2576"/>
<polygon fill="midnightblue" stroke="midnightblue" points="424.015,-183.157 416.522,-190.648 427.051,-189.464 424.015,-183.157"/>
</g>
<!-- Node29 -->
<g id="node12" class="node"><title>Node29</title>
<g id="a_node12"><a xlink:href="classSeeSawN_1_1ApplicationN_1_1InterfaceSfMPipelineC.html#ab29100e83d78ae13ec578dd7cd246a34" target="_top" xlink:title="Makes a property tree from a parameter object. ">
<polygon fill="white" stroke="black" points="747.5,-109.5 747.5,-150.5 868.5,-150.5 868.5,-109.5 747.5,-109.5"/>
<text text-anchor="start" x="755.5" y="-138.5" font-family="FreeSans" font-size="10.00">SeeSawN::ApplicationN</text>
<text text-anchor="start" x="755.5" y="-127.5" font-family="FreeSans" font-size="10.00">::InterfaceSfMPipelineC</text>
<text text-anchor="middle" x="808" y="-116.5" font-family="FreeSans" font-size="10.00">::MakeParameterTree</text>
</a>
</g>
</g>
<!-- Node20&#45;&gt;Node29 -->
<g id="edge13" class="edge"><title>Node20&#45;&gt;Node29</title>
<path fill="none" stroke="midnightblue" d="M426.348,-180.122C432.398,-177.926 438.329,-175.554 444,-173 461.533,-165.103 461.765,-155.104 480,-149 569.516,-119.035 680.435,-119.942 747.361,-124.283"/>
<polygon fill="midnightblue" stroke="midnightblue" points="425.075,-176.859 416.765,-183.43 427.359,-183.476 425.075,-176.859"/>
</g>
<!-- Node30 -->
<g id="node13" class="node"><title>Node30</title>
<g id="a_node13"><a xlink:href="classSeeSawN_1_1ApplicationN_1_1InterfaceRoamingCameraTrackingPipelineC.html#a4f7dbefda126369cf97a76d818d9463c" target="_top" xlink:title="Makes a property tree from a parameter object. ">
<polygon fill="white" stroke="black" points="490,-60.5 490,-101.5 659,-101.5 659,-60.5 490,-60.5"/>
<text text-anchor="start" x="498" y="-89.5" font-family="FreeSans" font-size="10.00">SeeSawN::ApplicationN</text>
<text text-anchor="start" x="498" y="-78.5" font-family="FreeSans" font-size="10.00">::InterfaceRoamingCameraTracking</text>
<text text-anchor="middle" x="574.5" y="-67.5" font-family="FreeSans" font-size="10.00">PipelineC::MakeParameterTree</text>
</a>
</g>
</g>
<!-- Node20&#45;&gt;Node30 -->
<g id="edge12" class="edge"><title>Node20&#45;&gt;Node30</title>
<path fill="none" stroke="midnightblue" d="M426.149,-183.585C432.453,-180.554 438.479,-177.05 444,-173 468.159,-155.276 456.755,-134.906 480,-116 486.858,-110.422 494.694,-105.678 502.847,-101.656"/>
<polygon fill="midnightblue" stroke="midnightblue" points="424.503,-180.485 416.741,-187.696 427.306,-186.899 424.503,-180.485"/>
</g>
<!-- Node31 -->
<g id="node14" class="node"><title>Node31</title>
<g id="a_node14"><a xlink:href="classSeeSawN_1_1ApplicationN_1_1InterfaceVisionGraphPipelineC.html#a77a4bbe1e205b28c8b9a5c5df718c73d" target="_top" xlink:title="Makes a property tree from a parameter object. ">
<polygon fill="white" stroke="black" points="501,-158.5 501,-199.5 648,-199.5 648,-158.5 501,-158.5"/>
<text text-anchor="start" x="509" y="-187.5" font-family="FreeSans" font-size="10.00">SeeSawN::ApplicationN</text>
<text text-anchor="start" x="509" y="-176.5" font-family="FreeSans" font-size="10.00">::InterfaceVisionGraphPipeline</text>
<text text-anchor="middle" x="574.5" y="-165.5" font-family="FreeSans" font-size="10.00">C::MakeParameterTree</text>
</a>
</g>
</g>
<!-- Node20&#45;&gt;Node31 -->
<g id="edge14" class="edge"><title>Node20&#45;&gt;Node31</title>
<path fill="none" stroke="midnightblue" d="M426.64,-193.505C451.366,-191.063 477.559,-188.476 500.871,-186.173"/>
<polygon fill="midnightblue" stroke="midnightblue" points="426.122,-190.039 416.515,-194.505 426.81,-197.005 426.122,-190.039"/>
</g>
<!-- Node23 -->
<g id="node6" class="node"><title>Node23</title>
<g id="a_node6"><a xlink:href="classSeeSawN_1_1AppCalibrationVerificationN_1_1AppCalibrationVerificationImplementationC.html#a9b3b802aaebc7837d6c76b2b7a8210f3" target="_top" xlink:title="Generates a configuration file with default parameters. ">
<polygon fill="white" stroke="black" points="705,-316.5 705,-357.5 911,-357.5 911,-316.5 705,-316.5"/>
<text text-anchor="start" x="713" y="-345.5" font-family="FreeSans" font-size="10.00">SeeSawN::AppCalibrationVerification</text>
<text text-anchor="start" x="713" y="-334.5" font-family="FreeSans" font-size="10.00">N::AppCalibrationVerificationImplementation</text>
<text text-anchor="middle" x="808" y="-323.5" font-family="FreeSans" font-size="10.00">C::GenerateConfigFile</text>
</a>
</g>
</g>
<!-- Node22&#45;&gt;Node23 -->
<g id="edge5" class="edge"><title>Node22&#45;&gt;Node23</title>
<path fill="none" stroke="midnightblue" d="M661.485,-337C675.644,-337 690.44,-337 704.945,-337"/>
<polygon fill="midnightblue" stroke="midnightblue" points="661.302,-333.5 651.302,-337 661.302,-340.5 661.302,-333.5"/>
</g>
<!-- Node25 -->
<g id="node8" class="node"><title>Node25</title>
<g id="a_node8"><a xlink:href="classSeeSawN_1_1AppNodalCameraTrackerN_1_1AppNodalCameraTrackerImplementationC.html#abbef3c47979b53cd72c700865c3f37c6" target="_top" xlink:title="Generates a configuration file with default parameters. ">
<polygon fill="white" stroke="black" points="705.5,-256.5 705.5,-297.5 910.5,-297.5 910.5,-256.5 705.5,-256.5"/>
<text text-anchor="start" x="713.5" y="-285.5" font-family="FreeSans" font-size="10.00">SeeSawN::AppNodalCameraTracker</text>
<text text-anchor="start" x="713.5" y="-274.5" font-family="FreeSans" font-size="10.00">N::AppNodalCameraTrackerImplementation</text>
<text text-anchor="middle" x="808" y="-263.5" font-family="FreeSans" font-size="10.00">C::GenerateConfigFile</text>
</a>
</g>
</g>
<!-- Node24&#45;&gt;Node25 -->
<g id="edge7" class="edge"><title>Node24&#45;&gt;Node25</title>
<path fill="none" stroke="midnightblue" d="M662.984,-277C676.744,-277 691.073,-277 705.124,-277"/>
<polygon fill="midnightblue" stroke="midnightblue" points="662.586,-273.5 652.586,-277 662.586,-280.5 662.586,-273.5"/>
</g>
<!-- Node27 -->
<g id="node10" class="node"><title>Node27</title>
<g id="a_node10"><a xlink:href="classSeeSawN_1_1AppPfMN_1_1AppPfMImplementationC.html#a5b65baefa5bbca910559afaec46d6170" target="_top" xlink:title="Generates a configuration file with default parameters. ">
<polygon fill="white" stroke="black" points="947,-189 947,-219 1162,-219 1162,-189 947,-189"/>
<text text-anchor="start" x="955" y="-207" font-family="FreeSans" font-size="10.00">SeeSawN::AppPfMN::AppPfMImplementation</text>
<text text-anchor="middle" x="1054.5" y="-196" font-family="FreeSans" font-size="10.00">C::GenerateConfigFile</text>
</a>
</g>
</g>
<!-- Node26&#45;&gt;Node27 -->
<g id="edge9" class="edge"><title>Node26&#45;&gt;Node27</title>
<path fill="none" stroke="midnightblue" d="M878.947,-204C900.041,-204 923.695,-204 946.617,-204"/>
<polygon fill="midnightblue" stroke="midnightblue" points="878.811,-200.5 868.811,-204 878.811,-207.5 878.811,-200.5"/>
</g>
<!-- Node28&#45;&gt;Node29 -->
<g id="edge11" class="edge"><title>Node28&#45;&gt;Node29</title>
<path fill="none" stroke="midnightblue" d="M654.577,-45.064C659.499,-46.9642 664.342,-48.9467 669,-51 707.017,-67.7593 748.03,-92.1169 775.376,-109.347"/>
<polygon fill="midnightblue" stroke="midnightblue" points="655.635,-41.7233 645.042,-41.5142 653.192,-48.2834 655.635,-41.7233"/>
</g>
<!-- Node31&#45;&gt;Node26 -->
<g id="edge15" class="edge"><title>Node31&#45;&gt;Node26</title>
<path fill="none" stroke="midnightblue" d="M658.381,-187.95C687.815,-191.129 720.34,-194.642 747.441,-197.568"/>
<polygon fill="midnightblue" stroke="midnightblue" points="658.431,-184.436 648.113,-186.842 657.679,-191.395 658.431,-184.436"/>
</g>
<!-- Node31&#45;&gt;Node29 -->
<g id="edge16" class="edge"><title>Node31&#45;&gt;Node29</title>
<path fill="none" stroke="midnightblue" d="M657.996,-161.539C687.531,-155.287 720.222,-148.368 747.441,-142.607"/>
<polygon fill="midnightblue" stroke="midnightblue" points="657.171,-158.136 648.113,-163.631 658.621,-164.984 657.171,-158.136"/>
</g>
</g>
</svg>
