<?xml version="1.0" encoding="UTF-8" standalone="no"?>
<!DOCTYPE svg PUBLIC "-//W3C//DTD SVG 1.1//EN"
 "http://www.w3.org/Graphics/SVG/1.1/DTD/svg11.dtd">
<!-- Generated by graphviz version 2.38.0 (20140413.2041)
 -->
<!-- Title: SeeSawN::StateEstimationN::ViterbiRelativeSynchronisationProblemC::Clear Pages: 1 -->
<svg width="401pt" height="61pt"
 viewBox="0.00 0.00 401.00 61.00" xmlns="http://www.w3.org/2000/svg" xmlns:xlink="http://www.w3.org/1999/xlink">
<g id="graph0" class="graph" transform="scale(1 1) rotate(0) translate(4 57)">
<title>SeeSawN::StateEstimationN::ViterbiRelativeSynchronisationProblemC::Clear</title>
<polygon fill="white" stroke="none" points="-4,4 -4,-57 397,-57 397,4 -4,4"/>
<!-- Node7 -->
<g id="node1" class="node"><title>Node7</title>
<polygon fill="#bfbfbf" stroke="black" points="0,-6 0,-47 161,-47 161,-6 0,-6"/>
<text text-anchor="start" x="8" y="-35" font-family="FreeSans" font-size="10.00">SeeSawN::StateEstimation</text>
<text text-anchor="start" x="8" y="-24" font-family="FreeSans" font-size="10.00">N::ViterbiRelativeSynchronisation</text>
<text text-anchor="middle" x="80.5" y="-13" font-family="FreeSans" font-size="10.00">ProblemC::Clear</text>
</g>
<!-- Node8 -->
<g id="node2" class="node"><title>Node8</title>
<g id="a_node2"><a xlink:href="classSeeSawN_1_1StateEstimationN_1_1ViterbiRelativeSynchronisationProblemC.html#a98e691f06ed2f938c1c4cd5b66c140a3" target="_top" xlink:title="Default constructor. ">
<polygon fill="white" stroke="black" points="197,-0.5 197,-52.5 393,-52.5 393,-0.5 197,-0.5"/>
<text text-anchor="start" x="205" y="-40.5" font-family="FreeSans" font-size="10.00">SeeSawN::StateEstimation</text>
<text text-anchor="start" x="205" y="-29.5" font-family="FreeSans" font-size="10.00">N::ViterbiRelativeSynchronisation</text>
<text text-anchor="start" x="205" y="-18.5" font-family="FreeSans" font-size="10.00">ProblemC::ViterbiRelativeSynchronisation</text>
<text text-anchor="middle" x="295" y="-7.5" font-family="FreeSans" font-size="10.00">ProblemC</text>
</a>
</g>
</g>
<!-- Node7&#45;&gt;Node8 -->
<g id="edge1" class="edge"><title>Node7&#45;&gt;Node8</title>
<path fill="none" stroke="midnightblue" d="M161.232,-26.5C169.612,-26.5 178.227,-26.5 186.85,-26.5"/>
<polygon fill="midnightblue" stroke="midnightblue" points="186.963,-30.0001 196.963,-26.5 186.963,-23.0001 186.963,-30.0001"/>
</g>
</g>
</svg>
