<?xml version="1.0" encoding="UTF-8" standalone="no"?>
<!DOCTYPE svg PUBLIC "-//W3C//DTD SVG 1.1//EN"
 "http://www.w3.org/Graphics/SVG/1.1/DTD/svg11.dtd">
<!-- Generated by graphviz version 2.38.0 (20140413.2041)
 -->
<!-- Title: SeeSawN::MatcherN::CorrespondenceFusionC::Run Pages: 1 -->
<svg width="767pt" height="274pt"
 viewBox="0.00 0.00 767.00 273.50" xmlns="http://www.w3.org/2000/svg" xmlns:xlink="http://www.w3.org/1999/xlink">
<g id="graph0" class="graph" transform="scale(1 1) rotate(0) translate(4 269.5)">
<title>SeeSawN::MatcherN::CorrespondenceFusionC::Run</title>
<polygon fill="white" stroke="none" points="-4,4 -4,-269.5 763,-269.5 763,4 -4,4"/>
<!-- Node53 -->
<g id="node1" class="node"><title>Node53</title>
<polygon fill="#bfbfbf" stroke="black" points="0,-109.5 0,-139.5 145,-139.5 145,-109.5 0,-109.5"/>
<text text-anchor="start" x="8" y="-127.5" font-family="FreeSans" font-size="10.00">SeeSawN::MatcherN::</text>
<text text-anchor="middle" x="72.5" y="-116.5" font-family="FreeSans" font-size="10.00">CorrespondenceFusionC::Run</text>
</g>
<!-- Node54 -->
<g id="node2" class="node"><title>Node54</title>
<g id="a_node2"><a xlink:href="classSeeSawN_1_1MatcherN_1_1CorrespondenceFusionC.html#a373065dd3a67baadd0608691d0e085da" target="_top" xlink:title="Builds the clusters. ">
<polygon fill="white" stroke="black" points="189.5,-224 189.5,-265 312.5,-265 312.5,-224 189.5,-224"/>
<text text-anchor="start" x="197.5" y="-253" font-family="FreeSans" font-size="10.00">SeeSawN::MatcherN::</text>
<text text-anchor="start" x="197.5" y="-242" font-family="FreeSans" font-size="10.00">CorrespondenceFusionC</text>
<text text-anchor="middle" x="251" y="-231" font-family="FreeSans" font-size="10.00">::BuildClusters</text>
</a>
</g>
</g>
<!-- Node53&#45;&gt;Node54 -->
<g id="edge1" class="edge"><title>Node53&#45;&gt;Node54</title>
<path fill="none" stroke="midnightblue" d="M88.7771,-139.766C108.68,-159.044 145.18,-192.362 181,-214.5 183.637,-216.13 186.379,-217.715 189.182,-219.251"/>
<polygon fill="midnightblue" stroke="midnightblue" points="187.807,-222.48 198.296,-223.977 191.029,-216.266 187.807,-222.48"/>
</g>
<!-- Node55 -->
<g id="node3" class="node"><title>Node55</title>
<g id="a_node3"><a xlink:href="classSeeSawN_1_1MatcherN_1_1CorrespondenceFusionC.html#a121e51829a81d3b4df775ae2f74bbf55" target="_top" xlink:title="Builds the correspondence graph. ">
<polygon fill="white" stroke="black" points="181,-164 181,-205 321,-205 321,-164 181,-164"/>
<text text-anchor="start" x="189" y="-193" font-family="FreeSans" font-size="10.00">SeeSawN::MatcherN::</text>
<text text-anchor="start" x="189" y="-182" font-family="FreeSans" font-size="10.00">CorrespondenceFusionC</text>
<text text-anchor="middle" x="251" y="-171" font-family="FreeSans" font-size="10.00">::BuildCorrespondenceGraph</text>
</a>
</g>
</g>
<!-- Node53&#45;&gt;Node55 -->
<g id="edge2" class="edge"><title>Node53&#45;&gt;Node55</title>
<path fill="none" stroke="midnightblue" d="M118.038,-139.641C136.813,-146.023 159.119,-153.606 179.999,-160.704"/>
<polygon fill="midnightblue" stroke="midnightblue" points="178.88,-164.02 189.475,-163.925 181.133,-157.392 178.88,-164.02"/>
</g>
<!-- Node56 -->
<g id="node4" class="node"><title>Node56</title>
<g id="a_node4"><a xlink:href="classSeeSawN_1_1MatcherN_1_1CorrespondenceFusionC.html#a3685c43e806ddb591a4060cda10fdd79" target="_top" xlink:title="Builds the filtered correspondence lists. ">
<polygon fill="white" stroke="black" points="183.5,-104 183.5,-145 318.5,-145 318.5,-104 183.5,-104"/>
<text text-anchor="start" x="191.5" y="-133" font-family="FreeSans" font-size="10.00">SeeSawN::MatcherN::</text>
<text text-anchor="start" x="191.5" y="-122" font-family="FreeSans" font-size="10.00">CorrespondenceFusionC</text>
<text text-anchor="middle" x="251" y="-111" font-family="FreeSans" font-size="10.00">::BuildCorrespondenceLists</text>
</a>
</g>
</g>
<!-- Node53&#45;&gt;Node56 -->
<g id="edge3" class="edge"><title>Node53&#45;&gt;Node56</title>
<path fill="none" stroke="midnightblue" d="M145.035,-124.5C154.368,-124.5 163.96,-124.5 173.373,-124.5"/>
<polygon fill="midnightblue" stroke="midnightblue" points="173.495,-128 183.495,-124.5 173.495,-121 173.495,-128"/>
</g>
<!-- Node57 -->
<g id="node5" class="node"><title>Node57</title>
<g id="a_node5"><a xlink:href="classSeeSawN_1_1MatcherN_1_1CorrespondenceFusionC.html#aa107c5243771b9b1fb0ebfba94a44a96" target="_top" xlink:title="Filters the clusters. ">
<polygon fill="white" stroke="black" points="189.5,-44 189.5,-85 312.5,-85 312.5,-44 189.5,-44"/>
<text text-anchor="start" x="197.5" y="-73" font-family="FreeSans" font-size="10.00">SeeSawN::MatcherN::</text>
<text text-anchor="start" x="197.5" y="-62" font-family="FreeSans" font-size="10.00">CorrespondenceFusionC</text>
<text text-anchor="middle" x="251" y="-51" font-family="FreeSans" font-size="10.00">::FilterClusters</text>
</a>
</g>
</g>
<!-- Node53&#45;&gt;Node57 -->
<g id="edge4" class="edge"><title>Node53&#45;&gt;Node57</title>
<path fill="none" stroke="midnightblue" d="M118.038,-109.359C136.813,-102.977 159.119,-95.3945 179.999,-88.2963"/>
<polygon fill="midnightblue" stroke="midnightblue" points="181.133,-91.6075 189.475,-85.0751 178.88,-84.98 181.133,-91.6075"/>
</g>
<!-- Node58 -->
<g id="node6" class="node"><title>Node58</title>
<g id="a_node6"><a xlink:href="namespaceboost.html#ab33d5e778d97f2702d840c5a8e28f5da" target="_top" xlink:title="boost::swap">
<polygon fill="white" stroke="black" points="217,-6 217,-25 285,-25 285,-6 217,-6"/>
<text text-anchor="middle" x="251" y="-13" font-family="FreeSans" font-size="10.00">boost::swap</text>
</a>
</g>
</g>
<!-- Node53&#45;&gt;Node58 -->
<g id="edge5" class="edge"><title>Node53&#45;&gt;Node58</title>
<path fill="none" stroke="midnightblue" d="M87.3172,-109.453C106.476,-89.4709 143.059,-54.3909 181,-34.5 189.075,-30.2664 198.191,-26.8988 207.086,-24.2485"/>
<polygon fill="midnightblue" stroke="midnightblue" points="208.243,-27.561 216.969,-21.5531 206.401,-20.8077 208.243,-27.561"/>
</g>
<!-- Node59 -->
<g id="node7" class="node"><title>Node59</title>
<g id="a_node7"><a xlink:href="classboost_1_1dynamic__bitset.html#aeed52d861439697261690e501cb5ae8b" target="_top" xlink:title="boost::dynamic_bitset\l::swap">
<polygon fill="white" stroke="black" points="357,-0.5 357,-30.5 467,-30.5 467,-0.5 357,-0.5"/>
<text text-anchor="start" x="365" y="-18.5" font-family="FreeSans" font-size="10.00">boost::dynamic_bitset</text>
<text text-anchor="middle" x="412" y="-7.5" font-family="FreeSans" font-size="10.00">::swap</text>
</a>
</g>
</g>
<!-- Node58&#45;&gt;Node59 -->
<g id="edge6" class="edge"><title>Node58&#45;&gt;Node59</title>
<path fill="none" stroke="midnightblue" d="M285.332,-9.88554C303.096,-8.89387 325.567,-8.55172 346.579,-8.85909"/>
<polygon fill="midnightblue" stroke="midnightblue" points="346.681,-12.3617 356.749,-9.06216 346.821,-5.36314 346.681,-12.3617"/>
</g>
<!-- Node59&#45;&gt;Node58 -->
<g id="edge9" class="edge"><title>Node59&#45;&gt;Node58</title>
<path fill="none" stroke="midnightblue" d="M356.749,-21.9378C336.75,-22.4483 314.372,-22.3327 295.451,-21.591"/>
<polygon fill="midnightblue" stroke="midnightblue" points="295.485,-18.0888 285.332,-21.1145 295.156,-25.081 295.485,-18.0888"/>
</g>
<!-- Node60 -->
<g id="node8" class="node"><title>Node60</title>
<g id="a_node8"><a xlink:href="classboost_1_1dynamic__bitset.html#a8e3c3db2aa0fd4f45aaae2b6b7d96ef1" target="_top" xlink:title="boost::dynamic_bitset\l::operator=">
<polygon fill="white" stroke="black" points="503,-0.5 503,-30.5 613,-30.5 613,-0.5 503,-0.5"/>
<text text-anchor="start" x="511" y="-18.5" font-family="FreeSans" font-size="10.00">boost::dynamic_bitset</text>
<text text-anchor="middle" x="558" y="-7.5" font-family="FreeSans" font-size="10.00">::operator=</text>
</a>
</g>
</g>
<!-- Node59&#45;&gt;Node60 -->
<g id="edge7" class="edge"><title>Node59&#45;&gt;Node60</title>
<path fill="none" stroke="midnightblue" d="M467.03,-15.5C475.314,-15.5 483.936,-15.5 492.42,-15.5"/>
<polygon fill="midnightblue" stroke="midnightblue" points="492.667,-19.0001 502.667,-15.5 492.667,-12.0001 492.667,-19.0001"/>
</g>
<!-- Node61 -->
<g id="node9" class="node"><title>Node61</title>
<g id="a_node9"><a xlink:href="classboost_1_1dynamic__bitset.html#a54b534f528507c51a4b4270825956ec0" target="_top" xlink:title="boost::dynamic_bitset\l::dynamic_bitset">
<polygon fill="white" stroke="black" points="649,-0.5 649,-30.5 759,-30.5 759,-0.5 649,-0.5"/>
<text text-anchor="start" x="657" y="-18.5" font-family="FreeSans" font-size="10.00">boost::dynamic_bitset</text>
<text text-anchor="middle" x="704" y="-7.5" font-family="FreeSans" font-size="10.00">::dynamic_bitset</text>
</a>
</g>
</g>
<!-- Node60&#45;&gt;Node61 -->
<g id="edge8" class="edge"><title>Node60&#45;&gt;Node61</title>
<path fill="none" stroke="midnightblue" d="M613.03,-15.5C621.314,-15.5 629.936,-15.5 638.42,-15.5"/>
<polygon fill="midnightblue" stroke="midnightblue" points="638.667,-19.0001 648.667,-15.5 638.667,-12.0001 638.667,-19.0001"/>
</g>
</g>
</svg>
