<?xml version="1.0" encoding="UTF-8" standalone="no"?>
<!DOCTYPE svg PUBLIC "-//W3C//DTD SVG 1.1//EN"
 "http://www.w3.org/Graphics/SVG/1.1/DTD/svg11.dtd">
<!-- Generated by graphviz version 2.38.0 (20140413.2041)
 -->
<!-- Title: SeeSawN::TrackerN::ImageFeatureTrackingPipelineC::UpdatePredictedHomography Pages: 1 -->
<svg width="748pt" height="88pt"
 viewBox="0.00 0.00 748.00 88.00" xmlns="http://www.w3.org/2000/svg" xmlns:xlink="http://www.w3.org/1999/xlink">
<g id="graph0" class="graph" transform="scale(1 1) rotate(0) translate(4 84)">
<title>SeeSawN::TrackerN::ImageFeatureTrackingPipelineC::UpdatePredictedHomography</title>
<polygon fill="white" stroke="none" points="-4,4 -4,-84 744,-84 744,4 -4,4"/>
<!-- Node67 -->
<g id="node1" class="node"><title>Node67</title>
<polygon fill="#bfbfbf" stroke="black" points="0,-19 0,-60 155,-60 155,-19 0,-19"/>
<text text-anchor="start" x="8" y="-48" font-family="FreeSans" font-size="10.00">SeeSawN::TrackerN::</text>
<text text-anchor="start" x="8" y="-37" font-family="FreeSans" font-size="10.00">ImageFeatureTrackingPipeline</text>
<text text-anchor="middle" x="77.5" y="-26" font-family="FreeSans" font-size="10.00">C::UpdatePredictedHomography</text>
</g>
<!-- Node68 -->
<g id="node2" class="node"><title>Node68</title>
<g id="a_node2"><a xlink:href="classSeeSawN_1_1TrackerN_1_1ImageFeatureTrackingPipelineC.html#a61869be04a9f9b96ab42f47fc639182c" target="_top" xlink:title="Identifies the static features. ">
<polygon fill="white" stroke="black" points="191,-19 191,-60 340,-60 340,-19 191,-19"/>
<text text-anchor="start" x="199" y="-48" font-family="FreeSans" font-size="10.00">SeeSawN::TrackerN::</text>
<text text-anchor="start" x="199" y="-37" font-family="FreeSans" font-size="10.00">ImageFeatureTrackingPipeline</text>
<text text-anchor="middle" x="265.5" y="-26" font-family="FreeSans" font-size="10.00">C::IdentifyStaticFeatures</text>
</a>
</g>
</g>
<!-- Node67&#45;&gt;Node68 -->
<g id="edge1" class="edge"><title>Node67&#45;&gt;Node68</title>
<path fill="none" stroke="midnightblue" d="M165.258,-39.5C173.847,-39.5 182.506,-39.5 190.942,-39.5"/>
<polygon fill="midnightblue" stroke="midnightblue" points="165.227,-36.0001 155.227,-39.5 165.227,-43.0001 165.227,-36.0001"/>
</g>
<!-- Node69 -->
<g id="node3" class="node"><title>Node69</title>
<g id="a_node3"><a xlink:href="classSeeSawN_1_1TrackerN_1_1ImageFeatureTrackingPipelineC.html#a81b1665da5a53c01a6397e8ee2511cc5" target="_top" xlink:title="Updates the tracks with the image measurements. ">
<polygon fill="white" stroke="black" points="376,-19 376,-60 525,-60 525,-19 376,-19"/>
<text text-anchor="start" x="384" y="-48" font-family="FreeSans" font-size="10.00">SeeSawN::TrackerN::</text>
<text text-anchor="start" x="384" y="-37" font-family="FreeSans" font-size="10.00">ImageFeatureTrackingPipeline</text>
<text text-anchor="middle" x="450.5" y="-26" font-family="FreeSans" font-size="10.00">C::Update</text>
</a>
</g>
</g>
<!-- Node68&#45;&gt;Node69 -->
<g id="edge2" class="edge"><title>Node68&#45;&gt;Node69</title>
<path fill="none" stroke="midnightblue" d="M350.387,-39.5C358.838,-39.5 367.376,-39.5 375.711,-39.5"/>
<polygon fill="midnightblue" stroke="midnightblue" points="350.142,-36.0001 340.142,-39.5 350.142,-43.0001 350.142,-36.0001"/>
</g>
<!-- Node70 -->
<g id="node4" class="node"><title>Node70</title>
<g id="a_node4"><a xlink:href="namespaceSeeSawN_1_1TestTrackerN.html#a8c496242273d486ba0d10172c752f78a" target="_top" xlink:title="SeeSawN::TestTrackerN\l::BOOST_AUTO_TEST_SUITE_END">
<polygon fill="white" stroke="black" points="561,-49.5 561,-79.5 740,-79.5 740,-49.5 561,-49.5"/>
<text text-anchor="start" x="569" y="-67.5" font-family="FreeSans" font-size="10.00">SeeSawN::TestTrackerN</text>
<text text-anchor="middle" x="650.5" y="-56.5" font-family="FreeSans" font-size="10.00">::BOOST_AUTO_TEST_SUITE_END</text>
</a>
</g>
</g>
<!-- Node69&#45;&gt;Node70 -->
<g id="edge3" class="edge"><title>Node69&#45;&gt;Node70</title>
<path fill="none" stroke="midnightblue" d="M535.165,-50.0637C543.704,-51.1419 552.399,-52.2397 560.987,-53.3242"/>
<polygon fill="midnightblue" stroke="midnightblue" points="535.588,-46.5894 525.228,-48.8091 534.711,-53.5343 535.588,-46.5894"/>
</g>
<!-- Node71 -->
<g id="node5" class="node"><title>Node71</title>
<g id="a_node5"><a xlink:href="classSeeSawN_1_1AppStalker22N_1_1StalkerImplementationC.html#ae0023fdc93be07e1c48a62e901be391e" target="_top" xlink:title="Runs the application. ">
<polygon fill="white" stroke="black" points="577,-0.5 577,-30.5 724,-30.5 724,-0.5 577,-0.5"/>
<text text-anchor="start" x="585" y="-18.5" font-family="FreeSans" font-size="10.00">SeeSawN::AppStalker22N</text>
<text text-anchor="middle" x="650.5" y="-7.5" font-family="FreeSans" font-size="10.00">::StalkerImplementationC::Run</text>
</a>
</g>
</g>
<!-- Node69&#45;&gt;Node71 -->
<g id="edge4" class="edge"><title>Node69&#45;&gt;Node71</title>
<path fill="none" stroke="midnightblue" d="M535.188,-29.356C548.988,-27.6833 563.194,-25.9614 576.699,-24.3244"/>
<polygon fill="midnightblue" stroke="midnightblue" points="534.734,-25.8853 525.228,-30.5633 535.576,-32.8345 534.734,-25.8853"/>
</g>
</g>
</svg>
