<?xml version="1.0" encoding="UTF-8" standalone="no"?>
<!DOCTYPE svg PUBLIC "-//W3C//DTD SVG 1.1//EN"
 "http://www.w3.org/Graphics/SVG/1.1/DTD/svg11.dtd">
<!-- Generated by graphviz version 2.38.0 (20140413.2041)
 -->
<!-- Title: SeeSawN::GeometryN::P2PfSolverC Pages: 1 -->
<svg width="534pt" height="943pt"
 viewBox="0.00 0.00 533.50 943.00" xmlns="http://www.w3.org/2000/svg" xmlns:xlink="http://www.w3.org/1999/xlink">
<g id="graph0" class="graph" transform="scale(1 1) rotate(0) translate(4 939)">
<title>SeeSawN::GeometryN::P2PfSolverC</title>
<polygon fill="white" stroke="none" points="-4,4 -4,-939 529.5,-939 529.5,4 -4,4"/>
<!-- Node3 -->
<g id="node1" class="node"><title>Node3</title>
<polygon fill="#bfbfbf" stroke="black" points="369.5,-0.5 369.5,-200.5 513.5,-200.5 513.5,-0.5 369.5,-0.5"/>
<text text-anchor="start" x="377.5" y="-188.5" font-family="FreeSans" font-size="10.00">SeeSawN::GeometryN</text>
<text text-anchor="middle" x="441.5" y="-177.5" font-family="FreeSans" font-size="10.00">::P2PfSolverC</text>
<polyline fill="none" stroke="black" points="369.5,-170.5 513.5,-170.5 "/>
<text text-anchor="middle" x="441.5" y="-158.5" font-family="FreeSans" font-size="10.00"> </text>
<polyline fill="none" stroke="black" points="369.5,-151.5 513.5,-151.5 "/>
<text text-anchor="start" x="377.5" y="-139.5" font-family="FreeSans" font-size="10.00">+ MakeMinimal()</text>
<text text-anchor="start" x="377.5" y="-128.5" font-family="FreeSans" font-size="10.00">+ ComputeSampleStatistics()</text>
<text text-anchor="start" x="377.5" y="-117.5" font-family="FreeSans" font-size="10.00">+ operator()()</text>
<text text-anchor="start" x="377.5" y="-106.5" font-family="FreeSans" font-size="10.00">* minimal_model_type</text>
<text text-anchor="start" x="377.5" y="-95.5" font-family="FreeSans" font-size="10.00">* uncertainty_type</text>
<text text-anchor="start" x="377.5" y="-84.5" font-family="FreeSans" font-size="10.00">* operator()()</text>
<text text-anchor="start" x="377.5" y="-73.5" font-family="FreeSans" font-size="10.00">* Cost()</text>
<text text-anchor="start" x="377.5" y="-62.5" font-family="FreeSans" font-size="10.00">* MakeMinimal()</text>
<text text-anchor="start" x="377.5" y="-51.5" font-family="FreeSans" font-size="10.00">* MakeModelFromMinimal()</text>
<text text-anchor="start" x="377.5" y="-40.5" font-family="FreeSans" font-size="10.00">* ComputeSampleStatistics()</text>
<text text-anchor="start" x="377.5" y="-29.5" font-family="FreeSans" font-size="10.00">* ComputeDistance()</text>
<text text-anchor="start" x="377.5" y="-18.5" font-family="FreeSans" font-size="10.00">* MakeVector()</text>
<text text-anchor="start" x="377.5" y="-7.5" font-family="FreeSans" font-size="10.00">* MakeModel()</text>
</g>
<!-- Node4 -->
<g id="node2" class="node"><title>Node4</title>
<g id="a_node2"><a xlink:href="classSeeSawN_1_1GeometryN_1_1GeometrySolverBaseC.html" target="_top" xlink:title="{SeeSawN::GeometryN\l::GeometrySolverBaseC\l\&lt; P2PfSolverC, CameraMatrixT,\l TransferErrorH32DT, 3, 2,\l 2, false, 2, 12, 4 \&gt;\n||+ EvaluateModel()\l+ EvaluateModel()\l* coordinate_type1\l* coordinate_type2\l* model_type\l* real_type\l* error_type\l* constraint_type\l* loss_type\l* distance_type\l* GeneratorSize()\l* IsNonminimal()\land 8 more...\l}">
<polygon fill="white" stroke="black" points="136,-238.5 136,-471.5 291,-471.5 291,-238.5 136,-238.5"/>
<text text-anchor="start" x="144" y="-459.5" font-family="FreeSans" font-size="10.00">SeeSawN::GeometryN</text>
<text text-anchor="start" x="144" y="-448.5" font-family="FreeSans" font-size="10.00">::GeometrySolverBaseC</text>
<text text-anchor="start" x="144" y="-437.5" font-family="FreeSans" font-size="10.00">&lt; P2PfSolverC, CameraMatrixT,</text>
<text text-anchor="start" x="144" y="-426.5" font-family="FreeSans" font-size="10.00"> TransferErrorH32DT, 3, 2,</text>
<text text-anchor="middle" x="213.5" y="-415.5" font-family="FreeSans" font-size="10.00"> 2, false, 2, 12, 4 &gt;</text>
<polyline fill="none" stroke="black" points="136,-408.5 291,-408.5 "/>
<text text-anchor="middle" x="213.5" y="-396.5" font-family="FreeSans" font-size="10.00"> </text>
<polyline fill="none" stroke="black" points="136,-389.5 291,-389.5 "/>
<text text-anchor="start" x="144" y="-377.5" font-family="FreeSans" font-size="10.00">+ EvaluateModel()</text>
<text text-anchor="start" x="144" y="-366.5" font-family="FreeSans" font-size="10.00">+ EvaluateModel()</text>
<text text-anchor="start" x="144" y="-355.5" font-family="FreeSans" font-size="10.00">* coordinate_type1</text>
<text text-anchor="start" x="144" y="-344.5" font-family="FreeSans" font-size="10.00">* coordinate_type2</text>
<text text-anchor="start" x="144" y="-333.5" font-family="FreeSans" font-size="10.00">* model_type</text>
<text text-anchor="start" x="144" y="-322.5" font-family="FreeSans" font-size="10.00">* real_type</text>
<text text-anchor="start" x="144" y="-311.5" font-family="FreeSans" font-size="10.00">* error_type</text>
<text text-anchor="start" x="144" y="-300.5" font-family="FreeSans" font-size="10.00">* constraint_type</text>
<text text-anchor="start" x="144" y="-289.5" font-family="FreeSans" font-size="10.00">* loss_type</text>
<text text-anchor="start" x="144" y="-278.5" font-family="FreeSans" font-size="10.00">* distance_type</text>
<text text-anchor="start" x="144" y="-267.5" font-family="FreeSans" font-size="10.00">* GeneratorSize()</text>
<text text-anchor="start" x="144" y="-256.5" font-family="FreeSans" font-size="10.00">* IsNonminimal()</text>
<text text-anchor="start" x="144" y="-245.5" font-family="FreeSans" font-size="10.00">and 8 more...</text>
</a>
</g>
</g>
<!-- Node4&#45;&gt;Node3 -->
<g id="edge1" class="edge"><title>Node4&#45;&gt;Node3</title>
<path fill="none" stroke="midnightblue" d="M297.889,-260.543C321.315,-234.6 346.533,-206.672 369.2,-181.569"/>
<polygon fill="none" stroke="midnightblue" points="295.113,-258.395 291.009,-268.163 300.308,-263.086 295.113,-258.395"/>
</g>
<!-- Node5 -->
<g id="node3" class="node"><title>Node5</title>
<polygon fill="white" stroke="#bfbfbf" points="0,-646 0,-703 139,-703 139,-646 0,-646"/>
<text text-anchor="middle" x="69.5" y="-691" font-family="FreeSans" font-size="10.00">static constexpr unsigned int</text>
<polyline fill="none" stroke="#bfbfbf" points="0,-684 139,-684 "/>
<text text-anchor="middle" x="69.5" y="-672" font-family="FreeSans" font-size="10.00"> </text>
<polyline fill="none" stroke="#bfbfbf" points="0,-665 139,-665 "/>
<text text-anchor="middle" x="69.5" y="-653" font-family="FreeSans" font-size="10.00"> </text>
</g>
<!-- Node5&#45;&gt;Node4 -->
<g id="edge2" class="edge"><title>Node5&#45;&gt;Node4</title>
<path fill="none" stroke="#404040" d="M70.8019,-645.797C73.4467,-608.72 81.4356,-541.645 105.5,-490 111.823,-476.43 119.808,-463.038 128.563,-450.275"/>
<polygon fill="none" stroke="#404040" points="128.783,-449.966 128.996,-442.758 135.732,-440.183 135.518,-447.391 128.783,-449.966"/>
<text text-anchor="middle" x="133.5" y="-526" font-family="FreeSans" font-size="10.00"> #nDOF</text>
<text text-anchor="middle" x="133.5" y="-515" font-family="FreeSans" font-size="10.00">#nParameter</text>
<text text-anchor="middle" x="133.5" y="-504" font-family="FreeSans" font-size="10.00">#sGenerator</text>
<text text-anchor="middle" x="133.5" y="-493" font-family="FreeSans" font-size="10.00">#nSolution</text>
</g>
<!-- Node6 -->
<g id="node4" class="node"><title>Node6</title>
<g id="a_node4"><a xlink:href="classbool.html" target="_top" xlink:title="{bool\n||}">
<polygon fill="white" stroke="black" points="200,-877.5 200,-934.5 235,-934.5 235,-877.5 200,-877.5"/>
<text text-anchor="middle" x="217.5" y="-922.5" font-family="FreeSans" font-size="10.00">bool</text>
<polyline fill="none" stroke="black" points="200,-915.5 235,-915.5 "/>
<text text-anchor="middle" x="217.5" y="-903.5" font-family="FreeSans" font-size="10.00"> </text>
<polyline fill="none" stroke="black" points="200,-896.5 235,-896.5 "/>
<text text-anchor="middle" x="217.5" y="-884.5" font-family="FreeSans" font-size="10.00"> </text>
</a>
</g>
</g>
<!-- Node6&#45;&gt;Node4 -->
<g id="edge3" class="edge"><title>Node6&#45;&gt;Node4</title>
<path fill="none" stroke="#404040" d="M206.473,-877.106C198.591,-855.604 188.671,-824.923 184.5,-797 168.841,-692.164 178.528,-572.049 190.765,-483.676"/>
<polygon fill="none" stroke="#404040" points="190.779,-483.576 187.663,-477.073 192.467,-471.695 195.583,-478.198 190.779,-483.576"/>
<text text-anchor="middle" x="222" y="-672" font-family="FreeSans" font-size="10.00"> #flagNonminimal</text>
</g>
<!-- Node7 -->
<g id="node5" class="node"><title>Node7</title>
<g id="a_node5"><a xlink:href="classSeeSawN_1_1GeometryN_1_1GeometrySolverBaseC.html" target="_top" xlink:title="Base class for geometry solvers. ">
<polygon fill="white" stroke="black" points="269,-552.5 269,-796.5 452,-796.5 452,-552.5 269,-552.5"/>
<text text-anchor="start" x="277" y="-784.5" font-family="FreeSans" font-size="10.00">SeeSawN::GeometryN</text>
<text text-anchor="start" x="277" y="-773.5" font-family="FreeSans" font-size="10.00">::GeometrySolverBaseC</text>
<text text-anchor="start" x="277" y="-762.5" font-family="FreeSans" font-size="10.00">&lt; DerivedT, ModelT, ErrorT,</text>
<text text-anchor="start" x="277" y="-751.5" font-family="FreeSans" font-size="10.00"> DIM1, DIM2, GENERATOR_SIZE,</text>
<text text-anchor="start" x="277" y="-740.5" font-family="FreeSans" font-size="10.00"> FLAG_NONMINIMAL, NSOLUTION,</text>
<text text-anchor="middle" x="360.5" y="-729.5" font-family="FreeSans" font-size="10.00"> NPARAMETER, NDOF &gt;</text>
<polyline fill="none" stroke="black" points="269,-722.5 452,-722.5 "/>
<text text-anchor="middle" x="360.5" y="-710.5" font-family="FreeSans" font-size="10.00"> </text>
<polyline fill="none" stroke="black" points="269,-703.5 452,-703.5 "/>
<text text-anchor="start" x="277" y="-691.5" font-family="FreeSans" font-size="10.00">+ EvaluateModel()</text>
<text text-anchor="start" x="277" y="-680.5" font-family="FreeSans" font-size="10.00">+ EvaluateModel()</text>
<text text-anchor="start" x="277" y="-669.5" font-family="FreeSans" font-size="10.00">* coordinate_type1</text>
<text text-anchor="start" x="277" y="-658.5" font-family="FreeSans" font-size="10.00">* coordinate_type2</text>
<text text-anchor="start" x="277" y="-647.5" font-family="FreeSans" font-size="10.00">* model_type</text>
<text text-anchor="start" x="277" y="-636.5" font-family="FreeSans" font-size="10.00">* real_type</text>
<text text-anchor="start" x="277" y="-625.5" font-family="FreeSans" font-size="10.00">* error_type</text>
<text text-anchor="start" x="277" y="-614.5" font-family="FreeSans" font-size="10.00">* constraint_type</text>
<text text-anchor="start" x="277" y="-603.5" font-family="FreeSans" font-size="10.00">* loss_type</text>
<text text-anchor="start" x="277" y="-592.5" font-family="FreeSans" font-size="10.00">* distance_type</text>
<text text-anchor="start" x="277" y="-581.5" font-family="FreeSans" font-size="10.00">* GeneratorSize()</text>
<text text-anchor="start" x="277" y="-570.5" font-family="FreeSans" font-size="10.00">* IsNonminimal()</text>
<text text-anchor="start" x="277" y="-559.5" font-family="FreeSans" font-size="10.00">and 8 more...</text>
</a>
</g>
</g>
<!-- Node6&#45;&gt;Node7 -->
<g id="edge6" class="edge"><title>Node6&#45;&gt;Node7</title>
<path fill="none" stroke="#404040" d="M234.749,-877.317C246.145,-859.029 262,-833.582 278.62,-806.909"/>
<polygon fill="none" stroke="#404040" points="278.673,-806.823 278.451,-799.615 285.019,-796.638 285.241,-803.846 278.673,-806.823"/>
<text text-anchor="middle" x="310" y="-834.5" font-family="FreeSans" font-size="10.00"> #flagNonminimal</text>
</g>
<!-- Node7&#45;&gt;Node4 -->
<g id="edge4" class="edge"><title>Node7&#45;&gt;Node4</title>
<path fill="none" stroke="orange" d="M299.968,-542.759C289.041,-519.158 277.719,-494.704 267.009,-471.573"/>
<polygon fill="orange" stroke="orange" points="296.919,-544.504 304.296,-552.108 303.271,-541.563 296.919,-544.504"/>
<text text-anchor="start" x="296.5" y="-520.5" font-family="FreeSans" font-size="10.00"> &lt; P2PfSolverC, CameraMatrix</text>
<text text-anchor="start" x="296.5" y="-509.5" font-family="FreeSans" font-size="10.00">T, TransferErrorH32DT, 3,</text>
<text text-anchor="middle" x="363" y="-498.5" font-family="FreeSans" font-size="10.00"> 2, 2, false, 2, 12, 4 &gt;</text>
</g>
<!-- Node8 -->
<g id="node6" class="node"><title>Node8</title>
<polygon fill="white" stroke="#bfbfbf" points="418,-877.5 418,-934.5 447,-934.5 447,-877.5 418,-877.5"/>
<text text-anchor="middle" x="432.5" y="-922.5" font-family="FreeSans" font-size="10.00">int</text>
<polyline fill="none" stroke="#bfbfbf" points="418,-915.5 447,-915.5 "/>
<text text-anchor="middle" x="432.5" y="-903.5" font-family="FreeSans" font-size="10.00"> </text>
<polyline fill="none" stroke="#bfbfbf" points="418,-896.5 447,-896.5 "/>
<text text-anchor="middle" x="432.5" y="-884.5" font-family="FreeSans" font-size="10.00"> </text>
</g>
<!-- Node8&#45;&gt;Node3 -->
<g id="edge7" class="edge"><title>Node8&#45;&gt;Node3</title>
<path fill="none" stroke="#404040" d="M447.223,-890.251C454.549,-881.854 462.647,-870.696 466.5,-859 472.619,-840.426 466.723,-834.554 466.5,-815 464.069,-601.84 453.621,-353.055 447.025,-212.722"/>
<polygon fill="none" stroke="#404040" points="447.025,-212.718 442.746,-206.914 446.458,-200.731 450.737,-206.536 447.025,-212.718"/>
<text text-anchor="middle" x="493" y="-515" font-family="FreeSans" font-size="10.00"> +iFocalLength</text>
<text text-anchor="middle" x="493" y="-504" font-family="FreeSans" font-size="10.00">+iOrientation</text>
</g>
<!-- Node8&#45;&gt;Node7 -->
<g id="edge5" class="edge"><title>Node8&#45;&gt;Node7</title>
<path fill="none" stroke="#404040" d="M418.185,-877.128C415.434,-871.226 412.722,-864.974 410.5,-859 404.515,-842.907 398.898,-825.781 393.747,-808.705"/>
<polygon fill="none" stroke="#404040" points="393.66,-808.411 388.123,-803.792 390.257,-796.904 395.794,-801.523 393.66,-808.411"/>
<text text-anchor="middle" x="438.5" y="-851" font-family="FreeSans" font-size="10.00"> #nDOF</text>
<text text-anchor="middle" x="438.5" y="-840" font-family="FreeSans" font-size="10.00">#nParameter</text>
<text text-anchor="middle" x="438.5" y="-829" font-family="FreeSans" font-size="10.00">#sGenerator</text>
<text text-anchor="middle" x="438.5" y="-818" font-family="FreeSans" font-size="10.00">#nSolution</text>
</g>
</g>
</svg>
