<?xml version="1.0" encoding="UTF-8" standalone="no"?>
<!DOCTYPE svg PUBLIC "-//W3C//DTD SVG 1.1//EN"
 "http://www.w3.org/Graphics/SVG/1.1/DTD/svg11.dtd">
<!-- Generated by graphviz version 2.38.0 (20140413.2041)
 -->
<!-- Title: SeeSawN::AppIntrinsicsEstimatorN::AppIntrinsicsEstimatorImplementationC::LoadData Pages: 1 -->
<svg width="377pt" height="50pt"
 viewBox="0.00 0.00 377.00 50.00" xmlns="http://www.w3.org/2000/svg" xmlns:xlink="http://www.w3.org/1999/xlink">
<g id="graph0" class="graph" transform="scale(1 1) rotate(0) translate(4 46)">
<title>SeeSawN::AppIntrinsicsEstimatorN::AppIntrinsicsEstimatorImplementationC::LoadData</title>
<polygon fill="white" stroke="none" points="-4,4 -4,-46 373,-46 373,4 -4,4"/>
<!-- Node9 -->
<g id="node1" class="node"><title>Node9</title>
<polygon fill="#bfbfbf" stroke="black" points="0,-0.5 0,-41.5 194,-41.5 194,-0.5 0,-0.5"/>
<text text-anchor="start" x="8" y="-29.5" font-family="FreeSans" font-size="10.00">SeeSawN::AppIntrinsicsEstimator</text>
<text text-anchor="start" x="8" y="-18.5" font-family="FreeSans" font-size="10.00">N::AppIntrinsicsEstimatorImplementation</text>
<text text-anchor="middle" x="97" y="-7.5" font-family="FreeSans" font-size="10.00">C::LoadData</text>
</g>
<!-- Node10 -->
<g id="node2" class="node"><title>Node10</title>
<g id="a_node2"><a xlink:href="classSeeSawN_1_1ION_1_1CameraIOC.html#a99c01490552c2b2cf3a0b82f4cef87ad" target="_top" xlink:title="Reads a camera file. ">
<polygon fill="white" stroke="black" points="230,-6 230,-36 369,-36 369,-6 230,-6"/>
<text text-anchor="start" x="238" y="-24" font-family="FreeSans" font-size="10.00">SeeSawN::ION::CameraIOC</text>
<text text-anchor="middle" x="299.5" y="-13" font-family="FreeSans" font-size="10.00">::ReadCameraFile</text>
</a>
</g>
</g>
<!-- Node9&#45;&gt;Node10 -->
<g id="edge1" class="edge"><title>Node9&#45;&gt;Node10</title>
<path fill="none" stroke="midnightblue" d="M194.139,-21C202.713,-21 211.328,-21 219.731,-21"/>
<polygon fill="midnightblue" stroke="midnightblue" points="219.859,-24.5001 229.859,-21 219.859,-17.5001 219.859,-24.5001"/>
</g>
</g>
</svg>
