<?xml version="1.0" encoding="UTF-8" standalone="no"?>
<!DOCTYPE svg PUBLIC "-//W3C//DTD SVG 1.1//EN"
 "http://www.w3.org/Graphics/SVG/1.1/DTD/svg11.dtd">
<!-- Generated by graphviz version 2.38.0 (20140413.2041)
 -->
<!-- Title: SeeSawN::ApplicationN::InterfaceNodalCameraTrackingPipelineC Pages: 1 -->
<svg width="184pt" height="110pt"
 viewBox="0.00 0.00 184.00 110.00" xmlns="http://www.w3.org/2000/svg" xmlns:xlink="http://www.w3.org/1999/xlink">
<g id="graph0" class="graph" transform="scale(1 1) rotate(0) translate(4 106)">
<title>SeeSawN::ApplicationN::InterfaceNodalCameraTrackingPipelineC</title>
<polygon fill="white" stroke="none" points="-4,4 -4,-106 180,-106 180,4 -4,4"/>
<!-- Node1 -->
<g id="node1" class="node"><title>Node1</title>
<polygon fill="#bfbfbf" stroke="black" points="-1.42109e-14,-0.5 -1.42109e-14,-101.5 176,-101.5 176,-0.5 -1.42109e-14,-0.5"/>
<text text-anchor="start" x="8" y="-89.5" font-family="FreeSans" font-size="10.00">SeeSawN::ApplicationN</text>
<text text-anchor="start" x="8" y="-78.5" font-family="FreeSans" font-size="10.00">::InterfaceNodalCameraTracking</text>
<text text-anchor="middle" x="88" y="-67.5" font-family="FreeSans" font-size="10.00">PipelineC</text>
<polyline fill="none" stroke="black" points="-1.42109e-14,-60.5 176,-60.5 "/>
<text text-anchor="middle" x="88" y="-48.5" font-family="FreeSans" font-size="10.00"> </text>
<polyline fill="none" stroke="black" points="-1.42109e-14,-41.5 176,-41.5 "/>
<text text-anchor="start" x="8" y="-29.5" font-family="FreeSans" font-size="10.00">+ MakeParameterObject()</text>
<text text-anchor="start" x="8" y="-18.5" font-family="FreeSans" font-size="10.00">+ MakeParameterTree()</text>
<text text-anchor="start" x="8" y="-7.5" font-family="FreeSans" font-size="10.00">&#45; PruneGeometryEstimationPipeline()</text>
</g>
</g>
</svg>
