<?xml version="1.0" encoding="UTF-8" standalone="no"?>
<!DOCTYPE svg PUBLIC "-//W3C//DTD SVG 1.1//EN"
 "http://www.w3.org/Graphics/SVG/1.1/DTD/svg11.dtd">
<!-- Generated by graphviz version 2.38.0 (20140413.2041)
 -->
<!-- Title: SeeSawN::ION::ImageFeatureIOC::WriteSampleFile Pages: 1 -->
<svg width="657pt" height="75pt"
 viewBox="0.00 0.00 657.00 75.00" xmlns="http://www.w3.org/2000/svg" xmlns:xlink="http://www.w3.org/1999/xlink">
<g id="graph0" class="graph" transform="scale(1 1) rotate(0) translate(4 71)">
<title>SeeSawN::ION::ImageFeatureIOC::WriteSampleFile</title>
<polygon fill="white" stroke="none" points="-4,4 -4,-71 653,-71 653,4 -4,4"/>
<!-- Node32 -->
<g id="node1" class="node"><title>Node32</title>
<polygon fill="#bfbfbf" stroke="black" points="0,-6 0,-36 148,-36 148,-6 0,-6"/>
<text text-anchor="start" x="8" y="-24" font-family="FreeSans" font-size="10.00">SeeSawN::ION::ImageFeature</text>
<text text-anchor="middle" x="74" y="-13" font-family="FreeSans" font-size="10.00">IOC::WriteSampleFile</text>
</g>
<!-- Node33 -->
<g id="node2" class="node"><title>Node33</title>
<g id="a_node2"><a xlink:href="namespaceSeeSawN_1_1UnitTestsN_1_1TestION.html#aa78afa93b7f0232bdea8ac2b2870a15f" target="_top" xlink:title="SeeSawN::UnitTestsN\l::TestION::BOOST_AUTO\l_TEST_CASE">
<polygon fill="white" stroke="black" points="184,-0.5 184,-41.5 315,-41.5 315,-0.5 184,-0.5"/>
<text text-anchor="start" x="192" y="-29.5" font-family="FreeSans" font-size="10.00">SeeSawN::UnitTestsN</text>
<text text-anchor="start" x="192" y="-18.5" font-family="FreeSans" font-size="10.00">::TestION::BOOST_AUTO</text>
<text text-anchor="middle" x="249.5" y="-7.5" font-family="FreeSans" font-size="10.00">_TEST_CASE</text>
</a>
</g>
</g>
<!-- Node32&#45;&gt;Node33 -->
<g id="edge1" class="edge"><title>Node32&#45;&gt;Node33</title>
<path fill="none" stroke="midnightblue" d="M158.141,-21C166.751,-21 175.407,-21 183.772,-21"/>
<polygon fill="midnightblue" stroke="midnightblue" points="158.077,-17.5001 148.077,-21 158.077,-24.5001 158.077,-17.5001"/>
</g>
<!-- Node34 -->
<g id="node3" class="node"><title>Node34</title>
<g id="a_node3"><a xlink:href="namespaceSeeSawN_1_1UnitTestsN_1_1TestION.html#a2aae24ec621ab1fd2c5eb24ced60d473" target="_top" xlink:title="SeeSawN::UnitTestsN\l::TestION::BOOST_AUTO\l_TEST_SUITE_END">
<polygon fill="white" stroke="black" points="351,-25.5 351,-66.5 482,-66.5 482,-25.5 351,-25.5"/>
<text text-anchor="start" x="359" y="-54.5" font-family="FreeSans" font-size="10.00">SeeSawN::UnitTestsN</text>
<text text-anchor="start" x="359" y="-43.5" font-family="FreeSans" font-size="10.00">::TestION::BOOST_AUTO</text>
<text text-anchor="middle" x="416.5" y="-32.5" font-family="FreeSans" font-size="10.00">_TEST_SUITE_END</text>
</a>
</g>
</g>
<!-- Node33&#45;&gt;Node34 -->
<g id="edge2" class="edge"><title>Node33&#45;&gt;Node34</title>
<path fill="none" stroke="midnightblue" d="M325.239,-32.3241C333.821,-33.6244 342.516,-34.9418 350.948,-36.2194"/>
<polygon fill="midnightblue" stroke="midnightblue" points="325.65,-28.8465 315.239,-30.8089 324.602,-35.7676 325.65,-28.8465"/>
</g>
<!-- Node35 -->
<g id="node4" class="node"><title>Node35</title>
<g id="a_node4"><a xlink:href="namespaceSeeSawN_1_1UnitTestsN_1_1TestION.html#afb727e43f59f1e398de236bcfc53f70e" target="_top" xlink:title="SeeSawN::UnitTestsN\l::TestION::BOOST_AUTO\l_TEST_CASE">
<polygon fill="white" stroke="black" points="518,-0.5 518,-41.5 649,-41.5 649,-0.5 518,-0.5"/>
<text text-anchor="start" x="526" y="-29.5" font-family="FreeSans" font-size="10.00">SeeSawN::UnitTestsN</text>
<text text-anchor="start" x="526" y="-18.5" font-family="FreeSans" font-size="10.00">::TestION::BOOST_AUTO</text>
<text text-anchor="middle" x="583.5" y="-7.5" font-family="FreeSans" font-size="10.00">_TEST_CASE</text>
</a>
</g>
</g>
<!-- Node33&#45;&gt;Node35 -->
<g id="edge4" class="edge"><title>Node33&#45;&gt;Node35</title>
<path fill="none" stroke="midnightblue" d="M325.234,-16.8696C333.919,-16.5118 342.653,-16.2075 351,-16 409.204,-14.553 423.796,-14.553 482,-16 493.614,-16.2887 505.975,-16.7648 517.912,-17.3115"/>
<polygon fill="midnightblue" stroke="midnightblue" points="324.926,-13.3796 315.088,-17.3115 325.23,-20.373 324.926,-13.3796"/>
</g>
<!-- Node34&#45;&gt;Node35 -->
<g id="edge3" class="edge"><title>Node34&#45;&gt;Node35</title>
<path fill="none" stroke="midnightblue" d="M492.239,-34.6759C500.821,-33.3756 509.516,-32.0582 517.948,-30.7806"/>
<polygon fill="midnightblue" stroke="midnightblue" points="491.602,-31.2324 482.239,-36.1911 492.65,-38.1535 491.602,-31.2324"/>
</g>
</g>
</svg>
