<?xml version="1.0" encoding="UTF-8" standalone="no"?>
<!DOCTYPE svg PUBLIC "-//W3C//DTD SVG 1.1//EN"
 "http://www.w3.org/Graphics/SVG/1.1/DTD/svg11.dtd">
<!-- Generated by graphviz version 2.38.0 (20140413.2041)
 -->
<!-- Title: SeeSawN::GeometryN::P4PSolverC Pages: 1 -->
<!--zoomable 1020 -->
<svg id="main" version="1.1" xmlns="http://www.w3.org/2000/svg" xmlns:xlink="http://www.w3.org/1999/xlink" xml:space="preserve" onload="init(evt)">
<style type="text/css"><![CDATA[
.edge:hover path { stroke: red; }
.edge:hover polygon { stroke: red; fill: red; }
]]></style>
<script type="text/javascript"><![CDATA[
var edges = document.getElementsByTagName('g');
if (edges && edges.length) {
  for (var i=0;i<edges.length;i++) {
    if (edges[i].id.substr(0,4)=='edge') {
      edges[i].setAttribute('class','edge');
    }
  }
}
]]></script>
        <defs>
                <circle id="rim" cx="0" cy="0" r="7"/>
                <circle id="rim2" cx="0" cy="0" r="3.5"/>
                <g id="zoomPlus">
                        <use xlink:href="#rim" fill="#404040">
                                <set attributeName="fill" to="#808080" begin="zoomplus.mouseover" end="zoomplus.mouseout"/>
                        </use>
                        <path d="M-4,0h8M0,-4v8" fill="none" stroke="white" stroke-width="1.5" pointer-events="none"/>
                </g>
                <g id="zoomMin">
                        <use xlink:href="#rim" fill="#404040">
                                <set attributeName="fill" to="#808080" begin="zoomminus.mouseover" end="zoomminus.mouseout"/>
                        </use>
                        <path d="M-4,0h8" fill="none" stroke="white" stroke-width="1.5" pointer-events="none"/>
                </g>
                <g id="dirArrow">
                        <path fill="none" stroke="white" stroke-width="1.5" d="M0,-3.0v7 M-2.5,-0.5L0,-3.0L2.5,-0.5"/>
                </g>
               <g id="resetDef">
                       <use xlink:href="#rim2" fill="#404040">
                               <set attributeName="fill" to="#808080" begin="reset.mouseover" end="reset.mouseout"/>
                       </use>
               </g>
        </defs>

<script type="text/javascript">
var viewWidth = 483;
var viewHeight = 1020;
var sectionId = 'dynsection-1';
</script>
<script xlink:href="svgpan.js"/>
<svg id="graph" class="graph">
<g id="viewport">
<title>SeeSawN::GeometryN::P4PSolverC</title>
<polygon fill="white" stroke="none" points="-4,4 -4,-1016 479,-1016 479,4 -4,4"/>
<!-- Node3 -->
<g id="node1" class="node"><title>Node3</title>
<polygon fill="#bfbfbf" stroke="black" points="33.5,-0.5 33.5,-277.5 177.5,-277.5 177.5,-0.5 33.5,-0.5"/>
<text text-anchor="start" x="41.5" y="-265.5" font-family="FreeSans" font-size="10.00">SeeSawN::GeometryN</text>
<text text-anchor="middle" x="105.5" y="-254.5" font-family="FreeSans" font-size="10.00">::P4PSolverC</text>
<polyline fill="none" stroke="black" points="33.5,-247.5 177.5,-247.5 "/>
<text text-anchor="middle" x="105.5" y="-235.5" font-family="FreeSans" font-size="10.00"> </text>
<polyline fill="none" stroke="black" points="33.5,-228.5 177.5,-228.5 "/>
<text text-anchor="start" x="41.5" y="-216.5" font-family="FreeSans" font-size="10.00">+ MakeMinimal()</text>
<text text-anchor="start" x="41.5" y="-205.5" font-family="FreeSans" font-size="10.00">+ ComputeSampleStatistics()</text>
<text text-anchor="start" x="41.5" y="-194.5" font-family="FreeSans" font-size="10.00">+ operator()()</text>
<text text-anchor="start" x="41.5" y="-183.5" font-family="FreeSans" font-size="10.00">+ ComputeDistance()</text>
<text text-anchor="start" x="41.5" y="-172.5" font-family="FreeSans" font-size="10.00">+ MakeVector()</text>
<text text-anchor="start" x="41.5" y="-161.5" font-family="FreeSans" font-size="10.00">+ MakeModel()</text>
<text text-anchor="start" x="41.5" y="-150.5" font-family="FreeSans" font-size="10.00">* ActionMatrixT</text>
<text text-anchor="start" x="41.5" y="-139.5" font-family="FreeSans" font-size="10.00">* BuildActionMatrix()</text>
<text text-anchor="start" x="41.5" y="-128.5" font-family="FreeSans" font-size="10.00">* RunP4PCore()</text>
<text text-anchor="start" x="41.5" y="-117.5" font-family="FreeSans" font-size="10.00">* ComputeLocalCoordinates()</text>
<text text-anchor="start" x="41.5" y="-106.5" font-family="FreeSans" font-size="10.00">* minimal_model_type</text>
<text text-anchor="start" x="41.5" y="-95.5" font-family="FreeSans" font-size="10.00">* uncertainty_type</text>
<text text-anchor="start" x="41.5" y="-84.5" font-family="FreeSans" font-size="10.00">* operator()()</text>
<text text-anchor="start" x="41.5" y="-73.5" font-family="FreeSans" font-size="10.00">* Cost()</text>
<text text-anchor="start" x="41.5" y="-62.5" font-family="FreeSans" font-size="10.00">* MakeMinimal()</text>
<text text-anchor="start" x="41.5" y="-51.5" font-family="FreeSans" font-size="10.00">* MakeModelFromMinimal()</text>
<text text-anchor="start" x="41.5" y="-40.5" font-family="FreeSans" font-size="10.00">* ComputeSampleStatistics()</text>
<text text-anchor="start" x="41.5" y="-29.5" font-family="FreeSans" font-size="10.00">* ComputeDistance()</text>
<text text-anchor="start" x="41.5" y="-18.5" font-family="FreeSans" font-size="10.00">* MakeVector()</text>
<text text-anchor="start" x="41.5" y="-7.5" font-family="FreeSans" font-size="10.00">* MakeModel()</text>
</g>
<!-- Node4 -->
<g id="node2" class="node"><title>Node4</title>
<g id="a_node2"><a xlink:href="classSeeSawN_1_1GeometryN_1_1GeometrySolverBaseC.html" target="_top" xlink:title="{SeeSawN::GeometryN\l::GeometrySolverBaseC\l\&lt; P4PSolverC, CameraMatrixT,\l TransferErrorH32DT, 3, 2,\l 4, false, 10, 12, 7 \&gt;\n||+ EvaluateModel()\l+ EvaluateModel()\l* coordinate_type1\l* coordinate_type2\l* model_type\l* real_type\l* error_type\l* constraint_type\l* loss_type\l* distance_type\l* GeneratorSize()\l* IsNonminimal()\land 8 more...\l}">
<polygon fill="white" stroke="black" points="141.5,-315.5 141.5,-548.5 293.5,-548.5 293.5,-315.5 141.5,-315.5"/>
<text text-anchor="start" x="149.5" y="-536.5" font-family="FreeSans" font-size="10.00">SeeSawN::GeometryN</text>
<text text-anchor="start" x="149.5" y="-525.5" font-family="FreeSans" font-size="10.00">::GeometrySolverBaseC</text>
<text text-anchor="start" x="149.5" y="-514.5" font-family="FreeSans" font-size="10.00">&lt; P4PSolverC, CameraMatrixT,</text>
<text text-anchor="start" x="149.5" y="-503.5" font-family="FreeSans" font-size="10.00"> TransferErrorH32DT, 3, 2,</text>
<text text-anchor="middle" x="217.5" y="-492.5" font-family="FreeSans" font-size="10.00"> 4, false, 10, 12, 7 &gt;</text>
<polyline fill="none" stroke="black" points="141.5,-485.5 293.5,-485.5 "/>
<text text-anchor="middle" x="217.5" y="-473.5" font-family="FreeSans" font-size="10.00"> </text>
<polyline fill="none" stroke="black" points="141.5,-466.5 293.5,-466.5 "/>
<text text-anchor="start" x="149.5" y="-454.5" font-family="FreeSans" font-size="10.00">+ EvaluateModel()</text>
<text text-anchor="start" x="149.5" y="-443.5" font-family="FreeSans" font-size="10.00">+ EvaluateModel()</text>
<text text-anchor="start" x="149.5" y="-432.5" font-family="FreeSans" font-size="10.00">* coordinate_type1</text>
<text text-anchor="start" x="149.5" y="-421.5" font-family="FreeSans" font-size="10.00">* coordinate_type2</text>
<text text-anchor="start" x="149.5" y="-410.5" font-family="FreeSans" font-size="10.00">* model_type</text>
<text text-anchor="start" x="149.5" y="-399.5" font-family="FreeSans" font-size="10.00">* real_type</text>
<text text-anchor="start" x="149.5" y="-388.5" font-family="FreeSans" font-size="10.00">* error_type</text>
<text text-anchor="start" x="149.5" y="-377.5" font-family="FreeSans" font-size="10.00">* constraint_type</text>
<text text-anchor="start" x="149.5" y="-366.5" font-family="FreeSans" font-size="10.00">* loss_type</text>
<text text-anchor="start" x="149.5" y="-355.5" font-family="FreeSans" font-size="10.00">* distance_type</text>
<text text-anchor="start" x="149.5" y="-344.5" font-family="FreeSans" font-size="10.00">* GeneratorSize()</text>
<text text-anchor="start" x="149.5" y="-333.5" font-family="FreeSans" font-size="10.00">* IsNonminimal()</text>
<text text-anchor="start" x="149.5" y="-322.5" font-family="FreeSans" font-size="10.00">and 8 more...</text>
</a>
</g>
</g>
<!-- Node4&#45;&gt;Node3 -->
<g id="edge1" class="edge"><title>Node4&#45;&gt;Node3</title>
<path fill="none" stroke="midnightblue" d="M169.212,-305.538C165.644,-296.267 162.033,-286.885 158.439,-277.548"/>
<polygon fill="none" stroke="midnightblue" points="166.054,-307.078 172.913,-315.153 172.587,-304.563 166.054,-307.078"/>
</g>
<!-- Node5 -->
<g id="node3" class="node"><title>Node5</title>
<polygon fill="white" stroke="#bfbfbf" points="0,-723 0,-780 139,-780 139,-723 0,-723"/>
<text text-anchor="middle" x="69.5" y="-768" font-family="FreeSans" font-size="10.00">static constexpr unsigned int</text>
<polyline fill="none" stroke="#bfbfbf" points="0,-761 139,-761 "/>
<text text-anchor="middle" x="69.5" y="-749" font-family="FreeSans" font-size="10.00"> </text>
<polyline fill="none" stroke="#bfbfbf" points="0,-742 139,-742 "/>
<text text-anchor="middle" x="69.5" y="-730" font-family="FreeSans" font-size="10.00"> </text>
</g>
<!-- Node5&#45;&gt;Node3 -->
<g id="edge7" class="edge"><title>Node5&#45;&gt;Node3</title>
<path fill="none" stroke="#404040" d="M67.5666,-722.887C63.1546,-653.884 53.8805,-468.447 69.5,-315 70.3433,-306.715 71.4057,-298.243 72.6319,-289.715"/>
<polygon fill="none" stroke="#404040" points="72.665,-289.497 69.6124,-282.964 74.4689,-277.633 77.5215,-284.166 72.665,-289.497"/>
<text text-anchor="middle" x="101" y="-440.5" font-family="FreeSans" font-size="10.00"> +iPosition</text>
<text text-anchor="middle" x="101" y="-429.5" font-family="FreeSans" font-size="10.00">+iFocalLength</text>
<text text-anchor="middle" x="101" y="-418.5" font-family="FreeSans" font-size="10.00">+iOrientation</text>
</g>
<!-- Node5&#45;&gt;Node4 -->
<g id="edge2" class="edge"><title>Node5&#45;&gt;Node4</title>
<path fill="none" stroke="#404040" d="M75.8527,-722.861C84.854,-686.14 103.097,-619.765 128.5,-567 130.715,-562.4 133.067,-557.773 135.526,-553.148"/>
<polygon fill="none" stroke="#404040" points="135.668,-552.889 135.048,-545.704 141.442,-542.369 142.061,-549.553 135.668,-552.889"/>
<text text-anchor="middle" x="156.5" y="-603" font-family="FreeSans" font-size="10.00"> #nDOF</text>
<text text-anchor="middle" x="156.5" y="-592" font-family="FreeSans" font-size="10.00">#nParameter</text>
<text text-anchor="middle" x="156.5" y="-581" font-family="FreeSans" font-size="10.00">#sGenerator</text>
<text text-anchor="middle" x="156.5" y="-570" font-family="FreeSans" font-size="10.00">#nSolution</text>
</g>
<!-- Node6 -->
<g id="node4" class="node"><title>Node6</title>
<g id="a_node4"><a xlink:href="classbool.html" target="_top" xlink:title="{bool\n||}">
<polygon fill="white" stroke="black" points="224,-954.5 224,-1011.5 259,-1011.5 259,-954.5 224,-954.5"/>
<text text-anchor="middle" x="241.5" y="-999.5" font-family="FreeSans" font-size="10.00">bool</text>
<polyline fill="none" stroke="black" points="224,-992.5 259,-992.5 "/>
<text text-anchor="middle" x="241.5" y="-980.5" font-family="FreeSans" font-size="10.00"> </text>
<polyline fill="none" stroke="black" points="224,-973.5 259,-973.5 "/>
<text text-anchor="middle" x="241.5" y="-961.5" font-family="FreeSans" font-size="10.00"> </text>
</a>
</g>
</g>
<!-- Node6&#45;&gt;Node4 -->
<g id="edge3" class="edge"><title>Node6&#45;&gt;Node4</title>
<path fill="none" stroke="#404040" d="M230.14,-954.138C222.02,-932.653 211.8,-901.978 207.5,-874 191.429,-769.43 195.615,-649.294 202.876,-560.845"/>
<polygon fill="none" stroke="#404040" points="202.879,-560.81 199.401,-554.493 203.895,-548.854 207.372,-555.171 202.879,-560.81"/>
<text text-anchor="middle" x="245" y="-749" font-family="FreeSans" font-size="10.00"> #flagNonminimal</text>
</g>
<!-- Node7 -->
<g id="node5" class="node"><title>Node7</title>
<g id="a_node5"><a xlink:href="classSeeSawN_1_1GeometryN_1_1GeometrySolverBaseC.html" target="_top" xlink:title="Base class for geometry solvers. ">
<polygon fill="white" stroke="black" points="292,-629.5 292,-873.5 475,-873.5 475,-629.5 292,-629.5"/>
<text text-anchor="start" x="300" y="-861.5" font-family="FreeSans" font-size="10.00">SeeSawN::GeometryN</text>
<text text-anchor="start" x="300" y="-850.5" font-family="FreeSans" font-size="10.00">::GeometrySolverBaseC</text>
<text text-anchor="start" x="300" y="-839.5" font-family="FreeSans" font-size="10.00">&lt; DerivedT, ModelT, ErrorT,</text>
<text text-anchor="start" x="300" y="-828.5" font-family="FreeSans" font-size="10.00"> DIM1, DIM2, GENERATOR_SIZE,</text>
<text text-anchor="start" x="300" y="-817.5" font-family="FreeSans" font-size="10.00"> FLAG_NONMINIMAL, NSOLUTION,</text>
<text text-anchor="middle" x="383.5" y="-806.5" font-family="FreeSans" font-size="10.00"> NPARAMETER, NDOF &gt;</text>
<polyline fill="none" stroke="black" points="292,-799.5 475,-799.5 "/>
<text text-anchor="middle" x="383.5" y="-787.5" font-family="FreeSans" font-size="10.00"> </text>
<polyline fill="none" stroke="black" points="292,-780.5 475,-780.5 "/>
<text text-anchor="start" x="300" y="-768.5" font-family="FreeSans" font-size="10.00">+ EvaluateModel()</text>
<text text-anchor="start" x="300" y="-757.5" font-family="FreeSans" font-size="10.00">+ EvaluateModel()</text>
<text text-anchor="start" x="300" y="-746.5" font-family="FreeSans" font-size="10.00">* coordinate_type1</text>
<text text-anchor="start" x="300" y="-735.5" font-family="FreeSans" font-size="10.00">* coordinate_type2</text>
<text text-anchor="start" x="300" y="-724.5" font-family="FreeSans" font-size="10.00">* model_type</text>
<text text-anchor="start" x="300" y="-713.5" font-family="FreeSans" font-size="10.00">* real_type</text>
<text text-anchor="start" x="300" y="-702.5" font-family="FreeSans" font-size="10.00">* error_type</text>
<text text-anchor="start" x="300" y="-691.5" font-family="FreeSans" font-size="10.00">* constraint_type</text>
<text text-anchor="start" x="300" y="-680.5" font-family="FreeSans" font-size="10.00">* loss_type</text>
<text text-anchor="start" x="300" y="-669.5" font-family="FreeSans" font-size="10.00">* distance_type</text>
<text text-anchor="start" x="300" y="-658.5" font-family="FreeSans" font-size="10.00">* GeneratorSize()</text>
<text text-anchor="start" x="300" y="-647.5" font-family="FreeSans" font-size="10.00">* IsNonminimal()</text>
<text text-anchor="start" x="300" y="-636.5" font-family="FreeSans" font-size="10.00">and 8 more...</text>
</a>
</g>
</g>
<!-- Node6&#45;&gt;Node7 -->
<g id="edge6" class="edge"><title>Node6&#45;&gt;Node7</title>
<path fill="none" stroke="#404040" d="M258.629,-954.317C269.944,-936.029 285.689,-910.582 302.193,-883.909"/>
<polygon fill="none" stroke="#404040" points="302.233,-883.843 301.989,-876.636 308.547,-873.638 308.792,-880.845 302.233,-883.843"/>
<text text-anchor="middle" x="334" y="-911.5" font-family="FreeSans" font-size="10.00"> #flagNonminimal</text>
</g>
<!-- Node7&#45;&gt;Node4 -->
<g id="edge4" class="edge"><title>Node7&#45;&gt;Node4</title>
<path fill="none" stroke="orange" d="M315.308,-620.072C302.918,-596.374 290.073,-571.806 277.926,-548.573"/>
<polygon fill="orange" stroke="orange" points="312.297,-621.868 320.032,-629.108 318.5,-618.624 312.297,-621.868"/>
<text text-anchor="start" x="310.5" y="-597.5" font-family="FreeSans" font-size="10.00"> &lt; P4PSolverC, CameraMatrix</text>
<text text-anchor="start" x="310.5" y="-586.5" font-family="FreeSans" font-size="10.00">T, TransferErrorH32DT,</text>
<text text-anchor="middle" x="375.5" y="-575.5" font-family="FreeSans" font-size="10.00"> 3, 2, 4, false, 10, 12, 7 &gt;</text>
</g>
<!-- Node8 -->
<g id="node6" class="node"><title>Node8</title>
<polygon fill="white" stroke="#bfbfbf" points="369,-954.5 369,-1011.5 398,-1011.5 398,-954.5 369,-954.5"/>
<text text-anchor="middle" x="383.5" y="-999.5" font-family="FreeSans" font-size="10.00">int</text>
<polyline fill="none" stroke="#bfbfbf" points="369,-992.5 398,-992.5 "/>
<text text-anchor="middle" x="383.5" y="-980.5" font-family="FreeSans" font-size="10.00"> </text>
<polyline fill="none" stroke="#bfbfbf" points="369,-973.5 398,-973.5 "/>
<text text-anchor="middle" x="383.5" y="-961.5" font-family="FreeSans" font-size="10.00"> </text>
</g>
<!-- Node8&#45;&gt;Node7 -->
<g id="edge5" class="edge"><title>Node8&#45;&gt;Node7</title>
<path fill="none" stroke="#404040" d="M383.5,-954.317C383.5,-936.431 383.5,-911.7 383.5,-885.67"/>
<polygon fill="none" stroke="#404040" points="383.5,-885.638 379.5,-879.638 383.5,-873.638 387.5,-879.638 383.5,-885.638"/>
<text text-anchor="middle" x="411.5" y="-928" font-family="FreeSans" font-size="10.00"> #nDOF</text>
<text text-anchor="middle" x="411.5" y="-917" font-family="FreeSans" font-size="10.00">#nParameter</text>
<text text-anchor="middle" x="411.5" y="-906" font-family="FreeSans" font-size="10.00">#sGenerator</text>
<text text-anchor="middle" x="411.5" y="-895" font-family="FreeSans" font-size="10.00">#nSolution</text>
</g>
</g>
</svg>
        <g id="navigator" transform="translate(0 0)" fill="#404254">
                <rect fill="#f2f5e9" fill-opacity="0.5" stroke="#606060" stroke-width=".5" x="0" y="0" width="60" height="60"/>
                <use id="zoomplus" xlink:href="#zoomPlus" x="17" y="9" onmousedown="handleZoom(evt,'in')"/>
                <use id="zoomminus" xlink:href="#zoomMin" x="42" y="9" onmousedown="handleZoom(evt,'out')"/>
                <use id="reset" xlink:href="#resetDef" x="30" y="36" onmousedown="handleReset()"/>
                <g id="arrowUp" xlink:href="#dirArrow" transform="translate(30 24)" onmousedown="handlePan(0,-1)">
                  <use xlink:href="#rim" fill="#404040">
                        <set attributeName="fill" to="#808080" begin="arrowUp.mouseover" end="arrowUp.mouseout"/>
                  </use>
                  <path fill="none" stroke="white" stroke-width="1.5" d="M0,-3.0v7 M-2.5,-0.5L0,-3.0L2.5,-0.5"/>
                </g>
                <g id="arrowRight" xlink:href="#dirArrow" transform="rotate(90) translate(36 -43)" onmousedown="handlePan(1,0)">
                  <use xlink:href="#rim" fill="#404040">
                        <set attributeName="fill" to="#808080" begin="arrowRight.mouseover" end="arrowRight.mouseout"/>
                  </use>
                  <path fill="none" stroke="white" stroke-width="1.5" d="M0,-3.0v7 M-2.5,-0.5L0,-3.0L2.5,-0.5"/>
                </g>
                <g id="arrowDown" xlink:href="#dirArrow" transform="rotate(180) translate(-30 -48)" onmousedown="handlePan(0,1)">
                  <use xlink:href="#rim" fill="#404040">
                        <set attributeName="fill" to="#808080" begin="arrowDown.mouseover" end="arrowDown.mouseout"/>
                  </use>
                  <path fill="none" stroke="white" stroke-width="1.5" d="M0,-3.0v7 M-2.5,-0.5L0,-3.0L2.5,-0.5"/>
                </g>
                <g id="arrowLeft" xlink:href="#dirArrow" transform="rotate(270) translate(-36 17)" onmousedown="handlePan(-1,0)">
                  <use xlink:href="#rim" fill="#404040">
                        <set attributeName="fill" to="#808080" begin="arrowLeft.mouseover" end="arrowLeft.mouseout"/>
                  </use>
                  <path fill="none" stroke="white" stroke-width="1.5" d="M0,-3.0v7 M-2.5,-0.5L0,-3.0L2.5,-0.5"/>
                </g>
        </g>
        <svg viewBox="0 0 15 15" width="100%" height="30px" preserveAspectRatio="xMaxYMin meet">
         <g id="arrow_out" transform="scale(0.3 0.3)">
          <a xlink:href="classSeeSawN_1_1GeometryN_1_1P4PSolverC__coll__graph_org.svg" target="_base">
           <rect id="button" ry="5" rx="5" y="6" x="6" height="38" width="38"
                fill="#f2f5e9" fill-opacity="0.5" stroke="#606060" stroke-width="1.0"/>
           <path id="arrow"
             d="M 11.500037,31.436501 C 11.940474,20.09759 22.043105,11.32322 32.158766,21.979434 L 37.068811,17.246167 C 37.068811,17.246167 37.088388,32 37.088388,32 L 22.160133,31.978069 C 22.160133,31.978069 26.997745,27.140456 26.997745,27.140456 C 18.528582,18.264221 13.291696,25.230495 11.500037,31.436501 z"
             style="fill:#404040;"/>
          </a>
         </g>
        </svg>
</svg>
