<?xml version="1.0" encoding="UTF-8" standalone="no"?>
<!DOCTYPE svg PUBLIC "-//W3C//DTD SVG 1.1//EN"
 "http://www.w3.org/Graphics/SVG/1.1/DTD/svg11.dtd">
<!-- Generated by graphviz version 2.38.0 (20140413.2041)
 -->
<!-- Title: SeeSawN::TrackerN::FeatureTrackingProblemConceptC&lt; TestT &gt; Pages: 1 -->
<svg width="167pt" height="88pt"
 viewBox="0.00 0.00 167.00 88.00" xmlns="http://www.w3.org/2000/svg" xmlns:xlink="http://www.w3.org/1999/xlink">
<g id="graph0" class="graph" transform="scale(1 1) rotate(0) translate(4 84)">
<title>SeeSawN::TrackerN::FeatureTrackingProblemConceptC&lt; TestT &gt;</title>
<polygon fill="white" stroke="none" points="-4,4 -4,-84 163,-84 163,4 -4,4"/>
<!-- Node1 -->
<g id="node1" class="node"><title>Node1</title>
<polygon fill="#bfbfbf" stroke="black" points="-1.42109e-14,-0.5 -1.42109e-14,-79.5 159,-79.5 159,-0.5 -1.42109e-14,-0.5"/>
<text text-anchor="start" x="8" y="-67.5" font-family="FreeSans" font-size="10.00">SeeSawN::TrackerN::</text>
<text text-anchor="start" x="8" y="-56.5" font-family="FreeSans" font-size="10.00">FeatureTrackingProblemConcept</text>
<text text-anchor="middle" x="79.5" y="-45.5" font-family="FreeSans" font-size="10.00">C&lt; TestT &gt;</text>
<polyline fill="none" stroke="black" points="-1.42109e-14,-38.5 159,-38.5 "/>
<text text-anchor="middle" x="79.5" y="-26.5" font-family="FreeSans" font-size="10.00"> </text>
<polyline fill="none" stroke="black" points="-1.42109e-14,-19.5 159,-19.5 "/>
<text text-anchor="middle" x="79.5" y="-7.5" font-family="FreeSans" font-size="10.00"> </text>
</g>
</g>
</svg>
