<?xml version="1.0" encoding="UTF-8" standalone="no"?>
<!DOCTYPE svg PUBLIC "-//W3C//DTD SVG 1.1//EN"
 "http://www.w3.org/Graphics/SVG/1.1/DTD/svg11.dtd">
<!-- Generated by graphviz version 2.38.0 (20140413.2041)
 -->
<!-- Title: SeeSawN::MetricsN::DummyConstraintC&lt; Argument1T, Argument2T &gt; Pages: 1 -->
<svg width="164pt" height="176pt"
 viewBox="0.00 0.00 164.00 176.00" xmlns="http://www.w3.org/2000/svg" xmlns:xlink="http://www.w3.org/1999/xlink">
<g id="graph0" class="graph" transform="scale(1 1) rotate(0) translate(4 172)">
<title>SeeSawN::MetricsN::DummyConstraintC&lt; Argument1T, Argument2T &gt;</title>
<polygon fill="white" stroke="none" points="-4,4 -4,-172 160,-172 160,4 -4,4"/>
<!-- Node1 -->
<g id="node1" class="node"><title>Node1</title>
<polygon fill="#bfbfbf" stroke="black" points="0,-0.5 0,-167.5 156,-167.5 156,-0.5 0,-0.5"/>
<text text-anchor="start" x="8" y="-155.5" font-family="FreeSans" font-size="10.00">SeeSawN::MetricsN::</text>
<text text-anchor="start" x="8" y="-144.5" font-family="FreeSans" font-size="10.00">DummyConstraintC&lt; Argument1</text>
<text text-anchor="middle" x="78" y="-133.5" font-family="FreeSans" font-size="10.00">T, Argument2T &gt;</text>
<polyline fill="none" stroke="black" points="0,-126.5 156,-126.5 "/>
<text text-anchor="middle" x="78" y="-114.5" font-family="FreeSans" font-size="10.00"> </text>
<polyline fill="none" stroke="black" points="0,-107.5 156,-107.5 "/>
<text text-anchor="start" x="8" y="-95.5" font-family="FreeSans" font-size="10.00">+ BatchConstraintEvaluation()</text>
<text text-anchor="start" x="8" y="-84.5" font-family="FreeSans" font-size="10.00">* first_argument_type</text>
<text text-anchor="start" x="8" y="-73.5" font-family="FreeSans" font-size="10.00">* second_argument_type</text>
<text text-anchor="start" x="8" y="-62.5" font-family="FreeSans" font-size="10.00">* result_type</text>
<text text-anchor="start" x="8" y="-51.5" font-family="FreeSans" font-size="10.00">* operator()()</text>
<text text-anchor="start" x="8" y="-40.5" font-family="FreeSans" font-size="10.00">* distance_type</text>
<text text-anchor="start" x="8" y="-29.5" font-family="FreeSans" font-size="10.00">* BatchConstraintEvaluation()</text>
<text text-anchor="start" x="8" y="-18.5" font-family="FreeSans" font-size="10.00">* Enforce()</text>
<text text-anchor="start" x="8" y="-7.5" font-family="FreeSans" font-size="10.00">* DummyConstraintC()</text>
</g>
</g>
</svg>
