<?xml version="1.0" encoding="UTF-8" standalone="no"?>
<!DOCTYPE svg PUBLIC "-//W3C//DTD SVG 1.1//EN"
 "http://www.w3.org/Graphics/SVG/1.1/DTD/svg11.dtd">
<!-- Generated by graphviz version 2.38.0 (20140413.2041)
 -->
<!-- Title: SeeSawN::TrackerN::ImageFeatureTrackingProblemC::PredictMeasurement Pages: 1 -->
<svg width="344pt" height="50pt"
 viewBox="0.00 0.00 344.00 50.00" xmlns="http://www.w3.org/2000/svg" xmlns:xlink="http://www.w3.org/1999/xlink">
<g id="graph0" class="graph" transform="scale(1 1) rotate(0) translate(4 46)">
<title>SeeSawN::TrackerN::ImageFeatureTrackingProblemC::PredictMeasurement</title>
<polygon fill="white" stroke="none" points="-4,4 -4,-46 340,-46 340,4 -4,4"/>
<!-- Node23 -->
<g id="node1" class="node"><title>Node23</title>
<polygon fill="#bfbfbf" stroke="black" points="0,-0.5 0,-41.5 150,-41.5 150,-0.5 0,-0.5"/>
<text text-anchor="start" x="8" y="-29.5" font-family="FreeSans" font-size="10.00">SeeSawN::TrackerN::</text>
<text text-anchor="start" x="8" y="-18.5" font-family="FreeSans" font-size="10.00">ImageFeatureTrackingProblem</text>
<text text-anchor="middle" x="75" y="-7.5" font-family="FreeSans" font-size="10.00">C::PredictMeasurement</text>
</g>
<!-- Node24 -->
<g id="node2" class="node"><title>Node24</title>
<g id="a_node2"><a xlink:href="namespaceSeeSawN_1_1TestTrackerN.html#a15b06b42f4f5fd948627f3b80cf77645" target="_top" xlink:title="SeeSawN::TestTrackerN\l::BOOST_AUTO_TEST_CASE">
<polygon fill="white" stroke="black" points="186,-6 186,-36 336,-36 336,-6 186,-6"/>
<text text-anchor="start" x="194" y="-24" font-family="FreeSans" font-size="10.00">SeeSawN::TestTrackerN</text>
<text text-anchor="middle" x="261" y="-13" font-family="FreeSans" font-size="10.00">::BOOST_AUTO_TEST_CASE</text>
</a>
</g>
</g>
<!-- Node23&#45;&gt;Node24 -->
<g id="edge1" class="edge"><title>Node23&#45;&gt;Node24</title>
<path fill="none" stroke="midnightblue" d="M160.066,-21C168.654,-21 177.336,-21 185.808,-21"/>
<polygon fill="midnightblue" stroke="midnightblue" points="160.045,-17.5001 150.044,-21 160.044,-24.5001 160.045,-17.5001"/>
</g>
</g>
</svg>
