<?xml version="1.0" encoding="UTF-8" standalone="no"?>
<!DOCTYPE svg PUBLIC "-//W3C//DTD SVG 1.1//EN"
 "http://www.w3.org/Graphics/SVG/1.1/DTD/svg11.dtd">
<!-- Generated by graphviz version 2.38.0 (20140413.2041)
 -->
<!-- Title: SeeSawN::MetricsN::SymmetricTransferErrorC::InverseProject Pages: 1 -->
<svg width="314pt" height="100pt"
 viewBox="0.00 0.00 314.00 99.50" xmlns="http://www.w3.org/2000/svg" xmlns:xlink="http://www.w3.org/1999/xlink">
<g id="graph0" class="graph" transform="scale(1 1) rotate(0) translate(4 95.5)">
<title>SeeSawN::MetricsN::SymmetricTransferErrorC::InverseProject</title>
<polygon fill="white" stroke="none" points="-4,4 -4,-95.5 310,-95.5 310,4 -4,4"/>
<!-- Node27 -->
<g id="node1" class="node"><title>Node27</title>
<polygon fill="#bfbfbf" stroke="black" points="0,-22 0,-63 126,-63 126,-22 0,-22"/>
<text text-anchor="start" x="8" y="-51" font-family="FreeSans" font-size="10.00">SeeSawN::MetricsN::</text>
<text text-anchor="start" x="8" y="-40" font-family="FreeSans" font-size="10.00">SymmetricTransferErrorC</text>
<text text-anchor="middle" x="63" y="-29" font-family="FreeSans" font-size="10.00">::InverseProject</text>
</g>
<!-- Node28 -->
<g id="node2" class="node"><title>Node28</title>
<g id="a_node2"><a xlink:href="namespaceSeeSawN_1_1UnitTestsN_1_1TestMetricsN.html#a9a732e6d169f598fdcd84e481f982b76" target="_top" xlink:title="SeeSawN::UnitTestsN\l::TestMetricsN::BOOST\l_AUTO_TEST_CASE">
<polygon fill="white" stroke="black" points="174.5,-50 174.5,-91 293.5,-91 293.5,-50 174.5,-50"/>
<text text-anchor="start" x="182.5" y="-79" font-family="FreeSans" font-size="10.00">SeeSawN::UnitTestsN</text>
<text text-anchor="start" x="182.5" y="-68" font-family="FreeSans" font-size="10.00">::TestMetricsN::BOOST</text>
<text text-anchor="middle" x="234" y="-57" font-family="FreeSans" font-size="10.00">_AUTO_TEST_CASE</text>
</a>
</g>
</g>
<!-- Node27&#45;&gt;Node28 -->
<g id="edge1" class="edge"><title>Node27&#45;&gt;Node28</title>
<path fill="none" stroke="midnightblue" d="M136.509,-54.5134C149.18,-56.6126 162.217,-58.7726 174.451,-60.7995"/>
<polygon fill="midnightblue" stroke="midnightblue" points="136.887,-51.0283 126.449,-52.8466 135.743,-57.9341 136.887,-51.0283"/>
</g>
<!-- Node29 -->
<g id="node3" class="node"><title>Node29</title>
<g id="a_node3"><a xlink:href="classSeeSawN_1_1MetricsN_1_1EpipolarSampsonErrorC.html#a6b2714de47b95c5cececedddb065606e" target="_top" xlink:title="Computational cost of the operation. ">
<polygon fill="white" stroke="black" points="162,-0.5 162,-30.5 306,-30.5 306,-0.5 162,-0.5"/>
<text text-anchor="start" x="170" y="-18.5" font-family="FreeSans" font-size="10.00">SeeSawN::MetricsN::</text>
<text text-anchor="middle" x="234" y="-7.5" font-family="FreeSans" font-size="10.00">EpipolarSampsonErrorC::Cost</text>
</a>
</g>
</g>
<!-- Node27&#45;&gt;Node29 -->
<g id="edge2" class="edge"><title>Node27&#45;&gt;Node29</title>
<path fill="none" stroke="midnightblue" d="M136.327,-30.9448C144.825,-29.5872 153.491,-28.2027 161.971,-26.8479"/>
<polygon fill="midnightblue" stroke="midnightblue" points="135.772,-27.489 126.449,-32.5229 136.876,-34.4014 135.772,-27.489"/>
</g>
</g>
</svg>
