<?xml version="1.0" encoding="UTF-8" standalone="no"?>
<!DOCTYPE svg PUBLIC "-//W3C//DTD SVG 1.1//EN"
 "http://www.w3.org/Graphics/SVG/1.1/DTD/svg11.dtd">
<!-- Generated by graphviz version 2.38.0 (20140413.2041)
 -->
<!-- Title: SeeSawN::StateEstimationN::UnscentedKalmanFilterC::Run Pages: 1 -->
<svg width="1168pt" height="214pt"
 viewBox="0.00 0.00 1168.00 213.50" xmlns="http://www.w3.org/2000/svg" xmlns:xlink="http://www.w3.org/1999/xlink">
<g id="graph0" class="graph" transform="scale(1 1) rotate(0) translate(4 209.5)">
<title>SeeSawN::StateEstimationN::UnscentedKalmanFilterC::Run</title>
<polygon fill="white" stroke="none" points="-4,4 -4,-209.5 1164,-209.5 1164,4 -4,4"/>
<!-- Node69 -->
<g id="node1" class="node"><title>Node69</title>
<polygon fill="#bfbfbf" stroke="black" points="0,-49.5 0,-79.5 159,-79.5 159,-49.5 0,-49.5"/>
<text text-anchor="start" x="8" y="-67.5" font-family="FreeSans" font-size="10.00">SeeSawN::StateEstimation</text>
<text text-anchor="middle" x="79.5" y="-56.5" font-family="FreeSans" font-size="10.00">N::UnscentedKalmanFilterC::Run</text>
</g>
<!-- Node70 -->
<g id="node2" class="node"><title>Node70</title>
<g id="a_node2"><a xlink:href="classSeeSawN_1_1StateEstimationN_1_1UnscentedKalmanFilterC.html#a810be1aed0f082f1c50541ff23690149" target="_top" xlink:title="Advances the state of the filter, and generates a measurement prediction. ">
<polygon fill="white" stroke="black" points="195,-74 195,-115 332,-115 332,-74 195,-74"/>
<text text-anchor="start" x="203" y="-103" font-family="FreeSans" font-size="10.00">SeeSawN::StateEstimation</text>
<text text-anchor="start" x="203" y="-92" font-family="FreeSans" font-size="10.00">N::UnscentedKalmanFilterC</text>
<text text-anchor="middle" x="263.5" y="-81" font-family="FreeSans" font-size="10.00">::Predict</text>
</a>
</g>
</g>
<!-- Node69&#45;&gt;Node70 -->
<g id="edge1" class="edge"><title>Node69&#45;&gt;Node70</title>
<path fill="none" stroke="midnightblue" d="M159.005,-77.4404C167.579,-78.8537 176.305,-80.292 184.869,-81.7036"/>
<polygon fill="midnightblue" stroke="midnightblue" points="184.393,-85.1723 194.829,-83.3454 185.531,-78.2655 184.393,-85.1723"/>
</g>
<!-- Node80 -->
<g id="node12" class="node"><title>Node80</title>
<g id="a_node12"><a xlink:href="classSeeSawN_1_1StateEstimationN_1_1UnscentedKalmanFilterC.html#a53195364f6defb9b9167471821046078" target="_top" xlink:title="Updates the state. ">
<polygon fill="white" stroke="black" points="195,-14 195,-55 332,-55 332,-14 195,-14"/>
<text text-anchor="start" x="203" y="-43" font-family="FreeSans" font-size="10.00">SeeSawN::StateEstimation</text>
<text text-anchor="start" x="203" y="-32" font-family="FreeSans" font-size="10.00">N::UnscentedKalmanFilterC</text>
<text text-anchor="middle" x="263.5" y="-21" font-family="FreeSans" font-size="10.00">::Update</text>
</a>
</g>
</g>
<!-- Node69&#45;&gt;Node80 -->
<g id="edge12" class="edge"><title>Node69&#45;&gt;Node80</title>
<path fill="none" stroke="midnightblue" d="M159.005,-51.5596C167.579,-50.1463 176.305,-48.708 184.869,-47.2964"/>
<polygon fill="midnightblue" stroke="midnightblue" points="185.531,-50.7345 194.829,-45.6546 184.393,-43.8277 185.531,-50.7345"/>
</g>
<!-- Node71 -->
<g id="node3" class="node"><title>Node71</title>
<g id="a_node3"><a xlink:href="classSeeSawN_1_1StateEstimationN_1_1UnscentedKalmanFilterC.html#aae2faa75160f93beb701d3bb2026c63b" target="_top" xlink:title="Applies SUT to the augmented state. ">
<polygon fill="white" stroke="black" points="368,-74 368,-115 505,-115 505,-74 368,-74"/>
<text text-anchor="start" x="376" y="-103" font-family="FreeSans" font-size="10.00">SeeSawN::StateEstimation</text>
<text text-anchor="start" x="376" y="-92" font-family="FreeSans" font-size="10.00">N::UnscentedKalmanFilterC</text>
<text text-anchor="middle" x="436.5" y="-81" font-family="FreeSans" font-size="10.00">::ApplySUT</text>
</a>
</g>
</g>
<!-- Node70&#45;&gt;Node71 -->
<g id="edge2" class="edge"><title>Node70&#45;&gt;Node71</title>
<path fill="none" stroke="midnightblue" d="M332.084,-94.5C340.538,-94.5 349.237,-94.5 357.83,-94.5"/>
<polygon fill="midnightblue" stroke="midnightblue" points="357.847,-98.0001 367.847,-94.5 357.847,-91.0001 357.847,-98.0001"/>
</g>
<!-- Node79 -->
<g id="node11" class="node"><title>Node79</title>
<g id="a_node11"><a xlink:href="classSeeSawN_1_1StateEstimationN_1_1UnscentedKalmanFilterC.html#acc8f8a633f86c43f7b02f0b5c1312b3e" target="_top" xlink:title="Computes the sample weights for SUT. ">
<polygon fill="white" stroke="black" points="368,-14 368,-55 505,-55 505,-14 368,-14"/>
<text text-anchor="start" x="376" y="-43" font-family="FreeSans" font-size="10.00">SeeSawN::StateEstimation</text>
<text text-anchor="start" x="376" y="-32" font-family="FreeSans" font-size="10.00">N::UnscentedKalmanFilterC</text>
<text text-anchor="middle" x="436.5" y="-21" font-family="FreeSans" font-size="10.00">::ComputeWeights</text>
</a>
</g>
</g>
<!-- Node70&#45;&gt;Node79 -->
<g id="edge11" class="edge"><title>Node70&#45;&gt;Node79</title>
<path fill="none" stroke="midnightblue" d="M323.348,-73.8514C337.534,-68.8739 352.808,-63.5149 367.378,-58.4025"/>
<polygon fill="midnightblue" stroke="midnightblue" points="368.556,-61.6985 376.833,-55.085 366.238,-55.0933 368.556,-61.6985"/>
</g>
<!-- Node72 -->
<g id="node4" class="node"><title>Node72</title>
<g id="a_node4"><a xlink:href="classSeeSawN_1_1StateEstimationN_1_1UnscentedKalmanFilterC.html#a2dee69cb4032863bb8b3b46349d739d3" target="_top" xlink:title="Applies the update functions to a sample. ">
<polygon fill="white" stroke="black" points="563,-164 563,-205 700,-205 700,-164 563,-164"/>
<text text-anchor="start" x="571" y="-193" font-family="FreeSans" font-size="10.00">SeeSawN::StateEstimation</text>
<text text-anchor="start" x="571" y="-182" font-family="FreeSans" font-size="10.00">N::UnscentedKalmanFilterC</text>
<text text-anchor="middle" x="631.5" y="-171" font-family="FreeSans" font-size="10.00">::ApplyTransformation</text>
</a>
</g>
</g>
<!-- Node71&#45;&gt;Node72 -->
<g id="edge3" class="edge"><title>Node71&#45;&gt;Node72</title>
<path fill="none" stroke="midnightblue" d="M469.24,-115.148C489.279,-127.611 516.016,-143.211 541,-154.5 545.345,-156.463 549.858,-158.368 554.445,-160.201"/>
<polygon fill="midnightblue" stroke="midnightblue" points="553.345,-163.529 563.935,-163.862 555.865,-156.998 553.345,-163.529"/>
</g>
<!-- Node73 -->
<g id="node5" class="node"><title>Node73</title>
<g id="a_node5"><a xlink:href="classSeeSawN_1_1StateEstimationN_1_1UnscentedKalmanFilterC.html#a82ca58696cfeedc595e067b074b6b93b" target="_top" xlink:title="Delegates the decomposition of the measurement covariance to the problem. ">
<polygon fill="white" stroke="black" points="541,-104 541,-145 722,-145 722,-104 541,-104"/>
<text text-anchor="start" x="549" y="-133" font-family="FreeSans" font-size="10.00">SeeSawN::StateEstimation</text>
<text text-anchor="start" x="549" y="-122" font-family="FreeSans" font-size="10.00">N::UnscentedKalmanFilterC</text>
<text text-anchor="middle" x="631.5" y="-111" font-family="FreeSans" font-size="10.00">::DecomposeMeasurementCovariance</text>
</a>
</g>
</g>
<!-- Node71&#45;&gt;Node73 -->
<g id="edge4" class="edge"><title>Node71&#45;&gt;Node73</title>
<path fill="none" stroke="midnightblue" d="M505.002,-104.993C513.453,-106.306 522.231,-107.671 531.041,-109.04"/>
<polygon fill="midnightblue" stroke="midnightblue" points="530.568,-112.509 540.987,-110.586 531.644,-105.592 530.568,-112.509"/>
</g>
<!-- Node74 -->
<g id="node6" class="node"><title>Node74</title>
<g id="a_node6"><a xlink:href="classSeeSawN_1_1StateEstimationN_1_1UnscentedKalmanFilterC.html#aa3ea440bcb4b0961df41570ea9f92e21" target="_top" xlink:title="Delegates the decomposition of the state covariance to the problem. ">
<polygon fill="white" stroke="black" points="559,-44 559,-85 704,-85 704,-44 559,-44"/>
<text text-anchor="start" x="567" y="-73" font-family="FreeSans" font-size="10.00">SeeSawN::StateEstimation</text>
<text text-anchor="start" x="567" y="-62" font-family="FreeSans" font-size="10.00">N::UnscentedKalmanFilterC</text>
<text text-anchor="middle" x="631.5" y="-51" font-family="FreeSans" font-size="10.00">::DecomposeStateCovariance</text>
</a>
</g>
</g>
<!-- Node71&#45;&gt;Node74 -->
<g id="edge5" class="edge"><title>Node71&#45;&gt;Node74</title>
<path fill="none" stroke="midnightblue" d="M505.002,-84.0075C519.133,-81.8109 534.179,-79.4721 548.764,-77.205"/>
<polygon fill="midnightblue" stroke="midnightblue" points="549.427,-80.6441 558.771,-75.6496 548.352,-73.7271 549.427,-80.6441"/>
</g>
<!-- Node75 -->
<g id="node7" class="node"><title>Node75</title>
<g id="a_node7"><a xlink:href="namespaceboost.html#ab33d5e778d97f2702d840c5a8e28f5da" target="_top" xlink:title="boost::swap">
<polygon fill="white" stroke="black" points="597.5,-6 597.5,-25 665.5,-25 665.5,-6 597.5,-6"/>
<text text-anchor="middle" x="631.5" y="-13" font-family="FreeSans" font-size="10.00">boost::swap</text>
</a>
</g>
</g>
<!-- Node71&#45;&gt;Node75 -->
<g id="edge6" class="edge"><title>Node71&#45;&gt;Node75</title>
<path fill="none" stroke="midnightblue" d="M488.062,-73.8868C493.898,-70.9667 499.664,-67.8191 505,-64.5 522.685,-53.499 522.264,-43.5959 541,-34.5 555.281,-27.5671 572.051,-23.1516 587.191,-20.3446"/>
<polygon fill="midnightblue" stroke="midnightblue" points="588.074,-23.7457 597.361,-18.647 586.922,-16.8412 588.074,-23.7457"/>
</g>
<!-- Node76 -->
<g id="node8" class="node"><title>Node76</title>
<g id="a_node8"><a xlink:href="classboost_1_1dynamic__bitset.html#aeed52d861439697261690e501cb5ae8b" target="_top" xlink:title="boost::dynamic_bitset\l::swap">
<polygon fill="white" stroke="black" points="758,-0.5 758,-30.5 868,-30.5 868,-0.5 758,-0.5"/>
<text text-anchor="start" x="766" y="-18.5" font-family="FreeSans" font-size="10.00">boost::dynamic_bitset</text>
<text text-anchor="middle" x="813" y="-7.5" font-family="FreeSans" font-size="10.00">::swap</text>
</a>
</g>
</g>
<!-- Node75&#45;&gt;Node76 -->
<g id="edge7" class="edge"><title>Node75&#45;&gt;Node76</title>
<path fill="none" stroke="midnightblue" d="M665.842,-10.1121C688.778,-8.81775 719.978,-8.44587 747.663,-8.99649"/>
<polygon fill="midnightblue" stroke="midnightblue" points="747.599,-12.4959 757.682,-9.24109 747.77,-5.49797 747.599,-12.4959"/>
</g>
<!-- Node76&#45;&gt;Node75 -->
<g id="edge10" class="edge"><title>Node76&#45;&gt;Node75</title>
<path fill="none" stroke="midnightblue" d="M757.682,-21.7589C731.506,-22.5225 700.539,-22.3956 675.955,-21.3784"/>
<polygon fill="midnightblue" stroke="midnightblue" points="676,-17.8765 665.842,-20.8879 675.661,-24.8683 676,-17.8765"/>
</g>
<!-- Node77 -->
<g id="node9" class="node"><title>Node77</title>
<g id="a_node9"><a xlink:href="classboost_1_1dynamic__bitset.html#a8e3c3db2aa0fd4f45aaae2b6b7d96ef1" target="_top" xlink:title="boost::dynamic_bitset\l::operator=">
<polygon fill="white" stroke="black" points="904,-0.5 904,-30.5 1014,-30.5 1014,-0.5 904,-0.5"/>
<text text-anchor="start" x="912" y="-18.5" font-family="FreeSans" font-size="10.00">boost::dynamic_bitset</text>
<text text-anchor="middle" x="959" y="-7.5" font-family="FreeSans" font-size="10.00">::operator=</text>
</a>
</g>
</g>
<!-- Node76&#45;&gt;Node77 -->
<g id="edge8" class="edge"><title>Node76&#45;&gt;Node77</title>
<path fill="none" stroke="midnightblue" d="M868.03,-15.5C876.314,-15.5 884.936,-15.5 893.42,-15.5"/>
<polygon fill="midnightblue" stroke="midnightblue" points="893.667,-19.0001 903.667,-15.5 893.667,-12.0001 893.667,-19.0001"/>
</g>
<!-- Node78 -->
<g id="node10" class="node"><title>Node78</title>
<g id="a_node10"><a xlink:href="classboost_1_1dynamic__bitset.html#a54b534f528507c51a4b4270825956ec0" target="_top" xlink:title="boost::dynamic_bitset\l::dynamic_bitset">
<polygon fill="white" stroke="black" points="1050,-0.5 1050,-30.5 1160,-30.5 1160,-0.5 1050,-0.5"/>
<text text-anchor="start" x="1058" y="-18.5" font-family="FreeSans" font-size="10.00">boost::dynamic_bitset</text>
<text text-anchor="middle" x="1105" y="-7.5" font-family="FreeSans" font-size="10.00">::dynamic_bitset</text>
</a>
</g>
</g>
<!-- Node77&#45;&gt;Node78 -->
<g id="edge9" class="edge"><title>Node77&#45;&gt;Node78</title>
<path fill="none" stroke="midnightblue" d="M1014.03,-15.5C1022.31,-15.5 1030.94,-15.5 1039.42,-15.5"/>
<polygon fill="midnightblue" stroke="midnightblue" points="1039.67,-19.0001 1049.67,-15.5 1039.67,-12.0001 1039.67,-19.0001"/>
</g>
<!-- Node80&#45;&gt;Node71 -->
<g id="edge13" class="edge"><title>Node80&#45;&gt;Node71</title>
<path fill="none" stroke="midnightblue" d="M323.348,-55.1486C337.534,-60.1261 352.808,-65.4851 367.378,-70.5975"/>
<polygon fill="midnightblue" stroke="midnightblue" points="366.238,-73.9067 376.833,-73.915 368.556,-67.3015 366.238,-73.9067"/>
</g>
<!-- Node80&#45;&gt;Node79 -->
<g id="edge14" class="edge"><title>Node80&#45;&gt;Node79</title>
<path fill="none" stroke="midnightblue" d="M332.084,-34.5C340.538,-34.5 349.237,-34.5 357.83,-34.5"/>
<polygon fill="midnightblue" stroke="midnightblue" points="357.847,-38.0001 367.847,-34.5 357.847,-31.0001 357.847,-38.0001"/>
</g>
</g>
</svg>
