<?xml version="1.0" encoding="UTF-8" standalone="no"?>
<!DOCTYPE svg PUBLIC "-//W3C//DTD SVG 1.1//EN"
 "http://www.w3.org/Graphics/SVG/1.1/DTD/svg11.dtd">
<!-- Generated by graphviz version 2.38.0 (20140413.2041)
 -->
<!-- Title: SeeSawN::OptimisationN::PDLGeometryEstimationProblemBaseC&lt; DerivedT, GeometrySolverT &gt; Pages: 1 -->
<!--zoomable 518 -->
<svg id="main" version="1.1" xmlns="http://www.w3.org/2000/svg" xmlns:xlink="http://www.w3.org/1999/xlink" xml:space="preserve" onload="init(evt)">
<style type="text/css"><![CDATA[
.edge:hover path { stroke: red; }
.edge:hover polygon { stroke: red; fill: red; }
]]></style>
<script type="text/javascript"><![CDATA[
var edges = document.getElementsByTagName('g');
if (edges && edges.length) {
  for (var i=0;i<edges.length;i++) {
    if (edges[i].id.substr(0,4)=='edge') {
      edges[i].setAttribute('class','edge');
    }
  }
}
]]></script>
        <defs>
                <circle id="rim" cx="0" cy="0" r="7"/>
                <circle id="rim2" cx="0" cy="0" r="3.5"/>
                <g id="zoomPlus">
                        <use xlink:href="#rim" fill="#404040">
                                <set attributeName="fill" to="#808080" begin="zoomplus.mouseover" end="zoomplus.mouseout"/>
                        </use>
                        <path d="M-4,0h8M0,-4v8" fill="none" stroke="white" stroke-width="1.5" pointer-events="none"/>
                </g>
                <g id="zoomMin">
                        <use xlink:href="#rim" fill="#404040">
                                <set attributeName="fill" to="#808080" begin="zoomminus.mouseover" end="zoomminus.mouseout"/>
                        </use>
                        <path d="M-4,0h8" fill="none" stroke="white" stroke-width="1.5" pointer-events="none"/>
                </g>
                <g id="dirArrow">
                        <path fill="none" stroke="white" stroke-width="1.5" d="M0,-3.0v7 M-2.5,-0.5L0,-3.0L2.5,-0.5"/>
                </g>
               <g id="resetDef">
                       <use xlink:href="#rim2" fill="#404040">
                               <set attributeName="fill" to="#808080" begin="reset.mouseover" end="reset.mouseout"/>
                       </use>
               </g>
        </defs>

<script type="text/javascript">
var viewWidth = 492;
var viewHeight = 518;
var sectionId = 'dynsection-1';
</script>
<script xlink:href="svgpan.js"/>
<svg id="graph" class="graph">
<g id="viewport">
<title>SeeSawN::OptimisationN::PDLGeometryEstimationProblemBaseC&lt; DerivedT, GeometrySolverT &gt;</title>
<polygon fill="white" stroke="none" points="-4,4 -4,-514 487.5,-514 487.5,4 -4,4"/>
<!-- Node21 -->
<g id="node1" class="node"><title>Node21</title>
<polygon fill="#bfbfbf" stroke="black" points="172.5,-0.5 172.5,-255.5 354.5,-255.5 354.5,-0.5 172.5,-0.5"/>
<text text-anchor="start" x="180.5" y="-243.5" font-family="FreeSans" font-size="10.00">SeeSawN::OptimisationN</text>
<text text-anchor="start" x="180.5" y="-232.5" font-family="FreeSans" font-size="10.00">::PDLGeometryEstimationProblem</text>
<text text-anchor="middle" x="263.5" y="-221.5" font-family="FreeSans" font-size="10.00">BaseC&lt; DerivedT, GeometrySolverT &gt;</text>
<polyline fill="none" stroke="black" points="172.5,-214.5 354.5,-214.5 "/>
<text text-anchor="middle" x="263.5" y="-202.5" font-family="FreeSans" font-size="10.00"> </text>
<polyline fill="none" stroke="black" points="172.5,-195.5 354.5,-195.5 "/>
<text text-anchor="start" x="180.5" y="-183.5" font-family="FreeSans" font-size="10.00">* result_type</text>
<text text-anchor="start" x="180.5" y="-172.5" font-family="FreeSans" font-size="10.00">* has_normal_solver</text>
<text text-anchor="start" x="180.5" y="-161.5" font-family="FreeSans" font-size="10.00">* has_covariance_estimator</text>
<text text-anchor="start" x="180.5" y="-150.5" font-family="FreeSans" font-size="10.00">* has_nontrivial_update</text>
<text text-anchor="start" x="180.5" y="-139.5" font-family="FreeSans" font-size="10.00">* observation_set_type</text>
<text text-anchor="start" x="180.5" y="-128.5" font-family="FreeSans" font-size="10.00">* Configure()</text>
<text text-anchor="start" x="180.5" y="-117.5" font-family="FreeSans" font-size="10.00">* IsValid()</text>
<text text-anchor="start" x="180.5" y="-106.5" font-family="FreeSans" font-size="10.00">* InitialEstimate()</text>
<text text-anchor="start" x="180.5" y="-95.5" font-family="FreeSans" font-size="10.00">* ComputeError()</text>
<text text-anchor="start" x="180.5" y="-84.5" font-family="FreeSans" font-size="10.00">* Update()</text>
<text text-anchor="start" x="180.5" y="-73.5" font-family="FreeSans" font-size="10.00">and 7 more...</text>
<text text-anchor="start" x="180.5" y="-62.5" font-family="FreeSans" font-size="10.00">* ComputeError()</text>
<text text-anchor="start" x="180.5" y="-51.5" font-family="FreeSans" font-size="10.00">* ComputeJacobian()</text>
<text text-anchor="start" x="180.5" y="-40.5" font-family="FreeSans" font-size="10.00">* PDLGeometryEstimationProblem</text>
<text text-anchor="start" x="180.5" y="-29.5" font-family="FreeSans" font-size="10.00">BaseC()</text>
<text text-anchor="start" x="180.5" y="-18.5" font-family="FreeSans" font-size="10.00">* PDLGeometryEstimationProblem</text>
<text text-anchor="start" x="180.5" y="-7.5" font-family="FreeSans" font-size="10.00">BaseC()</text>
</g>
<!-- Node22 -->
<g id="node2" class="node"><title>Node22</title>
<polygon fill="white" stroke="#bfbfbf" points="0,-303.5 0,-382.5 137,-382.5 137,-303.5 0,-303.5"/>
<text text-anchor="start" x="8" y="-370.5" font-family="FreeSans" font-size="10.00">bimap&lt; list_of&lt; Coordinate1</text>
<text text-anchor="start" x="8" y="-359.5" font-family="FreeSans" font-size="10.00">T &gt;, list_of&lt; Coordinate2T</text>
<text text-anchor="middle" x="68.5" y="-348.5" font-family="FreeSans" font-size="10.00"> &gt;, left_based &gt;</text>
<polyline fill="none" stroke="#bfbfbf" points="0,-341.5 137,-341.5 "/>
<text text-anchor="middle" x="68.5" y="-329.5" font-family="FreeSans" font-size="10.00"> </text>
<polyline fill="none" stroke="#bfbfbf" points="0,-322.5 137,-322.5 "/>
<text text-anchor="middle" x="68.5" y="-310.5" font-family="FreeSans" font-size="10.00"> </text>
</g>
<!-- Node22&#45;&gt;Node21 -->
<g id="edge1" class="edge"><title>Node22&#45;&gt;Node21</title>
<path fill="none" stroke="#404040" d="M94.0056,-303.34C100.968,-293.51 108.742,-283.147 116.5,-274 131.112,-256.773 147.438,-239.241 163.747,-222.599"/>
<polygon fill="none" stroke="#404040" points="163.829,-222.516 165.203,-215.437 172.266,-213.983 170.892,-221.062 163.829,-222.516"/>
<text text-anchor="middle" x="157.5" y="-277" font-family="FreeSans" font-size="10.00"> #correspondences</text>
</g>
<!-- Node23 -->
<g id="node3" class="node"><title>Node23</title>
<polygon fill="white" stroke="#bfbfbf" points="47,-452.5 47,-509.5 90,-509.5 90,-452.5 47,-452.5"/>
<text text-anchor="middle" x="68.5" y="-497.5" font-family="FreeSans" font-size="10.00">bimap</text>
<polyline fill="none" stroke="#bfbfbf" points="47,-490.5 90,-490.5 "/>
<text text-anchor="middle" x="68.5" y="-478.5" font-family="FreeSans" font-size="10.00"> </text>
<polyline fill="none" stroke="#bfbfbf" points="47,-471.5 90,-471.5 "/>
<text text-anchor="middle" x="68.5" y="-459.5" font-family="FreeSans" font-size="10.00"> </text>
</g>
<!-- Node23&#45;&gt;Node22 -->
<g id="edge2" class="edge"><title>Node23&#45;&gt;Node22</title>
<path fill="none" stroke="orange" d="M68.5,-442.301C68.5,-423.694 68.5,-401.282 68.5,-382.56"/>
<polygon fill="orange" stroke="orange" points="65.0001,-442.478 68.5,-452.478 72.0001,-442.478 65.0001,-442.478"/>
<text text-anchor="start" x="68.5" y="-426" font-family="FreeSans" font-size="10.00"> &lt; list_of&lt; Coordinate1T</text>
<text text-anchor="start" x="68.5" y="-415" font-family="FreeSans" font-size="10.00"> &gt;, list_of&lt; Coordinate2T</text>
<text text-anchor="middle" x="121.5" y="-404" font-family="FreeSans" font-size="10.00"> &gt;, left_based &gt;</text>
</g>
<!-- Node24 -->
<g id="node4" class="node"><title>Node24</title>
<polygon fill="white" stroke="#bfbfbf" points="155,-314.5 155,-371.5 214,-371.5 214,-314.5 155,-314.5"/>
<text text-anchor="middle" x="184.5" y="-359.5" font-family="FreeSans" font-size="10.00">error_type</text>
<polyline fill="none" stroke="#bfbfbf" points="155,-352.5 214,-352.5 "/>
<text text-anchor="middle" x="184.5" y="-340.5" font-family="FreeSans" font-size="10.00"> </text>
<polyline fill="none" stroke="#bfbfbf" points="155,-333.5 214,-333.5 "/>
<text text-anchor="middle" x="184.5" y="-321.5" font-family="FreeSans" font-size="10.00"> </text>
</g>
<!-- Node24&#45;&gt;Node21 -->
<g id="edge3" class="edge"><title>Node24&#45;&gt;Node21</title>
<path fill="none" stroke="#404040" d="M192.479,-314.372C196.206,-301.954 200.844,-287.163 205.5,-274 206.297,-271.747 207.108,-269.478 207.93,-267.196"/>
<polygon fill="none" stroke="#404040" points="208.014,-266.966 206.318,-259.957 212.135,-255.695 213.831,-262.704 208.014,-266.966"/>
<text text-anchor="middle" x="233" y="-277" font-family="FreeSans" font-size="10.00"> #errorMetric</text>
</g>
<!-- Node25 -->
<g id="node5" class="node"><title>Node25</title>
<polygon fill="white" stroke="#bfbfbf" points="232.5,-314.5 232.5,-371.5 298.5,-371.5 298.5,-314.5 232.5,-314.5"/>
<text text-anchor="middle" x="265.5" y="-359.5" font-family="FreeSans" font-size="10.00">model_type</text>
<polyline fill="none" stroke="#bfbfbf" points="232.5,-352.5 298.5,-352.5 "/>
<text text-anchor="middle" x="265.5" y="-340.5" font-family="FreeSans" font-size="10.00"> </text>
<polyline fill="none" stroke="#bfbfbf" points="232.5,-333.5 298.5,-333.5 "/>
<text text-anchor="middle" x="265.5" y="-321.5" font-family="FreeSans" font-size="10.00"> </text>
</g>
<!-- Node25&#45;&gt;Node21 -->
<g id="edge4" class="edge"><title>Node25&#45;&gt;Node21</title>
<path fill="none" stroke="#404040" d="M264.955,-314.458C264.786,-305.108 264.615,-294.6 264.5,-285 264.434,-279.52 264.373,-273.932 264.315,-268.287"/>
<polygon fill="none" stroke="#404040" points="264.311,-267.857 260.253,-261.896 264.195,-255.857 268.253,-261.818 264.311,-267.857"/>
<text text-anchor="middle" x="299" y="-277" font-family="FreeSans" font-size="10.00"> #initialEstimate</text>
</g>
<!-- Node26 -->
<g id="node6" class="node"><title>Node26</title>
<g id="a_node6"><a xlink:href="classbool.html" target="_top" xlink:title="{bool\n||}">
<polygon fill="white" stroke="black" points="338,-314.5 338,-371.5 373,-371.5 373,-314.5 338,-314.5"/>
<text text-anchor="middle" x="355.5" y="-359.5" font-family="FreeSans" font-size="10.00">bool</text>
<polyline fill="none" stroke="black" points="338,-352.5 373,-352.5 "/>
<text text-anchor="middle" x="355.5" y="-340.5" font-family="FreeSans" font-size="10.00"> </text>
<polyline fill="none" stroke="black" points="338,-333.5 373,-333.5 "/>
<text text-anchor="middle" x="355.5" y="-321.5" font-family="FreeSans" font-size="10.00"> </text>
</a>
</g>
</g>
<!-- Node26&#45;&gt;Node21 -->
<g id="edge5" class="edge"><title>Node26&#45;&gt;Node21</title>
<path fill="none" stroke="#404040" d="M347.46,-314.233C343.616,-301.788 338.718,-287.014 333.5,-274 332.565,-271.669 331.61,-269.323 330.637,-266.966"/>
<polygon fill="none" stroke="#404040" points="330.621,-266.927 324.604,-262.951 325.96,-255.869 331.976,-259.845 330.621,-266.927"/>
<text text-anchor="middle" x="361" y="-277" font-family="FreeSans" font-size="10.00"> #flagValid</text>
</g>
<!-- Node27 -->
<g id="node7" class="node"><title>Node27</title>
<polygon fill="white" stroke="#bfbfbf" points="391.5,-314.5 391.5,-371.5 483.5,-371.5 483.5,-314.5 391.5,-314.5"/>
<text text-anchor="middle" x="437.5" y="-359.5" font-family="FreeSans" font-size="10.00">GeometrySolverT</text>
<polyline fill="none" stroke="#bfbfbf" points="391.5,-352.5 483.5,-352.5 "/>
<text text-anchor="middle" x="437.5" y="-340.5" font-family="FreeSans" font-size="10.00"> </text>
<polyline fill="none" stroke="#bfbfbf" points="391.5,-333.5 483.5,-333.5 "/>
<text text-anchor="middle" x="437.5" y="-321.5" font-family="FreeSans" font-size="10.00"> </text>
</g>
<!-- Node27&#45;&gt;Node21 -->
<g id="edge6" class="edge"><title>Node27&#45;&gt;Node21</title>
<path fill="none" stroke="#404040" d="M417.76,-314.193C408.74,-301.74 397.792,-286.971 387.5,-274 379.54,-263.968 371.155,-253.658 362.656,-243.384"/>
<polygon fill="none" stroke="#404040" points="362.5,-243.196 355.588,-241.139 354.828,-233.968 361.74,-236.025 362.5,-243.196"/>
<text text-anchor="middle" x="413.5" y="-277" font-family="FreeSans" font-size="10.00"> #solver</text>
</g>
</g>
</svg>
        <g id="navigator" transform="translate(0 0)" fill="#404254">
                <rect fill="#f2f5e9" fill-opacity="0.5" stroke="#606060" stroke-width=".5" x="0" y="0" width="60" height="60"/>
                <use id="zoomplus" xlink:href="#zoomPlus" x="17" y="9" onmousedown="handleZoom(evt,'in')"/>
                <use id="zoomminus" xlink:href="#zoomMin" x="42" y="9" onmousedown="handleZoom(evt,'out')"/>
                <use id="reset" xlink:href="#resetDef" x="30" y="36" onmousedown="handleReset()"/>
                <g id="arrowUp" xlink:href="#dirArrow" transform="translate(30 24)" onmousedown="handlePan(0,-1)">
                  <use xlink:href="#rim" fill="#404040">
                        <set attributeName="fill" to="#808080" begin="arrowUp.mouseover" end="arrowUp.mouseout"/>
                  </use>
                  <path fill="none" stroke="white" stroke-width="1.5" d="M0,-3.0v7 M-2.5,-0.5L0,-3.0L2.5,-0.5"/>
                </g>
                <g id="arrowRight" xlink:href="#dirArrow" transform="rotate(90) translate(36 -43)" onmousedown="handlePan(1,0)">
                  <use xlink:href="#rim" fill="#404040">
                        <set attributeName="fill" to="#808080" begin="arrowRight.mouseover" end="arrowRight.mouseout"/>
                  </use>
                  <path fill="none" stroke="white" stroke-width="1.5" d="M0,-3.0v7 M-2.5,-0.5L0,-3.0L2.5,-0.5"/>
                </g>
                <g id="arrowDown" xlink:href="#dirArrow" transform="rotate(180) translate(-30 -48)" onmousedown="handlePan(0,1)">
                  <use xlink:href="#rim" fill="#404040">
                        <set attributeName="fill" to="#808080" begin="arrowDown.mouseover" end="arrowDown.mouseout"/>
                  </use>
                  <path fill="none" stroke="white" stroke-width="1.5" d="M0,-3.0v7 M-2.5,-0.5L0,-3.0L2.5,-0.5"/>
                </g>
                <g id="arrowLeft" xlink:href="#dirArrow" transform="rotate(270) translate(-36 17)" onmousedown="handlePan(-1,0)">
                  <use xlink:href="#rim" fill="#404040">
                        <set attributeName="fill" to="#808080" begin="arrowLeft.mouseover" end="arrowLeft.mouseout"/>
                  </use>
                  <path fill="none" stroke="white" stroke-width="1.5" d="M0,-3.0v7 M-2.5,-0.5L0,-3.0L2.5,-0.5"/>
                </g>
        </g>
        <svg viewBox="0 0 15 15" width="100%" height="30px" preserveAspectRatio="xMaxYMin meet">
         <g id="arrow_out" transform="scale(0.3 0.3)">
          <a xlink:href="classSeeSawN_1_1OptimisationN_1_1PDLGeometryEstimationProblemBaseC__coll__graph_org.svg" target="_base">
           <rect id="button" ry="5" rx="5" y="6" x="6" height="38" width="38"
                fill="#f2f5e9" fill-opacity="0.5" stroke="#606060" stroke-width="1.0"/>
           <path id="arrow"
             d="M 11.500037,31.436501 C 11.940474,20.09759 22.043105,11.32322 32.158766,21.979434 L 37.068811,17.246167 C 37.068811,17.246167 37.088388,32 37.088388,32 L 22.160133,31.978069 C 22.160133,31.978069 26.997745,27.140456 26.997745,27.140456 C 18.528582,18.264221 13.291696,25.230495 11.500037,31.436501 z"
             style="fill:#404040;"/>
          </a>
         </g>
        </svg>
</svg>
