<?xml version="1.0" encoding="UTF-8" standalone="no"?>
<!DOCTYPE svg PUBLIC "-//W3C//DTD SVG 1.1//EN"
 "http://www.w3.org/Graphics/SVG/1.1/DTD/svg11.dtd">
<!-- Generated by graphviz version 2.38.0 (20140413.2041)
 -->
<!-- Title: SeeSawN::GeometryN::LensDistortionDivC::Apply Pages: 1 -->
<svg width="288pt" height="100pt"
 viewBox="0.00 0.00 288.00 99.50" xmlns="http://www.w3.org/2000/svg" xmlns:xlink="http://www.w3.org/1999/xlink">
<g id="graph0" class="graph" transform="scale(1 1) rotate(0) translate(4 95.5)">
<title>SeeSawN::GeometryN::LensDistortionDivC::Apply</title>
<polygon fill="white" stroke="none" points="-4,4 -4,-95.5 284,-95.5 284,4 -4,4"/>
<!-- Node7 -->
<g id="node1" class="node"><title>Node7</title>
<polygon fill="#bfbfbf" stroke="black" points="0,-27.5 0,-68.5 115,-68.5 115,-27.5 0,-27.5"/>
<text text-anchor="start" x="8" y="-56.5" font-family="FreeSans" font-size="10.00">SeeSawN::GeometryN</text>
<text text-anchor="start" x="8" y="-45.5" font-family="FreeSans" font-size="10.00">::LensDistortionDivC</text>
<text text-anchor="middle" x="57.5" y="-34.5" font-family="FreeSans" font-size="10.00">::Apply</text>
</g>
<!-- Node8 -->
<g id="node2" class="node"><title>Node8</title>
<g id="a_node2"><a xlink:href="group__Geometry.html#ga7cc870bd71589c56906644adbd84af6a" target="_top" xlink:title="Division lens distortion model. ">
<polygon fill="white" stroke="black" points="158,-61 158,-91 273,-91 273,-61 158,-61"/>
<text text-anchor="start" x="166" y="-79" font-family="FreeSans" font-size="10.00">SeeSawN::GeometryN</text>
<text text-anchor="middle" x="215.5" y="-68" font-family="FreeSans" font-size="10.00">::ApplyDistortion</text>
</a>
</g>
</g>
<!-- Node7&#45;&gt;Node8 -->
<g id="edge1" class="edge"><title>Node7&#45;&gt;Node8</title>
<path fill="none" stroke="midnightblue" d="M125.135,-59.9601C136.006,-61.9113 147.178,-63.9165 157.781,-65.8197"/>
<polygon fill="midnightblue" stroke="midnightblue" points="125.722,-56.5096 115.261,-58.1878 124.485,-63.3995 125.722,-56.5096"/>
</g>
<!-- Node9 -->
<g id="node3" class="node"><title>Node9</title>
<g id="a_node3"><a xlink:href="namespaceSeeSawN_1_1UnitTestsN_1_1TestGeometryN.html#a608ac48446d3970effaf9993e1da9f6f" target="_top" xlink:title="SeeSawN::UnitTestsN\l::TestGeometryN::BOOST\l_AUTO_TEST_CASE">
<polygon fill="white" stroke="black" points="151,-0.5 151,-41.5 280,-41.5 280,-0.5 151,-0.5"/>
<text text-anchor="start" x="159" y="-29.5" font-family="FreeSans" font-size="10.00">SeeSawN::UnitTestsN</text>
<text text-anchor="start" x="159" y="-18.5" font-family="FreeSans" font-size="10.00">::TestGeometryN::BOOST</text>
<text text-anchor="middle" x="215.5" y="-7.5" font-family="FreeSans" font-size="10.00">_AUTO_TEST_CASE</text>
</a>
</g>
</g>
<!-- Node7&#45;&gt;Node9 -->
<g id="edge2" class="edge"><title>Node7&#45;&gt;Node9</title>
<path fill="none" stroke="midnightblue" d="M125.173,-36.4605C133.71,-34.9829 142.432,-33.4734 150.918,-32.0046"/>
<polygon fill="midnightblue" stroke="midnightblue" points="124.517,-33.0218 115.261,-38.176 125.711,-39.9192 124.517,-33.0218"/>
</g>
</g>
</svg>
