<?xml version="1.0" encoding="UTF-8" standalone="no"?>
<!DOCTYPE svg PUBLIC "-//W3C//DTD SVG 1.1//EN"
 "http://www.w3.org/Graphics/SVG/1.1/DTD/svg11.dtd">
<!-- Generated by graphviz version 2.38.0 (20140413.2041)
 -->
<!-- Title: boost::dynamic_bitset::operator &amp;= Pages: 1 -->
<svg width="1433pt" height="461pt"
 viewBox="0.00 0.00 1433.00 461.21" xmlns="http://www.w3.org/2000/svg" xmlns:xlink="http://www.w3.org/1999/xlink">
<g id="graph0" class="graph" transform="scale(1 1) rotate(0) translate(4 457.208)">
<title>boost::dynamic_bitset::operator &amp;=</title>
<polygon fill="white" stroke="none" points="-4,4 -4,-457.208 1429,-457.208 1429,4 -4,4"/>
<!-- Node725 -->
<g id="node1" class="node"><title>Node725</title>
<polygon fill="#bfbfbf" stroke="black" points="0,-350.5 0,-380.5 110,-380.5 110,-350.5 0,-350.5"/>
<text text-anchor="start" x="8" y="-368.5" font-family="FreeSans" font-size="10.00">boost::dynamic_bitset</text>
<text text-anchor="middle" x="55" y="-357.5" font-family="FreeSans" font-size="10.00">::operator &amp;=</text>
</g>
<!-- Node726 -->
<g id="node2" class="node"><title>Node726</title>
<g id="a_node2"><a xlink:href="classboost_1_1dynamic__bitset.html#a8b3c31fc3832efe37866827cdfe847a8" target="_top" xlink:title="boost::dynamic_bitset\l::append">
<polygon fill="white" stroke="black" points="146,-350.5 146,-380.5 256,-380.5 256,-350.5 146,-350.5"/>
<text text-anchor="start" x="154" y="-368.5" font-family="FreeSans" font-size="10.00">boost::dynamic_bitset</text>
<text text-anchor="middle" x="201" y="-357.5" font-family="FreeSans" font-size="10.00">::append</text>
</a>
</g>
</g>
<!-- Node725&#45;&gt;Node726 -->
<g id="edge1" class="edge"><title>Node725&#45;&gt;Node726</title>
<path fill="none" stroke="midnightblue" d="M120.27,-365.5C128.75,-365.5 137.375,-365.5 145.667,-365.5"/>
<polygon fill="midnightblue" stroke="midnightblue" points="120.03,-362 110.03,-365.5 120.03,-369 120.03,-362"/>
</g>
<!-- Node727 -->
<g id="node3" class="node"><title>Node727</title>
<g id="a_node3"><a xlink:href="namespaceSeeSawN_1_1UnitTestsN_1_1TestION.html#afb727e43f59f1e398de236bcfc53f70e" target="_top" xlink:title="SeeSawN::UnitTestsN\l::TestION::BOOST_AUTO\l_TEST_CASE">
<polygon fill="white" stroke="black" points="498,-394 498,-435 629,-435 629,-394 498,-394"/>
<text text-anchor="start" x="506" y="-423" font-family="FreeSans" font-size="10.00">SeeSawN::UnitTestsN</text>
<text text-anchor="start" x="506" y="-412" font-family="FreeSans" font-size="10.00">::TestION::BOOST_AUTO</text>
<text text-anchor="middle" x="563.5" y="-401" font-family="FreeSans" font-size="10.00">_TEST_CASE</text>
</a>
</g>
</g>
<!-- Node726&#45;&gt;Node727 -->
<g id="edge2" class="edge"><title>Node726&#45;&gt;Node727</title>
<path fill="none" stroke="midnightblue" d="M221.393,-388.403C238.039,-406.156 263.762,-429.381 292,-439.5 360.151,-463.92 443.827,-450.067 499.908,-435.059"/>
<polygon fill="midnightblue" stroke="midnightblue" points="223.717,-385.755 214.407,-380.698 218.532,-390.457 223.717,-385.755"/>
</g>
<!-- Node728 -->
<g id="node4" class="node"><title>Node728</title>
<g id="a_node4"><a xlink:href="classboost_1_1dynamic__bitset_1_1bit__appender.html#aec1be6f6a4c821b6a633f9a235469578" target="_top" xlink:title="boost::dynamic_bitset\l::bit_appender::do_append">
<polygon fill="white" stroke="black" points="313,-399.5 313,-429.5 441,-429.5 441,-399.5 313,-399.5"/>
<text text-anchor="start" x="321" y="-417.5" font-family="FreeSans" font-size="10.00">boost::dynamic_bitset</text>
<text text-anchor="middle" x="377" y="-406.5" font-family="FreeSans" font-size="10.00">::bit_appender::do_append</text>
</a>
</g>
</g>
<!-- Node726&#45;&gt;Node728 -->
<g id="edge3" class="edge"><title>Node726&#45;&gt;Node728</title>
<path fill="none" stroke="midnightblue" d="M265.284,-383.321C284.07,-388.612 304.455,-394.352 322.552,-399.448"/>
<polygon fill="midnightblue" stroke="midnightblue" points="266.2,-379.943 255.626,-380.601 264.302,-386.681 266.2,-379.943"/>
</g>
<!-- Node729 -->
<g id="node5" class="node"><title>Node729</title>
<g id="a_node5"><a xlink:href="classboost_1_1dynamic__bitset.html#ab4467b805732d0f46bd5a2f3432193c8" target="_top" xlink:title="boost::dynamic_bitset\l::init_from_block_range">
<polygon fill="white" stroke="black" points="1163,-211.5 1163,-241.5 1279,-241.5 1279,-211.5 1163,-211.5"/>
<text text-anchor="start" x="1171" y="-229.5" font-family="FreeSans" font-size="10.00">boost::dynamic_bitset</text>
<text text-anchor="middle" x="1221" y="-218.5" font-family="FreeSans" font-size="10.00">::init_from_block_range</text>
</a>
</g>
</g>
<!-- Node726&#45;&gt;Node729 -->
<g id="edge4" class="edge"><title>Node726&#45;&gt;Node729</title>
<path fill="none" stroke="midnightblue" d="M261.566,-347.946C271.654,-345.455 282.074,-343.175 292,-341.5 410.869,-321.437 441.95,-321.5 562.5,-321.5 562.5,-321.5 562.5,-321.5 924,-321.5 1015.79,-321.5 1041.34,-316.474 1127,-283.5 1154.04,-273.091 1181.98,-254.764 1200.08,-241.702"/>
<polygon fill="midnightblue" stroke="midnightblue" points="260.44,-344.621 251.621,-350.493 262.176,-351.403 260.44,-344.621"/>
</g>
<!-- Node731 -->
<g id="node7" class="node"><title>Node731</title>
<g id="a_node7"><a xlink:href="classboost_1_1dynamic__bitset.html#a8855f645c5e6ce6686a7062637b0d225" target="_top" xlink:title="boost::dynamic_bitset\l::pop_back">
<polygon fill="white" stroke="black" points="322,-262.5 322,-292.5 432,-292.5 432,-262.5 322,-262.5"/>
<text text-anchor="start" x="330" y="-280.5" font-family="FreeSans" font-size="10.00">boost::dynamic_bitset</text>
<text text-anchor="middle" x="377" y="-269.5" font-family="FreeSans" font-size="10.00">::pop_back</text>
</a>
</g>
</g>
<!-- Node726&#45;&gt;Node731 -->
<g id="edge6" class="edge"><title>Node726&#45;&gt;Node731</title>
<path fill="none" stroke="midnightblue" d="M230.757,-344.549C247.95,-332.648 270.558,-318.063 292,-307.5 303.252,-301.957 315.793,-296.918 327.681,-292.619"/>
<polygon fill="midnightblue" stroke="midnightblue" points="228.466,-341.881 222.294,-350.493 232.489,-347.609 228.466,-341.881"/>
</g>
<!-- Node742 -->
<g id="node18" class="node"><title>Node742</title>
<g id="a_node18"><a xlink:href="classSeeSawN_1_1ION_1_1OrientedBinarySceneFeatureIOC.html#a867ffa3730b309b77c0e261d78a1bac4" target="_top" xlink:title="Writes a sample file to illustrate the format. ">
<polygon fill="white" stroke="black" points="292,-350.5 292,-380.5 462,-380.5 462,-350.5 292,-350.5"/>
<text text-anchor="start" x="300" y="-368.5" font-family="FreeSans" font-size="10.00">SeeSawN::ION::OrientedBinary</text>
<text text-anchor="middle" x="377" y="-357.5" font-family="FreeSans" font-size="10.00">SceneFeatureIOC::WriteSampleFile</text>
</a>
</g>
</g>
<!-- Node726&#45;&gt;Node742 -->
<g id="edge23" class="edge"><title>Node726&#45;&gt;Node742</title>
<path fill="none" stroke="midnightblue" d="M266.161,-365.5C274.551,-365.5 283.246,-365.5 291.903,-365.5"/>
<polygon fill="midnightblue" stroke="midnightblue" points="266.101,-362 256.101,-365.5 266.101,-369 266.101,-362"/>
</g>
<!-- Node730 -->
<g id="node6" class="node"><title>Node730</title>
<g id="a_node6"><a xlink:href="classboost_1_1dynamic__bitset.html#af98fb40e5d97967f43efea9627eef9e1" target="_top" xlink:title="boost::dynamic_bitset\l::dispatch_init">
<polygon fill="white" stroke="black" points="1315,-211.5 1315,-241.5 1425,-241.5 1425,-211.5 1315,-211.5"/>
<text text-anchor="start" x="1323" y="-229.5" font-family="FreeSans" font-size="10.00">boost::dynamic_bitset</text>
<text text-anchor="middle" x="1370" y="-218.5" font-family="FreeSans" font-size="10.00">::dispatch_init</text>
</a>
</g>
</g>
<!-- Node729&#45;&gt;Node730 -->
<g id="edge5" class="edge"><title>Node729&#45;&gt;Node730</title>
<path fill="none" stroke="midnightblue" d="M1289.43,-226.5C1297.85,-226.5 1306.37,-226.5 1314.55,-226.5"/>
<polygon fill="midnightblue" stroke="midnightblue" points="1289.25,-223 1279.25,-226.5 1289.25,-230 1289.25,-223"/>
</g>
<!-- Node731&#45;&gt;Node729 -->
<g id="edge7" class="edge"><title>Node731&#45;&gt;Node729</title>
<path fill="none" stroke="midnightblue" d="M442.209,-279.175C515.91,-280.95 640.421,-283.5 747.5,-283.5 747.5,-283.5 747.5,-283.5 924,-283.5 1014.9,-283.5 1038.43,-278.955 1127,-258.5 1145.47,-254.235 1165.4,-247.653 1182.06,-241.564"/>
<polygon fill="midnightblue" stroke="midnightblue" points="442.236,-275.674 432.154,-278.93 442.066,-282.672 442.236,-275.674"/>
</g>
<!-- Node732 -->
<g id="node8" class="node"><title>Node732</title>
<g id="a_node8"><a xlink:href="classboost_1_1dynamic__bitset.html#a35743351df1df3444117da89c31cc700" target="_top" xlink:title="boost::dynamic_bitset\l::push_back">
<polygon fill="white" stroke="black" points="508.5,-162.5 508.5,-192.5 618.5,-192.5 618.5,-162.5 508.5,-162.5"/>
<text text-anchor="start" x="516.5" y="-180.5" font-family="FreeSans" font-size="10.00">boost::dynamic_bitset</text>
<text text-anchor="middle" x="563.5" y="-169.5" font-family="FreeSans" font-size="10.00">::push_back</text>
</a>
</g>
</g>
<!-- Node731&#45;&gt;Node732 -->
<g id="edge8" class="edge"><title>Node731&#45;&gt;Node732</title>
<path fill="none" stroke="midnightblue" d="M415.069,-257.408C450.448,-238.233 502.947,-209.778 534.819,-192.503"/>
<polygon fill="midnightblue" stroke="midnightblue" points="413.145,-254.47 406.022,-262.312 416.481,-260.624 413.145,-254.47"/>
</g>
<!-- Node732&#45;&gt;Node729 -->
<g id="edge9" class="edge"><title>Node732&#45;&gt;Node729</title>
<path fill="none" stroke="midnightblue" d="M597.434,-197.659C616.441,-208.137 641.224,-219.898 665,-225.5 842.491,-267.317 1060.87,-247.854 1162.68,-234.861"/>
<polygon fill="midnightblue" stroke="midnightblue" points="599.023,-194.536 588.597,-192.65 595.571,-200.626 599.023,-194.536"/>
</g>
<!-- Node733 -->
<g id="node9" class="node"><title>Node733</title>
<g id="a_node9"><a xlink:href="classboost_1_1dynamic__bitset.html#ade408c6a85af4180fa461013154b186f" target="_top" xlink:title="boost::dynamic_bitset\l::clear">
<polygon fill="white" stroke="black" points="693.5,-186.5 693.5,-216.5 803.5,-216.5 803.5,-186.5 693.5,-186.5"/>
<text text-anchor="start" x="701.5" y="-204.5" font-family="FreeSans" font-size="10.00">boost::dynamic_bitset</text>
<text text-anchor="middle" x="748.5" y="-193.5" font-family="FreeSans" font-size="10.00">::clear</text>
</a>
</g>
</g>
<!-- Node732&#45;&gt;Node733 -->
<g id="edge10" class="edge"><title>Node732&#45;&gt;Node733</title>
<path fill="none" stroke="midnightblue" d="M629.034,-185.963C650.04,-188.718 673.128,-191.746 693.299,-194.392"/>
<polygon fill="midnightblue" stroke="midnightblue" points="629.281,-182.466 618.911,-184.636 628.371,-189.407 629.281,-182.466"/>
</g>
<!-- Node740 -->
<g id="node16" class="node"><title>Node740</title>
<g id="a_node16"><a xlink:href="classSeeSawN_1_1RANSACN_1_1RANSACC.html#a4f214bfeb66d4adf83817e524d5ef100" target="_top" xlink:title="Determines the update action for the multi&#45;objective case. ">
<polygon fill="white" stroke="black" points="665,-137.5 665,-167.5 832,-167.5 832,-137.5 665,-137.5"/>
<text text-anchor="start" x="673" y="-155.5" font-family="FreeSans" font-size="10.00">SeeSawN::RANSACN::RANSACC</text>
<text text-anchor="middle" x="748.5" y="-144.5" font-family="FreeSans" font-size="10.00">::DetermineUpdateActionMO</text>
</a>
</g>
</g>
<!-- Node732&#45;&gt;Node740 -->
<g id="edge21" class="edge"><title>Node732&#45;&gt;Node740</title>
<path fill="none" stroke="midnightblue" d="M628.928,-168.698C640.539,-167.112 652.789,-165.439 664.833,-163.793"/>
<polygon fill="midnightblue" stroke="midnightblue" points="628.345,-165.245 618.911,-170.067 629.292,-172.181 628.345,-165.245"/>
</g>
<!-- Node741 -->
<g id="node17" class="node"><title>Node741</title>
<g id="a_node17"><a xlink:href="classSeeSawN_1_1SynchronisationN_1_1RelativeSynchronisationC.html#adaf15e8bc9c819991c1d17d8e9dd5941" target="_top" xlink:title="Constructs an input sequence. ">
<polygon fill="white" stroke="black" points="678.5,-77 678.5,-118 818.5,-118 818.5,-77 678.5,-77"/>
<text text-anchor="start" x="686.5" y="-106" font-family="FreeSans" font-size="10.00">SeeSawN::Synchronisation</text>
<text text-anchor="start" x="686.5" y="-95" font-family="FreeSans" font-size="10.00">N::RelativeSynchronisationC</text>
<text text-anchor="middle" x="748.5" y="-84" font-family="FreeSans" font-size="10.00">::MakeImageSequence</text>
</a>
</g>
</g>
<!-- Node732&#45;&gt;Node741 -->
<g id="edge22" class="edge"><title>Node732&#45;&gt;Node741</title>
<path fill="none" stroke="midnightblue" d="M601.772,-157.701C620.508,-148.072 643.703,-136.635 665,-127.5 672.423,-124.316 680.309,-121.164 688.148,-118.168"/>
<polygon fill="midnightblue" stroke="midnightblue" points="599.958,-154.699 592.689,-162.406 603.178,-160.914 599.958,-154.699"/>
</g>
<!-- Node733&#45;&gt;Node729 -->
<g id="edge11" class="edge"><title>Node733&#45;&gt;Node729</title>
<path fill="none" stroke="midnightblue" d="M813.984,-204.926C906.289,-209.831 1074.64,-218.777 1162.76,-223.459"/>
<polygon fill="midnightblue" stroke="midnightblue" points="814.104,-201.428 803.932,-204.392 813.732,-208.418 814.104,-201.428"/>
</g>
<!-- Node734 -->
<g id="node10" class="node"><title>Node734</title>
<g id="a_node10"><a xlink:href="namespaceboost.html#a728583fa60f8a51e911b4e983c51ffbf" target="_top" xlink:title="boost::operator\&lt;\&lt;">
<polygon fill="white" stroke="black" points="877,-160 877,-179 969,-179 969,-160 877,-160"/>
<text text-anchor="middle" x="923" y="-167" font-family="FreeSans" font-size="10.00">boost::operator&lt;&lt;</text>
</a>
</g>
</g>
<!-- Node733&#45;&gt;Node734 -->
<g id="edge12" class="edge"><title>Node733&#45;&gt;Node734</title>
<path fill="none" stroke="midnightblue" d="M813.724,-189.586C834.687,-185.697 857.511,-181.463 876.775,-177.89"/>
<polygon fill="midnightblue" stroke="midnightblue" points="812.801,-186.197 803.607,-191.463 814.077,-193.08 812.801,-186.197"/>
</g>
<!-- Node735 -->
<g id="node11" class="node"><title>Node735</title>
<g id="a_node11"><a xlink:href="namespaceboost.html#a3437f3ef1a55be1a9f0e24acd70c2a99" target="_top" xlink:title="boost::operator\&gt;\&gt;">
<polygon fill="white" stroke="black" points="877,-122 877,-141 969,-141 969,-122 877,-122"/>
<text text-anchor="middle" x="923" y="-129" font-family="FreeSans" font-size="10.00">boost::operator&gt;&gt;</text>
</a>
</g>
</g>
<!-- Node733&#45;&gt;Node735 -->
<g id="edge13" class="edge"><title>Node733&#45;&gt;Node735</title>
<path fill="none" stroke="midnightblue" d="M813.236,-184.531C819.691,-182.121 826.053,-179.445 832,-176.5 849.686,-167.74 850.511,-159.647 868,-150.5 874.869,-146.907 882.565,-143.74 889.947,-141.072"/>
<polygon fill="midnightblue" stroke="midnightblue" points="812.018,-181.249 803.749,-187.873 814.344,-187.851 812.018,-181.249"/>
</g>
<!-- Node736 -->
<g id="node12" class="node"><title>Node736</title>
<g id="a_node12"><a xlink:href="classboost_1_1dynamic__bitset.html#a805db456f774adbc37a5d4dae4b8b4e6" target="_top" xlink:title="boost::dynamic_bitset\l::resize">
<polygon fill="white" stroke="black" points="868,-63.5 868,-93.5 978,-93.5 978,-63.5 868,-63.5"/>
<text text-anchor="start" x="876" y="-81.5" font-family="FreeSans" font-size="10.00">boost::dynamic_bitset</text>
<text text-anchor="middle" x="923" y="-70.5" font-family="FreeSans" font-size="10.00">::resize</text>
</a>
</g>
</g>
<!-- Node733&#45;&gt;Node736 -->
<g id="edge14" class="edge"><title>Node733&#45;&gt;Node736</title>
<path fill="none" stroke="midnightblue" d="M813.239,-187.736C819.962,-184.705 826.383,-181.008 832,-176.5 857.452,-156.072 845.502,-136.141 868,-112.5 874.95,-105.197 883.782,-98.7898 892.28,-93.5643"/>
<polygon fill="midnightblue" stroke="midnightblue" points="811.907,-184.499 803.929,-191.47 814.513,-190.996 811.907,-184.499"/>
</g>
<!-- Node736&#45;&gt;Node729 -->
<g id="edge16" class="edge"><title>Node736&#45;&gt;Node729</title>
<path fill="none" stroke="midnightblue" d="M959.299,-99.0256C965.71,-103.224 972.198,-107.804 978,-112.5 995.833,-126.936 994.788,-136.957 1014,-149.5 1021.19,-154.196 1120.11,-190.356 1178.21,-211.412"/>
<polygon fill="midnightblue" stroke="midnightblue" points="960.995,-95.9571 950.675,-93.5609 957.249,-101.87 960.995,-95.9571"/>
</g>
<!-- Node736&#45;&gt;Node732 -->
<g id="edge20" class="edge"><title>Node736&#45;&gt;Node732</title>
<path fill="none" stroke="midnightblue" d="M861.008,-61.1992C807.086,-49.2455 727.513,-39.9391 665,-67.5 620.502,-87.1187 587.16,-137.246 572.587,-162.492"/>
<polygon fill="midnightblue" stroke="midnightblue" points="860.237,-64.6131 870.768,-63.4537 861.812,-57.7927 860.237,-64.6131"/>
</g>
<!-- Node737 -->
<g id="node13" class="node"><title>Node737</title>
<g id="a_node13"><a xlink:href="group__IO.html#gab99ba0cf7ed289476d8d46c09bf1809e" target="_top" xlink:title="Writes a binary image feature to a stream. ">
<polygon fill="white" stroke="black" points="1014,-110.5 1014,-140.5 1127,-140.5 1127,-110.5 1014,-110.5"/>
<text text-anchor="start" x="1022" y="-128.5" font-family="FreeSans" font-size="10.00">SeeSawN::ElementsN</text>
<text text-anchor="middle" x="1070.5" y="-117.5" font-family="FreeSans" font-size="10.00">::operator&lt;&lt;</text>
</a>
</g>
</g>
<!-- Node736&#45;&gt;Node737 -->
<g id="edge15" class="edge"><title>Node736&#45;&gt;Node737</title>
<path fill="none" stroke="midnightblue" d="M980.087,-96.6174C994.272,-101.2 1009.35,-106.07 1023,-110.481"/>
<polygon fill="midnightblue" stroke="midnightblue" points="981.029,-93.2437 970.437,-93.5003 978.877,-99.9048 981.029,-93.2437"/>
</g>
<!-- Node738 -->
<g id="node14" class="node"><title>Node738</title>
<g id="a_node14"><a xlink:href="classboost_1_1dynamic__bitset_1_1bit__appender.html#a74e8836b6e146fb2b8d70f885e23c743" target="_top" xlink:title="boost::dynamic_bitset\l::bit_appender::~bit\l_appender">
<polygon fill="white" stroke="black" points="1015.5,-50 1015.5,-91 1125.5,-91 1125.5,-50 1015.5,-50"/>
<text text-anchor="start" x="1023.5" y="-79" font-family="FreeSans" font-size="10.00">boost::dynamic_bitset</text>
<text text-anchor="start" x="1023.5" y="-68" font-family="FreeSans" font-size="10.00">::bit_appender::~bit</text>
<text text-anchor="middle" x="1070.5" y="-57" font-family="FreeSans" font-size="10.00">_appender</text>
</a>
</g>
</g>
<!-- Node736&#45;&gt;Node738 -->
<g id="edge17" class="edge"><title>Node736&#45;&gt;Node738</title>
<path fill="none" stroke="midnightblue" d="M988.256,-74.967C997.274,-74.4712 1006.47,-73.9656 1015.28,-73.4814"/>
<polygon fill="midnightblue" stroke="midnightblue" points="987.972,-71.4773 978.179,-75.5211 988.356,-78.4667 987.972,-71.4773"/>
</g>
<!-- Node739 -->
<g id="node15" class="node"><title>Node739</title>
<g id="a_node15"><a xlink:href="classboost_1_1dynamic__bitset.html#a0abeaf79f75f61af63420dd1b9b23d59" target="_top" xlink:title="boost::dynamic_bitset\l::get_allocator">
<polygon fill="white" stroke="black" points="1015.5,-0.5 1015.5,-30.5 1125.5,-30.5 1125.5,-0.5 1015.5,-0.5"/>
<text text-anchor="start" x="1023.5" y="-18.5" font-family="FreeSans" font-size="10.00">boost::dynamic_bitset</text>
<text text-anchor="middle" x="1070.5" y="-7.5" font-family="FreeSans" font-size="10.00">::get_allocator</text>
</a>
</g>
</g>
<!-- Node736&#45;&gt;Node739 -->
<g id="edge18" class="edge"><title>Node736&#45;&gt;Node739</title>
<path fill="none" stroke="midnightblue" d="M968.045,-59.429C989.404,-50.1808 1014.69,-39.2303 1034.68,-30.576"/>
<polygon fill="midnightblue" stroke="midnightblue" points="966.637,-56.2246 958.851,-63.4099 969.418,-62.6483 966.637,-56.2246"/>
</g>
<!-- Node739&#45;&gt;Node729 -->
<g id="edge19" class="edge"><title>Node739&#45;&gt;Node729</title>
<path fill="none" stroke="midnightblue" d="M1121.86,-36.1123C1123.67,-37.4922 1125.39,-38.9536 1127,-40.5 1179.34,-90.7655 1206.82,-176.762 1216.21,-211.393"/>
<polygon fill="midnightblue" stroke="midnightblue" points="1123.78,-33.1832 1113.51,-30.5732 1119.91,-39.017 1123.78,-33.1832"/>
</g>
<!-- Node742&#45;&gt;Node727 -->
<g id="edge24" class="edge"><title>Node742&#45;&gt;Node727</title>
<path fill="none" stroke="midnightblue" d="M444.657,-383.203C462.013,-387.812 480.681,-392.77 497.928,-397.351"/>
<polygon fill="midnightblue" stroke="midnightblue" points="445.173,-379.719 434.61,-380.535 443.376,-386.484 445.173,-379.719"/>
</g>
</g>
</svg>
