<?xml version="1.0" encoding="UTF-8" standalone="no"?>
<!DOCTYPE svg PUBLIC "-//W3C//DTD SVG 1.1//EN"
 "http://www.w3.org/Graphics/SVG/1.1/DTD/svg11.dtd">
<!-- Generated by graphviz version 2.38.0 (20140413.2041)
 -->
<!-- Title: SeeSawN::MatcherN::SceneFeatureMatchingProblemC::SceneFeatureMatchingProblemC Pages: 1 -->
<svg width="390pt" height="72pt"
 viewBox="0.00 0.00 390.00 72.00" xmlns="http://www.w3.org/2000/svg" xmlns:xlink="http://www.w3.org/1999/xlink">
<g id="graph0" class="graph" transform="scale(1 1) rotate(0) translate(4 68)">
<title>SeeSawN::MatcherN::SceneFeatureMatchingProblemC::SceneFeatureMatchingProblemC</title>
<polygon fill="white" stroke="none" points="-4,4 -4,-68 386,-68 386,4 -4,4"/>
<!-- Node2 -->
<g id="node1" class="node"><title>Node2</title>
<polygon fill="#bfbfbf" stroke="black" points="0,-11.5 0,-52.5 171,-52.5 171,-11.5 0,-11.5"/>
<text text-anchor="start" x="8" y="-40.5" font-family="FreeSans" font-size="10.00">SeeSawN::MatcherN::</text>
<text text-anchor="start" x="8" y="-29.5" font-family="FreeSans" font-size="10.00">SceneFeatureMatchingProblem</text>
<text text-anchor="middle" x="85.5" y="-18.5" font-family="FreeSans" font-size="10.00">C::SceneFeatureMatchingProblemC</text>
</g>
<!-- Node3 -->
<g id="node2" class="node"><title>Node3</title>
<g id="a_node2"><a xlink:href="classSeeSawN_1_1MatcherN_1_1FeatureMatchingProblemBaseC.html#a06df95f57f09bc5688cc9a6f4a7bb48e" target="_top" xlink:title="Initialises a problem. ">
<polygon fill="white" stroke="black" points="207,-0.5 207,-63.5 382,-63.5 382,-0.5 207,-0.5"/>
<text text-anchor="start" x="215" y="-51.5" font-family="FreeSans" font-size="10.00">SeeSawN::MatcherN::</text>
<text text-anchor="start" x="215" y="-40.5" font-family="FreeSans" font-size="10.00">FeatureMatchingProblemBase</text>
<text text-anchor="start" x="215" y="-29.5" font-family="FreeSans" font-size="10.00">C&lt; SceneFeatureC, SceneFeatureC,</text>
<text text-anchor="start" x="215" y="-18.5" font-family="FreeSans" font-size="10.00"> SimilarityT, ConstraintT &gt;::</text>
<text text-anchor="middle" x="294.5" y="-7.5" font-family="FreeSans" font-size="10.00">Initialise</text>
</a>
</g>
</g>
<!-- Node2&#45;&gt;Node3 -->
<g id="edge1" class="edge"><title>Node2&#45;&gt;Node3</title>
<path fill="none" stroke="midnightblue" d="M171.292,-32C179.627,-32 188.129,-32 196.572,-32"/>
<polygon fill="midnightblue" stroke="midnightblue" points="196.827,-35.5001 206.827,-32 196.827,-28.5001 196.827,-35.5001"/>
</g>
</g>
</svg>
