<?xml version="1.0" encoding="UTF-8" standalone="no"?>
<!DOCTYPE svg PUBLIC "-//W3C//DTD SVG 1.1//EN"
 "http://www.w3.org/Graphics/SVG/1.1/DTD/svg11.dtd">
<!-- Generated by graphviz version 2.38.0 (20140413.2041)
 -->
<!-- Title: SeeSawN::AppGeometryEstimator32N::GeometryEstimator32ImplementationC::LoadSceneFeatures Pages: 1 -->
<svg width="423pt" height="137pt"
 viewBox="0.00 0.00 423.00 137.00" xmlns="http://www.w3.org/2000/svg" xmlns:xlink="http://www.w3.org/1999/xlink">
<g id="graph0" class="graph" transform="scale(1 1) rotate(0) translate(4 133)">
<title>SeeSawN::AppGeometryEstimator32N::GeometryEstimator32ImplementationC::LoadSceneFeatures</title>
<polygon fill="white" stroke="none" points="-4,4 -4,-133 419,-133 419,4 -4,4"/>
<!-- Node60 -->
<g id="node1" class="node"><title>Node60</title>
<polygon fill="#bfbfbf" stroke="black" points="0,-44 0,-85 189,-85 189,-44 0,-44"/>
<text text-anchor="start" x="8" y="-73" font-family="FreeSans" font-size="10.00">SeeSawN::AppGeometryEstimator32</text>
<text text-anchor="start" x="8" y="-62" font-family="FreeSans" font-size="10.00">N::GeometryEstimator32Implementation</text>
<text text-anchor="middle" x="94.5" y="-51" font-family="FreeSans" font-size="10.00">C::LoadSceneFeatures</text>
</g>
<!-- Node61 -->
<g id="node2" class="node"><title>Node61</title>
<g id="a_node2"><a xlink:href="namespaceSeeSawN_1_1ElementsN.html#a4ded92eb7f2daf16e30241fcc353fcc8" target="_top" xlink:title="SeeSawN::ElementsN\l::ApplyFeatureCoordinateTransformation">
<polygon fill="white" stroke="black" points="225,-98.5 225,-128.5 415,-128.5 415,-98.5 225,-98.5"/>
<text text-anchor="start" x="233" y="-116.5" font-family="FreeSans" font-size="10.00">SeeSawN::ElementsN</text>
<text text-anchor="middle" x="320" y="-105.5" font-family="FreeSans" font-size="10.00">::ApplyFeatureCoordinateTransformation</text>
</a>
</g>
</g>
<!-- Node60&#45;&gt;Node61 -->
<g id="edge1" class="edge"><title>Node60&#45;&gt;Node61</title>
<path fill="none" stroke="midnightblue" d="M189.313,-85.0674C206.328,-88.7979 223.913,-92.6533 240.434,-96.2753"/>
<polygon fill="midnightblue" stroke="midnightblue" points="240.051,-99.7744 250.569,-98.4972 241.55,-92.9368 240.051,-99.7744"/>
</g>
<!-- Node62 -->
<g id="node3" class="node"><title>Node62</title>
<g id="a_node3"><a xlink:href="classSeeSawN_1_1ION_1_1SceneFeatureIOBaseC.html#ade5f33b337f4a1427d57517fea23f032" target="_top" xlink:title="Common pre&#45;processing operations after a feature set is read in. ">
<polygon fill="white" stroke="black" points="240,-49.5 240,-79.5 400,-79.5 400,-49.5 240,-49.5"/>
<text text-anchor="start" x="248" y="-67.5" font-family="FreeSans" font-size="10.00">SeeSawN::ION::SceneFeature</text>
<text text-anchor="middle" x="320" y="-56.5" font-family="FreeSans" font-size="10.00">IOBaseC::PreprocessDescriptors</text>
</a>
</g>
</g>
<!-- Node60&#45;&gt;Node62 -->
<g id="edge2" class="edge"><title>Node60&#45;&gt;Node62</title>
<path fill="none" stroke="midnightblue" d="M189.313,-64.5C202.735,-64.5 216.512,-64.5 229.841,-64.5"/>
<polygon fill="midnightblue" stroke="midnightblue" points="229.934,-68.0001 239.934,-64.5 229.934,-61.0001 229.934,-68.0001"/>
</g>
<!-- Node63 -->
<g id="node4" class="node"><title>Node63</title>
<g id="a_node4"><a xlink:href="classSeeSawN_1_1ION_1_1SceneFeatureIOC.html#acd633e0cd354f12296f0ea264365c1c1" target="_top" xlink:title="Reads a feature file. ">
<polygon fill="white" stroke="black" points="245.5,-0.5 245.5,-30.5 394.5,-30.5 394.5,-0.5 245.5,-0.5"/>
<text text-anchor="start" x="253.5" y="-18.5" font-family="FreeSans" font-size="10.00">SeeSawN::ION::SceneFeature</text>
<text text-anchor="middle" x="320" y="-7.5" font-family="FreeSans" font-size="10.00">IOC::ReadFeatureFile</text>
</a>
</g>
</g>
<!-- Node60&#45;&gt;Node63 -->
<g id="edge3" class="edge"><title>Node60&#45;&gt;Node63</title>
<path fill="none" stroke="midnightblue" d="M189.313,-43.9326C206.328,-40.2021 223.913,-36.3467 240.434,-32.7247"/>
<polygon fill="midnightblue" stroke="midnightblue" points="241.55,-36.0632 250.569,-30.5028 240.051,-29.2256 241.55,-36.0632"/>
</g>
</g>
</svg>
