<?xml version="1.0" encoding="UTF-8" standalone="no"?>
<!DOCTYPE svg PUBLIC "-//W3C//DTD SVG 1.1//EN"
 "http://www.w3.org/Graphics/SVG/1.1/DTD/svg11.dtd">
<!-- Generated by graphviz version 2.38.0 (20140413.2041)
 -->
<!-- Title: SeeSawN::ApplicationN::InterfacePfMPipelineC::MakeParameterObject Pages: 1 -->
<svg width="1378pt" height="746pt"
 viewBox="0.00 0.00 1378.00 746.46" xmlns="http://www.w3.org/2000/svg" xmlns:xlink="http://www.w3.org/1999/xlink">
<g id="graph0" class="graph" transform="scale(1 1) rotate(0) translate(4 742.458)">
<title>SeeSawN::ApplicationN::InterfacePfMPipelineC::MakeParameterObject</title>
<polygon fill="white" stroke="none" points="-4,4 -4,-742.458 1374,-742.458 1374,4 -4,4"/>
<!-- Node0 -->
<g id="node1" class="node"><title>Node0</title>
<polygon fill="#bfbfbf" stroke="black" points="0,-386.5 0,-427.5 121,-427.5 121,-386.5 0,-386.5"/>
<text text-anchor="start" x="8" y="-415.5" font-family="FreeSans" font-size="10.00">SeeSawN::ApplicationN</text>
<text text-anchor="start" x="8" y="-404.5" font-family="FreeSans" font-size="10.00">::InterfacePfMPipelineC</text>
<text text-anchor="middle" x="60.5" y="-393.5" font-family="FreeSans" font-size="10.00">::MakeParameterObject</text>
</g>
<!-- Node1 -->
<g id="node2" class="node"><title>Node1</title>
<g id="a_node2"><a xlink:href="classSeeSawN_1_1ApplicationN_1_1InterfaceTwoStageRANSACC.html#a14b9e6b6db39d18b349dff59fddfa413" target="_top" xlink:title="Extracts the parameters for RANSACGeometryEstimationProblemC. ">
<polygon fill="white" stroke="black" points="372,-381.5 372,-422.5 551,-422.5 551,-381.5 372,-381.5"/>
<text text-anchor="start" x="380" y="-410.5" font-family="FreeSans" font-size="10.00">SeeSawN::ApplicationN</text>
<text text-anchor="start" x="380" y="-399.5" font-family="FreeSans" font-size="10.00">::InterfaceTwoStageRANSACC</text>
<text text-anchor="middle" x="461.5" y="-388.5" font-family="FreeSans" font-size="10.00">::ExtractGeometryProblemParameters</text>
</a>
</g>
</g>
<!-- Node0&#45;&gt;Node1 -->
<g id="edge1" class="edge"><title>Node0&#45;&gt;Node1</title>
<path fill="none" stroke="midnightblue" d="M121.077,-411.322C132.97,-412.021 145.377,-412.635 157,-413 236.516,-415.495 256.522,-416.504 336,-413 344.336,-412.632 352.976,-412.127 361.642,-411.534"/>
<polygon fill="midnightblue" stroke="midnightblue" points="362.088,-415.011 371.81,-410.8 361.584,-408.029 362.088,-415.011"/>
</g>
<!-- Node3 -->
<g id="node4" class="node"><title>Node3</title>
<g id="a_node4"><a xlink:href="group__Utility.html#ga48dc86b390790f70172782dc63ab5e8f" target="_top" xlink:title="Reads and validates a parameter from a property tree. ">
<polygon fill="white" stroke="black" points="1249,-406 1249,-436 1370,-436 1370,-406 1249,-406"/>
<text text-anchor="start" x="1257" y="-424" font-family="FreeSans" font-size="10.00">SeeSawN::ApplicationN</text>
<text text-anchor="middle" x="1309.5" y="-413" font-family="FreeSans" font-size="10.00">::ReadParameter</text>
</a>
</g>
</g>
<!-- Node0&#45;&gt;Node3 -->
<g id="edge40" class="edge"><title>Node0&#45;&gt;Node3</title>
<path fill="none" stroke="midnightblue" d="M61.5241,-427.814C62.8201,-481.001 74.2655,-622.381 157,-689 262.72,-774.127 324.767,-723 460.5,-723 460.5,-723 460.5,-723 896,-723 1037.85,-723 1101.87,-774.145 1213,-686 1288.99,-625.727 1304.56,-499.784 1307.71,-446.105"/>
<polygon fill="midnightblue" stroke="midnightblue" points="1311.21,-446.244 1308.2,-436.085 1304.22,-445.901 1311.21,-446.244"/>
</g>
<!-- Node4 -->
<g id="node5" class="node"><title>Node4</title>
<g id="a_node5"><a xlink:href="classSeeSawN_1_1ApplicationN_1_1InterfaceRandomSpanningTreeSamplerC.html#a2012997537adefca9dbaa361603a54fb" target="_top" xlink:title="Makes a parameter object from a property tree. ">
<polygon fill="white" stroke="black" points="381,-653.5 381,-694.5 542,-694.5 542,-653.5 381,-653.5"/>
<text text-anchor="start" x="389" y="-682.5" font-family="FreeSans" font-size="10.00">SeeSawN::ApplicationN</text>
<text text-anchor="start" x="389" y="-671.5" font-family="FreeSans" font-size="10.00">::InterfaceRandomSpanningTree</text>
<text text-anchor="middle" x="461.5" y="-660.5" font-family="FreeSans" font-size="10.00">SamplerC::MakeParameterObject</text>
</a>
</g>
</g>
<!-- Node0&#45;&gt;Node4 -->
<g id="edge4" class="edge"><title>Node0&#45;&gt;Node4</title>
<path fill="none" stroke="midnightblue" d="M62.3988,-427.726C65.7576,-476.728 81.6654,-599.741 157,-655 217.814,-699.608 305.266,-700.347 370.689,-692.287"/>
<polygon fill="midnightblue" stroke="midnightblue" points="371.538,-695.705 380.993,-690.923 370.62,-688.766 371.538,-695.705"/>
</g>
<!-- Node5 -->
<g id="node6" class="node"><title>Node5</title>
<g id="a_node6"><a xlink:href="classSeeSawN_1_1ApplicationN_1_1InterfaceRotationRegistrationPipelineC.html#ad6fa8a8503f110bdd75c11e63d68e2ee" target="_top" xlink:title="Makes a parameter object from a property tree. ">
<polygon fill="white" stroke="black" points="166.5,-604.5 166.5,-645.5 326.5,-645.5 326.5,-604.5 166.5,-604.5"/>
<text text-anchor="start" x="174.5" y="-633.5" font-family="FreeSans" font-size="10.00">SeeSawN::ApplicationN</text>
<text text-anchor="start" x="174.5" y="-622.5" font-family="FreeSans" font-size="10.00">::InterfaceRotationRegistration</text>
<text text-anchor="middle" x="246.5" y="-611.5" font-family="FreeSans" font-size="10.00">PipelineC::MakeParameterObject</text>
</a>
</g>
</g>
<!-- Node0&#45;&gt;Node5 -->
<g id="edge6" class="edge"><title>Node0&#45;&gt;Node5</title>
<path fill="none" stroke="midnightblue" d="M77.34,-427.697C95.9816,-451.866 128.069,-492.885 157,-527 177.329,-550.973 201.269,-577.378 219.12,-596.733"/>
<polygon fill="midnightblue" stroke="midnightblue" points="216.766,-599.343 226.126,-604.307 221.905,-594.59 216.766,-599.343"/>
</g>
<!-- Node6 -->
<g id="node7" class="node"><title>Node6</title>
<g id="a_node7"><a xlink:href="classSeeSawN_1_1ApplicationN_1_1InterfaceGeometryEstimatorC.html#af08aa9e88b51acdfe94f0e2cfdf3223e" target="_top" xlink:title="Makes a parameter object from a property tree. ">
<polygon fill="white" stroke="black" points="601,-430.5 601,-471.5 744,-471.5 744,-430.5 601,-430.5"/>
<text text-anchor="start" x="609" y="-459.5" font-family="FreeSans" font-size="10.00">SeeSawN::ApplicationN</text>
<text text-anchor="start" x="609" y="-448.5" font-family="FreeSans" font-size="10.00">::InterfaceGeometryEstimator</text>
<text text-anchor="middle" x="672.5" y="-437.5" font-family="FreeSans" font-size="10.00">C::MakeParameterObject</text>
</a>
</g>
</g>
<!-- Node0&#45;&gt;Node6 -->
<g id="edge9" class="edge"><title>Node0&#45;&gt;Node6</title>
<path fill="none" stroke="midnightblue" d="M121.08,-421.751C132.917,-424.214 145.302,-426.464 157,-428 309.345,-448.004 489.001,-451.516 590.651,-451.663"/>
<polygon fill="midnightblue" stroke="midnightblue" points="590.843,-455.163 600.844,-451.667 590.845,-448.163 590.843,-455.163"/>
</g>
<!-- Node13 -->
<g id="node14" class="node"><title>Node13</title>
<g id="a_node14"><a xlink:href="classSeeSawN_1_1ApplicationN_1_1InterfaceMultiviewPanoramaBuilderC.html#ae64ad3d3b4f4626f250d6f45ede90ad3" target="_top" xlink:title="Makes a parameter object from a property tree. ">
<polygon fill="white" stroke="black" points="384,-517.5 384,-558.5 539,-558.5 539,-517.5 384,-517.5"/>
<text text-anchor="start" x="392" y="-546.5" font-family="FreeSans" font-size="10.00">SeeSawN::ApplicationN</text>
<text text-anchor="start" x="392" y="-535.5" font-family="FreeSans" font-size="10.00">::InterfaceMultiviewPanorama</text>
<text text-anchor="middle" x="461.5" y="-524.5" font-family="FreeSans" font-size="10.00">BuilderC::MakeParameterObject</text>
</a>
</g>
</g>
<!-- Node0&#45;&gt;Node13 -->
<g id="edge19" class="edge"><title>Node0&#45;&gt;Node13</title>
<path fill="none" stroke="midnightblue" d="M81.0367,-427.806C99.0246,-445.629 127.344,-470.495 157,-484 225.745,-515.305 310.943,-528.506 373.554,-534.049"/>
<polygon fill="midnightblue" stroke="midnightblue" points="373.537,-537.56 383.794,-534.905 374.121,-530.584 373.537,-537.56"/>
</g>
<!-- Node14 -->
<g id="node15" class="node"><title>Node14</title>
<g id="a_node15"><a xlink:href="classSeeSawN_1_1ApplicationN_1_1InterfaceVisionGraphPipelineC.html#a6cc54cb46531eefd52ca842ad62570b7" target="_top" xlink:title="Makes a parameter object from a property tree. ">
<polygon fill="white" stroke="black" points="173,-362.5 173,-403.5 320,-403.5 320,-362.5 173,-362.5"/>
<text text-anchor="start" x="181" y="-391.5" font-family="FreeSans" font-size="10.00">SeeSawN::ApplicationN</text>
<text text-anchor="start" x="181" y="-380.5" font-family="FreeSans" font-size="10.00">::InterfaceVisionGraphPipeline</text>
<text text-anchor="middle" x="246.5" y="-369.5" font-family="FreeSans" font-size="10.00">C::MakeParameterObject</text>
</a>
</g>
</g>
<!-- Node0&#45;&gt;Node14 -->
<g id="edge21" class="edge"><title>Node0&#45;&gt;Node14</title>
<path fill="none" stroke="midnightblue" d="M121.24,-399.208C134.497,-397.479 148.777,-395.616 162.769,-393.791"/>
<polygon fill="midnightblue" stroke="midnightblue" points="163.423,-397.235 172.887,-392.471 162.518,-390.294 163.423,-397.235"/>
</g>
<!-- Node22 -->
<g id="node23" class="node"><title>Node22</title>
<g id="a_node23"><a xlink:href="classSeeSawN_1_1ApplicationN_1_1InterfacePfMPipelineC.html#acf83865ec2d0c3efb68bad283a4d9fed" target="_top" xlink:title="Removes the redundant elements from a geometry estimator property tree. ">
<polygon fill="white" stroke="black" points="181.5,-302.5 181.5,-343.5 311.5,-343.5 311.5,-302.5 181.5,-302.5"/>
<text text-anchor="start" x="189.5" y="-331.5" font-family="FreeSans" font-size="10.00">SeeSawN::ApplicationN</text>
<text text-anchor="start" x="189.5" y="-320.5" font-family="FreeSans" font-size="10.00">::InterfacePfMPipelineC</text>
<text text-anchor="middle" x="246.5" y="-309.5" font-family="FreeSans" font-size="10.00">::PruneGeometryEstimator</text>
</a>
</g>
</g>
<!-- Node0&#45;&gt;Node22 -->
<g id="edge35" class="edge"><title>Node0&#45;&gt;Node22</title>
<path fill="none" stroke="midnightblue" d="M94.2924,-386.429C112.362,-375.617 135.442,-362.646 157,-353 161.692,-350.9 166.579,-348.861 171.54,-346.899"/>
<polygon fill="midnightblue" stroke="midnightblue" points="173.052,-350.068 181.141,-343.226 170.55,-343.53 173.052,-350.068"/>
</g>
<!-- Node23 -->
<g id="node24" class="node"><title>Node23</title>
<g id="a_node24"><a xlink:href="classSeeSawN_1_1ApplicationN_1_1InterfacePfMPipelineC.html#affa7582c169ecd321f4f2f1965e3081d" target="_top" xlink:title="Removes the redundant elements from a multiview panorama builder property tree. ">
<polygon fill="white" stroke="black" points="162,-242.5 162,-283.5 331,-283.5 331,-242.5 162,-242.5"/>
<text text-anchor="start" x="170" y="-271.5" font-family="FreeSans" font-size="10.00">SeeSawN::ApplicationN</text>
<text text-anchor="start" x="170" y="-260.5" font-family="FreeSans" font-size="10.00">::InterfacePfMPipelineC</text>
<text text-anchor="middle" x="246.5" y="-249.5" font-family="FreeSans" font-size="10.00">::PruneMultiviewPanoramaBuilderC</text>
</a>
</g>
</g>
<!-- Node0&#45;&gt;Node23 -->
<g id="edge36" class="edge"><title>Node0&#45;&gt;Node23</title>
<path fill="none" stroke="midnightblue" d="M73.7615,-386.334C89.8397,-360.92 120.352,-318.08 157,-293 159.385,-291.368 161.866,-289.818 164.419,-288.346"/>
<polygon fill="midnightblue" stroke="midnightblue" points="166.128,-291.401 173.339,-283.639 162.861,-285.211 166.128,-291.401"/>
</g>
<!-- Node24 -->
<g id="node25" class="node"><title>Node24</title>
<g id="a_node25"><a xlink:href="classSeeSawN_1_1ApplicationN_1_1InterfacePfMPipelineC.html#a596124d8ee7fbd0fa5b1d6930bfbeb28" target="_top" xlink:title="Removes the redundant elements from a RSTS property tree. ">
<polygon fill="white" stroke="black" points="157,-182.5 157,-223.5 336,-223.5 336,-182.5 157,-182.5"/>
<text text-anchor="start" x="165" y="-211.5" font-family="FreeSans" font-size="10.00">SeeSawN::ApplicationN</text>
<text text-anchor="start" x="165" y="-200.5" font-family="FreeSans" font-size="10.00">::InterfacePfMPipelineC</text>
<text text-anchor="middle" x="246.5" y="-189.5" font-family="FreeSans" font-size="10.00">::PruneRandomSpanningTreeSampler</text>
</a>
</g>
</g>
<!-- Node0&#45;&gt;Node24 -->
<g id="edge37" class="edge"><title>Node0&#45;&gt;Node24</title>
<path fill="none" stroke="midnightblue" d="M67.3557,-386.37C78.6761,-350.142 106.965,-274.959 157,-233 158.585,-231.671 160.232,-230.4 161.93,-229.184"/>
<polygon fill="midnightblue" stroke="midnightblue" points="164.233,-231.868 170.804,-223.557 160.484,-225.956 164.233,-231.868"/>
</g>
<!-- Node25 -->
<g id="node26" class="node"><title>Node25</title>
<g id="a_node26"><a xlink:href="classSeeSawN_1_1ApplicationN_1_1InterfacePfMPipelineC.html#adb9622003b021bb64be99721b9c089b3" target="_top" xlink:title="Removes the redundant elements from a rotation registration pipeline property tree. ">
<polygon fill="white" stroke="black" points="162,-122.5 162,-163.5 331,-163.5 331,-122.5 162,-122.5"/>
<text text-anchor="start" x="170" y="-151.5" font-family="FreeSans" font-size="10.00">SeeSawN::ApplicationN</text>
<text text-anchor="start" x="170" y="-140.5" font-family="FreeSans" font-size="10.00">::InterfacePfMPipelineC</text>
<text text-anchor="middle" x="246.5" y="-129.5" font-family="FreeSans" font-size="10.00">::PruneRotationRegistrationPipeline</text>
</a>
</g>
</g>
<!-- Node0&#45;&gt;Node25 -->
<g id="edge38" class="edge"><title>Node0&#45;&gt;Node25</title>
<path fill="none" stroke="midnightblue" d="M64.1381,-386.264C70.9769,-341.046 93.4134,-232.842 157,-173 158.3,-171.777 159.651,-170.604 161.047,-169.478"/>
<polygon fill="midnightblue" stroke="midnightblue" points="163.323,-172.156 169.486,-163.539 159.294,-166.432 163.323,-172.156"/>
</g>
<!-- Node26 -->
<g id="node27" class="node"><title>Node26</title>
<g id="a_node27"><a xlink:href="classSeeSawN_1_1ApplicationN_1_1InterfacePfMPipelineC.html#a47331d862e95034027d30b46166eaa48" target="_top" xlink:title="Removes the redundant elements from a vision graph pipeline property tree. ">
<polygon fill="white" stroke="black" points="179.5,-62.5 179.5,-103.5 313.5,-103.5 313.5,-62.5 179.5,-62.5"/>
<text text-anchor="start" x="187.5" y="-91.5" font-family="FreeSans" font-size="10.00">SeeSawN::ApplicationN</text>
<text text-anchor="start" x="187.5" y="-80.5" font-family="FreeSans" font-size="10.00">::InterfacePfMPipelineC</text>
<text text-anchor="middle" x="246.5" y="-69.5" font-family="FreeSans" font-size="10.00">::PruneVisionGraphPipeline</text>
</a>
</g>
</g>
<!-- Node0&#45;&gt;Node26 -->
<g id="edge39" class="edge"><title>Node0&#45;&gt;Node26</title>
<path fill="none" stroke="midnightblue" d="M62.1369,-386.354C64.8912,-333.411 79.515,-191.479 157,-113 160.918,-109.032 165.38,-105.588 170.168,-102.6"/>
<polygon fill="midnightblue" stroke="midnightblue" points="172.013,-105.58 179.094,-97.698 168.644,-99.444 172.013,-105.58"/>
</g>
<!-- Node2 -->
<g id="node3" class="node"><title>Node2</title>
<g id="a_node3"><a xlink:href="classSeeSawN_1_1ApplicationN_1_1InterfaceRANSACC.html#a210cc166da4e686db34b5da58a82aedb" target="_top" xlink:title="Extracts the parameters for RANSACGeometryEstimationProblemC. ">
<polygon fill="white" stroke="black" points="822.5,-329.5 822.5,-370.5 967.5,-370.5 967.5,-329.5 822.5,-329.5"/>
<text text-anchor="start" x="830.5" y="-358.5" font-family="FreeSans" font-size="10.00">SeeSawN::ApplicationN</text>
<text text-anchor="start" x="830.5" y="-347.5" font-family="FreeSans" font-size="10.00">::InterfaceRANSACC::Extract</text>
<text text-anchor="middle" x="895" y="-336.5" font-family="FreeSans" font-size="10.00">GeometryProblemParameters</text>
</a>
</g>
</g>
<!-- Node1&#45;&gt;Node2 -->
<g id="edge2" class="edge"><title>Node1&#45;&gt;Node2</title>
<path fill="none" stroke="midnightblue" d="M551.181,-400.316C610.095,-398.213 689.009,-393.507 758,-383 775.834,-380.284 794.764,-376.367 812.653,-372.175"/>
<polygon fill="midnightblue" stroke="midnightblue" points="813.562,-375.557 822.471,-369.824 811.931,-368.749 813.562,-375.557"/>
</g>
<!-- Node2&#45;&gt;Node3 -->
<g id="edge3" class="edge"><title>Node2&#45;&gt;Node3</title>
<path fill="none" stroke="midnightblue" d="M958.643,-329.421C971.075,-325.135 983.993,-320.537 996,-316 1012.21,-309.873 1015,-304.399 1032,-301 1110.88,-285.224 1140.54,-266.06 1213,-301 1254.16,-320.845 1283.05,-368.004 1297.62,-396.942"/>
<polygon fill="midnightblue" stroke="midnightblue" points="1294.5,-398.523 1302.02,-405.992 1300.8,-395.467 1294.5,-398.523"/>
</g>
<!-- Node4&#45;&gt;Node3 -->
<g id="edge5" class="edge"><title>Node4&#45;&gt;Node3</title>
<path fill="none" stroke="midnightblue" d="M542.314,-681.972C712.943,-697.365 1106.36,-723.557 1213,-650 1281.9,-602.476 1301.22,-495.17 1306.54,-446.21"/>
<polygon fill="midnightblue" stroke="midnightblue" points="1310.03,-446.446 1307.52,-436.153 1303.06,-445.766 1310.03,-446.446"/>
</g>
<!-- Node5&#45;&gt;Node3 -->
<g id="edge7" class="edge"><title>Node5&#45;&gt;Node3</title>
<path fill="none" stroke="midnightblue" d="M326.816,-627.116C544.254,-632.292 1138.62,-642.018 1213,-596 1267.46,-562.305 1293.09,-485.893 1303.11,-446.119"/>
<polygon fill="midnightblue" stroke="midnightblue" points="1306.57,-446.704 1305.48,-436.165 1299.76,-445.08 1306.57,-446.704"/>
</g>
<!-- Node5&#45;&gt;Node4 -->
<g id="edge8" class="edge"><title>Node5&#45;&gt;Node4</title>
<path fill="none" stroke="midnightblue" d="M326.511,-643.176C340.94,-646.496 356.092,-649.981 370.805,-653.366"/>
<polygon fill="midnightblue" stroke="midnightblue" points="370.376,-656.859 380.906,-655.69 371.945,-650.037 370.376,-656.859"/>
</g>
<!-- Node7 -->
<g id="node8" class="node"><title>Node7</title>
<g id="a_node8"><a xlink:href="classSeeSawN_1_1ApplicationN_1_1InterfacePowellDogLegC.html#a5bcff0c4f36ea54d92c337ec666523f7" target="_top" xlink:title="Makes a parameter object from a property tree. ">
<polygon fill="white" stroke="black" points="1058,-310.5 1058,-351.5 1187,-351.5 1187,-310.5 1058,-310.5"/>
<text text-anchor="start" x="1066" y="-339.5" font-family="FreeSans" font-size="10.00">SeeSawN::ApplicationN</text>
<text text-anchor="start" x="1066" y="-328.5" font-family="FreeSans" font-size="10.00">::InterfacePowellDogLegC</text>
<text text-anchor="middle" x="1122.5" y="-317.5" font-family="FreeSans" font-size="10.00">::MakeParameterObject</text>
</a>
</g>
</g>
<!-- Node6&#45;&gt;Node7 -->
<g id="edge10" class="edge"><title>Node6&#45;&gt;Node7</title>
<path fill="none" stroke="midnightblue" d="M744.104,-432.873C760.454,-428.828 777.808,-424.657 794,-421 883.358,-400.818 909.726,-410.804 996,-380 1013.04,-373.917 1015.37,-368.121 1032,-361 1037.31,-358.727 1042.85,-356.512 1048.46,-354.381"/>
<polygon fill="midnightblue" stroke="midnightblue" points="1049.77,-357.628 1057.94,-350.88 1047.35,-351.061 1049.77,-357.628"/>
</g>
<!-- Node8 -->
<g id="node9" class="node"><title>Node8</title>
<g id="a_node9"><a xlink:href="classSeeSawN_1_1ApplicationN_1_1InterfaceTwoStageRANSACC.html#a589cffaf215a4227a87b027bf092540b" target="_top" xlink:title="Makes a parameter object from a property tree. ">
<polygon fill="white" stroke="black" points="819,-430.5 819,-471.5 971,-471.5 971,-430.5 819,-430.5"/>
<text text-anchor="start" x="827" y="-459.5" font-family="FreeSans" font-size="10.00">SeeSawN::ApplicationN</text>
<text text-anchor="start" x="827" y="-448.5" font-family="FreeSans" font-size="10.00">::InterfaceTwoStageRANSACC</text>
<text text-anchor="middle" x="895" y="-437.5" font-family="FreeSans" font-size="10.00">::MakeParameterObject</text>
</a>
</g>
</g>
<!-- Node6&#45;&gt;Node8 -->
<g id="edge12" class="edge"><title>Node6&#45;&gt;Node8</title>
<path fill="none" stroke="midnightblue" d="M744.177,-451C764.73,-451 787.399,-451 808.747,-451"/>
<polygon fill="midnightblue" stroke="midnightblue" points="808.777,-454.5 818.777,-451 808.777,-447.5 808.777,-454.5"/>
</g>
<!-- Node12 -->
<g id="node13" class="node"><title>Node12</title>
<g id="a_node13"><a xlink:href="classSeeSawN_1_1ApplicationN_1_1InterfaceGeometryEstimatorC.html#a28da5d10fb234fa4838da7b3f4ecf2db" target="_top" xlink:title="Removes the redundant refinement parameters. ">
<polygon fill="white" stroke="black" points="823.5,-490.5 823.5,-531.5 966.5,-531.5 966.5,-490.5 823.5,-490.5"/>
<text text-anchor="start" x="831.5" y="-519.5" font-family="FreeSans" font-size="10.00">SeeSawN::ApplicationN</text>
<text text-anchor="start" x="831.5" y="-508.5" font-family="FreeSans" font-size="10.00">::InterfaceGeometryEstimator</text>
<text text-anchor="middle" x="895" y="-497.5" font-family="FreeSans" font-size="10.00">C::PruneRefinement</text>
</a>
</g>
</g>
<!-- Node6&#45;&gt;Node12 -->
<g id="edge18" class="edge"><title>Node6&#45;&gt;Node12</title>
<path fill="none" stroke="midnightblue" d="M744.177,-470.232C766.233,-476.233 790.725,-482.898 813.407,-489.07"/>
<polygon fill="midnightblue" stroke="midnightblue" points="812.776,-492.526 823.345,-491.774 814.614,-485.771 812.776,-492.526"/>
</g>
<!-- Node7&#45;&gt;Node3 -->
<g id="edge11" class="edge"><title>Node7&#45;&gt;Node3</title>
<path fill="none" stroke="midnightblue" d="M1187.32,-350.308C1196.08,-353.559 1204.85,-357.143 1213,-361 1236.27,-372.017 1260.83,-387.545 1279.21,-400.044"/>
<polygon fill="midnightblue" stroke="midnightblue" points="1277.49,-403.107 1287.71,-405.903 1281.47,-397.345 1277.49,-403.107"/>
</g>
<!-- Node8&#45;&gt;Node3 -->
<g id="edge17" class="edge"><title>Node8&#45;&gt;Node3</title>
<path fill="none" stroke="midnightblue" d="M971.124,-466.768C980.016,-470.541 988.559,-475.214 996,-481 1020.55,-500.089 1004.94,-525.678 1032,-541 1102,-580.635 1140.54,-575.94 1213,-541 1254.16,-521.155 1283.05,-473.996 1297.62,-445.058"/>
<polygon fill="midnightblue" stroke="midnightblue" points="1300.8,-446.533 1302.02,-436.008 1294.5,-443.477 1300.8,-446.533"/>
</g>
<!-- Node9 -->
<g id="node10" class="node"><title>Node9</title>
<g id="a_node10"><a xlink:href="classSeeSawN_1_1ApplicationN_1_1InterfaceRANSACC.html#a1f3fbf218841630d8012f027dd1c8d00" target="_top" xlink:title="Makes a parameter object from a property tree. ">
<polygon fill="white" stroke="black" points="1032,-490.5 1032,-531.5 1213,-531.5 1213,-490.5 1032,-490.5"/>
<text text-anchor="start" x="1040" y="-519.5" font-family="FreeSans" font-size="10.00">SeeSawN::ApplicationN</text>
<text text-anchor="start" x="1040" y="-508.5" font-family="FreeSans" font-size="10.00">::InterfaceRANSACC::MakeParameter</text>
<text text-anchor="middle" x="1122.5" y="-497.5" font-family="FreeSans" font-size="10.00">Object</text>
</a>
</g>
</g>
<!-- Node8&#45;&gt;Node9 -->
<g id="edge13" class="edge"><title>Node8&#45;&gt;Node9</title>
<path fill="none" stroke="midnightblue" d="M971.088,-470.979C991.439,-476.394 1013.64,-482.301 1034.58,-487.874"/>
<polygon fill="midnightblue" stroke="midnightblue" points="1033.86,-491.304 1044.43,-490.493 1035.66,-484.539 1033.86,-491.304"/>
</g>
<!-- Node10 -->
<g id="node11" class="node"><title>Node10</title>
<g id="a_node11"><a xlink:href="classSeeSawN_1_1ApplicationN_1_1InterfaceTwoStageRANSACC.html#a5e4db2b73abfd256c621e2853efb31c9" target="_top" xlink:title="Prune any redundant parameters from Stage 1 RANSAC configuration. ">
<polygon fill="white" stroke="black" points="1046.5,-370.5 1046.5,-411.5 1198.5,-411.5 1198.5,-370.5 1046.5,-370.5"/>
<text text-anchor="start" x="1054.5" y="-399.5" font-family="FreeSans" font-size="10.00">SeeSawN::ApplicationN</text>
<text text-anchor="start" x="1054.5" y="-388.5" font-family="FreeSans" font-size="10.00">::InterfaceTwoStageRANSACC</text>
<text text-anchor="middle" x="1122.5" y="-377.5" font-family="FreeSans" font-size="10.00">::PruneStage1</text>
</a>
</g>
</g>
<!-- Node8&#45;&gt;Node10 -->
<g id="edge15" class="edge"><title>Node8&#45;&gt;Node10</title>
<path fill="none" stroke="midnightblue" d="M971.088,-431.021C992.087,-425.434 1015.06,-419.322 1036.58,-413.595"/>
<polygon fill="midnightblue" stroke="midnightblue" points="1037.59,-416.948 1046.36,-410.994 1035.79,-410.183 1037.59,-416.948"/>
</g>
<!-- Node11 -->
<g id="node12" class="node"><title>Node11</title>
<g id="a_node12"><a xlink:href="classSeeSawN_1_1ApplicationN_1_1InterfaceTwoStageRANSACC.html#af9cc401ab63f8343edb68ccbb76de645" target="_top" xlink:title="Prune any redundant parameters from Stage 2 RANSAC configuration. ">
<polygon fill="white" stroke="black" points="1046.5,-430.5 1046.5,-471.5 1198.5,-471.5 1198.5,-430.5 1046.5,-430.5"/>
<text text-anchor="start" x="1054.5" y="-459.5" font-family="FreeSans" font-size="10.00">SeeSawN::ApplicationN</text>
<text text-anchor="start" x="1054.5" y="-448.5" font-family="FreeSans" font-size="10.00">::InterfaceTwoStageRANSACC</text>
<text text-anchor="middle" x="1122.5" y="-437.5" font-family="FreeSans" font-size="10.00">::PruneStage2</text>
</a>
</g>
</g>
<!-- Node8&#45;&gt;Node11 -->
<g id="edge16" class="edge"><title>Node8&#45;&gt;Node11</title>
<path fill="none" stroke="midnightblue" d="M971.088,-451C991.993,-451 1014.85,-451 1036.29,-451"/>
<polygon fill="midnightblue" stroke="midnightblue" points="1036.36,-454.5 1046.36,-451 1036.36,-447.5 1036.36,-454.5"/>
</g>
<!-- Node9&#45;&gt;Node3 -->
<g id="edge14" class="edge"><title>Node9&#45;&gt;Node3</title>
<path fill="none" stroke="midnightblue" d="M1190.66,-490.435C1198.3,-487.525 1205.89,-484.366 1213,-481 1236.27,-469.983 1260.83,-454.455 1279.21,-441.956"/>
<polygon fill="midnightblue" stroke="midnightblue" points="1281.47,-444.655 1287.71,-436.097 1277.49,-438.893 1281.47,-444.655"/>
</g>
<!-- Node13&#45;&gt;Node3 -->
<g id="edge20" class="edge"><title>Node13&#45;&gt;Node3</title>
<path fill="none" stroke="midnightblue" d="M539.014,-550.757C706.268,-577.106 1098.61,-630.094 1213,-568 1260.75,-542.079 1288.35,-480.818 1300.68,-446.116"/>
<polygon fill="midnightblue" stroke="midnightblue" points="1304.12,-446.862 1304.02,-436.267 1297.49,-444.613 1304.12,-446.862"/>
</g>
<!-- Node14&#45;&gt;Node1 -->
<g id="edge34" class="edge"><title>Node14&#45;&gt;Node1</title>
<path fill="none" stroke="midnightblue" d="M320.207,-389.486C333.59,-390.679 347.767,-391.944 361.764,-393.193"/>
<polygon fill="midnightblue" stroke="midnightblue" points="361.64,-396.695 371.911,-394.098 362.262,-389.723 361.64,-396.695"/>
</g>
<!-- Node14&#45;&gt;Node3 -->
<g id="edge22" class="edge"><title>Node14&#45;&gt;Node3</title>
<path fill="none" stroke="midnightblue" d="M320.27,-364.644C325.999,-361.378 331.354,-357.53 336,-353 369.222,-320.606 344.563,-292.42 372,-255 464.514,-128.825 515.042,-70 671.5,-70 671.5,-70 671.5,-70 896,-70 1040.78,-70 1105.6,-47.9136 1213,-145 1287.6,-212.437 1303.93,-341.046 1307.5,-395.563"/>
<polygon fill="midnightblue" stroke="midnightblue" points="1304.02,-395.943 1308.07,-405.731 1311.01,-395.55 1304.02,-395.943"/>
</g>
<!-- Node15 -->
<g id="node16" class="node"><title>Node15</title>
<g id="a_node16"><a xlink:href="classSeeSawN_1_1ApplicationN_1_1InterfaceGeometryEstimationPipelineC.html#a32894c85b4610b3d8da17e9ce002655f" target="_top" xlink:title="Makes a parameter object from a property tree. ">
<polygon fill="white" stroke="black" points="381.5,-264.5 381.5,-305.5 541.5,-305.5 541.5,-264.5 381.5,-264.5"/>
<text text-anchor="start" x="389.5" y="-293.5" font-family="FreeSans" font-size="10.00">SeeSawN::ApplicationN</text>
<text text-anchor="start" x="389.5" y="-282.5" font-family="FreeSans" font-size="10.00">::InterfaceGeometryEstimation</text>
<text text-anchor="middle" x="461.5" y="-271.5" font-family="FreeSans" font-size="10.00">PipelineC::MakeParameterObject</text>
</a>
</g>
</g>
<!-- Node14&#45;&gt;Node15 -->
<g id="edge23" class="edge"><title>Node14&#45;&gt;Node15</title>
<path fill="none" stroke="midnightblue" d="M312.286,-362.491C320.353,-359.514 328.423,-356.324 336,-353 364.099,-340.675 394.335,-324.241 417.973,-310.617"/>
<polygon fill="midnightblue" stroke="midnightblue" points="419.806,-313.6 426.691,-305.547 416.287,-307.548 419.806,-313.6"/>
</g>
<!-- Node21 -->
<g id="node22" class="node"><title>Node21</title>
<g id="a_node22"><a xlink:href="classSeeSawN_1_1ApplicationN_1_1InterfaceVisionGraphPipelineC.html#a6b40014b0a963b158dfb7cb1f6774be1" target="_top" xlink:title="Removes the redundant geometry estimation pipeline parameters. ">
<polygon fill="white" stroke="black" points="373.5,-0.5 373.5,-41.5 549.5,-41.5 549.5,-0.5 373.5,-0.5"/>
<text text-anchor="start" x="381.5" y="-29.5" font-family="FreeSans" font-size="10.00">SeeSawN::ApplicationN</text>
<text text-anchor="start" x="381.5" y="-18.5" font-family="FreeSans" font-size="10.00">::InterfaceVisionGraphPipeline</text>
<text text-anchor="middle" x="461.5" y="-7.5" font-family="FreeSans" font-size="10.00">C::PruneGeometryEstimationPipeline</text>
</a>
</g>
</g>
<!-- Node14&#45;&gt;Node21 -->
<g id="edge33" class="edge"><title>Node14&#45;&gt;Node21</title>
<path fill="none" stroke="midnightblue" d="M320.212,-366.499C326.183,-362.856 331.601,-358.414 336,-353 419.845,-249.801 290.749,-161.253 372,-56 374.306,-53.0123 376.906,-50.2791 379.728,-47.7788"/>
<polygon fill="midnightblue" stroke="midnightblue" points="381.863,-50.5521 387.668,-41.6894 377.603,-44.9974 381.863,-50.5521"/>
</g>
<!-- Node15&#45;&gt;Node3 -->
<g id="edge32" class="edge"><title>Node15&#45;&gt;Node3</title>
<path fill="none" stroke="midnightblue" d="M480.251,-264.433C502.41,-240.499 542.813,-202.305 587,-187 718.466,-141.465 1098.54,-117.912 1213,-197 1280.28,-243.485 1300.41,-347.61 1306.23,-395.73"/>
<polygon fill="midnightblue" stroke="midnightblue" points="1302.78,-396.343 1307.35,-405.902 1309.74,-395.58 1302.78,-396.343"/>
</g>
<!-- Node15&#45;&gt;Node6 -->
<g id="edge26" class="edge"><title>Node15&#45;&gt;Node6</title>
<path fill="none" stroke="midnightblue" d="M488.547,-305.688C526.197,-335.592 595.863,-390.925 637.515,-424.007"/>
<polygon fill="midnightblue" stroke="midnightblue" points="635.446,-426.833 645.453,-430.312 639.8,-421.352 635.446,-426.833"/>
</g>
<!-- Node16 -->
<g id="node17" class="node"><title>Node16</title>
<g id="a_node17"><a xlink:href="classSeeSawN_1_1ApplicationN_1_1InterfaceScaledUnscentedTransformationC.html#a797770ea7d2fefc7fa5c07ff3a67f52a" target="_top" xlink:title="Makes a parameter object from a property tree. ">
<polygon fill="white" stroke="black" points="794,-265.5 794,-306.5 996,-306.5 996,-265.5 794,-265.5"/>
<text text-anchor="start" x="802" y="-294.5" font-family="FreeSans" font-size="10.00">SeeSawN::ApplicationN</text>
<text text-anchor="start" x="802" y="-283.5" font-family="FreeSans" font-size="10.00">::InterfaceScaledUnscentedTransformation</text>
<text text-anchor="middle" x="895" y="-272.5" font-family="FreeSans" font-size="10.00">C::MakeParameterObject</text>
</a>
</g>
</g>
<!-- Node15&#45;&gt;Node16 -->
<g id="edge24" class="edge"><title>Node15&#45;&gt;Node16</title>
<path fill="none" stroke="midnightblue" d="M541.644,-285.183C609.519,-285.341 708.037,-285.569 783.654,-285.744"/>
<polygon fill="midnightblue" stroke="midnightblue" points="783.688,-289.244 793.696,-285.768 783.704,-282.244 783.688,-289.244"/>
</g>
<!-- Node17 -->
<g id="node18" class="node"><title>Node17</title>
<g id="a_node18"><a xlink:href="classSeeSawN_1_1ApplicationN_1_1InterfaceFeatureMatcherC.html#af7d4e6a1ebf6147dc4385a4a6df3b4e5" target="_top" xlink:title="Makes a parameter object from a property tree. ">
<polygon fill="white" stroke="black" points="828,-197.5 828,-238.5 962,-238.5 962,-197.5 828,-197.5"/>
<text text-anchor="start" x="836" y="-226.5" font-family="FreeSans" font-size="10.00">SeeSawN::ApplicationN</text>
<text text-anchor="start" x="836" y="-215.5" font-family="FreeSans" font-size="10.00">::InterfaceFeatureMatcherC</text>
<text text-anchor="middle" x="895" y="-204.5" font-family="FreeSans" font-size="10.00">::MakeParameterObject</text>
</a>
</g>
</g>
<!-- Node15&#45;&gt;Node17 -->
<g id="edge27" class="edge"><title>Node15&#45;&gt;Node17</title>
<path fill="none" stroke="midnightblue" d="M541.779,-276.596C601.428,-269.839 685.088,-259.44 758,-247 777.455,-243.681 798.353,-239.524 817.789,-235.403"/>
<polygon fill="midnightblue" stroke="midnightblue" points="818.76,-238.775 827.804,-233.256 817.293,-231.93 818.76,-238.775"/>
</g>
<!-- Node18 -->
<g id="node19" class="node"><title>Node18</title>
<g id="a_node19"><a xlink:href="classSeeSawN_1_1ApplicationN_1_1InterfaceGeometryEstimationPipelineC.html#a8de326e5a379da5e9ceeed191efaf741" target="_top" xlink:title="Removes the redundant geometry estimator parameters. ">
<polygon fill="white" stroke="black" points="587,-98.5 587,-139.5 758,-139.5 758,-98.5 587,-98.5"/>
<text text-anchor="start" x="595" y="-127.5" font-family="FreeSans" font-size="10.00">SeeSawN::ApplicationN</text>
<text text-anchor="start" x="595" y="-116.5" font-family="FreeSans" font-size="10.00">::InterfaceGeometryEstimation</text>
<text text-anchor="middle" x="672.5" y="-105.5" font-family="FreeSans" font-size="10.00">PipelineC::PruneGeometryEstimator</text>
</a>
</g>
</g>
<!-- Node15&#45;&gt;Node18 -->
<g id="edge29" class="edge"><title>Node15&#45;&gt;Node18</title>
<path fill="none" stroke="midnightblue" d="M477.672,-264.256C499.229,-236.027 541.22,-185.438 587,-154 592.154,-150.461 597.722,-147.182 603.454,-144.168"/>
<polygon fill="midnightblue" stroke="midnightblue" points="605.158,-147.229 612.56,-139.649 602.047,-140.959 605.158,-147.229"/>
</g>
<!-- Node19 -->
<g id="node20" class="node"><title>Node19</title>
<g id="a_node20"><a xlink:href="classSeeSawN_1_1ApplicationN_1_1InterfaceGeometryEstimationPipelineC.html#a0bf4271cfcf3f3ea9930f9ef1013ff60" target="_top" xlink:title="Removes the redundant matcher parameters. ">
<polygon fill="white" stroke="black" points="599,-332.5 599,-373.5 746,-373.5 746,-332.5 599,-332.5"/>
<text text-anchor="start" x="607" y="-361.5" font-family="FreeSans" font-size="10.00">SeeSawN::ApplicationN</text>
<text text-anchor="start" x="607" y="-350.5" font-family="FreeSans" font-size="10.00">::InterfaceGeometryEstimation</text>
<text text-anchor="middle" x="672.5" y="-339.5" font-family="FreeSans" font-size="10.00">PipelineC::PruneMatcher</text>
</a>
</g>
</g>
<!-- Node15&#45;&gt;Node19 -->
<g id="edge30" class="edge"><title>Node15&#45;&gt;Node19</title>
<path fill="none" stroke="midnightblue" d="M525.774,-305.587C548.794,-313.077 574.993,-321.6 598.767,-329.336"/>
<polygon fill="midnightblue" stroke="midnightblue" points="597.849,-332.717 608.441,-332.483 600.015,-326.061 597.849,-332.717"/>
</g>
<!-- Node20 -->
<g id="node21" class="node"><title>Node20</title>
<g id="a_node21"><a xlink:href="classSeeSawN_1_1ApplicationN_1_1InterfaceGeometryEstimationPipelineC.html#a385b2067ced635ddf4941aafb05279c6" target="_top" xlink:title="Removes the redundant SUT parameters. ">
<polygon fill="white" stroke="black" points="599,-196.5 599,-237.5 746,-237.5 746,-196.5 599,-196.5"/>
<text text-anchor="start" x="607" y="-225.5" font-family="FreeSans" font-size="10.00">SeeSawN::ApplicationN</text>
<text text-anchor="start" x="607" y="-214.5" font-family="FreeSans" font-size="10.00">::InterfaceGeometryEstimation</text>
<text text-anchor="middle" x="672.5" y="-203.5" font-family="FreeSans" font-size="10.00">PipelineC::PruneSUT</text>
</a>
</g>
</g>
<!-- Node15&#45;&gt;Node20 -->
<g id="edge31" class="edge"><title>Node15&#45;&gt;Node20</title>
<path fill="none" stroke="midnightblue" d="M525.774,-264.413C548.794,-256.923 574.993,-248.4 598.767,-240.664"/>
<polygon fill="midnightblue" stroke="midnightblue" points="600.015,-243.939 608.441,-237.517 597.849,-237.283 600.015,-243.939"/>
</g>
<!-- Node16&#45;&gt;Node3 -->
<g id="edge25" class="edge"><title>Node16&#45;&gt;Node3</title>
<path fill="none" stroke="midnightblue" d="M964.189,-265.424C1031.61,-249.184 1135.63,-235.47 1213,-277 1259.95,-302.199 1287.72,-361.755 1300.33,-395.859"/>
<polygon fill="midnightblue" stroke="midnightblue" points="1297.13,-397.298 1303.76,-405.56 1303.73,-394.965 1297.13,-397.298"/>
</g>
<!-- Node17&#45;&gt;Node3 -->
<g id="edge28" class="edge"><title>Node17&#45;&gt;Node3</title>
<path fill="none" stroke="midnightblue" d="M962.229,-206.472C1030.74,-198.222 1138,-195.94 1213,-245 1266.83,-280.215 1292.74,-356.471 1302.96,-396.043"/>
<polygon fill="midnightblue" stroke="midnightblue" points="1299.61,-397.063 1305.39,-405.942 1306.41,-395.396 1299.61,-397.063"/>
</g>
</g>
</svg>
