<?xml version="1.0" encoding="UTF-8" standalone="no"?>
<!DOCTYPE svg PUBLIC "-//W3C//DTD SVG 1.1//EN"
 "http://www.w3.org/Graphics/SVG/1.1/DTD/svg11.dtd">
<!-- Generated by graphviz version 2.38.0 (20140413.2041)
 -->
<!-- Title: SeeSawN::MatcherN::CorrespondenceFusionC::InsertVertex Pages: 1 -->
<svg width="307pt" height="50pt"
 viewBox="0.00 0.00 307.00 50.00" xmlns="http://www.w3.org/2000/svg" xmlns:xlink="http://www.w3.org/1999/xlink">
<g id="graph0" class="graph" transform="scale(1 1) rotate(0) translate(4 46)">
<title>SeeSawN::MatcherN::CorrespondenceFusionC::InsertVertex</title>
<polygon fill="white" stroke="none" points="-4,4 -4,-46 303,-46 303,4 -4,4"/>
<!-- Node34 -->
<g id="node1" class="node"><title>Node34</title>
<polygon fill="#bfbfbf" stroke="black" points="0,-0.5 0,-41.5 123,-41.5 123,-0.5 0,-0.5"/>
<text text-anchor="start" x="8" y="-29.5" font-family="FreeSans" font-size="10.00">SeeSawN::MatcherN::</text>
<text text-anchor="start" x="8" y="-18.5" font-family="FreeSans" font-size="10.00">CorrespondenceFusionC</text>
<text text-anchor="middle" x="61.5" y="-7.5" font-family="FreeSans" font-size="10.00">::InsertVertex</text>
</g>
<!-- Node35 -->
<g id="node2" class="node"><title>Node35</title>
<g id="a_node2"><a xlink:href="classSeeSawN_1_1MatcherN_1_1CorrespondenceFusionC.html#aec48e325e54784b056b830b44396c29a" target="_top" xlink:title="Builds the correspondence graph. ">
<polygon fill="white" stroke="black" points="159,-0.5 159,-41.5 299,-41.5 299,-0.5 159,-0.5"/>
<text text-anchor="start" x="167" y="-29.5" font-family="FreeSans" font-size="10.00">SeeSawN::MatcherN::</text>
<text text-anchor="start" x="167" y="-18.5" font-family="FreeSans" font-size="10.00">CorrespondenceFusionC</text>
<text text-anchor="middle" x="229" y="-7.5" font-family="FreeSans" font-size="10.00">::BuildCorrespondenceGraph</text>
</a>
</g>
</g>
<!-- Node34&#45;&gt;Node35 -->
<g id="edge1" class="edge"><title>Node34&#45;&gt;Node35</title>
<path fill="none" stroke="midnightblue" d="M133.399,-21C141.86,-21 150.49,-21 158.925,-21"/>
<polygon fill="midnightblue" stroke="midnightblue" points="133.186,-17.5001 123.186,-21 133.186,-24.5001 133.186,-17.5001"/>
</g>
</g>
</svg>
