<?xml version="1.0" encoding="UTF-8" standalone="no"?>
<!DOCTYPE svg PUBLIC "-//W3C//DTD SVG 1.1//EN"
 "http://www.w3.org/Graphics/SVG/1.1/DTD/svg11.dtd">
<!-- Generated by graphviz version 2.38.0 (20140413.2041)
 -->
<!-- Title: SeeSawN::AppSparseUnitSphereBuilderN::AppSparseUnitSphereBuilderImplementationC::SetParameters Pages: 1 -->
<!--zoomable 298 -->
<svg id="main" version="1.1" xmlns="http://www.w3.org/2000/svg" xmlns:xlink="http://www.w3.org/1999/xlink" xml:space="preserve" onload="init(evt)">
<style type="text/css"><![CDATA[
.edge:hover path { stroke: red; }
.edge:hover polygon { stroke: red; fill: red; }
]]></style>
<script type="text/javascript"><![CDATA[
var edges = document.getElementsByTagName('g');
if (edges && edges.length) {
  for (var i=0;i<edges.length;i++) {
    if (edges[i].id.substr(0,4)=='edge') {
      edges[i].setAttribute('class','edge');
    }
  }
}
]]></script>
        <defs>
                <circle id="rim" cx="0" cy="0" r="7"/>
                <circle id="rim2" cx="0" cy="0" r="3.5"/>
                <g id="zoomPlus">
                        <use xlink:href="#rim" fill="#404040">
                                <set attributeName="fill" to="#808080" begin="zoomplus.mouseover" end="zoomplus.mouseout"/>
                        </use>
                        <path d="M-4,0h8M0,-4v8" fill="none" stroke="white" stroke-width="1.5" pointer-events="none"/>
                </g>
                <g id="zoomMin">
                        <use xlink:href="#rim" fill="#404040">
                                <set attributeName="fill" to="#808080" begin="zoomminus.mouseover" end="zoomminus.mouseout"/>
                        </use>
                        <path d="M-4,0h8" fill="none" stroke="white" stroke-width="1.5" pointer-events="none"/>
                </g>
                <g id="dirArrow">
                        <path fill="none" stroke="white" stroke-width="1.5" d="M0,-3.0v7 M-2.5,-0.5L0,-3.0L2.5,-0.5"/>
                </g>
               <g id="resetDef">
                       <use xlink:href="#rim2" fill="#404040">
                               <set attributeName="fill" to="#808080" begin="reset.mouseover" end="reset.mouseout"/>
                       </use>
               </g>
        </defs>

<script type="text/javascript">
var viewWidth = 997;
var viewHeight = 298;
var sectionId = 'dynsection-5';
</script>
<script xlink:href="svgpan.js"/>
<svg id="graph" class="graph">
<g id="viewport">
<title>SeeSawN::AppSparseUnitSphereBuilderN::AppSparseUnitSphereBuilderImplementationC::SetParameters</title>
<polygon fill="white" stroke="none" points="-4,4 -4,-293.873 993,-293.873 993,4 -4,4"/>
<!-- Node76 -->
<g id="node1" class="node"><title>Node76</title>
<polygon fill="#bfbfbf" stroke="black" points="0,-117.373 0,-158.373 185,-158.373 185,-117.373 0,-117.373"/>
<text text-anchor="start" x="8" y="-146.373" font-family="FreeSans" font-size="10.00">SeeSawN::AppSparseUnitSphere</text>
<text text-anchor="start" x="8" y="-135.373" font-family="FreeSans" font-size="10.00">BuilderN::AppSparseUnitSphereBuilder</text>
<text text-anchor="middle" x="92.5" y="-124.373" font-family="FreeSans" font-size="10.00">ImplementationC::SetParameters</text>
</g>
<!-- Node77 -->
<g id="node2" class="node"><title>Node77</title>
<g id="a_node2"><a xlink:href="group__Utility.html#ga79600498c87156174ca98c11ef4f3745" target="_top" xlink:title="Checks whether a path is a valid location for writing. ">
<polygon fill="white" stroke="black" points="259.5,-177.873 259.5,-207.873 373.5,-207.873 373.5,-177.873 259.5,-177.873"/>
<text text-anchor="start" x="267.5" y="-195.873" font-family="FreeSans" font-size="10.00">SeeSawN::WrappersN</text>
<text text-anchor="middle" x="316.5" y="-184.873" font-family="FreeSans" font-size="10.00">::IsWriteable</text>
</a>
</g>
</g>
<!-- Node76&#45;&gt;Node77 -->
<g id="edge1" class="edge"><title>Node76&#45;&gt;Node77</title>
<path fill="none" stroke="midnightblue" d="M176.48,-158.432C200.511,-164.385 226.417,-170.803 249.278,-176.467"/>
<polygon fill="midnightblue" stroke="midnightblue" points="248.663,-179.92 259.211,-178.928 250.346,-173.126 248.663,-179.92"/>
</g>
<!-- Node78 -->
<g id="node3" class="node"><title>Node78</title>
<g id="a_node3"><a xlink:href="classSeeSawN_1_1ApplicationN_1_1InterfaceSparseUnitSphereReconstructionC.html#ae65a4c92e3dd37422ffd23871f84b97e" target="_top" xlink:title="Makes a parameter object from a property tree. ">
<polygon fill="white" stroke="black" points="221,-117.373 221,-158.373 412,-158.373 412,-117.373 221,-117.373"/>
<text text-anchor="start" x="229" y="-146.373" font-family="FreeSans" font-size="10.00">SeeSawN::ApplicationN</text>
<text text-anchor="start" x="229" y="-135.373" font-family="FreeSans" font-size="10.00">::InterfaceSparseUnitSphere</text>
<text text-anchor="middle" x="316.5" y="-124.373" font-family="FreeSans" font-size="10.00">ReconstructionC::MakeParameterObject</text>
</a>
</g>
</g>
<!-- Node76&#45;&gt;Node78 -->
<g id="edge2" class="edge"><title>Node76&#45;&gt;Node78</title>
<path fill="none" stroke="midnightblue" d="M185.078,-137.873C193.576,-137.873 202.232,-137.873 210.837,-137.873"/>
<polygon fill="midnightblue" stroke="midnightblue" points="210.902,-141.374 220.902,-137.873 210.902,-134.374 210.902,-141.374"/>
</g>
<!-- Node80 -->
<g id="node5" class="node"><title>Node80</title>
<g id="a_node5"><a xlink:href="group__Utility.html#ga48dc86b390790f70172782dc63ab5e8f" target="_top" xlink:title="Reads and validates a parameter from a property tree. ">
<polygon fill="white" stroke="black" points="868,-166.873 868,-196.873 989,-196.873 989,-166.873 868,-166.873"/>
<text text-anchor="start" x="876" y="-184.873" font-family="FreeSans" font-size="10.00">SeeSawN::ApplicationN</text>
<text text-anchor="middle" x="928.5" y="-173.873" font-family="FreeSans" font-size="10.00">::ReadParameter</text>
</a>
</g>
</g>
<!-- Node76&#45;&gt;Node80 -->
<g id="edge13" class="edge"><title>Node76&#45;&gt;Node80</title>
<path fill="none" stroke="midnightblue" d="M135.011,-117.337C199.891,-86.5042 330.129,-29.6532 448,-8.87342 532.475,6.01885 555.555,-1.32765 641,-8.87342 726.889,-16.4584 759.525,3.83607 832,-42.8734 875.082,-70.6389 903.899,-125.427 917.816,-157.299"/>
<polygon fill="midnightblue" stroke="midnightblue" points="914.702,-158.922 921.81,-166.778 921.152,-156.204 914.702,-158.922"/>
</g>
<!-- Node79 -->
<g id="node4" class="node"><title>Node79</title>
<g id="a_node4"><a xlink:href="classSeeSawN_1_1ApplicationN_1_1InterfaceMultiviewPanoramaBuilderC.html#ae64ad3d3b4f4626f250d6f45ede90ad3" target="_top" xlink:title="Makes a parameter object from a property tree. ">
<polygon fill="white" stroke="black" points="677,-248.373 677,-289.373 832,-289.373 832,-248.373 677,-248.373"/>
<text text-anchor="start" x="685" y="-277.373" font-family="FreeSans" font-size="10.00">SeeSawN::ApplicationN</text>
<text text-anchor="start" x="685" y="-266.373" font-family="FreeSans" font-size="10.00">::InterfaceMultiviewPanorama</text>
<text text-anchor="middle" x="754.5" y="-255.373" font-family="FreeSans" font-size="10.00">BuilderC::MakeParameterObject</text>
</a>
</g>
</g>
<!-- Node78&#45;&gt;Node79 -->
<g id="edge3" class="edge"><title>Node78&#45;&gt;Node79</title>
<path fill="none" stroke="midnightblue" d="M398.177,-158.537C403.086,-161.273 407.75,-164.37 412,-167.873 437.782,-189.127 420.287,-215.207 448,-233.873 511.99,-276.974 601.091,-282.566 666.559,-279.263"/>
<polygon fill="midnightblue" stroke="midnightblue" points="667.078,-282.739 676.856,-278.661 666.669,-275.751 667.078,-282.739"/>
</g>
<!-- Node78&#45;&gt;Node80 -->
<g id="edge12" class="edge"><title>Node78&#45;&gt;Node80</title>
<path fill="none" stroke="midnightblue" d="M393.072,-158.539C399.637,-161.321 406.041,-164.424 412,-167.873 430.786,-178.746 427.771,-193.005 448,-200.873 589.402,-255.876 772.281,-223.008 866.066,-199.453"/>
<polygon fill="midnightblue" stroke="midnightblue" points="867.137,-202.792 875.956,-196.92 865.401,-196.01 867.137,-202.792"/>
</g>
<!-- Node81 -->
<g id="node6" class="node"><title>Node81</title>
<g id="a_node6"><a xlink:href="classSeeSawN_1_1ApplicationN_1_1InterfaceMultisourceFeatureMatcherC.html#a32151a42087a150e45561f576e7bac11" target="_top" xlink:title="Makes a parameter object from a property tree. ">
<polygon fill="white" stroke="black" points="464,-150.373 464,-191.373 625,-191.373 625,-150.373 464,-150.373"/>
<text text-anchor="start" x="472" y="-179.373" font-family="FreeSans" font-size="10.00">SeeSawN::ApplicationN</text>
<text text-anchor="start" x="472" y="-168.373" font-family="FreeSans" font-size="10.00">::InterfaceMultisourceFeature</text>
<text text-anchor="middle" x="544.5" y="-157.373" font-family="FreeSans" font-size="10.00">MatcherC::MakeParameterObject</text>
</a>
</g>
</g>
<!-- Node78&#45;&gt;Node81 -->
<g id="edge5" class="edge"><title>Node78&#45;&gt;Node81</title>
<path fill="none" stroke="midnightblue" d="M412.035,-151.677C425.722,-153.676 439.78,-155.729 453.378,-157.714"/>
<polygon fill="midnightblue" stroke="midnightblue" points="453.271,-161.235 463.672,-159.217 454.282,-154.309 453.271,-161.235"/>
</g>
<!-- Node84 -->
<g id="node9" class="node"><title>Node84</title>
<g id="a_node9"><a xlink:href="classSeeSawN_1_1ApplicationN_1_1InterfaceSparseUnitSphereReconstructionC.html#aa183452a85be71a4bfa71fffaad4de47" target="_top" xlink:title="Removes the redundant elements from a multisource feature matcher property tree. ">
<polygon fill="white" stroke="black" points="460,-78.8734 460,-130.873 629,-130.873 629,-78.8734 460,-78.8734"/>
<text text-anchor="start" x="468" y="-118.873" font-family="FreeSans" font-size="10.00">SeeSawN::ApplicationN</text>
<text text-anchor="start" x="468" y="-107.873" font-family="FreeSans" font-size="10.00">::InterfaceSparseUnitSphere</text>
<text text-anchor="start" x="468" y="-96.8734" font-family="FreeSans" font-size="10.00">ReconstructionC::PruneMultisource</text>
<text text-anchor="middle" x="544.5" y="-85.8734" font-family="FreeSans" font-size="10.00">FeatureMatcher</text>
</a>
</g>
</g>
<!-- Node78&#45;&gt;Node84 -->
<g id="edge10" class="edge"><title>Node78&#45;&gt;Node84</title>
<path fill="none" stroke="midnightblue" d="M412.035,-124.07C424.538,-122.244 437.351,-120.373 449.839,-118.55"/>
<polygon fill="midnightblue" stroke="midnightblue" points="450.383,-122.007 459.772,-117.099 449.372,-115.081 450.383,-122.007"/>
</g>
<!-- Node85 -->
<g id="node10" class="node"><title>Node85</title>
<g id="a_node10"><a xlink:href="classSeeSawN_1_1ApplicationN_1_1InterfaceSparseUnitSphereReconstructionC.html#ae6bf21ea90f7f974b77106b41df05d2c" target="_top" xlink:title="Removes the redundant elements from a multiview panorama builder property tree. ">
<polygon fill="white" stroke="black" points="448,-18.3734 448,-59.3734 641,-59.3734 641,-18.3734 448,-18.3734"/>
<text text-anchor="start" x="456" y="-47.3734" font-family="FreeSans" font-size="10.00">SeeSawN::ApplicationN</text>
<text text-anchor="start" x="456" y="-36.3734" font-family="FreeSans" font-size="10.00">::InterfaceSparseUnitSphere</text>
<text text-anchor="middle" x="544.5" y="-25.3734" font-family="FreeSans" font-size="10.00">ReconstructionC::PrunePanoramaBuilder</text>
</a>
</g>
</g>
<!-- Node78&#45;&gt;Node85 -->
<g id="edge11" class="edge"><title>Node78&#45;&gt;Node85</title>
<path fill="none" stroke="midnightblue" d="M352.108,-117.35C377.937,-102.587 414.415,-82.8899 448,-68.8734 453.012,-66.7817 458.223,-64.7537 463.511,-62.8049"/>
<polygon fill="midnightblue" stroke="midnightblue" points="464.843,-66.0455 473.083,-59.386 462.489,-59.4533 464.843,-66.0455"/>
</g>
<!-- Node79&#45;&gt;Node80 -->
<g id="edge4" class="edge"><title>Node79&#45;&gt;Node80</title>
<path fill="none" stroke="midnightblue" d="M801.863,-248.288C811.864,-243.673 822.334,-238.709 832,-233.873 852.128,-223.804 874.221,-211.836 892.083,-201.921"/>
<polygon fill="midnightblue" stroke="midnightblue" points="893.977,-204.872 901.005,-196.944 890.567,-198.759 893.977,-204.872"/>
</g>
<!-- Node81&#45;&gt;Node80 -->
<g id="edge9" class="edge"><title>Node81&#45;&gt;Node80</title>
<path fill="none" stroke="midnightblue" d="M625.115,-173.166C693.815,-175.144 792.069,-177.974 857.734,-179.864"/>
<polygon fill="midnightblue" stroke="midnightblue" points="857.887,-183.37 867.984,-180.16 858.089,-176.373 857.887,-183.37"/>
</g>
<!-- Node82 -->
<g id="node7" class="node"><title>Node82</title>
<g id="a_node7"><a xlink:href="classSeeSawN_1_1ApplicationN_1_1InterfaceFeatureMatcherC.html#af7d4e6a1ebf6147dc4385a4a6df3b4e5" target="_top" xlink:title="Makes a parameter object from a property tree. ">
<polygon fill="white" stroke="black" points="687.5,-112.373 687.5,-153.373 821.5,-153.373 821.5,-112.373 687.5,-112.373"/>
<text text-anchor="start" x="695.5" y="-141.373" font-family="FreeSans" font-size="10.00">SeeSawN::ApplicationN</text>
<text text-anchor="start" x="695.5" y="-130.373" font-family="FreeSans" font-size="10.00">::InterfaceFeatureMatcherC</text>
<text text-anchor="middle" x="754.5" y="-119.373" font-family="FreeSans" font-size="10.00">::MakeParameterObject</text>
</a>
</g>
</g>
<!-- Node81&#45;&gt;Node82 -->
<g id="edge6" class="edge"><title>Node81&#45;&gt;Node82</title>
<path fill="none" stroke="midnightblue" d="M625.026,-156.345C642.187,-153.209 660.29,-149.902 677.32,-146.791"/>
<polygon fill="midnightblue" stroke="midnightblue" points="677.999,-150.225 687.207,-144.985 676.741,-143.339 677.999,-150.225"/>
</g>
<!-- Node83 -->
<g id="node8" class="node"><title>Node83</title>
<g id="a_node8"><a xlink:href="classSeeSawN_1_1ApplicationN_1_1InterfaceMultisourceFeatureMatcherC.html#a2e08a3ff773867c3dd24a374109ea603" target="_top" xlink:title="Removes the redundant matcher parameters. ">
<polygon fill="white" stroke="black" points="683,-52.3734 683,-93.3734 826,-93.3734 826,-52.3734 683,-52.3734"/>
<text text-anchor="start" x="691" y="-81.3734" font-family="FreeSans" font-size="10.00">SeeSawN::ApplicationN</text>
<text text-anchor="start" x="691" y="-70.3734" font-family="FreeSans" font-size="10.00">::InterfaceMultisourceFeature</text>
<text text-anchor="middle" x="754.5" y="-59.3734" font-family="FreeSans" font-size="10.00">MatcherC::PruneMatcher</text>
</a>
</g>
</g>
<!-- Node81&#45;&gt;Node83 -->
<g id="edge8" class="edge"><title>Node81&#45;&gt;Node83</title>
<path fill="none" stroke="midnightblue" d="M621.1,-150.21C628.036,-147.173 634.783,-143.741 641,-139.873 660.482,-127.754 657.889,-115.57 677,-102.873 679.395,-101.282 681.887,-99.7556 684.446,-98.2932"/>
<polygon fill="midnightblue" stroke="midnightblue" points="686.165,-101.344 693.362,-93.5685 682.887,-95.1587 686.165,-101.344"/>
</g>
<!-- Node82&#45;&gt;Node80 -->
<g id="edge7" class="edge"><title>Node82&#45;&gt;Node80</title>
<path fill="none" stroke="midnightblue" d="M821.508,-151.678C835.825,-155.757 850.924,-160.058 865.097,-164.096"/>
<polygon fill="midnightblue" stroke="midnightblue" points="864.164,-167.469 874.74,-166.843 866.082,-160.737 864.164,-167.469"/>
</g>
</g>
</svg>
        <g id="navigator" transform="translate(0 0)" fill="#404254">
                <rect fill="#f2f5e9" fill-opacity="0.5" stroke="#606060" stroke-width=".5" x="0" y="0" width="60" height="60"/>
                <use id="zoomplus" xlink:href="#zoomPlus" x="17" y="9" onmousedown="handleZoom(evt,'in')"/>
                <use id="zoomminus" xlink:href="#zoomMin" x="42" y="9" onmousedown="handleZoom(evt,'out')"/>
                <use id="reset" xlink:href="#resetDef" x="30" y="36" onmousedown="handleReset()"/>
                <g id="arrowUp" xlink:href="#dirArrow" transform="translate(30 24)" onmousedown="handlePan(0,-1)">
                  <use xlink:href="#rim" fill="#404040">
                        <set attributeName="fill" to="#808080" begin="arrowUp.mouseover" end="arrowUp.mouseout"/>
                  </use>
                  <path fill="none" stroke="white" stroke-width="1.5" d="M0,-3.0v7 M-2.5,-0.5L0,-3.0L2.5,-0.5"/>
                </g>
                <g id="arrowRight" xlink:href="#dirArrow" transform="rotate(90) translate(36 -43)" onmousedown="handlePan(1,0)">
                  <use xlink:href="#rim" fill="#404040">
                        <set attributeName="fill" to="#808080" begin="arrowRight.mouseover" end="arrowRight.mouseout"/>
                  </use>
                  <path fill="none" stroke="white" stroke-width="1.5" d="M0,-3.0v7 M-2.5,-0.5L0,-3.0L2.5,-0.5"/>
                </g>
                <g id="arrowDown" xlink:href="#dirArrow" transform="rotate(180) translate(-30 -48)" onmousedown="handlePan(0,1)">
                  <use xlink:href="#rim" fill="#404040">
                        <set attributeName="fill" to="#808080" begin="arrowDown.mouseover" end="arrowDown.mouseout"/>
                  </use>
                  <path fill="none" stroke="white" stroke-width="1.5" d="M0,-3.0v7 M-2.5,-0.5L0,-3.0L2.5,-0.5"/>
                </g>
                <g id="arrowLeft" xlink:href="#dirArrow" transform="rotate(270) translate(-36 17)" onmousedown="handlePan(-1,0)">
                  <use xlink:href="#rim" fill="#404040">
                        <set attributeName="fill" to="#808080" begin="arrowLeft.mouseover" end="arrowLeft.mouseout"/>
                  </use>
                  <path fill="none" stroke="white" stroke-width="1.5" d="M0,-3.0v7 M-2.5,-0.5L0,-3.0L2.5,-0.5"/>
                </g>
        </g>
        <svg viewBox="0 0 15 15" width="100%" height="30px" preserveAspectRatio="xMaxYMin meet">
         <g id="arrow_out" transform="scale(0.3 0.3)">
          <a xlink:href="classSeeSawN_1_1AppSparseUnitSphereBuilderN_1_1AppSparseUnitSphereBuilderImplementationC_a0706143c40b8db88a144d6b030c72b40_cgraph_org.svg" target="_base">
           <rect id="button" ry="5" rx="5" y="6" x="6" height="38" width="38"
                fill="#f2f5e9" fill-opacity="0.5" stroke="#606060" stroke-width="1.0"/>
           <path id="arrow"
             d="M 11.500037,31.436501 C 11.940474,20.09759 22.043105,11.32322 32.158766,21.979434 L 37.068811,17.246167 C 37.068811,17.246167 37.088388,32 37.088388,32 L 22.160133,31.978069 C 22.160133,31.978069 26.997745,27.140456 26.997745,27.140456 C 18.528582,18.264221 13.291696,25.230495 11.500037,31.436501 z"
             style="fill:#404040;"/>
          </a>
         </g>
        </svg>
</svg>
