<?xml version="1.0" encoding="UTF-8" standalone="no"?>
<!DOCTYPE svg PUBLIC "-//W3C//DTD SVG 1.1//EN"
 "http://www.w3.org/Graphics/SVG/1.1/DTD/svg11.dtd">
<!-- Generated by graphviz version 2.38.0 (20140413.2041)
 -->
<!-- Title: boost::dynamic_bitset::dynamic_bitset Pages: 1 -->
<svg width="1222pt" height="1056pt"
 viewBox="0.00 0.00 1222.00 1056.00" xmlns="http://www.w3.org/2000/svg" xmlns:xlink="http://www.w3.org/1999/xlink">
<g id="graph0" class="graph" transform="scale(1 1) rotate(0) translate(4 1052)">
<title>boost::dynamic_bitset::dynamic_bitset</title>
<polygon fill="white" stroke="none" points="-4,4 -4,-1052 1218,-1052 1218,4 -4,4"/>
<!-- Node1 -->
<g id="node1" class="node"><title>Node1</title>
<polygon fill="#bfbfbf" stroke="black" points="0,-973.5 0,-1003.5 110,-1003.5 110,-973.5 0,-973.5"/>
<text text-anchor="start" x="8" y="-991.5" font-family="FreeSans" font-size="10.00">boost::dynamic_bitset</text>
<text text-anchor="middle" x="55" y="-980.5" font-family="FreeSans" font-size="10.00">::dynamic_bitset</text>
</g>
<!-- Node2 -->
<g id="node2" class="node"><title>Node2</title>
<g id="a_node2"><a xlink:href="classboost_1_1dynamic__bitset.html#a09220584ba585594f922c7c53399a7b9" target="_top" xlink:title="boost::dynamic_bitset\l::dynamic_bitset">
<polygon fill="white" stroke="black" points="146,-1017.5 146,-1047.5 256,-1047.5 256,-1017.5 146,-1017.5"/>
<text text-anchor="start" x="154" y="-1035.5" font-family="FreeSans" font-size="10.00">boost::dynamic_bitset</text>
<text text-anchor="middle" x="201" y="-1024.5" font-family="FreeSans" font-size="10.00">::dynamic_bitset</text>
</a>
</g>
</g>
<!-- Node1&#45;&gt;Node2 -->
<g id="edge1" class="edge"><title>Node1&#45;&gt;Node2</title>
<path fill="none" stroke="midnightblue" d="M114.951,-1006.51C126.786,-1010.13 139.108,-1013.89 150.579,-1017.4"/>
<polygon fill="midnightblue" stroke="midnightblue" points="115.74,-1003.09 105.154,-1003.52 113.695,-1009.79 115.74,-1003.09"/>
</g>
<!-- Node3 -->
<g id="node3" class="node"><title>Node3</title>
<g id="a_node3"><a xlink:href="classboost_1_1dynamic__bitset.html#ab4467b805732d0f46bd5a2f3432193c8" target="_top" xlink:title="boost::dynamic_bitset\l::init_from_block_range">
<polygon fill="white" stroke="black" points="624.5,-946.5 624.5,-976.5 740.5,-976.5 740.5,-946.5 624.5,-946.5"/>
<text text-anchor="start" x="632.5" y="-964.5" font-family="FreeSans" font-size="10.00">boost::dynamic_bitset</text>
<text text-anchor="middle" x="682.5" y="-953.5" font-family="FreeSans" font-size="10.00">::init_from_block_range</text>
</a>
</g>
</g>
<!-- Node1&#45;&gt;Node3 -->
<g id="edge2" class="edge"><title>Node1&#45;&gt;Node3</title>
<path fill="none" stroke="midnightblue" d="M120.492,-985.716C243.082,-980.425 507.882,-968.994 624.449,-963.963"/>
<polygon fill="midnightblue" stroke="midnightblue" points="119.982,-982.235 110.143,-986.163 120.284,-989.228 119.982,-982.235"/>
</g>
<!-- Node5 -->
<g id="node5" class="node"><title>Node5</title>
<g id="a_node5"><a xlink:href="classboost_1_1dynamic__bitset.html#a8e3c3db2aa0fd4f45aaae2b6b7d96ef1" target="_top" xlink:title="boost::dynamic_bitset\l::operator=">
<polygon fill="white" stroke="black" points="146,-867.5 146,-897.5 256,-897.5 256,-867.5 146,-867.5"/>
<text text-anchor="start" x="154" y="-885.5" font-family="FreeSans" font-size="10.00">boost::dynamic_bitset</text>
<text text-anchor="middle" x="201" y="-874.5" font-family="FreeSans" font-size="10.00">::operator=</text>
</a>
</g>
</g>
<!-- Node1&#45;&gt;Node5 -->
<g id="edge4" class="edge"><title>Node1&#45;&gt;Node5</title>
<path fill="none" stroke="midnightblue" d="M84.8417,-967.269C112.833,-946.665 154.616,-915.908 179.407,-897.659"/>
<polygon fill="midnightblue" stroke="midnightblue" points="82.6102,-964.566 76.6317,-973.313 86.76,-970.203 82.6102,-964.566"/>
</g>
<!-- Node4 -->
<g id="node4" class="node"><title>Node4</title>
<g id="a_node4"><a xlink:href="classboost_1_1dynamic__bitset.html#af98fb40e5d97967f43efea9627eef9e1" target="_top" xlink:title="boost::dynamic_bitset\l::dispatch_init">
<polygon fill="white" stroke="black" points="850,-946.5 850,-976.5 960,-976.5 960,-946.5 850,-946.5"/>
<text text-anchor="start" x="858" y="-964.5" font-family="FreeSans" font-size="10.00">boost::dynamic_bitset</text>
<text text-anchor="middle" x="905" y="-953.5" font-family="FreeSans" font-size="10.00">::dispatch_init</text>
</a>
</g>
</g>
<!-- Node3&#45;&gt;Node4 -->
<g id="edge3" class="edge"><title>Node3&#45;&gt;Node4</title>
<path fill="none" stroke="midnightblue" d="M750.673,-961.5C782.451,-961.5 819.896,-961.5 849.826,-961.5"/>
<polygon fill="midnightblue" stroke="midnightblue" points="750.571,-958 740.571,-961.5 750.571,-965 750.571,-958"/>
</g>
<!-- Node6 -->
<g id="node6" class="node"><title>Node6</title>
<g id="a_node6"><a xlink:href="classboost_1_1dynamic__bitset.html#aeed52d861439697261690e501cb5ae8b" target="_top" xlink:title="boost::dynamic_bitset\l::swap">
<polygon fill="white" stroke="black" points="292,-867.5 292,-897.5 402,-897.5 402,-867.5 292,-867.5"/>
<text text-anchor="start" x="300" y="-885.5" font-family="FreeSans" font-size="10.00">boost::dynamic_bitset</text>
<text text-anchor="middle" x="347" y="-874.5" font-family="FreeSans" font-size="10.00">::swap</text>
</a>
</g>
</g>
<!-- Node5&#45;&gt;Node6 -->
<g id="edge5" class="edge"><title>Node5&#45;&gt;Node6</title>
<path fill="none" stroke="midnightblue" d="M266.27,-882.5C274.75,-882.5 283.375,-882.5 291.667,-882.5"/>
<polygon fill="midnightblue" stroke="midnightblue" points="266.03,-879 256.03,-882.5 266.03,-886 266.03,-879"/>
</g>
<!-- Node36 -->
<g id="node36" class="node"><title>Node36</title>
<g id="a_node36"><a xlink:href="classboost_1_1dynamic__bitset.html#a068f147d773a3dddbc06a1568f40aa03" target="_top" xlink:title="boost::dynamic_bitset\l::dynamic_bitset">
<polygon fill="white" stroke="black" points="292,-818.5 292,-848.5 402,-848.5 402,-818.5 292,-818.5"/>
<text text-anchor="start" x="300" y="-836.5" font-family="FreeSans" font-size="10.00">boost::dynamic_bitset</text>
<text text-anchor="middle" x="347" y="-825.5" font-family="FreeSans" font-size="10.00">::dynamic_bitset</text>
</a>
</g>
</g>
<!-- Node5&#45;&gt;Node36 -->
<g id="edge39" class="edge"><title>Node5&#45;&gt;Node36</title>
<path fill="none" stroke="midnightblue" d="M256.043,-864.11C271.036,-859.008 287.14,-853.529 301.519,-848.636"/>
<polygon fill="midnightblue" stroke="midnightblue" points="254.719,-860.864 246.38,-867.399 256.974,-867.491 254.719,-860.864"/>
</g>
<!-- Node6&#45;&gt;Node3 -->
<g id="edge6" class="edge"><title>Node6&#45;&gt;Node3</title>
<path fill="none" stroke="midnightblue" d="M379.448,-902.92C396.185,-912.828 417.499,-923.971 438,-930.5 499.722,-950.155 573.992,-957.398 624.15,-960.04"/>
<polygon fill="midnightblue" stroke="midnightblue" points="381.018,-899.779 370.654,-897.58 377.385,-905.763 381.018,-899.779"/>
</g>
<!-- Node7 -->
<g id="node7" class="node"><title>Node7</title>
<g id="a_node7"><a xlink:href="classboost_1_1dynamic__bitset.html#adb5eff0ced73dc785c2933aecaa7b5a9" target="_top" xlink:title="boost::dynamic_bitset\l::HammingDistance">
<polygon fill="white" stroke="black" points="438,-842.5 438,-872.5 548,-872.5 548,-842.5 438,-842.5"/>
<text text-anchor="start" x="446" y="-860.5" font-family="FreeSans" font-size="10.00">boost::dynamic_bitset</text>
<text text-anchor="middle" x="493" y="-849.5" font-family="FreeSans" font-size="10.00">::HammingDistance</text>
</a>
</g>
</g>
<!-- Node6&#45;&gt;Node7 -->
<g id="edge7" class="edge"><title>Node6&#45;&gt;Node7</title>
<path fill="none" stroke="midnightblue" d="M411.991,-871.391C420.561,-869.903 429.284,-868.388 437.667,-866.933"/>
<polygon fill="midnightblue" stroke="midnightblue" points="411.284,-867.961 402.03,-873.12 412.481,-874.858 411.284,-867.961"/>
</g>
<!-- Node13 -->
<g id="node13" class="node"><title>Node13</title>
<g id="a_node13"><a xlink:href="classboost_1_1dynamic__bitset.html#a2f38975edd01fc786550418bb44c29ad" target="_top" xlink:title="boost::dynamic_bitset\l::~dynamic_bitset">
<polygon fill="white" stroke="black" points="438,-891.5 438,-921.5 548,-921.5 548,-891.5 438,-891.5"/>
<text text-anchor="start" x="446" y="-909.5" font-family="FreeSans" font-size="10.00">boost::dynamic_bitset</text>
<text text-anchor="middle" x="493" y="-898.5" font-family="FreeSans" font-size="10.00">::~dynamic_bitset</text>
</a>
</g>
</g>
<!-- Node6&#45;&gt;Node13 -->
<g id="edge13" class="edge"><title>Node6&#45;&gt;Node13</title>
<path fill="none" stroke="midnightblue" d="M411.991,-893.165C420.561,-894.593 429.284,-896.047 437.667,-897.445"/>
<polygon fill="midnightblue" stroke="midnightblue" points="412.469,-889.697 402.03,-891.505 411.318,-896.601 412.469,-889.697"/>
</g>
<!-- Node15 -->
<g id="node15" class="node"><title>Node15</title>
<g id="a_node15"><a xlink:href="namespaceboost.html#ab33d5e778d97f2702d840c5a8e28f5da" target="_top" xlink:title="boost::swap">
<polygon fill="white" stroke="black" points="459,-448 459,-467 527,-467 527,-448 459,-448"/>
<text text-anchor="middle" x="493" y="-455" font-family="FreeSans" font-size="10.00">boost::swap</text>
</a>
</g>
</g>
<!-- Node6&#45;&gt;Node15 -->
<g id="edge16" class="edge"><title>Node6&#45;&gt;Node15</title>
<path fill="none" stroke="midnightblue" d="M383.25,-863.088C390.316,-859.286 397.072,-854.604 402,-848.5 452.53,-785.92 483.985,-522.09 490.664,-467.306"/>
<polygon fill="midnightblue" stroke="midnightblue" points="381.705,-859.947 374.248,-867.474 384.771,-866.24 381.705,-859.947"/>
</g>
<!-- Node8 -->
<g id="node8" class="node"><title>Node8</title>
<g id="a_node8"><a xlink:href="classSeeSawN_1_1ElementsN_1_1OrientedBinarySceneFeatureC.html#a215fa76a3154629caa84d510db7cdbb8" target="_top" xlink:title="Summarises a scene feature with its most representative image descriptor. ">
<polygon fill="white" stroke="black" points="609.5,-837 609.5,-878 755.5,-878 755.5,-837 609.5,-837"/>
<text text-anchor="start" x="617.5" y="-866" font-family="FreeSans" font-size="10.00">SeeSawN::ElementsN</text>
<text text-anchor="start" x="617.5" y="-855" font-family="FreeSans" font-size="10.00">::OrientedBinarySceneFeature</text>
<text text-anchor="middle" x="682.5" y="-844" font-family="FreeSans" font-size="10.00">C::MakeCompact</text>
</a>
</g>
</g>
<!-- Node7&#45;&gt;Node8 -->
<g id="edge8" class="edge"><title>Node7&#45;&gt;Node8</title>
<path fill="none" stroke="midnightblue" d="M558.263,-857.5C574.684,-857.5 592.45,-857.5 609.242,-857.5"/>
<polygon fill="midnightblue" stroke="midnightblue" points="558.233,-854 548.233,-857.5 558.233,-861 558.233,-854"/>
</g>
<!-- Node9 -->
<g id="node9" class="node"><title>Node9</title>
<g id="a_node9"><a xlink:href="namespaceSeeSawN_1_1UnitTestsN_1_1TestElementsN.html#a58db68d7dbdc445dc71922acb5049108" target="_top" xlink:title="SeeSawN::UnitTestsN\l::TestElementsN::BOOST\l_AUTO_TEST_CASE">
<polygon fill="white" stroke="black" points="841,-867 841,-908 969,-908 969,-867 841,-867"/>
<text text-anchor="start" x="849" y="-896" font-family="FreeSans" font-size="10.00">SeeSawN::UnitTestsN</text>
<text text-anchor="start" x="849" y="-885" font-family="FreeSans" font-size="10.00">::TestElementsN::BOOST</text>
<text text-anchor="middle" x="905" y="-874" font-family="FreeSans" font-size="10.00">_AUTO_TEST_CASE</text>
</a>
</g>
</g>
<!-- Node8&#45;&gt;Node9 -->
<g id="edge9" class="edge"><title>Node8&#45;&gt;Node9</title>
<path fill="none" stroke="midnightblue" d="M765.837,-868.702C790.674,-872.082 817.535,-875.736 840.91,-878.916"/>
<polygon fill="midnightblue" stroke="midnightblue" points="766.081,-865.203 755.7,-867.323 765.137,-872.139 766.081,-865.203"/>
</g>
<!-- Node10 -->
<g id="node10" class="node"><title>Node10</title>
<g id="a_node10"><a xlink:href="classSeeSawN_1_1GeometryN_1_1SparseUnitSphereReconstructionPipelineC.html#ab2168d14acac87a86acc1d54f59ea0ff" target="_top" xlink:title="Runs the algorithm. ">
<polygon fill="white" stroke="black" points="822,-807 822,-848 988,-848 988,-807 822,-807"/>
<text text-anchor="start" x="830" y="-836" font-family="FreeSans" font-size="10.00">SeeSawN::GeometryN</text>
<text text-anchor="start" x="830" y="-825" font-family="FreeSans" font-size="10.00">::SparseUnitSphereReconstruction</text>
<text text-anchor="middle" x="905" y="-814" font-family="FreeSans" font-size="10.00">PipelineC::Run</text>
</a>
</g>
</g>
<!-- Node8&#45;&gt;Node10 -->
<g id="edge10" class="edge"><title>Node8&#45;&gt;Node10</title>
<path fill="none" stroke="midnightblue" d="M765.732,-846.312C784.019,-843.824 803.408,-841.186 821.698,-838.698"/>
<polygon fill="midnightblue" stroke="midnightblue" points="765.137,-842.861 755.7,-847.677 766.081,-849.797 765.137,-842.861"/>
</g>
<!-- Node11 -->
<g id="node11" class="node"><title>Node11</title>
<g id="a_node11"><a xlink:href="classSeeSawN_1_1AppSparseUnitSphereBuilderN_1_1AppSparseUnitSphereBuilderImplementationC.html#a21278d448f57f45c6ab74176e677592e" target="_top" xlink:title="Runs the application. ">
<polygon fill="white" stroke="black" points="1029,-833 1029,-874 1214,-874 1214,-833 1029,-833"/>
<text text-anchor="start" x="1037" y="-862" font-family="FreeSans" font-size="10.00">SeeSawN::AppSparseUnitSphere</text>
<text text-anchor="start" x="1037" y="-851" font-family="FreeSans" font-size="10.00">BuilderN::AppSparseUnitSphereBuilder</text>
<text text-anchor="middle" x="1121.5" y="-840" font-family="FreeSans" font-size="10.00">ImplementationC::Run</text>
</a>
</g>
</g>
<!-- Node10&#45;&gt;Node11 -->
<g id="edge11" class="edge"><title>Node10&#45;&gt;Node11</title>
<path fill="none" stroke="midnightblue" d="M998.125,-838.667C1008.31,-839.902 1018.69,-841.159 1028.87,-842.394"/>
<polygon fill="midnightblue" stroke="midnightblue" points="998.36,-835.17 988.011,-837.441 997.518,-842.119 998.36,-835.17"/>
</g>
<!-- Node12 -->
<g id="node12" class="node"><title>Node12</title>
<g id="a_node12"><a xlink:href="classSeeSawN_1_1GeometryN_1_1SparseUnitSphereReconstructionPipelineC.html#a36e5a2830a39ac90749196f3f4cbc8eb" target="_top" xlink:title="Conversion from binary scene features to oriented scene features. ">
<polygon fill="white" stroke="black" points="1038.5,-773 1038.5,-814 1204.5,-814 1204.5,-773 1038.5,-773"/>
<text text-anchor="start" x="1046.5" y="-802" font-family="FreeSans" font-size="10.00">SeeSawN::GeometryN</text>
<text text-anchor="start" x="1046.5" y="-791" font-family="FreeSans" font-size="10.00">::SparseUnitSphereReconstruction</text>
<text text-anchor="middle" x="1121.5" y="-780" font-family="FreeSans" font-size="10.00">PipelineC::MakeOriented</text>
</a>
</g>
</g>
<!-- Node10&#45;&gt;Node12 -->
<g id="edge12" class="edge"><title>Node10&#45;&gt;Node12</title>
<path fill="none" stroke="midnightblue" d="M998.119,-812.898C1011.44,-810.788 1025.07,-808.626 1038.18,-806.549"/>
<polygon fill="midnightblue" stroke="midnightblue" points="997.34,-809.478 988.011,-814.501 998.436,-816.392 997.34,-809.478"/>
</g>
<!-- Node13&#45;&gt;Node3 -->
<g id="edge14" class="edge"><title>Node13&#45;&gt;Node3</title>
<path fill="none" stroke="midnightblue" d="M546.847,-924.809C559,-928.826 571.907,-932.939 584,-936.5 596.991,-940.326 611.052,-944.126 624.345,-947.566"/>
<polygon fill="midnightblue" stroke="midnightblue" points="547.886,-921.466 537.292,-921.62 545.67,-928.106 547.886,-921.466"/>
</g>
<!-- Node14 -->
<g id="node14" class="node"><title>Node14</title>
<g id="a_node14"><a xlink:href="classboost_1_1dynamic__bitset.html#a186d71d8f36db3a9a3db87bc17b11a83" target="_top" xlink:title="boost::dynamic_bitset\l::dynamic_bitset">
<polygon fill="white" stroke="black" points="627.5,-897.5 627.5,-927.5 737.5,-927.5 737.5,-897.5 627.5,-897.5"/>
<text text-anchor="start" x="635.5" y="-915.5" font-family="FreeSans" font-size="10.00">boost::dynamic_bitset</text>
<text text-anchor="middle" x="682.5" y="-904.5" font-family="FreeSans" font-size="10.00">::dynamic_bitset</text>
</a>
</g>
</g>
<!-- Node13&#45;&gt;Node14 -->
<g id="edge15" class="edge"><title>Node13&#45;&gt;Node14</title>
<path fill="none" stroke="midnightblue" d="M558.363,-908.56C580.843,-909.279 605.83,-910.079 627.389,-910.768"/>
<polygon fill="midnightblue" stroke="midnightblue" points="558.34,-905.057 548.233,-908.235 558.116,-912.054 558.34,-905.057"/>
</g>
<!-- Node15&#45;&gt;Node6 -->
<g id="edge38" class="edge"><title>Node15&#45;&gt;Node6</title>
<path fill="none" stroke="midnightblue" d="M490.201,-477.496C482.631,-551.279 451.45,-805.258 402,-866.5 401.74,-866.822 401.476,-867.139 401.206,-867.453"/>
<polygon fill="midnightblue" stroke="midnightblue" points="493.713,-477.554 491.213,-467.258 486.746,-476.866 493.713,-477.554"/>
</g>
<!-- Node16 -->
<g id="node16" class="node"><title>Node16</title>
<g id="a_node16"><a xlink:href="classSeeSawN_1_1RANSACN_1_1RANSACC.html#a0911b88de1f851d741dd4f50391a23ca" target="_top" xlink:title="Applies the sequential probability ratio test and evaluates the model. ">
<polygon fill="white" stroke="black" points="599,-787.5 599,-817.5 766,-817.5 766,-787.5 599,-787.5"/>
<text text-anchor="start" x="607" y="-805.5" font-family="FreeSans" font-size="10.00">SeeSawN::RANSACN::RANSACC</text>
<text text-anchor="middle" x="682.5" y="-794.5" font-family="FreeSans" font-size="10.00">::ApplySPRT</text>
</a>
</g>
</g>
<!-- Node15&#45;&gt;Node16 -->
<g id="edge17" class="edge"><title>Node15&#45;&gt;Node16</title>
<path fill="none" stroke="midnightblue" d="M493.265,-477.274C492.329,-533.071 497.678,-693.155 584,-777.5 588.375,-781.774 593.375,-785.347 598.75,-788.331"/>
<polygon fill="midnightblue" stroke="midnightblue" points="496.77,-477.103 493.533,-467.015 489.773,-476.92 496.77,-477.103"/>
</g>
<!-- Node17 -->
<g id="node17" class="node"><title>Node17</title>
<g id="a_node17"><a xlink:href="classSeeSawN_1_1StateEstimationN_1_1UnscentedKalmanFilterC.html#aae2faa75160f93beb701d3bb2026c63b" target="_top" xlink:title="Applies SUT to the augmented state. ">
<polygon fill="white" stroke="black" points="614,-727 614,-768 751,-768 751,-727 614,-727"/>
<text text-anchor="start" x="622" y="-756" font-family="FreeSans" font-size="10.00">SeeSawN::StateEstimation</text>
<text text-anchor="start" x="622" y="-745" font-family="FreeSans" font-size="10.00">N::UnscentedKalmanFilterC</text>
<text text-anchor="middle" x="682.5" y="-734" font-family="FreeSans" font-size="10.00">::ApplySUT</text>
</a>
</g>
</g>
<!-- Node15&#45;&gt;Node17 -->
<g id="edge18" class="edge"><title>Node15&#45;&gt;Node17</title>
<path fill="none" stroke="midnightblue" d="M494.972,-477.177C498.425,-525.298 514.023,-649.913 584,-717.5 592.408,-725.62 602.961,-731.548 613.994,-735.873"/>
<polygon fill="midnightblue" stroke="midnightblue" points="498.463,-476.913 494.354,-467.148 491.476,-477.344 498.463,-476.913"/>
</g>
<!-- Node21 -->
<g id="node21" class="node"><title>Node21</title>
<g id="a_node21"><a xlink:href="classSeeSawN_1_1GeometryN_1_1NodalCameraTrackingPipelineC.html#ad108151ee28ef72761327f5dfa8c2a0c" target="_top" xlink:title="Attempt to replace the best solution with one created from the current generator in the state...">
<polygon fill="white" stroke="black" points="606.5,-667 606.5,-708 758.5,-708 758.5,-667 606.5,-667"/>
<text text-anchor="start" x="614.5" y="-696" font-family="FreeSans" font-size="10.00">SeeSawN::GeometryN</text>
<text text-anchor="start" x="614.5" y="-685" font-family="FreeSans" font-size="10.00">::NodalCameraTrackingPipeline</text>
<text text-anchor="middle" x="682.5" y="-674" font-family="FreeSans" font-size="10.00">C::AssertGenerator</text>
</a>
</g>
</g>
<!-- Node15&#45;&gt;Node21 -->
<g id="edge23" class="edge"><title>Node15&#45;&gt;Node21</title>
<path fill="none" stroke="midnightblue" d="M497.282,-477.107C504.994,-517.016 528.023,-608.084 584,-657.5 590.506,-663.243 598.093,-667.887 606.11,-671.642"/>
<polygon fill="midnightblue" stroke="midnightblue" points="500.692,-476.293 495.464,-467.078 493.804,-477.542 500.692,-476.293"/>
</g>
<!-- Node22 -->
<g id="node22" class="node"><title>Node22</title>
<g id="a_node22"><a xlink:href="classSeeSawN_1_1MatcherN_1_1NearestNeighbourMatcherC.html#a775c4c20ae0ebc5daf072f7ffe65b1c7" target="_top" xlink:title="Builds the N&#45;neighbourhoods. ">
<polygon fill="white" stroke="black" points="614,-607 614,-648 751,-648 751,-607 614,-607"/>
<text text-anchor="start" x="622" y="-636" font-family="FreeSans" font-size="10.00">SeeSawN::MatcherN::</text>
<text text-anchor="start" x="622" y="-625" font-family="FreeSans" font-size="10.00">NearestNeighbourMatcherC</text>
<text text-anchor="middle" x="682.5" y="-614" font-family="FreeSans" font-size="10.00">::BuildNeighbourhoods</text>
</a>
</g>
</g>
<!-- Node15&#45;&gt;Node22 -->
<g id="edge24" class="edge"><title>Node15&#45;&gt;Node22</title>
<path fill="none" stroke="midnightblue" d="M501.246,-476.734C513.597,-506.928 541.58,-565.32 584,-597.5 592.889,-604.243 603.308,-609.484 613.965,-613.554"/>
<polygon fill="midnightblue" stroke="midnightblue" points="504.457,-475.336 497.532,-467.319 497.946,-477.905 504.457,-475.336"/>
</g>
<!-- Node23 -->
<g id="node23" class="node"><title>Node23</title>
<g id="a_node23"><a xlink:href="classSeeSawN_1_1RandomSpanningTreeSamplerN_1_1RandomSpanningTreeSamplerC.html#a95fce4a2b68bbecd4337ba35ef133b97" target="_top" xlink:title="Evaluates a model. ">
<polygon fill="white" stroke="black" points="584,-547 584,-588 781,-588 781,-547 584,-547"/>
<text text-anchor="start" x="592" y="-576" font-family="FreeSans" font-size="10.00">SeeSawN::RandomSpanningTree</text>
<text text-anchor="start" x="592" y="-565" font-family="FreeSans" font-size="10.00">SamplerN::RandomSpanningTreeSampler</text>
<text text-anchor="middle" x="682.5" y="-554" font-family="FreeSans" font-size="10.00">C::EvaluateModel</text>
</a>
</g>
</g>
<!-- Node15&#45;&gt;Node23 -->
<g id="edge25" class="edge"><title>Node15&#45;&gt;Node23</title>
<path fill="none" stroke="midnightblue" d="M509.311,-474.594C526.063,-492.354 554.487,-519.831 584,-536.5 590.882,-540.387 598.318,-543.859 605.907,-546.944"/>
<polygon fill="midnightblue" stroke="midnightblue" points="511.829,-472.163 502.473,-467.192 506.688,-476.913 511.829,-472.163"/>
</g>
<!-- Node24 -->
<g id="node24" class="node"><title>Node24</title>
<g id="a_node24"><a xlink:href="group__Algorithm.html#ga136779e4a07606e656a399ecdcf52aff" target="_top" xlink:title="Evaluates the model from the first stage against the constraint of the second stage. ">
<polygon fill="white" stroke="black" points="611,-497.5 611,-527.5 754,-527.5 754,-497.5 611,-497.5"/>
<text text-anchor="start" x="619" y="-515.5" font-family="FreeSans" font-size="10.00">SeeSawN::RANSACN::Detail</text>
<text text-anchor="middle" x="682.5" y="-504.5" font-family="FreeSans" font-size="10.00">N::EvaluateStage1Model</text>
</a>
</g>
</g>
<!-- Node15&#45;&gt;Node24 -->
<g id="edge26" class="edge"><title>Node15&#45;&gt;Node24</title>
<path fill="none" stroke="midnightblue" d="M530.685,-470.382C546.937,-475.919 566.337,-482.299 584,-487.5 595.65,-490.931 608.161,-494.341 620.206,-497.49"/>
<polygon fill="midnightblue" stroke="midnightblue" points="531.612,-466.999 521.017,-467.061 529.338,-473.62 531.612,-466.999"/>
</g>
<!-- Node25 -->
<g id="node25" class="node"><title>Node25</title>
<g id="a_node25"><a xlink:href="classSeeSawN_1_1AppGeometryEstimator33N_1_1GeometryEstimator33ImplementationC.html#ad42eb57066f34befaaf81420516ebaf5" target="_top" xlink:title="Loads and preprocesses the features. ">
<polygon fill="white" stroke="black" points="588,-437 588,-478 777,-478 777,-437 588,-437"/>
<text text-anchor="start" x="596" y="-466" font-family="FreeSans" font-size="10.00">SeeSawN::AppGeometryEstimator33</text>
<text text-anchor="start" x="596" y="-455" font-family="FreeSans" font-size="10.00">N::GeometryEstimator33Implementation</text>
<text text-anchor="middle" x="682.5" y="-444" font-family="FreeSans" font-size="10.00">C::LoadFeatures</text>
</a>
</g>
</g>
<!-- Node15&#45;&gt;Node25 -->
<g id="edge27" class="edge"><title>Node15&#45;&gt;Node25</title>
<path fill="none" stroke="midnightblue" d="M537.197,-457.5C552.429,-457.5 570.2,-457.5 587.961,-457.5"/>
<polygon fill="midnightblue" stroke="midnightblue" points="537.09,-454 527.09,-457.5 537.09,-461 537.09,-454"/>
</g>
<!-- Node26 -->
<g id="node26" class="node"><title>Node26</title>
<g id="a_node26"><a xlink:href="classSeeSawN_1_1GeometryN_1_1PoseGraphPipelineC.html#abd20d07444a3ba825566a64d7e2bdfd8" target="_top" xlink:title="Prepares the tasks. ">
<polygon fill="white" stroke="black" points="625,-377 625,-418 740,-418 740,-377 625,-377"/>
<text text-anchor="start" x="633" y="-406" font-family="FreeSans" font-size="10.00">SeeSawN::GeometryN</text>
<text text-anchor="start" x="633" y="-395" font-family="FreeSans" font-size="10.00">::PoseGraphPipelineC</text>
<text text-anchor="middle" x="682.5" y="-384" font-family="FreeSans" font-size="10.00">::MakeTasks</text>
</a>
</g>
</g>
<!-- Node15&#45;&gt;Node26 -->
<g id="edge28" class="edge"><title>Node15&#45;&gt;Node26</title>
<path fill="none" stroke="midnightblue" d="M531.897,-444.65C547.942,-439.266 566.855,-432.994 584,-427.5 597.239,-423.257 611.527,-418.796 624.975,-414.648"/>
<polygon fill="midnightblue" stroke="midnightblue" points="530.681,-441.367 522.319,-447.873 532.913,-448.001 530.681,-441.367"/>
</g>
<!-- Node27 -->
<g id="node27" class="node"><title>Node27</title>
<g id="a_node27"><a xlink:href="classSeeSawN_1_1GeometryN_1_1VisionGraphPipelineC.html#ad782ed3eb2a02f3d60df1707f2111346" target="_top" xlink:title="Prepares the tasks. ">
<polygon fill="white" stroke="black" points="624.5,-317 624.5,-358 740.5,-358 740.5,-317 624.5,-317"/>
<text text-anchor="start" x="632.5" y="-346" font-family="FreeSans" font-size="10.00">SeeSawN::GeometryN</text>
<text text-anchor="start" x="632.5" y="-335" font-family="FreeSans" font-size="10.00">::VisionGraphPipelineC</text>
<text text-anchor="middle" x="682.5" y="-324" font-family="FreeSans" font-size="10.00">::MakeTasks</text>
</a>
</g>
</g>
<!-- Node15&#45;&gt;Node27 -->
<g id="edge29" class="edge"><title>Node15&#45;&gt;Node27</title>
<path fill="none" stroke="midnightblue" d="M507.284,-439.739C523.334,-419.472 552.174,-386.662 584,-367.5 596.29,-360.101 610.563,-354.38 624.335,-350.017"/>
<polygon fill="midnightblue" stroke="midnightblue" points="504.378,-437.775 501.031,-447.828 509.916,-442.057 504.378,-437.775"/>
</g>
<!-- Node28 -->
<g id="node28" class="node"><title>Node28</title>
<g id="a_node28"><a xlink:href="classSeeSawN_1_1TrackerN_1_1FeatureTrackerC.html#adb44132da4676092ee29375e47168001" target="_top" xlink:title="Time update. ">
<polygon fill="white" stroke="black" points="603.5,-257 603.5,-298 761.5,-298 761.5,-257 603.5,-257"/>
<text text-anchor="start" x="611.5" y="-286" font-family="FreeSans" font-size="10.00">SeeSawN::TrackerN::</text>
<text text-anchor="start" x="611.5" y="-275" font-family="FreeSans" font-size="10.00">FeatureTrackerC&lt; ImageFeature</text>
<text text-anchor="middle" x="682.5" y="-264" font-family="FreeSans" font-size="10.00">TrackingProblemC &gt;::Predict</text>
</a>
</g>
</g>
<!-- Node15&#45;&gt;Node28 -->
<g id="edge30" class="edge"><title>Node15&#45;&gt;Node28</title>
<path fill="none" stroke="midnightblue" d="M500.369,-438.251C511.913,-406.329 539.32,-342.495 584,-307.5 589.856,-302.913 596.415,-299.024 603.288,-295.727"/>
<polygon fill="midnightblue" stroke="midnightblue" points="497.039,-437.171 497.061,-447.765 503.651,-439.47 497.039,-437.171"/>
</g>
<!-- Node29 -->
<g id="node29" class="node"><title>Node29</title>
<g id="a_node29"><a xlink:href="classSeeSawN_1_1GeometryN_1_1CalibrationVerificationPipelineC.html#a03e35f1c066b215c85d67a1c6ffe4f84" target="_top" xlink:title="Preprocesses the input data. ">
<polygon fill="white" stroke="black" points="608,-197 608,-238 757,-238 757,-197 608,-197"/>
<text text-anchor="start" x="616" y="-226" font-family="FreeSans" font-size="10.00">SeeSawN::GeometryN</text>
<text text-anchor="start" x="616" y="-215" font-family="FreeSans" font-size="10.00">::CalibrationVerificationPipeline</text>
<text text-anchor="middle" x="682.5" y="-204" font-family="FreeSans" font-size="10.00">C::PreprocessInput</text>
</a>
</g>
</g>
<!-- Node15&#45;&gt;Node29 -->
<g id="edge31" class="edge"><title>Node15&#45;&gt;Node29</title>
<path fill="none" stroke="midnightblue" d="M496.831,-437.779C503.82,-396.363 525.757,-299.854 584,-247.5 590.981,-241.225 599.25,-236.263 607.975,-232.338"/>
<polygon fill="midnightblue" stroke="midnightblue" points="493.333,-437.494 495.238,-447.916 500.248,-438.581 493.333,-437.494"/>
</g>
<!-- Node30 -->
<g id="node30" class="node"><title>Node30</title>
<g id="a_node30"><a xlink:href="classSeeSawN_1_1GeometryN_1_1GenericGeometryEstimationProblemC.html#a59803c826e1e73bc9af35c9b800bd40c" target="_top" xlink:title="Processes the RANSAC result and returns a model for refinement. ">
<polygon fill="white" stroke="black" points="598,-137 598,-178 767,-178 767,-137 598,-137"/>
<text text-anchor="start" x="606" y="-166" font-family="FreeSans" font-size="10.00">SeeSawN::GeometryN</text>
<text text-anchor="start" x="606" y="-155" font-family="FreeSans" font-size="10.00">::GenericGeometryEstimation</text>
<text text-anchor="middle" x="682.5" y="-144" font-family="FreeSans" font-size="10.00">ProblemC::ProcessRANSACResult</text>
</a>
</g>
</g>
<!-- Node15&#45;&gt;Node30 -->
<g id="edge32" class="edge"><title>Node15&#45;&gt;Node30</title>
<path fill="none" stroke="midnightblue" d="M494.684,-437.736C497.48,-388.288 511.702,-258.136 584,-187.5 588.18,-183.416 592.903,-179.886 597.959,-176.836"/>
<polygon fill="midnightblue" stroke="midnightblue" points="491.186,-437.604 494.216,-447.756 498.179,-437.93 491.186,-437.604"/>
</g>
<!-- Node32 -->
<g id="node32" class="node"><title>Node32</title>
<g id="a_node32"><a xlink:href="group__IO.html#ga008648d00a0d2bd0fbe59a60df94ffde" target="_top" xlink:title="Reads a cov file. ">
<polygon fill="white" stroke="black" points="611,-99 611,-118 754,-118 754,-99 611,-99"/>
<text text-anchor="middle" x="682.5" y="-106" font-family="FreeSans" font-size="10.00">SeeSawN::ION::ReadCovFile</text>
</a>
</g>
</g>
<!-- Node15&#45;&gt;Node32 -->
<g id="edge34" class="edge"><title>Node15&#45;&gt;Node32</title>
<path fill="none" stroke="midnightblue" d="M496.635,-437.815C505.651,-373.448 537.309,-170.866 584,-127.5 591.582,-120.458 600.965,-115.674 610.889,-112.475"/>
<polygon fill="midnightblue" stroke="midnightblue" points="493.15,-437.467 495.258,-447.85 500.085,-438.419 493.15,-437.467"/>
</g>
<!-- Node33 -->
<g id="node33" class="node"><title>Node33</title>
<g id="a_node33"><a xlink:href="classSeeSawN_1_1ZeroN_1_1ZeroReconstructionEvaluationModuleC.html#a867d3450b3c82e34059cc95320706589" target="_top" xlink:title="Performs a multiview 3D reconstruction from image observations. ">
<polygon fill="white" stroke="black" points="591.5,-49.5 591.5,-79.5 773.5,-79.5 773.5,-49.5 591.5,-49.5"/>
<text text-anchor="start" x="599.5" y="-67.5" font-family="FreeSans" font-size="10.00">SeeSawN::ZeroN::ZeroReconstruction</text>
<text text-anchor="middle" x="682.5" y="-56.5" font-family="FreeSans" font-size="10.00">EvaluationModuleC::Reconstruct</text>
</a>
</g>
</g>
<!-- Node15&#45;&gt;Node33 -->
<g id="edge35" class="edge"><title>Node15&#45;&gt;Node33</title>
<path fill="none" stroke="midnightblue" d="M496.194,-437.513C504.188,-368.272 533.942,-140.119 584,-89.5 587.809,-85.6482 592.125,-82.3627 596.77,-79.5628"/>
<polygon fill="midnightblue" stroke="midnightblue" points="492.669,-437.54 495.025,-447.87 499.624,-438.325 492.669,-437.54"/>
</g>
<!-- Node35 -->
<g id="node35" class="node"><title>Node35</title>
<g id="a_node35"><a xlink:href="classSeeSawN_1_1MatcherN_1_1CorrespondenceFusionC.html#aac2f1d745b6f2cd5388c40464b58f7ce" target="_top" xlink:title="Runs the algorithm. ">
<polygon fill="white" stroke="black" points="610,-0.5 610,-30.5 755,-30.5 755,-0.5 610,-0.5"/>
<text text-anchor="start" x="618" y="-18.5" font-family="FreeSans" font-size="10.00">SeeSawN::MatcherN::</text>
<text text-anchor="middle" x="682.5" y="-7.5" font-family="FreeSans" font-size="10.00">CorrespondenceFusionC::Run</text>
</a>
</g>
</g>
<!-- Node15&#45;&gt;Node35 -->
<g id="edge37" class="edge"><title>Node15&#45;&gt;Node35</title>
<path fill="none" stroke="midnightblue" d="M495.527,-437.735C501.709,-362.852 527.307,-97.8775 584,-39.5 591.165,-32.1216 600.207,-26.8695 609.879,-23.1553"/>
<polygon fill="midnightblue" stroke="midnightblue" points="492.038,-437.463 494.727,-447.711 499.015,-438.023 492.038,-437.463"/>
</g>
<!-- Node18 -->
<g id="node18" class="node"><title>Node18</title>
<g id="a_node18"><a xlink:href="classSeeSawN_1_1StateEstimationN_1_1UnscentedKalmanFilterC.html#a810be1aed0f082f1c50541ff23690149" target="_top" xlink:title="Advances the state of the filter, and generates a measurement prediction. ">
<polygon fill="white" stroke="black" points="836.5,-737 836.5,-778 973.5,-778 973.5,-737 836.5,-737"/>
<text text-anchor="start" x="844.5" y="-766" font-family="FreeSans" font-size="10.00">SeeSawN::StateEstimation</text>
<text text-anchor="start" x="844.5" y="-755" font-family="FreeSans" font-size="10.00">N::UnscentedKalmanFilterC</text>
<text text-anchor="middle" x="905" y="-744" font-family="FreeSans" font-size="10.00">::Predict</text>
</a>
</g>
</g>
<!-- Node17&#45;&gt;Node18 -->
<g id="edge19" class="edge"><title>Node17&#45;&gt;Node18</title>
<path fill="none" stroke="midnightblue" d="M761.162,-751.022C785.731,-752.136 812.673,-753.358 836.472,-754.438"/>
<polygon fill="midnightblue" stroke="midnightblue" points="761.304,-747.525 751.156,-750.568 760.987,-754.518 761.304,-747.525"/>
</g>
<!-- Node20 -->
<g id="node20" class="node"><title>Node20</title>
<g id="a_node20"><a xlink:href="classSeeSawN_1_1StateEstimationN_1_1UnscentedKalmanFilterC.html#a53195364f6defb9b9167471821046078" target="_top" xlink:title="Updates the state. ">
<polygon fill="white" stroke="black" points="836.5,-677 836.5,-718 973.5,-718 973.5,-677 836.5,-677"/>
<text text-anchor="start" x="844.5" y="-706" font-family="FreeSans" font-size="10.00">SeeSawN::StateEstimation</text>
<text text-anchor="start" x="844.5" y="-695" font-family="FreeSans" font-size="10.00">N::UnscentedKalmanFilterC</text>
<text text-anchor="middle" x="905" y="-684" font-family="FreeSans" font-size="10.00">::Update</text>
</a>
</g>
</g>
<!-- Node17&#45;&gt;Node20 -->
<g id="edge21" class="edge"><title>Node17&#45;&gt;Node20</title>
<path fill="none" stroke="midnightblue" d="M761.162,-729.89C785.731,-724.318 812.673,-718.209 836.472,-712.812"/>
<polygon fill="midnightblue" stroke="midnightblue" points="760.134,-726.534 751.156,-732.159 761.682,-733.36 760.134,-726.534"/>
</g>
<!-- Node19 -->
<g id="node19" class="node"><title>Node19</title>
<g id="a_node19"><a xlink:href="classSeeSawN_1_1StateEstimationN_1_1UnscentedKalmanFilterC.html#a3e3faa188618ca14fd21fb92d2a4c4e4" target="_top" xlink:title="Batch operation. ">
<polygon fill="white" stroke="black" points="1042,-716.5 1042,-746.5 1201,-746.5 1201,-716.5 1042,-716.5"/>
<text text-anchor="start" x="1050" y="-734.5" font-family="FreeSans" font-size="10.00">SeeSawN::StateEstimation</text>
<text text-anchor="middle" x="1121.5" y="-723.5" font-family="FreeSans" font-size="10.00">N::UnscentedKalmanFilterC::Run</text>
</a>
</g>
</g>
<!-- Node18&#45;&gt;Node19 -->
<g id="edge20" class="edge"><title>Node18&#45;&gt;Node19</title>
<path fill="none" stroke="midnightblue" d="M983.612,-748.093C1002.49,-745.804 1022.71,-743.354 1041.65,-741.058"/>
<polygon fill="midnightblue" stroke="midnightblue" points="983.081,-744.631 973.575,-749.309 983.923,-751.58 983.081,-744.631"/>
</g>
<!-- Node20&#45;&gt;Node19 -->
<g id="edge22" class="edge"><title>Node20&#45;&gt;Node19</title>
<path fill="none" stroke="midnightblue" d="M983.612,-709.802C1002.49,-712.795 1022.71,-715.999 1041.65,-719.001"/>
<polygon fill="midnightblue" stroke="midnightblue" points="983.999,-706.32 973.575,-708.211 982.903,-713.234 983.999,-706.32"/>
</g>
<!-- Node31 -->
<g id="node31" class="node"><title>Node31</title>
<g id="a_node31"><a xlink:href="namespaceSeeSawN_1_1UnitTestsN_1_1TestGeometryN.html#a32654de8d3508439f7b2c562a9341d8e" target="_top" xlink:title="SeeSawN::UnitTestsN\l::TestGeometryN::BOOST\l_AUTO_TEST_CASE">
<polygon fill="white" stroke="black" points="840.5,-137 840.5,-178 969.5,-178 969.5,-137 840.5,-137"/>
<text text-anchor="start" x="848.5" y="-166" font-family="FreeSans" font-size="10.00">SeeSawN::UnitTestsN</text>
<text text-anchor="start" x="848.5" y="-155" font-family="FreeSans" font-size="10.00">::TestGeometryN::BOOST</text>
<text text-anchor="middle" x="905" y="-144" font-family="FreeSans" font-size="10.00">_AUTO_TEST_CASE</text>
</a>
</g>
</g>
<!-- Node30&#45;&gt;Node31 -->
<g id="edge33" class="edge"><title>Node30&#45;&gt;Node31</title>
<path fill="none" stroke="midnightblue" d="M777.209,-157.5C798.487,-157.5 820.607,-157.5 840.299,-157.5"/>
<polygon fill="midnightblue" stroke="midnightblue" points="777.176,-154 767.176,-157.5 777.176,-161 777.176,-154"/>
</g>
<!-- Node34 -->
<g id="node34" class="node"><title>Node34</title>
<g id="a_node34"><a xlink:href="classSeeSawN_1_1AppZeroReconstructionEvaluationN_1_1AppZeroReconstructionEvaluationImplementationC.html#a627d6c37454be6dba342f8321dad0e31" target="_top" xlink:title="Runs the application. ">
<polygon fill="white" stroke="black" points="817,-44 817,-85 993,-85 993,-44 817,-44"/>
<text text-anchor="start" x="825" y="-73" font-family="FreeSans" font-size="10.00">SeeSawN::AppZeroReconstruction</text>
<text text-anchor="start" x="825" y="-62" font-family="FreeSans" font-size="10.00">EvaluationN::AppZeroReconstruction</text>
<text text-anchor="middle" x="905" y="-51" font-family="FreeSans" font-size="10.00">EvaluationImplementationC::Run</text>
</a>
</g>
</g>
<!-- Node33&#45;&gt;Node34 -->
<g id="edge36" class="edge"><title>Node33&#45;&gt;Node34</title>
<path fill="none" stroke="midnightblue" d="M783.616,-64.5C794.683,-64.5 805.888,-64.5 816.778,-64.5"/>
<polygon fill="midnightblue" stroke="midnightblue" points="783.504,-61.0001 773.504,-64.5 783.504,-68.0001 783.504,-61.0001"/>
</g>
</g>
</svg>
