<?xml version="1.0" encoding="UTF-8" standalone="no"?>
<!DOCTYPE svg PUBLIC "-//W3C//DTD SVG 1.1//EN"
 "http://www.w3.org/Graphics/SVG/1.1/DTD/svg11.dtd">
<!-- Generated by graphviz version 2.38.0 (20140413.2041)
 -->
<!-- Title: SeeSawN::ElementsN::ImageFeatureC::Swap Pages: 1 -->
<svg width="321pt" height="159pt"
 viewBox="0.00 0.00 321.00 159.00" xmlns="http://www.w3.org/2000/svg" xmlns:xlink="http://www.w3.org/1999/xlink">
<g id="graph0" class="graph" transform="scale(1 1) rotate(0) translate(4 155)">
<title>SeeSawN::ElementsN::ImageFeatureC::Swap</title>
<polygon fill="white" stroke="none" points="-4,4 -4,-155 317,-155 317,4 -4,4"/>
<!-- Node4 -->
<g id="node1" class="node"><title>Node4</title>
<polygon fill="#bfbfbf" stroke="black" points="0,-49.5 0,-79.5 117,-79.5 117,-49.5 0,-49.5"/>
<text text-anchor="start" x="8" y="-67.5" font-family="FreeSans" font-size="10.00">SeeSawN::ElementsN</text>
<text text-anchor="middle" x="58.5" y="-56.5" font-family="FreeSans" font-size="10.00">::ImageFeatureC::Swap</text>
</g>
<!-- Node5 -->
<g id="node2" class="node"><title>Node5</title>
<g id="a_node2"><a xlink:href="classSeeSawN_1_1ElementsN_1_1FeatureC.html#a92e6ac63de8eb61e7b6ae7ae21241f68" target="_top" xlink:title="Accessor for coordinate. ">
<polygon fill="white" stroke="black" points="153,-98.5 153,-150.5 313,-150.5 313,-98.5 153,-98.5"/>
<text text-anchor="start" x="161" y="-138.5" font-family="FreeSans" font-size="10.00">SeeSawN::ElementsN</text>
<text text-anchor="start" x="161" y="-127.5" font-family="FreeSans" font-size="10.00">::FeatureC&lt; ImageFeatureC,</text>
<text text-anchor="start" x="161" y="-116.5" font-family="FreeSans" font-size="10.00"> Coordinate2DT, ImageDescriptor</text>
<text text-anchor="middle" x="233" y="-105.5" font-family="FreeSans" font-size="10.00">T, ImageRoIT &gt;::Coordinate</text>
</a>
</g>
</g>
<!-- Node4&#45;&gt;Node5 -->
<g id="edge1" class="edge"><title>Node4&#45;&gt;Node5</title>
<path fill="none" stroke="midnightblue" d="M117.42,-78.2307C132.901,-83.2371 149.753,-89.0409 165.65,-94.834"/>
<polygon fill="midnightblue" stroke="midnightblue" points="164.811,-98.255 175.404,-98.4324 167.234,-91.6876 164.811,-98.255"/>
</g>
<!-- Node4&#45;&gt;Node5 -->
<g id="edge2" class="edge"><title>Node4&#45;&gt;Node5</title>
<path fill="none" stroke="midnightblue" d="M87.9849,-79.5741C103.35,-85.9333 123.243,-93.3794 143.311,-100.399"/>
<polygon fill="midnightblue" stroke="midnightblue" points="142.247,-103.735 152.842,-103.696 144.536,-97.1193 142.247,-103.735"/>
</g>
<!-- Node6 -->
<g id="node3" class="node"><title>Node6</title>
<g id="a_node3"><a xlink:href="classSeeSawN_1_1ElementsN_1_1FeatureC.html#adf53174d5a0ddade03f4dc94d2661a9f" target="_top" xlink:title="Accessor for descriptor. ">
<polygon fill="white" stroke="black" points="176.5,-49.5 176.5,-79.5 289.5,-79.5 289.5,-49.5 176.5,-49.5"/>
<text text-anchor="start" x="184.5" y="-67.5" font-family="FreeSans" font-size="10.00">SeeSawN::ElementsN</text>
<text text-anchor="middle" x="233" y="-56.5" font-family="FreeSans" font-size="10.00">::FeatureC::Descriptor</text>
</a>
</g>
</g>
<!-- Node4&#45;&gt;Node6 -->
<g id="edge3" class="edge"><title>Node4&#45;&gt;Node6</title>
<path fill="none" stroke="midnightblue" d="M117.42,-58.0846C132.996,-57.7039 149.959,-57.648 165.942,-57.9172"/>
<polygon fill="midnightblue" stroke="midnightblue" points="166.206,-61.4236 176.279,-58.1408 166.357,-54.4252 166.206,-61.4236"/>
</g>
<!-- Node4&#45;&gt;Node6 -->
<g id="edge4" class="edge"><title>Node4&#45;&gt;Node6</title>
<path fill="none" stroke="midnightblue" d="M117.42,-70.9154C132.996,-71.2961 149.959,-71.352 165.942,-71.0828"/>
<polygon fill="midnightblue" stroke="midnightblue" points="166.357,-74.5748 176.279,-70.8592 166.206,-67.5764 166.357,-74.5748"/>
</g>
<!-- Node7 -->
<g id="node4" class="node"><title>Node7</title>
<g id="a_node4"><a xlink:href="classSeeSawN_1_1ElementsN_1_1FeatureC.html#a39e53d149bbdd3ce6f399f0d84273f93" target="_top" xlink:title="Accessor for roi. ">
<polygon fill="white" stroke="black" points="176.5,-0.5 176.5,-30.5 289.5,-30.5 289.5,-0.5 176.5,-0.5"/>
<text text-anchor="start" x="184.5" y="-18.5" font-family="FreeSans" font-size="10.00">SeeSawN::ElementsN</text>
<text text-anchor="middle" x="233" y="-7.5" font-family="FreeSans" font-size="10.00">::FeatureC::RoI</text>
</a>
</g>
</g>
<!-- Node4&#45;&gt;Node7 -->
<g id="edge5" class="edge"><title>Node4&#45;&gt;Node7</title>
<path fill="none" stroke="midnightblue" d="M93.1692,-49.455C114.03,-42.3671 141.526,-34.1926 166.541,-27.5215"/>
<polygon fill="midnightblue" stroke="midnightblue" points="167.565,-30.8716 176.351,-24.9504 165.79,-24.1003 167.565,-30.8716"/>
</g>
<!-- Node4&#45;&gt;Node7 -->
<g id="edge6" class="edge"><title>Node4&#45;&gt;Node7</title>
<path fill="none" stroke="midnightblue" d="M117.42,-54.4628C140.761,-48.403 167.217,-40.7291 188.821,-33.7033"/>
<polygon fill="midnightblue" stroke="midnightblue" points="189.991,-37.0028 198.378,-30.5289 187.785,-30.3597 189.991,-37.0028"/>
</g>
</g>
</svg>
