<?xml version="1.0" encoding="UTF-8" standalone="no"?>
<!DOCTYPE svg PUBLIC "-//W3C//DTD SVG 1.1//EN"
 "http://www.w3.org/Graphics/SVG/1.1/DTD/svg11.dtd">
<!-- Generated by graphviz version 2.38.0 (20140413.2041)
 -->
<!-- Title: SeeSawN::GeometryN::MultiviewTriangulationC::FuseMeasurements Pages: 1 -->
<!--zoomable 207 -->
<svg id="main" version="1.1" xmlns="http://www.w3.org/2000/svg" xmlns:xlink="http://www.w3.org/1999/xlink" xml:space="preserve" onload="init(evt)">
<style type="text/css"><![CDATA[
.edge:hover path { stroke: red; }
.edge:hover polygon { stroke: red; fill: red; }
]]></style>
<script type="text/javascript"><![CDATA[
var edges = document.getElementsByTagName('g');
if (edges && edges.length) {
  for (var i=0;i<edges.length;i++) {
    if (edges[i].id.substr(0,4)=='edge') {
      edges[i].setAttribute('class','edge');
    }
  }
}
]]></script>
        <defs>
                <circle id="rim" cx="0" cy="0" r="7"/>
                <circle id="rim2" cx="0" cy="0" r="3.5"/>
                <g id="zoomPlus">
                        <use xlink:href="#rim" fill="#404040">
                                <set attributeName="fill" to="#808080" begin="zoomplus.mouseover" end="zoomplus.mouseout"/>
                        </use>
                        <path d="M-4,0h8M0,-4v8" fill="none" stroke="white" stroke-width="1.5" pointer-events="none"/>
                </g>
                <g id="zoomMin">
                        <use xlink:href="#rim" fill="#404040">
                                <set attributeName="fill" to="#808080" begin="zoomminus.mouseover" end="zoomminus.mouseout"/>
                        </use>
                        <path d="M-4,0h8" fill="none" stroke="white" stroke-width="1.5" pointer-events="none"/>
                </g>
                <g id="dirArrow">
                        <path fill="none" stroke="white" stroke-width="1.5" d="M0,-3.0v7 M-2.5,-0.5L0,-3.0L2.5,-0.5"/>
                </g>
               <g id="resetDef">
                       <use xlink:href="#rim2" fill="#404040">
                               <set attributeName="fill" to="#808080" begin="reset.mouseover" end="reset.mouseout"/>
                       </use>
               </g>
        </defs>

<script type="text/javascript">
var viewWidth = 977;
var viewHeight = 207;
var sectionId = 'dynsection-10';
</script>
<script xlink:href="svgpan.js"/>
<svg id="graph" class="graph">
<g id="viewport">
<title>SeeSawN::GeometryN::MultiviewTriangulationC::FuseMeasurements</title>
<polygon fill="white" stroke="none" points="-4,4 -4,-202.5 973,-202.5 973,4 -4,4"/>
<!-- Node84 -->
<g id="node1" class="node"><title>Node84</title>
<polygon fill="#bfbfbf" stroke="black" points="0,-69 0,-110 125,-110 125,-69 0,-69"/>
<text text-anchor="start" x="8" y="-98" font-family="FreeSans" font-size="10.00">SeeSawN::GeometryN</text>
<text text-anchor="start" x="8" y="-87" font-family="FreeSans" font-size="10.00">::MultiviewTriangulationC</text>
<text text-anchor="middle" x="62.5" y="-76" font-family="FreeSans" font-size="10.00">::FuseMeasurements</text>
</g>
<!-- Node85 -->
<g id="node2" class="node"><title>Node85</title>
<g id="a_node2"><a xlink:href="classSeeSawN_1_1GeometryN_1_1MultiviewTriangulationC.html#a89824d36ba52be840543d7d31020861d" target="_top" xlink:title="Runs the algorithm. ">
<polygon fill="white" stroke="black" points="161,-74.5 161,-104.5 307,-104.5 307,-74.5 161,-74.5"/>
<text text-anchor="start" x="169" y="-92.5" font-family="FreeSans" font-size="10.00">SeeSawN::GeometryN</text>
<text text-anchor="middle" x="234" y="-81.5" font-family="FreeSans" font-size="10.00">::MultiviewTriangulationC::Run</text>
</a>
</g>
</g>
<!-- Node84&#45;&gt;Node85 -->
<g id="edge1" class="edge"><title>Node84&#45;&gt;Node85</title>
<path fill="none" stroke="midnightblue" d="M135.319,-89.5C143.727,-89.5 152.309,-89.5 160.723,-89.5"/>
<polygon fill="midnightblue" stroke="midnightblue" points="135.173,-86.0001 125.173,-89.5 135.173,-93.0001 135.173,-86.0001"/>
</g>
<!-- Node86 -->
<g id="node3" class="node"><title>Node86</title>
<g id="a_node3"><a xlink:href="classSeeSawN_1_1GeometryN_1_1SfMPipelineC.html#a228bbaea7fbd4d88d0050341e4ebd4c8" target="_top" xlink:title="Performs multiview triangulation. ">
<polygon fill="white" stroke="black" points="354,-157 354,-198 515,-198 515,-157 354,-157"/>
<text text-anchor="start" x="362" y="-186" font-family="FreeSans" font-size="10.00">SeeSawN::GeometryN</text>
<text text-anchor="start" x="362" y="-175" font-family="FreeSans" font-size="10.00">::SfMPipelineC::PerformMultiview</text>
<text text-anchor="middle" x="434.5" y="-164" font-family="FreeSans" font-size="10.00">Triangulation</text>
</a>
</g>
</g>
<!-- Node85&#45;&gt;Node86 -->
<g id="edge2" class="edge"><title>Node85&#45;&gt;Node86</title>
<path fill="none" stroke="midnightblue" d="M268.946,-109.688C289.853,-121.624 317.457,-136.505 343,-147.5 350.602,-150.772 358.687,-153.911 366.776,-156.843"/>
<polygon fill="midnightblue" stroke="midnightblue" points="270.544,-106.57 260.133,-104.605 267.047,-112.633 270.544,-106.57"/>
</g>
<!-- Node89 -->
<g id="node6" class="node"><title>Node89</title>
<g id="a_node6"><a xlink:href="classSeeSawN_1_1GeometryN_1_1Sparse3DReconstructionPipelineC.html#a5cbc6f822733759c2ee28fc7df054719" target="_top" xlink:title="Runs the reconstruction pipeline. ">
<polygon fill="white" stroke="black" points="352.5,-97 352.5,-138 516.5,-138 516.5,-97 352.5,-97"/>
<text text-anchor="start" x="360.5" y="-126" font-family="FreeSans" font-size="10.00">SeeSawN::GeometryN</text>
<text text-anchor="start" x="360.5" y="-115" font-family="FreeSans" font-size="10.00">::Sparse3DReconstructionPipeline</text>
<text text-anchor="middle" x="434.5" y="-104" font-family="FreeSans" font-size="10.00">C::Reconstruct</text>
</a>
</g>
</g>
<!-- Node85&#45;&gt;Node89 -->
<g id="edge5" class="edge"><title>Node85&#45;&gt;Node89</title>
<path fill="none" stroke="midnightblue" d="M317.284,-101.107C328.843,-102.737 340.718,-104.412 352.257,-106.04"/>
<polygon fill="midnightblue" stroke="midnightblue" points="317.615,-97.619 307.225,-99.6878 316.638,-104.55 317.615,-97.619"/>
</g>
<!-- Node90 -->
<g id="node7" class="node"><title>Node90</title>
<g id="a_node7"><a xlink:href="classSeeSawN_1_1ZeroN_1_1ZeroReconstructionEvaluationModuleC.html#aa1b7a6fe75a85181bf1593b9b7054c26" target="_top" xlink:title="Reconstructs a 3D model of the scene from the specified cameras. ">
<polygon fill="white" stroke="black" points="343,-47.5 343,-77.5 526,-77.5 526,-47.5 343,-47.5"/>
<text text-anchor="start" x="351" y="-65.5" font-family="FreeSans" font-size="10.00">SeeSawN::ZeroN::ZeroReconstruction</text>
<text text-anchor="middle" x="434.5" y="-54.5" font-family="FreeSans" font-size="10.00">EvaluationModuleC::ReconstructModel</text>
</a>
</g>
</g>
<!-- Node85&#45;&gt;Node90 -->
<g id="edge6" class="edge"><title>Node85&#45;&gt;Node90</title>
<path fill="none" stroke="midnightblue" d="M317.337,-78.3005C325.709,-77.1618 334.246,-76.0006 342.701,-74.8506"/>
<polygon fill="midnightblue" stroke="midnightblue" points="316.662,-74.8601 307.225,-79.676 317.605,-81.7962 316.662,-74.8601"/>
</g>
<!-- Node93 -->
<g id="node10" class="node"><title>Node93</title>
<g id="a_node10"><a xlink:href="classSeeSawN_1_1ZeroN_1_1ZeroReconstructionEvaluationModuleC.html#a867d3450b3c82e34059cc95320706589" target="_top" xlink:title="Performs a multiview 3D reconstruction from image observations. ">
<polygon fill="white" stroke="black" points="568.5,-0.5 568.5,-30.5 750.5,-30.5 750.5,-0.5 568.5,-0.5"/>
<text text-anchor="start" x="576.5" y="-18.5" font-family="FreeSans" font-size="10.00">SeeSawN::ZeroN::ZeroReconstruction</text>
<text text-anchor="middle" x="659.5" y="-7.5" font-family="FreeSans" font-size="10.00">EvaluationModuleC::Reconstruct</text>
</a>
</g>
</g>
<!-- Node85&#45;&gt;Node93 -->
<g id="edge9" class="edge"><title>Node85&#45;&gt;Node93</title>
<path fill="none" stroke="midnightblue" d="M268.001,-69.5515C288.76,-58.0493 316.541,-44.515 343,-37.5 417.17,-17.835 504.382,-13.084 568.294,-12.8243"/>
<polygon fill="midnightblue" stroke="midnightblue" points="266.248,-66.5218 259.273,-74.4967 269.699,-72.6122 266.248,-66.5218"/>
</g>
<!-- Node87 -->
<g id="node4" class="node"><title>Node87</title>
<g id="a_node4"><a xlink:href="classSeeSawN_1_1GeometryN_1_1SfMPipelineC.html#af69465c85b2ab27de0522cb35cea1407" target="_top" xlink:title="Estimates the camera poses. ">
<polygon fill="white" stroke="black" points="586.5,-162.5 586.5,-192.5 732.5,-192.5 732.5,-162.5 586.5,-162.5"/>
<text text-anchor="start" x="594.5" y="-180.5" font-family="FreeSans" font-size="10.00">SeeSawN::GeometryN</text>
<text text-anchor="middle" x="659.5" y="-169.5" font-family="FreeSans" font-size="10.00">::SfMPipelineC::EstimatePose</text>
</a>
</g>
</g>
<!-- Node86&#45;&gt;Node87 -->
<g id="edge3" class="edge"><title>Node86&#45;&gt;Node87</title>
<path fill="none" stroke="midnightblue" d="M525.265,-177.5C545.587,-177.5 566.912,-177.5 586.395,-177.5"/>
<polygon fill="midnightblue" stroke="midnightblue" points="525.064,-174 515.064,-177.5 525.064,-181 525.064,-174"/>
</g>
<!-- Node88 -->
<g id="node5" class="node"><title>Node88</title>
<g id="a_node5"><a xlink:href="classSeeSawN_1_1GeometryN_1_1SfMPipelineC.html#a3ce680beb7933e8917bb41fadf29c6b2" target="_top" xlink:title="Runs the algorithm. ">
<polygon fill="white" stroke="black" points="823.5,-162.5 823.5,-192.5 938.5,-192.5 938.5,-162.5 823.5,-162.5"/>
<text text-anchor="start" x="831.5" y="-180.5" font-family="FreeSans" font-size="10.00">SeeSawN::GeometryN</text>
<text text-anchor="middle" x="881" y="-169.5" font-family="FreeSans" font-size="10.00">::SfMPipelineC::Run</text>
</a>
</g>
</g>
<!-- Node87&#45;&gt;Node88 -->
<g id="edge4" class="edge"><title>Node87&#45;&gt;Node88</title>
<path fill="none" stroke="midnightblue" d="M742.842,-177.5C769.703,-177.5 798.904,-177.5 823.431,-177.5"/>
<polygon fill="midnightblue" stroke="midnightblue" points="742.677,-174 732.677,-177.5 742.676,-181 742.677,-174"/>
</g>
<!-- Node91 -->
<g id="node8" class="node"><title>Node91</title>
<g id="a_node8"><a xlink:href="classSeeSawN_1_1ZeroN_1_1ZeroReconstructionEvaluationModuleC.html#a4349de15b78a95932b4f253130d77b96" target="_top" xlink:title="Evaluates the consistency of reconstructions. ">
<polygon fill="white" stroke="black" points="562,-49.5 562,-79.5 757,-79.5 757,-49.5 562,-49.5"/>
<text text-anchor="start" x="570" y="-67.5" font-family="FreeSans" font-size="10.00">SeeSawN::ZeroN::ZeroReconstruction</text>
<text text-anchor="middle" x="659.5" y="-56.5" font-family="FreeSans" font-size="10.00">EvaluationModuleC::EvaluateConsistency</text>
</a>
</g>
</g>
<!-- Node90&#45;&gt;Node91 -->
<g id="edge7" class="edge"><title>Node90&#45;&gt;Node91</title>
<path fill="none" stroke="midnightblue" d="M536.412,-63.405C544.826,-63.4805 553.32,-63.5567 561.702,-63.6319"/>
<polygon fill="midnightblue" stroke="midnightblue" points="536.234,-59.9034 526.203,-63.3135 536.171,-66.9031 536.234,-59.9034"/>
</g>
<!-- Node92 -->
<g id="node9" class="node"><title>Node92</title>
<g id="a_node9"><a xlink:href="classSeeSawN_1_1AppZeroReconstructionEvaluationN_1_1AppZeroReconstructionEvaluationImplementationC.html#a627d6c37454be6dba342f8321dad0e31" target="_top" xlink:title="Runs the application. ">
<polygon fill="white" stroke="black" points="793,-20 793,-61 969,-61 969,-20 793,-20"/>
<text text-anchor="start" x="801" y="-49" font-family="FreeSans" font-size="10.00">SeeSawN::AppZeroReconstruction</text>
<text text-anchor="start" x="801" y="-38" font-family="FreeSans" font-size="10.00">EvaluationN::AppZeroReconstruction</text>
<text text-anchor="middle" x="881" y="-27" font-family="FreeSans" font-size="10.00">EvaluationImplementationC::Run</text>
</a>
</g>
</g>
<!-- Node91&#45;&gt;Node92 -->
<g id="edge8" class="edge"><title>Node91&#45;&gt;Node92</title>
<path fill="none" stroke="midnightblue" d="M767.128,-52.8414C775.695,-51.9047 784.287,-50.9652 792.695,-50.0458"/>
<polygon fill="midnightblue" stroke="midnightblue" points="766.656,-49.3721 757.095,-53.9383 767.417,-56.3306 766.656,-49.3721"/>
</g>
<!-- Node93&#45;&gt;Node92 -->
<g id="edge10" class="edge"><title>Node93&#45;&gt;Node92</title>
<path fill="none" stroke="midnightblue" d="M760.93,-26.9385C771.621,-28.1562 782.432,-29.3874 792.951,-30.5855"/>
<polygon fill="midnightblue" stroke="midnightblue" points="761.061,-23.4309 750.729,-25.7767 760.269,-30.3859 761.061,-23.4309"/>
</g>
</g>
</svg>
        <g id="navigator" transform="translate(0 0)" fill="#404254">
                <rect fill="#f2f5e9" fill-opacity="0.5" stroke="#606060" stroke-width=".5" x="0" y="0" width="60" height="60"/>
                <use id="zoomplus" xlink:href="#zoomPlus" x="17" y="9" onmousedown="handleZoom(evt,'in')"/>
                <use id="zoomminus" xlink:href="#zoomMin" x="42" y="9" onmousedown="handleZoom(evt,'out')"/>
                <use id="reset" xlink:href="#resetDef" x="30" y="36" onmousedown="handleReset()"/>
                <g id="arrowUp" xlink:href="#dirArrow" transform="translate(30 24)" onmousedown="handlePan(0,-1)">
                  <use xlink:href="#rim" fill="#404040">
                        <set attributeName="fill" to="#808080" begin="arrowUp.mouseover" end="arrowUp.mouseout"/>
                  </use>
                  <path fill="none" stroke="white" stroke-width="1.5" d="M0,-3.0v7 M-2.5,-0.5L0,-3.0L2.5,-0.5"/>
                </g>
                <g id="arrowRight" xlink:href="#dirArrow" transform="rotate(90) translate(36 -43)" onmousedown="handlePan(1,0)">
                  <use xlink:href="#rim" fill="#404040">
                        <set attributeName="fill" to="#808080" begin="arrowRight.mouseover" end="arrowRight.mouseout"/>
                  </use>
                  <path fill="none" stroke="white" stroke-width="1.5" d="M0,-3.0v7 M-2.5,-0.5L0,-3.0L2.5,-0.5"/>
                </g>
                <g id="arrowDown" xlink:href="#dirArrow" transform="rotate(180) translate(-30 -48)" onmousedown="handlePan(0,1)">
                  <use xlink:href="#rim" fill="#404040">
                        <set attributeName="fill" to="#808080" begin="arrowDown.mouseover" end="arrowDown.mouseout"/>
                  </use>
                  <path fill="none" stroke="white" stroke-width="1.5" d="M0,-3.0v7 M-2.5,-0.5L0,-3.0L2.5,-0.5"/>
                </g>
                <g id="arrowLeft" xlink:href="#dirArrow" transform="rotate(270) translate(-36 17)" onmousedown="handlePan(-1,0)">
                  <use xlink:href="#rim" fill="#404040">
                        <set attributeName="fill" to="#808080" begin="arrowLeft.mouseover" end="arrowLeft.mouseout"/>
                  </use>
                  <path fill="none" stroke="white" stroke-width="1.5" d="M0,-3.0v7 M-2.5,-0.5L0,-3.0L2.5,-0.5"/>
                </g>
        </g>
        <svg viewBox="0 0 15 15" width="100%" height="30px" preserveAspectRatio="xMaxYMin meet">
         <g id="arrow_out" transform="scale(0.3 0.3)">
          <a xlink:href="classSeeSawN_1_1GeometryN_1_1MultiviewTriangulationC_a5007ea26b28703862aa82764cf388061_icgraph_org.svg" target="_base">
           <rect id="button" ry="5" rx="5" y="6" x="6" height="38" width="38"
                fill="#f2f5e9" fill-opacity="0.5" stroke="#606060" stroke-width="1.0"/>
           <path id="arrow"
             d="M 11.500037,31.436501 C 11.940474,20.09759 22.043105,11.32322 32.158766,21.979434 L 37.068811,17.246167 C 37.068811,17.246167 37.088388,32 37.088388,32 L 22.160133,31.978069 C 22.160133,31.978069 26.997745,27.140456 26.997745,27.140456 C 18.528582,18.264221 13.291696,25.230495 11.500037,31.436501 z"
             style="fill:#404040;"/>
          </a>
         </g>
        </svg>
</svg>
