<?xml version="1.0" encoding="UTF-8" standalone="no"?>
<!DOCTYPE svg PUBLIC "-//W3C//DTD SVG 1.1//EN"
 "http://www.w3.org/Graphics/SVG/1.1/DTD/svg11.dtd">
<!-- Generated by graphviz version 2.38.0 (20140413.2041)
 -->
<!-- Title: SeeSawN::MetricsN::EpipolarSampsonErrorC::ComputeFromProjected Pages: 1 -->
<svg width="287pt" height="110pt"
 viewBox="0.00 0.00 287.00 110.00" xmlns="http://www.w3.org/2000/svg" xmlns:xlink="http://www.w3.org/1999/xlink">
<g id="graph0" class="graph" transform="scale(1 1) rotate(0) translate(4 106)">
<title>SeeSawN::MetricsN::EpipolarSampsonErrorC::ComputeFromProjected</title>
<polygon fill="white" stroke="none" points="-4,4 -4,-106 283,-106 283,4 -4,4"/>
<!-- Node9 -->
<g id="node1" class="node"><title>Node9</title>
<polygon fill="#bfbfbf" stroke="black" points="0,-30.5 0,-71.5 124,-71.5 124,-30.5 0,-30.5"/>
<text text-anchor="start" x="8" y="-59.5" font-family="FreeSans" font-size="10.00">SeeSawN::MetricsN::</text>
<text text-anchor="start" x="8" y="-48.5" font-family="FreeSans" font-size="10.00">EpipolarSampsonErrorC</text>
<text text-anchor="middle" x="62" y="-37.5" font-family="FreeSans" font-size="10.00">::ComputeFromProjected</text>
</g>
<!-- Node10 -->
<g id="node2" class="node"><title>Node10</title>
<g id="a_node2"><a xlink:href="namespaceSeeSawN_1_1UnitTestsN_1_1TestMetricsN.html#a4194ebc805cf87c63bc851d9b3116799" target="_top" xlink:title="SeeSawN::UnitTestsN\l::TestMetricsN::BOOST\l_AUTO_TEST_CASE">
<polygon fill="white" stroke="black" points="160,-60.5 160,-101.5 279,-101.5 279,-60.5 160,-60.5"/>
<text text-anchor="start" x="168" y="-89.5" font-family="FreeSans" font-size="10.00">SeeSawN::UnitTestsN</text>
<text text-anchor="start" x="168" y="-78.5" font-family="FreeSans" font-size="10.00">::TestMetricsN::BOOST</text>
<text text-anchor="middle" x="219.5" y="-67.5" font-family="FreeSans" font-size="10.00">_AUTO_TEST_CASE</text>
</a>
</g>
</g>
<!-- Node9&#45;&gt;Node10 -->
<g id="edge1" class="edge"><title>Node9&#45;&gt;Node10</title>
<path fill="none" stroke="midnightblue" d="M134.093,-64.7157C142.747,-66.3853 151.511,-68.0761 159.954,-69.7049"/>
<polygon fill="midnightblue" stroke="midnightblue" points="134.493,-61.2285 124.011,-62.7707 133.167,-68.1017 134.493,-61.2285"/>
</g>
<!-- Node11 -->
<g id="node3" class="node"><title>Node11</title>
<g id="a_node3"><a xlink:href="classSeeSawN_1_1MetricsN_1_1EpipolarSampsonErrorC.html#a9f32492f51db0f8cc783ad3152dd92e4" target="_top" xlink:title="Computes the distance. ">
<polygon fill="white" stroke="black" points="160,-0.5 160,-41.5 279,-41.5 279,-0.5 160,-0.5"/>
<text text-anchor="start" x="168" y="-29.5" font-family="FreeSans" font-size="10.00">SeeSawN::MetricsN::</text>
<text text-anchor="start" x="168" y="-18.5" font-family="FreeSans" font-size="10.00">EpipolarSampsonErrorC</text>
<text text-anchor="middle" x="219.5" y="-7.5" font-family="FreeSans" font-size="10.00">::operator()</text>
</a>
</g>
</g>
<!-- Node9&#45;&gt;Node11 -->
<g id="edge2" class="edge"><title>Node9&#45;&gt;Node11</title>
<path fill="none" stroke="midnightblue" d="M134.093,-37.2843C142.747,-35.6147 151.511,-33.9239 159.954,-32.2951"/>
<polygon fill="midnightblue" stroke="midnightblue" points="133.167,-33.8983 124.011,-39.2293 134.493,-40.7715 133.167,-33.8983"/>
</g>
</g>
</svg>
