<?xml version="1.0" encoding="UTF-8" standalone="no"?>
<!DOCTYPE svg PUBLIC "-//W3C//DTD SVG 1.1//EN"
 "http://www.w3.org/Graphics/SVG/1.1/DTD/svg11.dtd">
<!-- Generated by graphviz version 2.38.0 (20140413.2041)
 -->
<!-- Title: SeeSawN::TrackerN::ImageFeatureTrackingProblemC Pages: 1 -->
<svg width="616pt" height="358pt"
 viewBox="0.00 0.00 615.50 358.00" xmlns="http://www.w3.org/2000/svg" xmlns:xlink="http://www.w3.org/1999/xlink">
<g id="graph0" class="graph" transform="scale(1 1) rotate(0) translate(4 354)">
<title>SeeSawN::TrackerN::ImageFeatureTrackingProblemC</title>
<polygon fill="white" stroke="none" points="-4,4 -4,-354 611.5,-354 611.5,4 -4,4"/>
<!-- Node1 -->
<g id="node1" class="node"><title>Node1</title>
<polygon fill="#bfbfbf" stroke="black" points="184,-0.5 184,-233.5 355,-233.5 355,-0.5 184,-0.5"/>
<text text-anchor="start" x="192" y="-221.5" font-family="FreeSans" font-size="10.00">SeeSawN::TrackerN::</text>
<text text-anchor="middle" x="269.5" y="-210.5" font-family="FreeSans" font-size="10.00">ImageFeatureTrackingProblemC</text>
<polyline fill="none" stroke="black" points="184,-203.5 355,-203.5 "/>
<text text-anchor="middle" x="269.5" y="-191.5" font-family="FreeSans" font-size="10.00"> </text>
<polyline fill="none" stroke="black" points="184,-184.5 355,-184.5 "/>
<text text-anchor="start" x="192" y="-172.5" font-family="FreeSans" font-size="10.00">+ ImageFeatureTrackingProblemC()</text>
<text text-anchor="start" x="192" y="-161.5" font-family="FreeSans" font-size="10.00">+ ImageFeatureTrackingProblemC()</text>
<text text-anchor="start" x="192" y="-150.5" font-family="FreeSans" font-size="10.00">* time_stamp_type</text>
<text text-anchor="start" x="192" y="-139.5" font-family="FreeSans" font-size="10.00">* kalman_problem_type</text>
<text text-anchor="start" x="192" y="-128.5" font-family="FreeSans" font-size="10.00">* feature_type</text>
<text text-anchor="start" x="192" y="-117.5" font-family="FreeSans" font-size="10.00">* rtree_point_type</text>
<text text-anchor="start" x="192" y="-106.5" font-family="FreeSans" font-size="10.00">* matching_problem_type</text>
<text text-anchor="start" x="192" y="-95.5" font-family="FreeSans" font-size="10.00">* KalmanProblem()</text>
<text text-anchor="start" x="192" y="-84.5" font-family="FreeSans" font-size="10.00">* GetPosition()</text>
<text text-anchor="start" x="192" y="-73.5" font-family="FreeSans" font-size="10.00">* ProcessNoise()</text>
<text text-anchor="start" x="192" y="-62.5" font-family="FreeSans" font-size="10.00">* MakeInitialState()</text>
<text text-anchor="start" x="192" y="-51.5" font-family="FreeSans" font-size="10.00">* PredictMeasurement()</text>
<text text-anchor="start" x="192" y="-40.5" font-family="FreeSans" font-size="10.00">* MakeMeasurement()</text>
<text text-anchor="start" x="192" y="-29.5" font-family="FreeSans" font-size="10.00">* ComputeMeasurementNoise()</text>
<text text-anchor="start" x="192" y="-18.5" font-family="FreeSans" font-size="10.00">* SimilarityMetric()</text>
<text text-anchor="start" x="192" y="-7.5" font-family="FreeSans" font-size="10.00">* IsValid()</text>
</g>
<!-- Node2 -->
<g id="node2" class="node"><title>Node2</title>
<polygon fill="white" stroke="#bfbfbf" points="0,-292.5 0,-349.5 137,-349.5 137,-292.5 0,-292.5"/>
<text text-anchor="middle" x="68.5" y="-337.5" font-family="FreeSans" font-size="10.00">innovation_covariance_type</text>
<polyline fill="none" stroke="#bfbfbf" points="0,-330.5 137,-330.5 "/>
<text text-anchor="middle" x="68.5" y="-318.5" font-family="FreeSans" font-size="10.00"> </text>
<polyline fill="none" stroke="#bfbfbf" points="0,-311.5 137,-311.5 "/>
<text text-anchor="middle" x="68.5" y="-299.5" font-family="FreeSans" font-size="10.00"> </text>
</g>
<!-- Node2&#45;&gt;Node1 -->
<g id="edge1" class="edge"><title>Node2&#45;&gt;Node1</title>
<path fill="none" stroke="#404040" d="M96.0267,-292.336C116.675,-271.586 146.239,-241.874 175.126,-212.844"/>
<polygon fill="none" stroke="#404040" points="175.187,-212.782 176.583,-205.708 183.651,-204.276 182.254,-211.351 175.187,-212.782"/>
<text text-anchor="middle" x="145" y="-260.5" font-family="FreeSans" font-size="10.00"> &#45;mR</text>
</g>
<!-- Node3 -->
<g id="node3" class="node"><title>Node3</title>
<polygon fill="white" stroke="#bfbfbf" points="155.5,-292.5 155.5,-349.5 233.5,-349.5 233.5,-292.5 155.5,-292.5"/>
<text text-anchor="middle" x="194.5" y="-337.5" font-family="FreeSans" font-size="10.00">similarity_type</text>
<polyline fill="none" stroke="#bfbfbf" points="155.5,-330.5 233.5,-330.5 "/>
<text text-anchor="middle" x="194.5" y="-318.5" font-family="FreeSans" font-size="10.00"> </text>
<polyline fill="none" stroke="#bfbfbf" points="155.5,-311.5 233.5,-311.5 "/>
<text text-anchor="middle" x="194.5" y="-299.5" font-family="FreeSans" font-size="10.00"> </text>
</g>
<!-- Node3&#45;&gt;Node1 -->
<g id="edge2" class="edge"><title>Node3&#45;&gt;Node1</title>
<path fill="none" stroke="#404040" d="M204.771,-292.336C209.599,-279.334 215.733,-262.813 222.292,-245.146"/>
<polygon fill="none" stroke="#404040" points="222.362,-244.959 220.7,-237.941 226.539,-233.709 228.2,-240.726 222.362,-244.959"/>
<text text-anchor="middle" x="241.5" y="-260.5" font-family="FreeSans" font-size="10.00"> &#45;similarity</text>
</g>
<!-- Node4 -->
<g id="node4" class="node"><title>Node4</title>
<g id="a_node4"><a xlink:href="classbool.html" target="_top" xlink:title="{bool\n||}">
<polygon fill="white" stroke="black" points="252,-292.5 252,-349.5 287,-349.5 287,-292.5 252,-292.5"/>
<text text-anchor="middle" x="269.5" y="-337.5" font-family="FreeSans" font-size="10.00">bool</text>
<polyline fill="none" stroke="black" points="252,-330.5 287,-330.5 "/>
<text text-anchor="middle" x="269.5" y="-318.5" font-family="FreeSans" font-size="10.00"> </text>
<polyline fill="none" stroke="black" points="252,-311.5 287,-311.5 "/>
<text text-anchor="middle" x="269.5" y="-299.5" font-family="FreeSans" font-size="10.00"> </text>
</a>
</g>
</g>
<!-- Node4&#45;&gt;Node1 -->
<g id="edge3" class="edge"><title>Node4&#45;&gt;Node1</title>
<path fill="none" stroke="#404040" d="M269.5,-292.336C269.5,-279.519 269.5,-263.282 269.5,-245.899"/>
<polygon fill="none" stroke="#404040" points="269.5,-245.709 265.5,-239.709 269.5,-233.709 273.5,-239.709 269.5,-245.709"/>
<text text-anchor="middle" x="291" y="-260.5" font-family="FreeSans" font-size="10.00"> &#45;flagValid</text>
</g>
<!-- Node5 -->
<g id="node5" class="node"><title>Node5</title>
<polygon fill="white" stroke="#bfbfbf" points="305.5,-292.5 305.5,-349.5 419.5,-349.5 419.5,-292.5 305.5,-292.5"/>
<text text-anchor="middle" x="362.5" y="-337.5" font-family="FreeSans" font-size="10.00">state_covariance_type</text>
<polyline fill="none" stroke="#bfbfbf" points="305.5,-330.5 419.5,-330.5 "/>
<text text-anchor="middle" x="362.5" y="-318.5" font-family="FreeSans" font-size="10.00"> </text>
<polyline fill="none" stroke="#bfbfbf" points="305.5,-311.5 419.5,-311.5 "/>
<text text-anchor="middle" x="362.5" y="-299.5" font-family="FreeSans" font-size="10.00"> </text>
</g>
<!-- Node5&#45;&gt;Node1 -->
<g id="edge4" class="edge"><title>Node5&#45;&gt;Node1</title>
<path fill="none" stroke="#404040" d="M349.764,-292.336C343.721,-279.211 336.027,-262.499 327.806,-244.643"/>
<polygon fill="none" stroke="#404040" points="327.79,-244.609 321.648,-240.832 322.772,-233.709 328.915,-237.486 327.79,-244.609"/>
<text text-anchor="middle" x="351.5" y="-266" font-family="FreeSans" font-size="10.00"> &#45;mQ</text>
<text text-anchor="middle" x="351.5" y="-255" font-family="FreeSans" font-size="10.00">&#45;mQi</text>
</g>
<!-- Node6 -->
<g id="node6" class="node"><title>Node6</title>
<polygon fill="white" stroke="#bfbfbf" points="437.5,-292.5 437.5,-349.5 607.5,-349.5 607.5,-292.5 437.5,-292.5"/>
<text text-anchor="middle" x="522.5" y="-337.5" font-family="FreeSans" font-size="10.00">KFImageFeatureTrackingProblemC</text>
<polyline fill="none" stroke="#bfbfbf" points="437.5,-330.5 607.5,-330.5 "/>
<text text-anchor="middle" x="522.5" y="-318.5" font-family="FreeSans" font-size="10.00"> </text>
<polyline fill="none" stroke="#bfbfbf" points="437.5,-311.5 607.5,-311.5 "/>
<text text-anchor="middle" x="522.5" y="-299.5" font-family="FreeSans" font-size="10.00"> </text>
</g>
<!-- Node6&#45;&gt;Node1 -->
<g id="edge5" class="edge"><title>Node6&#45;&gt;Node1</title>
<path fill="none" stroke="#404040" d="M487.852,-292.336C456.142,-267.019 407.727,-228.363 364.536,-193.879"/>
<polygon fill="none" stroke="#404040" points="364.5,-193.849 357.315,-193.232 355.122,-186.362 362.306,-186.98 364.5,-193.849"/>
<text text-anchor="middle" x="486.5" y="-260.5" font-family="FreeSans" font-size="10.00"> &#45;kfProblem</text>
</g>
</g>
</svg>
