<?xml version="1.0" encoding="UTF-8" standalone="no"?>
<!DOCTYPE svg PUBLIC "-//W3C//DTD SVG 1.1//EN"
 "http://www.w3.org/Graphics/SVG/1.1/DTD/svg11.dtd">
<!-- Generated by graphviz version 2.38.0 (20140413.2041)
 -->
<!-- Title: SeeSawN::AppStalker22N::StalkerImplementationC::LoadFeatures Pages: 1 -->
<!--zoomable 284 -->
<svg id="main" version="1.1" xmlns="http://www.w3.org/2000/svg" xmlns:xlink="http://www.w3.org/1999/xlink" xml:space="preserve" onload="init(evt)">
<style type="text/css"><![CDATA[
.edge:hover path { stroke: red; }
.edge:hover polygon { stroke: red; fill: red; }
]]></style>
<script type="text/javascript"><![CDATA[
var edges = document.getElementsByTagName('g');
if (edges && edges.length) {
  for (var i=0;i<edges.length;i++) {
    if (edges[i].id.substr(0,4)=='edge') {
      edges[i].setAttribute('class','edge');
    }
  }
}
]]></script>
        <defs>
                <circle id="rim" cx="0" cy="0" r="7"/>
                <circle id="rim2" cx="0" cy="0" r="3.5"/>
                <g id="zoomPlus">
                        <use xlink:href="#rim" fill="#404040">
                                <set attributeName="fill" to="#808080" begin="zoomplus.mouseover" end="zoomplus.mouseout"/>
                        </use>
                        <path d="M-4,0h8M0,-4v8" fill="none" stroke="white" stroke-width="1.5" pointer-events="none"/>
                </g>
                <g id="zoomMin">
                        <use xlink:href="#rim" fill="#404040">
                                <set attributeName="fill" to="#808080" begin="zoomminus.mouseover" end="zoomminus.mouseout"/>
                        </use>
                        <path d="M-4,0h8" fill="none" stroke="white" stroke-width="1.5" pointer-events="none"/>
                </g>
                <g id="dirArrow">
                        <path fill="none" stroke="white" stroke-width="1.5" d="M0,-3.0v7 M-2.5,-0.5L0,-3.0L2.5,-0.5"/>
                </g>
               <g id="resetDef">
                       <use xlink:href="#rim2" fill="#404040">
                               <set attributeName="fill" to="#808080" begin="reset.mouseover" end="reset.mouseout"/>
                       </use>
               </g>
        </defs>

<script type="text/javascript">
var viewWidth = 757;
var viewHeight = 284;
var sectionId = 'dynsection-3';
</script>
<script xlink:href="svgpan.js"/>
<svg id="graph" class="graph">
<g id="viewport">
<title>SeeSawN::AppStalker22N::StalkerImplementationC::LoadFeatures</title>
<polygon fill="white" stroke="none" points="-4,4 -4,-280 753,-280 753,4 -4,4"/>
<!-- Node8 -->
<g id="node1" class="node"><title>Node8</title>
<polygon fill="#bfbfbf" stroke="black" points="0,-93 0,-134 131,-134 131,-93 0,-93"/>
<text text-anchor="start" x="8" y="-122" font-family="FreeSans" font-size="10.00">SeeSawN::AppStalker22N</text>
<text text-anchor="start" x="8" y="-111" font-family="FreeSans" font-size="10.00">::StalkerImplementationC</text>
<text text-anchor="middle" x="65.5" y="-100" font-family="FreeSans" font-size="10.00">::LoadFeatures</text>
</g>
<!-- Node9 -->
<g id="node2" class="node"><title>Node9</title>
<g id="a_node2"><a xlink:href="classSeeSawN_1_1ION_1_1BaseImageFeatureIOC.html#a2067646ba61ee313f15f759c4776bcd7" target="_top" xlink:title="Applies some common operations to the features. ">
<polygon fill="white" stroke="black" points="167,-147.5 167,-177.5 337,-177.5 337,-147.5 167,-147.5"/>
<text text-anchor="start" x="175" y="-165.5" font-family="FreeSans" font-size="10.00">SeeSawN::ION::BaseImageFeature</text>
<text text-anchor="middle" x="252" y="-154.5" font-family="FreeSans" font-size="10.00">IOC::PreprocessFeatureSet</text>
</a>
</g>
</g>
<!-- Node8&#45;&gt;Node9 -->
<g id="edge1" class="edge"><title>Node8&#45;&gt;Node9</title>
<path fill="none" stroke="midnightblue" d="M131.029,-130.638C148.316,-135.229 167.034,-140.2 184.428,-144.82"/>
<polygon fill="midnightblue" stroke="midnightblue" points="183.933,-148.309 194.496,-147.494 185.73,-141.544 183.933,-148.309"/>
</g>
<!-- Node15 -->
<g id="node8" class="node"><title>Node15</title>
<g id="a_node8"><a xlink:href="classSeeSawN_1_1ION_1_1ImageFeatureIOC.html#a2f2fd5f3fea2ffce63b3671b254bbea0" target="_top" xlink:title="Reads a feature file. ">
<polygon fill="white" stroke="black" points="178,-49.5 178,-79.5 326,-79.5 326,-49.5 178,-49.5"/>
<text text-anchor="start" x="186" y="-67.5" font-family="FreeSans" font-size="10.00">SeeSawN::ION::ImageFeature</text>
<text text-anchor="middle" x="252" y="-56.5" font-family="FreeSans" font-size="10.00">IOC::ReadFeatureFile</text>
</a>
</g>
</g>
<!-- Node8&#45;&gt;Node15 -->
<g id="edge7" class="edge"><title>Node8&#45;&gt;Node15</title>
<path fill="none" stroke="midnightblue" d="M131.029,-96.3622C148.316,-91.7712 167.034,-86.8 184.428,-82.1803"/>
<polygon fill="midnightblue" stroke="midnightblue" points="185.73,-85.4561 194.496,-79.5064 183.933,-78.6906 185.73,-85.4561"/>
</g>
<!-- Node10 -->
<g id="node3" class="node"><title>Node10</title>
<g id="a_node3"><a xlink:href="namespaceSeeSawN_1_1ElementsN.html#a55b8a7d70fe7cb0af19aff28cf0f0995" target="_top" xlink:title="SeeSawN::ElementsN\l::MakeCoordinateVector">
<polygon fill="white" stroke="black" points="398,-245.5 398,-275.5 518,-275.5 518,-245.5 398,-245.5"/>
<text text-anchor="start" x="406" y="-263.5" font-family="FreeSans" font-size="10.00">SeeSawN::ElementsN</text>
<text text-anchor="middle" x="458" y="-252.5" font-family="FreeSans" font-size="10.00">::MakeCoordinateVector</text>
</a>
</g>
</g>
<!-- Node9&#45;&gt;Node10 -->
<g id="edge2" class="edge"><title>Node9&#45;&gt;Node10</title>
<path fill="none" stroke="midnightblue" d="M273.702,-177.725C296.88,-194.171 336.05,-220.201 373,-236.5 377.944,-238.681 383.138,-240.719 388.418,-242.613"/>
<polygon fill="midnightblue" stroke="midnightblue" points="387.383,-245.958 397.977,-245.865 389.637,-239.331 387.383,-245.958"/>
</g>
<!-- Node11 -->
<g id="node4" class="node"><title>Node11</title>
<g id="a_node4"><a xlink:href="group__Elements.html#ga58fc9cd16b6263ea0d1eff6dc70ad799" target="_top" xlink:title="Finds the bounding box for a set of 2D coordinates. ">
<polygon fill="white" stroke="black" points="393.5,-196.5 393.5,-226.5 522.5,-226.5 522.5,-196.5 393.5,-196.5"/>
<text text-anchor="start" x="401.5" y="-214.5" font-family="FreeSans" font-size="10.00">SeeSawN::ElementsN</text>
<text text-anchor="middle" x="458" y="-203.5" font-family="FreeSans" font-size="10.00">::ComputeBoundingBox2D</text>
</a>
</g>
</g>
<!-- Node9&#45;&gt;Node11 -->
<g id="edge3" class="edge"><title>Node9&#45;&gt;Node11</title>
<path fill="none" stroke="midnightblue" d="M315.593,-177.535C337.426,-182.779 362.106,-188.707 384.666,-194.126"/>
<polygon fill="midnightblue" stroke="midnightblue" points="383.984,-197.561 394.525,-196.494 385.619,-190.755 383.984,-197.561"/>
</g>
<!-- Node12 -->
<g id="node5" class="node"><title>Node12</title>
<g id="a_node5"><a xlink:href="group__Elements.html#ga6db6c445bf9b07138dbb9cf279c6dce3" target="_top" xlink:title="Decimates a 2D coordinate set by picking the elements closest to a specified grid. ">
<polygon fill="white" stroke="black" points="401.5,-147.5 401.5,-177.5 514.5,-177.5 514.5,-147.5 401.5,-147.5"/>
<text text-anchor="start" x="409.5" y="-165.5" font-family="FreeSans" font-size="10.00">SeeSawN::ElementsN</text>
<text text-anchor="middle" x="458" y="-154.5" font-family="FreeSans" font-size="10.00">::DecimateFeatures2D</text>
</a>
</g>
</g>
<!-- Node9&#45;&gt;Node12 -->
<g id="edge4" class="edge"><title>Node9&#45;&gt;Node12</title>
<path fill="none" stroke="midnightblue" d="M337.152,-162.5C355.058,-162.5 373.72,-162.5 390.84,-162.5"/>
<polygon fill="midnightblue" stroke="midnightblue" points="391.279,-166 401.279,-162.5 391.279,-159 391.279,-166"/>
</g>
<!-- Node13 -->
<g id="node6" class="node"><title>Node13</title>
<g id="a_node6"><a xlink:href="classSeeSawN_1_1ION_1_1BaseImageFeatureIOC.html#abf5ab318c2496a12a275026f014cd235" target="_top" xlink:title="Common preprocessing operations after a read. ">
<polygon fill="white" stroke="black" points="373,-98.5 373,-128.5 543,-128.5 543,-98.5 373,-98.5"/>
<text text-anchor="start" x="381" y="-116.5" font-family="FreeSans" font-size="10.00">SeeSawN::ION::BaseImageFeature</text>
<text text-anchor="middle" x="458" y="-105.5" font-family="FreeSans" font-size="10.00">IOC::PreprocessFeature</text>
</a>
</g>
</g>
<!-- Node9&#45;&gt;Node13 -->
<g id="edge5" class="edge"><title>Node9&#45;&gt;Node13</title>
<path fill="none" stroke="midnightblue" d="M315.593,-147.465C337.426,-142.221 362.106,-136.293 384.666,-130.874"/>
<polygon fill="midnightblue" stroke="midnightblue" points="385.619,-134.245 394.525,-128.506 383.984,-127.439 385.619,-134.245"/>
</g>
<!-- Node14 -->
<g id="node7" class="node"><title>Node14</title>
<g id="a_node7"><a xlink:href="classSeeSawN_1_1ION_1_1BaseImageFeatureIOC.html#aed88f408a178eee19abe430b067a1bed" target="_top" xlink:title="Default normalisation&#45; dummy. ">
<polygon fill="white" stroke="black" points="579,-98.5 579,-128.5 749,-128.5 749,-98.5 579,-98.5"/>
<text text-anchor="start" x="587" y="-116.5" font-family="FreeSans" font-size="10.00">SeeSawN::ION::BaseImageFeature</text>
<text text-anchor="middle" x="664" y="-105.5" font-family="FreeSans" font-size="10.00">IOC::Normalise</text>
</a>
</g>
</g>
<!-- Node13&#45;&gt;Node14 -->
<g id="edge6" class="edge"><title>Node13&#45;&gt;Node14</title>
<path fill="none" stroke="midnightblue" d="M543.152,-113.5C551.501,-113.5 560.015,-113.5 568.46,-113.5"/>
<polygon fill="midnightblue" stroke="midnightblue" points="568.712,-117 578.712,-113.5 568.712,-110 568.712,-117"/>
</g>
<!-- Node16 -->
<g id="node9" class="node"><title>Node16</title>
<g id="a_node9"><a xlink:href="classSeeSawN_1_1ElementsN_1_1FeatureC.html#adf53174d5a0ddade03f4dc94d2661a9f" target="_top" xlink:title="Accessor for descriptor. ">
<polygon fill="white" stroke="black" points="401.5,-49.5 401.5,-79.5 514.5,-79.5 514.5,-49.5 401.5,-49.5"/>
<text text-anchor="start" x="409.5" y="-67.5" font-family="FreeSans" font-size="10.00">SeeSawN::ElementsN</text>
<text text-anchor="middle" x="458" y="-56.5" font-family="FreeSans" font-size="10.00">::FeatureC::Descriptor</text>
</a>
</g>
</g>
<!-- Node15&#45;&gt;Node16 -->
<g id="edge8" class="edge"><title>Node15&#45;&gt;Node16</title>
<path fill="none" stroke="midnightblue" d="M326.072,-64.5C347.393,-64.5 370.551,-64.5 391.38,-64.5"/>
<polygon fill="midnightblue" stroke="midnightblue" points="391.4,-68.0001 401.4,-64.5 391.4,-61.0001 391.4,-68.0001"/>
</g>
<!-- Node17 -->
<g id="node10" class="node"><title>Node17</title>
<g id="a_node10"><a xlink:href="classSeeSawN_1_1ElementsN_1_1FeatureC.html#a39e53d149bbdd3ce6f399f0d84273f93" target="_top" xlink:title="Accessor for roi. ">
<polygon fill="white" stroke="black" points="401.5,-0.5 401.5,-30.5 514.5,-30.5 514.5,-0.5 401.5,-0.5"/>
<text text-anchor="start" x="409.5" y="-18.5" font-family="FreeSans" font-size="10.00">SeeSawN::ElementsN</text>
<text text-anchor="middle" x="458" y="-7.5" font-family="FreeSans" font-size="10.00">::FeatureC::RoI</text>
</a>
</g>
</g>
<!-- Node15&#45;&gt;Node17 -->
<g id="edge9" class="edge"><title>Node15&#45;&gt;Node17</title>
<path fill="none" stroke="midnightblue" d="M315.593,-49.4654C339.681,-43.6796 367.234,-37.0615 391.581,-31.2134"/>
<polygon fill="midnightblue" stroke="midnightblue" points="392.539,-34.583 401.445,-28.8442 390.904,-27.7766 392.539,-34.583"/>
</g>
</g>
</svg>
        <g id="navigator" transform="translate(0 0)" fill="#404254">
                <rect fill="#f2f5e9" fill-opacity="0.5" stroke="#606060" stroke-width=".5" x="0" y="0" width="60" height="60"/>
                <use id="zoomplus" xlink:href="#zoomPlus" x="17" y="9" onmousedown="handleZoom(evt,'in')"/>
                <use id="zoomminus" xlink:href="#zoomMin" x="42" y="9" onmousedown="handleZoom(evt,'out')"/>
                <use id="reset" xlink:href="#resetDef" x="30" y="36" onmousedown="handleReset()"/>
                <g id="arrowUp" xlink:href="#dirArrow" transform="translate(30 24)" onmousedown="handlePan(0,-1)">
                  <use xlink:href="#rim" fill="#404040">
                        <set attributeName="fill" to="#808080" begin="arrowUp.mouseover" end="arrowUp.mouseout"/>
                  </use>
                  <path fill="none" stroke="white" stroke-width="1.5" d="M0,-3.0v7 M-2.5,-0.5L0,-3.0L2.5,-0.5"/>
                </g>
                <g id="arrowRight" xlink:href="#dirArrow" transform="rotate(90) translate(36 -43)" onmousedown="handlePan(1,0)">
                  <use xlink:href="#rim" fill="#404040">
                        <set attributeName="fill" to="#808080" begin="arrowRight.mouseover" end="arrowRight.mouseout"/>
                  </use>
                  <path fill="none" stroke="white" stroke-width="1.5" d="M0,-3.0v7 M-2.5,-0.5L0,-3.0L2.5,-0.5"/>
                </g>
                <g id="arrowDown" xlink:href="#dirArrow" transform="rotate(180) translate(-30 -48)" onmousedown="handlePan(0,1)">
                  <use xlink:href="#rim" fill="#404040">
                        <set attributeName="fill" to="#808080" begin="arrowDown.mouseover" end="arrowDown.mouseout"/>
                  </use>
                  <path fill="none" stroke="white" stroke-width="1.5" d="M0,-3.0v7 M-2.5,-0.5L0,-3.0L2.5,-0.5"/>
                </g>
                <g id="arrowLeft" xlink:href="#dirArrow" transform="rotate(270) translate(-36 17)" onmousedown="handlePan(-1,0)">
                  <use xlink:href="#rim" fill="#404040">
                        <set attributeName="fill" to="#808080" begin="arrowLeft.mouseover" end="arrowLeft.mouseout"/>
                  </use>
                  <path fill="none" stroke="white" stroke-width="1.5" d="M0,-3.0v7 M-2.5,-0.5L0,-3.0L2.5,-0.5"/>
                </g>
        </g>
        <svg viewBox="0 0 15 15" width="100%" height="30px" preserveAspectRatio="xMaxYMin meet">
         <g id="arrow_out" transform="scale(0.3 0.3)">
          <a xlink:href="classSeeSawN_1_1AppStalker22N_1_1StalkerImplementationC_ac143120dd00a79ad086927b3c518deda_cgraph_org.svg" target="_base">
           <rect id="button" ry="5" rx="5" y="6" x="6" height="38" width="38"
                fill="#f2f5e9" fill-opacity="0.5" stroke="#606060" stroke-width="1.0"/>
           <path id="arrow"
             d="M 11.500037,31.436501 C 11.940474,20.09759 22.043105,11.32322 32.158766,21.979434 L 37.068811,17.246167 C 37.068811,17.246167 37.088388,32 37.088388,32 L 22.160133,31.978069 C 22.160133,31.978069 26.997745,27.140456 26.997745,27.140456 C 18.528582,18.264221 13.291696,25.230495 11.500037,31.436501 z"
             style="fill:#404040;"/>
          </a>
         </g>
        </svg>
</svg>
