<?xml version="1.0" encoding="UTF-8" standalone="no"?>
<!DOCTYPE svg PUBLIC "-//W3C//DTD SVG 1.1//EN"
 "http://www.w3.org/Graphics/SVG/1.1/DTD/svg11.dtd">
<!-- Generated by graphviz version 2.38.0 (20140413.2041)
 -->
<!-- Title: boost::dynamic_bitset::reference::operator= Pages: 1 -->
<svg width="410pt" height="88pt"
 viewBox="0.00 0.00 410.00 88.00" xmlns="http://www.w3.org/2000/svg" xmlns:xlink="http://www.w3.org/1999/xlink">
<g id="graph0" class="graph" transform="scale(1 1) rotate(0) translate(4 84)">
<title>boost::dynamic_bitset::reference::operator=</title>
<polygon fill="white" stroke="none" points="-4,4 -4,-84 406,-84 406,4 -4,4"/>
<!-- Node64 -->
<g id="node1" class="node"><title>Node64</title>
<polygon fill="#bfbfbf" stroke="black" points="0,-24.5 0,-54.5 110,-54.5 110,-24.5 0,-24.5"/>
<text text-anchor="start" x="8" y="-42.5" font-family="FreeSans" font-size="10.00">boost::dynamic_bitset</text>
<text text-anchor="middle" x="55" y="-31.5" font-family="FreeSans" font-size="10.00">::reference::operator=</text>
</g>
<!-- Node65 -->
<g id="node2" class="node"><title>Node65</title>
<g id="a_node2"><a xlink:href="classboost_1_1dynamic__bitset_1_1reference.html#a4de26cec039119d0e64c4df8c5de3c8e" target="_top" xlink:title="boost::dynamic_bitset\l::reference::do_assign">
<polygon fill="white" stroke="black" points="146,-24.5 146,-54.5 256,-54.5 256,-24.5 146,-24.5"/>
<text text-anchor="start" x="154" y="-42.5" font-family="FreeSans" font-size="10.00">boost::dynamic_bitset</text>
<text text-anchor="middle" x="201" y="-31.5" font-family="FreeSans" font-size="10.00">::reference::do_assign</text>
</a>
</g>
</g>
<!-- Node64&#45;&gt;Node65 -->
<g id="edge1" class="edge"><title>Node64&#45;&gt;Node65</title>
<path fill="none" stroke="midnightblue" d="M110.03,-39.5C118.314,-39.5 126.936,-39.5 135.42,-39.5"/>
<polygon fill="midnightblue" stroke="midnightblue" points="135.667,-43.0001 145.667,-39.5 135.667,-36.0001 135.667,-43.0001"/>
</g>
<!-- Node66 -->
<g id="node3" class="node"><title>Node66</title>
<g id="a_node3"><a xlink:href="classboost_1_1dynamic__bitset_1_1reference.html#a5296ea1d33880281a4bd738aa30f8baf" target="_top" xlink:title="boost::dynamic_bitset\l::reference::do_reset">
<polygon fill="white" stroke="black" points="292,-49.5 292,-79.5 402,-79.5 402,-49.5 292,-49.5"/>
<text text-anchor="start" x="300" y="-67.5" font-family="FreeSans" font-size="10.00">boost::dynamic_bitset</text>
<text text-anchor="middle" x="347" y="-56.5" font-family="FreeSans" font-size="10.00">::reference::do_reset</text>
</a>
</g>
</g>
<!-- Node65&#45;&gt;Node66 -->
<g id="edge2" class="edge"><title>Node65&#45;&gt;Node66</title>
<path fill="none" stroke="midnightblue" d="M256.03,-48.8802C264.405,-50.3341 273.126,-51.8482 281.7,-53.3367"/>
<polygon fill="midnightblue" stroke="midnightblue" points="281.216,-56.805 291.667,-55.0672 282.413,-49.9082 281.216,-56.805"/>
</g>
<!-- Node67 -->
<g id="node4" class="node"><title>Node67</title>
<g id="a_node4"><a xlink:href="classboost_1_1dynamic__bitset_1_1reference.html#a76df264cef5fa940e2eec226c21066f1" target="_top" xlink:title="boost::dynamic_bitset\l::reference::do_set">
<polygon fill="white" stroke="black" points="292,-0.5 292,-30.5 402,-30.5 402,-0.5 292,-0.5"/>
<text text-anchor="start" x="300" y="-18.5" font-family="FreeSans" font-size="10.00">boost::dynamic_bitset</text>
<text text-anchor="middle" x="347" y="-7.5" font-family="FreeSans" font-size="10.00">::reference::do_set</text>
</a>
</g>
</g>
<!-- Node65&#45;&gt;Node67 -->
<g id="edge3" class="edge"><title>Node65&#45;&gt;Node67</title>
<path fill="none" stroke="midnightblue" d="M256.03,-30.495C264.405,-29.0992 273.126,-27.6457 281.7,-26.2167"/>
<polygon fill="midnightblue" stroke="midnightblue" points="282.379,-29.6519 291.667,-24.5555 281.228,-22.7472 282.379,-29.6519"/>
</g>
</g>
</svg>
