<?xml version="1.0" encoding="UTF-8" standalone="no"?>
<!DOCTYPE svg PUBLIC "-//W3C//DTD SVG 1.1//EN"
 "http://www.w3.org/Graphics/SVG/1.1/DTD/svg11.dtd">
<!-- Generated by graphviz version 2.38.0 (20140413.2041)
 -->
<!-- Title: SeeSawN::MetricsN::PseudoHuberLossC::ConvertToFitness Pages: 1 -->
<svg width="582pt" height="114pt"
 viewBox="0.00 0.00 582.00 113.97" xmlns="http://www.w3.org/2000/svg" xmlns:xlink="http://www.w3.org/1999/xlink">
<g id="graph0" class="graph" transform="scale(1 1) rotate(0) translate(4 109.965)">
<title>SeeSawN::MetricsN::PseudoHuberLossC::ConvertToFitness</title>
<polygon fill="white" stroke="none" points="-4,4 -4,-109.965 578,-109.965 578,4 -4,4"/>
<!-- Node16 -->
<g id="node1" class="node"><title>Node16</title>
<polygon fill="#bfbfbf" stroke="black" points="0,-54.5 0,-95.5 154,-95.5 154,-54.5 0,-54.5"/>
<text text-anchor="start" x="8" y="-83.5" font-family="FreeSans" font-size="10.00">SeeSawN::MetricsN::</text>
<text text-anchor="start" x="8" y="-72.5" font-family="FreeSans" font-size="10.00">PseudoHuberLossC::ConvertTo</text>
<text text-anchor="middle" x="77" y="-61.5" font-family="FreeSans" font-size="10.00">Fitness</text>
</g>
<!-- Node17 -->
<g id="node2" class="node"><title>Node17</title>
<g id="a_node2"><a xlink:href="namespaceSeeSawN_1_1UnitTestsN_1_1TestMetricsN.html#a8e2c82a6784407bbcc42999d649d5409" target="_top" xlink:title="SeeSawN::UnitTestsN\l::TestMetricsN::BOOST\l_AUTO_TEST_CASE">
<polygon fill="white" stroke="black" points="430.5,-60.5 430.5,-101.5 549.5,-101.5 549.5,-60.5 430.5,-60.5"/>
<text text-anchor="start" x="438.5" y="-89.5" font-family="FreeSans" font-size="10.00">SeeSawN::UnitTestsN</text>
<text text-anchor="start" x="438.5" y="-78.5" font-family="FreeSans" font-size="10.00">::TestMetricsN::BOOST</text>
<text text-anchor="middle" x="490" y="-67.5" font-family="FreeSans" font-size="10.00">_AUTO_TEST_CASE</text>
</a>
</g>
</g>
<!-- Node16&#45;&gt;Node17 -->
<g id="edge1" class="edge"><title>Node16&#45;&gt;Node17</title>
<path fill="none" stroke="midnightblue" d="M163.978,-96.1856C172.725,-97.7406 181.511,-99.0641 190,-100 269.518,-108.767 290.251,-106.326 370,-100 389.709,-98.4365 411.082,-95.4383 430.206,-92.2776"/>
<polygon fill="midnightblue" stroke="midnightblue" points="164.612,-92.7436 154.139,-94.34 163.322,-99.6236 164.612,-92.7436"/>
</g>
<!-- Node18 -->
<g id="node3" class="node"><title>Node18</title>
<g id="a_node3"><a xlink:href="classSeeSawN_1_1MetricsN_1_1PseudoHuberLossC.html#a47a4a529a7c2014641cc72c65d24a627" target="_top" xlink:title="Computes the fitness score corresponding to an error value. ">
<polygon fill="white" stroke="black" points="190,-60 190,-90 370,-90 370,-60 190,-60"/>
<text text-anchor="start" x="198" y="-78" font-family="FreeSans" font-size="10.00">SeeSawN::MetricsN::</text>
<text text-anchor="middle" x="280" y="-67" font-family="FreeSans" font-size="10.00">PseudoHuberLossC::ComputeFitness</text>
</a>
</g>
</g>
<!-- Node16&#45;&gt;Node18 -->
<g id="edge2" class="edge"><title>Node16&#45;&gt;Node18</title>
<path fill="none" stroke="midnightblue" d="M164.488,-75C172.928,-75 181.502,-75 189.967,-75"/>
<polygon fill="midnightblue" stroke="midnightblue" points="164.276,-71.5001 154.276,-75 164.276,-78.5001 164.276,-71.5001"/>
</g>
<!-- Node19 -->
<g id="node4" class="node"><title>Node19</title>
<g id="a_node4"><a xlink:href="classSeeSawN_1_1MetricsN_1_1PseudoHuberLossC.html#a98065aaceefe05b6ae7d969cf88356d0" target="_top" xlink:title="Sets the crossover and the scale parameters for the function. ">
<polygon fill="white" stroke="black" points="205.5,-11 205.5,-41 354.5,-41 354.5,-11 205.5,-11"/>
<text text-anchor="start" x="213.5" y="-29" font-family="FreeSans" font-size="10.00">SeeSawN::MetricsN::</text>
<text text-anchor="middle" x="280" y="-18" font-family="FreeSans" font-size="10.00">PseudoHuberLossC::Configure</text>
</a>
</g>
</g>
<!-- Node16&#45;&gt;Node19 -->
<g id="edge4" class="edge"><title>Node16&#45;&gt;Node19</title>
<path fill="none" stroke="midnightblue" d="M164.157,-53.9966C182.084,-49.6263 200.633,-45.1045 217.458,-41.0028"/>
<polygon fill="midnightblue" stroke="midnightblue" points="163.163,-50.6364 154.276,-56.4053 164.821,-57.4372 163.163,-50.6364"/>
</g>
<!-- Node18&#45;&gt;Node17 -->
<g id="edge3" class="edge"><title>Node18&#45;&gt;Node17</title>
<path fill="none" stroke="midnightblue" d="M380.205,-77.8617C397.398,-78.3576 414.766,-78.8586 430.425,-79.3103"/>
<polygon fill="midnightblue" stroke="midnightblue" points="380.213,-74.3605 370.116,-77.5707 380.011,-81.3576 380.213,-74.3605"/>
</g>
<!-- Node19&#45;&gt;Node17 -->
<g id="edge5" class="edge"><title>Node19&#45;&gt;Node17</title>
<path fill="none" stroke="midnightblue" d="M347.824,-43.6698C374.404,-50.6983 404.716,-58.7133 430.42,-65.5102"/>
<polygon fill="midnightblue" stroke="midnightblue" points="348.399,-40.2017 337.837,-41.029 346.61,-46.9691 348.399,-40.2017"/>
</g>
<!-- Node20 -->
<g id="node5" class="node"><title>Node20</title>
<g id="a_node5"><a xlink:href="classSeeSawN_1_1MetricsN_1_1PseudoHuberLossC.html#a5bcb90d84a667d58beb97fa6b7f21f2e" target="_top" xlink:title="Constructor. ">
<polygon fill="white" stroke="black" points="406,-0.5 406,-41.5 574,-41.5 574,-0.5 406,-0.5"/>
<text text-anchor="start" x="414" y="-29.5" font-family="FreeSans" font-size="10.00">SeeSawN::MetricsN::</text>
<text text-anchor="start" x="414" y="-18.5" font-family="FreeSans" font-size="10.00">PseudoHuberLossC::PseudoHuber</text>
<text text-anchor="middle" x="490" y="-7.5" font-family="FreeSans" font-size="10.00">LossC</text>
</a>
</g>
</g>
<!-- Node19&#45;&gt;Node20 -->
<g id="edge6" class="edge"><title>Node19&#45;&gt;Node20</title>
<path fill="none" stroke="midnightblue" d="M364.862,-23.9841C378.39,-23.6589 392.39,-23.3224 405.9,-22.9976"/>
<polygon fill="midnightblue" stroke="midnightblue" points="364.539,-20.4908 354.626,-24.2302 364.707,-27.4887 364.539,-20.4908"/>
</g>
</g>
</svg>
