<?xml version="1.0" encoding="UTF-8" standalone="no"?>
<!DOCTYPE svg PUBLIC "-//W3C//DTD SVG 1.1//EN"
 "http://www.w3.org/Graphics/SVG/1.1/DTD/svg11.dtd">
<!-- Generated by graphviz version 2.38.0 (20140413.2041)
 -->
<!-- Title: SeeSawN::GeometryN::Rotation3DSolverC::ExtractRotation Pages: 1 -->
<svg width="650pt" height="230pt"
 viewBox="0.00 0.00 650.00 230.00" xmlns="http://www.w3.org/2000/svg" xmlns:xlink="http://www.w3.org/1999/xlink">
<g id="graph0" class="graph" transform="scale(1 1) rotate(0) translate(4 226)">
<title>SeeSawN::GeometryN::Rotation3DSolverC::ExtractRotation</title>
<polygon fill="white" stroke="none" points="-4,4 -4,-226 646,-226 646,4 -4,4"/>
<!-- Node26 -->
<g id="node1" class="node"><title>Node26</title>
<polygon fill="#bfbfbf" stroke="black" points="0,-90.5 0,-131.5 115,-131.5 115,-90.5 0,-90.5"/>
<text text-anchor="start" x="8" y="-119.5" font-family="FreeSans" font-size="10.00">SeeSawN::GeometryN</text>
<text text-anchor="start" x="8" y="-108.5" font-family="FreeSans" font-size="10.00">::Rotation3DSolverC</text>
<text text-anchor="middle" x="57.5" y="-97.5" font-family="FreeSans" font-size="10.00">::ExtractRotation</text>
</g>
<!-- Node27 -->
<g id="node2" class="node"><title>Node27</title>
<g id="a_node2"><a xlink:href="classSeeSawN_1_1GeometryN_1_1Rotation3DSolverC.html#a5002329b102cc22f5de23daeacb322ee" target="_top" xlink:title="Computes the distance between two models. ">
<polygon fill="white" stroke="black" points="160.5,-180.5 160.5,-221.5 275.5,-221.5 275.5,-180.5 160.5,-180.5"/>
<text text-anchor="start" x="168.5" y="-209.5" font-family="FreeSans" font-size="10.00">SeeSawN::GeometryN</text>
<text text-anchor="start" x="168.5" y="-198.5" font-family="FreeSans" font-size="10.00">::Rotation3DSolverC</text>
<text text-anchor="middle" x="218" y="-187.5" font-family="FreeSans" font-size="10.00">::ComputeDistance</text>
</a>
</g>
</g>
<!-- Node26&#45;&gt;Node27 -->
<g id="edge1" class="edge"><title>Node26&#45;&gt;Node27</title>
<path fill="none" stroke="midnightblue" d="M96.1065,-137.208C112.605,-148.226 132.414,-160.822 151,-171 156.851,-174.204 163.108,-177.367 169.353,-180.37"/>
<polygon fill="midnightblue" stroke="midnightblue" points="98.0527,-134.299 87.8045,-131.611 94.1395,-140.103 98.0527,-134.299"/>
</g>
<!-- Node31 -->
<g id="node6" class="node"><title>Node31</title>
<g id="a_node6"><a xlink:href="classSeeSawN_1_1GeometryN_1_1Rotation3DSolverC.html#a653564224d50ea84f22fd78c579295ce" target="_top" xlink:title="Computes the sample statistics for a set of rotations. ">
<polygon fill="white" stroke="black" points="151,-120.5 151,-161.5 285,-161.5 285,-120.5 151,-120.5"/>
<text text-anchor="start" x="159" y="-149.5" font-family="FreeSans" font-size="10.00">SeeSawN::GeometryN</text>
<text text-anchor="start" x="159" y="-138.5" font-family="FreeSans" font-size="10.00">::Rotation3DSolverC</text>
<text text-anchor="middle" x="218" y="-127.5" font-family="FreeSans" font-size="10.00">::ComputeSampleStatistics</text>
</a>
</g>
</g>
<!-- Node26&#45;&gt;Node31 -->
<g id="edge5" class="edge"><title>Node26&#45;&gt;Node31</title>
<path fill="none" stroke="midnightblue" d="M125.158,-123.617C133.676,-125.229 142.393,-126.879 150.903,-128.489"/>
<polygon fill="midnightblue" stroke="midnightblue" points="125.751,-120.167 115.274,-121.746 124.449,-127.045 125.751,-120.167"/>
</g>
<!-- Node32 -->
<g id="node7" class="node"><title>Node32</title>
<g id="a_node7"><a xlink:href="classSeeSawN_1_1GeometryN_1_1Rotation3DSolverC.html#aaac18c2f202a75808a2b0ed0a6fc6349" target="_top" xlink:title="Converts a model to the minimal form. ">
<polygon fill="white" stroke="black" points="160.5,-60.5 160.5,-101.5 275.5,-101.5 275.5,-60.5 160.5,-60.5"/>
<text text-anchor="start" x="168.5" y="-89.5" font-family="FreeSans" font-size="10.00">SeeSawN::GeometryN</text>
<text text-anchor="start" x="168.5" y="-78.5" font-family="FreeSans" font-size="10.00">::Rotation3DSolverC</text>
<text text-anchor="middle" x="218" y="-67.5" font-family="FreeSans" font-size="10.00">::MakeMinimal</text>
</a>
</g>
</g>
<!-- Node26&#45;&gt;Node32 -->
<g id="edge6" class="edge"><title>Node26&#45;&gt;Node32</title>
<path fill="none" stroke="midnightblue" d="M125.382,-98.3409C137.021,-96.1379 149.025,-93.866 160.356,-91.7213"/>
<polygon fill="midnightblue" stroke="midnightblue" points="124.449,-94.9553 115.274,-100.254 125.751,-101.833 124.449,-94.9553"/>
</g>
<!-- Node33 -->
<g id="node8" class="node"><title>Node33</title>
<g id="a_node8"><a xlink:href="classSeeSawN_1_1GeometryN_1_1Rotation3DSolverC.html#a0ca9990c84efbb83fb66f2d65a004b34" target="_top" xlink:title="Converts a model to a vector. ">
<polygon fill="white" stroke="black" points="160.5,-0.5 160.5,-41.5 275.5,-41.5 275.5,-0.5 160.5,-0.5"/>
<text text-anchor="start" x="168.5" y="-29.5" font-family="FreeSans" font-size="10.00">SeeSawN::GeometryN</text>
<text text-anchor="start" x="168.5" y="-18.5" font-family="FreeSans" font-size="10.00">::Rotation3DSolverC</text>
<text text-anchor="middle" x="218" y="-7.5" font-family="FreeSans" font-size="10.00">::MakeVector</text>
</a>
</g>
</g>
<!-- Node26&#45;&gt;Node33 -->
<g id="edge7" class="edge"><title>Node26&#45;&gt;Node33</title>
<path fill="none" stroke="midnightblue" d="M96.1065,-84.7923C112.605,-73.7736 132.414,-61.1782 151,-51 156.851,-47.7958 163.108,-44.6325 169.353,-41.6305"/>
<polygon fill="midnightblue" stroke="midnightblue" points="94.1395,-81.8972 87.8045,-90.3895 98.0527,-87.7013 94.1395,-81.8972"/>
</g>
<!-- Node28 -->
<g id="node3" class="node"><title>Node28</title>
<g id="a_node3"><a xlink:href="namespaceSeeSawN_1_1UnitTestsN_1_1TestGeometryN.html#aa3f415d916823d62c4a36b8c34c0b5ea" target="_top" xlink:title="SeeSawN::UnitTestsN\l::TestGeometryN::BOOST\l_AUTO_TEST_CASE">
<polygon fill="white" stroke="black" points="334.5,-99.5 334.5,-140.5 463.5,-140.5 463.5,-99.5 334.5,-99.5"/>
<text text-anchor="start" x="342.5" y="-128.5" font-family="FreeSans" font-size="10.00">SeeSawN::UnitTestsN</text>
<text text-anchor="start" x="342.5" y="-117.5" font-family="FreeSans" font-size="10.00">::TestGeometryN::BOOST</text>
<text text-anchor="middle" x="399" y="-106.5" font-family="FreeSans" font-size="10.00">_AUTO_TEST_CASE</text>
</a>
</g>
</g>
<!-- Node27&#45;&gt;Node28 -->
<g id="edge2" class="edge"><title>Node27&#45;&gt;Node28</title>
<path fill="none" stroke="midnightblue" d="M274.035,-176.096C299.169,-164.722 328.584,-151.412 352.451,-140.612"/>
<polygon fill="midnightblue" stroke="midnightblue" points="272.3,-173.039 264.632,-180.351 275.186,-179.417 272.3,-173.039"/>
</g>
<!-- Node29 -->
<g id="node4" class="node"><title>Node29</title>
<g id="a_node4"><a xlink:href="classSeeSawN_1_1GeometryN_1_1P2PSolverC.html#a3276e5bc93752ce70ebdb4a78f6456d6" target="_top" xlink:title="Computes the distance between two models. ">
<polygon fill="white" stroke="black" points="321,-177 321,-207 477,-207 477,-177 321,-177"/>
<text text-anchor="start" x="329" y="-195" font-family="FreeSans" font-size="10.00">SeeSawN::GeometryN</text>
<text text-anchor="middle" x="399" y="-184" font-family="FreeSans" font-size="10.00">::P2PSolverC::ComputeDistance</text>
</a>
</g>
</g>
<!-- Node27&#45;&gt;Node29 -->
<g id="edge3" class="edge"><title>Node27&#45;&gt;Node29</title>
<path fill="none" stroke="midnightblue" d="M285.912,-197.636C297.284,-197.064 309.177,-196.466 320.789,-195.882"/>
<polygon fill="midnightblue" stroke="midnightblue" points="285.448,-194.155 275.637,-198.152 285.8,-201.146 285.448,-194.155"/>
</g>
<!-- Node30 -->
<g id="node5" class="node"><title>Node30</title>
<g id="a_node5"><a xlink:href="namespaceSeeSawN_1_1UnitTestsN_1_1TestGeometryN.html#a2ea8003b5ca751b06762dd8416d13d1a" target="_top" xlink:title="SeeSawN::UnitTestsN\l::TestGeometryN::BOOST\l_AUTO_TEST_CASE">
<polygon fill="white" stroke="black" points="513,-64.5 513,-105.5 642,-105.5 642,-64.5 513,-64.5"/>
<text text-anchor="start" x="521" y="-93.5" font-family="FreeSans" font-size="10.00">SeeSawN::UnitTestsN</text>
<text text-anchor="start" x="521" y="-82.5" font-family="FreeSans" font-size="10.00">::TestGeometryN::BOOST</text>
<text text-anchor="middle" x="577.5" y="-71.5" font-family="FreeSans" font-size="10.00">_AUTO_TEST_CASE</text>
</a>
</g>
</g>
<!-- Node29&#45;&gt;Node30 -->
<g id="edge4" class="edge"><title>Node29&#45;&gt;Node30</title>
<path fill="none" stroke="midnightblue" d="M437.714,-172.201C450.326,-165.377 464.381,-157.547 477,-150 500.729,-135.808 526.878,-118.664 546.413,-105.547"/>
<polygon fill="midnightblue" stroke="midnightblue" points="435.98,-169.16 428.827,-176.975 439.293,-175.326 435.98,-169.16"/>
</g>
<!-- Node33&#45;&gt;Node28 -->
<g id="edge10" class="edge"><title>Node33&#45;&gt;Node28</title>
<path fill="none" stroke="midnightblue" d="M275.449,-46.1014C278.7,-47.7195 281.904,-49.3587 285,-51 313.23,-65.9638 344.118,-85.0201 366.455,-99.3132"/>
<polygon fill="midnightblue" stroke="midnightblue" points="276.736,-42.8355 266.212,-41.6129 273.677,-49.1316 276.736,-42.8355"/>
</g>
<!-- Node34 -->
<g id="node9" class="node"><title>Node34</title>
<g id="a_node9"><a xlink:href="classSeeSawN_1_1GeometryN_1_1P2PSolverC.html#abf60f863d603ec398777387a1d898e70" target="_top" xlink:title="Converts a model to a vector. ">
<polygon fill="white" stroke="black" points="333.5,-15 333.5,-45 464.5,-45 464.5,-15 333.5,-15"/>
<text text-anchor="start" x="341.5" y="-33" font-family="FreeSans" font-size="10.00">SeeSawN::GeometryN</text>
<text text-anchor="middle" x="399" y="-22" font-family="FreeSans" font-size="10.00">::P2PSolverC::MakeVector</text>
</a>
</g>
</g>
<!-- Node33&#45;&gt;Node34 -->
<g id="edge8" class="edge"><title>Node33&#45;&gt;Node34</title>
<path fill="none" stroke="midnightblue" d="M285.705,-24.3539C301.276,-25.1368 317.832,-25.9692 333.314,-26.7476"/>
<polygon fill="midnightblue" stroke="midnightblue" points="285.8,-20.8543 275.637,-23.8477 285.448,-27.8455 285.8,-20.8543"/>
</g>
<!-- Node34&#45;&gt;Node30 -->
<g id="edge9" class="edge"><title>Node34&#45;&gt;Node30</title>
<path fill="none" stroke="midnightblue" d="M457.79,-48.0083C475.379,-53.4891 494.807,-59.5431 512.764,-65.1389"/>
<polygon fill="midnightblue" stroke="midnightblue" points="458.818,-44.6626 448.229,-45.029 456.735,-51.3456 458.818,-44.6626"/>
</g>
</g>
</svg>
