<?xml version="1.0" encoding="UTF-8" standalone="no"?>
<!DOCTYPE svg PUBLIC "-//W3C//DTD SVG 1.1//EN"
 "http://www.w3.org/Graphics/SVG/1.1/DTD/svg11.dtd">
<!-- Generated by graphviz version 2.38.0 (20140413.2041)
 -->
<!-- Title: SeeSawN::TrackerN::ImageFeatureTrackingPipelineC::ApplyFilter Pages: 1 -->
<!--zoomable 88 -->
<svg id="main" version="1.1" xmlns="http://www.w3.org/2000/svg" xmlns:xlink="http://www.w3.org/1999/xlink" xml:space="preserve" onload="init(evt)">
<style type="text/css"><![CDATA[
.edge:hover path { stroke: red; }
.edge:hover polygon { stroke: red; fill: red; }
]]></style>
<script type="text/javascript"><![CDATA[
var edges = document.getElementsByTagName('g');
if (edges && edges.length) {
  for (var i=0;i<edges.length;i++) {
    if (edges[i].id.substr(0,4)=='edge') {
      edges[i].setAttribute('class','edge');
    }
  }
}
]]></script>
        <defs>
                <circle id="rim" cx="0" cy="0" r="7"/>
                <circle id="rim2" cx="0" cy="0" r="3.5"/>
                <g id="zoomPlus">
                        <use xlink:href="#rim" fill="#404040">
                                <set attributeName="fill" to="#808080" begin="zoomplus.mouseover" end="zoomplus.mouseout"/>
                        </use>
                        <path d="M-4,0h8M0,-4v8" fill="none" stroke="white" stroke-width="1.5" pointer-events="none"/>
                </g>
                <g id="zoomMin">
                        <use xlink:href="#rim" fill="#404040">
                                <set attributeName="fill" to="#808080" begin="zoomminus.mouseover" end="zoomminus.mouseout"/>
                        </use>
                        <path d="M-4,0h8" fill="none" stroke="white" stroke-width="1.5" pointer-events="none"/>
                </g>
                <g id="dirArrow">
                        <path fill="none" stroke="white" stroke-width="1.5" d="M0,-3.0v7 M-2.5,-0.5L0,-3.0L2.5,-0.5"/>
                </g>
               <g id="resetDef">
                       <use xlink:href="#rim2" fill="#404040">
                               <set attributeName="fill" to="#808080" begin="reset.mouseover" end="reset.mouseout"/>
                       </use>
               </g>
        </defs>

<script type="text/javascript">
var viewWidth = 557;
var viewHeight = 88;
var sectionId = 'dynsection-4';
</script>
<script xlink:href="svgpan.js"/>
<svg id="graph" class="graph">
<g id="viewport">
<title>SeeSawN::TrackerN::ImageFeatureTrackingPipelineC::ApplyFilter</title>
<polygon fill="white" stroke="none" points="-4,4 -4,-84 553,-84 553,4 -4,4"/>
<!-- Node11 -->
<g id="node1" class="node"><title>Node11</title>
<polygon fill="#bfbfbf" stroke="black" points="0,-19 0,-60 149,-60 149,-19 0,-19"/>
<text text-anchor="start" x="8" y="-48" font-family="FreeSans" font-size="10.00">SeeSawN::TrackerN::</text>
<text text-anchor="start" x="8" y="-37" font-family="FreeSans" font-size="10.00">ImageFeatureTrackingPipeline</text>
<text text-anchor="middle" x="74.5" y="-26" font-family="FreeSans" font-size="10.00">C::ApplyFilter</text>
</g>
<!-- Node12 -->
<g id="node2" class="node"><title>Node12</title>
<g id="a_node2"><a xlink:href="classSeeSawN_1_1TrackerN_1_1ImageFeatureTrackingPipelineC.html#a81b1665da5a53c01a6397e8ee2511cc5" target="_top" xlink:title="Updates the tracks with the image measurements. ">
<polygon fill="white" stroke="black" points="185,-19 185,-60 334,-60 334,-19 185,-19"/>
<text text-anchor="start" x="193" y="-48" font-family="FreeSans" font-size="10.00">SeeSawN::TrackerN::</text>
<text text-anchor="start" x="193" y="-37" font-family="FreeSans" font-size="10.00">ImageFeatureTrackingPipeline</text>
<text text-anchor="middle" x="259.5" y="-26" font-family="FreeSans" font-size="10.00">C::Update</text>
</a>
</g>
</g>
<!-- Node11&#45;&gt;Node12 -->
<g id="edge1" class="edge"><title>Node11&#45;&gt;Node12</title>
<path fill="none" stroke="midnightblue" d="M159.387,-39.5C167.838,-39.5 176.376,-39.5 184.711,-39.5"/>
<polygon fill="midnightblue" stroke="midnightblue" points="159.142,-36.0001 149.142,-39.5 159.142,-43.0001 159.142,-36.0001"/>
</g>
<!-- Node13 -->
<g id="node3" class="node"><title>Node13</title>
<g id="a_node3"><a xlink:href="classSeeSawN_1_1AppStalker22N_1_1StalkerImplementationC.html#ae0023fdc93be07e1c48a62e901be391e" target="_top" xlink:title="Runs the application. ">
<polygon fill="white" stroke="black" points="386,-49.5 386,-79.5 533,-79.5 533,-49.5 386,-49.5"/>
<text text-anchor="start" x="394" y="-67.5" font-family="FreeSans" font-size="10.00">SeeSawN::AppStalker22N</text>
<text text-anchor="middle" x="459.5" y="-56.5" font-family="FreeSans" font-size="10.00">::StalkerImplementationC::Run</text>
</a>
</g>
</g>
<!-- Node12&#45;&gt;Node13 -->
<g id="edge2" class="edge"><title>Node12&#45;&gt;Node13</title>
<path fill="none" stroke="midnightblue" d="M344.188,-50.0667C357.988,-51.809 372.194,-53.6027 385.699,-55.308"/>
<polygon fill="midnightblue" stroke="midnightblue" points="344.588,-46.5894 334.228,-48.8091 343.711,-53.5343 344.588,-46.5894"/>
</g>
<!-- Node14 -->
<g id="node4" class="node"><title>Node14</title>
<g id="a_node4"><a xlink:href="namespaceSeeSawN_1_1TestTrackerN.html#a8c496242273d486ba0d10172c752f78a" target="_top" xlink:title="SeeSawN::TestTrackerN\l::BOOST_AUTO_TEST_SUITE_END">
<polygon fill="white" stroke="black" points="370,-0.5 370,-30.5 549,-30.5 549,-0.5 370,-0.5"/>
<text text-anchor="start" x="378" y="-18.5" font-family="FreeSans" font-size="10.00">SeeSawN::TestTrackerN</text>
<text text-anchor="middle" x="459.5" y="-7.5" font-family="FreeSans" font-size="10.00">::BOOST_AUTO_TEST_SUITE_END</text>
</a>
</g>
</g>
<!-- Node12&#45;&gt;Node14 -->
<g id="edge3" class="edge"><title>Node12&#45;&gt;Node14</title>
<path fill="none" stroke="midnightblue" d="M344.165,-29.3588C352.704,-28.3238 361.399,-27.2698 369.987,-26.2288"/>
<polygon fill="midnightblue" stroke="midnightblue" points="343.734,-25.8853 334.228,-30.5633 344.576,-32.8345 343.734,-25.8853"/>
</g>
</g>
</svg>
        <g id="navigator" transform="translate(0 0)" fill="#404254">
                <rect fill="#f2f5e9" fill-opacity="0.5" stroke="#606060" stroke-width=".5" x="0" y="0" width="60" height="60"/>
                <use id="zoomplus" xlink:href="#zoomPlus" x="17" y="9" onmousedown="handleZoom(evt,'in')"/>
                <use id="zoomminus" xlink:href="#zoomMin" x="42" y="9" onmousedown="handleZoom(evt,'out')"/>
                <use id="reset" xlink:href="#resetDef" x="30" y="36" onmousedown="handleReset()"/>
                <g id="arrowUp" xlink:href="#dirArrow" transform="translate(30 24)" onmousedown="handlePan(0,-1)">
                  <use xlink:href="#rim" fill="#404040">
                        <set attributeName="fill" to="#808080" begin="arrowUp.mouseover" end="arrowUp.mouseout"/>
                  </use>
                  <path fill="none" stroke="white" stroke-width="1.5" d="M0,-3.0v7 M-2.5,-0.5L0,-3.0L2.5,-0.5"/>
                </g>
                <g id="arrowRight" xlink:href="#dirArrow" transform="rotate(90) translate(36 -43)" onmousedown="handlePan(1,0)">
                  <use xlink:href="#rim" fill="#404040">
                        <set attributeName="fill" to="#808080" begin="arrowRight.mouseover" end="arrowRight.mouseout"/>
                  </use>
                  <path fill="none" stroke="white" stroke-width="1.5" d="M0,-3.0v7 M-2.5,-0.5L0,-3.0L2.5,-0.5"/>
                </g>
                <g id="arrowDown" xlink:href="#dirArrow" transform="rotate(180) translate(-30 -48)" onmousedown="handlePan(0,1)">
                  <use xlink:href="#rim" fill="#404040">
                        <set attributeName="fill" to="#808080" begin="arrowDown.mouseover" end="arrowDown.mouseout"/>
                  </use>
                  <path fill="none" stroke="white" stroke-width="1.5" d="M0,-3.0v7 M-2.5,-0.5L0,-3.0L2.5,-0.5"/>
                </g>
                <g id="arrowLeft" xlink:href="#dirArrow" transform="rotate(270) translate(-36 17)" onmousedown="handlePan(-1,0)">
                  <use xlink:href="#rim" fill="#404040">
                        <set attributeName="fill" to="#808080" begin="arrowLeft.mouseover" end="arrowLeft.mouseout"/>
                  </use>
                  <path fill="none" stroke="white" stroke-width="1.5" d="M0,-3.0v7 M-2.5,-0.5L0,-3.0L2.5,-0.5"/>
                </g>
        </g>
        <svg viewBox="0 0 15 15" width="100%" height="30px" preserveAspectRatio="xMaxYMin meet">
         <g id="arrow_out" transform="scale(0.3 0.3)">
          <a xlink:href="classSeeSawN_1_1TrackerN_1_1ImageFeatureTrackingPipelineC_a6477703091c8bc2456605cf099d3d70c_icgraph_org.svg" target="_base">
           <rect id="button" ry="5" rx="5" y="6" x="6" height="38" width="38"
                fill="#f2f5e9" fill-opacity="0.5" stroke="#606060" stroke-width="1.0"/>
           <path id="arrow"
             d="M 11.500037,31.436501 C 11.940474,20.09759 22.043105,11.32322 32.158766,21.979434 L 37.068811,17.246167 C 37.068811,17.246167 37.088388,32 37.088388,32 L 22.160133,31.978069 C 22.160133,31.978069 26.997745,27.140456 26.997745,27.140456 C 18.528582,18.264221 13.291696,25.230495 11.500037,31.436501 z"
             style="fill:#404040;"/>
          </a>
         </g>
        </svg>
</svg>
