<?xml version="1.0" encoding="UTF-8" standalone="no"?>
<!DOCTYPE svg PUBLIC "-//W3C//DTD SVG 1.1//EN"
 "http://www.w3.org/Graphics/SVG/1.1/DTD/svg11.dtd">
<!-- Generated by graphviz version 2.38.0 (20140413.2041)
 -->
<!-- Title: SeeSawN::GeometryN::SfMPipelineC::EstimatePose Pages: 1 -->
<svg width="1219pt" height="925pt"
 viewBox="0.00 0.00 1219.00 924.50" xmlns="http://www.w3.org/2000/svg" xmlns:xlink="http://www.w3.org/1999/xlink">
<g id="graph0" class="graph" transform="scale(1 1) rotate(0) translate(4 920.5)">
<title>SeeSawN::GeometryN::SfMPipelineC::EstimatePose</title>
<polygon fill="white" stroke="none" points="-4,4 -4,-920.5 1215,-920.5 1215,4 -4,4"/>
<!-- Node21 -->
<g id="node1" class="node"><title>Node21</title>
<polygon fill="#bfbfbf" stroke="black" points="0,-494.5 0,-524.5 146,-524.5 146,-494.5 0,-494.5"/>
<text text-anchor="start" x="8" y="-512.5" font-family="FreeSans" font-size="10.00">SeeSawN::GeometryN</text>
<text text-anchor="middle" x="73" y="-501.5" font-family="FreeSans" font-size="10.00">::SfMPipelineC::EstimatePose</text>
</g>
<!-- Node22 -->
<g id="node2" class="node"><title>Node22</title>
<g id="a_node2"><a xlink:href="namespaceSeeSawN_1_1ElementsN.html#a55b8a7d70fe7cb0af19aff28cf0f0995" target="_top" xlink:title="SeeSawN::ElementsN\l::MakeCoordinateVector">
<polygon fill="white" stroke="black" points="202.5,-549.5 202.5,-579.5 322.5,-579.5 322.5,-549.5 202.5,-549.5"/>
<text text-anchor="start" x="210.5" y="-567.5" font-family="FreeSans" font-size="10.00">SeeSawN::ElementsN</text>
<text text-anchor="middle" x="262.5" y="-556.5" font-family="FreeSans" font-size="10.00">::MakeCoordinateVector</text>
</a>
</g>
</g>
<!-- Node21&#45;&gt;Node22 -->
<g id="edge1" class="edge"><title>Node21&#45;&gt;Node22</title>
<path fill="none" stroke="midnightblue" d="M125.235,-524.529C148.488,-531.35 176.168,-539.469 200.487,-546.603"/>
<polygon fill="midnightblue" stroke="midnightblue" points="199.746,-550.033 210.327,-549.489 201.716,-543.316 199.746,-550.033"/>
</g>
<!-- Node23 -->
<g id="node3" class="node"><title>Node23</title>
<g id="a_node3"><a xlink:href="classSeeSawN_1_1GeometryN_1_1SfMPipelineC.html#a228bbaea7fbd4d88d0050341e4ebd4c8" target="_top" xlink:title="Performs multiview triangulation. ">
<polygon fill="white" stroke="black" points="182,-489 182,-530 343,-530 343,-489 182,-489"/>
<text text-anchor="start" x="190" y="-518" font-family="FreeSans" font-size="10.00">SeeSawN::GeometryN</text>
<text text-anchor="start" x="190" y="-507" font-family="FreeSans" font-size="10.00">::SfMPipelineC::PerformMultiview</text>
<text text-anchor="middle" x="262.5" y="-496" font-family="FreeSans" font-size="10.00">Triangulation</text>
</a>
</g>
</g>
<!-- Node21&#45;&gt;Node23 -->
<g id="edge2" class="edge"><title>Node21&#45;&gt;Node23</title>
<path fill="none" stroke="midnightblue" d="M146.224,-509.5C154.603,-509.5 163.224,-509.5 171.8,-509.5"/>
<polygon fill="midnightblue" stroke="midnightblue" points="171.83,-513 181.83,-509.5 171.83,-506 171.83,-513"/>
</g>
<!-- Node52 -->
<g id="node32" class="node"><title>Node52</title>
<g id="a_node32"><a xlink:href="classSeeSawN_1_1GeometryN_1_1SfMPipelineC.html#abf6420a17c10bd02520e7a804d3d3f31" target="_top" xlink:title="Refines the estimated camera poses via pose graph optimisation. ">
<polygon fill="white" stroke="black" points="195.5,-110.5 195.5,-140.5 329.5,-140.5 329.5,-110.5 195.5,-110.5"/>
<text text-anchor="start" x="203.5" y="-128.5" font-family="FreeSans" font-size="10.00">SeeSawN::GeometryN</text>
<text text-anchor="middle" x="262.5" y="-117.5" font-family="FreeSans" font-size="10.00">::SfMPipelineC::RefinePose</text>
</a>
</g>
</g>
<!-- Node21&#45;&gt;Node52 -->
<g id="edge31" class="edge"><title>Node21&#45;&gt;Node52</title>
<path fill="none" stroke="midnightblue" d="M81.3502,-494.447C109.932,-435.91 213.849,-223.09 249.443,-150.193"/>
<polygon fill="midnightblue" stroke="midnightblue" points="252.754,-151.388 253.997,-140.866 246.464,-148.317 252.754,-151.388"/>
</g>
<!-- Node24 -->
<g id="node4" class="node"><title>Node24</title>
<g id="a_node4"><a xlink:href="classSeeSawN_1_1GeometryN_1_1SfMPipelineC.html#a6cbd08a2c4a3017de2165202137fd06d" target="_top" xlink:title="Performs correspondence fusion for a set of pairwise correspondences. ">
<polygon fill="white" stroke="black" points="379,-787 379,-828 569,-828 569,-787 379,-787"/>
<text text-anchor="start" x="387" y="-816" font-family="FreeSans" font-size="10.00">SeeSawN::GeometryN</text>
<text text-anchor="start" x="387" y="-805" font-family="FreeSans" font-size="10.00">::SfMPipelineC::PerformCorrespondence</text>
<text text-anchor="middle" x="474" y="-794" font-family="FreeSans" font-size="10.00">Fusion</text>
</a>
</g>
</g>
<!-- Node23&#45;&gt;Node24 -->
<g id="edge3" class="edge"><title>Node23&#45;&gt;Node24</title>
<path fill="none" stroke="midnightblue" d="M328.87,-530.12C333.953,-533.142 338.752,-536.584 343,-540.5 415.115,-606.978 451.839,-722.099 465.948,-776.856"/>
<polygon fill="midnightblue" stroke="midnightblue" points="462.579,-777.809 468.398,-786.662 469.37,-776.112 462.579,-777.809"/>
</g>
<!-- Node27 -->
<g id="node7" class="node"><title>Node27</title>
<g id="a_node7"><a xlink:href="classSeeSawN_1_1GeometryN_1_1MultiviewTriangulationC.html#a89824d36ba52be840543d7d31020861d" target="_top" xlink:title="Runs the algorithm. ">
<polygon fill="white" stroke="black" points="401,-522.5 401,-552.5 547,-552.5 547,-522.5 401,-522.5"/>
<text text-anchor="start" x="409" y="-540.5" font-family="FreeSans" font-size="10.00">SeeSawN::GeometryN</text>
<text text-anchor="middle" x="474" y="-529.5" font-family="FreeSans" font-size="10.00">::MultiviewTriangulationC::Run</text>
</a>
</g>
</g>
<!-- Node23&#45;&gt;Node27 -->
<g id="edge6" class="edge"><title>Node23&#45;&gt;Node27</title>
<path fill="none" stroke="midnightblue" d="M343.002,-520.126C358.574,-522.207 374.938,-524.394 390.603,-526.488"/>
<polygon fill="midnightblue" stroke="midnightblue" points="390.405,-529.992 400.781,-527.848 391.332,-523.054 390.405,-529.992"/>
</g>
<!-- Node51 -->
<g id="node31" class="node"><title>Node51</title>
<g id="a_node31"><a xlink:href="classSeeSawN_1_1MatcherN_1_1CorrespondenceFusionC.html#abf146cc92bcec7beca955b9659ca5b45" target="_top" xlink:title="Converts a pairwise view to a unified view. ">
<polygon fill="white" stroke="black" points="412.5,-462 412.5,-503 535.5,-503 535.5,-462 412.5,-462"/>
<text text-anchor="start" x="420.5" y="-491" font-family="FreeSans" font-size="10.00">SeeSawN::MatcherN::</text>
<text text-anchor="start" x="420.5" y="-480" font-family="FreeSans" font-size="10.00">CorrespondenceFusionC</text>
<text text-anchor="middle" x="474" y="-469" font-family="FreeSans" font-size="10.00">::ConvertToUnified</text>
</a>
</g>
</g>
<!-- Node23&#45;&gt;Node51 -->
<g id="edge30" class="edge"><title>Node23&#45;&gt;Node51</title>
<path fill="none" stroke="midnightblue" d="M343.002,-499.254C362.527,-496.738 383.298,-494.061 402.373,-491.602"/>
<polygon fill="midnightblue" stroke="midnightblue" points="403.006,-495.05 412.477,-490.3 402.112,-488.107 403.006,-495.05"/>
</g>
<!-- Node25 -->
<g id="node5" class="node"><title>Node25</title>
<g id="a_node5"><a xlink:href="classSeeSawN_1_1MatcherN_1_1CorrespondenceFusionC.html#a4d0a90a90985a0420c01ebcfb4eceb8f" target="_top" xlink:title="Runs the algorithm. ">
<polygon fill="white" stroke="black" points="626.5,-847.5 626.5,-877.5 771.5,-877.5 771.5,-847.5 626.5,-847.5"/>
<text text-anchor="start" x="634.5" y="-865.5" font-family="FreeSans" font-size="10.00">SeeSawN::MatcherN::</text>
<text text-anchor="middle" x="699" y="-854.5" font-family="FreeSans" font-size="10.00">CorrespondenceFusionC::Run</text>
</a>
</g>
</g>
<!-- Node24&#45;&gt;Node25 -->
<g id="edge4" class="edge"><title>Node24&#45;&gt;Node25</title>
<path fill="none" stroke="midnightblue" d="M558.354,-828.058C580.99,-833.641 605.282,-839.632 627.156,-845.027"/>
<polygon fill="midnightblue" stroke="midnightblue" points="626.474,-848.464 637.021,-847.46 628.15,-841.668 626.474,-848.464"/>
</g>
<!-- Node26 -->
<g id="node6" class="node"><title>Node26</title>
<g id="a_node6"><a xlink:href="classSeeSawN_1_1MatcherN_1_1CorrespondenceFusionC.html#aaf3569cd3d6ea2220f890f7ccbf91924" target="_top" xlink:title="Splices two correspondence stacks. ">
<polygon fill="white" stroke="black" points="637.5,-787 637.5,-828 760.5,-828 760.5,-787 637.5,-787"/>
<text text-anchor="start" x="645.5" y="-816" font-family="FreeSans" font-size="10.00">SeeSawN::MatcherN::</text>
<text text-anchor="start" x="645.5" y="-805" font-family="FreeSans" font-size="10.00">CorrespondenceFusionC</text>
<text text-anchor="middle" x="699" y="-794" font-family="FreeSans" font-size="10.00">::SplicePairwiseViews</text>
</a>
</g>
</g>
<!-- Node24&#45;&gt;Node26 -->
<g id="edge5" class="edge"><title>Node24&#45;&gt;Node26</title>
<path fill="none" stroke="midnightblue" d="M569.249,-807.5C588.706,-807.5 608.882,-807.5 627.329,-807.5"/>
<polygon fill="midnightblue" stroke="midnightblue" points="627.383,-811 637.383,-807.5 627.383,-804 627.383,-811"/>
</g>
<!-- Node28 -->
<g id="node8" class="node"><title>Node28</title>
<g id="a_node8"><a xlink:href="classSeeSawN_1_1GeometryN_1_1MultiviewTriangulationC.html#ae149ec348e34e3289921aef379d29782" target="_top" xlink:title="Applies the pairwise triangulation constraints. ">
<polygon fill="white" stroke="black" points="636.5,-727 636.5,-768 761.5,-768 761.5,-727 636.5,-727"/>
<text text-anchor="start" x="644.5" y="-756" font-family="FreeSans" font-size="10.00">SeeSawN::GeometryN</text>
<text text-anchor="start" x="644.5" y="-745" font-family="FreeSans" font-size="10.00">::MultiviewTriangulationC</text>
<text text-anchor="middle" x="699" y="-734" font-family="FreeSans" font-size="10.00">::ApplyConstraints</text>
</a>
</g>
</g>
<!-- Node27&#45;&gt;Node28 -->
<g id="edge7" class="edge"><title>Node27&#45;&gt;Node28</title>
<path fill="none" stroke="midnightblue" d="M481.745,-552.546C497.931,-586.957 542.333,-671.935 605,-717.5 611.633,-722.323 619.078,-726.394 626.791,-729.826"/>
<polygon fill="midnightblue" stroke="midnightblue" points="625.714,-733.167 636.296,-733.702 628.357,-726.685 625.714,-733.167"/>
</g>
<!-- Node29 -->
<g id="node9" class="node"><title>Node29</title>
<g id="a_node9"><a xlink:href="classSeeSawN_1_1GeometryN_1_1MultiviewTriangulationC.html#a29e188967a4b8b8ae98a7160e99f13ae" target="_top" xlink:title="Filters the 3D point cloud wrt distance and trace constraints. ">
<polygon fill="white" stroke="black" points="636.5,-667 636.5,-708 761.5,-708 761.5,-667 636.5,-667"/>
<text text-anchor="start" x="644.5" y="-696" font-family="FreeSans" font-size="10.00">SeeSawN::GeometryN</text>
<text text-anchor="start" x="644.5" y="-685" font-family="FreeSans" font-size="10.00">::MultiviewTriangulationC</text>
<text text-anchor="middle" x="699" y="-674" font-family="FreeSans" font-size="10.00">::FilterStructure</text>
</a>
</g>
</g>
<!-- Node27&#45;&gt;Node29 -->
<g id="edge8" class="edge"><title>Node27&#45;&gt;Node29</title>
<path fill="none" stroke="midnightblue" d="M487.433,-552.639C508.9,-577.851 555.406,-628.527 605,-657.5 611.873,-661.515 619.351,-665.067 626.982,-668.189"/>
<polygon fill="midnightblue" stroke="midnightblue" points="625.744,-671.463 636.334,-671.788 628.258,-664.93 625.744,-671.463"/>
</g>
<!-- Node34 -->
<g id="node14" class="node"><title>Node34</title>
<g id="a_node14"><a xlink:href="classSeeSawN_1_1GeometryN_1_1MultiviewTriangulationC.html#a5007ea26b28703862aa82764cf388061" target="_top" xlink:title="Fuses the measurements into a single 3D point cloud. ">
<polygon fill="white" stroke="black" points="636.5,-607 636.5,-648 761.5,-648 761.5,-607 636.5,-607"/>
<text text-anchor="start" x="644.5" y="-636" font-family="FreeSans" font-size="10.00">SeeSawN::GeometryN</text>
<text text-anchor="start" x="644.5" y="-625" font-family="FreeSans" font-size="10.00">::MultiviewTriangulationC</text>
<text text-anchor="middle" x="699" y="-614" font-family="FreeSans" font-size="10.00">::FuseMeasurements</text>
</a>
</g>
</g>
<!-- Node27&#45;&gt;Node34 -->
<g id="edge13" class="edge"><title>Node27&#45;&gt;Node34</title>
<path fill="none" stroke="midnightblue" d="M505.023,-552.612C531.089,-565.427 570.036,-583.849 605,-597.5 611.845,-600.172 619.036,-602.799 626.259,-605.319"/>
<polygon fill="midnightblue" stroke="midnightblue" points="625.507,-608.761 636.101,-608.684 627.771,-602.137 625.507,-608.761"/>
</g>
<!-- Node42 -->
<g id="node22" class="node"><title>Node42</title>
<g id="a_node22"><a xlink:href="classSeeSawN_1_1GeometryN_1_1MultiviewTriangulationC.html#a069686a94a7e648f5ae9447baa539061" target="_top" xlink:title="Converts a stack of indices to a stack of correspondences. ">
<polygon fill="white" stroke="black" points="605,-547 605,-588 793,-588 793,-547 605,-547"/>
<text text-anchor="start" x="613" y="-576" font-family="FreeSans" font-size="10.00">SeeSawN::GeometryN</text>
<text text-anchor="start" x="613" y="-565" font-family="FreeSans" font-size="10.00">::MultiviewTriangulationC</text>
<text text-anchor="middle" x="699" y="-554" font-family="FreeSans" font-size="10.00">::MakeCoordinateCorrespondenceStack</text>
</a>
</g>
</g>
<!-- Node27&#45;&gt;Node42 -->
<g id="edge21" class="edge"><title>Node27&#45;&gt;Node42</title>
<path fill="none" stroke="midnightblue" d="M547.094,-547.199C562.374,-549.254 578.787,-551.462 594.961,-553.638"/>
<polygon fill="midnightblue" stroke="midnightblue" points="594.612,-557.123 604.989,-554.987 595.545,-550.185 594.612,-557.123"/>
</g>
<!-- Node43 -->
<g id="node23" class="node"><title>Node43</title>
<g id="a_node23"><a xlink:href="classSeeSawN_1_1GeometryN_1_1MultiviewTriangulationC.html#a13a25b5aa1ee2ae63706e4258885d3c7" target="_top" xlink:title="2&#45;view triangulation ">
<polygon fill="white" stroke="black" points="636.5,-487 636.5,-528 761.5,-528 761.5,-487 636.5,-487"/>
<text text-anchor="start" x="644.5" y="-516" font-family="FreeSans" font-size="10.00">SeeSawN::GeometryN</text>
<text text-anchor="start" x="644.5" y="-505" font-family="FreeSans" font-size="10.00">::MultiviewTriangulationC</text>
<text text-anchor="middle" x="699" y="-494" font-family="FreeSans" font-size="10.00">::PairwiseTriangulation</text>
</a>
</g>
</g>
<!-- Node27&#45;&gt;Node43 -->
<g id="edge22" class="edge"><title>Node27&#45;&gt;Node43</title>
<path fill="none" stroke="midnightblue" d="M547.094,-527.801C572.482,-524.386 600.999,-520.549 626.351,-517.139"/>
<polygon fill="midnightblue" stroke="midnightblue" points="626.821,-520.607 636.265,-515.805 625.887,-513.67 626.821,-520.607"/>
</g>
<!-- Node44 -->
<g id="node24" class="node"><title>Node44</title>
<g id="a_node24"><a xlink:href="classSeeSawN_1_1GeometryN_1_1MultiviewTriangulationC.html#a9f8ad4e3d259061fc2c0169e584734de" target="_top" xlink:title="Processes a pairwise triangulation. ">
<polygon fill="white" stroke="black" points="636.5,-427 636.5,-468 761.5,-468 761.5,-427 636.5,-427"/>
<text text-anchor="start" x="644.5" y="-456" font-family="FreeSans" font-size="10.00">SeeSawN::GeometryN</text>
<text text-anchor="start" x="644.5" y="-445" font-family="FreeSans" font-size="10.00">::MultiviewTriangulationC</text>
<text text-anchor="middle" x="699" y="-434" font-family="FreeSans" font-size="10.00">::ProcessPairwise</text>
</a>
</g>
</g>
<!-- Node27&#45;&gt;Node44 -->
<g id="edge23" class="edge"><title>Node27&#45;&gt;Node44</title>
<path fill="none" stroke="midnightblue" d="M547.343,-522.364C554.878,-519.591 562.242,-516.33 569,-512.5 588.414,-501.497 585.879,-489.005 605,-477.5 611.821,-473.396 619.266,-469.788 626.876,-466.633"/>
<polygon fill="midnightblue" stroke="midnightblue" points="628.158,-469.89 636.212,-463.006 625.623,-463.366 628.158,-469.89"/>
</g>
<!-- Node46 -->
<g id="node26" class="node"><title>Node46</title>
<g id="a_node26"><a xlink:href="classSeeSawN_1_1GeometryN_1_1MultiviewTriangulationC.html#a94fc22437574f93163b47c8c9c56553b" target="_top" xlink:title="For each cluster, identifies the best measurement, and removes the outliers wrt it. ">
<polygon fill="white" stroke="black" points="636.5,-367 636.5,-408 761.5,-408 761.5,-367 636.5,-367"/>
<text text-anchor="start" x="644.5" y="-396" font-family="FreeSans" font-size="10.00">SeeSawN::GeometryN</text>
<text text-anchor="start" x="644.5" y="-385" font-family="FreeSans" font-size="10.00">::MultiviewTriangulationC</text>
<text text-anchor="middle" x="699" y="-374" font-family="FreeSans" font-size="10.00">::RemoveOutliers</text>
</a>
</g>
</g>
<!-- Node27&#45;&gt;Node46 -->
<g id="edge25" class="edge"><title>Node27&#45;&gt;Node46</title>
<path fill="none" stroke="midnightblue" d="M547.468,-525.978C555.327,-522.558 562.732,-518.157 569,-512.5 602.518,-482.247 572.282,-448.616 605,-417.5 611.342,-411.469 618.904,-406.65 626.937,-402.8"/>
<polygon fill="midnightblue" stroke="midnightblue" points="628.349,-406.003 636.167,-398.852 625.596,-399.567 628.349,-406.003"/>
</g>
<!-- Node50 -->
<g id="node30" class="node"><title>Node50</title>
<g id="a_node30"><a xlink:href="classSeeSawN_1_1GeometryN_1_1MultiviewTriangulationC.html#a06b88bde8d87bad39851efb907ba36be" target="_top" xlink:title="Validates the input parameters. ">
<polygon fill="white" stroke="black" points="636.5,-307 636.5,-348 761.5,-348 761.5,-307 636.5,-307"/>
<text text-anchor="start" x="644.5" y="-336" font-family="FreeSans" font-size="10.00">SeeSawN::GeometryN</text>
<text text-anchor="start" x="644.5" y="-325" font-family="FreeSans" font-size="10.00">::MultiviewTriangulationC</text>
<text text-anchor="middle" x="699" y="-314" font-family="FreeSans" font-size="10.00">::ValidateParameters</text>
</a>
</g>
</g>
<!-- Node27&#45;&gt;Node50 -->
<g id="edge29" class="edge"><title>Node27&#45;&gt;Node50</title>
<path fill="none" stroke="midnightblue" d="M547.301,-527.19C555.384,-523.583 562.89,-518.807 569,-512.5 618.209,-461.705 557.131,-409.56 605,-357.5 611.09,-350.876 618.649,-345.71 626.807,-341.68"/>
<polygon fill="midnightblue" stroke="midnightblue" points="628.442,-344.786 636.224,-337.597 625.657,-338.364 628.442,-344.786"/>
</g>
<!-- Node30 -->
<g id="node10" class="node"><title>Node30</title>
<g id="a_node10"><a xlink:href="classSeeSawN_1_1GeometryN_1_1MultiviewTriangulationC.html#a4116fd0bafcce7efc414fedfb97889ce" target="_top" xlink:title="Decimates a point cloud. ">
<polygon fill="white" stroke="black" points="847,-845 847,-886 972,-886 972,-845 847,-845"/>
<text text-anchor="start" x="855" y="-874" font-family="FreeSans" font-size="10.00">SeeSawN::GeometryN</text>
<text text-anchor="start" x="855" y="-863" font-family="FreeSans" font-size="10.00">::MultiviewTriangulationC</text>
<text text-anchor="middle" x="909.5" y="-852" font-family="FreeSans" font-size="10.00">::Decimate</text>
</a>
</g>
</g>
<!-- Node29&#45;&gt;Node30 -->
<g id="edge9" class="edge"><title>Node29&#45;&gt;Node30</title>
<path fill="none" stroke="midnightblue" d="M761.79,-698.224C773.327,-702.612 784.432,-708.794 793,-717.5 831.461,-756.579 791.503,-795.495 829,-835.5 831.759,-838.443 834.835,-841.1 838.129,-843.498"/>
<polygon fill="midnightblue" stroke="midnightblue" points="836.393,-846.541 846.712,-848.94 840.142,-840.629 836.393,-846.541"/>
</g>
<!-- Node33 -->
<g id="node13" class="node"><title>Node33</title>
<g id="a_node13"><a xlink:href="classSeeSawN_1_1GeometryN_1_1MultiviewTriangulationC.html#a5cdf9112adad8e10c96c6feb3f0a9512" target="_top" xlink:title="Ranks the point cloud wrt distance to the median. ">
<polygon fill="white" stroke="black" points="847,-785 847,-826 972,-826 972,-785 847,-785"/>
<text text-anchor="start" x="855" y="-814" font-family="FreeSans" font-size="10.00">SeeSawN::GeometryN</text>
<text text-anchor="start" x="855" y="-803" font-family="FreeSans" font-size="10.00">::MultiviewTriangulationC</text>
<text text-anchor="middle" x="909.5" y="-792" font-family="FreeSans" font-size="10.00">::RankDistance</text>
</a>
</g>
</g>
<!-- Node29&#45;&gt;Node33 -->
<g id="edge12" class="edge"><title>Node29&#45;&gt;Node33</title>
<path fill="none" stroke="midnightblue" d="M761.613,-700.594C772.772,-704.786 783.779,-710.289 793,-717.5 816.9,-736.19 805.563,-756.233 829,-775.5 831.845,-777.839 834.892,-780.007 838.073,-782.016"/>
<polygon fill="midnightblue" stroke="midnightblue" points="836.343,-785.058 846.765,-786.967 839.808,-778.976 836.343,-785.058"/>
</g>
<!-- Node31 -->
<g id="node11" class="node"><title>Node31</title>
<g id="a_node11"><a xlink:href="classSeeSawN_1_1GeometryN_1_1CoordinateTransformationsC.html#a3513482ab509a3852d40b8dcbc36217a" target="_top" xlink:title="Assigns the coordinates to buckets. ">
<polygon fill="white" stroke="black" points="1049.5,-875 1049.5,-916 1187.5,-916 1187.5,-875 1049.5,-875"/>
<text text-anchor="start" x="1057.5" y="-904" font-family="FreeSans" font-size="10.00">SeeSawN::GeometryN</text>
<text text-anchor="start" x="1057.5" y="-893" font-family="FreeSans" font-size="10.00">::CoordinateTransformations</text>
<text text-anchor="middle" x="1118.5" y="-882" font-family="FreeSans" font-size="10.00">C::Bucketise</text>
</a>
</g>
</g>
<!-- Node30&#45;&gt;Node31 -->
<g id="edge10" class="edge"><title>Node30&#45;&gt;Node31</title>
<path fill="none" stroke="midnightblue" d="M972.046,-874.42C993.129,-877.475 1017.01,-880.936 1039.23,-884.157"/>
<polygon fill="midnightblue" stroke="midnightblue" points="1038.91,-887.647 1049.31,-885.618 1039.92,-880.72 1038.91,-887.647"/>
</g>
<!-- Node32 -->
<g id="node12" class="node"><title>Node32</title>
<g id="a_node12"><a xlink:href="classSeeSawN_1_1GeometryN_1_1CoordinateStatisticsC.html#a44f790d9805e3d0ec9ed62e2b894ec5a" target="_top" xlink:title="Computes the per&#45;dimension spatial extent. ">
<polygon fill="white" stroke="black" points="1060.5,-815 1060.5,-856 1176.5,-856 1176.5,-815 1060.5,-815"/>
<text text-anchor="start" x="1068.5" y="-844" font-family="FreeSans" font-size="10.00">SeeSawN::GeometryN</text>
<text text-anchor="start" x="1068.5" y="-833" font-family="FreeSans" font-size="10.00">::CoordinateStatisticsC</text>
<text text-anchor="middle" x="1118.5" y="-822" font-family="FreeSans" font-size="10.00">::ComputeExtent</text>
</a>
</g>
</g>
<!-- Node30&#45;&gt;Node32 -->
<g id="edge11" class="edge"><title>Node30&#45;&gt;Node32</title>
<path fill="none" stroke="midnightblue" d="M972.046,-856.58C996.661,-853.013 1025.09,-848.893 1050.24,-845.247"/>
<polygon fill="midnightblue" stroke="midnightblue" points="1051.04,-848.668 1060.44,-843.77 1050.04,-841.741 1051.04,-848.668"/>
</g>
<!-- Node35 -->
<g id="node15" class="node"><title>Node35</title>
<g id="a_node15"><a xlink:href="classSeeSawN_1_1StateEstimationN_1_1KalmanFilterC.html#a00f0c4d138e9189b17522a5591d171c5" target="_top" xlink:title="Clears the state. ">
<polygon fill="white" stroke="black" points="842.5,-735.5 842.5,-765.5 976.5,-765.5 976.5,-735.5 842.5,-735.5"/>
<text text-anchor="start" x="850.5" y="-753.5" font-family="FreeSans" font-size="10.00">SeeSawN::StateEstimation</text>
<text text-anchor="middle" x="909.5" y="-742.5" font-family="FreeSans" font-size="10.00">N::KalmanFilterC::Clear</text>
</a>
</g>
</g>
<!-- Node34&#45;&gt;Node35 -->
<g id="edge14" class="edge"><title>Node34&#45;&gt;Node35</title>
<path fill="none" stroke="midnightblue" d="M761.533,-639.911C772.825,-644.167 783.902,-649.868 793,-657.5 819.199,-679.477 802.72,-703.62 829,-725.5 831.043,-727.201 833.203,-728.787 835.451,-730.265"/>
<polygon fill="midnightblue" stroke="midnightblue" points="834.09,-733.519 844.508,-735.449 837.568,-727.443 834.09,-733.519"/>
</g>
<!-- Node36 -->
<g id="node16" class="node"><title>Node36</title>
<g id="a_node16"><a xlink:href="classSeeSawN_1_1GeometryN_1_1MultiviewTriangulationC.html#a9bd0e8bf4be1157f5bc09451367cc07c" target="_top" xlink:title="Computes the covariance of a 3D point. ">
<polygon fill="white" stroke="black" points="847,-675 847,-716 972,-716 972,-675 847,-675"/>
<text text-anchor="start" x="855" y="-704" font-family="FreeSans" font-size="10.00">SeeSawN::GeometryN</text>
<text text-anchor="start" x="855" y="-693" font-family="FreeSans" font-size="10.00">::MultiviewTriangulationC</text>
<text text-anchor="middle" x="909.5" y="-682" font-family="FreeSans" font-size="10.00">::ComputeCovariance</text>
</a>
</g>
</g>
<!-- Node34&#45;&gt;Node36 -->
<g id="edge15" class="edge"><title>Node34&#45;&gt;Node36</title>
<path fill="none" stroke="midnightblue" d="M761.547,-647.298C772.045,-650.691 782.838,-654.189 793,-657.5 807.324,-662.167 822.638,-667.185 837.277,-671.995"/>
<polygon fill="midnightblue" stroke="midnightblue" points="836.189,-675.322 846.782,-675.121 838.376,-668.672 836.189,-675.322"/>
</g>
<!-- Node37 -->
<g id="node17" class="node"><title>Node37</title>
<g id="a_node17"><a xlink:href="classSeeSawN_1_1StateEstimationN_1_1KalmanFilterC.html#ac8e7ea4362e33ee57cc3806057910eaa" target="_top" xlink:title="Returns a constant reference to the state. ">
<polygon fill="white" stroke="black" points="842.5,-625.5 842.5,-655.5 976.5,-655.5 976.5,-625.5 842.5,-625.5"/>
<text text-anchor="start" x="850.5" y="-643.5" font-family="FreeSans" font-size="10.00">SeeSawN::StateEstimation</text>
<text text-anchor="middle" x="909.5" y="-632.5" font-family="FreeSans" font-size="10.00">N::KalmanFilterC::GetState</text>
</a>
</g>
</g>
<!-- Node34&#45;&gt;Node37 -->
<g id="edge16" class="edge"><title>Node34&#45;&gt;Node37</title>
<path fill="none" stroke="midnightblue" d="M761.711,-631.348C783.782,-632.724 808.923,-634.291 832.086,-635.736"/>
<polygon fill="midnightblue" stroke="midnightblue" points="832.025,-639.238 842.223,-636.368 832.46,-632.252 832.025,-639.238"/>
</g>
<!-- Node38 -->
<g id="node18" class="node"><title>Node38</title>
<g id="a_node18"><a xlink:href="classSeeSawN_1_1StateEstimationN_1_1KalmanFilterC.html#a4f277eccdf9ac3405ddc39d066543e38" target="_top" xlink:title="Returns flagValid. ">
<polygon fill="white" stroke="black" points="842.5,-576.5 842.5,-606.5 976.5,-606.5 976.5,-576.5 842.5,-576.5"/>
<text text-anchor="start" x="850.5" y="-594.5" font-family="FreeSans" font-size="10.00">SeeSawN::StateEstimation</text>
<text text-anchor="middle" x="909.5" y="-583.5" font-family="FreeSans" font-size="10.00">N::KalmanFilterC::IsValid</text>
</a>
</g>
</g>
<!-- Node34&#45;&gt;Node38 -->
<g id="edge17" class="edge"><title>Node34&#45;&gt;Node38</title>
<path fill="none" stroke="midnightblue" d="M761.711,-616.845C783.782,-613.034 808.923,-608.693 832.086,-604.694"/>
<polygon fill="midnightblue" stroke="midnightblue" points="832.965,-608.094 842.223,-602.943 831.773,-601.196 832.965,-608.094"/>
</g>
<!-- Node39 -->
<g id="node19" class="node"><title>Node39</title>
<g id="a_node19"><a xlink:href="classSeeSawN_1_1StateEstimationN_1_1KalmanFilterC.html#a968c9cc9f685c3a342d73ee1d29a46d2" target="_top" xlink:title="Sets the state. ">
<polygon fill="white" stroke="black" points="842.5,-527.5 842.5,-557.5 976.5,-557.5 976.5,-527.5 842.5,-527.5"/>
<text text-anchor="start" x="850.5" y="-545.5" font-family="FreeSans" font-size="10.00">SeeSawN::StateEstimation</text>
<text text-anchor="middle" x="909.5" y="-534.5" font-family="FreeSans" font-size="10.00">N::KalmanFilterC::SetState</text>
</a>
</g>
</g>
<!-- Node34&#45;&gt;Node39 -->
<g id="edge18" class="edge"><title>Node34&#45;&gt;Node39</title>
<path fill="none" stroke="midnightblue" d="M761.927,-611.204C772.591,-607.372 783.341,-602.82 793,-597.5 811.244,-587.453 810.719,-577.48 829,-567.5 832.965,-565.336 837.144,-563.327 841.428,-561.469"/>
<polygon fill="midnightblue" stroke="midnightblue" points="842.963,-564.625 850.929,-557.639 840.345,-558.132 842.963,-564.625"/>
</g>
<!-- Node40 -->
<g id="node20" class="node"><title>Node40</title>
<g id="a_node20"><a xlink:href="classSeeSawN_1_1StateEstimationN_1_1KalmanFilterC.html#af884de88020c1d5258565df0f0207ecc" target="_top" xlink:title="Updates the state. ">
<polygon fill="white" stroke="black" points="842.5,-478.5 842.5,-508.5 976.5,-508.5 976.5,-478.5 842.5,-478.5"/>
<text text-anchor="start" x="850.5" y="-496.5" font-family="FreeSans" font-size="10.00">SeeSawN::StateEstimation</text>
<text text-anchor="middle" x="909.5" y="-485.5" font-family="FreeSans" font-size="10.00">N::KalmanFilterC::Update</text>
</a>
</g>
</g>
<!-- Node34&#45;&gt;Node40 -->
<g id="edge19" class="edge"><title>Node34&#45;&gt;Node40</title>
<path fill="none" stroke="midnightblue" d="M761.898,-615.511C773.16,-611.22 784.132,-605.398 793,-597.5 821.813,-571.837 800.092,-544.056 829,-518.5 830.761,-516.943 832.62,-515.482 834.555,-514.113"/>
<polygon fill="midnightblue" stroke="midnightblue" points="836.761,-516.867 843.477,-508.673 833.117,-510.891 836.761,-516.867"/>
</g>
<!-- Node41 -->
<g id="node21" class="node"><title>Node41</title>
<g id="a_node21"><a xlink:href="classSeeSawN_1_1StateEstimationN_1_1KalmanFilterC.html#a1ab04b6da58e3f7be6832587074de4b4" target="_top" xlink:title="Predicts the next measurement from the filter state. ">
<polygon fill="white" stroke="black" points="1026,-478.5 1026,-508.5 1211,-508.5 1211,-478.5 1026,-478.5"/>
<text text-anchor="start" x="1034" y="-496.5" font-family="FreeSans" font-size="10.00">SeeSawN::StateEstimation</text>
<text text-anchor="middle" x="1118.5" y="-485.5" font-family="FreeSans" font-size="10.00">N::KalmanFilterC::PredictMeasurement</text>
</a>
</g>
</g>
<!-- Node40&#45;&gt;Node41 -->
<g id="edge20" class="edge"><title>Node40&#45;&gt;Node41</title>
<path fill="none" stroke="midnightblue" d="M976.565,-493.5C989.011,-493.5 1002.29,-493.5 1015.54,-493.5"/>
<polygon fill="midnightblue" stroke="midnightblue" points="1015.65,-497 1025.65,-493.5 1015.65,-490 1015.65,-497"/>
</g>
<!-- Node45 -->
<g id="node25" class="node"><title>Node45</title>
<g id="a_node25"><a xlink:href="namespaceSeeSawN_1_1WrappersN.html#af15683d7e567d982a048ba1a71efa6bc" target="_top" xlink:title="SeeSawN::WrappersN\l::FilterBimap">
<polygon fill="white" stroke="black" points="852.5,-429.5 852.5,-459.5 966.5,-459.5 966.5,-429.5 852.5,-429.5"/>
<text text-anchor="start" x="860.5" y="-447.5" font-family="FreeSans" font-size="10.00">SeeSawN::WrappersN</text>
<text text-anchor="middle" x="909.5" y="-436.5" font-family="FreeSans" font-size="10.00">::FilterBimap</text>
</a>
</g>
</g>
<!-- Node44&#45;&gt;Node45 -->
<g id="edge24" class="edge"><title>Node44&#45;&gt;Node45</title>
<path fill="none" stroke="midnightblue" d="M761.711,-446.612C787.047,-446.248 816.429,-445.825 842.22,-445.454"/>
<polygon fill="midnightblue" stroke="midnightblue" points="842.335,-448.952 852.283,-445.309 842.234,-441.953 842.335,-448.952"/>
</g>
<!-- Node47 -->
<g id="node27" class="node"><title>Node47</title>
<g id="a_node27"><a xlink:href="classSeeSawN_1_1GeometryN_1_1MultiviewTriangulationC.html#a80aa196d58c6b0359d2ddb79904f408e" target="_top" xlink:title="Evaluates a 3D point. ">
<polygon fill="white" stroke="black" points="847,-369 847,-410 972,-410 972,-369 847,-369"/>
<text text-anchor="start" x="855" y="-398" font-family="FreeSans" font-size="10.00">SeeSawN::GeometryN</text>
<text text-anchor="start" x="855" y="-387" font-family="FreeSans" font-size="10.00">::MultiviewTriangulationC</text>
<text text-anchor="middle" x="909.5" y="-376" font-family="FreeSans" font-size="10.00">::Evaluate3DPoint</text>
</a>
</g>
</g>
<!-- Node46&#45;&gt;Node47 -->
<g id="edge26" class="edge"><title>Node46&#45;&gt;Node47</title>
<path fill="none" stroke="midnightblue" d="M761.711,-388.092C785.247,-388.318 812.274,-388.577 836.671,-388.811"/>
<polygon fill="midnightblue" stroke="midnightblue" points="836.915,-392.313 846.948,-388.91 836.982,-385.314 836.915,-392.313"/>
</g>
<!-- Node48 -->
<g id="node28" class="node"><title>Node48</title>
<g id="a_node28"><a xlink:href="classSeeSawN_1_1GeometryN_1_1MultiviewTriangulationC.html#abd96b88da404d4d3edc1e505208d6541" target="_top" xlink:title="Removes the outliers from the records. ">
<polygon fill="white" stroke="black" points="847,-309 847,-350 972,-350 972,-309 847,-309"/>
<text text-anchor="start" x="855" y="-338" font-family="FreeSans" font-size="10.00">SeeSawN::GeometryN</text>
<text text-anchor="start" x="855" y="-327" font-family="FreeSans" font-size="10.00">::MultiviewTriangulationC</text>
<text text-anchor="middle" x="909.5" y="-316" font-family="FreeSans" font-size="10.00">::FilterRecords</text>
</a>
</g>
</g>
<!-- Node46&#45;&gt;Node48 -->
<g id="edge27" class="edge"><title>Node46&#45;&gt;Node48</title>
<path fill="none" stroke="midnightblue" d="M761.711,-370.334C785.352,-363.757 812.515,-356.201 836.997,-349.39"/>
<polygon fill="midnightblue" stroke="midnightblue" points="838.252,-352.675 846.948,-346.622 836.376,-345.931 838.252,-352.675"/>
</g>
<!-- Node49 -->
<g id="node29" class="node"><title>Node49</title>
<g id="a_node29"><a xlink:href="classSeeSawN_1_1GeometryN_1_1MultiviewTriangulationC.html#ab4dd00ddfc6e36ccccb523086c7c0316" target="_top" xlink:title="Extracts the unique projections from a list of triangulation records. ">
<polygon fill="white" stroke="black" points="847,-249 847,-290 972,-290 972,-249 847,-249"/>
<text text-anchor="start" x="855" y="-278" font-family="FreeSans" font-size="10.00">SeeSawN::GeometryN</text>
<text text-anchor="start" x="855" y="-267" font-family="FreeSans" font-size="10.00">::MultiviewTriangulationC</text>
<text text-anchor="middle" x="909.5" y="-256" font-family="FreeSans" font-size="10.00">::MakeProjectionList</text>
</a>
</g>
</g>
<!-- Node46&#45;&gt;Node49 -->
<g id="edge28" class="edge"><title>Node46&#45;&gt;Node49</title>
<path fill="none" stroke="midnightblue" d="M761.613,-374.406C772.772,-370.214 783.779,-364.711 793,-357.5 816.9,-338.81 805.563,-318.767 829,-299.5 831.845,-297.161 834.892,-294.993 838.073,-292.984"/>
<polygon fill="midnightblue" stroke="midnightblue" points="839.808,-296.024 846.765,-288.033 836.343,-289.942 839.808,-296.024"/>
</g>
<!-- Node53 -->
<g id="node33" class="node"><title>Node53</title>
<g id="a_node33"><a xlink:href="classSeeSawN_1_1GeometryN_1_1SfMPipelineC.html#a7aa28351118881bf6fb7a1b780a5a685" target="_top" xlink:title="Makes pose observations for the pose graph optimiser. ">
<polygon fill="white" stroke="black" points="379.5,-132.5 379.5,-162.5 568.5,-162.5 568.5,-132.5 379.5,-132.5"/>
<text text-anchor="start" x="387.5" y="-150.5" font-family="FreeSans" font-size="10.00">SeeSawN::GeometryN</text>
<text text-anchor="middle" x="474" y="-139.5" font-family="FreeSans" font-size="10.00">::SfMPipelineC::MakePoseObservations</text>
</a>
</g>
</g>
<!-- Node52&#45;&gt;Node53 -->
<g id="edge32" class="edge"><title>Node52&#45;&gt;Node53</title>
<path fill="none" stroke="midnightblue" d="M329.787,-132.461C342.301,-133.775 355.666,-135.178 369.014,-136.58"/>
<polygon fill="midnightblue" stroke="midnightblue" points="368.892,-140.087 379.203,-137.65 369.624,-133.125 368.892,-140.087"/>
</g>
<!-- Node57 -->
<g id="node37" class="node"><title>Node57</title>
<g id="a_node37"><a xlink:href="group__Elements.html#gaed97416c6eb370835de21c7c7d9942dd" target="_top" xlink:title="Composes a camera matrix. ">
<polygon fill="white" stroke="black" points="638,-0.5 638,-30.5 760,-30.5 760,-0.5 638,-0.5"/>
<text text-anchor="start" x="646" y="-18.5" font-family="FreeSans" font-size="10.00">SeeSawN::ElementsN</text>
<text text-anchor="middle" x="699" y="-7.5" font-family="FreeSans" font-size="10.00">::ComposeCameraMatrix</text>
</a>
</g>
</g>
<!-- Node52&#45;&gt;Node57 -->
<g id="edge42" class="edge"><title>Node52&#45;&gt;Node57</title>
<path fill="none" stroke="midnightblue" d="M329.646,-122.042C406.893,-117.035 529.186,-105.814 569,-83.5 591.041,-71.1466 583.712,-53.1096 605,-39.5 612.069,-34.9812 619.951,-31.3115 628.054,-28.3318"/>
<polygon fill="midnightblue" stroke="midnightblue" points="629.251,-31.6223 637.632,-25.1413 627.039,-24.981 629.251,-31.6223"/>
</g>
<!-- Node62 -->
<g id="node42" class="node"><title>Node62</title>
<g id="a_node42"><a xlink:href="classSeeSawN_1_1OptimisationN_1_1PowellDogLegC.html#a188eb4f57310e6e63b2e68d11ce22763" target="_top" xlink:title="Runs the algorithm. ">
<polygon fill="white" stroke="black" points="410,-44.5 410,-74.5 538,-74.5 538,-44.5 410,-44.5"/>
<text text-anchor="start" x="418" y="-62.5" font-family="FreeSans" font-size="10.00">SeeSawN::OptimisationN</text>
<text text-anchor="middle" x="474" y="-51.5" font-family="FreeSans" font-size="10.00">::PowellDogLegC::Run</text>
</a>
</g>
</g>
<!-- Node52&#45;&gt;Node62 -->
<g id="edge41" class="edge"><title>Node52&#45;&gt;Node62</title>
<path fill="none" stroke="midnightblue" d="M311.301,-110.441C342.164,-100.718 382.503,-88.0096 415.17,-77.7186"/>
<polygon fill="midnightblue" stroke="midnightblue" points="416.556,-80.9515 425.042,-74.6084 414.453,-74.275 416.556,-80.9515"/>
</g>
<!-- Node54 -->
<g id="node34" class="node"><title>Node54</title>
<g id="a_node34"><a xlink:href="namespaceSeeSawN_1_1ElementsN.html#aa695aa53ad17d70675e49c8e9ee14e06" target="_top" xlink:title="Computes the pose of a viewpoint within a new reference frame. ">
<polygon fill="white" stroke="black" points="640,-257.5 640,-287.5 758,-287.5 758,-257.5 640,-257.5"/>
<text text-anchor="start" x="648" y="-275.5" font-family="FreeSans" font-size="10.00">SeeSawN::ElementsN</text>
<text text-anchor="middle" x="699" y="-264.5" font-family="FreeSans" font-size="10.00">::ComputeRelativePose</text>
</a>
</g>
</g>
<!-- Node53&#45;&gt;Node54 -->
<g id="edge33" class="edge"><title>Node53&#45;&gt;Node54</title>
<path fill="none" stroke="midnightblue" d="M490.422,-162.701C513.45,-184.574 559.055,-224.785 605,-247.5 612.84,-251.376 621.36,-254.712 629.953,-257.567"/>
<polygon fill="midnightblue" stroke="midnightblue" points="629.067,-260.956 639.655,-260.588 631.148,-254.273 629.067,-260.956"/>
</g>
<!-- Node55 -->
<g id="node35" class="node"><title>Node55</title>
<g id="a_node35"><a xlink:href="classSeeSawN_1_1GeometryN_1_1SfMPipelineC.html#a8a4383cfe12a69cf61652e7616c50021" target="_top" xlink:title="Makes an approximate pose covariance matrix. ">
<polygon fill="white" stroke="black" points="609,-208.5 609,-238.5 789,-238.5 789,-208.5 609,-208.5"/>
<text text-anchor="start" x="617" y="-226.5" font-family="FreeSans" font-size="10.00">SeeSawN::GeometryN</text>
<text text-anchor="middle" x="699" y="-215.5" font-family="FreeSans" font-size="10.00">::SfMPipelineC::MakePoseCovariance</text>
</a>
</g>
</g>
<!-- Node53&#45;&gt;Node55 -->
<g id="edge34" class="edge"><title>Node53&#45;&gt;Node55</title>
<path fill="none" stroke="midnightblue" d="M510.201,-162.539C536.137,-173.317 572.417,-187.766 605,-198.5 612.564,-200.992 620.533,-203.422 628.494,-205.727"/>
<polygon fill="midnightblue" stroke="midnightblue" points="627.598,-209.111 638.173,-208.472 629.508,-202.376 627.598,-209.111"/>
</g>
<!-- Node56 -->
<g id="node36" class="node"><title>Node56</title>
<g id="a_node36"><a xlink:href="classSeeSawN_1_1GeometryN_1_1P3PSolverC.html#a86ae2f2b14dcc284db49c907c384a1ec" target="_top" xlink:title="Converts a model to the minimal form. ">
<polygon fill="white" stroke="black" points="630.5,-159.5 630.5,-189.5 767.5,-189.5 767.5,-159.5 630.5,-159.5"/>
<text text-anchor="start" x="638.5" y="-177.5" font-family="FreeSans" font-size="10.00">SeeSawN::GeometryN</text>
<text text-anchor="middle" x="699" y="-166.5" font-family="FreeSans" font-size="10.00">::P3PSolverC::MakeMinimal</text>
</a>
</g>
</g>
<!-- Node53&#45;&gt;Node56 -->
<g id="edge35" class="edge"><title>Node53&#45;&gt;Node56</title>
<path fill="none" stroke="midnightblue" d="M568.603,-158.833C585.778,-160.913 603.534,-163.062 620.185,-165.078"/>
<polygon fill="midnightblue" stroke="midnightblue" points="620.046,-168.587 630.394,-166.315 620.887,-161.638 620.046,-168.587"/>
</g>
<!-- Node53&#45;&gt;Node57 -->
<g id="edge36" class="edge"><title>Node53&#45;&gt;Node57</title>
<path fill="none" stroke="midnightblue" d="M545.269,-132.382C553.878,-128.501 562.068,-123.625 569,-117.5 597.612,-92.2192 575.687,-63.9643 605,-39.5 611.79,-33.8331 619.759,-29.4842 628.126,-26.1504"/>
<polygon fill="midnightblue" stroke="midnightblue" points="629.417,-29.4069 637.701,-22.8016 627.106,-22.7994 629.417,-29.4069"/>
</g>
<!-- Node58 -->
<g id="node38" class="node"><title>Node58</title>
<g id="a_node38"><a xlink:href="structSeeSawN_1_1UncertaintyEstimationN_1_1MultivariateGaussianC.html#ae747d560b5913f0090ad08d9b734f12a" target="_top" xlink:title="Computes the Mahalonobis distance between the mean and a sample. ">
<polygon fill="white" stroke="black" points="618.5,-99 618.5,-140 779.5,-140 779.5,-99 618.5,-99"/>
<text text-anchor="start" x="626.5" y="-128" font-family="FreeSans" font-size="10.00">SeeSawN::UncertaintyEstimation</text>
<text text-anchor="start" x="626.5" y="-117" font-family="FreeSans" font-size="10.00">N::MultivariateGaussianC</text>
<text text-anchor="middle" x="699" y="-106" font-family="FreeSans" font-size="10.00">::ComputeMahalonobisDistance</text>
</a>
</g>
</g>
<!-- Node53&#45;&gt;Node58 -->
<g id="edge37" class="edge"><title>Node53&#45;&gt;Node58</title>
<path fill="none" stroke="midnightblue" d="M568.603,-135.747C581.805,-134.089 595.351,-132.389 608.475,-130.741"/>
<polygon fill="midnightblue" stroke="midnightblue" points="608.929,-134.211 618.415,-129.493 608.057,-127.266 608.929,-134.211"/>
</g>
<!-- Node61 -->
<g id="node41" class="node"><title>Node61</title>
<g id="a_node41"><a xlink:href="namespaceSeeSawN_1_1WrappersN.html#a87f9553a54fadfe82a39b254cc15f6ef" target="_top" xlink:title="SeeSawN::WrappersN\l::FindConnectedComponents">
<polygon fill="white" stroke="black" points="628.5,-49.5 628.5,-79.5 769.5,-79.5 769.5,-49.5 628.5,-49.5"/>
<text text-anchor="start" x="636.5" y="-67.5" font-family="FreeSans" font-size="10.00">SeeSawN::WrappersN</text>
<text text-anchor="middle" x="699" y="-56.5" font-family="FreeSans" font-size="10.00">::FindConnectedComponents</text>
</a>
</g>
</g>
<!-- Node53&#45;&gt;Node61 -->
<g id="edge40" class="edge"><title>Node53&#45;&gt;Node61</title>
<path fill="none" stroke="midnightblue" d="M533.469,-132.364C545.54,-128.274 557.937,-123.33 569,-117.5 586.932,-108.05 586.854,-98.5319 605,-89.5 609.652,-87.1848 614.544,-85.0632 619.551,-83.1225"/>
<polygon fill="midnightblue" stroke="midnightblue" points="621.069,-86.2959 629.287,-79.6097 618.693,-79.7114 621.069,-86.2959"/>
</g>
<!-- Node59 -->
<g id="node39" class="node"><title>Node59</title>
<g id="a_node39"><a xlink:href="structSeeSawN_1_1UncertaintyEstimationN_1_1MultivariateGaussianC.html#ae1ebc044c789ead55486e00b49c28b26" target="_top" xlink:title="true if the mean and the covariance are set ">
<polygon fill="white" stroke="black" points="829,-129 829,-170 990,-170 990,-129 829,-129"/>
<text text-anchor="start" x="837" y="-158" font-family="FreeSans" font-size="10.00">SeeSawN::UncertaintyEstimation</text>
<text text-anchor="start" x="837" y="-147" font-family="FreeSans" font-size="10.00">N::MultivariateGaussianC</text>
<text text-anchor="middle" x="909.5" y="-136" font-family="FreeSans" font-size="10.00">::IsValid</text>
</a>
</g>
</g>
<!-- Node58&#45;&gt;Node59 -->
<g id="edge38" class="edge"><title>Node58&#45;&gt;Node59</title>
<path fill="none" stroke="midnightblue" d="M779.717,-130.97C792.417,-132.797 805.632,-134.699 818.548,-136.557"/>
<polygon fill="midnightblue" stroke="midnightblue" points="818.43,-140.076 828.827,-138.036 819.427,-133.148 818.43,-140.076"/>
</g>
<!-- Node60 -->
<g id="node40" class="node"><title>Node60</title>
<g id="a_node40"><a xlink:href="structSeeSawN_1_1UncertaintyEstimationN_1_1MultivariateGaussianC.html#ae849d1b5fab0ddcd465d8046f4c734c2" target="_top" xlink:title="Initialises inverseCovariance and related variables. ">
<polygon fill="white" stroke="black" points="829,-69 829,-110 990,-110 990,-69 829,-69"/>
<text text-anchor="start" x="837" y="-98" font-family="FreeSans" font-size="10.00">SeeSawN::UncertaintyEstimation</text>
<text text-anchor="start" x="837" y="-87" font-family="FreeSans" font-size="10.00">N::MultivariateGaussianC</text>
<text text-anchor="middle" x="909.5" y="-76" font-family="FreeSans" font-size="10.00">::InitialiseInverse</text>
</a>
</g>
</g>
<!-- Node58&#45;&gt;Node60 -->
<g id="edge39" class="edge"><title>Node58&#45;&gt;Node60</title>
<path fill="none" stroke="midnightblue" d="M779.717,-108.03C792.417,-106.203 805.632,-104.301 818.548,-102.443"/>
<polygon fill="midnightblue" stroke="midnightblue" points="819.427,-105.852 828.827,-100.964 818.43,-98.9237 819.427,-105.852"/>
</g>
</g>
</svg>
