<?xml version="1.0" encoding="UTF-8" standalone="no"?>
<!DOCTYPE svg PUBLIC "-//W3C//DTD SVG 1.1//EN"
 "http://www.w3.org/Graphics/SVG/1.1/DTD/svg11.dtd">
<!-- Generated by graphviz version 2.38.0 (20140413.2041)
 -->
<!-- Title: SeeSawN::GeometryN::MultiviewPanoramaBuilderC::Run Pages: 1 -->
<svg width="650pt" height="520pt"
 viewBox="0.00 0.00 650.00 520.00" xmlns="http://www.w3.org/2000/svg" xmlns:xlink="http://www.w3.org/1999/xlink">
<g id="graph0" class="graph" transform="scale(1 1) rotate(0) translate(4 516)">
<title>SeeSawN::GeometryN::MultiviewPanoramaBuilderC::Run</title>
<polygon fill="white" stroke="none" points="-4,4 -4,-516 646,-516 646,4 -4,4"/>
<!-- Node47 -->
<g id="node1" class="node"><title>Node47</title>
<polygon fill="#bfbfbf" stroke="black" points="0,-230.5 0,-271.5 137,-271.5 137,-230.5 0,-230.5"/>
<text text-anchor="start" x="8" y="-259.5" font-family="FreeSans" font-size="10.00">SeeSawN::GeometryN</text>
<text text-anchor="start" x="8" y="-248.5" font-family="FreeSans" font-size="10.00">::MultiviewPanoramaBuilder</text>
<text text-anchor="middle" x="68.5" y="-237.5" font-family="FreeSans" font-size="10.00">C::Run</text>
</g>
<!-- Node48 -->
<g id="node2" class="node"><title>Node48</title>
<g id="a_node2"><a xlink:href="classSeeSawN_1_1MatcherN_1_1CorrespondenceFusionC.html#abf146cc92bcec7beca955b9659ca5b45" target="_top" xlink:title="Converts a pairwise view to a unified view. ">
<polygon fill="white" stroke="black" points="184,-470.5 184,-511.5 307,-511.5 307,-470.5 184,-470.5"/>
<text text-anchor="start" x="192" y="-499.5" font-family="FreeSans" font-size="10.00">SeeSawN::MatcherN::</text>
<text text-anchor="start" x="192" y="-488.5" font-family="FreeSans" font-size="10.00">CorrespondenceFusionC</text>
<text text-anchor="middle" x="245.5" y="-477.5" font-family="FreeSans" font-size="10.00">::ConvertToUnified</text>
</a>
</g>
</g>
<!-- Node47&#45;&gt;Node48 -->
<g id="edge1" class="edge"><title>Node47&#45;&gt;Node48</title>
<path fill="none" stroke="midnightblue" d="M74.4138,-271.518C85.2885,-312.789 115.134,-406.541 173,-461 174.281,-462.205 175.617,-463.365 176.999,-464.482"/>
<polygon fill="midnightblue" stroke="midnightblue" points="175.181,-467.484 185.362,-470.414 179.23,-461.774 175.181,-467.484"/>
</g>
<!-- Node49 -->
<g id="node3" class="node"><title>Node49</title>
<g id="a_node3"><a xlink:href="classSeeSawN_1_1GeometryN_1_1MultiviewPanoramaBuilderC.html#aea0372873ec652aee6afe6eb2325c8af" target="_top" xlink:title="Decimates a set of directions. ">
<polygon fill="white" stroke="black" points="177,-410.5 177,-451.5 314,-451.5 314,-410.5 177,-410.5"/>
<text text-anchor="start" x="185" y="-439.5" font-family="FreeSans" font-size="10.00">SeeSawN::GeometryN</text>
<text text-anchor="start" x="185" y="-428.5" font-family="FreeSans" font-size="10.00">::MultiviewPanoramaBuilder</text>
<text text-anchor="middle" x="245.5" y="-417.5" font-family="FreeSans" font-size="10.00">C::Decimate</text>
</a>
</g>
</g>
<!-- Node47&#45;&gt;Node49 -->
<g id="edge2" class="edge"><title>Node47&#45;&gt;Node49</title>
<path fill="none" stroke="midnightblue" d="M78.9838,-271.732C94.4775,-303.534 128.053,-364.501 173,-401 174.741,-402.413 176.557,-403.77 178.433,-405.071"/>
<polygon fill="midnightblue" stroke="midnightblue" points="176.648,-408.083 186.981,-410.424 180.363,-402.15 176.648,-408.083"/>
</g>
<!-- Node52 -->
<g id="node6" class="node"><title>Node52</title>
<g id="a_node6"><a xlink:href="classSeeSawN_1_1GeometryN_1_1MultiviewPanoramaBuilderC.html#a5c66282e197a9f3cf7fb3f3ca36f21b2" target="_top" xlink:title="Estimates the 3D direction vectors from image measurements. ">
<polygon fill="white" stroke="black" points="177,-350.5 177,-391.5 314,-391.5 314,-350.5 177,-350.5"/>
<text text-anchor="start" x="185" y="-379.5" font-family="FreeSans" font-size="10.00">SeeSawN::GeometryN</text>
<text text-anchor="start" x="185" y="-368.5" font-family="FreeSans" font-size="10.00">::MultiviewPanoramaBuilder</text>
<text text-anchor="middle" x="245.5" y="-357.5" font-family="FreeSans" font-size="10.00">C::EstimateDirections</text>
</a>
</g>
</g>
<!-- Node47&#45;&gt;Node52 -->
<g id="edge5" class="edge"><title>Node47&#45;&gt;Node52</title>
<path fill="none" stroke="midnightblue" d="M89.3452,-271.732C109.116,-291.502 141.054,-321.127 173,-341 175.602,-342.619 178.307,-344.187 181.076,-345.701"/>
<polygon fill="midnightblue" stroke="midnightblue" points="179.595,-348.875 190.087,-350.345 182.802,-342.653 179.595,-348.875"/>
</g>
<!-- Node55 -->
<g id="node9" class="node"><title>Node55</title>
<g id="a_node9"><a xlink:href="classSeeSawN_1_1GeometryN_1_1MultiviewPanoramaBuilderC.html#a940aa8ab529cbac5ca5dc7e5649dba67" target="_top" xlink:title="Filters the image correspondences. ">
<polygon fill="white" stroke="black" points="177,-290.5 177,-331.5 314,-331.5 314,-290.5 177,-290.5"/>
<text text-anchor="start" x="185" y="-319.5" font-family="FreeSans" font-size="10.00">SeeSawN::GeometryN</text>
<text text-anchor="start" x="185" y="-308.5" font-family="FreeSans" font-size="10.00">::MultiviewPanoramaBuilder</text>
<text text-anchor="middle" x="245.5" y="-297.5" font-family="FreeSans" font-size="10.00">C::FilterCorrespondences2D</text>
</a>
</g>
</g>
<!-- Node47&#45;&gt;Node55 -->
<g id="edge8" class="edge"><title>Node47&#45;&gt;Node55</title>
<path fill="none" stroke="midnightblue" d="M129.725,-271.649C144.243,-276.626 159.873,-281.985 174.785,-287.098"/>
<polygon fill="midnightblue" stroke="midnightblue" points="173.866,-290.483 184.46,-290.415 176.136,-283.861 173.866,-290.483"/>
</g>
<!-- Node56 -->
<g id="node10" class="node"><title>Node56</title>
<g id="a_node10"><a xlink:href="classSeeSawN_1_1GeometryN_1_1MultiviewPanoramaBuilderC.html#a73198546c13ac6a7ac9b24f9601fa7b7" target="_top" xlink:title="Filters the estimated directions and returns the inlier track points. ">
<polygon fill="white" stroke="black" points="177,-230.5 177,-271.5 314,-271.5 314,-230.5 177,-230.5"/>
<text text-anchor="start" x="185" y="-259.5" font-family="FreeSans" font-size="10.00">SeeSawN::GeometryN</text>
<text text-anchor="start" x="185" y="-248.5" font-family="FreeSans" font-size="10.00">::MultiviewPanoramaBuilder</text>
<text text-anchor="middle" x="245.5" y="-237.5" font-family="FreeSans" font-size="10.00">C::FilterDirections</text>
</a>
</g>
</g>
<!-- Node47&#45;&gt;Node56 -->
<g id="edge9" class="edge"><title>Node47&#45;&gt;Node56</title>
<path fill="none" stroke="midnightblue" d="M137.16,-251C146.797,-251 156.772,-251 166.586,-251"/>
<polygon fill="midnightblue" stroke="midnightblue" points="166.732,-254.5 176.732,-251 166.732,-247.5 166.732,-254.5"/>
</g>
<!-- Node58 -->
<g id="node12" class="node"><title>Node58</title>
<g id="a_node12"><a xlink:href="classSeeSawN_1_1GeometryN_1_1MultiviewPanoramaBuilderC.html#abe1e8fa7bfea5a2230e8f900b164aebc" target="_top" xlink:title="Processes the cameras. ">
<polygon fill="white" stroke="black" points="177,-170.5 177,-211.5 314,-211.5 314,-170.5 177,-170.5"/>
<text text-anchor="start" x="185" y="-199.5" font-family="FreeSans" font-size="10.00">SeeSawN::GeometryN</text>
<text text-anchor="start" x="185" y="-188.5" font-family="FreeSans" font-size="10.00">::MultiviewPanoramaBuilder</text>
<text text-anchor="middle" x="245.5" y="-177.5" font-family="FreeSans" font-size="10.00">C::ProcessCameras</text>
</a>
</g>
</g>
<!-- Node47&#45;&gt;Node58 -->
<g id="edge11" class="edge"><title>Node47&#45;&gt;Node58</title>
<path fill="none" stroke="midnightblue" d="M129.725,-230.351C144.243,-225.374 159.873,-220.015 174.785,-214.902"/>
<polygon fill="midnightblue" stroke="midnightblue" points="176.136,-218.139 184.46,-211.585 173.866,-211.517 176.136,-218.139"/>
</g>
<!-- Node61 -->
<g id="node15" class="node"><title>Node61</title>
<g id="a_node15"><a xlink:href="classSeeSawN_1_1MatcherN_1_1CorrespondenceFusionC.html#a4d0a90a90985a0420c01ebcfb4eceb8f" target="_top" xlink:title="Runs the algorithm. ">
<polygon fill="white" stroke="black" points="173,-121 173,-151 318,-151 318,-121 173,-121"/>
<text text-anchor="start" x="181" y="-139" font-family="FreeSans" font-size="10.00">SeeSawN::MatcherN::</text>
<text text-anchor="middle" x="245.5" y="-128" font-family="FreeSans" font-size="10.00">CorrespondenceFusionC::Run</text>
</a>
</g>
</g>
<!-- Node47&#45;&gt;Node61 -->
<g id="edge14" class="edge"><title>Node47&#45;&gt;Node61</title>
<path fill="none" stroke="midnightblue" d="M88.7154,-230.216C108.262,-210.125 140.258,-180.011 173,-161 176.646,-158.883 180.501,-156.904 184.454,-155.062"/>
<polygon fill="midnightblue" stroke="midnightblue" points="186.021,-158.197 193.806,-151.011 183.239,-151.774 186.021,-158.197"/>
</g>
<!-- Node62 -->
<g id="node16" class="node"><title>Node62</title>
<g id="a_node16"><a xlink:href="classSeeSawN_1_1MatcherN_1_1CorrespondenceFusionC.html#aaf3569cd3d6ea2220f890f7ccbf91924" target="_top" xlink:title="Splices two correspondence stacks. ">
<polygon fill="white" stroke="black" points="184,-60.5 184,-101.5 307,-101.5 307,-60.5 184,-60.5"/>
<text text-anchor="start" x="192" y="-89.5" font-family="FreeSans" font-size="10.00">SeeSawN::MatcherN::</text>
<text text-anchor="start" x="192" y="-78.5" font-family="FreeSans" font-size="10.00">CorrespondenceFusionC</text>
<text text-anchor="middle" x="245.5" y="-67.5" font-family="FreeSans" font-size="10.00">::SplicePairwiseViews</text>
</a>
</g>
</g>
<!-- Node47&#45;&gt;Node62 -->
<g id="edge15" class="edge"><title>Node47&#45;&gt;Node62</title>
<path fill="none" stroke="midnightblue" d="M80.2253,-230.413C96.6256,-200.686 130.549,-145.628 173,-112 175.287,-110.189 177.696,-108.462 180.19,-106.82"/>
<polygon fill="midnightblue" stroke="midnightblue" points="182.178,-109.708 188.944,-101.556 178.571,-103.709 182.178,-109.708"/>
</g>
<!-- Node63 -->
<g id="node17" class="node"><title>Node63</title>
<g id="a_node17"><a xlink:href="classSeeSawN_1_1GeometryN_1_1MultiviewPanoramaBuilderC.html#a668a308f9f3f6af6d19e81445945522e" target="_top" xlink:title="Validates the input parameters. ">
<polygon fill="white" stroke="black" points="177,-0.5 177,-41.5 314,-41.5 314,-0.5 177,-0.5"/>
<text text-anchor="start" x="185" y="-29.5" font-family="FreeSans" font-size="10.00">SeeSawN::GeometryN</text>
<text text-anchor="start" x="185" y="-18.5" font-family="FreeSans" font-size="10.00">::MultiviewPanoramaBuilder</text>
<text text-anchor="middle" x="245.5" y="-7.5" font-family="FreeSans" font-size="10.00">C::ValidateInput</text>
</a>
</g>
</g>
<!-- Node47&#45;&gt;Node63 -->
<g id="edge16" class="edge"><title>Node47&#45;&gt;Node63</title>
<path fill="none" stroke="midnightblue" d="M75.0535,-230.232C86.7211,-190.315 117.403,-102.304 173,-51 174.292,-49.8075 175.639,-48.6586 177.031,-47.5519"/>
<polygon fill="midnightblue" stroke="midnightblue" points="179.253,-50.2689 185.437,-41.6663 175.238,-44.5347 179.253,-50.2689"/>
</g>
<!-- Node50 -->
<g id="node4" class="node"><title>Node50</title>
<g id="a_node4"><a xlink:href="classSeeSawN_1_1GeometryN_1_1CoordinateTransformationsC.html#a3513482ab509a3852d40b8dcbc36217a" target="_top" xlink:title="Assigns the coordinates to buckets. ">
<polygon fill="white" stroke="black" points="354,-468.5 354,-509.5 492,-509.5 492,-468.5 354,-468.5"/>
<text text-anchor="start" x="362" y="-497.5" font-family="FreeSans" font-size="10.00">SeeSawN::GeometryN</text>
<text text-anchor="start" x="362" y="-486.5" font-family="FreeSans" font-size="10.00">::CoordinateTransformations</text>
<text text-anchor="middle" x="423" y="-475.5" font-family="FreeSans" font-size="10.00">C::Bucketise</text>
</a>
</g>
</g>
<!-- Node49&#45;&gt;Node50 -->
<g id="edge3" class="edge"><title>Node49&#45;&gt;Node50</title>
<path fill="none" stroke="midnightblue" d="M308.869,-451.612C322.188,-456.014 336.361,-460.698 350.008,-465.208"/>
<polygon fill="midnightblue" stroke="midnightblue" points="349.239,-468.64 359.832,-468.454 351.435,-461.993 349.239,-468.64"/>
</g>
<!-- Node51 -->
<g id="node5" class="node"><title>Node51</title>
<g id="a_node5"><a xlink:href="classSeeSawN_1_1GeometryN_1_1CoordinateStatisticsC.html#a44f790d9805e3d0ec9ed62e2b894ec5a" target="_top" xlink:title="Computes the per&#45;dimension spatial extent. ">
<polygon fill="white" stroke="black" points="365,-408.5 365,-449.5 481,-449.5 481,-408.5 365,-408.5"/>
<text text-anchor="start" x="373" y="-437.5" font-family="FreeSans" font-size="10.00">SeeSawN::GeometryN</text>
<text text-anchor="start" x="373" y="-426.5" font-family="FreeSans" font-size="10.00">::CoordinateStatisticsC</text>
<text text-anchor="middle" x="423" y="-415.5" font-family="FreeSans" font-size="10.00">::ComputeExtent</text>
</a>
</g>
</g>
<!-- Node49&#45;&gt;Node51 -->
<g id="edge4" class="edge"><title>Node49&#45;&gt;Node51</title>
<path fill="none" stroke="midnightblue" d="M314.102,-430.23C327.491,-430.077 341.541,-429.917 354.912,-429.765"/>
<polygon fill="midnightblue" stroke="midnightblue" points="355.024,-433.264 364.983,-429.65 354.944,-426.264 355.024,-433.264"/>
</g>
<!-- Node53 -->
<g id="node7" class="node"><title>Node53</title>
<g id="a_node7"><a xlink:href="namespaceSeeSawN_1_1NumericN.html#a1bb42e713096703994484faddd763656" target="_top" xlink:title="SeeSawN::NumericN::\lCartesianToSpherical">
<polygon fill="white" stroke="black" points="366,-357 366,-387 480,-387 480,-357 366,-357"/>
<text text-anchor="start" x="374" y="-375" font-family="FreeSans" font-size="10.00">SeeSawN::NumericN::</text>
<text text-anchor="middle" x="423" y="-364" font-family="FreeSans" font-size="10.00">CartesianToSpherical</text>
</a>
</g>
</g>
<!-- Node52&#45;&gt;Node53 -->
<g id="edge6" class="edge"><title>Node52&#45;&gt;Node53</title>
<path fill="none" stroke="midnightblue" d="M314.102,-371.385C327.721,-371.463 342.026,-371.544 355.603,-371.622"/>
<polygon fill="midnightblue" stroke="midnightblue" points="355.802,-375.123 365.822,-371.68 355.842,-368.123 355.802,-375.123"/>
</g>
<!-- Node54 -->
<g id="node8" class="node"><title>Node54</title>
<g id="a_node8"><a xlink:href="namespaceSeeSawN_1_1NumericN.html#a28f4c88e38c59b60221c2865e01188d8" target="_top" xlink:title="SeeSawN::NumericN::\lSphericalToCartesian">
<polygon fill="white" stroke="black" points="366,-308 366,-338 480,-338 480,-308 366,-308"/>
<text text-anchor="start" x="374" y="-326" font-family="FreeSans" font-size="10.00">SeeSawN::NumericN::</text>
<text text-anchor="middle" x="423" y="-315" font-family="FreeSans" font-size="10.00">SphericalToCartesian</text>
</a>
</g>
</g>
<!-- Node52&#45;&gt;Node54 -->
<g id="edge7" class="edge"><title>Node52&#45;&gt;Node54</title>
<path fill="none" stroke="midnightblue" d="M314.102,-352.511C328.166,-348.664 342.96,-344.618 356.93,-340.797"/>
<polygon fill="midnightblue" stroke="midnightblue" points="358.212,-344.075 366.935,-338.061 356.366,-337.323 358.212,-344.075"/>
</g>
<!-- Node57 -->
<g id="node11" class="node"><title>Node57</title>
<g id="a_node11"><a xlink:href="group__Elements.html#gaed97416c6eb370835de21c7c7d9942dd" target="_top" xlink:title="Composes a camera matrix. ">
<polygon fill="white" stroke="black" points="362,-236 362,-266 484,-266 484,-236 362,-236"/>
<text text-anchor="start" x="370" y="-254" font-family="FreeSans" font-size="10.00">SeeSawN::ElementsN</text>
<text text-anchor="middle" x="423" y="-243" font-family="FreeSans" font-size="10.00">::ComposeCameraMatrix</text>
</a>
</g>
</g>
<!-- Node56&#45;&gt;Node57 -->
<g id="edge10" class="edge"><title>Node56&#45;&gt;Node57</title>
<path fill="none" stroke="midnightblue" d="M314.102,-251C326.398,-251 339.253,-251 351.627,-251"/>
<polygon fill="midnightblue" stroke="midnightblue" points="351.885,-254.5 361.885,-251 351.885,-247.5 351.885,-254.5"/>
</g>
<!-- Node59 -->
<g id="node13" class="node"><title>Node59</title>
<g id="a_node13"><a xlink:href="group__Elements.html#ga55a635a974118036dd0778de74a63a82" target="_top" xlink:title="Decomposes a camera into its constituent elements. ">
<polygon fill="white" stroke="black" points="366.5,-176 366.5,-206 479.5,-206 479.5,-176 366.5,-176"/>
<text text-anchor="start" x="374.5" y="-194" font-family="FreeSans" font-size="10.00">SeeSawN::ElementsN</text>
<text text-anchor="middle" x="423" y="-183" font-family="FreeSans" font-size="10.00">::DecomposeCamera</text>
</a>
</g>
</g>
<!-- Node58&#45;&gt;Node59 -->
<g id="edge12" class="edge"><title>Node58&#45;&gt;Node59</title>
<path fill="none" stroke="midnightblue" d="M314.102,-191C327.875,-191 342.349,-191 356.063,-191"/>
<polygon fill="midnightblue" stroke="midnightblue" points="356.379,-194.5 366.379,-191 356.379,-187.5 356.379,-194.5"/>
</g>
<!-- Node60 -->
<g id="node14" class="node"><title>Node60</title>
<g id="a_node14"><a xlink:href="namespaceSeeSawN_1_1NumericN.html#a1de61a43a6f9cc9d3040f3850008e202" target="_top" xlink:title="SeeSawN::NumericN::\lRQDecomposition33">
<polygon fill="white" stroke="black" points="528,-176 528,-206 642,-206 642,-176 528,-176"/>
<text text-anchor="start" x="536" y="-194" font-family="FreeSans" font-size="10.00">SeeSawN::NumericN::</text>
<text text-anchor="middle" x="585" y="-183" font-family="FreeSans" font-size="10.00">RQDecomposition33</text>
</a>
</g>
</g>
<!-- Node59&#45;&gt;Node60 -->
<g id="edge13" class="edge"><title>Node59&#45;&gt;Node60</title>
<path fill="none" stroke="midnightblue" d="M479.511,-191C491.832,-191 505.011,-191 517.714,-191"/>
<polygon fill="midnightblue" stroke="midnightblue" points="517.774,-194.5 527.774,-191 517.774,-187.5 517.774,-194.5"/>
</g>
</g>
</svg>
