<?xml version="1.0" encoding="UTF-8" standalone="no"?>
<!DOCTYPE svg PUBLIC "-//W3C//DTD SVG 1.1//EN"
 "http://www.w3.org/Graphics/SVG/1.1/DTD/svg11.dtd">
<!-- Generated by graphviz version 2.38.0 (20140413.2041)
 -->
<!-- Title: SeeSawN::MatcherN::GroupMatchingProblemC Pages: 1 -->
<svg width="457pt" height="502pt"
 viewBox="0.00 0.00 457.00 502.00" xmlns="http://www.w3.org/2000/svg" xmlns:xlink="http://www.w3.org/1999/xlink">
<g id="graph0" class="graph" transform="scale(1 1) rotate(0) translate(4 498)">
<title>SeeSawN::MatcherN::GroupMatchingProblemC</title>
<polygon fill="white" stroke="none" points="-4,4 -4,-498 453,-498 453,4 -4,4"/>
<!-- Node1 -->
<g id="node1" class="node"><title>Node1</title>
<polygon fill="#bfbfbf" stroke="black" points="113.5,-0.5 113.5,-167.5 250.5,-167.5 250.5,-0.5 113.5,-0.5"/>
<text text-anchor="start" x="121.5" y="-155.5" font-family="FreeSans" font-size="10.00">SeeSawN::MatcherN::</text>
<text text-anchor="middle" x="182" y="-144.5" font-family="FreeSans" font-size="10.00">GroupMatchingProblemC</text>
<polyline fill="none" stroke="black" points="113.5,-137.5 250.5,-137.5 "/>
<text text-anchor="middle" x="182" y="-125.5" font-family="FreeSans" font-size="10.00"> </text>
<polyline fill="none" stroke="black" points="113.5,-118.5 250.5,-118.5 "/>
<text text-anchor="start" x="121.5" y="-106.5" font-family="FreeSans" font-size="10.00">* real_type</text>
<text text-anchor="start" x="121.5" y="-95.5" font-family="FreeSans" font-size="10.00">* GroupMatchingProblemC()</text>
<text text-anchor="start" x="121.5" y="-84.5" font-family="FreeSans" font-size="10.00">* GetSize1()</text>
<text text-anchor="start" x="121.5" y="-73.5" font-family="FreeSans" font-size="10.00">* GetSize2()</text>
<text text-anchor="start" x="121.5" y="-62.5" font-family="FreeSans" font-size="10.00">* ComputeSimilarity()</text>
<text text-anchor="start" x="121.5" y="-51.5" font-family="FreeSans" font-size="10.00">* IsValid()</text>
<text text-anchor="start" x="121.5" y="-40.5" font-family="FreeSans" font-size="10.00">* Preprocess()</text>
<text text-anchor="start" x="121.5" y="-29.5" font-family="FreeSans" font-size="10.00">* GroupMatchingProblemC()</text>
<text text-anchor="start" x="121.5" y="-18.5" font-family="FreeSans" font-size="10.00">* Clear()</text>
<text text-anchor="start" x="121.5" y="-7.5" font-family="FreeSans" font-size="10.00">* FilterInput()</text>
</g>
<!-- Node2 -->
<g id="node2" class="node"><title>Node2</title>
<polygon fill="white" stroke="#bfbfbf" points="0,-226.5 0,-283.5 56,-283.5 56,-226.5 0,-226.5"/>
<text text-anchor="middle" x="28" y="-271.5" font-family="FreeSans" font-size="10.00">ArrayXXf</text>
<polyline fill="none" stroke="#bfbfbf" points="0,-264.5 56,-264.5 "/>
<text text-anchor="middle" x="28" y="-252.5" font-family="FreeSans" font-size="10.00"> </text>
<polyline fill="none" stroke="#bfbfbf" points="0,-245.5 56,-245.5 "/>
<text text-anchor="middle" x="28" y="-233.5" font-family="FreeSans" font-size="10.00"> </text>
</g>
<!-- Node2&#45;&gt;Node1 -->
<g id="edge1" class="edge"><title>Node2&#45;&gt;Node1</title>
<path fill="none" stroke="#404040" d="M35.8802,-226.202C40.4271,-213.187 47.0452,-197.956 56,-186 69.3297,-168.203 86.4941,-151.739 103.838,-137.49"/>
<polygon fill="none" stroke="#404040" points="104.087,-137.291 106.283,-130.422 113.468,-129.808 111.272,-136.676 104.087,-137.291"/>
<text text-anchor="middle" x="82" y="-194.5" font-family="FreeSans" font-size="10.00"> &#45;scoreArray</text>
</g>
<!-- Node3 -->
<g id="node3" class="node"><title>Node3</title>
<polygon fill="white" stroke="#bfbfbf" points="88.5,-226.5 88.5,-283.5 117.5,-283.5 117.5,-226.5 88.5,-226.5"/>
<text text-anchor="middle" x="103" y="-271.5" font-family="FreeSans" font-size="10.00">int</text>
<polyline fill="none" stroke="#bfbfbf" points="88.5,-264.5 117.5,-264.5 "/>
<text text-anchor="middle" x="103" y="-252.5" font-family="FreeSans" font-size="10.00"> </text>
<polyline fill="none" stroke="#bfbfbf" points="88.5,-245.5 117.5,-245.5 "/>
<text text-anchor="middle" x="103" y="-233.5" font-family="FreeSans" font-size="10.00"> </text>
</g>
<!-- Node3&#45;&gt;Node1 -->
<g id="edge2" class="edge"><title>Node3&#45;&gt;Node1</title>
<path fill="none" stroke="#404040" d="M107.404,-226.226C109.933,-213.645 113.687,-198.764 119,-186 120.032,-183.52 121.122,-181.031 122.261,-178.541"/>
<polygon fill="none" stroke="#404040" points="122.312,-178.436 121.328,-171.292 127.544,-167.637 128.528,-174.78 122.312,-178.436"/>
<text text-anchor="middle" x="147" y="-194.5" font-family="FreeSans" font-size="10.00"> &#45;minQuorum</text>
</g>
<!-- Node4 -->
<g id="node4" class="node"><title>Node4</title>
<g id="a_node4"><a xlink:href="classbool.html" target="_top" xlink:title="{bool\n||}">
<polygon fill="white" stroke="black" points="159.5,-226.5 159.5,-283.5 194.5,-283.5 194.5,-226.5 159.5,-226.5"/>
<text text-anchor="middle" x="177" y="-271.5" font-family="FreeSans" font-size="10.00">bool</text>
<polyline fill="none" stroke="black" points="159.5,-264.5 194.5,-264.5 "/>
<text text-anchor="middle" x="177" y="-252.5" font-family="FreeSans" font-size="10.00"> </text>
<polyline fill="none" stroke="black" points="159.5,-245.5 194.5,-245.5 "/>
<text text-anchor="middle" x="177" y="-233.5" font-family="FreeSans" font-size="10.00"> </text>
</a>
</g>
</g>
<!-- Node4&#45;&gt;Node1 -->
<g id="edge3" class="edge"><title>Node4&#45;&gt;Node1</title>
<path fill="none" stroke="#404040" d="M177.814,-226.471C178.2,-213.45 178.685,-197.052 179.187,-180.075"/>
<polygon fill="none" stroke="#404040" points="179.2,-179.645 175.379,-173.529 179.555,-167.65 183.375,-173.766 179.2,-179.645"/>
<text text-anchor="middle" x="200.5" y="-194.5" font-family="FreeSans" font-size="10.00"> &#45;flagValid</text>
</g>
<!-- Node5 -->
<g id="node5" class="node"><title>Node5</title>
<polygon fill="white" stroke="#bfbfbf" points="213,-226.5 213,-283.5 309,-283.5 309,-226.5 213,-226.5"/>
<text text-anchor="middle" x="261" y="-271.5" font-family="FreeSans" font-size="10.00">std::vector&lt; float &gt;</text>
<polyline fill="none" stroke="#bfbfbf" points="213,-264.5 309,-264.5 "/>
<text text-anchor="middle" x="261" y="-252.5" font-family="FreeSans" font-size="10.00"> </text>
<polyline fill="none" stroke="#bfbfbf" points="213,-245.5 309,-245.5 "/>
<text text-anchor="middle" x="261" y="-233.5" font-family="FreeSans" font-size="10.00"> </text>
</g>
<!-- Node5&#45;&gt;Node1 -->
<g id="edge4" class="edge"><title>Node5&#45;&gt;Node1</title>
<path fill="none" stroke="#404040" d="M248.131,-226.471C241.868,-213.071 233.931,-196.094 225.749,-178.59"/>
<polygon fill="none" stroke="#404040" points="225.717,-178.521 219.553,-174.78 220.635,-167.65 226.8,-171.392 225.717,-178.521"/>
<text text-anchor="middle" x="265" y="-200" font-family="FreeSans" font-size="10.00"> &#45;histogram1</text>
<text text-anchor="middle" x="265" y="-189" font-family="FreeSans" font-size="10.00">&#45;histogram2</text>
</g>
<!-- Node6 -->
<g id="node6" class="node"><title>Node6</title>
<polygon fill="white" stroke="#bfbfbf" points="200.5,-331.5 200.5,-388.5 235.5,-388.5 235.5,-331.5 200.5,-331.5"/>
<text text-anchor="middle" x="218" y="-376.5" font-family="FreeSans" font-size="10.00">float</text>
<polyline fill="none" stroke="#bfbfbf" points="200.5,-369.5 235.5,-369.5 "/>
<text text-anchor="middle" x="218" y="-357.5" font-family="FreeSans" font-size="10.00"> </text>
<polyline fill="none" stroke="#bfbfbf" points="200.5,-350.5 235.5,-350.5 "/>
<text text-anchor="middle" x="218" y="-338.5" font-family="FreeSans" font-size="10.00"> </text>
</g>
<!-- Node6&#45;&gt;Node5 -->
<g id="edge5" class="edge"><title>Node6&#45;&gt;Node5</title>
<path fill="none" stroke="#404040" d="M214.579,-331.253C214.406,-321.691 215.377,-311.104 219,-302 220.137,-299.143 221.54,-296.353 223.135,-293.65"/>
<polygon fill="none" stroke="#404040" points="223.213,-293.538 223.373,-286.329 230.089,-283.703 229.929,-290.912 223.213,-293.538"/>
<text text-anchor="middle" x="243.5" y="-305" font-family="FreeSans" font-size="10.00"> +elements</text>
</g>
<!-- Node7 -->
<g id="node7" class="node"><title>Node7</title>
<g id="a_node7"><a xlink:title="STL class. ">
<polygon fill="white" stroke="#bfbfbf" points="274,-331.5 274,-388.5 358,-388.5 358,-331.5 274,-331.5"/>
<text text-anchor="middle" x="316" y="-376.5" font-family="FreeSans" font-size="10.00">std::vector&lt; T &gt;</text>
<polyline fill="none" stroke="#bfbfbf" points="274,-369.5 358,-369.5 "/>
<text text-anchor="middle" x="316" y="-357.5" font-family="FreeSans" font-size="10.00"> </text>
<polyline fill="none" stroke="#bfbfbf" points="274,-350.5 358,-350.5 "/>
<text text-anchor="middle" x="316" y="-338.5" font-family="FreeSans" font-size="10.00"> </text>
</a>
</g>
</g>
<!-- Node7&#45;&gt;Node5 -->
<g id="edge6" class="edge"><title>Node7&#45;&gt;Node5</title>
<path fill="none" stroke="orange" d="M296.054,-322.405C294.339,-319.227 292.636,-316.058 291,-313 285.884,-303.435 280.338,-292.935 275.422,-283.582"/>
<polygon fill="orange" stroke="orange" points="293.031,-324.173 300.869,-331.302 299.188,-320.841 293.031,-324.173"/>
<text text-anchor="middle" x="309.5" y="-305" font-family="FreeSans" font-size="10.00"> &lt; float &gt;</text>
</g>
<!-- Node9 -->
<g id="node9" class="node"><title>Node9</title>
<polygon fill="white" stroke="#bfbfbf" points="327,-226.5 327,-283.5 431,-283.5 431,-226.5 327,-226.5"/>
<text text-anchor="middle" x="379" y="-271.5" font-family="FreeSans" font-size="10.00">std::vector&lt; size_t &gt;</text>
<polyline fill="none" stroke="#bfbfbf" points="327,-264.5 431,-264.5 "/>
<text text-anchor="middle" x="379" y="-252.5" font-family="FreeSans" font-size="10.00"> </text>
<polyline fill="none" stroke="#bfbfbf" points="327,-245.5 431,-245.5 "/>
<text text-anchor="middle" x="379" y="-233.5" font-family="FreeSans" font-size="10.00"> </text>
</g>
<!-- Node7&#45;&gt;Node9 -->
<g id="edge10" class="edge"><title>Node7&#45;&gt;Node9</title>
<path fill="none" stroke="orange" d="M336.895,-322.245C340.853,-315.475 345.005,-308.496 349,-302 352.696,-295.99 356.762,-289.611 360.675,-283.578"/>
<polygon fill="orange" stroke="orange" points="333.643,-320.877 331.653,-331.283 339.698,-324.389 333.643,-320.877"/>
<text text-anchor="middle" x="371.5" y="-305" font-family="FreeSans" font-size="10.00"> &lt; size_t &gt;</text>
</g>
<!-- Node8 -->
<g id="node8" class="node"><title>Node8</title>
<polygon fill="white" stroke="#bfbfbf" points="301.5,-436.5 301.5,-493.5 330.5,-493.5 330.5,-436.5 301.5,-436.5"/>
<text text-anchor="middle" x="316" y="-481.5" font-family="FreeSans" font-size="10.00">T</text>
<polyline fill="none" stroke="#bfbfbf" points="301.5,-474.5 330.5,-474.5 "/>
<text text-anchor="middle" x="316" y="-462.5" font-family="FreeSans" font-size="10.00"> </text>
<polyline fill="none" stroke="#bfbfbf" points="301.5,-455.5 330.5,-455.5 "/>
<text text-anchor="middle" x="316" y="-443.5" font-family="FreeSans" font-size="10.00"> </text>
</g>
<!-- Node8&#45;&gt;Node7 -->
<g id="edge7" class="edge"><title>Node8&#45;&gt;Node7</title>
<path fill="none" stroke="#404040" d="M316,-436.398C316,-425.545 316,-412.873 316,-401.049"/>
<polygon fill="none" stroke="#404040" points="316,-400.678 312,-394.678 316,-388.678 320,-394.678 316,-400.678"/>
<text text-anchor="middle" x="340.5" y="-410" font-family="FreeSans" font-size="10.00"> +elements</text>
</g>
<!-- Node9&#45;&gt;Node1 -->
<g id="edge8" class="edge"><title>Node9&#45;&gt;Node1</title>
<path fill="none" stroke="#404040" d="M346.91,-226.471C323.394,-206.298 290.425,-178.015 260.142,-152.035"/>
<polygon fill="none" stroke="#404040" points="259.951,-151.871 252.792,-151.001 250.843,-144.058 258.001,-144.929 259.951,-151.871"/>
<text text-anchor="middle" x="347" y="-200" font-family="FreeSans" font-size="10.00"> &#45;indexMap1</text>
<text text-anchor="middle" x="347" y="-189" font-family="FreeSans" font-size="10.00">&#45;indexMap2</text>
</g>
<!-- Node10 -->
<g id="node10" class="node"><title>Node10</title>
<polygon fill="white" stroke="#bfbfbf" points="397,-331.5 397,-388.5 439,-388.5 439,-331.5 397,-331.5"/>
<text text-anchor="middle" x="418" y="-376.5" font-family="FreeSans" font-size="10.00">size_t</text>
<polyline fill="none" stroke="#bfbfbf" points="397,-369.5 439,-369.5 "/>
<text text-anchor="middle" x="418" y="-357.5" font-family="FreeSans" font-size="10.00"> </text>
<polyline fill="none" stroke="#bfbfbf" points="397,-350.5 439,-350.5 "/>
<text text-anchor="middle" x="418" y="-338.5" font-family="FreeSans" font-size="10.00"> </text>
</g>
<!-- Node10&#45;&gt;Node9 -->
<g id="edge9" class="edge"><title>Node10&#45;&gt;Node9</title>
<path fill="none" stroke="#404040" d="M407.549,-331.398C403.308,-320.199 398.334,-307.062 393.737,-294.92"/>
<polygon fill="none" stroke="#404040" points="393.729,-294.901 387.864,-290.706 389.48,-283.678 395.346,-287.873 393.729,-294.901"/>
<text text-anchor="middle" x="424.5" y="-305" font-family="FreeSans" font-size="10.00"> +elements</text>
</g>
</g>
</svg>
