<?xml version="1.0" encoding="UTF-8" standalone="no"?>
<!DOCTYPE svg PUBLIC "-//W3C//DTD SVG 1.1//EN"
 "http://www.w3.org/Graphics/SVG/1.1/DTD/svg11.dtd">
<!-- Generated by graphviz version 2.38.0 (20140413.2041)
 -->
<!-- Title: SeeSawN::ApplicationN::InterfaceRandomSpanningTreeSamplerC::MakeParameterTree Pages: 1 -->
<svg width="758pt" height="75pt"
 viewBox="0.00 0.00 758.00 75.00" xmlns="http://www.w3.org/2000/svg" xmlns:xlink="http://www.w3.org/1999/xlink">
<g id="graph0" class="graph" transform="scale(1 1) rotate(0) translate(4 71)">
<title>SeeSawN::ApplicationN::InterfaceRandomSpanningTreeSamplerC::MakeParameterTree</title>
<polygon fill="white" stroke="none" points="-4,4 -4,-71 754,-71 754,4 -4,4"/>
<!-- Node7 -->
<g id="node1" class="node"><title>Node7</title>
<polygon fill="#bfbfbf" stroke="black" points="0,-0.5 0,-41.5 155,-41.5 155,-0.5 0,-0.5"/>
<text text-anchor="start" x="8" y="-29.5" font-family="FreeSans" font-size="10.00">SeeSawN::ApplicationN</text>
<text text-anchor="start" x="8" y="-18.5" font-family="FreeSans" font-size="10.00">::InterfaceRandomSpanningTree</text>
<text text-anchor="middle" x="77.5" y="-7.5" font-family="FreeSans" font-size="10.00">SamplerC::MakeParameterTree</text>
</g>
<!-- Node8 -->
<g id="node2" class="node"><title>Node8</title>
<g id="a_node2"><a xlink:href="classSeeSawN_1_1ApplicationN_1_1InterfaceRotationRegistrationPipelineC.html#a44e96fe1dbf07c44b1541c77e45feda3" target="_top" xlink:title="Makes a property tree from a parameter object. ">
<polygon fill="white" stroke="black" points="191,-25.5 191,-66.5 342,-66.5 342,-25.5 191,-25.5"/>
<text text-anchor="start" x="199" y="-54.5" font-family="FreeSans" font-size="10.00">SeeSawN::ApplicationN</text>
<text text-anchor="start" x="199" y="-43.5" font-family="FreeSans" font-size="10.00">::InterfaceRotationRegistration</text>
<text text-anchor="middle" x="266.5" y="-32.5" font-family="FreeSans" font-size="10.00">PipelineC::MakeParameterTree</text>
</a>
</g>
</g>
<!-- Node7&#45;&gt;Node8 -->
<g id="edge1" class="edge"><title>Node7&#45;&gt;Node8</title>
<path fill="none" stroke="midnightblue" d="M165.128,-32.5812C173.715,-33.7293 182.38,-34.8878 190.832,-36.0176"/>
<polygon fill="midnightblue" stroke="midnightblue" points="165.475,-29.0966 155.1,-31.2406 164.548,-36.0349 165.475,-29.0966"/>
</g>
<!-- Node9 -->
<g id="node3" class="node"><title>Node9</title>
<g id="a_node3"><a xlink:href="classSeeSawN_1_1ApplicationN_1_1InterfacePfMPipelineC.html#a87fe7e3fd13d810f533783a0ecc4f434" target="_top" xlink:title="Makes a property tree from a parameter object. ">
<polygon fill="white" stroke="black" points="378,-0.5 378,-41.5 499,-41.5 499,-0.5 378,-0.5"/>
<text text-anchor="start" x="386" y="-29.5" font-family="FreeSans" font-size="10.00">SeeSawN::ApplicationN</text>
<text text-anchor="start" x="386" y="-18.5" font-family="FreeSans" font-size="10.00">::InterfacePfMPipelineC</text>
<text text-anchor="middle" x="438.5" y="-7.5" font-family="FreeSans" font-size="10.00">::MakeParameterTree</text>
</a>
</g>
</g>
<!-- Node7&#45;&gt;Node9 -->
<g id="edge4" class="edge"><title>Node7&#45;&gt;Node9</title>
<path fill="none" stroke="midnightblue" d="M165.232,-16.7584C173.936,-16.4488 182.641,-16.1857 191,-16 258.095,-14.5097 274.912,-14.245 342,-16 353.618,-16.3039 366.023,-16.8155 377.915,-17.3984"/>
<polygon fill="midnightblue" stroke="midnightblue" points="164.899,-13.2684 155.037,-17.1413 165.162,-20.2634 164.899,-13.2684"/>
</g>
<!-- Node8&#45;&gt;Node9 -->
<g id="edge2" class="edge"><title>Node8&#45;&gt;Node9</title>
<path fill="none" stroke="midnightblue" d="M352.196,-33.5447C360.846,-32.2726 369.501,-30.9998 377.802,-29.7792"/>
<polygon fill="midnightblue" stroke="midnightblue" points="351.449,-30.1169 342.064,-35.0346 352.467,-37.0424 351.449,-30.1169"/>
</g>
<!-- Node10 -->
<g id="node4" class="node"><title>Node10</title>
<g id="a_node4"><a xlink:href="classSeeSawN_1_1AppPfMN_1_1AppPfMImplementationC.html#a5b65baefa5bbca910559afaec46d6170" target="_top" xlink:title="Generates a configuration file with default parameters. ">
<polygon fill="white" stroke="black" points="535,-6 535,-36 750,-36 750,-6 535,-6"/>
<text text-anchor="start" x="543" y="-24" font-family="FreeSans" font-size="10.00">SeeSawN::AppPfMN::AppPfMImplementation</text>
<text text-anchor="middle" x="642.5" y="-13" font-family="FreeSans" font-size="10.00">C::GenerateConfigFile</text>
</a>
</g>
</g>
<!-- Node9&#45;&gt;Node10 -->
<g id="edge3" class="edge"><title>Node9&#45;&gt;Node10</title>
<path fill="none" stroke="midnightblue" d="M509.27,-21C517.512,-21 526.062,-21 534.668,-21"/>
<polygon fill="midnightblue" stroke="midnightblue" points="509.014,-17.5001 499.014,-21 509.014,-24.5001 509.014,-17.5001"/>
</g>
</g>
</svg>
