<?xml version="1.0" encoding="UTF-8" standalone="no"?>
<!DOCTYPE svg PUBLIC "-//W3C//DTD SVG 1.1//EN"
 "http://www.w3.org/Graphics/SVG/1.1/DTD/svg11.dtd">
<!-- Generated by graphviz version 2.38.0 (20140413.2041)
 -->
<!-- Title: SeeSawN::StateEstimationN::UKFOrientationTrackingProblemC Pages: 1 -->
<!--zoomable 811 -->
<svg id="main" version="1.1" xmlns="http://www.w3.org/2000/svg" xmlns:xlink="http://www.w3.org/1999/xlink" xml:space="preserve" onload="init(evt)">
<style type="text/css"><![CDATA[
.edge:hover path { stroke: red; }
.edge:hover polygon { stroke: red; fill: red; }
]]></style>
<script type="text/javascript"><![CDATA[
var edges = document.getElementsByTagName('g');
if (edges && edges.length) {
  for (var i=0;i<edges.length;i++) {
    if (edges[i].id.substr(0,4)=='edge') {
      edges[i].setAttribute('class','edge');
    }
  }
}
]]></script>
        <defs>
                <circle id="rim" cx="0" cy="0" r="7"/>
                <circle id="rim2" cx="0" cy="0" r="3.5"/>
                <g id="zoomPlus">
                        <use xlink:href="#rim" fill="#404040">
                                <set attributeName="fill" to="#808080" begin="zoomplus.mouseover" end="zoomplus.mouseout"/>
                        </use>
                        <path d="M-4,0h8M0,-4v8" fill="none" stroke="white" stroke-width="1.5" pointer-events="none"/>
                </g>
                <g id="zoomMin">
                        <use xlink:href="#rim" fill="#404040">
                                <set attributeName="fill" to="#808080" begin="zoomminus.mouseover" end="zoomminus.mouseout"/>
                        </use>
                        <path d="M-4,0h8" fill="none" stroke="white" stroke-width="1.5" pointer-events="none"/>
                </g>
                <g id="dirArrow">
                        <path fill="none" stroke="white" stroke-width="1.5" d="M0,-3.0v7 M-2.5,-0.5L0,-3.0L2.5,-0.5"/>
                </g>
               <g id="resetDef">
                       <use xlink:href="#rim2" fill="#404040">
                               <set attributeName="fill" to="#808080" begin="reset.mouseover" end="reset.mouseout"/>
                       </use>
               </g>
        </defs>

<script type="text/javascript">
var viewWidth = 463;
var viewHeight = 811;
var sectionId = 'dynsection-1';
</script>
<script xlink:href="svgpan.js"/>
<svg id="graph" class="graph">
<g id="viewport">
<title>SeeSawN::StateEstimationN::UKFOrientationTrackingProblemC</title>
<polygon fill="white" stroke="none" points="-4,4 -4,-807 458.5,-807 458.5,4 -4,4"/>
<!-- Node3 -->
<g id="node1" class="node"><title>Node3</title>
<polygon fill="#bfbfbf" stroke="black" points="272.5,-0.5 272.5,-134.5 448.5,-134.5 448.5,-0.5 272.5,-0.5"/>
<text text-anchor="start" x="280.5" y="-122.5" font-family="FreeSans" font-size="10.00">SeeSawN::StateEstimation</text>
<text text-anchor="middle" x="360.5" y="-111.5" font-family="FreeSans" font-size="10.00">N::UKFOrientationTrackingProblemC</text>
<polyline fill="none" stroke="black" points="272.5,-104.5 448.5,-104.5 "/>
<text text-anchor="middle" x="360.5" y="-92.5" font-family="FreeSans" font-size="10.00"> </text>
<polyline fill="none" stroke="black" points="272.5,-85.5 448.5,-85.5 "/>
<text text-anchor="start" x="280.5" y="-73.5" font-family="FreeSans" font-size="10.00">&#45; PerturbState()</text>
<text text-anchor="start" x="280.5" y="-62.5" font-family="FreeSans" font-size="10.00">* IsValid()</text>
<text text-anchor="start" x="280.5" y="-51.5" font-family="FreeSans" font-size="10.00">* ApplyPropagationFunction()</text>
<text text-anchor="start" x="280.5" y="-40.5" font-family="FreeSans" font-size="10.00">* ApplyMeasurementFunction()</text>
<text text-anchor="start" x="280.5" y="-29.5" font-family="FreeSans" font-size="10.00">* ComputeState()</text>
<text text-anchor="start" x="280.5" y="-18.5" font-family="FreeSans" font-size="10.00">* ComputeMeasurement()</text>
<text text-anchor="start" x="280.5" y="-7.5" font-family="FreeSans" font-size="10.00">* Update()</text>
</g>
<!-- Node4 -->
<g id="node2" class="node"><title>Node4</title>
<g id="a_node2"><a xlink:href="classSeeSawN_1_1StateEstimationN_1_1UKFCameraTrackingProblemBaseC.html" target="_top" xlink:title="{SeeSawN::StateEstimation\lN::UKFCameraTrackingProblemBase\lC\&lt; UKFOrientationTrackingProblemC,\l Rotation3DSolverC, UKFOrientationTracking\lProblemStateDifferenceC, Rotation3DMinimalDifferenceC, 6 \&gt;\n||* state_type\l* state_vector_type\l* state_covariance_type\l* state_sample_type\l* measurement_type\l* measurement_vector_type\l* measurement_covariance_type\l* measurement_sample_type\l* cross_covariance_type\l* can_decompose_state\l_covariance\land 8 more...\l}">
<polygon fill="white" stroke="black" points="47.5,-172.5 47.5,-394.5 329.5,-394.5 329.5,-172.5 47.5,-172.5"/>
<text text-anchor="start" x="55.5" y="-382.5" font-family="FreeSans" font-size="10.00">SeeSawN::StateEstimation</text>
<text text-anchor="start" x="55.5" y="-371.5" font-family="FreeSans" font-size="10.00">N::UKFCameraTrackingProblemBase</text>
<text text-anchor="start" x="55.5" y="-360.5" font-family="FreeSans" font-size="10.00">C&lt; UKFOrientationTrackingProblemC,</text>
<text text-anchor="start" x="55.5" y="-349.5" font-family="FreeSans" font-size="10.00"> Rotation3DSolverC, UKFOrientationTracking</text>
<text text-anchor="middle" x="188.5" y="-338.5" font-family="FreeSans" font-size="10.00">ProblemStateDifferenceC, Rotation3DMinimalDifferenceC, 6 &gt;</text>
<polyline fill="none" stroke="black" points="47.5,-331.5 329.5,-331.5 "/>
<text text-anchor="middle" x="188.5" y="-319.5" font-family="FreeSans" font-size="10.00"> </text>
<polyline fill="none" stroke="black" points="47.5,-312.5 329.5,-312.5 "/>
<text text-anchor="start" x="55.5" y="-300.5" font-family="FreeSans" font-size="10.00">* state_type</text>
<text text-anchor="start" x="55.5" y="-289.5" font-family="FreeSans" font-size="10.00">* state_vector_type</text>
<text text-anchor="start" x="55.5" y="-278.5" font-family="FreeSans" font-size="10.00">* state_covariance_type</text>
<text text-anchor="start" x="55.5" y="-267.5" font-family="FreeSans" font-size="10.00">* state_sample_type</text>
<text text-anchor="start" x="55.5" y="-256.5" font-family="FreeSans" font-size="10.00">* measurement_type</text>
<text text-anchor="start" x="55.5" y="-245.5" font-family="FreeSans" font-size="10.00">* measurement_vector_type</text>
<text text-anchor="start" x="55.5" y="-234.5" font-family="FreeSans" font-size="10.00">* measurement_covariance_type</text>
<text text-anchor="start" x="55.5" y="-223.5" font-family="FreeSans" font-size="10.00">* measurement_sample_type</text>
<text text-anchor="start" x="55.5" y="-212.5" font-family="FreeSans" font-size="10.00">* cross_covariance_type</text>
<text text-anchor="start" x="55.5" y="-201.5" font-family="FreeSans" font-size="10.00">* can_decompose_state</text>
<text text-anchor="start" x="55.5" y="-190.5" font-family="FreeSans" font-size="10.00">_covariance</text>
<text text-anchor="start" x="55.5" y="-179.5" font-family="FreeSans" font-size="10.00">and 8 more...</text>
</a>
</g>
</g>
<!-- Node4&#45;&gt;Node3 -->
<g id="edge1" class="edge"><title>Node4&#45;&gt;Node3</title>
<path fill="none" stroke="midnightblue" d="M283.328,-164.516C291.557,-154.278 299.677,-144.175 307.383,-134.588"/>
<polygon fill="none" stroke="midnightblue" points="280.556,-162.378 277.019,-172.366 286.012,-166.764 280.556,-162.378"/>
</g>
<!-- Node5 -->
<g id="node3" class="node"><title>Node5</title>
<polygon fill="white" stroke="#bfbfbf" points="0,-558 0,-615 139,-615 139,-558 0,-558"/>
<text text-anchor="middle" x="69.5" y="-603" font-family="FreeSans" font-size="10.00">static constexpr unsigned int</text>
<polyline fill="none" stroke="#bfbfbf" points="0,-596 139,-596 "/>
<text text-anchor="middle" x="69.5" y="-584" font-family="FreeSans" font-size="10.00"> </text>
<polyline fill="none" stroke="#bfbfbf" points="0,-577 139,-577 "/>
<text text-anchor="middle" x="69.5" y="-565" font-family="FreeSans" font-size="10.00"> </text>
</g>
<!-- Node5&#45;&gt;Node4 -->
<g id="edge2" class="edge"><title>Node5&#45;&gt;Node4</title>
<path fill="none" stroke="#404040" d="M72.6177,-557.731C77.1981,-522.889 87.4647,-461.792 107.5,-413 108.517,-410.522 109.581,-408.039 110.687,-405.555"/>
<polygon fill="none" stroke="#404040" points="110.697,-405.534 109.617,-398.404 115.784,-394.666 116.863,-401.796 110.697,-405.534"/>
<text text-anchor="middle" x="142.5" y="-432.5" font-family="FreeSans" font-size="10.00"> &#45;sMeasurement</text>
</g>
<!-- Node6 -->
<g id="node4" class="node"><title>Node6</title>
<g id="a_node4"><a xlink:href="classSeeSawN_1_1StateEstimationN_1_1UKFCameraTrackingProblemBaseC.html" target="_top" xlink:title="Base class for UKF camera tracking problems. ">
<polygon fill="white" stroke="black" points="157,-475.5 157,-697.5 390,-697.5 390,-475.5 157,-475.5"/>
<text text-anchor="start" x="165" y="-685.5" font-family="FreeSans" font-size="10.00">SeeSawN::StateEstimation</text>
<text text-anchor="start" x="165" y="-674.5" font-family="FreeSans" font-size="10.00">N::UKFCameraTrackingProblemBase</text>
<text text-anchor="start" x="165" y="-663.5" font-family="FreeSans" font-size="10.00">C&lt; UKFProblemT, GeometrySolverT,</text>
<text text-anchor="start" x="165" y="-652.5" font-family="FreeSans" font-size="10.00"> StateDifferenceFunctorT, MeasurementDifference</text>
<text text-anchor="middle" x="273.5" y="-641.5" font-family="FreeSans" font-size="10.00">FunctorT, DIMS &gt;</text>
<polyline fill="none" stroke="black" points="157,-634.5 390,-634.5 "/>
<text text-anchor="middle" x="273.5" y="-622.5" font-family="FreeSans" font-size="10.00"> </text>
<polyline fill="none" stroke="black" points="157,-615.5 390,-615.5 "/>
<text text-anchor="start" x="165" y="-603.5" font-family="FreeSans" font-size="10.00">* state_type</text>
<text text-anchor="start" x="165" y="-592.5" font-family="FreeSans" font-size="10.00">* state_vector_type</text>
<text text-anchor="start" x="165" y="-581.5" font-family="FreeSans" font-size="10.00">* state_covariance_type</text>
<text text-anchor="start" x="165" y="-570.5" font-family="FreeSans" font-size="10.00">* state_sample_type</text>
<text text-anchor="start" x="165" y="-559.5" font-family="FreeSans" font-size="10.00">* measurement_type</text>
<text text-anchor="start" x="165" y="-548.5" font-family="FreeSans" font-size="10.00">* measurement_vector_type</text>
<text text-anchor="start" x="165" y="-537.5" font-family="FreeSans" font-size="10.00">* measurement_covariance_type</text>
<text text-anchor="start" x="165" y="-526.5" font-family="FreeSans" font-size="10.00">* measurement_sample_type</text>
<text text-anchor="start" x="165" y="-515.5" font-family="FreeSans" font-size="10.00">* cross_covariance_type</text>
<text text-anchor="start" x="165" y="-504.5" font-family="FreeSans" font-size="10.00">* can_decompose_state</text>
<text text-anchor="start" x="165" y="-493.5" font-family="FreeSans" font-size="10.00">_covariance</text>
<text text-anchor="start" x="165" y="-482.5" font-family="FreeSans" font-size="10.00">and 8 more...</text>
</a>
</g>
</g>
<!-- Node6&#45;&gt;Node4 -->
<g id="edge3" class="edge"><title>Node6&#45;&gt;Node4</title>
<path fill="none" stroke="orange" d="M192.445,-465.882C191.378,-462.929 190.393,-459.967 189.5,-457 183.587,-437.356 180.767,-415.874 179.808,-394.944"/>
<polygon fill="orange" stroke="orange" points="189.215,-467.232 196.119,-475.268 195.734,-464.68 189.215,-467.232"/>
<text text-anchor="start" x="189.5" y="-449" font-family="FreeSans" font-size="10.00"> &lt; UKFOrientationTracking</text>
<text text-anchor="start" x="189.5" y="-438" font-family="FreeSans" font-size="10.00">ProblemC, Rotation3DSolverC,</text>
<text text-anchor="start" x="189.5" y="-427" font-family="FreeSans" font-size="10.00"> UKFOrientationTrackingProblemState</text>
<text text-anchor="middle" x="293" y="-416" font-family="FreeSans" font-size="10.00">DifferenceC, Rotation3DMinimalDifferenceC, 6 &gt;</text>
</g>
<!-- Node7 -->
<g id="node5" class="node"><title>Node7</title>
<polygon fill="white" stroke="#bfbfbf" points="346,-745.5 346,-802.5 375,-802.5 375,-745.5 346,-745.5"/>
<text text-anchor="middle" x="360.5" y="-790.5" font-family="FreeSans" font-size="10.00">int</text>
<polyline fill="none" stroke="#bfbfbf" points="346,-783.5 375,-783.5 "/>
<text text-anchor="middle" x="360.5" y="-771.5" font-family="FreeSans" font-size="10.00"> </text>
<polyline fill="none" stroke="#bfbfbf" points="346,-764.5 375,-764.5 "/>
<text text-anchor="middle" x="360.5" y="-752.5" font-family="FreeSans" font-size="10.00"> </text>
</g>
<!-- Node7&#45;&gt;Node3 -->
<g id="edge5" class="edge"><title>Node7&#45;&gt;Node3</title>
<path fill="none" stroke="#404040" d="M375.428,-762.423C385.757,-754.124 398.656,-741.564 404.5,-727 406.321,-722.463 404.561,-720.889 404.5,-716 402.823,-581.297 405.678,-547.401 396.5,-413 390.248,-321.455 378.659,-216.648 370.317,-146.913"/>
<polygon fill="none" stroke="#404040" points="370.286,-146.656 365.597,-141.177 368.851,-134.742 373.54,-140.221 370.286,-146.656"/>
<text text-anchor="middle" x="427" y="-438" font-family="FreeSans" font-size="10.00"> &#45;iOrientation</text>
<text text-anchor="middle" x="427" y="-427" font-family="FreeSans" font-size="10.00">&#45;iRotation</text>
</g>
<!-- Node7&#45;&gt;Node6 -->
<g id="edge4" class="edge"><title>Node7&#45;&gt;Node6</title>
<path fill="none" stroke="#404040" d="M345.996,-748.422C342.117,-741.564 338.026,-734.057 334.5,-727 331.547,-721.088 328.588,-715.001 325.654,-708.829"/>
<polygon fill="none" stroke="#404040" points="325.504,-708.509 319.334,-704.777 320.405,-697.646 326.576,-701.378 325.504,-708.509"/>
<text text-anchor="middle" x="369.5" y="-719" font-family="FreeSans" font-size="10.00"> &#45;sMeasurement</text>
</g>
</g>
</svg>
        <g id="navigator" transform="translate(0 0)" fill="#404254">
                <rect fill="#f2f5e9" fill-opacity="0.5" stroke="#606060" stroke-width=".5" x="0" y="0" width="60" height="60"/>
                <use id="zoomplus" xlink:href="#zoomPlus" x="17" y="9" onmousedown="handleZoom(evt,'in')"/>
                <use id="zoomminus" xlink:href="#zoomMin" x="42" y="9" onmousedown="handleZoom(evt,'out')"/>
                <use id="reset" xlink:href="#resetDef" x="30" y="36" onmousedown="handleReset()"/>
                <g id="arrowUp" xlink:href="#dirArrow" transform="translate(30 24)" onmousedown="handlePan(0,-1)">
                  <use xlink:href="#rim" fill="#404040">
                        <set attributeName="fill" to="#808080" begin="arrowUp.mouseover" end="arrowUp.mouseout"/>
                  </use>
                  <path fill="none" stroke="white" stroke-width="1.5" d="M0,-3.0v7 M-2.5,-0.5L0,-3.0L2.5,-0.5"/>
                </g>
                <g id="arrowRight" xlink:href="#dirArrow" transform="rotate(90) translate(36 -43)" onmousedown="handlePan(1,0)">
                  <use xlink:href="#rim" fill="#404040">
                        <set attributeName="fill" to="#808080" begin="arrowRight.mouseover" end="arrowRight.mouseout"/>
                  </use>
                  <path fill="none" stroke="white" stroke-width="1.5" d="M0,-3.0v7 M-2.5,-0.5L0,-3.0L2.5,-0.5"/>
                </g>
                <g id="arrowDown" xlink:href="#dirArrow" transform="rotate(180) translate(-30 -48)" onmousedown="handlePan(0,1)">
                  <use xlink:href="#rim" fill="#404040">
                        <set attributeName="fill" to="#808080" begin="arrowDown.mouseover" end="arrowDown.mouseout"/>
                  </use>
                  <path fill="none" stroke="white" stroke-width="1.5" d="M0,-3.0v7 M-2.5,-0.5L0,-3.0L2.5,-0.5"/>
                </g>
                <g id="arrowLeft" xlink:href="#dirArrow" transform="rotate(270) translate(-36 17)" onmousedown="handlePan(-1,0)">
                  <use xlink:href="#rim" fill="#404040">
                        <set attributeName="fill" to="#808080" begin="arrowLeft.mouseover" end="arrowLeft.mouseout"/>
                  </use>
                  <path fill="none" stroke="white" stroke-width="1.5" d="M0,-3.0v7 M-2.5,-0.5L0,-3.0L2.5,-0.5"/>
                </g>
        </g>
        <svg viewBox="0 0 15 15" width="100%" height="30px" preserveAspectRatio="xMaxYMin meet">
         <g id="arrow_out" transform="scale(0.3 0.3)">
          <a xlink:href="classSeeSawN_1_1StateEstimationN_1_1UKFOrientationTrackingProblemC__coll__graph_org.svg" target="_base">
           <rect id="button" ry="5" rx="5" y="6" x="6" height="38" width="38"
                fill="#f2f5e9" fill-opacity="0.5" stroke="#606060" stroke-width="1.0"/>
           <path id="arrow"
             d="M 11.500037,31.436501 C 11.940474,20.09759 22.043105,11.32322 32.158766,21.979434 L 37.068811,17.246167 C 37.068811,17.246167 37.088388,32 37.088388,32 L 22.160133,31.978069 C 22.160133,31.978069 26.997745,27.140456 26.997745,27.140456 C 18.528582,18.264221 13.291696,25.230495 11.500037,31.436501 z"
             style="fill:#404040;"/>
          </a>
         </g>
        </svg>
</svg>
