<?xml version="1.0" encoding="UTF-8" standalone="no"?>
<!DOCTYPE svg PUBLIC "-//W3C//DTD SVG 1.1//EN"
 "http://www.w3.org/Graphics/SVG/1.1/DTD/svg11.dtd">
<!-- Generated by graphviz version 2.38.0 (20140413.2041)
 -->
<!-- Title: SeeSawN::ElementsN::CameraC::MakeIntrinsicCalibrationMatrix Pages: 1 -->
<svg width="860pt" height="367pt"
 viewBox="0.00 0.00 860.00 366.50" xmlns="http://www.w3.org/2000/svg" xmlns:xlink="http://www.w3.org/1999/xlink">
<g id="graph0" class="graph" transform="scale(1 1) rotate(0) translate(4 362.5)">
<title>SeeSawN::ElementsN::CameraC::MakeIntrinsicCalibrationMatrix</title>
<polygon fill="white" stroke="none" points="-4,4 -4,-362.5 856,-362.5 856,4 -4,4"/>
<!-- Node91 -->
<g id="node1" class="node"><title>Node91</title>
<polygon fill="#bfbfbf" stroke="black" points="0,-169 0,-210 170,-210 170,-169 0,-169"/>
<text text-anchor="start" x="8" y="-198" font-family="FreeSans" font-size="10.00">SeeSawN::ElementsN</text>
<text text-anchor="start" x="8" y="-187" font-family="FreeSans" font-size="10.00">::CameraC::MakeIntrinsicCalibration</text>
<text text-anchor="middle" x="85" y="-176" font-family="FreeSans" font-size="10.00">Matrix</text>
</g>
<!-- Node92 -->
<g id="node2" class="node"><title>Node92</title>
<g id="a_node2"><a xlink:href="namespaceSeeSawN_1_1UnitTestsN_1_1TestElementsN.html#a3d4c397e7f5b4625ec1d01571d649883" target="_top" xlink:title="SeeSawN::UnitTestsN\l::TestElementsN::BOOST\l_AUTO_TEST_CASE">
<polygon fill="white" stroke="black" points="479.5,-317 479.5,-358 607.5,-358 607.5,-317 479.5,-317"/>
<text text-anchor="start" x="487.5" y="-346" font-family="FreeSans" font-size="10.00">SeeSawN::UnitTestsN</text>
<text text-anchor="start" x="487.5" y="-335" font-family="FreeSans" font-size="10.00">::TestElementsN::BOOST</text>
<text text-anchor="middle" x="543.5" y="-324" font-family="FreeSans" font-size="10.00">_AUTO_TEST_CASE</text>
</a>
</g>
</g>
<!-- Node91&#45;&gt;Node92 -->
<g id="edge1" class="edge"><title>Node91&#45;&gt;Node92</title>
<path fill="none" stroke="midnightblue" d="M118.043,-216.763C141.08,-234.963 173.663,-257.959 206,-271.5 296.469,-309.384 409.86,-325.842 479.201,-332.761"/>
<polygon fill="midnightblue" stroke="midnightblue" points="119.993,-213.84 110.006,-210.302 115.606,-219.295 119.993,-213.84"/>
</g>
<!-- Node93 -->
<g id="node3" class="node"><title>Node93</title>
<g id="a_node3"><a xlink:href="classSeeSawN_1_1AppGeometryEstimator22N_1_1GeometryEstimator22ImplementationC.html#a405fe09f3f341448221fefa93690ae5e" target="_top" xlink:title="Computes an initial estimate. ">
<polygon fill="white" stroke="black" points="449,-257 449,-298 638,-298 638,-257 449,-257"/>
<text text-anchor="start" x="457" y="-286" font-family="FreeSans" font-size="10.00">SeeSawN::AppGeometryEstimator22</text>
<text text-anchor="start" x="457" y="-275" font-family="FreeSans" font-size="10.00">N::GeometryEstimator22Implementation</text>
<text text-anchor="middle" x="543.5" y="-264" font-family="FreeSans" font-size="10.00">C::ComputeInitialEstimate</text>
</a>
</g>
</g>
<!-- Node91&#45;&gt;Node93 -->
<g id="edge2" class="edge"><title>Node91&#45;&gt;Node93</title>
<path fill="none" stroke="midnightblue" d="M133.578,-214.622C155.125,-224.912 181.266,-235.926 206,-242.5 286.322,-263.848 380.656,-272.289 448.973,-275.57"/>
<polygon fill="midnightblue" stroke="midnightblue" points="134.856,-211.351 124.333,-210.118 131.79,-217.644 134.856,-211.351"/>
</g>
<!-- Node94 -->
<g id="node4" class="node"><title>Node94</title>
<g id="a_node4"><a xlink:href="classSeeSawN_1_1AppGeometryEstimator22N_1_1GeometryEstimator22ImplementationC.html#a02797831a16e7a63c86ff374ef2a9858" target="_top" xlink:title="Extracts the lens distortion and the internal calibration parameters. ">
<polygon fill="white" stroke="black" points="215,-142 215,-183 404,-183 404,-142 215,-142"/>
<text text-anchor="start" x="223" y="-171" font-family="FreeSans" font-size="10.00">SeeSawN::AppGeometryEstimator22</text>
<text text-anchor="start" x="223" y="-160" font-family="FreeSans" font-size="10.00">N::GeometryEstimator22Implementation</text>
<text text-anchor="middle" x="309.5" y="-149" font-family="FreeSans" font-size="10.00">C::ExtractInternalParameters</text>
</a>
</g>
</g>
<!-- Node91&#45;&gt;Node94 -->
<g id="edge3" class="edge"><title>Node91&#45;&gt;Node94</title>
<path fill="none" stroke="midnightblue" d="M180.161,-178.074C191.678,-176.676 203.446,-175.248 214.954,-173.852"/>
<polygon fill="midnightblue" stroke="midnightblue" points="179.623,-174.613 170.118,-179.292 180.467,-181.562 179.623,-174.613"/>
</g>
<!-- Node95 -->
<g id="node5" class="node"><title>Node95</title>
<g id="a_node5"><a xlink:href="classSeeSawN_1_1ElementsN_1_1CameraC.html#ad63af5eb85128f566ecff5ef9d52be71" target="_top" xlink:title="Returns the camera matrix for the camera. ">
<polygon fill="white" stroke="black" points="234.5,-202.5 234.5,-232.5 384.5,-232.5 384.5,-202.5 234.5,-202.5"/>
<text text-anchor="start" x="242.5" y="-220.5" font-family="FreeSans" font-size="10.00">SeeSawN::ElementsN</text>
<text text-anchor="middle" x="309.5" y="-209.5" font-family="FreeSans" font-size="10.00">::CameraC::MakeCameraMatrix</text>
</a>
</g>
</g>
<!-- Node91&#45;&gt;Node95 -->
<g id="edge4" class="edge"><title>Node91&#45;&gt;Node95</title>
<path fill="none" stroke="midnightblue" d="M180.129,-201.345C198.288,-203.631 217.071,-205.994 234.478,-208.185"/>
<polygon fill="midnightblue" stroke="midnightblue" points="180.476,-197.862 170.118,-200.086 179.602,-204.807 180.476,-197.862"/>
</g>
<!-- Node102 -->
<g id="node12" class="node"><title>Node102</title>
<g id="a_node12"><a xlink:href="classSeeSawN_1_1AppMultimodelGeometryEstimator22N_1_1AppMultimodelGeometryEstimator22ImplementationC.html#acf64d1f6b201eff28aafc7f766ed7e45" target="_top" xlink:title="Verifies whether the camera files hold the necessary information for a specified problem type...">
<polygon fill="white" stroke="black" points="206,-82 206,-123 413,-123 413,-82 206,-82"/>
<text text-anchor="start" x="214" y="-111" font-family="FreeSans" font-size="10.00">SeeSawN::AppMultimodelGeometry</text>
<text text-anchor="start" x="214" y="-100" font-family="FreeSans" font-size="10.00">Estimator22N::AppMultimodelGeometry</text>
<text text-anchor="middle" x="309.5" y="-89" font-family="FreeSans" font-size="10.00">Estimator22ImplementationC::VerifyProblem</text>
</a>
</g>
</g>
<!-- Node91&#45;&gt;Node102 -->
<g id="edge14" class="edge"><title>Node91&#45;&gt;Node102</title>
<path fill="none" stroke="midnightblue" d="M134.279,-164.416C155.875,-153.759 181.861,-141.699 206,-132.5 214.75,-129.166 224.036,-125.979 233.307,-123.013"/>
<polygon fill="midnightblue" stroke="midnightblue" points="132.699,-161.292 125.31,-168.885 135.821,-167.557 132.699,-161.292"/>
</g>
<!-- Node103 -->
<g id="node13" class="node"><title>Node103</title>
<g id="a_node13"><a xlink:href="classSeeSawN_1_1AppGeometryEstimator32N_1_1GeometryEstimator32ImplementationC.html#acb98b75c60ba40dd2677afc87db53e94" target="_top" xlink:title="Verifies whether all necessary camera parameters are available for a specified problem. ">
<polygon fill="white" stroke="black" points="215,-22 215,-63 404,-63 404,-22 215,-22"/>
<text text-anchor="start" x="223" y="-51" font-family="FreeSans" font-size="10.00">SeeSawN::AppGeometryEstimator32</text>
<text text-anchor="start" x="223" y="-40" font-family="FreeSans" font-size="10.00">N::GeometryEstimator32Implementation</text>
<text text-anchor="middle" x="309.5" y="-29" font-family="FreeSans" font-size="10.00">C::VerifyProblem</text>
</a>
</g>
</g>
<!-- Node91&#45;&gt;Node103 -->
<g id="edge15" class="edge"><title>Node91&#45;&gt;Node103</title>
<path fill="none" stroke="midnightblue" d="M108.354,-160.768C130.46,-134.22 166.611,-95.5118 206,-72.5 212.004,-68.9926 218.448,-65.8689 225.075,-63.092"/>
<polygon fill="midnightblue" stroke="midnightblue" points="105.581,-158.631 101.957,-168.586 110.998,-163.064 105.581,-158.631"/>
</g>
<!-- Node95&#45;&gt;Node92 -->
<g id="edge8" class="edge"><title>Node95&#45;&gt;Node92</title>
<path fill="none" stroke="midnightblue" d="M338.368,-238.801C365.45,-258.709 408.33,-288.186 449,-307.5 458.548,-312.034 468.955,-316.132 479.245,-319.738"/>
<polygon fill="midnightblue" stroke="midnightblue" points="340.268,-235.852 330.154,-232.698 336.094,-241.471 340.268,-235.852"/>
</g>
<!-- Node95&#45;&gt;Node93 -->
<g id="edge9" class="edge"><title>Node95&#45;&gt;Node93</title>
<path fill="none" stroke="midnightblue" d="M378.687,-235.135C405.185,-241.987 435.717,-249.884 463.189,-256.989"/>
<polygon fill="midnightblue" stroke="midnightblue" points="379.302,-231.678 368.744,-232.563 377.549,-238.456 379.302,-231.678"/>
</g>
<!-- Node96 -->
<g id="node6" class="node"><title>Node96</title>
<g id="a_node6"><a xlink:href="classSeeSawN_1_1DataGeneratorN_1_1RandomGeometryProblemGeneratorC.html#a0cbfc538bcba79d05ef76c2756d604ab" target="_top" xlink:title="Applies a random 3D transformation to a point cloud. ">
<polygon fill="white" stroke="black" points="454.5,-197 454.5,-238 632.5,-238 632.5,-197 454.5,-197"/>
<text text-anchor="start" x="462.5" y="-226" font-family="FreeSans" font-size="10.00">SeeSawN::DataGeneratorN</text>
<text text-anchor="start" x="462.5" y="-215" font-family="FreeSans" font-size="10.00">::RandomGeometryProblemGenerator</text>
<text text-anchor="middle" x="543.5" y="-204" font-family="FreeSans" font-size="10.00">C::ApplyRandom3DTransformation</text>
</a>
</g>
</g>
<!-- Node95&#45;&gt;Node96 -->
<g id="edge5" class="edge"><title>Node95&#45;&gt;Node96</title>
<path fill="none" stroke="midnightblue" d="M394.549,-217.5C413.931,-217.5 434.603,-217.5 454.161,-217.5"/>
<polygon fill="midnightblue" stroke="midnightblue" points="394.544,-214 384.544,-217.5 394.544,-221 394.544,-214"/>
</g>
<!-- Node97 -->
<g id="node7" class="node"><title>Node97</title>
<g id="a_node7"><a xlink:href="classSeeSawN_1_1DataGeneratorN_1_1RandomGeometryProblemGeneratorC.html#ae7a2561c381cbf92e51830af304b0736" target="_top" xlink:title="Generates a problem for solvers involving a camera pair and 2D correspondences. ">
<polygon fill="white" stroke="black" points="674,-178 674,-219 852,-219 852,-178 674,-178"/>
<text text-anchor="start" x="682" y="-207" font-family="FreeSans" font-size="10.00">SeeSawN::DataGeneratorN</text>
<text text-anchor="start" x="682" y="-196" font-family="FreeSans" font-size="10.00">::RandomGeometryProblemGenerator</text>
<text text-anchor="middle" x="763" y="-185" font-family="FreeSans" font-size="10.00">C::GenerateProblem22</text>
</a>
</g>
</g>
<!-- Node95&#45;&gt;Node97 -->
<g id="edge10" class="edge"><title>Node95&#45;&gt;Node97</title>
<path fill="none" stroke="midnightblue" d="M376.56,-200.187C399.342,-195.02 425.133,-190.055 449,-187.5 532.523,-178.558 554.082,-183.785 638,-187.5 649.551,-188.011 661.69,-188.789 673.666,-189.7"/>
<polygon fill="midnightblue" stroke="midnightblue" points="375.608,-196.815 366.66,-202.487 377.192,-203.633 375.608,-196.815"/>
</g>
<!-- Node98 -->
<g id="node8" class="node"><title>Node98</title>
<g id="a_node8"><a xlink:href="namespaceSeeSawN_1_1TestDataGenerationN.html#a41b3b2e064f4e3afb69fe0eb414c520b" target="_top" xlink:title="SeeSawN::TestDataGeneration\lN::BOOST_AUTO_TEST_CASE">
<polygon fill="white" stroke="black" points="464.5,-49.5 464.5,-79.5 622.5,-79.5 622.5,-49.5 464.5,-49.5"/>
<text text-anchor="start" x="472.5" y="-67.5" font-family="FreeSans" font-size="10.00">SeeSawN::TestDataGeneration</text>
<text text-anchor="middle" x="543.5" y="-56.5" font-family="FreeSans" font-size="10.00">N::BOOST_AUTO_TEST_CASE</text>
</a>
</g>
</g>
<!-- Node95&#45;&gt;Node98 -->
<g id="edge7" class="edge"><title>Node95&#45;&gt;Node98</title>
<path fill="none" stroke="midnightblue" d="M394.233,-204.874C401.059,-201.599 407.451,-197.535 413,-192.5 448.912,-159.913 413.449,-122.481 449,-89.5 453.558,-85.2717 458.751,-81.7434 464.301,-78.8012"/>
<polygon fill="midnightblue" stroke="midnightblue" points="392.569,-201.777 384.697,-208.869 395.273,-208.234 392.569,-201.777"/>
</g>
<!-- Node99 -->
<g id="node9" class="node"><title>Node99</title>
<g id="a_node9"><a xlink:href="group__DataGeneration.html#ga6571e0b6db5e17d674cec260307d9a0e" target="_top" xlink:title="Generates a camera pair fixated on a point. ">
<polygon fill="white" stroke="black" points="469.5,-0.5 469.5,-30.5 617.5,-30.5 617.5,-0.5 469.5,-0.5"/>
<text text-anchor="start" x="477.5" y="-18.5" font-family="FreeSans" font-size="10.00">SeeSawN::DataGeneratorN</text>
<text text-anchor="middle" x="543.5" y="-7.5" font-family="FreeSans" font-size="10.00">::GenerateRandomCameraPair</text>
</a>
</g>
</g>
<!-- Node95&#45;&gt;Node99 -->
<g id="edge11" class="edge"><title>Node95&#45;&gt;Node99</title>
<path fill="none" stroke="midnightblue" d="M393.831,-205.966C400.912,-202.488 407.467,-198.078 413,-192.5 462.195,-142.903 400.104,-89.392 449,-39.5 454.748,-33.6351 461.721,-29.1361 469.239,-25.6949"/>
<polygon fill="midnightblue" stroke="midnightblue" points="392.447,-202.751 384.618,-209.89 395.19,-209.191 392.447,-202.751"/>
</g>
<!-- Node100 -->
<g id="node10" class="node"><title>Node100</title>
<g id="a_node10"><a xlink:href="classSeeSawN_1_1GeometryN_1_1P6PSolverC.html#a640ea1e56a6dcd901b929ab67f569273" target="_top" xlink:title="Minimal form to matrix conversion. ">
<polygon fill="white" stroke="black" points="467.5,-99 467.5,-140 619.5,-140 619.5,-99 467.5,-99"/>
<text text-anchor="start" x="475.5" y="-128" font-family="FreeSans" font-size="10.00">SeeSawN::GeometryN</text>
<text text-anchor="start" x="475.5" y="-117" font-family="FreeSans" font-size="10.00">::P6PSolverC::MakeModelFrom</text>
<text text-anchor="middle" x="543.5" y="-106" font-family="FreeSans" font-size="10.00">Minimal</text>
</a>
</g>
</g>
<!-- Node95&#45;&gt;Node100 -->
<g id="edge12" class="edge"><title>Node95&#45;&gt;Node100</title>
<path fill="none" stroke="midnightblue" d="M394.351,-201.374C400.846,-198.835 407.146,-195.897 413,-192.5 433.122,-180.823 429.608,-167.352 449,-154.5 457.235,-149.042 466.438,-144.279 475.77,-140.173"/>
<polygon fill="midnightblue" stroke="midnightblue" points="392.962,-198.154 384.725,-204.818 395.319,-204.745 392.962,-198.154"/>
</g>
<!-- Node96&#45;&gt;Node97 -->
<g id="edge6" class="edge"><title>Node96&#45;&gt;Node97</title>
<path fill="none" stroke="midnightblue" d="M642.878,-208.906C653.158,-208.008 663.564,-207.099 673.722,-206.212"/>
<polygon fill="midnightblue" stroke="midnightblue" points="642.309,-205.442 632.652,-209.799 642.919,-212.416 642.309,-205.442"/>
</g>
<!-- Node101 -->
<g id="node11" class="node"><title>Node101</title>
<g id="a_node11"><a xlink:href="namespaceSeeSawN_1_1UnitTestsN_1_1TestGeometryN.html#a4e49d224a55b38ea1f419fc1e3113594" target="_top" xlink:title="SeeSawN::UnitTestsN\l::TestGeometryN::BOOST\l_AUTO_TEST_CASE">
<polygon fill="white" stroke="black" points="698.5,-99 698.5,-140 827.5,-140 827.5,-99 698.5,-99"/>
<text text-anchor="start" x="706.5" y="-128" font-family="FreeSans" font-size="10.00">SeeSawN::UnitTestsN</text>
<text text-anchor="start" x="706.5" y="-117" font-family="FreeSans" font-size="10.00">::TestGeometryN::BOOST</text>
<text text-anchor="middle" x="763" y="-106" font-family="FreeSans" font-size="10.00">_AUTO_TEST_CASE</text>
</a>
</g>
</g>
<!-- Node100&#45;&gt;Node101 -->
<g id="edge13" class="edge"><title>Node100&#45;&gt;Node101</title>
<path fill="none" stroke="midnightblue" d="M629.704,-119.5C652.585,-119.5 676.928,-119.5 698.411,-119.5"/>
<polygon fill="midnightblue" stroke="midnightblue" points="629.656,-116 619.656,-119.5 629.656,-123 629.656,-116"/>
</g>
</g>
</svg>
