<?xml version="1.0" encoding="UTF-8" standalone="no"?>
<!DOCTYPE svg PUBLIC "-//W3C//DTD SVG 1.1//EN"
 "http://www.w3.org/Graphics/SVG/1.1/DTD/svg11.dtd">
<!-- Generated by graphviz version 2.38.0 (20140413.2041)
 -->
<!-- Title: SeeSawN::GeometryN::DualAbsoluteQuadricSolverC::Evaluate Pages: 1 -->
<!--zoomable 160 -->
<svg id="main" version="1.1" xmlns="http://www.w3.org/2000/svg" xmlns:xlink="http://www.w3.org/1999/xlink" xml:space="preserve" onload="init(evt)">
<style type="text/css"><![CDATA[
.edge:hover path { stroke: red; }
.edge:hover polygon { stroke: red; fill: red; }
]]></style>
<script type="text/javascript"><![CDATA[
var edges = document.getElementsByTagName('g');
if (edges && edges.length) {
  for (var i=0;i<edges.length;i++) {
    if (edges[i].id.substr(0,4)=='edge') {
      edges[i].setAttribute('class','edge');
    }
  }
}
]]></script>
        <defs>
                <circle id="rim" cx="0" cy="0" r="7"/>
                <circle id="rim2" cx="0" cy="0" r="3.5"/>
                <g id="zoomPlus">
                        <use xlink:href="#rim" fill="#404040">
                                <set attributeName="fill" to="#808080" begin="zoomplus.mouseover" end="zoomplus.mouseout"/>
                        </use>
                        <path d="M-4,0h8M0,-4v8" fill="none" stroke="white" stroke-width="1.5" pointer-events="none"/>
                </g>
                <g id="zoomMin">
                        <use xlink:href="#rim" fill="#404040">
                                <set attributeName="fill" to="#808080" begin="zoomminus.mouseover" end="zoomminus.mouseout"/>
                        </use>
                        <path d="M-4,0h8" fill="none" stroke="white" stroke-width="1.5" pointer-events="none"/>
                </g>
                <g id="dirArrow">
                        <path fill="none" stroke="white" stroke-width="1.5" d="M0,-3.0v7 M-2.5,-0.5L0,-3.0L2.5,-0.5"/>
                </g>
               <g id="resetDef">
                       <use xlink:href="#rim2" fill="#404040">
                               <set attributeName="fill" to="#808080" begin="reset.mouseover" end="reset.mouseout"/>
                       </use>
               </g>
        </defs>

<script type="text/javascript">
var viewWidth = 676;
var viewHeight = 160;
var sectionId = 'dynsection-1';
</script>
<script xlink:href="svgpan.js"/>
<svg id="graph" class="graph">
<g id="viewport">
<title>SeeSawN::GeometryN::DualAbsoluteQuadricSolverC::Evaluate</title>
<polygon fill="white" stroke="none" points="-4,4 -4,-155.5 672,-155.5 672,4 -4,4"/>
<!-- Node2 -->
<g id="node1" class="node"><title>Node2</title>
<polygon fill="#bfbfbf" stroke="black" points="0,-60.5 0,-101.5 140,-101.5 140,-60.5 0,-60.5"/>
<text text-anchor="start" x="8" y="-89.5" font-family="FreeSans" font-size="10.00">SeeSawN::GeometryN</text>
<text text-anchor="start" x="8" y="-78.5" font-family="FreeSans" font-size="10.00">::DualAbsoluteQuadricSolver</text>
<text text-anchor="middle" x="70" y="-67.5" font-family="FreeSans" font-size="10.00">C::Evaluate</text>
</g>
<!-- Node3 -->
<g id="node2" class="node"><title>Node3</title>
<g id="a_node2"><a xlink:href="namespaceSeeSawN_1_1ElementsN.html#acc27beab4fd1a657c9c0bd6f95ecb0d6" target="_top" xlink:title="Extracts the intrinsic calibration parameters for a camera from the dual absolute quadric...">
<polygon fill="white" stroke="black" points="189.5,-121 189.5,-151 302.5,-151 302.5,-121 189.5,-121"/>
<text text-anchor="start" x="197.5" y="-139" font-family="FreeSans" font-size="10.00">SeeSawN::ElementsN</text>
<text text-anchor="middle" x="246" y="-128" font-family="FreeSans" font-size="10.00">::IntrinsicsFromDAQ</text>
</a>
</g>
</g>
<!-- Node2&#45;&gt;Node3 -->
<g id="edge1" class="edge"><title>Node2&#45;&gt;Node3</title>
<path fill="none" stroke="midnightblue" d="M136.286,-101.636C153.056,-106.937 170.976,-112.602 187.33,-117.771"/>
<polygon fill="midnightblue" stroke="midnightblue" points="186.697,-121.241 197.287,-120.918 188.806,-114.567 186.697,-121.241"/>
</g>
<!-- Node4 -->
<g id="node3" class="node"><title>Node4</title>
<g id="a_node3"><a xlink:href="classSeeSawN_1_1GeometryN_1_1DualAbsoluteQuadricSolverC.html#af63c488b84b048758d95b8721dfedabc" target="_top" xlink:title="Estimates the dual absolute quadric for a set of cameras. ">
<polygon fill="white" stroke="black" points="176,-60.5 176,-101.5 316,-101.5 316,-60.5 176,-60.5"/>
<text text-anchor="start" x="184" y="-89.5" font-family="FreeSans" font-size="10.00">SeeSawN::GeometryN</text>
<text text-anchor="start" x="184" y="-78.5" font-family="FreeSans" font-size="10.00">::DualAbsoluteQuadricSolver</text>
<text text-anchor="middle" x="246" y="-67.5" font-family="FreeSans" font-size="10.00">C::operator()</text>
</a>
</g>
</g>
<!-- Node2&#45;&gt;Node4 -->
<g id="edge2" class="edge"><title>Node2&#45;&gt;Node4</title>
<path fill="none" stroke="midnightblue" d="M140.019,-74.3798C148.476,-74.2561 157.169,-74.2208 165.761,-74.2739"/>
<polygon fill="midnightblue" stroke="midnightblue" points="165.744,-77.7738 175.779,-74.3769 165.816,-70.7742 165.744,-77.7738"/>
</g>
<!-- Node4&#45;&gt;Node2 -->
<g id="edge7" class="edge"><title>Node4&#45;&gt;Node2</title>
<path fill="none" stroke="midnightblue" d="M175.779,-87.6231C167.319,-87.7454 158.625,-87.7793 150.035,-87.7248"/>
<polygon fill="midnightblue" stroke="midnightblue" points="150.055,-84.2249 140.019,-87.6202 149.982,-91.2245 150.055,-84.2249"/>
</g>
<!-- Node5 -->
<g id="node4" class="node"><title>Node5</title>
<g id="a_node4"><a xlink:href="group__Elements.html#ga95a4bac6210203f2ead6771fbd0f1894" target="_top" xlink:title="Computes the homography that maps a camera to the canonical camera matrix. ">
<polygon fill="white" stroke="black" points="365.5,-121 365.5,-151 478.5,-151 478.5,-121 365.5,-121"/>
<text text-anchor="start" x="373.5" y="-139" font-family="FreeSans" font-size="10.00">SeeSawN::ElementsN</text>
<text text-anchor="middle" x="422" y="-128" font-family="FreeSans" font-size="10.00">::MapToCanonical</text>
</a>
</g>
</g>
<!-- Node4&#45;&gt;Node5 -->
<g id="edge3" class="edge"><title>Node4&#45;&gt;Node5</title>
<path fill="none" stroke="midnightblue" d="M312.286,-101.636C329.056,-106.937 346.976,-112.602 363.33,-117.771"/>
<polygon fill="midnightblue" stroke="midnightblue" points="362.697,-121.241 373.287,-120.918 364.806,-114.567 362.697,-121.241"/>
</g>
<!-- Node6 -->
<g id="node5" class="node"><title>Node6</title>
<g id="a_node5"><a xlink:href="classSeeSawN_1_1GeometryN_1_1DualAbsoluteQuadricSolverC.html#afcc1fede20f19a42ed34cc21e0a148d4" target="_top" xlink:title="Builds the equation system. ">
<polygon fill="white" stroke="black" points="352,-60.5 352,-101.5 492,-101.5 492,-60.5 352,-60.5"/>
<text text-anchor="start" x="360" y="-89.5" font-family="FreeSans" font-size="10.00">SeeSawN::GeometryN</text>
<text text-anchor="start" x="360" y="-78.5" font-family="FreeSans" font-size="10.00">::DualAbsoluteQuadricSolver</text>
<text text-anchor="middle" x="422" y="-67.5" font-family="FreeSans" font-size="10.00">C::MakeEquationSystem</text>
</a>
</g>
</g>
<!-- Node4&#45;&gt;Node6 -->
<g id="edge4" class="edge"><title>Node4&#45;&gt;Node6</title>
<path fill="none" stroke="midnightblue" d="M316.019,-81C324.476,-81 333.169,-81 341.761,-81"/>
<polygon fill="midnightblue" stroke="midnightblue" points="341.78,-84.5001 351.779,-81 341.779,-77.5001 341.78,-84.5001"/>
</g>
<!-- Node8 -->
<g id="node7" class="node"><title>Node8</title>
<g id="a_node7"><a xlink:href="classSeeSawN_1_1GeometryN_1_1DualAbsoluteQuadricSolverC.html#a6e96ebe8152fd2b583c630e7436aa769" target="_top" xlink:title="Converts the solution vector to an absolute dual quadric. ">
<polygon fill="white" stroke="black" points="352,-0.5 352,-41.5 492,-41.5 492,-0.5 352,-0.5"/>
<text text-anchor="start" x="360" y="-29.5" font-family="FreeSans" font-size="10.00">SeeSawN::GeometryN</text>
<text text-anchor="start" x="360" y="-18.5" font-family="FreeSans" font-size="10.00">::DualAbsoluteQuadricSolver</text>
<text text-anchor="middle" x="422" y="-7.5" font-family="FreeSans" font-size="10.00">C::MakeQ</text>
</a>
</g>
</g>
<!-- Node4&#45;&gt;Node8 -->
<g id="edge6" class="edge"><title>Node4&#45;&gt;Node8</title>
<path fill="none" stroke="midnightblue" d="M306.881,-60.3514C321.316,-55.3739 336.857,-50.0149 351.683,-44.9025"/>
<polygon fill="midnightblue" stroke="midnightblue" points="352.991,-48.1538 361.304,-41.585 350.709,-41.5361 352.991,-48.1538"/>
</g>
<!-- Node7 -->
<g id="node6" class="node"><title>Node7</title>
<g id="a_node6"><a xlink:href="classSeeSawN_1_1GeometryN_1_1DualAbsoluteQuadricSolverC.html#a95c2e1c254a3bb977e10482530e746bb" target="_top" xlink:title="Makes an equation. ">
<polygon fill="white" stroke="black" points="528,-60.5 528,-101.5 668,-101.5 668,-60.5 528,-60.5"/>
<text text-anchor="start" x="536" y="-89.5" font-family="FreeSans" font-size="10.00">SeeSawN::GeometryN</text>
<text text-anchor="start" x="536" y="-78.5" font-family="FreeSans" font-size="10.00">::DualAbsoluteQuadricSolver</text>
<text text-anchor="middle" x="598" y="-67.5" font-family="FreeSans" font-size="10.00">C::MakeEquation</text>
</a>
</g>
</g>
<!-- Node6&#45;&gt;Node7 -->
<g id="edge5" class="edge"><title>Node6&#45;&gt;Node7</title>
<path fill="none" stroke="midnightblue" d="M492.019,-81C500.476,-81 509.169,-81 517.761,-81"/>
<polygon fill="midnightblue" stroke="midnightblue" points="517.78,-84.5001 527.779,-81 517.779,-77.5001 517.78,-84.5001"/>
</g>
</g>
</svg>
        <g id="navigator" transform="translate(0 0)" fill="#404254">
                <rect fill="#f2f5e9" fill-opacity="0.5" stroke="#606060" stroke-width=".5" x="0" y="0" width="60" height="60"/>
                <use id="zoomplus" xlink:href="#zoomPlus" x="17" y="9" onmousedown="handleZoom(evt,'in')"/>
                <use id="zoomminus" xlink:href="#zoomMin" x="42" y="9" onmousedown="handleZoom(evt,'out')"/>
                <use id="reset" xlink:href="#resetDef" x="30" y="36" onmousedown="handleReset()"/>
                <g id="arrowUp" xlink:href="#dirArrow" transform="translate(30 24)" onmousedown="handlePan(0,-1)">
                  <use xlink:href="#rim" fill="#404040">
                        <set attributeName="fill" to="#808080" begin="arrowUp.mouseover" end="arrowUp.mouseout"/>
                  </use>
                  <path fill="none" stroke="white" stroke-width="1.5" d="M0,-3.0v7 M-2.5,-0.5L0,-3.0L2.5,-0.5"/>
                </g>
                <g id="arrowRight" xlink:href="#dirArrow" transform="rotate(90) translate(36 -43)" onmousedown="handlePan(1,0)">
                  <use xlink:href="#rim" fill="#404040">
                        <set attributeName="fill" to="#808080" begin="arrowRight.mouseover" end="arrowRight.mouseout"/>
                  </use>
                  <path fill="none" stroke="white" stroke-width="1.5" d="M0,-3.0v7 M-2.5,-0.5L0,-3.0L2.5,-0.5"/>
                </g>
                <g id="arrowDown" xlink:href="#dirArrow" transform="rotate(180) translate(-30 -48)" onmousedown="handlePan(0,1)">
                  <use xlink:href="#rim" fill="#404040">
                        <set attributeName="fill" to="#808080" begin="arrowDown.mouseover" end="arrowDown.mouseout"/>
                  </use>
                  <path fill="none" stroke="white" stroke-width="1.5" d="M0,-3.0v7 M-2.5,-0.5L0,-3.0L2.5,-0.5"/>
                </g>
                <g id="arrowLeft" xlink:href="#dirArrow" transform="rotate(270) translate(-36 17)" onmousedown="handlePan(-1,0)">
                  <use xlink:href="#rim" fill="#404040">
                        <set attributeName="fill" to="#808080" begin="arrowLeft.mouseover" end="arrowLeft.mouseout"/>
                  </use>
                  <path fill="none" stroke="white" stroke-width="1.5" d="M0,-3.0v7 M-2.5,-0.5L0,-3.0L2.5,-0.5"/>
                </g>
        </g>
        <svg viewBox="0 0 15 15" width="100%" height="30px" preserveAspectRatio="xMaxYMin meet">
         <g id="arrow_out" transform="scale(0.3 0.3)">
          <a xlink:href="classSeeSawN_1_1GeometryN_1_1DualAbsoluteQuadricSolverC_ae3aeea9a301f04ddd071a858aabbced2_cgraph_org.svg" target="_base">
           <rect id="button" ry="5" rx="5" y="6" x="6" height="38" width="38"
                fill="#f2f5e9" fill-opacity="0.5" stroke="#606060" stroke-width="1.0"/>
           <path id="arrow"
             d="M 11.500037,31.436501 C 11.940474,20.09759 22.043105,11.32322 32.158766,21.979434 L 37.068811,17.246167 C 37.068811,17.246167 37.088388,32 37.088388,32 L 22.160133,31.978069 C 22.160133,31.978069 26.997745,27.140456 26.997745,27.140456 C 18.528582,18.264221 13.291696,25.230495 11.500037,31.436501 z"
             style="fill:#404040;"/>
          </a>
         </g>
        </svg>
</svg>
