<?xml version="1.0" encoding="UTF-8" standalone="no"?>
<!DOCTYPE svg PUBLIC "-//W3C//DTD SVG 1.1//EN"
 "http://www.w3.org/Graphics/SVG/1.1/DTD/svg11.dtd">
<!-- Generated by graphviz version 2.38.0 (20140413.2041)
 -->
<!-- Title: SeeSawN::GeometryN::PfMPipelineC::TrackTo3D2DCorrespondence Pages: 1 -->
<!--zoomable 50 -->
<svg id="main" version="1.1" xmlns="http://www.w3.org/2000/svg" xmlns:xlink="http://www.w3.org/1999/xlink" xml:space="preserve" onload="init(evt)">
<style type="text/css"><![CDATA[
.edge:hover path { stroke: red; }
.edge:hover polygon { stroke: red; fill: red; }
]]></style>
<script type="text/javascript"><![CDATA[
var edges = document.getElementsByTagName('g');
if (edges && edges.length) {
  for (var i=0;i<edges.length;i++) {
    if (edges[i].id.substr(0,4)=='edge') {
      edges[i].setAttribute('class','edge');
    }
  }
}
]]></script>
        <defs>
                <circle id="rim" cx="0" cy="0" r="7"/>
                <circle id="rim2" cx="0" cy="0" r="3.5"/>
                <g id="zoomPlus">
                        <use xlink:href="#rim" fill="#404040">
                                <set attributeName="fill" to="#808080" begin="zoomplus.mouseover" end="zoomplus.mouseout"/>
                        </use>
                        <path d="M-4,0h8M0,-4v8" fill="none" stroke="white" stroke-width="1.5" pointer-events="none"/>
                </g>
                <g id="zoomMin">
                        <use xlink:href="#rim" fill="#404040">
                                <set attributeName="fill" to="#808080" begin="zoomminus.mouseover" end="zoomminus.mouseout"/>
                        </use>
                        <path d="M-4,0h8" fill="none" stroke="white" stroke-width="1.5" pointer-events="none"/>
                </g>
                <g id="dirArrow">
                        <path fill="none" stroke="white" stroke-width="1.5" d="M0,-3.0v7 M-2.5,-0.5L0,-3.0L2.5,-0.5"/>
                </g>
               <g id="resetDef">
                       <use xlink:href="#rim2" fill="#404040">
                               <set attributeName="fill" to="#808080" begin="reset.mouseover" end="reset.mouseout"/>
                       </use>
               </g>
        </defs>

<script type="text/javascript">
var viewWidth = 739;
var viewHeight = 50;
var sectionId = 'dynsection-27';
</script>
<script xlink:href="svgpan.js"/>
<svg id="graph" class="graph">
<g id="viewport">
<title>SeeSawN::GeometryN::PfMPipelineC::TrackTo3D2DCorrespondence</title>
<polygon fill="white" stroke="none" points="-4,4 -4,-46 735,-46 735,4 -4,4"/>
<!-- Node231 -->
<g id="node1" class="node"><title>Node231</title>
<polygon fill="#bfbfbf" stroke="black" points="0,-0.5 0,-41.5 138,-41.5 138,-0.5 0,-0.5"/>
<text text-anchor="start" x="8" y="-29.5" font-family="FreeSans" font-size="10.00">SeeSawN::GeometryN</text>
<text text-anchor="start" x="8" y="-18.5" font-family="FreeSans" font-size="10.00">::PfMPipelineC::TrackTo3D2</text>
<text text-anchor="middle" x="69" y="-7.5" font-family="FreeSans" font-size="10.00">DCorrespondence</text>
</g>
<!-- Node232 -->
<g id="node2" class="node"><title>Node232</title>
<g id="a_node2"><a xlink:href="classSeeSawN_1_1GeometryN_1_1PfMPipelineC.html#abd715f3ca9b6449b302790ba72fbc72c" target="_top" xlink:title="Refines the estimates via the robust geometry estimation pipeline. ">
<polygon fill="white" stroke="black" points="174,-6 174,-36 329,-36 329,-6 174,-6"/>
<text text-anchor="start" x="182" y="-24" font-family="FreeSans" font-size="10.00">SeeSawN::GeometryN</text>
<text text-anchor="middle" x="251.5" y="-13" font-family="FreeSans" font-size="10.00">::PfMPipelineC::RefineEstimates</text>
</a>
</g>
</g>
<!-- Node231&#45;&gt;Node232 -->
<g id="edge1" class="edge"><title>Node231&#45;&gt;Node232</title>
<path fill="none" stroke="midnightblue" d="M148.391,-21C156.787,-21 165.321,-21 173.698,-21"/>
<polygon fill="midnightblue" stroke="midnightblue" points="148.239,-17.5001 138.239,-21 148.239,-24.5001 148.239,-17.5001"/>
</g>
<!-- Node233 -->
<g id="node3" class="node"><title>Node233</title>
<g id="a_node3"><a xlink:href="classSeeSawN_1_1GeometryN_1_1PfMPipelineC.html#aa435d8f0f4abec5cf35e3f525c407fb7" target="_top" xlink:title="Runs the algorithm. ">
<polygon fill="white" stroke="black" points="365,-6 365,-36 480,-36 480,-6 365,-6"/>
<text text-anchor="start" x="373" y="-24" font-family="FreeSans" font-size="10.00">SeeSawN::GeometryN</text>
<text text-anchor="middle" x="422.5" y="-13" font-family="FreeSans" font-size="10.00">::PfMPipelineC::Run</text>
</a>
</g>
</g>
<!-- Node232&#45;&gt;Node233 -->
<g id="edge2" class="edge"><title>Node232&#45;&gt;Node233</title>
<path fill="none" stroke="midnightblue" d="M339.287,-21C347.98,-21 356.642,-21 364.902,-21"/>
<polygon fill="midnightblue" stroke="midnightblue" points="339.088,-17.5001 329.088,-21 339.088,-24.5001 339.088,-17.5001"/>
</g>
<!-- Node234 -->
<g id="node4" class="node"><title>Node234</title>
<g id="a_node4"><a xlink:href="classSeeSawN_1_1AppPfMN_1_1AppPfMImplementationC.html#a907a06d88e1dc5911dedb8d3a8223780" target="_top" xlink:title="Runs the application. ">
<polygon fill="white" stroke="black" points="516,-6 516,-36 731,-36 731,-6 516,-6"/>
<text text-anchor="start" x="524" y="-24" font-family="FreeSans" font-size="10.00">SeeSawN::AppPfMN::AppPfMImplementation</text>
<text text-anchor="middle" x="623.5" y="-13" font-family="FreeSans" font-size="10.00">C::Run</text>
</a>
</g>
</g>
<!-- Node233&#45;&gt;Node234 -->
<g id="edge3" class="edge"><title>Node233&#45;&gt;Node234</title>
<path fill="none" stroke="midnightblue" d="M490.505,-21C498.75,-21 507.33,-21 515.981,-21"/>
<polygon fill="midnightblue" stroke="midnightblue" points="490.259,-17.5001 480.259,-21 490.259,-24.5001 490.259,-17.5001"/>
</g>
</g>
</svg>
        <g id="navigator" transform="translate(0 0)" fill="#404254">
                <rect fill="#f2f5e9" fill-opacity="0.5" stroke="#606060" stroke-width=".5" x="0" y="0" width="60" height="60"/>
                <use id="zoomplus" xlink:href="#zoomPlus" x="17" y="9" onmousedown="handleZoom(evt,'in')"/>
                <use id="zoomminus" xlink:href="#zoomMin" x="42" y="9" onmousedown="handleZoom(evt,'out')"/>
                <use id="reset" xlink:href="#resetDef" x="30" y="36" onmousedown="handleReset()"/>
                <g id="arrowUp" xlink:href="#dirArrow" transform="translate(30 24)" onmousedown="handlePan(0,-1)">
                  <use xlink:href="#rim" fill="#404040">
                        <set attributeName="fill" to="#808080" begin="arrowUp.mouseover" end="arrowUp.mouseout"/>
                  </use>
                  <path fill="none" stroke="white" stroke-width="1.5" d="M0,-3.0v7 M-2.5,-0.5L0,-3.0L2.5,-0.5"/>
                </g>
                <g id="arrowRight" xlink:href="#dirArrow" transform="rotate(90) translate(36 -43)" onmousedown="handlePan(1,0)">
                  <use xlink:href="#rim" fill="#404040">
                        <set attributeName="fill" to="#808080" begin="arrowRight.mouseover" end="arrowRight.mouseout"/>
                  </use>
                  <path fill="none" stroke="white" stroke-width="1.5" d="M0,-3.0v7 M-2.5,-0.5L0,-3.0L2.5,-0.5"/>
                </g>
                <g id="arrowDown" xlink:href="#dirArrow" transform="rotate(180) translate(-30 -48)" onmousedown="handlePan(0,1)">
                  <use xlink:href="#rim" fill="#404040">
                        <set attributeName="fill" to="#808080" begin="arrowDown.mouseover" end="arrowDown.mouseout"/>
                  </use>
                  <path fill="none" stroke="white" stroke-width="1.5" d="M0,-3.0v7 M-2.5,-0.5L0,-3.0L2.5,-0.5"/>
                </g>
                <g id="arrowLeft" xlink:href="#dirArrow" transform="rotate(270) translate(-36 17)" onmousedown="handlePan(-1,0)">
                  <use xlink:href="#rim" fill="#404040">
                        <set attributeName="fill" to="#808080" begin="arrowLeft.mouseover" end="arrowLeft.mouseout"/>
                  </use>
                  <path fill="none" stroke="white" stroke-width="1.5" d="M0,-3.0v7 M-2.5,-0.5L0,-3.0L2.5,-0.5"/>
                </g>
        </g>
        <svg viewBox="0 0 15 15" width="100%" height="30px" preserveAspectRatio="xMaxYMin meet">
         <g id="arrow_out" transform="scale(0.3 0.3)">
          <a xlink:href="classSeeSawN_1_1GeometryN_1_1PfMPipelineC_a8b629550e9d691cd424df1b5d429765e_icgraph_org.svg" target="_base">
           <rect id="button" ry="5" rx="5" y="6" x="6" height="38" width="38"
                fill="#f2f5e9" fill-opacity="0.5" stroke="#606060" stroke-width="1.0"/>
           <path id="arrow"
             d="M 11.500037,31.436501 C 11.940474,20.09759 22.043105,11.32322 32.158766,21.979434 L 37.068811,17.246167 C 37.068811,17.246167 37.088388,32 37.088388,32 L 22.160133,31.978069 C 22.160133,31.978069 26.997745,27.140456 26.997745,27.140456 C 18.528582,18.264221 13.291696,25.230495 11.500037,31.436501 z"
             style="fill:#404040;"/>
          </a>
         </g>
        </svg>
</svg>
