<?xml version="1.0" encoding="UTF-8" standalone="no"?>
<!DOCTYPE svg PUBLIC "-//W3C//DTD SVG 1.1//EN"
 "http://www.w3.org/Graphics/SVG/1.1/DTD/svg11.dtd">
<!-- Generated by graphviz version 2.38.0 (20140413.2041)
 -->
<!-- Title: SeeSawN::SynchronisationN::MulticameraSynchonisationC::Run Pages: 1 -->
<svg width="1298pt" height="1220pt"
 viewBox="0.00 0.00 1298.00 1219.82" xmlns="http://www.w3.org/2000/svg" xmlns:xlink="http://www.w3.org/1999/xlink">
<g id="graph0" class="graph" transform="scale(1 1) rotate(0) translate(4 1215.82)">
<title>SeeSawN::SynchronisationN::MulticameraSynchonisationC::Run</title>
<polygon fill="white" stroke="none" points="-4,4 -4,-1215.82 1294,-1215.82 1294,4 -4,4"/>
<!-- Node65 -->
<g id="node1" class="node"><title>Node65</title>
<polygon fill="#bfbfbf" stroke="black" points="0,-869.324 0,-910.324 148,-910.324 148,-869.324 0,-869.324"/>
<text text-anchor="start" x="8" y="-898.324" font-family="FreeSans" font-size="10.00">SeeSawN::Synchronisation</text>
<text text-anchor="start" x="8" y="-887.324" font-family="FreeSans" font-size="10.00">N::MulticameraSynchonisation</text>
<text text-anchor="middle" x="74" y="-876.324" font-family="FreeSans" font-size="10.00">C::Run</text>
</g>
<!-- Node66 -->
<g id="node2" class="node"><title>Node66</title>
<g id="a_node2"><a xlink:href="classSeeSawN_1_1SynchronisationN_1_1MulticameraSynchonisationC.html#a1da813d09b03f570f8257e5cc833dab0" target="_top" xlink:title="Fuses the pairwise frame drop measurements. ">
<polygon fill="white" stroke="black" points="190.5,-1096.32 190.5,-1137.32 338.5,-1137.32 338.5,-1096.32 190.5,-1096.32"/>
<text text-anchor="start" x="198.5" y="-1125.32" font-family="FreeSans" font-size="10.00">SeeSawN::Synchronisation</text>
<text text-anchor="start" x="198.5" y="-1114.32" font-family="FreeSans" font-size="10.00">N::MulticameraSynchonisation</text>
<text text-anchor="middle" x="264.5" y="-1103.32" font-family="FreeSans" font-size="10.00">C::IdentifyFrameDrops</text>
</a>
</g>
</g>
<!-- Node65&#45;&gt;Node66 -->
<g id="edge1" class="edge"><title>Node65&#45;&gt;Node66</title>
<path fill="none" stroke="midnightblue" d="M92.0606,-910.369C125.831,-951.037 201.253,-1041.86 239.812,-1088.3"/>
<polygon fill="midnightblue" stroke="midnightblue" points="237.261,-1090.7 246.342,-1096.16 242.646,-1086.23 237.261,-1090.7"/>
</g>
<!-- Node70 -->
<g id="node6" class="node"><title>Node70</title>
<g id="a_node6"><a xlink:href="classSeeSawN_1_1SynchronisationN_1_1MulticameraSynchonisationC.html#ab2c6d7d550a2c5520694ca2d08f48a7a" target="_top" xlink:title="Prepares the relative synchronisation tasks. ">
<polygon fill="white" stroke="black" points="190.5,-960.324 190.5,-1001.32 338.5,-1001.32 338.5,-960.324 190.5,-960.324"/>
<text text-anchor="start" x="198.5" y="-989.324" font-family="FreeSans" font-size="10.00">SeeSawN::Synchronisation</text>
<text text-anchor="start" x="198.5" y="-978.324" font-family="FreeSans" font-size="10.00">N::MulticameraSynchonisation</text>
<text text-anchor="middle" x="264.5" y="-967.324" font-family="FreeSans" font-size="10.00">C::MakeTasks</text>
</a>
</g>
</g>
<!-- Node65&#45;&gt;Node70 -->
<g id="edge6" class="edge"><title>Node65&#45;&gt;Node70</title>
<path fill="none" stroke="midnightblue" d="M111.884,-910.581C132.791,-922.059 159.578,-936.29 184,-947.824 189.992,-950.654 196.294,-953.494 202.618,-956.255"/>
<polygon fill="midnightblue" stroke="midnightblue" points="201.297,-959.497 211.866,-960.234 204.063,-953.067 201.297,-959.497"/>
</g>
<!-- Node76 -->
<g id="node12" class="node"><title>Node76</title>
<g id="a_node12"><a xlink:href="classSeeSawN_1_1SynchronisationN_1_1MulticameraSynchonisationC.html#a8f2830ab59a53fe1b8996f6402d18dfb" target="_top" xlink:title="Removes the cameras that cannot be synchronised wrt the reference camera (i.e. missing the necessary ...">
<polygon fill="white" stroke="black" points="190.5,-897.324 190.5,-938.324 338.5,-938.324 338.5,-897.324 190.5,-897.324"/>
<text text-anchor="start" x="198.5" y="-926.324" font-family="FreeSans" font-size="10.00">SeeSawN::Synchronisation</text>
<text text-anchor="start" x="198.5" y="-915.324" font-family="FreeSans" font-size="10.00">N::MulticameraSynchonisation</text>
<text text-anchor="middle" x="264.5" y="-904.324" font-family="FreeSans" font-size="10.00">C::RemoveUnconnected</text>
</a>
</g>
</g>
<!-- Node65&#45;&gt;Node76 -->
<g id="edge12" class="edge"><title>Node65&#45;&gt;Node76</title>
<path fill="none" stroke="midnightblue" d="M148.149,-900.69C158.658,-902.251 169.536,-903.867 180.223,-905.454"/>
<polygon fill="midnightblue" stroke="midnightblue" points="179.987,-908.957 190.392,-906.965 181.015,-902.033 179.987,-908.957"/>
</g>
<!-- Node77 -->
<g id="node13" class="node"><title>Node77</title>
<g id="a_node13"><a xlink:href="classSeeSawN_1_1SynchronisationN_1_1RelativeSynchronisationC.html#a23ad32056f941388856c20ffecca138b" target="_top" xlink:title="Runs the algorithm. ">
<polygon fill="white" stroke="black" points="184,-847.824 184,-877.824 345,-877.824 345,-847.824 184,-847.824"/>
<text text-anchor="start" x="192" y="-865.824" font-family="FreeSans" font-size="10.00">SeeSawN::Synchronisation</text>
<text text-anchor="middle" x="264.5" y="-854.824" font-family="FreeSans" font-size="10.00">N::RelativeSynchronisationC::Run</text>
</a>
</g>
</g>
<!-- Node65&#45;&gt;Node77 -->
<g id="edge13" class="edge"><title>Node65&#45;&gt;Node77</title>
<path fill="none" stroke="midnightblue" d="M148.149,-879.347C156.554,-878.143 165.195,-876.905 173.786,-875.675"/>
<polygon fill="midnightblue" stroke="midnightblue" points="174.428,-879.118 183.831,-874.236 173.435,-872.189 174.428,-879.118"/>
</g>
<!-- Node111 -->
<g id="node47" class="node"><title>Node111</title>
<g id="a_node47"><a xlink:href="classSeeSawN_1_1SynchronisationN_1_1MulticameraSynchonisationC.html#adbcfcad7c96d5b46f26a15a6811e5e66" target="_top" xlink:title="Computes the absolute synchronisation from the pairwise measurements. ">
<polygon fill="white" stroke="black" points="190.5,-547.324 190.5,-588.324 338.5,-588.324 338.5,-547.324 190.5,-547.324"/>
<text text-anchor="start" x="198.5" y="-576.324" font-family="FreeSans" font-size="10.00">SeeSawN::Synchronisation</text>
<text text-anchor="start" x="198.5" y="-565.324" font-family="FreeSans" font-size="10.00">N::MulticameraSynchonisation</text>
<text text-anchor="middle" x="264.5" y="-554.324" font-family="FreeSans" font-size="10.00">C::Synchronise</text>
</a>
</g>
</g>
<!-- Node65&#45;&gt;Node111 -->
<g id="edge63" class="edge"><title>Node65&#45;&gt;Node111</title>
<path fill="none" stroke="midnightblue" d="M87.0783,-869.192C119.452,-813.891 208.266,-662.176 246.082,-597.578"/>
<polygon fill="midnightblue" stroke="midnightblue" points="249.247,-599.1 251.278,-588.702 243.206,-595.563 249.247,-599.1"/>
</g>
<!-- Node118 -->
<g id="node54" class="node"><title>Node118</title>
<g id="a_node54"><a xlink:href="classSeeSawN_1_1SynchronisationN_1_1MulticameraSynchonisationC.html#a7d948ca0ada498666b48de20c1ff553b" target="_top" xlink:title="Validates the input parameters. ">
<polygon fill="white" stroke="black" points="190.5,-487.324 190.5,-528.324 338.5,-528.324 338.5,-487.324 190.5,-487.324"/>
<text text-anchor="start" x="198.5" y="-516.324" font-family="FreeSans" font-size="10.00">SeeSawN::Synchronisation</text>
<text text-anchor="start" x="198.5" y="-505.324" font-family="FreeSans" font-size="10.00">N::MulticameraSynchonisation</text>
<text text-anchor="middle" x="264.5" y="-494.324" font-family="FreeSans" font-size="10.00">C::ValidateParameters</text>
</a>
</g>
</g>
<!-- Node65&#45;&gt;Node118 -->
<g id="edge73" class="edge"><title>Node65&#45;&gt;Node118</title>
<path fill="none" stroke="midnightblue" d="M75.3744,-869.289C77.5621,-809.847 91.9222,-635.653 184,-537.824 185.043,-536.717 186.13,-535.649 187.258,-534.621"/>
<polygon fill="midnightblue" stroke="midnightblue" points="189.503,-537.309 195.218,-528.388 185.187,-531.797 189.503,-537.309"/>
</g>
<!-- Node67 -->
<g id="node3" class="node"><title>Node67</title>
<g id="a_node3"><a xlink:href="classSeeSawN_1_1SynchronisationN_1_1MulticameraSynchonisationC.html#a82b498c4f01bbb76a9cf36079c3618de" target="_top" xlink:title="Inserts a drop hypothesis at a time instant. ">
<polygon fill="white" stroke="black" points="616,-1145.32 616,-1186.32 764,-1186.32 764,-1145.32 616,-1145.32"/>
<text text-anchor="start" x="624" y="-1174.32" font-family="FreeSans" font-size="10.00">SeeSawN::Synchronisation</text>
<text text-anchor="start" x="624" y="-1163.32" font-family="FreeSans" font-size="10.00">N::MulticameraSynchonisation</text>
<text text-anchor="middle" x="690" y="-1152.32" font-family="FreeSans" font-size="10.00">C::InsertDropHypothesis</text>
</a>
</g>
</g>
<!-- Node66&#45;&gt;Node67 -->
<g id="edge2" class="edge"><title>Node66&#45;&gt;Node67</title>
<path fill="none" stroke="midnightblue" d="M338.785,-1125.3C413.099,-1133.9 527.932,-1147.19 605.665,-1156.18"/>
<polygon fill="midnightblue" stroke="midnightblue" points="605.568,-1159.69 615.904,-1157.37 606.373,-1152.74 605.568,-1159.69"/>
</g>
<!-- Node68 -->
<g id="node4" class="node"><title>Node68</title>
<g id="a_node4"><a xlink:href="classSeeSawN_1_1SynchronisationN_1_1MulticameraSynchonisationC.html#a70f20f49da3f1ea8447f671f529e127e" target="_top" xlink:title="Extracts the frame drop events from a timeline. ">
<polygon fill="white" stroke="black" points="404.5,-1072.32 404.5,-1113.32 552.5,-1113.32 552.5,-1072.32 404.5,-1072.32"/>
<text text-anchor="start" x="412.5" y="-1101.32" font-family="FreeSans" font-size="10.00">SeeSawN::Synchronisation</text>
<text text-anchor="start" x="412.5" y="-1090.32" font-family="FreeSans" font-size="10.00">N::MulticameraSynchonisation</text>
<text text-anchor="middle" x="478.5" y="-1079.32" font-family="FreeSans" font-size="10.00">C::ParseTimeline</text>
</a>
</g>
</g>
<!-- Node66&#45;&gt;Node68 -->
<g id="edge3" class="edge"><title>Node66&#45;&gt;Node68</title>
<path fill="none" stroke="midnightblue" d="M338.755,-1108.53C356.629,-1106.51 375.88,-1104.33 394.185,-1102.26"/>
<polygon fill="midnightblue" stroke="midnightblue" points="394.699,-1105.72 404.242,-1101.12 393.912,-1098.76 394.699,-1105.72"/>
</g>
<!-- Node69 -->
<g id="node5" class="node"><title>Node69</title>
<g id="a_node5"><a xlink:href="classSeeSawN_1_1SynchronisationN_1_1MulticameraSynchonisationC.html#a8b6ddcb1e677a1e1db9cff54d125afba" target="_top" xlink:title="Processes a drop list. ">
<polygon fill="white" stroke="black" points="404.5,-1170.32 404.5,-1211.32 552.5,-1211.32 552.5,-1170.32 404.5,-1170.32"/>
<text text-anchor="start" x="412.5" y="-1199.32" font-family="FreeSans" font-size="10.00">SeeSawN::Synchronisation</text>
<text text-anchor="start" x="412.5" y="-1188.32" font-family="FreeSans" font-size="10.00">N::MulticameraSynchonisation</text>
<text text-anchor="middle" x="478.5" y="-1177.32" font-family="FreeSans" font-size="10.00">C::ProcessDropList</text>
</a>
</g>
</g>
<!-- Node66&#45;&gt;Node69 -->
<g id="edge4" class="edge"><title>Node66&#45;&gt;Node69</title>
<path fill="none" stroke="midnightblue" d="M324.272,-1137.34C350.58,-1146.52 381.766,-1157.41 409.114,-1166.95"/>
<polygon fill="midnightblue" stroke="midnightblue" points="408.019,-1170.28 418.613,-1170.27 410.325,-1163.67 408.019,-1170.28"/>
</g>
<!-- Node69&#45;&gt;Node67 -->
<g id="edge5" class="edge"><title>Node69&#45;&gt;Node67</title>
<path fill="none" stroke="midnightblue" d="M552.773,-1182.08C569.837,-1180.04 588.13,-1177.86 605.596,-1175.78"/>
<polygon fill="midnightblue" stroke="midnightblue" points="606.254,-1179.22 615.768,-1174.56 605.424,-1172.27 606.254,-1179.22"/>
</g>
<!-- Node71 -->
<g id="node7" class="node"><title>Node71</title>
<g id="a_node7"><a xlink:href="group__Elements.html#ga55a635a974118036dd0778de74a63a82" target="_top" xlink:title="Decomposes a camera into its constituent elements. ">
<polygon fill="white" stroke="black" points="422,-1022.82 422,-1052.82 535,-1052.82 535,-1022.82 422,-1022.82"/>
<text text-anchor="start" x="430" y="-1040.82" font-family="FreeSans" font-size="10.00">SeeSawN::ElementsN</text>
<text text-anchor="middle" x="478.5" y="-1029.82" font-family="FreeSans" font-size="10.00">::DecomposeCamera</text>
</a>
</g>
</g>
<!-- Node70&#45;&gt;Node71 -->
<g id="edge7" class="edge"><title>Node70&#45;&gt;Node71</title>
<path fill="none" stroke="midnightblue" d="M338.77,-1001.32C352.778,-1005.19 367.333,-1009.16 381,-1012.82 391.008,-1015.51 401.612,-1018.3 411.987,-1021.01"/>
<polygon fill="midnightblue" stroke="midnightblue" points="411.277,-1024.44 421.836,-1023.57 413.04,-1017.67 411.277,-1024.44"/>
</g>
<!-- Node73 -->
<g id="node9" class="node"><title>Node73</title>
<g id="a_node9"><a xlink:href="classSeeSawN_1_1SynchronisationN_1_1MulticameraSynchonisationC.html#ab319cd130026fe6223a732b912d054d0" target="_top" xlink:title="Makes an initial relative synchronisation estimate. ">
<polygon fill="white" stroke="black" points="404,-722.324 404,-763.324 553,-763.324 553,-722.324 404,-722.324"/>
<text text-anchor="start" x="412" y="-751.324" font-family="FreeSans" font-size="10.00">SeeSawN::Synchronisation</text>
<text text-anchor="start" x="412" y="-740.324" font-family="FreeSans" font-size="10.00">N::MulticameraSynchonisation</text>
<text text-anchor="middle" x="478.5" y="-729.324" font-family="FreeSans" font-size="10.00">C::MakeRelativeInitialEstimate</text>
</a>
</g>
</g>
<!-- Node70&#45;&gt;Node73 -->
<g id="edge9" class="edge"><title>Node70&#45;&gt;Node73</title>
<path fill="none" stroke="midnightblue" d="M331.282,-960.091C336.409,-956.607 341.099,-952.549 345,-947.824 395.552,-886.588 327.684,-831.67 381,-772.824 385.075,-768.327 389.811,-764.497 394.955,-761.236"/>
<polygon fill="midnightblue" stroke="midnightblue" points="396.889,-764.166 403.951,-756.269 393.505,-758.038 396.889,-764.166"/>
</g>
<!-- Node75 -->
<g id="node11" class="node"><title>Node75</title>
<g id="a_node11"><a xlink:href="group__Utility.html#gaf507482302c08ea77f18b7a8081521e4" target="_top" xlink:title="Converts a rotation matrix to an axis&#45;angle vector. ">
<polygon fill="white" stroke="black" points="413,-962.324 413,-1003.32 544,-1003.32 544,-962.324 413,-962.324"/>
<text text-anchor="start" x="421" y="-991.324" font-family="FreeSans" font-size="10.00">SeeSawN::GeometryN</text>
<text text-anchor="start" x="421" y="-980.324" font-family="FreeSans" font-size="10.00">::RotationMatrixToRotation</text>
<text text-anchor="middle" x="478.5" y="-969.324" font-family="FreeSans" font-size="10.00">Vector</text>
</a>
</g>
</g>
<!-- Node70&#45;&gt;Node75 -->
<g id="edge11" class="edge"><title>Node70&#45;&gt;Node75</title>
<path fill="none" stroke="midnightblue" d="M338.755,-981.515C359.429,-981.71 381.945,-981.923 402.707,-982.119"/>
<polygon fill="midnightblue" stroke="midnightblue" points="402.71,-985.619 412.743,-982.213 402.776,-978.619 402.71,-985.619"/>
</g>
<!-- Node72 -->
<g id="node8" class="node"><title>Node72</title>
<g id="a_node8"><a xlink:href="namespaceSeeSawN_1_1NumericN.html#a1de61a43a6f9cc9d3040f3850008e202" target="_top" xlink:title="SeeSawN::NumericN::\lRQDecomposition33">
<polygon fill="white" stroke="black" points="633,-1022.82 633,-1052.82 747,-1052.82 747,-1022.82 633,-1022.82"/>
<text text-anchor="start" x="641" y="-1040.82" font-family="FreeSans" font-size="10.00">SeeSawN::NumericN::</text>
<text text-anchor="middle" x="690" y="-1029.82" font-family="FreeSans" font-size="10.00">RQDecomposition33</text>
</a>
</g>
</g>
<!-- Node71&#45;&gt;Node72 -->
<g id="edge8" class="edge"><title>Node71&#45;&gt;Node72</title>
<path fill="none" stroke="midnightblue" d="M535.092,-1037.82C561.975,-1037.82 594.444,-1037.82 622.617,-1037.82"/>
<polygon fill="midnightblue" stroke="midnightblue" points="622.784,-1041.32 632.784,-1037.82 622.784,-1034.32 622.784,-1041.32"/>
</g>
<!-- Node74 -->
<g id="node10" class="node"><title>Node74</title>
<g id="a_node10"><a xlink:href="classSeeSawN_1_1SynchronisationN_1_1MulticameraSynchonisationC.html#a9a815a2bf1a0cd5b241b9f209002a96a" target="_top" xlink:title="Computes the relative synchronisation between two sequences. ">
<polygon fill="white" stroke="black" points="612,-485.324 612,-526.324 768,-526.324 768,-485.324 612,-485.324"/>
<text text-anchor="start" x="620" y="-514.324" font-family="FreeSans" font-size="10.00">SeeSawN::Synchronisation</text>
<text text-anchor="start" x="620" y="-503.324" font-family="FreeSans" font-size="10.00">N::MulticameraSynchonisation</text>
<text text-anchor="middle" x="690" y="-492.324" font-family="FreeSans" font-size="10.00">C::MakeRelativeSynchronisation</text>
</a>
</g>
</g>
<!-- Node73&#45;&gt;Node74 -->
<g id="edge10" class="edge"><title>Node73&#45;&gt;Node74</title>
<path fill="none" stroke="midnightblue" d="M553.063,-729.393C561.68,-725.25 569.647,-719.852 576,-712.824 629.834,-653.273 560.286,-597.226 612,-535.824 612.739,-534.946 613.508,-534.094 614.303,-533.267"/>
<polygon fill="midnightblue" stroke="midnightblue" points="616.862,-535.679 622.102,-526.47 612.263,-530.401 616.862,-535.679"/>
</g>
<!-- Node78 -->
<g id="node14" class="node"><title>Node78</title>
<g id="a_node14"><a xlink:href="classSeeSawN_1_1SynchronisationN_1_1RelativeSynchronisationC.html#a546138326d0a58b08e20bc797b743049" target="_top" xlink:title="Validates the input parameters. ">
<polygon fill="white" stroke="black" points="408.5,-842.324 408.5,-883.324 548.5,-883.324 548.5,-842.324 408.5,-842.324"/>
<text text-anchor="start" x="416.5" y="-871.324" font-family="FreeSans" font-size="10.00">SeeSawN::Synchronisation</text>
<text text-anchor="start" x="416.5" y="-860.324" font-family="FreeSans" font-size="10.00">N::RelativeSynchronisationC</text>
<text text-anchor="middle" x="478.5" y="-849.324" font-family="FreeSans" font-size="10.00">::ValidateParameters</text>
</a>
</g>
</g>
<!-- Node77&#45;&gt;Node78 -->
<g id="edge14" class="edge"><title>Node77&#45;&gt;Node78</title>
<path fill="none" stroke="midnightblue" d="M345.044,-862.824C362.428,-862.824 380.827,-862.824 398.201,-862.824"/>
<polygon fill="midnightblue" stroke="midnightblue" points="398.298,-866.324 408.298,-862.824 398.298,-859.324 398.298,-866.324"/>
</g>
<!-- Node80 -->
<g id="node16" class="node"><title>Node80</title>
<g id="a_node16"><a xlink:href="classSeeSawN_1_1SynchronisationN_1_1RelativeSynchronisationC.html#a5bef63bba38b800f441eadc1ed40a536" target="_top" xlink:title="Runs the synchronisation pipeline. ">
<polygon fill="white" stroke="black" points="408.5,-782.324 408.5,-823.324 548.5,-823.324 548.5,-782.324 408.5,-782.324"/>
<text text-anchor="start" x="416.5" y="-811.324" font-family="FreeSans" font-size="10.00">SeeSawN::Synchronisation</text>
<text text-anchor="start" x="416.5" y="-800.324" font-family="FreeSans" font-size="10.00">N::RelativeSynchronisationC</text>
<text text-anchor="middle" x="478.5" y="-789.324" font-family="FreeSans" font-size="10.00">::Synchronise</text>
</a>
</g>
</g>
<!-- Node77&#45;&gt;Node80 -->
<g id="edge16" class="edge"><title>Node77&#45;&gt;Node80</title>
<path fill="none" stroke="midnightblue" d="M318.723,-847.761C342.865,-840.929 371.91,-832.708 398.521,-825.177"/>
<polygon fill="midnightblue" stroke="midnightblue" points="399.532,-828.528 408.201,-822.437 397.626,-821.793 399.532,-828.528"/>
</g>
<!-- Node110 -->
<g id="node46" class="node"><title>Node110</title>
<g id="a_node46"><a xlink:href="classSeeSawN_1_1SynchronisationN_1_1RelativeSynchronisationC.html#a6c3f7d1b295e15418dd85c645ebbf515" target="_top" xlink:title="Prepares a parameter object for the guided synchronisation pass. ">
<polygon fill="white" stroke="black" points="381,-902.324 381,-943.324 576,-943.324 576,-902.324 381,-902.324"/>
<text text-anchor="start" x="389" y="-931.324" font-family="FreeSans" font-size="10.00">SeeSawN::Synchronisation</text>
<text text-anchor="start" x="389" y="-920.324" font-family="FreeSans" font-size="10.00">N::RelativeSynchronisationC</text>
<text text-anchor="middle" x="478.5" y="-909.324" font-family="FreeSans" font-size="10.00">::MakeGuidedSynchronisationParameters</text>
</a>
</g>
</g>
<!-- Node77&#45;&gt;Node110 -->
<g id="edge60" class="edge"><title>Node77&#45;&gt;Node110</title>
<path fill="none" stroke="midnightblue" d="M318.723,-877.887C341.889,-884.444 369.569,-892.278 395.282,-899.555"/>
<polygon fill="midnightblue" stroke="midnightblue" points="394.451,-902.957 405.026,-902.313 396.357,-896.222 394.451,-902.957"/>
</g>
<!-- Node79 -->
<g id="node15" class="node"><title>Node79</title>
<g id="a_node15"><a xlink:href="classSeeSawN_1_1SynchronisationN_1_1RelativeSynchronisationC.html#a2769bc940b9af1132f9c6e469546a65e" target="_top" xlink:title="Identifies the admissible alpha values within an alpha range. ">
<polygon fill="white" stroke="black" points="620,-902.324 620,-943.324 760,-943.324 760,-902.324 620,-902.324"/>
<text text-anchor="start" x="628" y="-931.324" font-family="FreeSans" font-size="10.00">SeeSawN::Synchronisation</text>
<text text-anchor="start" x="628" y="-920.324" font-family="FreeSans" font-size="10.00">N::RelativeSynchronisationC</text>
<text text-anchor="middle" x="690" y="-909.324" font-family="FreeSans" font-size="10.00">::FilterAdmissibleAlpha</text>
</a>
</g>
</g>
<!-- Node78&#45;&gt;Node79 -->
<g id="edge15" class="edge"><title>Node78&#45;&gt;Node79</title>
<path fill="none" stroke="midnightblue" d="M548.679,-882.637C568.344,-888.269 589.908,-894.445 610.104,-900.229"/>
<polygon fill="midnightblue" stroke="midnightblue" points="609.317,-903.644 619.894,-903.033 611.244,-896.915 609.317,-903.644"/>
</g>
<!-- Node81 -->
<g id="node17" class="node"><title>Node81</title>
<g id="a_node17"><a xlink:href="classSeeSawN_1_1SynchronisationN_1_1RelativeSynchronisationC.html#a3fa3bd4acd2d99e2c353395777a1d43f" target="_top" xlink:title="Finds the corresponding indices between two image sequences. ">
<polygon fill="white" stroke="black" points="620,-782.324 620,-823.324 760,-823.324 760,-782.324 620,-782.324"/>
<text text-anchor="start" x="628" y="-811.324" font-family="FreeSans" font-size="10.00">SeeSawN::Synchronisation</text>
<text text-anchor="start" x="628" y="-800.324" font-family="FreeSans" font-size="10.00">N::RelativeSynchronisationC</text>
<text text-anchor="middle" x="690" y="-789.324" font-family="FreeSans" font-size="10.00">::FindIndexCorrespondences</text>
</a>
</g>
</g>
<!-- Node80&#45;&gt;Node81 -->
<g id="edge17" class="edge"><title>Node80&#45;&gt;Node81</title>
<path fill="none" stroke="midnightblue" d="M548.679,-802.824C568.255,-802.824 589.712,-802.824 609.828,-802.824"/>
<polygon fill="midnightblue" stroke="midnightblue" points="609.894,-806.324 619.894,-802.824 609.894,-799.324 609.894,-806.324"/>
</g>
<!-- Node85 -->
<g id="node21" class="node"><title>Node85</title>
<g id="a_node21"><a xlink:href="classSeeSawN_1_1SynchronisationN_1_1RelativeSynchronisationC.html#a424d9a80fcbf1ade64e4e3a846a50027" target="_top" xlink:title="Subframe refinement for the index correspondences. ">
<polygon fill="white" stroke="black" points="616.5,-722.324 616.5,-763.324 763.5,-763.324 763.5,-722.324 616.5,-722.324"/>
<text text-anchor="start" x="624.5" y="-751.324" font-family="FreeSans" font-size="10.00">SeeSawN::Synchronisation</text>
<text text-anchor="start" x="624.5" y="-740.324" font-family="FreeSans" font-size="10.00">N::RelativeSynchronisationC</text>
<text text-anchor="middle" x="690" y="-729.324" font-family="FreeSans" font-size="10.00">::RefineIndexCorrespondences</text>
</a>
</g>
</g>
<!-- Node80&#45;&gt;Node85 -->
<g id="edge21" class="edge"><title>Node80&#45;&gt;Node85</title>
<path fill="none" stroke="midnightblue" d="M548.679,-783.012C567.541,-777.61 588.15,-771.707 607.623,-766.13"/>
<polygon fill="midnightblue" stroke="midnightblue" points="608.732,-769.454 617.382,-763.336 606.804,-762.724 608.732,-769.454"/>
</g>
<!-- Node88 -->
<g id="node24" class="node"><title>Node88</title>
<g id="a_node24"><a xlink:href="classSeeSawN_1_1SynchronisationN_1_1RelativeSynchronisationC.html#ac56302099bffa3c1ed3d64776d714089" target="_top" xlink:title="Fits a broken line model to the correspondences. ">
<polygon fill="white" stroke="black" points="620,-545.324 620,-586.324 760,-586.324 760,-545.324 620,-545.324"/>
<text text-anchor="start" x="628" y="-574.324" font-family="FreeSans" font-size="10.00">SeeSawN::Synchronisation</text>
<text text-anchor="start" x="628" y="-563.324" font-family="FreeSans" font-size="10.00">N::RelativeSynchronisationC</text>
<text text-anchor="middle" x="690" y="-552.324" font-family="FreeSans" font-size="10.00">::FitBrokenLine</text>
</a>
</g>
</g>
<!-- Node80&#45;&gt;Node88 -->
<g id="edge24" class="edge"><title>Node80&#45;&gt;Node88</title>
<path fill="none" stroke="midnightblue" d="M548.759,-788.523C558.55,-784.513 567.992,-779.383 576,-772.824 583.673,-766.54 644.482,-651.152 673.583,-595.443"/>
<polygon fill="midnightblue" stroke="midnightblue" points="676.775,-596.89 678.299,-586.406 670.57,-593.652 676.775,-596.89"/>
</g>
<!-- Node105 -->
<g id="node41" class="node"><title>Node105</title>
<g id="a_node41"><a xlink:href="classSeeSawN_1_1SynchronisationN_1_1RelativeSynchronisationC.html#a7dde315873d029d2771d3d5524a0cf43" target="_top" xlink:title="Computes the frame drop events corresponding to the gaps between the sections. ">
<polygon fill="white" stroke="black" points="620,-842.324 620,-883.324 760,-883.324 760,-842.324 620,-842.324"/>
<text text-anchor="start" x="628" y="-871.324" font-family="FreeSans" font-size="10.00">SeeSawN::Synchronisation</text>
<text text-anchor="start" x="628" y="-860.324" font-family="FreeSans" font-size="10.00">N::RelativeSynchronisationC</text>
<text text-anchor="middle" x="690" y="-849.324" font-family="FreeSans" font-size="10.00">::MakeFrameDrop</text>
</a>
</g>
</g>
<!-- Node80&#45;&gt;Node105 -->
<g id="edge54" class="edge"><title>Node80&#45;&gt;Node105</title>
<path fill="none" stroke="midnightblue" d="M548.679,-822.637C568.344,-828.269 589.908,-834.445 610.104,-840.229"/>
<polygon fill="midnightblue" stroke="midnightblue" points="609.317,-843.644 619.894,-843.033 611.244,-836.915 609.317,-843.644"/>
</g>
<!-- Node108 -->
<g id="node44" class="node"><title>Node108</title>
<g id="a_node44"><a xlink:href="classSeeSawN_1_1SynchronisationN_1_1RelativeSynchronisationC.html#acc13210bbe97d5d429cccb833f49aee2" target="_top" xlink:title="Builds the output structure. ">
<polygon fill="white" stroke="black" points="620,-106.324 620,-147.324 760,-147.324 760,-106.324 620,-106.324"/>
<text text-anchor="start" x="628" y="-135.324" font-family="FreeSans" font-size="10.00">SeeSawN::Synchronisation</text>
<text text-anchor="start" x="628" y="-124.324" font-family="FreeSans" font-size="10.00">N::RelativeSynchronisationC</text>
<text text-anchor="middle" x="690" y="-113.324" font-family="FreeSans" font-size="10.00">::MakeResult</text>
</a>
</g>
</g>
<!-- Node80&#45;&gt;Node108 -->
<g id="edge57" class="edge"><title>Node80&#45;&gt;Node108</title>
<path fill="none" stroke="midnightblue" d="M548.788,-792.065C559.183,-787.635 568.809,-781.448 576,-772.824 618.575,-721.762 600.825,-541.362 612,-475.824 632.218,-357.25 665.971,-218.125 681.166,-157.571"/>
<polygon fill="midnightblue" stroke="midnightblue" points="684.645,-158.087 683.695,-147.535 677.857,-156.377 684.645,-158.087"/>
</g>
<!-- Node82 -->
<g id="node18" class="node"><title>Node82</title>
<g id="a_node18"><a xlink:href="classSeeSawN_1_1StateEstimationN_1_1ViterbiC.html#aabda890c9ac0d5562532f47df8b3b49b" target="_top" xlink:title="Updates the trellis graph. ">
<polygon fill="white" stroke="black" points="817.5,-831.824 817.5,-861.824 951.5,-861.824 951.5,-831.824 817.5,-831.824"/>
<text text-anchor="start" x="825.5" y="-849.824" font-family="FreeSans" font-size="10.00">SeeSawN::StateEstimation</text>
<text text-anchor="middle" x="884.5" y="-838.824" font-family="FreeSans" font-size="10.00">N::ViterbiC::Update</text>
</a>
</g>
</g>
<!-- Node81&#45;&gt;Node82 -->
<g id="edge18" class="edge"><title>Node81&#45;&gt;Node82</title>
<path fill="none" stroke="midnightblue" d="M760.225,-818.647C775.61,-822.164 791.998,-825.91 807.633,-829.483"/>
<polygon fill="midnightblue" stroke="midnightblue" points="807.253,-832.987 817.781,-831.803 808.813,-826.163 807.253,-832.987"/>
</g>
<!-- Node84 -->
<g id="node20" class="node"><title>Node84</title>
<g id="a_node20"><a xlink:href="classSeeSawN_1_1StateEstimationN_1_1ViterbiC.html#af9c85a9f29bb471c29381d1323ea8787" target="_top" xlink:title="Returns the optimal path through the trellis graph. ">
<polygon fill="white" stroke="black" points="804,-782.824 804,-812.824 965,-812.824 965,-782.824 804,-782.824"/>
<text text-anchor="start" x="812" y="-800.824" font-family="FreeSans" font-size="10.00">SeeSawN::StateEstimation</text>
<text text-anchor="middle" x="884.5" y="-789.824" font-family="FreeSans" font-size="10.00">N::ViterbiC::GetOptimalSequence</text>
</a>
</g>
</g>
<!-- Node81&#45;&gt;Node84 -->
<g id="edge20" class="edge"><title>Node81&#45;&gt;Node84</title>
<path fill="none" stroke="midnightblue" d="M760.225,-801.026C771.036,-800.745 782.342,-800.452 793.534,-800.161"/>
<polygon fill="midnightblue" stroke="midnightblue" points="793.857,-803.654 803.763,-799.895 793.675,-796.656 793.857,-803.654"/>
</g>
<!-- Node83 -->
<g id="node19" class="node"><title>Node83</title>
<g id="a_node19"><a xlink:href="group__Utility.html#ga0071e19dfa074968b55b118bf8451c9b" target="_top" xlink:title="Makes a binary zip iterator range. ">
<polygon fill="white" stroke="black" points="1014,-831.824 1014,-861.824 1128,-861.824 1128,-831.824 1014,-831.824"/>
<text text-anchor="start" x="1022" y="-849.824" font-family="FreeSans" font-size="10.00">SeeSawN::WrappersN</text>
<text text-anchor="middle" x="1071" y="-838.824" font-family="FreeSans" font-size="10.00">::MakeBinaryZipRange</text>
</a>
</g>
</g>
<!-- Node82&#45;&gt;Node83 -->
<g id="edge19" class="edge"><title>Node82&#45;&gt;Node83</title>
<path fill="none" stroke="midnightblue" d="M951.588,-846.824C968.456,-846.824 986.597,-846.824 1003.49,-846.824"/>
<polygon fill="midnightblue" stroke="midnightblue" points="1003.82,-850.324 1013.82,-846.824 1003.82,-843.324 1003.82,-850.324"/>
</g>
<!-- Node86 -->
<g id="node22" class="node"><title>Node86</title>
<g id="a_node22"><a xlink:href="group__Elements.html#gad85aaab9f5c68f68c91a98c5da0364fe" target="_top" xlink:title="Computes the fundamental matrix corresponding to a camera pair. ">
<polygon fill="white" stroke="black" points="823.5,-733.824 823.5,-763.824 945.5,-763.824 945.5,-733.824 823.5,-733.824"/>
<text text-anchor="start" x="831.5" y="-751.824" font-family="FreeSans" font-size="10.00">SeeSawN::ElementsN</text>
<text text-anchor="middle" x="884.5" y="-740.824" font-family="FreeSans" font-size="10.00">::CameraToFundamental</text>
</a>
</g>
</g>
<!-- Node85&#45;&gt;Node86 -->
<g id="edge22" class="edge"><title>Node85&#45;&gt;Node86</title>
<path fill="none" stroke="midnightblue" d="M763.502,-745.084C779.676,-745.588 796.804,-746.122 812.9,-746.624"/>
<polygon fill="midnightblue" stroke="midnightblue" points="813.204,-750.135 823.308,-746.948 813.422,-743.138 813.204,-750.135"/>
</g>
<!-- Node87 -->
<g id="node23" class="node"><title>Node87</title>
<g id="a_node23"><a xlink:href="namespaceSeeSawN_1_1WrappersN.html#a7a58341e8f21a5c2a3a8d55453ec473d" target="_top" xlink:title="SeeSawN::WrappersN\l::MakeCrossProductMatrix">
<polygon fill="white" stroke="black" points="1005.5,-733.824 1005.5,-763.824 1136.5,-763.824 1136.5,-733.824 1005.5,-733.824"/>
<text text-anchor="start" x="1013.5" y="-751.824" font-family="FreeSans" font-size="10.00">SeeSawN::WrappersN</text>
<text text-anchor="middle" x="1071" y="-740.824" font-family="FreeSans" font-size="10.00">::MakeCrossProductMatrix</text>
</a>
</g>
</g>
<!-- Node86&#45;&gt;Node87 -->
<g id="edge23" class="edge"><title>Node86&#45;&gt;Node87</title>
<path fill="none" stroke="midnightblue" d="M945.657,-748.824C961.506,-748.824 978.799,-748.824 995.313,-748.824"/>
<polygon fill="midnightblue" stroke="midnightblue" points="995.474,-752.324 1005.47,-748.824 995.474,-745.324 995.474,-752.324"/>
</g>
<!-- Node89 -->
<g id="node25" class="node"><title>Node89</title>
<g id="a_node25"><a xlink:href="classSeeSawN_1_1SynchronisationN_1_1RelativeSynchronisationC.html#a5b78e780d6de340ab6cf99fc1d2dd281" target="_top" xlink:title="Computes the main segment for unconstrained alpha. ">
<polygon fill="white" stroke="black" points="814.5,-259.324 814.5,-300.324 954.5,-300.324 954.5,-259.324 814.5,-259.324"/>
<text text-anchor="start" x="822.5" y="-288.324" font-family="FreeSans" font-size="10.00">SeeSawN::Synchronisation</text>
<text text-anchor="start" x="822.5" y="-277.324" font-family="FreeSans" font-size="10.00">N::RelativeSynchronisationC</text>
<text text-anchor="middle" x="884.5" y="-266.324" font-family="FreeSans" font-size="10.00">::IdentifyMainSegment</text>
</a>
</g>
</g>
<!-- Node88&#45;&gt;Node89 -->
<g id="edge25" class="edge"><title>Node88&#45;&gt;Node89</title>
<path fill="none" stroke="midnightblue" d="M758.072,-545.322C761.754,-542.547 765.118,-539.398 768,-535.824 831.846,-456.649 739.732,-388.658 804,-309.824 804.839,-308.795 805.717,-307.801 806.631,-306.842"/>
<polygon fill="midnightblue" stroke="midnightblue" points="809.066,-309.361 814.267,-300.131 804.445,-304.103 809.066,-309.361"/>
</g>
<!-- Node92 -->
<g id="node28" class="node"><title>Node92</title>
<g id="a_node28"><a xlink:href="namespaceSeeSawN_1_1ElementsN.html#ac10066d6886463ab6a21874fbe976832" target="_top" xlink:title="Returns the parameters of the line y=ax+b. ">
<polygon fill="white" stroke="black" points="1177,-574.824 1177,-604.824 1290,-604.824 1290,-574.824 1177,-574.824"/>
<text text-anchor="start" x="1185" y="-592.824" font-family="FreeSans" font-size="10.00">SeeSawN::ElementsN</text>
<text text-anchor="middle" x="1233.5" y="-581.824" font-family="FreeSans" font-size="10.00">::DecomposeLine2D</text>
</a>
</g>
</g>
<!-- Node88&#45;&gt;Node92 -->
<g id="edge34" class="edge"><title>Node88&#45;&gt;Node92</title>
<path fill="none" stroke="midnightblue" d="M723.14,-586.329C745.234,-599.77 775.599,-616.98 804,-628.824 888.124,-663.909 910.755,-673.031 1001,-685.824 1062.61,-694.558 1083.8,-710.324 1141,-685.824 1175.01,-671.258 1202.37,-637.161 1218.03,-613.786"/>
<polygon fill="midnightblue" stroke="midnightblue" points="1221.15,-615.413 1223.64,-605.115 1215.27,-611.612 1221.15,-615.413"/>
</g>
<!-- Node96 -->
<g id="node32" class="node"><title>Node96</title>
<g id="a_node32"><a xlink:href="classSeeSawN_1_1SynchronisationN_1_1RelativeSynchronisationC.html#a86193d199a32082650551127b3355922" target="_top" xlink:title="Fits a line to a set of inliers. ">
<polygon fill="white" stroke="black" points="1001,-149.324 1001,-190.324 1141,-190.324 1141,-149.324 1001,-149.324"/>
<text text-anchor="start" x="1009" y="-178.324" font-family="FreeSans" font-size="10.00">SeeSawN::Synchronisation</text>
<text text-anchor="start" x="1009" y="-167.324" font-family="FreeSans" font-size="10.00">N::RelativeSynchronisationC</text>
<text text-anchor="middle" x="1071" y="-156.324" font-family="FreeSans" font-size="10.00">::FitLine</text>
</a>
</g>
</g>
<!-- Node88&#45;&gt;Node96 -->
<g id="edge32" class="edge"><title>Node88&#45;&gt;Node96</title>
<path fill="none" stroke="midnightblue" d="M758.549,-545.166C762.064,-542.43 765.265,-539.332 768,-535.824 846.776,-434.792 718.363,-345.111 804,-249.824 853.145,-195.142 895.327,-235.301 965,-211.824 981.592,-206.233 984.801,-202.47 1001,-195.824 1002.37,-195.263 1003.76,-194.698 1005.16,-194.133"/>
<polygon fill="midnightblue" stroke="midnightblue" points="1006.53,-197.353 1014.53,-190.405 1003.94,-190.849 1006.53,-197.353"/>
</g>
<!-- Node97 -->
<g id="node33" class="node"><title>Node97</title>
<g id="a_node33"><a xlink:href="classSeeSawN_1_1SynchronisationN_1_1RelativeSynchronisationC.html#a844c77ebd2712ae8121f27c5ba51ded8" target="_top" xlink:title="Exhaustively instantiates and ranks all feasible line segments implied by the index correspondences...">
<polygon fill="white" stroke="black" points="814.5,-319.324 814.5,-360.324 954.5,-360.324 954.5,-319.324 814.5,-319.324"/>
<text text-anchor="start" x="822.5" y="-348.324" font-family="FreeSans" font-size="10.00">SeeSawN::Synchronisation</text>
<text text-anchor="start" x="822.5" y="-337.324" font-family="FreeSans" font-size="10.00">N::RelativeSynchronisationC</text>
<text text-anchor="middle" x="884.5" y="-326.324" font-family="FreeSans" font-size="10.00">::ComputeLineSegments</text>
</a>
</g>
</g>
<!-- Node88&#45;&gt;Node97 -->
<g id="edge35" class="edge"><title>Node88&#45;&gt;Node97</title>
<path fill="none" stroke="midnightblue" d="M756.712,-545.255C760.819,-542.491 764.643,-539.363 768,-535.824 803.116,-498.814 778.222,-470.851 804,-426.824 816.91,-404.776 836.141,-383.536 852.455,-367.563"/>
<polygon fill="midnightblue" stroke="midnightblue" points="854.913,-370.056 859.713,-360.611 850.07,-365.001 854.913,-370.056"/>
</g>
<!-- Node98 -->
<g id="node34" class="node"><title>Node98</title>
<g id="a_node34"><a xlink:href="classSeeSawN_1_1SynchronisationN_1_1RelativeSynchronisationC.html#adbfbf357be95d6b3d71854c54aaca022" target="_top" xlink:title="Fits a line to a set of inliers, with known slope. ">
<polygon fill="white" stroke="black" points="814.5,-161.324 814.5,-202.324 954.5,-202.324 954.5,-161.324 814.5,-161.324"/>
<text text-anchor="start" x="822.5" y="-190.324" font-family="FreeSans" font-size="10.00">SeeSawN::Synchronisation</text>
<text text-anchor="start" x="822.5" y="-179.324" font-family="FreeSans" font-size="10.00">N::RelativeSynchronisationC</text>
<text text-anchor="middle" x="884.5" y="-168.324" font-family="FreeSans" font-size="10.00">::FitOffset</text>
</a>
</g>
</g>
<!-- Node88&#45;&gt;Node98 -->
<g id="edge40" class="edge"><title>Node88&#45;&gt;Node98</title>
<path fill="none" stroke="midnightblue" d="M758.601,-545.206C762.103,-542.46 765.288,-539.349 768,-535.824 855.007,-422.746 719.455,-331.755 804,-216.824 806.055,-214.03 808.383,-211.456 810.918,-209.084"/>
<polygon fill="midnightblue" stroke="midnightblue" points="813.452,-211.539 819.076,-202.56 809.08,-206.072 813.452,-211.539"/>
</g>
<!-- Node99 -->
<g id="node35" class="node"><title>Node99</title>
<g id="a_node35"><a xlink:href="classSeeSawN_1_1SynchronisationN_1_1RelativeSynchronisationC.html#a99e15c4f24cbb6b10ce19c55e6ec9fac" target="_top" xlink:title="Converts an indicator array to a membership list. ">
<polygon fill="white" stroke="black" points="1001,-635.324 1001,-676.324 1141,-676.324 1141,-635.324 1001,-635.324"/>
<text text-anchor="start" x="1009" y="-664.324" font-family="FreeSans" font-size="10.00">SeeSawN::Synchronisation</text>
<text text-anchor="start" x="1009" y="-653.324" font-family="FreeSans" font-size="10.00">N::RelativeSynchronisationC</text>
<text text-anchor="middle" x="1071" y="-642.324" font-family="FreeSans" font-size="10.00">::MakeMembership</text>
</a>
</g>
</g>
<!-- Node88&#45;&gt;Node99 -->
<g id="edge42" class="edge"><title>Node88&#45;&gt;Node99</title>
<path fill="none" stroke="midnightblue" d="M760.216,-584.641C774.659,-588.444 789.807,-592.341 804,-595.824 866.629,-611.196 937.923,-627.197 990.927,-638.806"/>
<polygon fill="midnightblue" stroke="midnightblue" points="990.424,-642.278 1000.94,-640.994 991.918,-635.44 990.424,-642.278"/>
</g>
<!-- Node100 -->
<g id="node36" class="node"><title>Node100</title>
<g id="a_node36"><a xlink:href="classSeeSawN_1_1SynchronisationN_1_1RelativeSynchronisationC.html#a162e0309d0a7095f8587f414d496423a" target="_top" xlink:title="Identifies the dominant segments in the set. ">
<polygon fill="white" stroke="black" points="814.5,-436.324 814.5,-477.324 954.5,-477.324 954.5,-436.324 814.5,-436.324"/>
<text text-anchor="start" x="822.5" y="-465.324" font-family="FreeSans" font-size="10.00">SeeSawN::Synchronisation</text>
<text text-anchor="start" x="822.5" y="-454.324" font-family="FreeSans" font-size="10.00">N::RelativeSynchronisationC</text>
<text text-anchor="middle" x="884.5" y="-443.324" font-family="FreeSans" font-size="10.00">::IdentifyDominantSegments</text>
</a>
</g>
</g>
<!-- Node88&#45;&gt;Node100 -->
<g id="edge43" class="edge"><title>Node88&#45;&gt;Node100</title>
<path fill="none" stroke="midnightblue" d="M748.012,-545.316C754.853,-542.358 761.656,-539.173 768,-535.824 796.576,-520.74 826.636,-500.004 848.925,-483.562"/>
<polygon fill="midnightblue" stroke="midnightblue" points="851.142,-486.274 857.067,-477.491 846.958,-480.662 851.142,-486.274"/>
</g>
<!-- Node102 -->
<g id="node38" class="node"><title>Node102</title>
<g id="a_node38"><a xlink:href="classSeeSawN_1_1SynchronisationN_1_1RelativeSynchronisationC.html#a9a884c070d18b4c348c164484e5e5ef0" target="_top" xlink:title="Assigns the correspondences to the line segments mutually independent intervals. ">
<polygon fill="white" stroke="black" points="814.5,-545.324 814.5,-586.324 954.5,-586.324 954.5,-545.324 814.5,-545.324"/>
<text text-anchor="start" x="822.5" y="-574.324" font-family="FreeSans" font-size="10.00">SeeSawN::Synchronisation</text>
<text text-anchor="start" x="822.5" y="-563.324" font-family="FreeSans" font-size="10.00">N::RelativeSynchronisationC</text>
<text text-anchor="middle" x="884.5" y="-552.324" font-family="FreeSans" font-size="10.00">::AssignCorrespondences</text>
</a>
</g>
</g>
<!-- Node88&#45;&gt;Node102 -->
<g id="edge49" class="edge"><title>Node88&#45;&gt;Node102</title>
<path fill="none" stroke="midnightblue" d="M760.225,-565.824C774.5,-565.824 789.639,-565.824 804.238,-565.824"/>
<polygon fill="midnightblue" stroke="midnightblue" points="804.243,-569.324 814.243,-565.824 804.243,-562.324 804.243,-569.324"/>
</g>
<!-- Node90 -->
<g id="node26" class="node"><title>Node90</title>
<g id="a_node26"><a xlink:href="namespaceSeeSawN_1_1ElementsN.html#a61c91c6da3bdc67a2a7ea9a2b723eae1" target="_top" xlink:title="Makes the line ax+by+c from the coefficients. ">
<polygon fill="white" stroke="black" points="1177,-154.824 1177,-184.824 1290,-184.824 1290,-154.824 1177,-154.824"/>
<text text-anchor="start" x="1185" y="-172.824" font-family="FreeSans" font-size="10.00">SeeSawN::ElementsN</text>
<text text-anchor="middle" x="1233.5" y="-161.824" font-family="FreeSans" font-size="10.00">::MakeLine2D</text>
</a>
</g>
</g>
<!-- Node89&#45;&gt;Node90 -->
<g id="edge26" class="edge"><title>Node89&#45;&gt;Node90</title>
<path fill="none" stroke="midnightblue" d="M939.238,-259.225C958.587,-252.089 980.66,-244.27 1001,-237.824 1062.46,-218.346 1079.24,-218.318 1141,-199.824 1153.13,-196.192 1166.09,-192.082 1178.34,-188.096"/>
<polygon fill="midnightblue" stroke="midnightblue" points="1179.56,-191.379 1187.97,-184.937 1177.38,-184.728 1179.56,-191.379"/>
</g>
<!-- Node91 -->
<g id="node27" class="node"><title>Node91</title>
<g id="a_node27"><a xlink:href="classSeeSawN_1_1SynchronisationN_1_1RelativeSynchronisationC.html#ae46bed28639a0977e5f00f8bd399f60d" target="_top" xlink:title="Validates a line. ">
<polygon fill="white" stroke="black" points="1001,-247.324 1001,-288.324 1141,-288.324 1141,-247.324 1001,-247.324"/>
<text text-anchor="start" x="1009" y="-276.324" font-family="FreeSans" font-size="10.00">SeeSawN::Synchronisation</text>
<text text-anchor="start" x="1009" y="-265.324" font-family="FreeSans" font-size="10.00">N::RelativeSynchronisationC</text>
<text text-anchor="middle" x="1071" y="-254.324" font-family="FreeSans" font-size="10.00">::ValidateLine</text>
</a>
</g>
</g>
<!-- Node89&#45;&gt;Node91 -->
<g id="edge27" class="edge"><title>Node89&#45;&gt;Node91</title>
<path fill="none" stroke="midnightblue" d="M954.726,-275.322C966.549,-274.553 978.911,-273.749 990.965,-272.965"/>
<polygon fill="midnightblue" stroke="midnightblue" points="991.248,-276.454 1001,-272.312 990.794,-269.469 991.248,-276.454"/>
</g>
<!-- Node93 -->
<g id="node29" class="node"><title>Node93</title>
<g id="a_node29"><a xlink:href="classSeeSawN_1_1SynchronisationN_1_1RelativeSynchronisationC.html#abd6f1dcc110f9d949fd323fa7350e772" target="_top" xlink:title="Evaluates a line. ">
<polygon fill="white" stroke="black" points="1001,-307.324 1001,-348.324 1141,-348.324 1141,-307.324 1001,-307.324"/>
<text text-anchor="start" x="1009" y="-336.324" font-family="FreeSans" font-size="10.00">SeeSawN::Synchronisation</text>
<text text-anchor="start" x="1009" y="-325.324" font-family="FreeSans" font-size="10.00">N::RelativeSynchronisationC</text>
<text text-anchor="middle" x="1071" y="-314.324" font-family="FreeSans" font-size="10.00">::EvaluateLine</text>
</a>
</g>
</g>
<!-- Node89&#45;&gt;Node93 -->
<g id="edge29" class="edge"><title>Node89&#45;&gt;Node93</title>
<path fill="none" stroke="midnightblue" d="M954.726,-297.834C966.549,-300.91 978.911,-304.126 990.965,-307.262"/>
<polygon fill="midnightblue" stroke="midnightblue" points="990.441,-310.742 1001,-309.873 992.203,-303.968 990.441,-310.742"/>
</g>
<!-- Node94 -->
<g id="node30" class="node"><title>Node94</title>
<g id="a_node30"><a xlink:href="classboost_1_1dynamic__bitset.html#af33290ad2afc70ea785b49c87d801c92" target="_top" xlink:title="boost::dynamic_bitset\l::count">
<polygon fill="white" stroke="black" points="1016,-405.824 1016,-435.824 1126,-435.824 1126,-405.824 1016,-405.824"/>
<text text-anchor="start" x="1024" y="-423.824" font-family="FreeSans" font-size="10.00">boost::dynamic_bitset</text>
<text text-anchor="middle" x="1071" y="-412.824" font-family="FreeSans" font-size="10.00">::count</text>
</a>
</g>
</g>
<!-- Node89&#45;&gt;Node94 -->
<g id="edge30" class="edge"><title>Node89&#45;&gt;Node94</title>
<path fill="none" stroke="midnightblue" d="M950.11,-300.501C955.355,-303.271 960.399,-306.37 965,-309.824 986.324,-325.836 983.075,-338.081 1001,-357.824 1014.18,-372.345 1030.3,-387.202 1043.65,-398.84"/>
<polygon fill="midnightblue" stroke="midnightblue" points="1041.68,-401.767 1051.55,-405.637 1046.25,-396.461 1041.68,-401.767"/>
</g>
<!-- Node91&#45;&gt;Node92 -->
<g id="edge28" class="edge"><title>Node91&#45;&gt;Node92</title>
<path fill="none" stroke="midnightblue" d="M1130.9,-288.48C1134.62,-291.228 1138.05,-294.329 1141,-297.824 1184.35,-349.252 1156.94,-380.622 1177,-444.824 1190.46,-487.902 1210.06,-536.659 1222,-565.237"/>
<polygon fill="midnightblue" stroke="midnightblue" points="1218.92,-566.948 1226.03,-574.805 1225.38,-564.231 1218.92,-566.948"/>
</g>
<!-- Node95 -->
<g id="node31" class="node"><title>Node95</title>
<g id="a_node31"><a xlink:href="classboost_1_1dynamic__bitset.html#adfa9723501c60abf84b9e801d3cf4d1f" target="_top" xlink:title="boost::dynamic_bitset\l::num_blocks">
<polygon fill="white" stroke="black" points="1178.5,-405.824 1178.5,-435.824 1288.5,-435.824 1288.5,-405.824 1178.5,-405.824"/>
<text text-anchor="start" x="1186.5" y="-423.824" font-family="FreeSans" font-size="10.00">boost::dynamic_bitset</text>
<text text-anchor="middle" x="1233.5" y="-412.824" font-family="FreeSans" font-size="10.00">::num_blocks</text>
</a>
</g>
</g>
<!-- Node94&#45;&gt;Node95 -->
<g id="edge31" class="edge"><title>Node94&#45;&gt;Node95</title>
<path fill="none" stroke="midnightblue" d="M1126.34,-420.824C1139.88,-420.824 1154.52,-420.824 1168.47,-420.824"/>
<polygon fill="midnightblue" stroke="midnightblue" points="1168.49,-424.324 1178.49,-420.824 1168.49,-417.324 1168.49,-424.324"/>
</g>
<!-- Node96&#45;&gt;Node90 -->
<g id="edge33" class="edge"><title>Node96&#45;&gt;Node90</title>
<path fill="none" stroke="midnightblue" d="M1141.46,-169.824C1149.9,-169.824 1158.49,-169.824 1166.87,-169.824"/>
<polygon fill="midnightblue" stroke="midnightblue" points="1166.95,-173.324 1176.95,-169.824 1166.95,-166.324 1166.95,-173.324"/>
</g>
<!-- Node97&#45;&gt;Node90 -->
<g id="edge36" class="edge"><title>Node97&#45;&gt;Node90</title>
<path fill="none" stroke="midnightblue" d="M937.576,-360.359C992.502,-378.398 1079.45,-396.319 1141,-357.824 1198.75,-321.702 1221,-237.512 1228.77,-195.139"/>
<polygon fill="midnightblue" stroke="midnightblue" points="1232.25,-195.529 1230.48,-185.083 1225.35,-194.354 1232.25,-195.529"/>
</g>
<!-- Node97&#45;&gt;Node91 -->
<g id="edge37" class="edge"><title>Node97&#45;&gt;Node91</title>
<path fill="none" stroke="midnightblue" d="M940.294,-319.309C948.583,-316.159 957.025,-312.924 965,-309.824 979.486,-304.194 995.053,-298.03 1009.65,-292.201"/>
<polygon fill="midnightblue" stroke="midnightblue" points="1011.09,-295.392 1019.08,-288.427 1008.49,-288.893 1011.09,-295.392"/>
</g>
<!-- Node97&#45;&gt;Node93 -->
<g id="edge38" class="edge"><title>Node97&#45;&gt;Node93</title>
<path fill="none" stroke="midnightblue" d="M954.726,-335.322C966.549,-334.553 978.911,-333.749 990.965,-332.965"/>
<polygon fill="midnightblue" stroke="midnightblue" points="991.248,-336.454 1001,-332.312 990.794,-329.469 991.248,-336.454"/>
</g>
<!-- Node97&#45;&gt;Node94 -->
<g id="edge39" class="edge"><title>Node97&#45;&gt;Node94</title>
<path fill="none" stroke="midnightblue" d="M932.174,-360.34C942.957,-365.089 954.381,-370.127 965,-374.824 981.012,-381.907 984.971,-383.778 1001,-390.824 1009.08,-394.376 1017.7,-398.143 1026.02,-401.764"/>
<polygon fill="midnightblue" stroke="midnightblue" points="1024.66,-404.992 1035.23,-405.771 1027.45,-398.573 1024.66,-404.992"/>
</g>
<!-- Node98&#45;&gt;Node90 -->
<g id="edge41" class="edge"><title>Node98&#45;&gt;Node90</title>
<path fill="none" stroke="midnightblue" d="M939.483,-161.234C966.298,-151.183 994.381,-140.99 1001,-139.824 1062.28,-129.029 1079.56,-130.009 1141,-139.824 1155.89,-142.203 1171.64,-146.629 1185.81,-151.364"/>
<polygon fill="midnightblue" stroke="midnightblue" points="1184.73,-154.696 1195.33,-154.671 1187.03,-148.084 1184.73,-154.696"/>
</g>
<!-- Node100&#45;&gt;Node93 -->
<g id="edge47" class="edge"><title>Node100&#45;&gt;Node93</title>
<path fill="none" stroke="midnightblue" d="M915.143,-436.098C946.883,-413.906 997.345,-378.624 1031.99,-354.404"/>
<polygon fill="midnightblue" stroke="midnightblue" points="1034.24,-357.098 1040.43,-348.499 1030.23,-351.361 1034.24,-357.098"/>
</g>
<!-- Node100&#45;&gt;Node94 -->
<g id="edge48" class="edge"><title>Node100&#45;&gt;Node94</title>
<path fill="none" stroke="midnightblue" d="M954.726,-443.317C971.492,-440.045 989.342,-436.563 1005.86,-433.339"/>
<polygon fill="midnightblue" stroke="midnightblue" points="1006.81,-436.72 1015.95,-431.37 1005.47,-429.85 1006.81,-436.72"/>
</g>
<!-- Node101 -->
<g id="node37" class="node"><title>Node101</title>
<g id="a_node37"><a xlink:href="classSeeSawN_1_1SynchronisationN_1_1RelativeSynchronisationC.html#aacb14f4a57df4da22b21cf9227a43470" target="_top" xlink:title="Quantises the offset values and returns the best representatives. ">
<polygon fill="white" stroke="black" points="1001,-455.324 1001,-496.324 1141,-496.324 1141,-455.324 1001,-455.324"/>
<text text-anchor="start" x="1009" y="-484.324" font-family="FreeSans" font-size="10.00">SeeSawN::Synchronisation</text>
<text text-anchor="start" x="1009" y="-473.324" font-family="FreeSans" font-size="10.00">N::RelativeSynchronisationC</text>
<text text-anchor="middle" x="1071" y="-462.324" font-family="FreeSans" font-size="10.00">::QuantiseOffsets</text>
</a>
</g>
</g>
<!-- Node100&#45;&gt;Node101 -->
<g id="edge44" class="edge"><title>Node100&#45;&gt;Node101</title>
<path fill="none" stroke="midnightblue" d="M954.726,-463.953C966.549,-465.171 978.911,-466.444 990.965,-467.685"/>
<polygon fill="midnightblue" stroke="midnightblue" points="990.694,-471.176 1001,-468.719 991.411,-464.213 990.694,-471.176"/>
</g>
<!-- Node101&#45;&gt;Node90 -->
<g id="edge46" class="edge"><title>Node101&#45;&gt;Node90</title>
<path fill="none" stroke="midnightblue" d="M1128.95,-455.182C1133.37,-452.158 1137.48,-448.722 1141,-444.824 1207.46,-371.288 1225.82,-248.092 1230.75,-195.203"/>
<polygon fill="midnightblue" stroke="midnightblue" points="1234.25,-195.287 1231.61,-185.027 1227.28,-194.696 1234.25,-195.287"/>
</g>
<!-- Node101&#45;&gt;Node92 -->
<g id="edge45" class="edge"><title>Node101&#45;&gt;Node92</title>
<path fill="none" stroke="midnightblue" d="M1124.58,-496.471C1130.27,-499.35 1135.85,-502.478 1141,-505.824 1167.89,-523.307 1194.43,-548.833 1211.94,-567.153"/>
<polygon fill="midnightblue" stroke="midnightblue" points="1209.46,-569.632 1218.87,-574.519 1214.56,-564.836 1209.46,-569.632"/>
</g>
<!-- Node102&#45;&gt;Node94 -->
<g id="edge50" class="edge"><title>Node102&#45;&gt;Node94</title>
<path fill="none" stroke="midnightblue" d="M907.154,-545.086C923.368,-529.371 945.941,-507.097 965,-486.824 981.61,-469.157 980.971,-459.495 1001,-445.824 1003.88,-443.861 1006.92,-442.033 1010.07,-440.332"/>
<polygon fill="midnightblue" stroke="midnightblue" points="1011.73,-443.418 1019.17,-435.872 1008.65,-437.133 1011.73,-443.418"/>
</g>
<!-- Node102&#45;&gt;Node99 -->
<g id="edge51" class="edge"><title>Node102&#45;&gt;Node99</title>
<path fill="none" stroke="midnightblue" d="M923.405,-586.355C945.788,-598.267 974.787,-613.335 1001,-625.824 1004.61,-627.545 1008.35,-629.283 1012.12,-631.01"/>
<polygon fill="midnightblue" stroke="midnightblue" points="1011,-634.342 1021.55,-635.264 1013.88,-627.961 1011,-634.342"/>
</g>
<!-- Node103 -->
<g id="node39" class="node"><title>Node103</title>
<g id="a_node39"><a xlink:href="classSeeSawN_1_1SynchronisationN_1_1RelativeSynchronisationC.html#a16e7463d4594db65da523b1f7a51e006" target="_top" xlink:title="Resolves the conflicting assignments due to overlapping support regions. ">
<polygon fill="white" stroke="black" points="1001,-515.324 1001,-556.324 1141,-556.324 1141,-515.324 1001,-515.324"/>
<text text-anchor="start" x="1009" y="-544.324" font-family="FreeSans" font-size="10.00">SeeSawN::Synchronisation</text>
<text text-anchor="start" x="1009" y="-533.324" font-family="FreeSans" font-size="10.00">N::RelativeSynchronisationC</text>
<text text-anchor="middle" x="1071" y="-522.324" font-family="FreeSans" font-size="10.00">::ResolveConflict</text>
</a>
</g>
</g>
<!-- Node102&#45;&gt;Node103 -->
<g id="edge52" class="edge"><title>Node102&#45;&gt;Node103</title>
<path fill="none" stroke="midnightblue" d="M954.726,-554.568C966.549,-552.646 978.911,-550.636 990.965,-548.676"/>
<polygon fill="midnightblue" stroke="midnightblue" points="991.691,-552.104 1001,-547.044 990.568,-545.194 991.691,-552.104"/>
</g>
<!-- Node104 -->
<g id="node40" class="node"><title>Node104</title>
<g id="a_node40"><a xlink:href="classSeeSawN_1_1SynchronisationN_1_1RelativeSynchronisationC.html#a09056f16817fed095df8429d1a5b45ab" target="_top" xlink:title="Removes isolated index correspondences. ">
<polygon fill="white" stroke="black" points="1001,-575.324 1001,-616.324 1141,-616.324 1141,-575.324 1001,-575.324"/>
<text text-anchor="start" x="1009" y="-604.324" font-family="FreeSans" font-size="10.00">SeeSawN::Synchronisation</text>
<text text-anchor="start" x="1009" y="-593.324" font-family="FreeSans" font-size="10.00">N::RelativeSynchronisationC</text>
<text text-anchor="middle" x="1071" y="-582.324" font-family="FreeSans" font-size="10.00">::RemoveIsolated</text>
</a>
</g>
</g>
<!-- Node102&#45;&gt;Node104 -->
<g id="edge53" class="edge"><title>Node102&#45;&gt;Node104</title>
<path fill="none" stroke="midnightblue" d="M954.726,-577.081C966.549,-579.003 978.911,-581.013 990.965,-582.973"/>
<polygon fill="midnightblue" stroke="midnightblue" points="990.568,-586.454 1001,-584.605 991.691,-579.545 990.568,-586.454"/>
</g>
<!-- Node106 -->
<g id="node42" class="node"><title>Node106</title>
<g id="a_node42"><a xlink:href="classSeeSawN_1_1SynchronisationN_1_1RelativeSynchronisationC.html#ae7a8e5552ff9450ca9d26d0df156a028" target="_top" xlink:title="Inserts a frame drop event. ">
<polygon fill="white" stroke="black" points="814.5,-881.324 814.5,-922.324 954.5,-922.324 954.5,-881.324 814.5,-881.324"/>
<text text-anchor="start" x="822.5" y="-910.324" font-family="FreeSans" font-size="10.00">SeeSawN::Synchronisation</text>
<text text-anchor="start" x="822.5" y="-899.324" font-family="FreeSans" font-size="10.00">N::RelativeSynchronisationC</text>
<text text-anchor="middle" x="884.5" y="-888.324" font-family="FreeSans" font-size="10.00">::InsertDrop</text>
</a>
</g>
</g>
<!-- Node105&#45;&gt;Node106 -->
<g id="edge55" class="edge"><title>Node105&#45;&gt;Node106</title>
<path fill="none" stroke="midnightblue" d="M760.225,-876.849C774.5,-879.741 789.639,-882.808 804.238,-885.766"/>
<polygon fill="midnightblue" stroke="midnightblue" points="803.747,-889.238 814.243,-887.793 805.137,-882.377 803.747,-889.238"/>
</g>
<!-- Node107 -->
<g id="node43" class="node"><title>Node107</title>
<g id="a_node43"><a xlink:href="classSeeSawN_1_1SynchronisationN_1_1RelativeSynchronisationC.html#af57233a346514356bc211e599dc52aee" target="_top" xlink:title="Adjusts an interval so that it can hold the dropped frames. ">
<polygon fill="white" stroke="black" points="1001,-881.324 1001,-922.324 1141,-922.324 1141,-881.324 1001,-881.324"/>
<text text-anchor="start" x="1009" y="-910.324" font-family="FreeSans" font-size="10.00">SeeSawN::Synchronisation</text>
<text text-anchor="start" x="1009" y="-899.324" font-family="FreeSans" font-size="10.00">N::RelativeSynchronisationC</text>
<text text-anchor="middle" x="1071" y="-888.324" font-family="FreeSans" font-size="10.00">::AdjustInterval</text>
</a>
</g>
</g>
<!-- Node106&#45;&gt;Node107 -->
<g id="edge56" class="edge"><title>Node106&#45;&gt;Node107</title>
<path fill="none" stroke="midnightblue" d="M954.726,-901.824C966.549,-901.824 978.911,-901.824 990.965,-901.824"/>
<polygon fill="midnightblue" stroke="midnightblue" points="991,-905.324 1001,-901.824 991,-898.324 991,-905.324"/>
</g>
<!-- Node108&#45;&gt;Node90 -->
<g id="edge58" class="edge"><title>Node108&#45;&gt;Node90</title>
<path fill="none" stroke="midnightblue" d="M760.226,-109.018C774.6,-106.024 789.719,-103.385 804,-101.824 953.368,-85.4987 996.877,-86.3271 1141,-128.824 1159.28,-134.216 1178.67,-142.497 1194.87,-150.209"/>
<polygon fill="midnightblue" stroke="midnightblue" points="1193.48,-153.427 1204,-154.658 1196.54,-147.133 1193.48,-153.427"/>
</g>
<!-- Node109 -->
<g id="node45" class="node"><title>Node109</title>
<g id="a_node45"><a xlink:href="namespaceSeeSawN_1_1WrappersN.html#af15683d7e567d982a048ba1a71efa6bc" target="_top" xlink:title="SeeSawN::WrappersN\l::FilterBimap">
<polygon fill="white" stroke="black" points="827.5,-111.824 827.5,-141.824 941.5,-141.824 941.5,-111.824 827.5,-111.824"/>
<text text-anchor="start" x="835.5" y="-129.824" font-family="FreeSans" font-size="10.00">SeeSawN::WrappersN</text>
<text text-anchor="middle" x="884.5" y="-118.824" font-family="FreeSans" font-size="10.00">::FilterBimap</text>
</a>
</g>
</g>
<!-- Node108&#45;&gt;Node109 -->
<g id="edge59" class="edge"><title>Node108&#45;&gt;Node109</title>
<path fill="none" stroke="midnightblue" d="M760.225,-126.824C778.778,-126.824 798.789,-126.824 817.181,-126.824"/>
<polygon fill="midnightblue" stroke="midnightblue" points="817.212,-130.324 827.212,-126.824 817.212,-123.324 817.212,-130.324"/>
</g>
<!-- Node110&#45;&gt;Node79 -->
<g id="edge62" class="edge"><title>Node110&#45;&gt;Node79</title>
<path fill="none" stroke="midnightblue" d="M576.278,-922.824C587.409,-922.824 598.66,-922.824 609.526,-922.824"/>
<polygon fill="midnightblue" stroke="midnightblue" points="609.809,-926.324 619.809,-922.824 609.809,-919.324 609.809,-926.324"/>
</g>
<!-- Node110&#45;&gt;Node92 -->
<g id="edge61" class="edge"><title>Node110&#45;&gt;Node92</title>
<path fill="none" stroke="midnightblue" d="M556.777,-943.355C574.773,-947.289 593.951,-950.807 612,-952.824 747.25,-967.944 1135.7,-936.136 1141,-931.824 1191.12,-891.063 1220.62,-686.648 1229.58,-614.824"/>
<polygon fill="midnightblue" stroke="midnightblue" points="1233.06,-615.201 1230.79,-604.851 1226.11,-614.354 1233.06,-615.201"/>
</g>
<!-- Node111&#45;&gt;Node94 -->
<g id="edge72" class="edge"><title>Node111&#45;&gt;Node94</title>
<path fill="none" stroke="midnightblue" d="M334.906,-547.099C338.616,-544.379 342.031,-541.303 345,-537.824 396.544,-477.421 319.454,-412.998 381,-362.824 428.797,-323.859 843.791,-384.818 1005.7,-410.39"/>
<polygon fill="midnightblue" stroke="midnightblue" points="1005.56,-413.913 1015.99,-412.022 1006.66,-406.999 1005.56,-413.913"/>
</g>
<!-- Node112 -->
<g id="node48" class="node"><title>Node112</title>
<g id="a_node48"><a xlink:href="classboost_1_1dynamic__bitset.html#a20ecab6a6b9c1e154e5def4aebc4247d" target="_top" xlink:title="boost::dynamic_bitset\l::size">
<polygon fill="white" stroke="black" points="423.5,-552.824 423.5,-582.824 533.5,-582.824 533.5,-552.824 423.5,-552.824"/>
<text text-anchor="start" x="431.5" y="-570.824" font-family="FreeSans" font-size="10.00">boost::dynamic_bitset</text>
<text text-anchor="middle" x="478.5" y="-559.824" font-family="FreeSans" font-size="10.00">::size</text>
</a>
</g>
</g>
<!-- Node111&#45;&gt;Node112 -->
<g id="edge64" class="edge"><title>Node111&#45;&gt;Node112</title>
<path fill="none" stroke="midnightblue" d="M338.755,-567.824C362.942,-567.824 389.652,-567.824 413.124,-567.824"/>
<polygon fill="midnightblue" stroke="midnightblue" points="413.313,-571.324 423.313,-567.824 413.313,-564.324 413.313,-571.324"/>
</g>
<!-- Node113 -->
<g id="node49" class="node"><title>Node113</title>
<g id="a_node49"><a xlink:href="classSeeSawN_1_1SynchronisationN_1_1MulticameraSynchonisationC.html#ad55fcd368e1bf61caf0ca8ef1d489b81" target="_top" xlink:title="Estimates the absolute frame rate values from a set of relative frame rates. ">
<polygon fill="white" stroke="black" points="404.5,-492.324 404.5,-533.324 552.5,-533.324 552.5,-492.324 404.5,-492.324"/>
<text text-anchor="start" x="412.5" y="-521.324" font-family="FreeSans" font-size="10.00">SeeSawN::Synchronisation</text>
<text text-anchor="start" x="412.5" y="-510.324" font-family="FreeSans" font-size="10.00">N::MulticameraSynchonisation</text>
<text text-anchor="middle" x="478.5" y="-499.324" font-family="FreeSans" font-size="10.00">C::SolveAlpha</text>
</a>
</g>
</g>
<!-- Node111&#45;&gt;Node113 -->
<g id="edge65" class="edge"><title>Node111&#45;&gt;Node113</title>
<path fill="none" stroke="midnightblue" d="M338.755,-548.819C356.712,-544.161 376.059,-539.142 394.439,-534.373"/>
<polygon fill="midnightblue" stroke="midnightblue" points="395.441,-537.729 404.242,-531.83 393.683,-530.953 395.441,-537.729"/>
</g>
<!-- Node114 -->
<g id="node50" class="node"><title>Node114</title>
<g id="a_node50"><a xlink:href="classSeeSawN_1_1SynchronisationN_1_1MulticameraSynchonisationC.html#ae865734b4f6a8e2767d4579de8ff730e" target="_top" xlink:title="Estimates the absolute frame rate values from a set of relative frame rates. ">
<polygon fill="white" stroke="black" points="404.5,-432.324 404.5,-473.324 552.5,-473.324 552.5,-432.324 404.5,-432.324"/>
<text text-anchor="start" x="412.5" y="-461.324" font-family="FreeSans" font-size="10.00">SeeSawN::Synchronisation</text>
<text text-anchor="start" x="412.5" y="-450.324" font-family="FreeSans" font-size="10.00">N::MulticameraSynchonisation</text>
<text text-anchor="middle" x="478.5" y="-439.324" font-family="FreeSans" font-size="10.00">C::SolveTau</text>
</a>
</g>
</g>
<!-- Node111&#45;&gt;Node114 -->
<g id="edge66" class="edge"><title>Node111&#45;&gt;Node114</title>
<path fill="none" stroke="midnightblue" d="M330.752,-547.242C335.801,-544.459 340.627,-541.332 345,-537.824 367.79,-519.544 357.677,-500.419 381,-482.824 385.377,-479.522 390.123,-476.58 395.083,-473.957"/>
<polygon fill="midnightblue" stroke="midnightblue" points="396.71,-477.059 404.209,-469.575 393.679,-470.749 396.71,-477.059"/>
</g>
<!-- Node115 -->
<g id="node51" class="node"><title>Node115</title>
<g id="a_node51"><a xlink:href="classSeeSawN_1_1SynchronisationN_1_1MulticameraSynchonisationC.html#aad464c5284ef0af0e1b315b373f25414" target="_top" xlink:title="Validates a synchronisation hypothesis. ">
<polygon fill="white" stroke="black" points="404.5,-372.324 404.5,-413.324 552.5,-413.324 552.5,-372.324 404.5,-372.324"/>
<text text-anchor="start" x="412.5" y="-401.324" font-family="FreeSans" font-size="10.00">SeeSawN::Synchronisation</text>
<text text-anchor="start" x="412.5" y="-390.324" font-family="FreeSans" font-size="10.00">N::MulticameraSynchonisation</text>
<text text-anchor="middle" x="478.5" y="-379.324" font-family="FreeSans" font-size="10.00">C::ValidateHypothesis</text>
</a>
</g>
</g>
<!-- Node111&#45;&gt;Node115 -->
<g id="edge67" class="edge"><title>Node111&#45;&gt;Node115</title>
<path fill="none" stroke="midnightblue" d="M333.77,-547.249C337.857,-544.49 341.658,-541.364 345,-537.824 381.767,-498.882 343.092,-460.657 381,-422.824 385.216,-418.616 390.012,-414.997 395.158,-411.884"/>
<polygon fill="midnightblue" stroke="midnightblue" points="396.935,-414.903 404.111,-407.108 393.641,-408.726 396.935,-414.903"/>
</g>
<!-- Node116 -->
<g id="node52" class="node"><title>Node116</title>
<g id="a_node52"><a xlink:href="classSeeSawN_1_1SynchronisationN_1_1MulticameraSynchonisationC.html#aeb8cf045023aeb0532a972f71b3e5ea1" target="_top" xlink:title="Quantises the estimated alpha to the admissible value. ">
<polygon fill="white" stroke="black" points="404.5,-602.324 404.5,-643.324 552.5,-643.324 552.5,-602.324 404.5,-602.324"/>
<text text-anchor="start" x="412.5" y="-631.324" font-family="FreeSans" font-size="10.00">SeeSawN::Synchronisation</text>
<text text-anchor="start" x="412.5" y="-620.324" font-family="FreeSans" font-size="10.00">N::MulticameraSynchonisation</text>
<text text-anchor="middle" x="478.5" y="-609.324" font-family="FreeSans" font-size="10.00">C::QuantiseAlpha</text>
</a>
</g>
</g>
<!-- Node111&#45;&gt;Node116 -->
<g id="edge68" class="edge"><title>Node111&#45;&gt;Node116</title>
<path fill="none" stroke="midnightblue" d="M338.755,-586.829C356.712,-591.488 376.059,-596.507 394.439,-601.276"/>
<polygon fill="midnightblue" stroke="midnightblue" points="393.683,-604.695 404.242,-603.819 395.441,-597.92 393.683,-604.695"/>
</g>
<!-- Node117 -->
<g id="node53" class="node"><title>Node117</title>
<g id="a_node53"><a xlink:href="classSeeSawN_1_1SynchronisationN_1_1MulticameraSynchonisationC.html#a07826266c26e7dcee999810753e539f1" target="_top" xlink:title="Evaluates an absolute synchronisation hypothesis. ">
<polygon fill="white" stroke="black" points="404.5,-662.324 404.5,-703.324 552.5,-703.324 552.5,-662.324 404.5,-662.324"/>
<text text-anchor="start" x="412.5" y="-691.324" font-family="FreeSans" font-size="10.00">SeeSawN::Synchronisation</text>
<text text-anchor="start" x="412.5" y="-680.324" font-family="FreeSans" font-size="10.00">N::MulticameraSynchonisation</text>
<text text-anchor="middle" x="478.5" y="-669.324" font-family="FreeSans" font-size="10.00">C::EvaluateSynchronisation</text>
</a>
</g>
</g>
<!-- Node111&#45;&gt;Node117 -->
<g id="edge69" class="edge"><title>Node111&#45;&gt;Node117</title>
<path fill="none" stroke="midnightblue" d="M288.735,-588.582C311.029,-607.575 346.336,-635.307 381,-652.824 385.485,-655.091 390.174,-657.225 394.965,-659.23"/>
<polygon fill="midnightblue" stroke="midnightblue" points="393.693,-662.49 404.279,-662.923 396.274,-655.983 393.693,-662.49"/>
</g>
<!-- Node117&#45;&gt;Node74 -->
<g id="edge71" class="edge"><title>Node117&#45;&gt;Node74</title>
<path fill="none" stroke="midnightblue" d="M552.919,-668.571C561.451,-664.553 569.435,-659.409 576,-652.824 614.415,-614.298 574.959,-575.674 612,-535.824 612.907,-534.849 613.849,-533.905 614.822,-532.991"/>
<polygon fill="midnightblue" stroke="midnightblue" points="617.23,-535.547 622.846,-526.563 612.853,-530.084 617.23,-535.547"/>
</g>
<!-- Node117&#45;&gt;Node90 -->
<g id="edge70" class="edge"><title>Node117&#45;&gt;Node90</title>
<path fill="none" stroke="midnightblue" d="M552.563,-670.867C561.598,-666.527 569.813,-660.681 576,-652.824 652.598,-555.548 523.448,-183.361 612,-96.8243 780.156,67.5049 921.049,-9.74762 1141,-92.8243 1170.14,-103.83 1196.55,-128.381 1213.42,-146.821"/>
<polygon fill="midnightblue" stroke="midnightblue" points="1211.23,-149.625 1220.48,-154.793 1216.47,-144.985 1211.23,-149.625"/>
</g>
</g>
</svg>
