<?xml version="1.0" encoding="UTF-8" standalone="no"?>
<!DOCTYPE svg PUBLIC "-//W3C//DTD SVG 1.1//EN"
 "http://www.w3.org/Graphics/SVG/1.1/DTD/svg11.dtd">
<!-- Generated by graphviz version 2.38.0 (20140413.2041)
 -->
<!-- Title: SeeSawN::SynchronisationN::MulticameraSynchonisationC Pages: 1 -->
<!--zoomable 644 -->
<svg id="main" version="1.1" xmlns="http://www.w3.org/2000/svg" xmlns:xlink="http://www.w3.org/1999/xlink" xml:space="preserve" onload="init(evt)">
<style type="text/css"><![CDATA[
.edge:hover path { stroke: red; }
.edge:hover polygon { stroke: red; fill: red; }
]]></style>
<script type="text/javascript"><![CDATA[
var edges = document.getElementsByTagName('g');
if (edges && edges.length) {
  for (var i=0;i<edges.length;i++) {
    if (edges[i].id.substr(0,4)=='edge') {
      edges[i].setAttribute('class','edge');
    }
  }
}
]]></script>
        <defs>
                <circle id="rim" cx="0" cy="0" r="7"/>
                <circle id="rim2" cx="0" cy="0" r="3.5"/>
                <g id="zoomPlus">
                        <use xlink:href="#rim" fill="#404040">
                                <set attributeName="fill" to="#808080" begin="zoomplus.mouseover" end="zoomplus.mouseout"/>
                        </use>
                        <path d="M-4,0h8M0,-4v8" fill="none" stroke="white" stroke-width="1.5" pointer-events="none"/>
                </g>
                <g id="zoomMin">
                        <use xlink:href="#rim" fill="#404040">
                                <set attributeName="fill" to="#808080" begin="zoomminus.mouseover" end="zoomminus.mouseout"/>
                        </use>
                        <path d="M-4,0h8" fill="none" stroke="white" stroke-width="1.5" pointer-events="none"/>
                </g>
                <g id="dirArrow">
                        <path fill="none" stroke="white" stroke-width="1.5" d="M0,-3.0v7 M-2.5,-0.5L0,-3.0L2.5,-0.5"/>
                </g>
               <g id="resetDef">
                       <use xlink:href="#rim2" fill="#404040">
                               <set attributeName="fill" to="#808080" begin="reset.mouseover" end="reset.mouseout"/>
                       </use>
               </g>
        </defs>

<script type="text/javascript">
var viewWidth = 167;
var viewHeight = 644;
var sectionId = 'dynsection-0';
</script>
<script xlink:href="svgpan.js"/>
<svg id="graph" class="graph">
<g id="viewport">
<title>SeeSawN::SynchronisationN::MulticameraSynchonisationC</title>
<polygon fill="white" stroke="none" points="-4,4 -4,-640 163,-640 163,4 -4,4"/>
<!-- Node1 -->
<g id="node1" class="node"><title>Node1</title>
<polygon fill="#bfbfbf" stroke="black" points="-1.42109e-14,-0.5 -1.42109e-14,-420.5 159,-420.5 159,-0.5 -1.42109e-14,-0.5"/>
<text text-anchor="start" x="8" y="-408.5" font-family="FreeSans" font-size="10.00">SeeSawN::Synchronisation</text>
<text text-anchor="middle" x="79.5" y="-397.5" font-family="FreeSans" font-size="10.00">N::MulticameraSynchonisationC</text>
<polyline fill="none" stroke="black" points="-1.42109e-14,-390.5 159,-390.5 "/>
<text text-anchor="start" x="8" y="-378.5" font-family="FreeSans" font-size="10.00">&#45; iObservation</text>
<text text-anchor="start" x="8" y="-367.5" font-family="FreeSans" font-size="10.00">&#45; iTau</text>
<text text-anchor="start" x="8" y="-356.5" font-family="FreeSans" font-size="10.00">&#45; iLine</text>
<text text-anchor="start" x="8" y="-345.5" font-family="FreeSans" font-size="10.00">&#45; iDropped</text>
<text text-anchor="start" x="8" y="-334.5" font-family="FreeSans" font-size="10.00">&#45; iInterval</text>
<polyline fill="none" stroke="black" points="-1.42109e-14,-327.5 159,-327.5 "/>
<text text-anchor="start" x="8" y="-315.5" font-family="FreeSans" font-size="10.00">+ MakeRelativeSynchronisation()</text>
<text text-anchor="start" x="8" y="-304.5" font-family="FreeSans" font-size="10.00">* DropIdentifierT</text>
<text text-anchor="start" x="8" y="-293.5" font-family="FreeSans" font-size="10.00">* iLost</text>
<text text-anchor="start" x="8" y="-282.5" font-family="FreeSans" font-size="10.00">* TaskT</text>
<text text-anchor="start" x="8" y="-271.5" font-family="FreeSans" font-size="10.00">* iPairId</text>
<text text-anchor="start" x="8" y="-260.5" font-family="FreeSans" font-size="10.00">* iParameter</text>
<text text-anchor="start" x="8" y="-249.5" font-family="FreeSans" font-size="10.00">* PairwiseMeasurementT</text>
<text text-anchor="start" x="8" y="-238.5" font-family="FreeSans" font-size="10.00">* initial_estimate_type</text>
<text text-anchor="start" x="8" y="-227.5" font-family="FreeSans" font-size="10.00">* iAlphaRange</text>
<text text-anchor="start" x="8" y="-216.5" font-family="FreeSans" font-size="10.00">* iTauRange</text>
<text text-anchor="start" x="8" y="-205.5" font-family="FreeSans" font-size="10.00">* iAdmissibleAlpha</text>
<text text-anchor="start" x="8" y="-194.5" font-family="FreeSans" font-size="10.00">* result_type</text>
<text text-anchor="start" x="8" y="-183.5" font-family="FreeSans" font-size="10.00">* iTemporalOffset</text>
<text text-anchor="start" x="8" y="-172.5" font-family="FreeSans" font-size="10.00">* ValidateParameters()</text>
<text text-anchor="start" x="8" y="-161.5" font-family="FreeSans" font-size="10.00">* MakeRelativeSynchronisation()</text>
<text text-anchor="start" x="8" y="-150.5" font-family="FreeSans" font-size="10.00">* MakeRelativeInitialEstimate()</text>
<text text-anchor="start" x="8" y="-139.5" font-family="FreeSans" font-size="10.00">* MakeTasks()</text>
<text text-anchor="start" x="8" y="-128.5" font-family="FreeSans" font-size="10.00">* RemoveUnconnected()</text>
<text text-anchor="start" x="8" y="-117.5" font-family="FreeSans" font-size="10.00">* QuantiseAlpha()</text>
<text text-anchor="start" x="8" y="-106.5" font-family="FreeSans" font-size="10.00">* SolveAlpha()</text>
<text text-anchor="start" x="8" y="-95.5" font-family="FreeSans" font-size="10.00">* SolveTau()</text>
<text text-anchor="start" x="8" y="-84.5" font-family="FreeSans" font-size="10.00">* ValidateHypothesis()</text>
<text text-anchor="start" x="8" y="-73.5" font-family="FreeSans" font-size="10.00">* EvaluateSynchronisation()</text>
<text text-anchor="start" x="8" y="-62.5" font-family="FreeSans" font-size="10.00">* Synchronise()</text>
<text text-anchor="start" x="8" y="-51.5" font-family="FreeSans" font-size="10.00">* InsertDropHypothesis()</text>
<text text-anchor="start" x="8" y="-40.5" font-family="FreeSans" font-size="10.00">* ProcessDropList()</text>
<text text-anchor="start" x="8" y="-29.5" font-family="FreeSans" font-size="10.00">* ParseTimeline()</text>
<text text-anchor="start" x="8" y="-18.5" font-family="FreeSans" font-size="10.00">* IdentifyFrameDrops()</text>
<text text-anchor="start" x="8" y="-7.5" font-family="FreeSans" font-size="10.00">* Run()</text>
</g>
<!-- Node2 -->
<g id="node2" class="node"><title>Node2</title>
<polygon fill="white" stroke="#bfbfbf" points="58.5,-578.5 58.5,-635.5 100.5,-635.5 100.5,-578.5 58.5,-578.5"/>
<text text-anchor="middle" x="79.5" y="-623.5" font-family="FreeSans" font-size="10.00">size_t</text>
<polyline fill="none" stroke="#bfbfbf" points="58.5,-616.5 100.5,-616.5 "/>
<text text-anchor="middle" x="79.5" y="-604.5" font-family="FreeSans" font-size="10.00"> </text>
<polyline fill="none" stroke="#bfbfbf" points="58.5,-597.5 100.5,-597.5 "/>
<text text-anchor="middle" x="79.5" y="-585.5" font-family="FreeSans" font-size="10.00"> </text>
</g>
<!-- Node2&#45;&gt;Node1 -->
<g id="edge1" class="edge"><title>Node2&#45;&gt;Node1</title>
<path fill="none" stroke="#404040" d="M79.5,-578.26C79.5,-546.428 79.5,-491.077 79.5,-432.882"/>
<polygon fill="none" stroke="#404040" points="79.5001,-432.82 75.5,-426.82 79.5,-420.82 83.5,-426.82 79.5001,-432.82"/>
<text text-anchor="middle" x="117" y="-552" font-family="FreeSans" font-size="10.00"> &#45;iComplexity</text>
<text text-anchor="middle" x="117" y="-541" font-family="FreeSans" font-size="10.00">&#45;iSupport</text>
<text text-anchor="middle" x="117" y="-530" font-family="FreeSans" font-size="10.00">&#45;iModel</text>
<text text-anchor="middle" x="117" y="-519" font-family="FreeSans" font-size="10.00">&#45;iId</text>
<text text-anchor="middle" x="117" y="-508" font-family="FreeSans" font-size="10.00">&#45;iRank</text>
<text text-anchor="middle" x="117" y="-497" font-family="FreeSans" font-size="10.00">+iFrameRate</text>
<text text-anchor="middle" x="117" y="-486" font-family="FreeSans" font-size="10.00">&#45;iScore</text>
<text text-anchor="middle" x="117" y="-475" font-family="FreeSans" font-size="10.00">+iDropList</text>
<text text-anchor="middle" x="117" y="-464" font-family="FreeSans" font-size="10.00">&#45;iAlpha</text>
<text text-anchor="middle" x="117" y="-453" font-family="FreeSans" font-size="10.00">&#45;iSynchronisation</text>
<text text-anchor="middle" x="117" y="-442" font-family="FreeSans" font-size="10.00">...</text>
</g>
</g>
</svg>
        <g id="navigator" transform="translate(0 0)" fill="#404254">
                <rect fill="#f2f5e9" fill-opacity="0.5" stroke="#606060" stroke-width=".5" x="0" y="0" width="60" height="60"/>
                <use id="zoomplus" xlink:href="#zoomPlus" x="17" y="9" onmousedown="handleZoom(evt,'in')"/>
                <use id="zoomminus" xlink:href="#zoomMin" x="42" y="9" onmousedown="handleZoom(evt,'out')"/>
                <use id="reset" xlink:href="#resetDef" x="30" y="36" onmousedown="handleReset()"/>
                <g id="arrowUp" xlink:href="#dirArrow" transform="translate(30 24)" onmousedown="handlePan(0,-1)">
                  <use xlink:href="#rim" fill="#404040">
                        <set attributeName="fill" to="#808080" begin="arrowUp.mouseover" end="arrowUp.mouseout"/>
                  </use>
                  <path fill="none" stroke="white" stroke-width="1.5" d="M0,-3.0v7 M-2.5,-0.5L0,-3.0L2.5,-0.5"/>
                </g>
                <g id="arrowRight" xlink:href="#dirArrow" transform="rotate(90) translate(36 -43)" onmousedown="handlePan(1,0)">
                  <use xlink:href="#rim" fill="#404040">
                        <set attributeName="fill" to="#808080" begin="arrowRight.mouseover" end="arrowRight.mouseout"/>
                  </use>
                  <path fill="none" stroke="white" stroke-width="1.5" d="M0,-3.0v7 M-2.5,-0.5L0,-3.0L2.5,-0.5"/>
                </g>
                <g id="arrowDown" xlink:href="#dirArrow" transform="rotate(180) translate(-30 -48)" onmousedown="handlePan(0,1)">
                  <use xlink:href="#rim" fill="#404040">
                        <set attributeName="fill" to="#808080" begin="arrowDown.mouseover" end="arrowDown.mouseout"/>
                  </use>
                  <path fill="none" stroke="white" stroke-width="1.5" d="M0,-3.0v7 M-2.5,-0.5L0,-3.0L2.5,-0.5"/>
                </g>
                <g id="arrowLeft" xlink:href="#dirArrow" transform="rotate(270) translate(-36 17)" onmousedown="handlePan(-1,0)">
                  <use xlink:href="#rim" fill="#404040">
                        <set attributeName="fill" to="#808080" begin="arrowLeft.mouseover" end="arrowLeft.mouseout"/>
                  </use>
                  <path fill="none" stroke="white" stroke-width="1.5" d="M0,-3.0v7 M-2.5,-0.5L0,-3.0L2.5,-0.5"/>
                </g>
        </g>
        <svg viewBox="0 0 15 15" width="100%" height="30px" preserveAspectRatio="xMaxYMin meet">
         <g id="arrow_out" transform="scale(0.3 0.3)">
          <a xlink:href="classSeeSawN_1_1SynchronisationN_1_1MulticameraSynchonisationC__coll__graph_org.svg" target="_base">
           <rect id="button" ry="5" rx="5" y="6" x="6" height="38" width="38"
                fill="#f2f5e9" fill-opacity="0.5" stroke="#606060" stroke-width="1.0"/>
           <path id="arrow"
             d="M 11.500037,31.436501 C 11.940474,20.09759 22.043105,11.32322 32.158766,21.979434 L 37.068811,17.246167 C 37.068811,17.246167 37.088388,32 37.088388,32 L 22.160133,31.978069 C 22.160133,31.978069 26.997745,27.140456 26.997745,27.140456 C 18.528582,18.264221 13.291696,25.230495 11.500037,31.436501 z"
             style="fill:#404040;"/>
          </a>
         </g>
        </svg>
</svg>
