<?xml version="1.0" encoding="UTF-8" standalone="no"?>
<!DOCTYPE svg PUBLIC "-//W3C//DTD SVG 1.1//EN"
 "http://www.w3.org/Graphics/SVG/1.1/DTD/svg11.dtd">
<!-- Generated by graphviz version 2.38.0 (20140413.2041)
 -->
<!-- Title: SeeSawN::StateEstimationN::ViterbiC::GetOptimalSequence Pages: 1 -->
<svg width="1228pt" height="110pt"
 viewBox="0.00 0.00 1228.00 110.00" xmlns="http://www.w3.org/2000/svg" xmlns:xlink="http://www.w3.org/1999/xlink">
<g id="graph0" class="graph" transform="scale(1 1) rotate(0) translate(4 106)">
<title>SeeSawN::StateEstimationN::ViterbiC::GetOptimalSequence</title>
<polygon fill="white" stroke="none" points="-4,4 -4,-106 1224,-106 1224,4 -4,4"/>
<!-- Node7 -->
<g id="node1" class="node"><title>Node7</title>
<polygon fill="#bfbfbf" stroke="black" points="0,-36 0,-66 161,-66 161,-36 0,-36"/>
<text text-anchor="start" x="8" y="-54" font-family="FreeSans" font-size="10.00">SeeSawN::StateEstimation</text>
<text text-anchor="middle" x="80.5" y="-43" font-family="FreeSans" font-size="10.00">N::ViterbiC::GetOptimalSequence</text>
</g>
<!-- Node8 -->
<g id="node2" class="node"><title>Node8</title>
<g id="a_node2"><a xlink:href="classSeeSawN_1_1SynchronisationN_1_1RelativeSynchronisationC.html#a3fa3bd4acd2d99e2c353395777a1d43f" target="_top" xlink:title="Finds the corresponding indices between two image sequences. ">
<polygon fill="white" stroke="black" points="210.5,-60.5 210.5,-101.5 350.5,-101.5 350.5,-60.5 210.5,-60.5"/>
<text text-anchor="start" x="218.5" y="-89.5" font-family="FreeSans" font-size="10.00">SeeSawN::Synchronisation</text>
<text text-anchor="start" x="218.5" y="-78.5" font-family="FreeSans" font-size="10.00">N::RelativeSynchronisationC</text>
<text text-anchor="middle" x="280.5" y="-67.5" font-family="FreeSans" font-size="10.00">::FindIndexCorrespondences</text>
</a>
</g>
</g>
<!-- Node7&#45;&gt;Node8 -->
<g id="edge1" class="edge"><title>Node7&#45;&gt;Node8</title>
<path fill="none" stroke="midnightblue" d="M171.206,-64.5919C184.397,-66.5905 197.81,-68.6227 210.497,-70.545"/>
<polygon fill="midnightblue" stroke="midnightblue" points="171.59,-61.1101 161.178,-63.0725 170.541,-68.0311 171.59,-61.1101"/>
</g>
<!-- Node13 -->
<g id="node7" class="node"><title>Node13</title>
<g id="a_node7"><a xlink:href="classSeeSawN_1_1SynchronisationN_1_1RelativeSynchronisationC.html#a80e01237cb8f51ca34ac158698672dc4" target="_top" xlink:title="SeeSawN::Synchronisation\lN::RelativeSynchronisationC\l::HijackFindIndexCorrespondences">
<polygon fill="white" stroke="black" points="197,-0.5 197,-41.5 364,-41.5 364,-0.5 197,-0.5"/>
<text text-anchor="start" x="205" y="-29.5" font-family="FreeSans" font-size="10.00">SeeSawN::Synchronisation</text>
<text text-anchor="start" x="205" y="-18.5" font-family="FreeSans" font-size="10.00">N::RelativeSynchronisationC</text>
<text text-anchor="middle" x="280.5" y="-7.5" font-family="FreeSans" font-size="10.00">::HijackFindIndexCorrespondences</text>
</a>
</g>
</g>
<!-- Node7&#45;&gt;Node13 -->
<g id="edge6" class="edge"><title>Node7&#45;&gt;Node13</title>
<path fill="none" stroke="midnightblue" d="M171.135,-37.419C179.666,-36.1263 188.291,-34.8195 196.753,-33.5374"/>
<polygon fill="midnightblue" stroke="midnightblue" points="170.541,-33.9689 161.178,-38.9275 171.59,-40.8899 170.541,-33.9689"/>
</g>
<!-- Node9 -->
<g id="node3" class="node"><title>Node9</title>
<g id="a_node3"><a xlink:href="classSeeSawN_1_1SynchronisationN_1_1RelativeSynchronisationC.html#a5bef63bba38b800f441eadc1ed40a536" target="_top" xlink:title="Runs the synchronisation pipeline. ">
<polygon fill="white" stroke="black" points="400,-60.5 400,-101.5 540,-101.5 540,-60.5 400,-60.5"/>
<text text-anchor="start" x="408" y="-89.5" font-family="FreeSans" font-size="10.00">SeeSawN::Synchronisation</text>
<text text-anchor="start" x="408" y="-78.5" font-family="FreeSans" font-size="10.00">N::RelativeSynchronisationC</text>
<text text-anchor="middle" x="470" y="-67.5" font-family="FreeSans" font-size="10.00">::Synchronise</text>
</a>
</g>
</g>
<!-- Node8&#45;&gt;Node9 -->
<g id="edge2" class="edge"><title>Node8&#45;&gt;Node9</title>
<path fill="none" stroke="midnightblue" d="M360.815,-81C373.779,-81 387.119,-81 399.813,-81"/>
<polygon fill="midnightblue" stroke="midnightblue" points="360.519,-77.5001 350.519,-81 360.519,-84.5001 360.519,-77.5001"/>
</g>
<!-- Node10 -->
<g id="node4" class="node"><title>Node10</title>
<g id="a_node4"><a xlink:href="classSeeSawN_1_1SynchronisationN_1_1RelativeSynchronisationC.html#a23ad32056f941388856c20ffecca138b" target="_top" xlink:title="Runs the algorithm. ">
<polygon fill="white" stroke="black" points="576,-66 576,-96 737,-96 737,-66 576,-66"/>
<text text-anchor="start" x="584" y="-84" font-family="FreeSans" font-size="10.00">SeeSawN::Synchronisation</text>
<text text-anchor="middle" x="656.5" y="-73" font-family="FreeSans" font-size="10.00">N::RelativeSynchronisationC::Run</text>
</a>
</g>
</g>
<!-- Node9&#45;&gt;Node10 -->
<g id="edge3" class="edge"><title>Node9&#45;&gt;Node10</title>
<path fill="none" stroke="midnightblue" d="M550.446,-81C558.9,-81 567.501,-81 575.956,-81"/>
<polygon fill="midnightblue" stroke="midnightblue" points="550.226,-77.5001 540.226,-81 550.226,-84.5001 550.226,-77.5001"/>
</g>
<!-- Node11 -->
<g id="node5" class="node"><title>Node11</title>
<g id="a_node5"><a xlink:href="classSeeSawN_1_1SynchronisationN_1_1MulticameraSynchonisationC.html#a75a116defe53be4d2d177a2188f909bf" target="_top" xlink:title="Runs the synchronisation algorithm. ">
<polygon fill="white" stroke="black" points="773,-60.5 773,-101.5 921,-101.5 921,-60.5 773,-60.5"/>
<text text-anchor="start" x="781" y="-89.5" font-family="FreeSans" font-size="10.00">SeeSawN::Synchronisation</text>
<text text-anchor="start" x="781" y="-78.5" font-family="FreeSans" font-size="10.00">N::MulticameraSynchonisation</text>
<text text-anchor="middle" x="847" y="-67.5" font-family="FreeSans" font-size="10.00">C::Run</text>
</a>
</g>
</g>
<!-- Node10&#45;&gt;Node11 -->
<g id="edge4" class="edge"><title>Node10&#45;&gt;Node11</title>
<path fill="none" stroke="midnightblue" d="M747.229,-81C755.835,-81 764.491,-81 772.909,-81"/>
<polygon fill="midnightblue" stroke="midnightblue" points="747.168,-77.5001 737.168,-81 747.168,-84.5001 747.168,-77.5001"/>
</g>
<!-- Node12 -->
<g id="node6" class="node"><title>Node12</title>
<g id="a_node6"><a xlink:href="classSeeSawN_1_1AppMulticameraSynchronisationN_1_1AppMulticameraSynchronisationImplementationC.html#a74cf8f1a5ba9bb9ddb48089b2d43bd58" target="_top" xlink:title="Runs the application. ">
<polygon fill="white" stroke="black" points="957,-66 957,-96 1220,-96 1220,-66 957,-66"/>
<text text-anchor="start" x="965" y="-84" font-family="FreeSans" font-size="10.00">SeeSawN::AppMulticameraSynchronisation</text>
<text text-anchor="middle" x="1088.5" y="-73" font-family="FreeSans" font-size="10.00">N::AppMulticameraSynchronisationImplementationC::Run</text>
</a>
</g>
</g>
<!-- Node11&#45;&gt;Node12 -->
<g id="edge5" class="edge"><title>Node11&#45;&gt;Node12</title>
<path fill="none" stroke="midnightblue" d="M931.216,-81C939.578,-81 948.202,-81 956.904,-81"/>
<polygon fill="midnightblue" stroke="midnightblue" points="931.159,-77.5001 921.159,-81 931.159,-84.5001 931.159,-77.5001"/>
</g>
</g>
</svg>
