<?xml version="1.0" encoding="UTF-8" standalone="no"?>
<!DOCTYPE svg PUBLIC "-//W3C//DTD SVG 1.1//EN"
 "http://www.w3.org/Graphics/SVG/1.1/DTD/svg11.dtd">
<!-- Generated by graphviz version 2.38.0 (20140413.2041)
 -->
<!-- Title: SeeSawN::ApplicationN::InterfaceTwoStageRANSACC::MakeParameterObject Pages: 1 -->
<svg width="1276pt" height="538pt"
 viewBox="0.00 0.00 1276.00 538.00" xmlns="http://www.w3.org/2000/svg" xmlns:xlink="http://www.w3.org/1999/xlink">
<g id="graph0" class="graph" transform="scale(1 1) rotate(0) translate(4 534)">
<title>SeeSawN::ApplicationN::InterfaceTwoStageRANSACC::MakeParameterObject</title>
<polygon fill="white" stroke="none" points="-4,4 -4,-534 1272,-534 1272,4 -4,4"/>
<!-- Node36 -->
<g id="node1" class="node"><title>Node36</title>
<polygon fill="#bfbfbf" stroke="black" points="0,-403.5 0,-444.5 152,-444.5 152,-403.5 0,-403.5"/>
<text text-anchor="start" x="8" y="-432.5" font-family="FreeSans" font-size="10.00">SeeSawN::ApplicationN</text>
<text text-anchor="start" x="8" y="-421.5" font-family="FreeSans" font-size="10.00">::InterfaceTwoStageRANSACC</text>
<text text-anchor="middle" x="76" y="-410.5" font-family="FreeSans" font-size="10.00">::MakeParameterObject</text>
</g>
<!-- Node37 -->
<g id="node2" class="node"><title>Node37</title>
<g id="a_node2"><a xlink:href="classSeeSawN_1_1ApplicationN_1_1InterfaceGeometryEstimatorC.html#af08aa9e88b51acdfe94f0e2cfdf3223e" target="_top" xlink:title="Makes a parameter object from a property tree. ">
<polygon fill="white" stroke="black" points="188,-403.5 188,-444.5 331,-444.5 331,-403.5 188,-403.5"/>
<text text-anchor="start" x="196" y="-432.5" font-family="FreeSans" font-size="10.00">SeeSawN::ApplicationN</text>
<text text-anchor="start" x="196" y="-421.5" font-family="FreeSans" font-size="10.00">::InterfaceGeometryEstimator</text>
<text text-anchor="middle" x="259.5" y="-410.5" font-family="FreeSans" font-size="10.00">C::MakeParameterObject</text>
</a>
</g>
</g>
<!-- Node36&#45;&gt;Node37 -->
<g id="edge1" class="edge"><title>Node36&#45;&gt;Node37</title>
<path fill="none" stroke="midnightblue" d="M162.157,-424C170.738,-424 179.386,-424 187.793,-424"/>
<polygon fill="midnightblue" stroke="midnightblue" points="162.133,-420.5 152.133,-424 162.133,-427.5 162.133,-420.5"/>
</g>
<!-- Node38 -->
<g id="node3" class="node"><title>Node38</title>
<g id="a_node3"><a xlink:href="classSeeSawN_1_1ApplicationN_1_1InterfaceGeometryEstimationPipelineC.html#a32894c85b4610b3d8da17e9ce002655f" target="_top" xlink:title="Makes a parameter object from a property tree. ">
<polygon fill="white" stroke="black" points="367,-270.5 367,-311.5 527,-311.5 527,-270.5 367,-270.5"/>
<text text-anchor="start" x="375" y="-299.5" font-family="FreeSans" font-size="10.00">SeeSawN::ApplicationN</text>
<text text-anchor="start" x="375" y="-288.5" font-family="FreeSans" font-size="10.00">::InterfaceGeometryEstimation</text>
<text text-anchor="middle" x="447" y="-277.5" font-family="FreeSans" font-size="10.00">PipelineC::MakeParameterObject</text>
</a>
</g>
</g>
<!-- Node37&#45;&gt;Node38 -->
<g id="edge2" class="edge"><title>Node37&#45;&gt;Node38</title>
<path fill="none" stroke="midnightblue" d="M298.056,-397.073C333.273,-371.823 385.176,-334.609 417.219,-311.635"/>
<polygon fill="midnightblue" stroke="midnightblue" points="295.572,-394.547 289.484,-403.219 299.651,-400.236 295.572,-394.547"/>
</g>
<!-- Node42 -->
<g id="node7" class="node"><title>Node42</title>
<g id="a_node7"><a xlink:href="classSeeSawN_1_1ApplicationN_1_1InterfacePfMPipelineC.html#acfbef1b92f2a55be0413a3c490ddeea0" target="_top" xlink:title="Makes a parameter object from a property tree. ">
<polygon fill="white" stroke="black" points="850.5,-488.5 850.5,-529.5 971.5,-529.5 971.5,-488.5 850.5,-488.5"/>
<text text-anchor="start" x="858.5" y="-517.5" font-family="FreeSans" font-size="10.00">SeeSawN::ApplicationN</text>
<text text-anchor="start" x="858.5" y="-506.5" font-family="FreeSans" font-size="10.00">::InterfacePfMPipelineC</text>
<text text-anchor="middle" x="911" y="-495.5" font-family="FreeSans" font-size="10.00">::MakeParameterObject</text>
</a>
</g>
</g>
<!-- Node37&#45;&gt;Node42 -->
<g id="edge19" class="edge"><title>Node37&#45;&gt;Node42</title>
<path fill="none" stroke="midnightblue" d="M325.632,-447.911C386.159,-468.775 479.303,-497.464 563,-509 663.111,-522.798 781.018,-518.513 850.412,-513.919"/>
<polygon fill="midnightblue" stroke="midnightblue" points="326.429,-444.482 315.834,-444.503 324.13,-451.094 326.429,-444.482"/>
</g>
<!-- Node39 -->
<g id="node4" class="node"><title>Node39</title>
<g id="a_node4"><a xlink:href="classSeeSawN_1_1ApplicationN_1_1InterfacePoseGraphPipelineC.html#a8b6ca5eab7c573298151bb52c18ce8a6" target="_top" xlink:title="Makes a parameter object from a property tree. ">
<polygon fill="white" stroke="black" points="594.5,-360.5 594.5,-401.5 737.5,-401.5 737.5,-360.5 594.5,-360.5"/>
<text text-anchor="start" x="602.5" y="-389.5" font-family="FreeSans" font-size="10.00">SeeSawN::ApplicationN</text>
<text text-anchor="start" x="602.5" y="-378.5" font-family="FreeSans" font-size="10.00">::InterfacePoseGraphPipeline</text>
<text text-anchor="middle" x="666" y="-367.5" font-family="FreeSans" font-size="10.00">C::MakeParameterObject</text>
</a>
</g>
</g>
<!-- Node38&#45;&gt;Node39 -->
<g id="edge3" class="edge"><title>Node38&#45;&gt;Node39</title>
<path fill="none" stroke="midnightblue" d="M492.143,-316.611C513.15,-328.123 538.896,-341.275 563,-351 573.014,-355.04 583.778,-358.8 594.425,-362.197"/>
<polygon fill="midnightblue" stroke="midnightblue" points="493.592,-313.412 483.149,-311.624 490.198,-319.534 493.592,-313.412"/>
</g>
<!-- Node40 -->
<g id="node5" class="node"><title>Node40</title>
<g id="a_node5"><a xlink:href="classSeeSawN_1_1ApplicationN_1_1InterfaceSfMPipelineC.html#a2dcd6302c84357ab559b2ba37a7cbbf9" target="_top" xlink:title="Makes a parameter object from a property tree. ">
<polygon fill="white" stroke="black" points="850.5,-409.5 850.5,-450.5 971.5,-450.5 971.5,-409.5 850.5,-409.5"/>
<text text-anchor="start" x="858.5" y="-438.5" font-family="FreeSans" font-size="10.00">SeeSawN::ApplicationN</text>
<text text-anchor="start" x="858.5" y="-427.5" font-family="FreeSans" font-size="10.00">::InterfaceSfMPipelineC</text>
<text text-anchor="middle" x="911" y="-416.5" font-family="FreeSans" font-size="10.00">::MakeParameterObject</text>
</a>
</g>
</g>
<!-- Node38&#45;&gt;Node40 -->
<g id="edge17" class="edge"><title>Node38&#45;&gt;Node40</title>
<path fill="none" stroke="midnightblue" d="M466.201,-320.13C486.049,-348.977 520.703,-391.567 563,-411 656.2,-453.821 778.639,-448.149 850.384,-439.506"/>
<polygon fill="midnightblue" stroke="midnightblue" points="468.999,-318.018 460.524,-311.66 463.184,-321.915 468.999,-318.018"/>
</g>
<!-- Node41 -->
<g id="node6" class="node"><title>Node41</title>
<g id="a_node6"><a xlink:href="classSeeSawN_1_1ApplicationN_1_1InterfaceVisionGraphPipelineC.html#a6cc54cb46531eefd52ca842ad62570b7" target="_top" xlink:title="Makes a parameter object from a property tree. ">
<polygon fill="white" stroke="black" points="592.5,-458.5 592.5,-499.5 739.5,-499.5 739.5,-458.5 592.5,-458.5"/>
<text text-anchor="start" x="600.5" y="-487.5" font-family="FreeSans" font-size="10.00">SeeSawN::ApplicationN</text>
<text text-anchor="start" x="600.5" y="-476.5" font-family="FreeSans" font-size="10.00">::InterfaceVisionGraphPipeline</text>
<text text-anchor="middle" x="666" y="-465.5" font-family="FreeSans" font-size="10.00">C::MakeParameterObject</text>
</a>
</g>
</g>
<!-- Node38&#45;&gt;Node41 -->
<g id="edge5" class="edge"><title>Node38&#45;&gt;Node41</title>
<path fill="none" stroke="midnightblue" d="M463.197,-320.78C482.154,-355.12 517.666,-411.057 563,-444 571.86,-450.438 581.997,-455.762 592.365,-460.144"/>
<polygon fill="midnightblue" stroke="midnightblue" points="466.127,-318.839 458.295,-311.704 459.968,-322.166 466.127,-318.839"/>
</g>
<!-- Node44 -->
<g id="node9" class="node"><title>Node44</title>
<g id="a_node9"><a xlink:href="classSeeSawN_1_1ApplicationN_1_1InterfaceCalibrationVerificationPipelineC.html#ac361593d46882b26eb89db49c9691a47" target="_top" xlink:title="Makes a parameter object from a property tree. ">
<polygon fill="white" stroke="black" points="586,-240.5 586,-281.5 746,-281.5 746,-240.5 586,-240.5"/>
<text text-anchor="start" x="594" y="-269.5" font-family="FreeSans" font-size="10.00">SeeSawN::ApplicationN</text>
<text text-anchor="start" x="594" y="-258.5" font-family="FreeSans" font-size="10.00">::InterfaceCalibrationVerification</text>
<text text-anchor="middle" x="666" y="-247.5" font-family="FreeSans" font-size="10.00">PipelineC::MakeParameterObject</text>
</a>
</g>
</g>
<!-- Node38&#45;&gt;Node44 -->
<g id="edge9" class="edge"><title>Node38&#45;&gt;Node44</title>
<path fill="none" stroke="midnightblue" d="M537.229,-278.664C553.38,-276.431 570.118,-274.117 585.952,-271.928"/>
<polygon fill="midnightblue" stroke="midnightblue" points="536.69,-275.205 527.263,-280.042 537.648,-282.139 536.69,-275.205"/>
</g>
<!-- Node46 -->
<g id="node11" class="node"><title>Node46</title>
<g id="a_node11"><a xlink:href="classSeeSawN_1_1ApplicationN_1_1InterfaceNodalCameraTrackingPipelineC.html#a1528e3aacb9088d316f1cb86978ac010" target="_top" xlink:title="Makes a parameter object from a property tree. ">
<polygon fill="white" stroke="black" points="586,-180.5 586,-221.5 746,-221.5 746,-180.5 586,-180.5"/>
<text text-anchor="start" x="594" y="-209.5" font-family="FreeSans" font-size="10.00">SeeSawN::ApplicationN</text>
<text text-anchor="start" x="594" y="-198.5" font-family="FreeSans" font-size="10.00">::InterfaceNodalCameraTracking</text>
<text text-anchor="middle" x="666" y="-187.5" font-family="FreeSans" font-size="10.00">PipelineC::MakeParameterObject</text>
</a>
</g>
</g>
<!-- Node38&#45;&gt;Node46 -->
<g id="edge11" class="edge"><title>Node38&#45;&gt;Node46</title>
<path fill="none" stroke="midnightblue" d="M492.143,-265.389C513.15,-253.877 538.896,-240.725 563,-231 571.302,-227.651 580.12,-224.494 588.959,-221.576"/>
<polygon fill="midnightblue" stroke="midnightblue" points="490.198,-262.466 483.149,-270.376 493.592,-268.588 490.198,-262.466"/>
</g>
<!-- Node48 -->
<g id="node13" class="node"><title>Node48</title>
<g id="a_node13"><a xlink:href="classSeeSawN_1_1ApplicationN_1_1InterfaceRoamingCameraTrackingPipelineC.html#a8302af37f63e6682be01ab9f52fc7855" target="_top" xlink:title="Makes a parameter object from a property tree. ">
<polygon fill="white" stroke="black" points="581.5,-120.5 581.5,-161.5 750.5,-161.5 750.5,-120.5 581.5,-120.5"/>
<text text-anchor="start" x="589.5" y="-149.5" font-family="FreeSans" font-size="10.00">SeeSawN::ApplicationN</text>
<text text-anchor="start" x="589.5" y="-138.5" font-family="FreeSans" font-size="10.00">::InterfaceRoamingCameraTracking</text>
<text text-anchor="middle" x="666" y="-127.5" font-family="FreeSans" font-size="10.00">PipelineC::MakeParameterObject</text>
</a>
</g>
</g>
<!-- Node38&#45;&gt;Node48 -->
<g id="edge13" class="edge"><title>Node38&#45;&gt;Node48</title>
<path fill="none" stroke="midnightblue" d="M468.295,-262.429C489.109,-235.149 523.899,-194.778 563,-171 568.835,-167.451 575.115,-164.302 581.588,-161.51"/>
<polygon fill="midnightblue" stroke="midnightblue" points="465.487,-260.339 462.295,-270.442 471.091,-264.535 465.487,-260.339"/>
</g>
<!-- Node49 -->
<g id="node14" class="node"><title>Node49</title>
<g id="a_node14"><a xlink:href="classSeeSawN_1_1ApplicationN_1_1InterfaceMultimodelGeometryEstimationPipelineC.html#a022f2ccad25296bf25259cd3eaee5dff" target="_top" xlink:title="Makes a parameter object from a property tree. ">
<polygon fill="white" stroke="black" points="563,-60.5 563,-101.5 769,-101.5 769,-60.5 563,-60.5"/>
<text text-anchor="start" x="571" y="-89.5" font-family="FreeSans" font-size="10.00">SeeSawN::ApplicationN</text>
<text text-anchor="start" x="571" y="-78.5" font-family="FreeSans" font-size="10.00">::InterfaceMultimodelGeometry</text>
<text text-anchor="middle" x="666" y="-67.5" font-family="FreeSans" font-size="10.00">EstimationPipelineC::MakeParameterObject</text>
</a>
</g>
</g>
<!-- Node38&#45;&gt;Node49 -->
<g id="edge14" class="edge"><title>Node38&#45;&gt;Node49</title>
<path fill="none" stroke="midnightblue" d="M459.361,-260.788C475.996,-220.637 510.789,-150.212 563,-111 567.723,-107.453 572.859,-104.324 578.231,-101.564"/>
<polygon fill="midnightblue" stroke="midnightblue" points="456.017,-259.723 455.523,-270.306 462.509,-262.341 456.017,-259.723"/>
</g>
<!-- Node51 -->
<g id="node16" class="node"><title>Node51</title>
<g id="a_node16"><a xlink:href="classSeeSawN_1_1ApplicationN_1_1InterfaceImageFeatureTrackingPipelineC.html#a64855882f38d56819bc17e7a314c7e4f" target="_top" xlink:title="Makes a parameter object from a property tree. ">
<polygon fill="white" stroke="black" points="586,-0.5 586,-41.5 746,-41.5 746,-0.5 586,-0.5"/>
<text text-anchor="start" x="594" y="-29.5" font-family="FreeSans" font-size="10.00">SeeSawN::ApplicationN</text>
<text text-anchor="start" x="594" y="-18.5" font-family="FreeSans" font-size="10.00">::InterfaceImageFeatureTracking</text>
<text text-anchor="middle" x="666" y="-7.5" font-family="FreeSans" font-size="10.00">PipelineC::MakeParameterObject</text>
</a>
</g>
</g>
<!-- Node38&#45;&gt;Node51 -->
<g id="edge16" class="edge"><title>Node38&#45;&gt;Node51</title>
<path fill="none" stroke="midnightblue" d="M454.198,-260.385C466.13,-209.362 497.159,-107.023 563,-51 569.748,-45.2584 577.551,-40.6152 585.777,-36.8604"/>
<polygon fill="midnightblue" stroke="midnightblue" points="450.777,-259.643 451.998,-270.168 457.607,-261.179 450.777,-259.643"/>
</g>
<!-- Node52 -->
<g id="node17" class="node"><title>Node52</title>
<g id="a_node17"><a xlink:href="classSeeSawN_1_1AppGeometryEstimator32N_1_1GeometryEstimator32ImplementationC.html#aba68a985bf9fea064541a976c2bd5505" target="_top" xlink:title="Sets and validates the application parameters. ">
<polygon fill="white" stroke="black" points="571.5,-300.5 571.5,-341.5 760.5,-341.5 760.5,-300.5 571.5,-300.5"/>
<text text-anchor="start" x="579.5" y="-329.5" font-family="FreeSans" font-size="10.00">SeeSawN::AppGeometryEstimator32</text>
<text text-anchor="start" x="579.5" y="-318.5" font-family="FreeSans" font-size="10.00">N::GeometryEstimator32Implementation</text>
<text text-anchor="middle" x="666" y="-307.5" font-family="FreeSans" font-size="10.00">C::SetParameters</text>
</a>
</g>
</g>
<!-- Node38&#45;&gt;Node52 -->
<g id="edge18" class="edge"><title>Node38&#45;&gt;Node52</title>
<path fill="none" stroke="midnightblue" d="M537.415,-303.361C548.569,-304.904 560.001,-306.484 571.219,-308.035"/>
<polygon fill="midnightblue" stroke="midnightblue" points="537.648,-299.861 527.263,-301.958 536.69,-306.795 537.648,-299.861"/>
</g>
<!-- Node39&#45;&gt;Node40 -->
<g id="edge4" class="edge"><title>Node39&#45;&gt;Node40</title>
<path fill="none" stroke="midnightblue" d="M747.838,-397.301C781.311,-404.05 819.439,-411.739 850.311,-417.964"/>
<polygon fill="midnightblue" stroke="midnightblue" points="748.107,-393.784 737.612,-395.239 746.723,-400.646 748.107,-393.784"/>
</g>
<!-- Node41&#45;&gt;Node40 -->
<g id="edge8" class="edge"><title>Node41&#45;&gt;Node40</title>
<path fill="none" stroke="midnightblue" d="M749.693,-462.325C782.766,-455.656 820.126,-448.123 850.454,-442.007"/>
<polygon fill="midnightblue" stroke="midnightblue" points="748.69,-458.957 739.579,-464.365 750.073,-465.819 748.69,-458.957"/>
</g>
<!-- Node41&#45;&gt;Node42 -->
<g id="edge6" class="edge"><title>Node41&#45;&gt;Node42</title>
<path fill="none" stroke="midnightblue" d="M749.693,-489.209C782.766,-493.292 820.126,-497.904 850.454,-501.649"/>
<polygon fill="midnightblue" stroke="midnightblue" points="749.932,-485.712 739.579,-487.96 749.075,-492.659 749.932,-485.712"/>
</g>
<!-- Node43 -->
<g id="node8" class="node"><title>Node43</title>
<g id="a_node8"><a xlink:href="classSeeSawN_1_1AppPfMN_1_1AppPfMImplementationC.html#abc73e8c53e5966a07e0da314df087d02" target="_top" xlink:title="Sets and validates the application parameters. ">
<polygon fill="white" stroke="black" points="1053,-494 1053,-524 1268,-524 1268,-494 1053,-494"/>
<text text-anchor="start" x="1061" y="-512" font-family="FreeSans" font-size="10.00">SeeSawN::AppPfMN::AppPfMImplementation</text>
<text text-anchor="middle" x="1160.5" y="-501" font-family="FreeSans" font-size="10.00">C::SetParameters</text>
</a>
</g>
</g>
<!-- Node42&#45;&gt;Node43 -->
<g id="edge7" class="edge"><title>Node42&#45;&gt;Node43</title>
<path fill="none" stroke="midnightblue" d="M981.812,-509C1003.79,-509 1028.59,-509 1052.54,-509"/>
<polygon fill="midnightblue" stroke="midnightblue" points="981.597,-505.5 971.597,-509 981.597,-512.5 981.597,-505.5"/>
</g>
<!-- Node45 -->
<g id="node10" class="node"><title>Node45</title>
<g id="a_node10"><a xlink:href="classSeeSawN_1_1AppCalibrationVerificationN_1_1AppCalibrationVerificationImplementationC.html#ac04bcbed179f0534015eb622d62c9d92" target="_top" xlink:title="Sets and validates the application parameters. ">
<polygon fill="white" stroke="black" points="808,-240.5 808,-281.5 1014,-281.5 1014,-240.5 808,-240.5"/>
<text text-anchor="start" x="816" y="-269.5" font-family="FreeSans" font-size="10.00">SeeSawN::AppCalibrationVerification</text>
<text text-anchor="start" x="816" y="-258.5" font-family="FreeSans" font-size="10.00">N::AppCalibrationVerificationImplementation</text>
<text text-anchor="middle" x="911" y="-247.5" font-family="FreeSans" font-size="10.00">C::SetParameters</text>
</a>
</g>
</g>
<!-- Node44&#45;&gt;Node45 -->
<g id="edge10" class="edge"><title>Node44&#45;&gt;Node45</title>
<path fill="none" stroke="midnightblue" d="M756.509,-261C773.216,-261 790.793,-261 807.847,-261"/>
<polygon fill="midnightblue" stroke="midnightblue" points="756.231,-257.5 746.231,-261 756.231,-264.5 756.231,-257.5"/>
</g>
<!-- Node47 -->
<g id="node12" class="node"><title>Node47</title>
<g id="a_node12"><a xlink:href="classSeeSawN_1_1AppNodalCameraTrackerN_1_1AppNodalCameraTrackerImplementationC.html#a3bcec328618771244080b0d1eba59093" target="_top" xlink:title="Sets and validates the application parameters. ">
<polygon fill="white" stroke="black" points="808.5,-180.5 808.5,-221.5 1013.5,-221.5 1013.5,-180.5 808.5,-180.5"/>
<text text-anchor="start" x="816.5" y="-209.5" font-family="FreeSans" font-size="10.00">SeeSawN::AppNodalCameraTracker</text>
<text text-anchor="start" x="816.5" y="-198.5" font-family="FreeSans" font-size="10.00">N::AppNodalCameraTrackerImplementation</text>
<text text-anchor="middle" x="911" y="-187.5" font-family="FreeSans" font-size="10.00">C::SetParameters</text>
</a>
</g>
</g>
<!-- Node46&#45;&gt;Node47 -->
<g id="edge12" class="edge"><title>Node46&#45;&gt;Node47</title>
<path fill="none" stroke="midnightblue" d="M756.582,-201C773.41,-201 791.117,-201 808.282,-201"/>
<polygon fill="midnightblue" stroke="midnightblue" points="756.231,-197.5 746.231,-201 756.231,-204.5 756.231,-197.5"/>
</g>
<!-- Node50 -->
<g id="node15" class="node"><title>Node50</title>
<g id="a_node15"><a xlink:href="classSeeSawN_1_1AppMultimodelGeometryEstimator22N_1_1AppMultimodelGeometryEstimator22ImplementationC.html#a6ab5cbfa539585a5493ffea2336d480a" target="_top" xlink:title="Sets and validates the application parameters. ">
<polygon fill="white" stroke="black" points="805,-60.5 805,-101.5 1017,-101.5 1017,-60.5 805,-60.5"/>
<text text-anchor="start" x="813" y="-89.5" font-family="FreeSans" font-size="10.00">SeeSawN::AppMultimodelGeometry</text>
<text text-anchor="start" x="813" y="-78.5" font-family="FreeSans" font-size="10.00">Estimator22N::AppMultimodelGeometry</text>
<text text-anchor="middle" x="911" y="-67.5" font-family="FreeSans" font-size="10.00">Estimator22ImplementationC::SetParameters</text>
</a>
</g>
</g>
<!-- Node49&#45;&gt;Node50 -->
<g id="edge15" class="edge"><title>Node49&#45;&gt;Node50</title>
<path fill="none" stroke="midnightblue" d="M779.523,-81C787.895,-81 796.324,-81 804.651,-81"/>
<polygon fill="midnightblue" stroke="midnightblue" points="779.35,-77.5001 769.35,-81 779.35,-84.5001 779.35,-77.5001"/>
</g>
</g>
</svg>
