<?xml version="1.0" encoding="UTF-8" standalone="no"?>
<!DOCTYPE svg PUBLIC "-//W3C//DTD SVG 1.1//EN"
 "http://www.w3.org/Graphics/SVG/1.1/DTD/svg11.dtd">
<!-- Generated by graphviz version 2.38.0 (20140413.2041)
 -->
<!-- Title: SeeSawN::MetricsN::SymmetricTransferErrorC::ComputeJacobiandP Pages: 1 -->
<svg width="344pt" height="88pt"
 viewBox="0.00 0.00 344.00 88.00" xmlns="http://www.w3.org/2000/svg" xmlns:xlink="http://www.w3.org/1999/xlink">
<g id="graph0" class="graph" transform="scale(1 1) rotate(0) translate(4 84)">
<title>SeeSawN::MetricsN::SymmetricTransferErrorC::ComputeJacobiandP</title>
<polygon fill="white" stroke="none" points="-4,4 -4,-84 340,-84 340,4 -4,4"/>
<!-- Node13 -->
<g id="node1" class="node"><title>Node13</title>
<polygon fill="#bfbfbf" stroke="black" points="0,-19 0,-60 126,-60 126,-19 0,-19"/>
<text text-anchor="start" x="8" y="-48" font-family="FreeSans" font-size="10.00">SeeSawN::MetricsN::</text>
<text text-anchor="start" x="8" y="-37" font-family="FreeSans" font-size="10.00">SymmetricTransferErrorC</text>
<text text-anchor="middle" x="63" y="-26" font-family="FreeSans" font-size="10.00">::ComputeJacobiandP</text>
</g>
<!-- Node14 -->
<g id="node2" class="node"><title>Node14</title>
<g id="a_node2"><a xlink:href="classSeeSawN_1_1MetricsN_1_1TransferErrorC.html#a930d104a84a2623f069f0e5f593b0eeb" target="_top" xlink:title="Computes the Jacobian of the error wrt/projector. ">
<polygon fill="white" stroke="black" points="162,-49.5 162,-79.5 336,-79.5 336,-49.5 162,-49.5"/>
<text text-anchor="start" x="170" y="-67.5" font-family="FreeSans" font-size="10.00">SeeSawN::MetricsN::</text>
<text text-anchor="middle" x="249" y="-56.5" font-family="FreeSans" font-size="10.00">TransferErrorC::ComputeJacobiandP</text>
</a>
</g>
</g>
<!-- Node13&#45;&gt;Node14 -->
<g id="edge1" class="edge"><title>Node13&#45;&gt;Node14</title>
<path fill="none" stroke="midnightblue" d="M126.037,-47.929C134.286,-49.0497 142.895,-50.2195 151.557,-51.3964"/>
<polygon fill="midnightblue" stroke="midnightblue" points="151.351,-54.9005 161.732,-52.7788 152.294,-47.9642 151.351,-54.9005"/>
</g>
<!-- Node15 -->
<g id="node3" class="node"><title>Node15</title>
<g id="a_node3"><a xlink:href="classSeeSawN_1_1MetricsN_1_1TransferErrorC.html#a83ec5e574e5d28a5fe32275ce095a2eb" target="_top" xlink:title="Sets the projection operator. ">
<polygon fill="white" stroke="black" points="180,-0.5 180,-30.5 318,-30.5 318,-0.5 180,-0.5"/>
<text text-anchor="start" x="188" y="-18.5" font-family="FreeSans" font-size="10.00">SeeSawN::MetricsN::</text>
<text text-anchor="middle" x="249" y="-7.5" font-family="FreeSans" font-size="10.00">TransferErrorC::SetProjector</text>
</a>
</g>
</g>
<!-- Node13&#45;&gt;Node15 -->
<g id="edge2" class="edge"><title>Node13&#45;&gt;Node15</title>
<path fill="none" stroke="midnightblue" d="M126.037,-31.4082C140.109,-29.5727 155.23,-27.6004 169.872,-25.6906"/>
<polygon fill="midnightblue" stroke="midnightblue" points="170.45,-29.145 179.913,-24.3809 169.544,-22.2038 170.45,-29.145"/>
</g>
</g>
</svg>
