<?xml version="1.0" encoding="UTF-8" standalone="no"?>
<!DOCTYPE svg PUBLIC "-//W3C//DTD SVG 1.1//EN"
 "http://www.w3.org/Graphics/SVG/1.1/DTD/svg11.dtd">
<!-- Generated by graphviz version 2.38.0 (20140413.2041)
 -->
<!-- Title: SeeSawN::NumericN::RatioRegistrationC::SolveLS Pages: 1 -->
<svg width="1287pt" height="170pt"
 viewBox="0.00 0.00 1287.00 170.00" xmlns="http://www.w3.org/2000/svg" xmlns:xlink="http://www.w3.org/1999/xlink">
<g id="graph0" class="graph" transform="scale(1 1) rotate(0) translate(4 166)">
<title>SeeSawN::NumericN::RatioRegistrationC::SolveLS</title>
<polygon fill="white" stroke="none" points="-4,4 -4,-166 1283,-166 1283,4 -4,4"/>
<!-- Node27 -->
<g id="node1" class="node"><title>Node27</title>
<polygon fill="#bfbfbf" stroke="black" points="0,-60.5 0,-101.5 114,-101.5 114,-60.5 0,-60.5"/>
<text text-anchor="start" x="8" y="-89.5" font-family="FreeSans" font-size="10.00">SeeSawN::NumericN::</text>
<text text-anchor="start" x="8" y="-78.5" font-family="FreeSans" font-size="10.00">RatioRegistrationC::</text>
<text text-anchor="middle" x="57" y="-67.5" font-family="FreeSans" font-size="10.00">SolveLS</text>
</g>
<!-- Node28 -->
<g id="node2" class="node"><title>Node28</title>
<g id="a_node2"><a xlink:href="classSeeSawN_1_1NumericN_1_1RatioRegistrationC.html#ac6f99013b6e1c625b0f3e646011b4f60" target="_top" xlink:title="Runs the algorithm. ">
<polygon fill="white" stroke="black" points="150,-66 150,-96 269,-96 269,-66 150,-66"/>
<text text-anchor="start" x="158" y="-84" font-family="FreeSans" font-size="10.00">SeeSawN::NumericN::</text>
<text text-anchor="middle" x="209.5" y="-73" font-family="FreeSans" font-size="10.00">RatioRegistrationC::Run</text>
</a>
</g>
</g>
<!-- Node27&#45;&gt;Node28 -->
<g id="edge1" class="edge"><title>Node27&#45;&gt;Node28</title>
<path fill="none" stroke="midnightblue" d="M124.043,-81C132.65,-81 141.421,-81 149.895,-81"/>
<polygon fill="midnightblue" stroke="midnightblue" points="124.041,-77.5001 114.041,-81 124.041,-84.5001 124.041,-77.5001"/>
</g>
<!-- Node29 -->
<g id="node3" class="node"><title>Node29</title>
<g id="a_node3"><a xlink:href="namespaceSeeSawN_1_1UnitTestsN_1_1TestNumericN.html#a91126fd175d6b7b1ef9a828b995215da" target="_top" xlink:title="SeeSawN::UnitTestsN\l::TestNumericN::BOOST\l_AUTO_TEST_CASE">
<polygon fill="white" stroke="black" points="325.5,-120.5 325.5,-161.5 449.5,-161.5 449.5,-120.5 325.5,-120.5"/>
<text text-anchor="start" x="333.5" y="-149.5" font-family="FreeSans" font-size="10.00">SeeSawN::UnitTestsN</text>
<text text-anchor="start" x="333.5" y="-138.5" font-family="FreeSans" font-size="10.00">::TestNumericN::BOOST</text>
<text text-anchor="middle" x="387.5" y="-127.5" font-family="FreeSans" font-size="10.00">_AUTO_TEST_CASE</text>
</a>
</g>
</g>
<!-- Node28&#45;&gt;Node29 -->
<g id="edge2" class="edge"><title>Node28&#45;&gt;Node29</title>
<path fill="none" stroke="midnightblue" d="M264.543,-99.4239C284.034,-106.069 306.15,-113.608 326.146,-120.425"/>
<polygon fill="midnightblue" stroke="midnightblue" points="265.507,-96.0546 254.912,-96.1405 263.248,-102.68 265.507,-96.0546"/>
</g>
<!-- Node30 -->
<g id="node4" class="node"><title>Node30</title>
<g id="a_node4"><a xlink:href="classSeeSawN_1_1GeometryN_1_1PfMPipelineC.html#aa75eef992075f7779407818791f4eac2" target="_top" xlink:title="Estimates the relative focal lengths. ">
<polygon fill="white" stroke="black" points="308.5,-60.5 308.5,-101.5 466.5,-101.5 466.5,-60.5 308.5,-60.5"/>
<text text-anchor="start" x="316.5" y="-89.5" font-family="FreeSans" font-size="10.00">SeeSawN::GeometryN</text>
<text text-anchor="start" x="316.5" y="-78.5" font-family="FreeSans" font-size="10.00">::PfMPipelineC::EstimateRelative</text>
<text text-anchor="middle" x="387.5" y="-67.5" font-family="FreeSans" font-size="10.00">FocalLengths</text>
</a>
</g>
</g>
<!-- Node28&#45;&gt;Node30 -->
<g id="edge3" class="edge"><title>Node28&#45;&gt;Node30</title>
<path fill="none" stroke="midnightblue" d="M279.315,-81C288.86,-81 298.721,-81 308.419,-81"/>
<polygon fill="midnightblue" stroke="midnightblue" points="279.105,-77.5001 269.105,-81 279.105,-84.5001 279.105,-77.5001"/>
</g>
<!-- Node35 -->
<g id="node9" class="node"><title>Node35</title>
<g id="a_node9"><a xlink:href="classSeeSawN_1_1RandomSpanningTreeSamplerN_1_1RSTSRatioRegistrationProblemC.html#a1f46ad68af59a9b4b7c2554321fa73e7" target="_top" xlink:title="Generates a model from a list of ratios. ">
<polygon fill="white" stroke="black" points="305,-0.5 305,-41.5 470,-41.5 470,-0.5 305,-0.5"/>
<text text-anchor="start" x="313" y="-29.5" font-family="FreeSans" font-size="10.00">SeeSawN::RandomSpanningTree</text>
<text text-anchor="start" x="313" y="-18.5" font-family="FreeSans" font-size="10.00">SamplerN::RSTSRatioRegistration</text>
<text text-anchor="middle" x="387.5" y="-7.5" font-family="FreeSans" font-size="10.00">ProblemC::GenerateModel</text>
</a>
</g>
</g>
<!-- Node28&#45;&gt;Node35 -->
<g id="edge8" class="edge"><title>Node28&#45;&gt;Node35</title>
<path fill="none" stroke="midnightblue" d="M264.543,-62.5761C284.034,-55.9315 306.15,-48.392 326.146,-41.5751"/>
<polygon fill="midnightblue" stroke="midnightblue" points="263.248,-59.3199 254.912,-65.8595 265.507,-65.9454 263.248,-59.3199"/>
</g>
<!-- Node31 -->
<g id="node5" class="node"><title>Node31</title>
<g id="a_node5"><a xlink:href="classSeeSawN_1_1GeometryN_1_1PfMPipelineC.html#a96792cb875c8383b7eb4be80010460fd" target="_top" xlink:title="Estimates the focal lengths. ">
<polygon fill="white" stroke="black" points="519,-60.5 519,-101.5 666,-101.5 666,-60.5 519,-60.5"/>
<text text-anchor="start" x="527" y="-89.5" font-family="FreeSans" font-size="10.00">SeeSawN::GeometryN</text>
<text text-anchor="start" x="527" y="-78.5" font-family="FreeSans" font-size="10.00">::PfMPipelineC::EstimateFocal</text>
<text text-anchor="middle" x="592.5" y="-67.5" font-family="FreeSans" font-size="10.00">Lengths</text>
</a>
</g>
</g>
<!-- Node30&#45;&gt;Node31 -->
<g id="edge4" class="edge"><title>Node30&#45;&gt;Node31</title>
<path fill="none" stroke="midnightblue" d="M476.799,-81C490.779,-81 505.099,-81 518.673,-81"/>
<polygon fill="midnightblue" stroke="midnightblue" points="476.695,-77.5001 466.695,-81 476.695,-84.5001 476.695,-77.5001"/>
</g>
<!-- Node32 -->
<g id="node6" class="node"><title>Node32</title>
<g id="a_node6"><a xlink:href="classSeeSawN_1_1GeometryN_1_1PfMPipelineC.html#ad572dea46d62bd8e369f7da5e7bdbf58" target="_top" xlink:title="Estimates the calibration parameters for the cameras. ">
<polygon fill="white" stroke="black" points="715,-66 715,-96 877,-96 877,-66 715,-66"/>
<text text-anchor="start" x="723" y="-84" font-family="FreeSans" font-size="10.00">SeeSawN::GeometryN</text>
<text text-anchor="middle" x="796" y="-73" font-family="FreeSans" font-size="10.00">::PfMPipelineC::CalibrateCameras</text>
</a>
</g>
</g>
<!-- Node31&#45;&gt;Node32 -->
<g id="edge5" class="edge"><title>Node31&#45;&gt;Node32</title>
<path fill="none" stroke="midnightblue" d="M676.35,-81C689.074,-81 702.191,-81 714.855,-81"/>
<polygon fill="midnightblue" stroke="midnightblue" points="676.246,-77.5001 666.246,-81 676.246,-84.5001 676.246,-77.5001"/>
</g>
<!-- Node33 -->
<g id="node7" class="node"><title>Node33</title>
<g id="a_node7"><a xlink:href="classSeeSawN_1_1GeometryN_1_1PfMPipelineC.html#aa435d8f0f4abec5cf35e3f525c407fb7" target="_top" xlink:title="Runs the algorithm. ">
<polygon fill="white" stroke="black" points="913,-66 913,-96 1028,-96 1028,-66 913,-66"/>
<text text-anchor="start" x="921" y="-84" font-family="FreeSans" font-size="10.00">SeeSawN::GeometryN</text>
<text text-anchor="middle" x="970.5" y="-73" font-family="FreeSans" font-size="10.00">::PfMPipelineC::Run</text>
</a>
</g>
</g>
<!-- Node32&#45;&gt;Node33 -->
<g id="edge6" class="edge"><title>Node32&#45;&gt;Node33</title>
<path fill="none" stroke="midnightblue" d="M887.302,-81C895.913,-81 904.47,-81 912.629,-81"/>
<polygon fill="midnightblue" stroke="midnightblue" points="887.19,-77.5001 877.19,-81 887.19,-84.5001 887.19,-77.5001"/>
</g>
<!-- Node34 -->
<g id="node8" class="node"><title>Node34</title>
<g id="a_node8"><a xlink:href="classSeeSawN_1_1AppPfMN_1_1AppPfMImplementationC.html#a907a06d88e1dc5911dedb8d3a8223780" target="_top" xlink:title="Runs the application. ">
<polygon fill="white" stroke="black" points="1064,-66 1064,-96 1279,-96 1279,-66 1064,-66"/>
<text text-anchor="start" x="1072" y="-84" font-family="FreeSans" font-size="10.00">SeeSawN::AppPfMN::AppPfMImplementation</text>
<text text-anchor="middle" x="1171.5" y="-73" font-family="FreeSans" font-size="10.00">C::Run</text>
</a>
</g>
</g>
<!-- Node33&#45;&gt;Node34 -->
<g id="edge7" class="edge"><title>Node33&#45;&gt;Node34</title>
<path fill="none" stroke="midnightblue" d="M1038.5,-81C1046.75,-81 1055.33,-81 1063.98,-81"/>
<polygon fill="midnightblue" stroke="midnightblue" points="1038.26,-77.5001 1028.26,-81 1038.26,-84.5001 1038.26,-77.5001"/>
</g>
<!-- Node36 -->
<g id="node10" class="node"><title>Node36</title>
<g id="a_node10"><a xlink:href="namespaceSeeSawN_1_1UnitTestsN_1_1TestRandomSpanningTreeSamplerN.html#a51006bdde4dc2743e234d76b0e6769b7" target="_top" xlink:title="SeeSawN::UnitTestsN\l::TestRandomSpanningTreeSampler\lN::BOOST_AUTO_TEST_CASE">
<polygon fill="white" stroke="black" points="506,-0.5 506,-41.5 679,-41.5 679,-0.5 506,-0.5"/>
<text text-anchor="start" x="514" y="-29.5" font-family="FreeSans" font-size="10.00">SeeSawN::UnitTestsN</text>
<text text-anchor="start" x="514" y="-18.5" font-family="FreeSans" font-size="10.00">::TestRandomSpanningTreeSampler</text>
<text text-anchor="middle" x="592.5" y="-7.5" font-family="FreeSans" font-size="10.00">N::BOOST_AUTO_TEST_CASE</text>
</a>
</g>
</g>
<!-- Node35&#45;&gt;Node36 -->
<g id="edge9" class="edge"><title>Node35&#45;&gt;Node36</title>
<path fill="none" stroke="midnightblue" d="M480.21,-21C488.795,-21 497.474,-21 505.999,-21"/>
<polygon fill="midnightblue" stroke="midnightblue" points="480.19,-17.5001 470.19,-21 480.19,-24.5001 480.19,-17.5001"/>
</g>
</g>
</svg>
