<?xml version="1.0" encoding="UTF-8" standalone="no"?>
<!DOCTYPE svg PUBLIC "-//W3C//DTD SVG 1.1//EN"
 "http://www.w3.org/Graphics/SVG/1.1/DTD/svg11.dtd">
<!-- Generated by graphviz version 2.38.0 (20140413.2041)
 -->
<!-- Title: SeeSawN::ElementsN::CameraC::MakeRotationMatrix Pages: 1 -->
<svg width="808pt" height="391pt"
 viewBox="0.00 0.00 808.00 390.73" xmlns="http://www.w3.org/2000/svg" xmlns:xlink="http://www.w3.org/1999/xlink">
<g id="graph0" class="graph" transform="scale(1 1) rotate(0) translate(4 386.73)">
<title>SeeSawN::ElementsN::CameraC::MakeRotationMatrix</title>
<polygon fill="white" stroke="none" points="-4,4 -4,-386.73 804,-386.73 804,4 -4,4"/>
<!-- Node111 -->
<g id="node1" class="node"><title>Node111</title>
<polygon fill="#bfbfbf" stroke="black" points="0,-240.73 0,-270.73 152,-270.73 152,-240.73 0,-240.73"/>
<text text-anchor="start" x="8" y="-258.73" font-family="FreeSans" font-size="10.00">SeeSawN::ElementsN</text>
<text text-anchor="middle" x="76" y="-247.73" font-family="FreeSans" font-size="10.00">::CameraC::MakeRotationMatrix</text>
</g>
<!-- Node112 -->
<g id="node2" class="node"><title>Node112</title>
<g id="a_node2"><a xlink:href="namespaceSeeSawN_1_1UnitTestsN_1_1TestElementsN.html#a3d4c397e7f5b4625ec1d01571d649883" target="_top" xlink:title="SeeSawN::UnitTestsN\l::TestElementsN::BOOST\l_AUTO_TEST_CASE">
<polygon fill="white" stroke="black" points="427.5,-341.23 427.5,-382.23 555.5,-382.23 555.5,-341.23 427.5,-341.23"/>
<text text-anchor="start" x="435.5" y="-370.23" font-family="FreeSans" font-size="10.00">SeeSawN::UnitTestsN</text>
<text text-anchor="start" x="435.5" y="-359.23" font-family="FreeSans" font-size="10.00">::TestElementsN::BOOST</text>
<text text-anchor="middle" x="491.5" y="-348.23" font-family="FreeSans" font-size="10.00">_AUTO_TEST_CASE</text>
</a>
</g>
</g>
<!-- Node111&#45;&gt;Node112 -->
<g id="edge1" class="edge"><title>Node111&#45;&gt;Node112</title>
<path fill="none" stroke="midnightblue" d="M99.7943,-277.568C120.86,-296.287 153.963,-322.159 188,-334.73 266.766,-363.819 364.595,-367.166 427.29,-365.54"/>
<polygon fill="midnightblue" stroke="midnightblue" points="102.087,-274.923 92.3331,-270.787 97.3794,-280.103 102.087,-274.923"/>
</g>
<!-- Node113 -->
<g id="node3" class="node"><title>Node113</title>
<g id="a_node3"><a xlink:href="classSeeSawN_1_1AppGeometryEstimator22N_1_1GeometryEstimator22ImplementationC.html#a405fe09f3f341448221fefa93690ae5e" target="_top" xlink:title="Computes an initial estimate. ">
<polygon fill="white" stroke="black" points="397,-281.23 397,-322.23 586,-322.23 586,-281.23 397,-281.23"/>
<text text-anchor="start" x="405" y="-310.23" font-family="FreeSans" font-size="10.00">SeeSawN::AppGeometryEstimator22</text>
<text text-anchor="start" x="405" y="-299.23" font-family="FreeSans" font-size="10.00">N::GeometryEstimator22Implementation</text>
<text text-anchor="middle" x="491.5" y="-288.23" font-family="FreeSans" font-size="10.00">C::ComputeInitialEstimate</text>
</a>
</g>
</g>
<!-- Node111&#45;&gt;Node113 -->
<g id="edge2" class="edge"><title>Node111&#45;&gt;Node113</title>
<path fill="none" stroke="midnightblue" d="M162.361,-258.35C218.915,-260.845 294.631,-265.635 361,-274.73 373.628,-276.46 386.867,-278.709 399.859,-281.171"/>
<polygon fill="midnightblue" stroke="midnightblue" points="162.171,-254.839 152.031,-257.91 161.873,-261.833 162.171,-254.839"/>
</g>
<!-- Node114 -->
<g id="node4" class="node"><title>Node114</title>
<g id="a_node4"><a xlink:href="classSeeSawN_1_1DataGeneratorN_1_1RandomGeometryProblemGeneratorC.html#ae7a2561c381cbf92e51830af304b0736" target="_top" xlink:title="Generates a problem for solvers involving a camera pair and 2D correspondences. ">
<polygon fill="white" stroke="black" points="622,-24.2295 622,-65.2295 800,-65.2295 800,-24.2295 622,-24.2295"/>
<text text-anchor="start" x="630" y="-53.2295" font-family="FreeSans" font-size="10.00">SeeSawN::DataGeneratorN</text>
<text text-anchor="start" x="630" y="-42.2295" font-family="FreeSans" font-size="10.00">::RandomGeometryProblemGenerator</text>
<text text-anchor="middle" x="711" y="-31.2295" font-family="FreeSans" font-size="10.00">C::GenerateProblem22</text>
</a>
</g>
</g>
<!-- Node111&#45;&gt;Node114 -->
<g id="edge3" class="edge"><title>Node111&#45;&gt;Node114</title>
<path fill="none" stroke="midnightblue" d="M96.7725,-233.094C143.054,-182.056 264.583,-59.0153 397,-14.7295 480.869,13.3198 583.932,-6.14438 648.312,-24.2201"/>
<polygon fill="midnightblue" stroke="midnightblue" points="94.0722,-230.863 90.0005,-240.644 99.2831,-235.537 94.0722,-230.863"/>
</g>
<!-- Node115 -->
<g id="node5" class="node"><title>Node115</title>
<g id="a_node5"><a xlink:href="classSeeSawN_1_1ElementsN_1_1CameraC.html#ad63af5eb85128f566ecff5ef9d52be71" target="_top" xlink:title="Returns the camera matrix for the camera. ">
<polygon fill="white" stroke="black" points="199.5,-191.73 199.5,-221.73 349.5,-221.73 349.5,-191.73 199.5,-191.73"/>
<text text-anchor="start" x="207.5" y="-209.73" font-family="FreeSans" font-size="10.00">SeeSawN::ElementsN</text>
<text text-anchor="middle" x="274.5" y="-198.73" font-family="FreeSans" font-size="10.00">::CameraC::MakeCameraMatrix</text>
</a>
</g>
</g>
<!-- Node111&#45;&gt;Node115 -->
<g id="edge4" class="edge"><title>Node111&#45;&gt;Node115</title>
<path fill="none" stroke="midnightblue" d="M147.086,-238.253C168.743,-232.852 192.396,-226.954 213.322,-221.736"/>
<polygon fill="midnightblue" stroke="midnightblue" points="146.148,-234.879 137.292,-240.695 147.842,-241.671 146.148,-234.879"/>
</g>
<!-- Node121 -->
<g id="node11" class="node"><title>Node121</title>
<g id="a_node11"><a xlink:href="classSeeSawN_1_1ElementsN_1_1CameraC.html#a5dea4204e093d7311a639f4d241d9173" target="_top" xlink:title="Returns the normalised camera matrix for the camera. ">
<polygon fill="white" stroke="black" points="188,-284.23 188,-325.23 361,-325.23 361,-284.23 188,-284.23"/>
<text text-anchor="start" x="196" y="-313.23" font-family="FreeSans" font-size="10.00">SeeSawN::ElementsN</text>
<text text-anchor="start" x="196" y="-302.23" font-family="FreeSans" font-size="10.00">::CameraC::MakeNormalisedCamera</text>
<text text-anchor="middle" x="274.5" y="-291.23" font-family="FreeSans" font-size="10.00">Matrix</text>
</a>
</g>
</g>
<!-- Node111&#45;&gt;Node121 -->
<g id="edge14" class="edge"><title>Node111&#45;&gt;Node121</title>
<path fill="none" stroke="midnightblue" d="M147.047,-273.197C161.364,-276.767 176.554,-280.555 191.252,-284.22"/>
<polygon fill="midnightblue" stroke="midnightblue" points="147.842,-269.788 137.292,-270.764 146.148,-276.58 147.842,-269.788"/>
</g>
<!-- Node115&#45;&gt;Node112 -->
<g id="edge8" class="edge"><title>Node115&#45;&gt;Node112</title>
<path fill="none" stroke="midnightblue" d="M307.244,-228.007C324.355,-240.407 345.148,-257.056 361,-274.73 381.006,-297.035 373.311,-313.383 397,-331.73 405.896,-338.619 416.419,-343.95 427.14,-348.068"/>
<polygon fill="midnightblue" stroke="midnightblue" points="308.858,-224.86 298.677,-221.927 304.806,-230.569 308.858,-224.86"/>
</g>
<!-- Node115&#45;&gt;Node113 -->
<g id="edge9" class="edge"><title>Node115&#45;&gt;Node113</title>
<path fill="none" stroke="midnightblue" d="M328.785,-225.746C339.724,-230.417 350.958,-235.801 361,-241.73 378.692,-252.175 378.961,-260.895 397,-270.73 404.057,-274.577 411.675,-278.056 419.409,-281.174"/>
<polygon fill="midnightblue" stroke="midnightblue" points="329.865,-222.405 319.285,-221.83 327.196,-228.877 329.865,-222.405"/>
</g>
<!-- Node115&#45;&gt;Node114 -->
<g id="edge10" class="edge"><title>Node115&#45;&gt;Node114</title>
<path fill="none" stroke="midnightblue" d="M297.517,-184.516C320.371,-162.793 358.156,-130.471 397,-112.73 474.937,-77.1329 502.345,-93.2515 586,-74.7295 599.299,-71.7849 613.365,-68.5237 627.062,-65.268"/>
<polygon fill="midnightblue" stroke="midnightblue" points="294.829,-182.246 290.078,-191.716 299.698,-187.276 294.829,-182.246"/>
</g>
<!-- Node116 -->
<g id="node6" class="node"><title>Node116</title>
<g id="a_node6"><a xlink:href="classSeeSawN_1_1DataGeneratorN_1_1RandomGeometryProblemGeneratorC.html#a0cbfc538bcba79d05ef76c2756d604ab" target="_top" xlink:title="Applies a random 3D transformation to a point cloud. ">
<polygon fill="white" stroke="black" points="402.5,-24.2295 402.5,-65.2295 580.5,-65.2295 580.5,-24.2295 402.5,-24.2295"/>
<text text-anchor="start" x="410.5" y="-53.2295" font-family="FreeSans" font-size="10.00">SeeSawN::DataGeneratorN</text>
<text text-anchor="start" x="410.5" y="-42.2295" font-family="FreeSans" font-size="10.00">::RandomGeometryProblemGenerator</text>
<text text-anchor="middle" x="491.5" y="-31.2295" font-family="FreeSans" font-size="10.00">C::ApplyRandom3DTransformation</text>
</a>
</g>
</g>
<!-- Node115&#45;&gt;Node116 -->
<g id="edge5" class="edge"><title>Node115&#45;&gt;Node116</title>
<path fill="none" stroke="midnightblue" d="M292.275,-183.661C313.73,-155.621 353.365,-108.496 397,-79.7295 405.248,-74.2917 414.459,-69.5402 423.795,-65.4391"/>
<polygon fill="midnightblue" stroke="midnightblue" points="289.435,-181.614 286.217,-191.708 295.027,-185.825 289.435,-181.614"/>
</g>
<!-- Node117 -->
<g id="node7" class="node"><title>Node117</title>
<g id="a_node7"><a xlink:href="namespaceSeeSawN_1_1TestDataGenerationN.html#a41b3b2e064f4e3afb69fe0eb414c520b" target="_top" xlink:title="SeeSawN::TestDataGeneration\lN::BOOST_AUTO_TEST_CASE">
<polygon fill="white" stroke="black" points="412.5,-231.73 412.5,-261.73 570.5,-261.73 570.5,-231.73 412.5,-231.73"/>
<text text-anchor="start" x="420.5" y="-249.73" font-family="FreeSans" font-size="10.00">SeeSawN::TestDataGeneration</text>
<text text-anchor="middle" x="491.5" y="-238.73" font-family="FreeSans" font-size="10.00">N::BOOST_AUTO_TEST_CASE</text>
</a>
</g>
</g>
<!-- Node115&#45;&gt;Node117 -->
<g id="edge7" class="edge"><title>Node115&#45;&gt;Node117</title>
<path fill="none" stroke="midnightblue" d="M359.834,-222.42C377.077,-225.628 395.156,-228.991 412.178,-232.158"/>
<polygon fill="midnightblue" stroke="midnightblue" points="360.263,-218.939 349.792,-220.551 358.983,-225.821 360.263,-218.939"/>
</g>
<!-- Node118 -->
<g id="node8" class="node"><title>Node118</title>
<g id="a_node8"><a xlink:href="group__DataGeneration.html#ga6571e0b6db5e17d674cec260307d9a0e" target="_top" xlink:title="Generates a camera pair fixated on a point. ">
<polygon fill="white" stroke="black" points="417.5,-182.73 417.5,-212.73 565.5,-212.73 565.5,-182.73 417.5,-182.73"/>
<text text-anchor="start" x="425.5" y="-200.73" font-family="FreeSans" font-size="10.00">SeeSawN::DataGeneratorN</text>
<text text-anchor="middle" x="491.5" y="-189.73" font-family="FreeSans" font-size="10.00">::GenerateRandomCameraPair</text>
</a>
</g>
</g>
<!-- Node115&#45;&gt;Node118 -->
<g id="edge11" class="edge"><title>Node115&#45;&gt;Node118</title>
<path fill="none" stroke="midnightblue" d="M359.904,-203.196C378.866,-202.403 398.835,-201.567 417.296,-200.794"/>
<polygon fill="midnightblue" stroke="midnightblue" points="359.637,-199.704 349.792,-203.62 359.93,-206.698 359.637,-199.704"/>
</g>
<!-- Node119 -->
<g id="node9" class="node"><title>Node119</title>
<g id="a_node9"><a xlink:href="classSeeSawN_1_1GeometryN_1_1P6PSolverC.html#a640ea1e56a6dcd901b929ab67f569273" target="_top" xlink:title="Minimal form to matrix conversion. ">
<polygon fill="white" stroke="black" points="415.5,-122.23 415.5,-163.23 567.5,-163.23 567.5,-122.23 415.5,-122.23"/>
<text text-anchor="start" x="423.5" y="-151.23" font-family="FreeSans" font-size="10.00">SeeSawN::GeometryN</text>
<text text-anchor="start" x="423.5" y="-140.23" font-family="FreeSans" font-size="10.00">::P6PSolverC::MakeModelFrom</text>
<text text-anchor="middle" x="491.5" y="-129.23" font-family="FreeSans" font-size="10.00">Minimal</text>
</a>
</g>
</g>
<!-- Node115&#45;&gt;Node119 -->
<g id="edge12" class="edge"><title>Node115&#45;&gt;Node119</title>
<path fill="none" stroke="midnightblue" d="M335.838,-188.768C362.407,-180.86 393.769,-171.524 421.283,-163.334"/>
<polygon fill="midnightblue" stroke="midnightblue" points="334.494,-185.517 325.908,-191.724 336.491,-192.226 334.494,-185.517"/>
</g>
<!-- Node116&#45;&gt;Node114 -->
<g id="edge6" class="edge"><title>Node116&#45;&gt;Node114</title>
<path fill="none" stroke="midnightblue" d="M590.878,-44.7295C601.158,-44.7295 611.564,-44.7295 621.722,-44.7295"/>
<polygon fill="midnightblue" stroke="midnightblue" points="590.652,-41.2296 580.652,-44.7295 590.652,-48.2296 590.652,-41.2296"/>
</g>
<!-- Node120 -->
<g id="node10" class="node"><title>Node120</title>
<g id="a_node10"><a xlink:href="namespaceSeeSawN_1_1UnitTestsN_1_1TestGeometryN.html#a4e49d224a55b38ea1f419fc1e3113594" target="_top" xlink:title="SeeSawN::UnitTestsN\l::TestGeometryN::BOOST\l_AUTO_TEST_CASE">
<polygon fill="white" stroke="black" points="646.5,-122.23 646.5,-163.23 775.5,-163.23 775.5,-122.23 646.5,-122.23"/>
<text text-anchor="start" x="654.5" y="-151.23" font-family="FreeSans" font-size="10.00">SeeSawN::UnitTestsN</text>
<text text-anchor="start" x="654.5" y="-140.23" font-family="FreeSans" font-size="10.00">::TestGeometryN::BOOST</text>
<text text-anchor="middle" x="711" y="-129.23" font-family="FreeSans" font-size="10.00">_AUTO_TEST_CASE</text>
</a>
</g>
</g>
<!-- Node119&#45;&gt;Node120 -->
<g id="edge13" class="edge"><title>Node119&#45;&gt;Node120</title>
<path fill="none" stroke="midnightblue" d="M577.704,-142.73C600.585,-142.73 624.928,-142.73 646.411,-142.73"/>
<polygon fill="midnightblue" stroke="midnightblue" points="577.656,-139.23 567.656,-142.73 577.656,-146.23 577.656,-139.23"/>
</g>
<!-- Node121&#45;&gt;Node112 -->
<g id="edge15" class="edge"><title>Node121&#45;&gt;Node112</title>
<path fill="none" stroke="midnightblue" d="M362.954,-327.915C384.557,-333.642 407.28,-339.666 427.464,-345.018"/>
<polygon fill="midnightblue" stroke="midnightblue" points="363.683,-324.487 353.12,-325.308 361.889,-331.254 363.683,-324.487"/>
</g>
<!-- Node121&#45;&gt;Node113 -->
<g id="edge16" class="edge"><title>Node121&#45;&gt;Node113</title>
<path fill="none" stroke="midnightblue" d="M371.323,-303.392C379.762,-303.275 388.299,-303.156 396.721,-303.038"/>
<polygon fill="midnightblue" stroke="midnightblue" points="371.042,-299.896 361.091,-303.535 371.139,-306.895 371.042,-299.896"/>
</g>
</g>
</svg>
