<?xml version="1.0" encoding="UTF-8" standalone="no"?>
<!DOCTYPE svg PUBLIC "-//W3C//DTD SVG 1.1//EN"
 "http://www.w3.org/Graphics/SVG/1.1/DTD/svg11.dtd">
<!-- Generated by graphviz version 2.38.0 (20140413.2041)
 -->
<!-- Title: SeeSawN::GeometryN::MultiviewPanoramaBuilderC::EstimateDirections Pages: 1 -->
<svg width="771pt" height="160pt"
 viewBox="0.00 0.00 771.00 159.50" xmlns="http://www.w3.org/2000/svg" xmlns:xlink="http://www.w3.org/1999/xlink">
<g id="graph0" class="graph" transform="scale(1 1) rotate(0) translate(4 155.5)">
<title>SeeSawN::GeometryN::MultiviewPanoramaBuilderC::EstimateDirections</title>
<polygon fill="white" stroke="none" points="-4,4 -4,-155.5 767,-155.5 767,4 -4,4"/>
<!-- Node13 -->
<g id="node1" class="node"><title>Node13</title>
<polygon fill="#bfbfbf" stroke="black" points="0,-87.5 0,-128.5 137,-128.5 137,-87.5 0,-87.5"/>
<text text-anchor="start" x="8" y="-116.5" font-family="FreeSans" font-size="10.00">SeeSawN::GeometryN</text>
<text text-anchor="start" x="8" y="-105.5" font-family="FreeSans" font-size="10.00">::MultiviewPanoramaBuilder</text>
<text text-anchor="middle" x="68.5" y="-94.5" font-family="FreeSans" font-size="10.00">C::EstimateDirections</text>
</g>
<!-- Node14 -->
<g id="node2" class="node"><title>Node14</title>
<g id="a_node2"><a xlink:href="classSeeSawN_1_1GeometryN_1_1MultiviewPanoramaBuilderC.html#af4677eb2d52fbffc1921725c6b99041a" target="_top" xlink:title="Runs the algorithm. ">
<polygon fill="white" stroke="black" points="173,-87.5 173,-128.5 310,-128.5 310,-87.5 173,-87.5"/>
<text text-anchor="start" x="181" y="-116.5" font-family="FreeSans" font-size="10.00">SeeSawN::GeometryN</text>
<text text-anchor="start" x="181" y="-105.5" font-family="FreeSans" font-size="10.00">::MultiviewPanoramaBuilder</text>
<text text-anchor="middle" x="241.5" y="-94.5" font-family="FreeSans" font-size="10.00">C::Run</text>
</a>
</g>
</g>
<!-- Node13&#45;&gt;Node14 -->
<g id="edge1" class="edge"><title>Node13&#45;&gt;Node14</title>
<path fill="none" stroke="midnightblue" d="M147.1,-108C155.692,-108 164.391,-108 172.847,-108"/>
<polygon fill="midnightblue" stroke="midnightblue" points="147.084,-104.5 137.084,-108 147.084,-111.5 147.084,-104.5"/>
</g>
<!-- Node15 -->
<g id="node3" class="node"><title>Node15</title>
<g id="a_node3"><a xlink:href="classSeeSawN_1_1GeometryN_1_1PfMPipelineC.html#aa435d8f0f4abec5cf35e3f525c407fb7" target="_top" xlink:title="Runs the algorithm. ">
<polygon fill="white" stroke="black" points="371.5,-121 371.5,-151 486.5,-151 486.5,-121 371.5,-121"/>
<text text-anchor="start" x="379.5" y="-139" font-family="FreeSans" font-size="10.00">SeeSawN::GeometryN</text>
<text text-anchor="middle" x="429" y="-128" font-family="FreeSans" font-size="10.00">::PfMPipelineC::Run</text>
</a>
</g>
</g>
<!-- Node14&#45;&gt;Node15 -->
<g id="edge2" class="edge"><title>Node14&#45;&gt;Node15</title>
<path fill="none" stroke="midnightblue" d="M320.258,-119.737C337.411,-122.326 355.268,-125.022 371.396,-127.456"/>
<polygon fill="midnightblue" stroke="midnightblue" points="320.668,-116.259 310.257,-118.227 319.623,-123.181 320.668,-116.259"/>
</g>
<!-- Node17 -->
<g id="node5" class="node"><title>Node17</title>
<g id="a_node5"><a xlink:href="classSeeSawN_1_1GeometryN_1_1SparseUnitSphereReconstructionPipelineC.html#ab2168d14acac87a86acc1d54f59ea0ff" target="_top" xlink:title="Runs the algorithm. ">
<polygon fill="white" stroke="black" points="346,-60.5 346,-101.5 512,-101.5 512,-60.5 346,-60.5"/>
<text text-anchor="start" x="354" y="-89.5" font-family="FreeSans" font-size="10.00">SeeSawN::GeometryN</text>
<text text-anchor="start" x="354" y="-78.5" font-family="FreeSans" font-size="10.00">::SparseUnitSphereReconstruction</text>
<text text-anchor="middle" x="429" y="-67.5" font-family="FreeSans" font-size="10.00">PipelineC::Run</text>
</a>
</g>
</g>
<!-- Node14&#45;&gt;Node17 -->
<g id="edge4" class="edge"><title>Node14&#45;&gt;Node17</title>
<path fill="none" stroke="midnightblue" d="M320.153,-96.6973C328.667,-95.4582 337.355,-94.1936 345.92,-92.947"/>
<polygon fill="midnightblue" stroke="midnightblue" points="319.649,-93.2338 310.257,-98.1378 320.657,-100.161 319.649,-93.2338"/>
</g>
<!-- Node16 -->
<g id="node4" class="node"><title>Node16</title>
<g id="a_node4"><a xlink:href="classSeeSawN_1_1AppPfMN_1_1AppPfMImplementationC.html#a907a06d88e1dc5911dedb8d3a8223780" target="_top" xlink:title="Runs the application. ">
<polygon fill="white" stroke="black" points="548,-121 548,-151 763,-151 763,-121 548,-121"/>
<text text-anchor="start" x="556" y="-139" font-family="FreeSans" font-size="10.00">SeeSawN::AppPfMN::AppPfMImplementation</text>
<text text-anchor="middle" x="655.5" y="-128" font-family="FreeSans" font-size="10.00">C::Run</text>
</a>
</g>
</g>
<!-- Node15&#45;&gt;Node16 -->
<g id="edge3" class="edge"><title>Node15&#45;&gt;Node16</title>
<path fill="none" stroke="midnightblue" d="M496.91,-136C512.87,-136 530.299,-136 547.561,-136"/>
<polygon fill="midnightblue" stroke="midnightblue" points="496.651,-132.5 486.651,-136 496.651,-139.5 496.651,-132.5"/>
</g>
<!-- Node18 -->
<g id="node6" class="node"><title>Node18</title>
<g id="a_node6"><a xlink:href="classSeeSawN_1_1AppSparseUnitSphereBuilderN_1_1AppSparseUnitSphereBuilderImplementationC.html#a21278d448f57f45c6ab74176e677592e" target="_top" xlink:title="Runs the application. ">
<polygon fill="white" stroke="black" points="563,-60.5 563,-101.5 748,-101.5 748,-60.5 563,-60.5"/>
<text text-anchor="start" x="571" y="-89.5" font-family="FreeSans" font-size="10.00">SeeSawN::AppSparseUnitSphere</text>
<text text-anchor="start" x="571" y="-78.5" font-family="FreeSans" font-size="10.00">BuilderN::AppSparseUnitSphereBuilder</text>
<text text-anchor="middle" x="655.5" y="-67.5" font-family="FreeSans" font-size="10.00">ImplementationC::Run</text>
</a>
</g>
</g>
<!-- Node17&#45;&gt;Node18 -->
<g id="edge5" class="edge"><title>Node17&#45;&gt;Node18</title>
<path fill="none" stroke="midnightblue" d="M522.182,-81C535.611,-81 549.437,-81 562.856,-81"/>
<polygon fill="midnightblue" stroke="midnightblue" points="522.003,-77.5001 512.003,-81 522.003,-84.5001 522.003,-77.5001"/>
</g>
<!-- Node19 -->
<g id="node7" class="node"><title>Node19</title>
<g id="a_node7"><a xlink:href="classSeeSawN_1_1GeometryN_1_1SparseUnitSphereReconstructionPipelineC.html#a36e5a2830a39ac90749196f3f4cbc8eb" target="_top" xlink:title="Conversion from binary scene features to oriented scene features. ">
<polygon fill="white" stroke="black" points="572.5,-0.5 572.5,-41.5 738.5,-41.5 738.5,-0.5 572.5,-0.5"/>
<text text-anchor="start" x="580.5" y="-29.5" font-family="FreeSans" font-size="10.00">SeeSawN::GeometryN</text>
<text text-anchor="start" x="580.5" y="-18.5" font-family="FreeSans" font-size="10.00">::SparseUnitSphereReconstruction</text>
<text text-anchor="middle" x="655.5" y="-7.5" font-family="FreeSans" font-size="10.00">PipelineC::MakeOriented</text>
</a>
</g>
</g>
<!-- Node17&#45;&gt;Node19 -->
<g id="edge6" class="edge"><title>Node17&#45;&gt;Node19</title>
<path fill="none" stroke="midnightblue" d="M516.702,-57.8281C536.787,-52.46 558.025,-46.7838 577.654,-41.5378"/>
<polygon fill="midnightblue" stroke="midnightblue" points="515.703,-54.472 506.946,-60.4353 517.511,-61.2346 515.703,-54.472"/>
</g>
</g>
</svg>
