<?xml version="1.0" encoding="UTF-8" standalone="no"?>
<!DOCTYPE svg PUBLIC "-//W3C//DTD SVG 1.1//EN"
 "http://www.w3.org/Graphics/SVG/1.1/DTD/svg11.dtd">
<!-- Generated by graphviz version 2.38.0 (20140413.2041)
 -->
<!-- Title: SeeSawN::GeometryN::SceneCoverageEstimationC::AddView Pages: 1 -->
<svg width="540pt" height="134pt"
 viewBox="0.00 0.00 540.00 134.00" xmlns="http://www.w3.org/2000/svg" xmlns:xlink="http://www.w3.org/1999/xlink">
<g id="graph0" class="graph" transform="scale(1 1) rotate(0) translate(4 130)">
<title>SeeSawN::GeometryN::SceneCoverageEstimationC::AddView</title>
<polygon fill="white" stroke="none" points="-4,4 -4,-130 536,-130 536,4 -4,4"/>
<!-- Node10 -->
<g id="node1" class="node"><title>Node10</title>
<polygon fill="#bfbfbf" stroke="black" points="0,-60.5 0,-101.5 143,-101.5 143,-60.5 0,-60.5"/>
<text text-anchor="start" x="8" y="-89.5" font-family="FreeSans" font-size="10.00">SeeSawN::GeometryN</text>
<text text-anchor="start" x="8" y="-78.5" font-family="FreeSans" font-size="10.00">::SceneCoverageEstimationC</text>
<text text-anchor="middle" x="71.5" y="-67.5" font-family="FreeSans" font-size="10.00">::AddView</text>
</g>
<!-- Node11 -->
<g id="node2" class="node"><title>Node11</title>
<g id="a_node2"><a xlink:href="namespaceSeeSawN_1_1UnitTestsN_1_1TestGeometryN.html#a80afeb7717f6924b998427ae594dfea4" target="_top" xlink:title="SeeSawN::UnitTestsN\l::TestGeometryN::BOOST\l_AUTO_TEST_CASE">
<polygon fill="white" stroke="black" points="403,-84.5 403,-125.5 532,-125.5 532,-84.5 403,-84.5"/>
<text text-anchor="start" x="411" y="-113.5" font-family="FreeSans" font-size="10.00">SeeSawN::UnitTestsN</text>
<text text-anchor="start" x="411" y="-102.5" font-family="FreeSans" font-size="10.00">::TestGeometryN::BOOST</text>
<text text-anchor="middle" x="467.5" y="-91.5" font-family="FreeSans" font-size="10.00">_AUTO_TEST_CASE</text>
</a>
</g>
</g>
<!-- Node10&#45;&gt;Node11 -->
<g id="edge1" class="edge"><title>Node10&#45;&gt;Node11</title>
<path fill="none" stroke="midnightblue" d="M144.372,-104.119C155.844,-106.974 167.668,-109.434 179,-111 255.407,-121.556 344.305,-117.185 402.787,-112.06"/>
<polygon fill="midnightblue" stroke="midnightblue" points="144.96,-100.656 134.401,-101.521 143.196,-107.429 144.96,-100.656"/>
</g>
<!-- Node12 -->
<g id="node3" class="node"><title>Node12</title>
<g id="a_node3"><a xlink:href="classSeeSawN_1_1GeometryN_1_1SceneCoverageEstimationC.html#a6a05aa718d8f59eea882745e583a5ccf" target="_top" xlink:title="Computes the coverage gradient wrt/ pose and focal length. ">
<polygon fill="white" stroke="black" points="201.5,-60.5 201.5,-101.5 344.5,-101.5 344.5,-60.5 201.5,-60.5"/>
<text text-anchor="start" x="209.5" y="-89.5" font-family="FreeSans" font-size="10.00">SeeSawN::GeometryN</text>
<text text-anchor="start" x="209.5" y="-78.5" font-family="FreeSans" font-size="10.00">::SceneCoverageEstimationC</text>
<text text-anchor="middle" x="273" y="-67.5" font-family="FreeSans" font-size="10.00">::ComputeCoverageGradient</text>
</a>
</g>
</g>
<!-- Node10&#45;&gt;Node12 -->
<g id="edge2" class="edge"><title>Node10&#45;&gt;Node12</title>
<path fill="none" stroke="midnightblue" d="M153.46,-81C169.37,-81 185.943,-81 201.478,-81"/>
<polygon fill="midnightblue" stroke="midnightblue" points="153.117,-77.5001 143.117,-81 153.117,-84.5001 153.117,-77.5001"/>
</g>
<!-- Node13 -->
<g id="node4" class="node"><title>Node13</title>
<g id="a_node4"><a xlink:href="classSeeSawN_1_1AppWitnessCoverageStatisticsN_1_1WitnessCoverageStatisticsImplementationC.html#afd1ff8166b8f69e8504bf6a8abe179d9" target="_top" xlink:title="Runs the application. ">
<polygon fill="white" stroke="black" points="179,-0.5 179,-41.5 367,-41.5 367,-0.5 179,-0.5"/>
<text text-anchor="start" x="187" y="-29.5" font-family="FreeSans" font-size="10.00">SeeSawN::AppWitnessCoverage</text>
<text text-anchor="start" x="187" y="-18.5" font-family="FreeSans" font-size="10.00">StatisticsN::WitnessCoverageStatistics</text>
<text text-anchor="middle" x="273" y="-7.5" font-family="FreeSans" font-size="10.00">ImplementationC::Run</text>
</a>
</g>
</g>
<!-- Node10&#45;&gt;Node13 -->
<g id="edge4" class="edge"><title>Node10&#45;&gt;Node13</title>
<path fill="none" stroke="midnightblue" d="M150.521,-57.535C168.081,-52.2537 186.586,-46.6885 203.712,-41.5378"/>
<polygon fill="midnightblue" stroke="midnightblue" points="149.446,-54.2035 140.877,-60.4353 151.462,-60.9069 149.446,-54.2035"/>
</g>
<!-- Node12&#45;&gt;Node11 -->
<g id="edge3" class="edge"><title>Node12&#45;&gt;Node11</title>
<path fill="none" stroke="midnightblue" d="M354.547,-91.0423C370.697,-93.0558 387.454,-95.1449 402.931,-97.0745"/>
<polygon fill="midnightblue" stroke="midnightblue" points="354.943,-87.5646 344.587,-89.8004 354.077,-94.5108 354.943,-87.5646"/>
</g>
</g>
</svg>
