<?xml version="1.0" encoding="UTF-8" standalone="no"?>
<!DOCTYPE svg PUBLIC "-//W3C//DTD SVG 1.1//EN"
 "http://www.w3.org/Graphics/SVG/1.1/DTD/svg11.dtd">
<!-- Generated by graphviz version 2.38.0 (20140413.2041)
 -->
<!-- Title: SeeSawN::ApplicationN::InterfaceRelativeSynchronisationC::MakeParameterObject Pages: 1 -->
<svg width="661pt" height="50pt"
 viewBox="0.00 0.00 661.00 50.00" xmlns="http://www.w3.org/2000/svg" xmlns:xlink="http://www.w3.org/1999/xlink">
<g id="graph0" class="graph" transform="scale(1 1) rotate(0) translate(4 46)">
<title>SeeSawN::ApplicationN::InterfaceRelativeSynchronisationC::MakeParameterObject</title>
<polygon fill="white" stroke="none" points="-4,4 -4,-46 657,-46 657,4 -4,4"/>
<!-- Node6 -->
<g id="node1" class="node"><title>Node6</title>
<polygon fill="#bfbfbf" stroke="black" points="0,-0.5 0,-41.5 164,-41.5 164,-0.5 0,-0.5"/>
<text text-anchor="start" x="8" y="-29.5" font-family="FreeSans" font-size="10.00">SeeSawN::ApplicationN</text>
<text text-anchor="start" x="8" y="-18.5" font-family="FreeSans" font-size="10.00">::InterfaceRelativeSynchronisation</text>
<text text-anchor="middle" x="82" y="-7.5" font-family="FreeSans" font-size="10.00">C::MakeParameterObject</text>
</g>
<!-- Node7 -->
<g id="node2" class="node"><title>Node7</title>
<g id="a_node2"><a xlink:href="classSeeSawN_1_1ApplicationN_1_1InterfaceMulticameraSynchronisationC.html#a77809c05110f30ea160c4497ce3c943c" target="_top" xlink:title="Makes a parameter object from a property tree. ">
<polygon fill="white" stroke="black" points="200,-0.5 200,-41.5 382,-41.5 382,-0.5 200,-0.5"/>
<text text-anchor="start" x="208" y="-29.5" font-family="FreeSans" font-size="10.00">SeeSawN::ApplicationN</text>
<text text-anchor="start" x="208" y="-18.5" font-family="FreeSans" font-size="10.00">::InterfaceMulticameraSynchronisation</text>
<text text-anchor="middle" x="291" y="-7.5" font-family="FreeSans" font-size="10.00">C::MakeParameterObject</text>
</a>
</g>
</g>
<!-- Node6&#45;&gt;Node7 -->
<g id="edge1" class="edge"><title>Node6&#45;&gt;Node7</title>
<path fill="none" stroke="midnightblue" d="M174.419,-21C182.838,-21 191.366,-21 199.775,-21"/>
<polygon fill="midnightblue" stroke="midnightblue" points="174.218,-17.5001 164.218,-21 174.218,-24.5001 174.218,-17.5001"/>
</g>
<!-- Node8 -->
<g id="node3" class="node"><title>Node8</title>
<g id="a_node3"><a xlink:href="classSeeSawN_1_1AppMulticameraSynchronisationN_1_1AppMulticameraSynchronisationImplementationC.html#adb26bc6ff7e34e1361dc6c1580f56781" target="_top" xlink:title="Sets and validates the application parameters. ">
<polygon fill="white" stroke="black" points="418,-0.5 418,-41.5 653,-41.5 653,-0.5 418,-0.5"/>
<text text-anchor="start" x="426" y="-29.5" font-family="FreeSans" font-size="10.00">SeeSawN::AppMulticameraSynchronisation</text>
<text text-anchor="start" x="426" y="-18.5" font-family="FreeSans" font-size="10.00">N::AppMulticameraSynchronisationImplementation</text>
<text text-anchor="middle" x="535.5" y="-7.5" font-family="FreeSans" font-size="10.00">C::SetParameters</text>
</a>
</g>
</g>
<!-- Node7&#45;&gt;Node8 -->
<g id="edge2" class="edge"><title>Node7&#45;&gt;Node8</title>
<path fill="none" stroke="midnightblue" d="M392.431,-21C400.803,-21 409.311,-21 417.789,-21"/>
<polygon fill="midnightblue" stroke="midnightblue" points="392.298,-17.5001 382.298,-21 392.298,-24.5001 392.298,-17.5001"/>
</g>
</g>
</svg>
