<?xml version="1.0" encoding="UTF-8" standalone="no"?>
<!DOCTYPE svg PUBLIC "-//W3C//DTD SVG 1.1//EN"
 "http://www.w3.org/Graphics/SVG/1.1/DTD/svg11.dtd">
<!-- Generated by graphviz version 2.38.0 (20140413.2041)
 -->
<!-- Title: SeeSawN::RANSACN::RANSACDualAbsoluteQuadricProblemC::EvaluateValidator Pages: 1 -->
<!--zoomable 160 -->
<svg id="main" version="1.1" xmlns="http://www.w3.org/2000/svg" xmlns:xlink="http://www.w3.org/1999/xlink" xml:space="preserve" onload="init(evt)">
<style type="text/css"><![CDATA[
.edge:hover path { stroke: red; }
.edge:hover polygon { stroke: red; fill: red; }
]]></style>
<script type="text/javascript"><![CDATA[
var edges = document.getElementsByTagName('g');
if (edges && edges.length) {
  for (var i=0;i<edges.length;i++) {
    if (edges[i].id.substr(0,4)=='edge') {
      edges[i].setAttribute('class','edge');
    }
  }
}
]]></script>
        <defs>
                <circle id="rim" cx="0" cy="0" r="7"/>
                <circle id="rim2" cx="0" cy="0" r="3.5"/>
                <g id="zoomPlus">
                        <use xlink:href="#rim" fill="#404040">
                                <set attributeName="fill" to="#808080" begin="zoomplus.mouseover" end="zoomplus.mouseout"/>
                        </use>
                        <path d="M-4,0h8M0,-4v8" fill="none" stroke="white" stroke-width="1.5" pointer-events="none"/>
                </g>
                <g id="zoomMin">
                        <use xlink:href="#rim" fill="#404040">
                                <set attributeName="fill" to="#808080" begin="zoomminus.mouseover" end="zoomminus.mouseout"/>
                        </use>
                        <path d="M-4,0h8" fill="none" stroke="white" stroke-width="1.5" pointer-events="none"/>
                </g>
                <g id="dirArrow">
                        <path fill="none" stroke="white" stroke-width="1.5" d="M0,-3.0v7 M-2.5,-0.5L0,-3.0L2.5,-0.5"/>
                </g>
               <g id="resetDef">
                       <use xlink:href="#rim2" fill="#404040">
                               <set attributeName="fill" to="#808080" begin="reset.mouseover" end="reset.mouseout"/>
                       </use>
               </g>
        </defs>

<script type="text/javascript">
var viewWidth = 891;
var viewHeight = 160;
var sectionId = 'dynsection-4';
</script>
<script xlink:href="svgpan.js"/>
<svg id="graph" class="graph">
<g id="viewport">
<title>SeeSawN::RANSACN::RANSACDualAbsoluteQuadricProblemC::EvaluateValidator</title>
<polygon fill="white" stroke="none" points="-4,4 -4,-155.5 887,-155.5 887,4 -4,4"/>
<!-- Node21 -->
<g id="node1" class="node"><title>Node21</title>
<polygon fill="#bfbfbf" stroke="black" points="0,-50 0,-91 179,-91 179,-50 0,-50"/>
<text text-anchor="start" x="8" y="-79" font-family="FreeSans" font-size="10.00">SeeSawN::RANSACN::RANSACDual</text>
<text text-anchor="start" x="8" y="-68" font-family="FreeSans" font-size="10.00">AbsoluteQuadricProblemC</text>
<text text-anchor="middle" x="89.5" y="-57" font-family="FreeSans" font-size="10.00">::EvaluateValidator</text>
</g>
<!-- Node22 -->
<g id="node2" class="node"><title>Node22</title>
<g id="a_node2"><a xlink:href="classSeeSawN_1_1GeometryN_1_1DualAbsoluteQuadricSolverC.html#ae3aeea9a301f04ddd071a858aabbced2" target="_top" xlink:title="Evaluates the cost for an intrinsic calibration matrix. ">
<polygon fill="white" stroke="black" points="215,-50 215,-91 355,-91 355,-50 215,-50"/>
<text text-anchor="start" x="223" y="-79" font-family="FreeSans" font-size="10.00">SeeSawN::GeometryN</text>
<text text-anchor="start" x="223" y="-68" font-family="FreeSans" font-size="10.00">::DualAbsoluteQuadricSolver</text>
<text text-anchor="middle" x="285" y="-57" font-family="FreeSans" font-size="10.00">C::Evaluate</text>
</a>
</g>
</g>
<!-- Node21&#45;&gt;Node22 -->
<g id="edge1" class="edge"><title>Node21&#45;&gt;Node22</title>
<path fill="none" stroke="midnightblue" d="M179.039,-70.5C187.599,-70.5 196.246,-70.5 204.709,-70.5"/>
<polygon fill="midnightblue" stroke="midnightblue" points="204.922,-74.0001 214.922,-70.5 204.922,-67.0001 204.922,-74.0001"/>
</g>
<!-- Node23 -->
<g id="node3" class="node"><title>Node23</title>
<g id="a_node3"><a xlink:href="namespaceSeeSawN_1_1ElementsN.html#acc27beab4fd1a657c9c0bd6f95ecb0d6" target="_top" xlink:title="Extracts the intrinsic calibration parameters for a camera from the dual absolute quadric...">
<polygon fill="white" stroke="black" points="404.5,-110.5 404.5,-140.5 517.5,-140.5 517.5,-110.5 404.5,-110.5"/>
<text text-anchor="start" x="412.5" y="-128.5" font-family="FreeSans" font-size="10.00">SeeSawN::ElementsN</text>
<text text-anchor="middle" x="461" y="-117.5" font-family="FreeSans" font-size="10.00">::IntrinsicsFromDAQ</text>
</a>
</g>
</g>
<!-- Node22&#45;&gt;Node23 -->
<g id="edge2" class="edge"><title>Node22&#45;&gt;Node23</title>
<path fill="none" stroke="midnightblue" d="M351.286,-91.1365C368.056,-96.4374 385.976,-102.102 402.33,-107.271"/>
<polygon fill="midnightblue" stroke="midnightblue" points="401.697,-110.741 412.287,-110.418 403.806,-104.067 401.697,-110.741"/>
</g>
<!-- Node24 -->
<g id="node4" class="node"><title>Node24</title>
<g id="a_node4"><a xlink:href="classSeeSawN_1_1GeometryN_1_1DualAbsoluteQuadricSolverC.html#af63c488b84b048758d95b8721dfedabc" target="_top" xlink:title="Estimates the dual absolute quadric for a set of cameras. ">
<polygon fill="white" stroke="black" points="391,-50 391,-91 531,-91 531,-50 391,-50"/>
<text text-anchor="start" x="399" y="-79" font-family="FreeSans" font-size="10.00">SeeSawN::GeometryN</text>
<text text-anchor="start" x="399" y="-68" font-family="FreeSans" font-size="10.00">::DualAbsoluteQuadricSolver</text>
<text text-anchor="middle" x="461" y="-57" font-family="FreeSans" font-size="10.00">C::operator()</text>
</a>
</g>
</g>
<!-- Node22&#45;&gt;Node24 -->
<g id="edge3" class="edge"><title>Node22&#45;&gt;Node24</title>
<path fill="none" stroke="midnightblue" d="M355.019,-63.8798C363.476,-63.7561 372.169,-63.7208 380.761,-63.7739"/>
<polygon fill="midnightblue" stroke="midnightblue" points="380.744,-67.2738 390.779,-63.8769 380.816,-60.2742 380.744,-67.2738"/>
</g>
<!-- Node24&#45;&gt;Node22 -->
<g id="edge4" class="edge"><title>Node24&#45;&gt;Node22</title>
<path fill="none" stroke="midnightblue" d="M390.779,-77.1231C382.319,-77.2454 373.625,-77.2793 365.035,-77.2248"/>
<polygon fill="midnightblue" stroke="midnightblue" points="365.055,-73.7249 355.019,-77.1202 364.982,-80.7245 365.055,-73.7249"/>
</g>
<!-- Node25 -->
<g id="node5" class="node"><title>Node25</title>
<g id="a_node5"><a xlink:href="classSeeSawN_1_1GeometryN_1_1DualAbsoluteQuadricSolverC.html#afcc1fede20f19a42ed34cc21e0a148d4" target="_top" xlink:title="Builds the equation system. ">
<polygon fill="white" stroke="black" points="567,-110 567,-151 707,-151 707,-110 567,-110"/>
<text text-anchor="start" x="575" y="-139" font-family="FreeSans" font-size="10.00">SeeSawN::GeometryN</text>
<text text-anchor="start" x="575" y="-128" font-family="FreeSans" font-size="10.00">::DualAbsoluteQuadricSolver</text>
<text text-anchor="middle" x="637" y="-117" font-family="FreeSans" font-size="10.00">C::MakeEquationSystem</text>
</a>
</g>
</g>
<!-- Node24&#45;&gt;Node25 -->
<g id="edge5" class="edge"><title>Node24&#45;&gt;Node25</title>
<path fill="none" stroke="midnightblue" d="M521.881,-91.1486C536.316,-96.1261 551.857,-101.485 566.683,-106.598"/>
<polygon fill="midnightblue" stroke="midnightblue" points="565.709,-109.964 576.304,-109.915 567.991,-103.346 565.709,-109.964"/>
</g>
<!-- Node27 -->
<g id="node7" class="node"><title>Node27</title>
<g id="a_node7"><a xlink:href="classSeeSawN_1_1GeometryN_1_1DualAbsoluteQuadricSolverC.html#a6e96ebe8152fd2b583c630e7436aa769" target="_top" xlink:title="Converts the solution vector to an absolute dual quadric. ">
<polygon fill="white" stroke="black" points="567,-50 567,-91 707,-91 707,-50 567,-50"/>
<text text-anchor="start" x="575" y="-79" font-family="FreeSans" font-size="10.00">SeeSawN::GeometryN</text>
<text text-anchor="start" x="575" y="-68" font-family="FreeSans" font-size="10.00">::DualAbsoluteQuadricSolver</text>
<text text-anchor="middle" x="637" y="-57" font-family="FreeSans" font-size="10.00">C::MakeQ</text>
</a>
</g>
</g>
<!-- Node24&#45;&gt;Node27 -->
<g id="edge7" class="edge"><title>Node24&#45;&gt;Node27</title>
<path fill="none" stroke="midnightblue" d="M531.019,-70.5C539.476,-70.5 548.169,-70.5 556.761,-70.5"/>
<polygon fill="midnightblue" stroke="midnightblue" points="556.78,-74.0001 566.779,-70.5 556.779,-67.0001 556.78,-74.0001"/>
</g>
<!-- Node28 -->
<g id="node8" class="node"><title>Node28</title>
<g id="a_node8"><a xlink:href="group__Elements.html#ga95a4bac6210203f2ead6771fbd0f1894" target="_top" xlink:title="Computes the homography that maps a camera to the canonical camera matrix. ">
<polygon fill="white" stroke="black" points="580.5,-0.5 580.5,-30.5 693.5,-30.5 693.5,-0.5 580.5,-0.5"/>
<text text-anchor="start" x="588.5" y="-18.5" font-family="FreeSans" font-size="10.00">SeeSawN::ElementsN</text>
<text text-anchor="middle" x="637" y="-7.5" font-family="FreeSans" font-size="10.00">::MapToCanonical</text>
</a>
</g>
</g>
<!-- Node24&#45;&gt;Node28 -->
<g id="edge8" class="edge"><title>Node24&#45;&gt;Node28</title>
<path fill="none" stroke="midnightblue" d="M527.286,-49.8635C544.056,-44.5626 561.976,-38.8983 578.33,-33.7289"/>
<polygon fill="midnightblue" stroke="midnightblue" points="579.806,-36.9331 588.287,-30.5818 577.697,-30.2586 579.806,-36.9331"/>
</g>
<!-- Node26 -->
<g id="node6" class="node"><title>Node26</title>
<g id="a_node6"><a xlink:href="classSeeSawN_1_1GeometryN_1_1DualAbsoluteQuadricSolverC.html#a95c2e1c254a3bb977e10482530e746bb" target="_top" xlink:title="Makes an equation. ">
<polygon fill="white" stroke="black" points="743,-110 743,-151 883,-151 883,-110 743,-110"/>
<text text-anchor="start" x="751" y="-139" font-family="FreeSans" font-size="10.00">SeeSawN::GeometryN</text>
<text text-anchor="start" x="751" y="-128" font-family="FreeSans" font-size="10.00">::DualAbsoluteQuadricSolver</text>
<text text-anchor="middle" x="813" y="-117" font-family="FreeSans" font-size="10.00">C::MakeEquation</text>
</a>
</g>
</g>
<!-- Node25&#45;&gt;Node26 -->
<g id="edge6" class="edge"><title>Node25&#45;&gt;Node26</title>
<path fill="none" stroke="midnightblue" d="M707.019,-130.5C715.476,-130.5 724.169,-130.5 732.761,-130.5"/>
<polygon fill="midnightblue" stroke="midnightblue" points="732.78,-134 742.779,-130.5 732.779,-127 732.78,-134"/>
</g>
</g>
</svg>
        <g id="navigator" transform="translate(0 0)" fill="#404254">
                <rect fill="#f2f5e9" fill-opacity="0.5" stroke="#606060" stroke-width=".5" x="0" y="0" width="60" height="60"/>
                <use id="zoomplus" xlink:href="#zoomPlus" x="17" y="9" onmousedown="handleZoom(evt,'in')"/>
                <use id="zoomminus" xlink:href="#zoomMin" x="42" y="9" onmousedown="handleZoom(evt,'out')"/>
                <use id="reset" xlink:href="#resetDef" x="30" y="36" onmousedown="handleReset()"/>
                <g id="arrowUp" xlink:href="#dirArrow" transform="translate(30 24)" onmousedown="handlePan(0,-1)">
                  <use xlink:href="#rim" fill="#404040">
                        <set attributeName="fill" to="#808080" begin="arrowUp.mouseover" end="arrowUp.mouseout"/>
                  </use>
                  <path fill="none" stroke="white" stroke-width="1.5" d="M0,-3.0v7 M-2.5,-0.5L0,-3.0L2.5,-0.5"/>
                </g>
                <g id="arrowRight" xlink:href="#dirArrow" transform="rotate(90) translate(36 -43)" onmousedown="handlePan(1,0)">
                  <use xlink:href="#rim" fill="#404040">
                        <set attributeName="fill" to="#808080" begin="arrowRight.mouseover" end="arrowRight.mouseout"/>
                  </use>
                  <path fill="none" stroke="white" stroke-width="1.5" d="M0,-3.0v7 M-2.5,-0.5L0,-3.0L2.5,-0.5"/>
                </g>
                <g id="arrowDown" xlink:href="#dirArrow" transform="rotate(180) translate(-30 -48)" onmousedown="handlePan(0,1)">
                  <use xlink:href="#rim" fill="#404040">
                        <set attributeName="fill" to="#808080" begin="arrowDown.mouseover" end="arrowDown.mouseout"/>
                  </use>
                  <path fill="none" stroke="white" stroke-width="1.5" d="M0,-3.0v7 M-2.5,-0.5L0,-3.0L2.5,-0.5"/>
                </g>
                <g id="arrowLeft" xlink:href="#dirArrow" transform="rotate(270) translate(-36 17)" onmousedown="handlePan(-1,0)">
                  <use xlink:href="#rim" fill="#404040">
                        <set attributeName="fill" to="#808080" begin="arrowLeft.mouseover" end="arrowLeft.mouseout"/>
                  </use>
                  <path fill="none" stroke="white" stroke-width="1.5" d="M0,-3.0v7 M-2.5,-0.5L0,-3.0L2.5,-0.5"/>
                </g>
        </g>
        <svg viewBox="0 0 15 15" width="100%" height="30px" preserveAspectRatio="xMaxYMin meet">
         <g id="arrow_out" transform="scale(0.3 0.3)">
          <a xlink:href="classSeeSawN_1_1RANSACN_1_1RANSACDualAbsoluteQuadricProblemC_a7929ecefc4388fc3aeb481636f253cac_cgraph_org.svg" target="_base">
           <rect id="button" ry="5" rx="5" y="6" x="6" height="38" width="38"
                fill="#f2f5e9" fill-opacity="0.5" stroke="#606060" stroke-width="1.0"/>
           <path id="arrow"
             d="M 11.500037,31.436501 C 11.940474,20.09759 22.043105,11.32322 32.158766,21.979434 L 37.068811,17.246167 C 37.068811,17.246167 37.088388,32 37.088388,32 L 22.160133,31.978069 C 22.160133,31.978069 26.997745,27.140456 26.997745,27.140456 C 18.528582,18.264221 13.291696,25.230495 11.500037,31.436501 z"
             style="fill:#404040;"/>
          </a>
         </g>
        </svg>
</svg>
