<?xml version="1.0" encoding="UTF-8" standalone="no"?>
<!DOCTYPE svg PUBLIC "-//W3C//DTD SVG 1.1//EN"
 "http://www.w3.org/Graphics/SVG/1.1/DTD/svg11.dtd">
<!-- Generated by graphviz version 2.38.0 (20140413.2041)
 -->
<!-- Title: SeeSawN::GeometryN::RelativeRotationRegistrationC::SolveLS Pages: 1 -->
<svg width="519pt" height="110pt"
 viewBox="0.00 0.00 519.00 110.00" xmlns="http://www.w3.org/2000/svg" xmlns:xlink="http://www.w3.org/1999/xlink">
<g id="graph0" class="graph" transform="scale(1 1) rotate(0) translate(4 106)">
<title>SeeSawN::GeometryN::RelativeRotationRegistrationC::SolveLS</title>
<polygon fill="white" stroke="none" points="-4,4 -4,-106 515,-106 515,4 -4,4"/>
<!-- Node53 -->
<g id="node1" class="node"><title>Node53</title>
<polygon fill="#bfbfbf" stroke="black" points="0,-30.5 0,-71.5 144,-71.5 144,-30.5 0,-30.5"/>
<text text-anchor="start" x="8" y="-59.5" font-family="FreeSans" font-size="10.00">SeeSawN::GeometryN</text>
<text text-anchor="start" x="8" y="-48.5" font-family="FreeSans" font-size="10.00">::RelativeRotationRegistration</text>
<text text-anchor="middle" x="72" y="-37.5" font-family="FreeSans" font-size="10.00">C::SolveLS</text>
</g>
<!-- Node54 -->
<g id="node2" class="node"><title>Node54</title>
<g id="a_node2"><a xlink:href="classSeeSawN_1_1GeometryN_1_1RelativeRotationRegistrationC.html#a87271344dd6de5f174a2a0644c1fc754" target="_top" xlink:title="Constructs the equation system. ">
<polygon fill="white" stroke="black" points="180,-60.5 180,-101.5 324,-101.5 324,-60.5 180,-60.5"/>
<text text-anchor="start" x="188" y="-89.5" font-family="FreeSans" font-size="10.00">SeeSawN::GeometryN</text>
<text text-anchor="start" x="188" y="-78.5" font-family="FreeSans" font-size="10.00">::RelativeRotationRegistration</text>
<text text-anchor="middle" x="252" y="-67.5" font-family="FreeSans" font-size="10.00">C::MakeCoefficientMatrix</text>
</a>
</g>
</g>
<!-- Node53&#45;&gt;Node54 -->
<g id="edge1" class="edge"><title>Node53&#45;&gt;Node54</title>
<path fill="none" stroke="midnightblue" d="M144.118,-62.9861C152.609,-64.4172 161.327,-65.8865 169.944,-67.339"/>
<polygon fill="midnightblue" stroke="midnightblue" points="169.553,-70.8222 179.995,-69.0329 170.716,-63.9196 169.553,-70.8222"/>
</g>
<!-- Node55 -->
<g id="node3" class="node"><title>Node55</title>
<g id="a_node3"><a xlink:href="classSeeSawN_1_1GeometryN_1_1RelativeRotationRegistrationC.html#a0019633e1a14fe7cbfef73e2254eab53" target="_top" xlink:title="Converts the solution vector to rotation matrices. ">
<polygon fill="white" stroke="black" points="180,-0.5 180,-41.5 324,-41.5 324,-0.5 180,-0.5"/>
<text text-anchor="start" x="188" y="-29.5" font-family="FreeSans" font-size="10.00">SeeSawN::GeometryN</text>
<text text-anchor="start" x="188" y="-18.5" font-family="FreeSans" font-size="10.00">::RelativeRotationRegistration</text>
<text text-anchor="middle" x="252" y="-7.5" font-family="FreeSans" font-size="10.00">C::MakeSolution</text>
</a>
</g>
</g>
<!-- Node53&#45;&gt;Node55 -->
<g id="edge2" class="edge"><title>Node53&#45;&gt;Node55</title>
<path fill="none" stroke="midnightblue" d="M144.118,-39.0139C152.609,-37.5828 161.327,-36.1135 169.944,-34.661"/>
<polygon fill="midnightblue" stroke="midnightblue" points="170.716,-38.0804 179.995,-32.9671 169.553,-31.1778 170.716,-38.0804"/>
</g>
<!-- Node56 -->
<g id="node4" class="node"><title>Node56</title>
<g id="a_node4"><a xlink:href="namespaceSeeSawN_1_1NumericN.html#a4212174cae82d3ad9bee75e2c1046e81" target="_top" xlink:title="SeeSawN::NumericN::\lComputeClosestRotationMatrix">
<polygon fill="white" stroke="black" points="360,-6 360,-36 511,-36 511,-6 360,-6"/>
<text text-anchor="start" x="368" y="-24" font-family="FreeSans" font-size="10.00">SeeSawN::NumericN::</text>
<text text-anchor="middle" x="435.5" y="-13" font-family="FreeSans" font-size="10.00">ComputeClosestRotationMatrix</text>
</a>
</g>
</g>
<!-- Node55&#45;&gt;Node56 -->
<g id="edge3" class="edge"><title>Node55&#45;&gt;Node56</title>
<path fill="none" stroke="midnightblue" d="M324.213,-21C332.636,-21 341.294,-21 349.88,-21"/>
<polygon fill="midnightblue" stroke="midnightblue" points="349.906,-24.5001 359.906,-21 349.906,-17.5001 349.906,-24.5001"/>
</g>
</g>
</svg>
