<?xml version="1.0" encoding="UTF-8" standalone="no"?>
<!DOCTYPE svg PUBLIC "-//W3C//DTD SVG 1.1//EN"
 "http://www.w3.org/Graphics/SVG/1.1/DTD/svg11.dtd">
<!-- Generated by graphviz version 2.38.0 (20140413.2041)
 -->
<!-- Title: SeeSawN::ION::CoordinateCorrespondenceIOC::WriteCorrespondenceFile Pages: 1 -->
<!--zoomable 367 -->
<svg id="main" version="1.1" xmlns="http://www.w3.org/2000/svg" xmlns:xlink="http://www.w3.org/1999/xlink" xml:space="preserve" onload="init(evt)">
<style type="text/css"><![CDATA[
.edge:hover path { stroke: red; }
.edge:hover polygon { stroke: red; fill: red; }
]]></style>
<script type="text/javascript"><![CDATA[
var edges = document.getElementsByTagName('g');
if (edges && edges.length) {
  for (var i=0;i<edges.length;i++) {
    if (edges[i].id.substr(0,4)=='edge') {
      edges[i].setAttribute('class','edge');
    }
  }
}
]]></script>
        <defs>
                <circle id="rim" cx="0" cy="0" r="7"/>
                <circle id="rim2" cx="0" cy="0" r="3.5"/>
                <g id="zoomPlus">
                        <use xlink:href="#rim" fill="#404040">
                                <set attributeName="fill" to="#808080" begin="zoomplus.mouseover" end="zoomplus.mouseout"/>
                        </use>
                        <path d="M-4,0h8M0,-4v8" fill="none" stroke="white" stroke-width="1.5" pointer-events="none"/>
                </g>
                <g id="zoomMin">
                        <use xlink:href="#rim" fill="#404040">
                                <set attributeName="fill" to="#808080" begin="zoomminus.mouseover" end="zoomminus.mouseout"/>
                        </use>
                        <path d="M-4,0h8" fill="none" stroke="white" stroke-width="1.5" pointer-events="none"/>
                </g>
                <g id="dirArrow">
                        <path fill="none" stroke="white" stroke-width="1.5" d="M0,-3.0v7 M-2.5,-0.5L0,-3.0L2.5,-0.5"/>
                </g>
               <g id="resetDef">
                       <use xlink:href="#rim2" fill="#404040">
                               <set attributeName="fill" to="#808080" begin="reset.mouseover" end="reset.mouseout"/>
                       </use>
               </g>
        </defs>

<script type="text/javascript">
var viewWidth = 794;
var viewHeight = 367;
var sectionId = 'dynsection-1';
</script>
<script xlink:href="svgpan.js"/>
<svg id="graph" class="graph">
<g id="viewport">
<title>SeeSawN::ION::CoordinateCorrespondenceIOC::WriteCorrespondenceFile</title>
<polygon fill="white" stroke="none" points="-4,4 -4,-362.613 790,-362.613 790,4 -4,4"/>
<!-- Node1 -->
<g id="node1" class="node"><title>Node1</title>
<polygon fill="#bfbfbf" stroke="black" points="0,-175.5 0,-205.5 218,-205.5 218,-175.5 0,-175.5"/>
<text text-anchor="start" x="8" y="-193.5" font-family="FreeSans" font-size="10.00">SeeSawN::ION::Coordinate</text>
<text text-anchor="middle" x="109" y="-182.5" font-family="FreeSans" font-size="10.00">CorrespondenceIOC::WriteCorrespondenceFile</text>
</g>
<!-- Node2 -->
<g id="node2" class="node"><title>Node2</title>
<g id="a_node2"><a xlink:href="namespaceSeeSawN_1_1UnitTestsN_1_1TestION.html#a2aae24ec621ab1fd2c5eb24ced60d473" target="_top" xlink:title="SeeSawN::UnitTestsN\l::TestION::BOOST_AUTO\l_TEST_SUITE_END">
<polygon fill="white" stroke="black" points="488,-162 488,-203 619,-203 619,-162 488,-162"/>
<text text-anchor="start" x="496" y="-191" font-family="FreeSans" font-size="10.00">SeeSawN::UnitTestsN</text>
<text text-anchor="start" x="496" y="-180" font-family="FreeSans" font-size="10.00">::TestION::BOOST_AUTO</text>
<text text-anchor="middle" x="553.5" y="-169" font-family="FreeSans" font-size="10.00">_TEST_SUITE_END</text>
</a>
</g>
</g>
<!-- Node1&#45;&gt;Node2 -->
<g id="edge1" class="edge"><title>Node1&#45;&gt;Node2</title>
<path fill="none" stroke="midnightblue" d="M125.49,-214.418C148.727,-247.826 196.12,-307.002 254,-330.5 335.537,-363.603 374.236,-371.692 452,-330.5 503.324,-303.313 533.292,-236.874 545.718,-203.034"/>
<polygon fill="midnightblue" stroke="midnightblue" points="128.102,-212.035 119.588,-205.73 122.312,-215.969 128.102,-212.035"/>
</g>
<!-- Node4 -->
<g id="node4" class="node"><title>Node4</title>
<g id="a_node4"><a xlink:href="classSeeSawN_1_1AppMatchmakerN_1_1MatchmakerImplementationC.html#ae2463083fa35c722e9b1d6f8775d85a0" target="_top" xlink:title="Runs the application. ">
<polygon fill="white" stroke="black" points="268,-290.5 268,-320.5 438,-320.5 438,-290.5 268,-290.5"/>
<text text-anchor="start" x="276" y="-308.5" font-family="FreeSans" font-size="10.00">SeeSawN::AppMatchmakerN</text>
<text text-anchor="middle" x="353" y="-297.5" font-family="FreeSans" font-size="10.00">::MatchmakerImplementationC::Run</text>
</a>
</g>
</g>
<!-- Node1&#45;&gt;Node4 -->
<g id="edge3" class="edge"><title>Node1&#45;&gt;Node4</title>
<path fill="none" stroke="midnightblue" d="M138.007,-211.688C166.021,-231.966 211.012,-262.112 254,-280.5 262.879,-284.298 272.467,-287.618 282.048,-290.49"/>
<polygon fill="midnightblue" stroke="midnightblue" points="140.015,-208.82 129.879,-205.735 135.879,-214.467 140.015,-208.82"/>
</g>
<!-- Node5 -->
<g id="node5" class="node"><title>Node5</title>
<g id="a_node5"><a xlink:href="classSeeSawN_1_1AppGeometryEstimator33N_1_1GeometryEstimator33ImplementationC.html#a730bcd2cc00c43dd43aa79a3b33a3592" target="_top" xlink:title="Saves the output. ">
<polygon fill="white" stroke="black" points="258.5,-230 258.5,-271 447.5,-271 447.5,-230 258.5,-230"/>
<text text-anchor="start" x="266.5" y="-259" font-family="FreeSans" font-size="10.00">SeeSawN::AppGeometryEstimator33</text>
<text text-anchor="start" x="266.5" y="-248" font-family="FreeSans" font-size="10.00">N::GeometryEstimator33Implementation</text>
<text text-anchor="middle" x="353" y="-237" font-family="FreeSans" font-size="10.00">C::SaveOutput</text>
</a>
</g>
</g>
<!-- Node1&#45;&gt;Node5 -->
<g id="edge4" class="edge"><title>Node1&#45;&gt;Node5</title>
<path fill="none" stroke="midnightblue" d="M180.761,-208.044C208.485,-214.918 240.488,-222.852 269.271,-229.989"/>
<polygon fill="midnightblue" stroke="midnightblue" points="181.303,-204.572 170.754,-205.563 179.618,-211.367 181.303,-204.572"/>
</g>
<!-- Node6 -->
<g id="node6" class="node"><title>Node6</title>
<g id="a_node6"><a xlink:href="classSeeSawN_1_1AppMultimodelGeometryEstimator22N_1_1AppMultimodelGeometryEstimator22ImplementationC.html#aa82edc17b92d97d00e9df61606d79293" target="_top" xlink:title="Saves the output. ">
<polygon fill="white" stroke="black" points="254,-170 254,-211 452,-211 452,-170 254,-170"/>
<text text-anchor="start" x="262" y="-199" font-family="FreeSans" font-size="10.00">SeeSawN::AppMultimodelGeometry</text>
<text text-anchor="start" x="262" y="-188" font-family="FreeSans" font-size="10.00">Estimator22N::AppMultimodelGeometry</text>
<text text-anchor="middle" x="353" y="-177" font-family="FreeSans" font-size="10.00">Estimator22ImplementationC::SaveOutput</text>
</a>
</g>
</g>
<!-- Node1&#45;&gt;Node6 -->
<g id="edge5" class="edge"><title>Node1&#45;&gt;Node6</title>
<path fill="none" stroke="midnightblue" d="M228.269,-190.5C236.812,-190.5 245.373,-190.5 253.782,-190.5"/>
<polygon fill="midnightblue" stroke="midnightblue" points="228.259,-187 218.259,-190.5 228.259,-194 228.259,-187"/>
</g>
<!-- Node7 -->
<g id="node7" class="node"><title>Node7</title>
<g id="a_node7"><a xlink:href="classSeeSawN_1_1AppGeometryEstimator32N_1_1GeometryEstimator32ImplementationC.html#a31305d664e38ab836f9660881e4212a2" target="_top" xlink:title="Saves the output. ">
<polygon fill="white" stroke="black" points="258.5,-110 258.5,-151 447.5,-151 447.5,-110 258.5,-110"/>
<text text-anchor="start" x="266.5" y="-139" font-family="FreeSans" font-size="10.00">SeeSawN::AppGeometryEstimator32</text>
<text text-anchor="start" x="266.5" y="-128" font-family="FreeSans" font-size="10.00">N::GeometryEstimator32Implementation</text>
<text text-anchor="middle" x="353" y="-117" font-family="FreeSans" font-size="10.00">C::SaveOutput</text>
</a>
</g>
</g>
<!-- Node1&#45;&gt;Node7 -->
<g id="edge6" class="edge"><title>Node1&#45;&gt;Node7</title>
<path fill="none" stroke="midnightblue" d="M180.761,-172.956C208.485,-166.082 240.488,-158.148 269.271,-151.011"/>
<polygon fill="midnightblue" stroke="midnightblue" points="179.618,-169.633 170.754,-175.437 181.303,-176.428 179.618,-169.633"/>
</g>
<!-- Node8 -->
<g id="node8" class="node"><title>Node8</title>
<g id="a_node8"><a xlink:href="classSeeSawN_1_1AppGeometryEstimator22N_1_1GeometryEstimator22ImplementationC.html#ac0d6722eaae10a6426be68537d6dd268" target="_top" xlink:title="Saves the output. ">
<polygon fill="white" stroke="black" points="258.5,-50 258.5,-91 447.5,-91 447.5,-50 258.5,-50"/>
<text text-anchor="start" x="266.5" y="-79" font-family="FreeSans" font-size="10.00">SeeSawN::AppGeometryEstimator22</text>
<text text-anchor="start" x="266.5" y="-68" font-family="FreeSans" font-size="10.00">N::GeometryEstimator22Implementation</text>
<text text-anchor="middle" x="353" y="-57" font-family="FreeSans" font-size="10.00">C::SaveOutput</text>
</a>
</g>
</g>
<!-- Node1&#45;&gt;Node8 -->
<g id="edge7" class="edge"><title>Node1&#45;&gt;Node8</title>
<path fill="none" stroke="midnightblue" d="M138.686,-169.409C166.877,-149.462 211.702,-119.788 254,-100.5 261.447,-97.1041 269.382,-93.96 277.389,-91.0868"/>
<polygon fill="midnightblue" stroke="midnightblue" points="136.593,-166.602 130.492,-175.264 140.663,-172.297 136.593,-166.602"/>
</g>
<!-- Node9 -->
<g id="node9" class="node"><title>Node9</title>
<g id="a_node9"><a xlink:href="classSeeSawN_1_1ION_1_1CoordinateCorrespondenceIOC.html#a1fde3dfb495720b7e21a09a805b91d27" target="_top" xlink:title="Writes a sample file. ">
<polygon fill="white" stroke="black" points="263,-0.5 263,-30.5 443,-30.5 443,-0.5 263,-0.5"/>
<text text-anchor="start" x="271" y="-18.5" font-family="FreeSans" font-size="10.00">SeeSawN::ION::Coordinate</text>
<text text-anchor="middle" x="353" y="-7.5" font-family="FreeSans" font-size="10.00">CorrespondenceIOC::WriteSampleFile</text>
</a>
</g>
</g>
<!-- Node1&#45;&gt;Node9 -->
<g id="edge8" class="edge"><title>Node1&#45;&gt;Node9</title>
<path fill="none" stroke="midnightblue" d="M126.093,-166.787C150.013,-133.415 198.174,-73.0439 254,-40.5 260.675,-36.6091 267.95,-33.3171 275.422,-30.5332"/>
<polygon fill="midnightblue" stroke="midnightblue" points="123.171,-164.857 120.273,-175.047 128.894,-168.889 123.171,-164.857"/>
</g>
<!-- Node3 -->
<g id="node3" class="node"><title>Node3</title>
<g id="a_node3"><a xlink:href="namespaceSeeSawN_1_1UnitTestsN_1_1TestION.html#afb727e43f59f1e398de236bcfc53f70e" target="_top" xlink:title="SeeSawN::UnitTestsN\l::TestION::BOOST_AUTO\l_TEST_CASE">
<polygon fill="white" stroke="black" points="655,-162 655,-203 786,-203 786,-162 655,-162"/>
<text text-anchor="start" x="663" y="-191" font-family="FreeSans" font-size="10.00">SeeSawN::UnitTestsN</text>
<text text-anchor="start" x="663" y="-180" font-family="FreeSans" font-size="10.00">::TestION::BOOST_AUTO</text>
<text text-anchor="middle" x="720.5" y="-169" font-family="FreeSans" font-size="10.00">_TEST_CASE</text>
</a>
</g>
</g>
<!-- Node2&#45;&gt;Node3 -->
<g id="edge2" class="edge"><title>Node2&#45;&gt;Node3</title>
<path fill="none" stroke="midnightblue" d="M629.239,-182.5C637.821,-182.5 646.516,-182.5 654.948,-182.5"/>
<polygon fill="midnightblue" stroke="midnightblue" points="629.239,-179 619.239,-182.5 629.239,-186 629.239,-179"/>
</g>
<!-- Node9&#45;&gt;Node2 -->
<g id="edge9" class="edge"><title>Node9&#45;&gt;Node2</title>
<path fill="none" stroke="midnightblue" d="M442.87,-34.9657C446.033,-36.659 449.09,-38.4995 452,-40.5 497.419,-71.7288 529.156,-130.598 543.636,-161.828"/>
<polygon fill="midnightblue" stroke="midnightblue" points="444.237,-31.7397 433.706,-30.573 441.211,-38.0519 444.237,-31.7397"/>
</g>
</g>
</svg>
        <g id="navigator" transform="translate(0 0)" fill="#404254">
                <rect fill="#f2f5e9" fill-opacity="0.5" stroke="#606060" stroke-width=".5" x="0" y="0" width="60" height="60"/>
                <use id="zoomplus" xlink:href="#zoomPlus" x="17" y="9" onmousedown="handleZoom(evt,'in')"/>
                <use id="zoomminus" xlink:href="#zoomMin" x="42" y="9" onmousedown="handleZoom(evt,'out')"/>
                <use id="reset" xlink:href="#resetDef" x="30" y="36" onmousedown="handleReset()"/>
                <g id="arrowUp" xlink:href="#dirArrow" transform="translate(30 24)" onmousedown="handlePan(0,-1)">
                  <use xlink:href="#rim" fill="#404040">
                        <set attributeName="fill" to="#808080" begin="arrowUp.mouseover" end="arrowUp.mouseout"/>
                  </use>
                  <path fill="none" stroke="white" stroke-width="1.5" d="M0,-3.0v7 M-2.5,-0.5L0,-3.0L2.5,-0.5"/>
                </g>
                <g id="arrowRight" xlink:href="#dirArrow" transform="rotate(90) translate(36 -43)" onmousedown="handlePan(1,0)">
                  <use xlink:href="#rim" fill="#404040">
                        <set attributeName="fill" to="#808080" begin="arrowRight.mouseover" end="arrowRight.mouseout"/>
                  </use>
                  <path fill="none" stroke="white" stroke-width="1.5" d="M0,-3.0v7 M-2.5,-0.5L0,-3.0L2.5,-0.5"/>
                </g>
                <g id="arrowDown" xlink:href="#dirArrow" transform="rotate(180) translate(-30 -48)" onmousedown="handlePan(0,1)">
                  <use xlink:href="#rim" fill="#404040">
                        <set attributeName="fill" to="#808080" begin="arrowDown.mouseover" end="arrowDown.mouseout"/>
                  </use>
                  <path fill="none" stroke="white" stroke-width="1.5" d="M0,-3.0v7 M-2.5,-0.5L0,-3.0L2.5,-0.5"/>
                </g>
                <g id="arrowLeft" xlink:href="#dirArrow" transform="rotate(270) translate(-36 17)" onmousedown="handlePan(-1,0)">
                  <use xlink:href="#rim" fill="#404040">
                        <set attributeName="fill" to="#808080" begin="arrowLeft.mouseover" end="arrowLeft.mouseout"/>
                  </use>
                  <path fill="none" stroke="white" stroke-width="1.5" d="M0,-3.0v7 M-2.5,-0.5L0,-3.0L2.5,-0.5"/>
                </g>
        </g>
        <svg viewBox="0 0 15 15" width="100%" height="30px" preserveAspectRatio="xMaxYMin meet">
         <g id="arrow_out" transform="scale(0.3 0.3)">
          <a xlink:href="classSeeSawN_1_1ION_1_1CoordinateCorrespondenceIOC_af4ab8f488c3fe7b5f7226b6ca0197472_icgraph_org.svg" target="_base">
           <rect id="button" ry="5" rx="5" y="6" x="6" height="38" width="38"
                fill="#f2f5e9" fill-opacity="0.5" stroke="#606060" stroke-width="1.0"/>
           <path id="arrow"
             d="M 11.500037,31.436501 C 11.940474,20.09759 22.043105,11.32322 32.158766,21.979434 L 37.068811,17.246167 C 37.068811,17.246167 37.088388,32 37.088388,32 L 22.160133,31.978069 C 22.160133,31.978069 26.997745,27.140456 26.997745,27.140456 C 18.528582,18.264221 13.291696,25.230495 11.500037,31.436501 z"
             style="fill:#404040;"/>
          </a>
         </g>
        </svg>
</svg>
