<?xml version="1.0" encoding="UTF-8" standalone="no"?>
<!DOCTYPE svg PUBLIC "-//W3C//DTD SVG 1.1//EN"
 "http://www.w3.org/Graphics/SVG/1.1/DTD/svg11.dtd">
<!-- Generated by graphviz version 2.38.0 (20140413.2041)
 -->
<!-- Title: SeeSawN::RandomSpanningTreeSamplerN::RSTSRotationRegistrationProblemC Pages: 1 -->
<svg width="749pt" height="612pt"
 viewBox="0.00 0.00 749.00 612.00" xmlns="http://www.w3.org/2000/svg" xmlns:xlink="http://www.w3.org/1999/xlink">
<g id="graph0" class="graph" transform="scale(1 1) rotate(0) translate(4 608)">
<title>SeeSawN::RandomSpanningTreeSamplerN::RSTSRotationRegistrationProblemC</title>
<polygon fill="white" stroke="none" points="-4,4 -4,-608 745,-608 745,4 -4,4"/>
<!-- Node1 -->
<g id="node1" class="node"><title>Node1</title>
<polygon fill="#bfbfbf" stroke="black" points="329.5,-0.5 329.5,-244.5 508.5,-244.5 508.5,-0.5 329.5,-0.5"/>
<text text-anchor="start" x="337.5" y="-232.5" font-family="FreeSans" font-size="10.00">SeeSawN::RandomSpanningTree</text>
<text text-anchor="start" x="337.5" y="-221.5" font-family="FreeSans" font-size="10.00">SamplerN::RSTSRotationRegistration</text>
<text text-anchor="middle" x="419" y="-210.5" font-family="FreeSans" font-size="10.00">ProblemC</text>
<polyline fill="none" stroke="black" points="329.5,-203.5 508.5,-203.5 "/>
<text text-anchor="middle" x="419" y="-191.5" font-family="FreeSans" font-size="10.00"> </text>
<polyline fill="none" stroke="black" points="329.5,-184.5 508.5,-184.5 "/>
<text text-anchor="start" x="337.5" y="-172.5" font-family="FreeSans" font-size="10.00">+ RSTSRotationRegistration</text>
<text text-anchor="start" x="337.5" y="-161.5" font-family="FreeSans" font-size="10.00">ProblemC()</text>
<text text-anchor="start" x="337.5" y="-150.5" font-family="FreeSans" font-size="10.00">+ RSTSRotationRegistration</text>
<text text-anchor="start" x="337.5" y="-139.5" font-family="FreeSans" font-size="10.00">ProblemC()</text>
<text text-anchor="start" x="337.5" y="-128.5" font-family="FreeSans" font-size="10.00">* edge_type</text>
<text text-anchor="start" x="337.5" y="-117.5" font-family="FreeSans" font-size="10.00">* model_type</text>
<text text-anchor="start" x="337.5" y="-106.5" font-family="FreeSans" font-size="10.00">* RSTSRotationRegistration</text>
<text text-anchor="start" x="337.5" y="-95.5" font-family="FreeSans" font-size="10.00">ProblemC()</text>
<text text-anchor="start" x="337.5" y="-84.5" font-family="FreeSans" font-size="10.00">* GetEdgeList()</text>
<text text-anchor="start" x="337.5" y="-73.5" font-family="FreeSans" font-size="10.00">* GenerateModel()</text>
<text text-anchor="start" x="337.5" y="-62.5" font-family="FreeSans" font-size="10.00">* EvaluateEdge()</text>
<text text-anchor="start" x="337.5" y="-51.5" font-family="FreeSans" font-size="10.00">* IsValid()</text>
<text text-anchor="start" x="337.5" y="-40.5" font-family="FreeSans" font-size="10.00">* Initialise()</text>
<text text-anchor="start" x="337.5" y="-29.5" font-family="FreeSans" font-size="10.00">* RetrieveObservationIndex()</text>
<text text-anchor="start" x="337.5" y="-18.5" font-family="FreeSans" font-size="10.00">* EvaluateModel()</text>
<text text-anchor="start" x="337.5" y="-7.5" font-family="FreeSans" font-size="10.00">* RetrieveObservationIndexList()</text>
</g>
<!-- Node2 -->
<g id="node2" class="node"><title>Node2</title>
<polygon fill="white" stroke="#bfbfbf" points="0,-320 0,-377 56,-377 56,-320 0,-320"/>
<text text-anchor="middle" x="28" y="-365" font-family="FreeSans" font-size="10.00">real_type</text>
<polyline fill="none" stroke="#bfbfbf" points="0,-358 56,-358 "/>
<text text-anchor="middle" x="28" y="-346" font-family="FreeSans" font-size="10.00"> </text>
<polyline fill="none" stroke="#bfbfbf" points="0,-339 56,-339 "/>
<text text-anchor="middle" x="28" y="-327" font-family="FreeSans" font-size="10.00"> </text>
</g>
<!-- Node2&#45;&gt;Node1 -->
<g id="edge1" class="edge"><title>Node2&#45;&gt;Node1</title>
<path fill="none" stroke="#404040" d="M54.2628,-319.656C71.9684,-301.934 96.4905,-279.328 121,-263 182.633,-221.939 258.268,-186.69 317.916,-161.897"/>
<polygon fill="none" stroke="#404040" points="318.145,-161.802 322.171,-155.82 329.242,-157.234 325.216,-163.217 318.145,-161.802"/>
<text text-anchor="middle" x="155.5" y="-277" font-family="FreeSans" font-size="10.00"> &#45;inlierThreshold</text>
</g>
<!-- Node3 -->
<g id="node3" class="node"><title>Node3</title>
<polygon fill="white" stroke="#bfbfbf" points="74.5,-314.5 74.5,-382.5 185.5,-382.5 185.5,-314.5 74.5,-314.5"/>
<text text-anchor="start" x="82.5" y="-370.5" font-family="FreeSans" font-size="10.00">std::map&lt; IndexPairT,</text>
<text text-anchor="middle" x="130" y="-359.5" font-family="FreeSans" font-size="10.00"> pair&lt; size_t, bool &gt; &gt;</text>
<polyline fill="none" stroke="#bfbfbf" points="74.5,-352.5 185.5,-352.5 "/>
<text text-anchor="middle" x="130" y="-340.5" font-family="FreeSans" font-size="10.00"> </text>
<polyline fill="none" stroke="#bfbfbf" points="74.5,-333.5 185.5,-333.5 "/>
<text text-anchor="middle" x="130" y="-321.5" font-family="FreeSans" font-size="10.00"> </text>
</g>
<!-- Node3&#45;&gt;Node1 -->
<g id="edge2" class="edge"><title>Node3&#45;&gt;Node1</title>
<path fill="none" stroke="#404040" d="M170.226,-314.251C189.405,-298.545 212.751,-279.635 234,-263 261.484,-241.484 291.59,-218.528 319.383,-197.579"/>
<polygon fill="none" stroke="#404040" points="319.522,-197.474 321.91,-190.67 329.109,-190.258 326.721,-197.062 319.522,-197.474"/>
<text text-anchor="middle" x="270.5" y="-277" font-family="FreeSans" font-size="10.00"> &#45;edgeIndexArray</text>
</g>
<!-- Node4 -->
<g id="node4" class="node"><title>Node4</title>
<polygon fill="white" stroke="#bfbfbf" points="67,-441.5 67,-498.5 165,-498.5 165,-441.5 67,-441.5"/>
<text text-anchor="middle" x="116" y="-486.5" font-family="FreeSans" font-size="10.00">pair&lt; size_t, bool &gt;</text>
<polyline fill="none" stroke="#bfbfbf" points="67,-479.5 165,-479.5 "/>
<text text-anchor="middle" x="116" y="-467.5" font-family="FreeSans" font-size="10.00"> </text>
<polyline fill="none" stroke="#bfbfbf" points="67,-460.5 165,-460.5 "/>
<text text-anchor="middle" x="116" y="-448.5" font-family="FreeSans" font-size="10.00"> </text>
</g>
<!-- Node4&#45;&gt;Node3 -->
<g id="edge3" class="edge"><title>Node4&#45;&gt;Node3</title>
<path fill="none" stroke="#404040" d="M105.323,-441.396C101.905,-428.982 99.7526,-414.188 103,-401 103.57,-398.684 104.265,-396.357 105.057,-394.041"/>
<polygon fill="none" stroke="#404040" points="105.17,-393.763 103.727,-386.698 109.694,-382.648 111.137,-389.713 105.17,-393.763"/>
<text text-anchor="middle" x="127.5" y="-409.5" font-family="FreeSans" font-size="10.00"> +elements</text>
</g>
<!-- Node5 -->
<g id="node5" class="node"><title>Node5</title>
<polygon fill="white" stroke="#bfbfbf" points="37,-546.5 37,-603.5 69,-603.5 69,-546.5 37,-546.5"/>
<text text-anchor="middle" x="53" y="-591.5" font-family="FreeSans" font-size="10.00">pair</text>
<polyline fill="none" stroke="#bfbfbf" points="37,-584.5 69,-584.5 "/>
<text text-anchor="middle" x="53" y="-572.5" font-family="FreeSans" font-size="10.00"> </text>
<polyline fill="none" stroke="#bfbfbf" points="37,-565.5 69,-565.5 "/>
<text text-anchor="middle" x="53" y="-553.5" font-family="FreeSans" font-size="10.00"> </text>
</g>
<!-- Node5&#45;&gt;Node3 -->
<g id="edge5" class="edge"><title>Node5&#45;&gt;Node3</title>
<path fill="none" stroke="#404040" d="M38.9866,-546.396C26.9622,-518.692 13.783,-475.319 29,-441 37.6184,-421.563 52.6315,-404.497 68.4879,-390.533"/>
<polygon fill="none" stroke="#404040" points="68.6761,-390.375 70.7109,-383.457 77.8794,-382.675 75.8446,-389.593 68.6761,-390.375"/>
<text text-anchor="middle" x="43.5" y="-467.5" font-family="FreeSans" font-size="10.00"> +keys</text>
</g>
<!-- Node5&#45;&gt;Node4 -->
<g id="edge4" class="edge"><title>Node5&#45;&gt;Node4</title>
<path fill="none" stroke="orange" d="M74.4439,-538.941C82.4884,-525.789 91.5105,-511.038 99.0874,-498.651"/>
<polygon fill="orange" stroke="orange" points="71.2927,-537.385 69.0606,-547.742 77.2642,-541.038 71.2927,-537.385"/>
<text text-anchor="middle" x="121" y="-520" font-family="FreeSans" font-size="10.00"> &lt; size_t, bool &gt;</text>
</g>
<!-- Node6 -->
<g id="node6" class="node"><title>Node6</title>
<g id="a_node6"><a xlink:title="STL class. ">
<polygon fill="white" stroke="#bfbfbf" points="210,-441.5 210,-498.5 298,-498.5 298,-441.5 210,-441.5"/>
<text text-anchor="middle" x="254" y="-486.5" font-family="FreeSans" font-size="10.00">std::map&lt; K, T &gt;</text>
<polyline fill="none" stroke="#bfbfbf" points="210,-479.5 298,-479.5 "/>
<text text-anchor="middle" x="254" y="-467.5" font-family="FreeSans" font-size="10.00"> </text>
<polyline fill="none" stroke="#bfbfbf" points="210,-460.5 298,-460.5 "/>
<text text-anchor="middle" x="254" y="-448.5" font-family="FreeSans" font-size="10.00"> </text>
</a>
</g>
</g>
<!-- Node6&#45;&gt;Node3 -->
<g id="edge6" class="edge"><title>Node6&#45;&gt;Node3</title>
<path fill="none" stroke="orange" d="M212.624,-434.526C208.305,-430.7 204.026,-426.809 200,-423 186.559,-410.284 172.368,-395.635 160.303,-382.777"/>
<polygon fill="orange" stroke="orange" points="210.56,-437.371 220.395,-441.313 215.165,-432.099 210.56,-437.371"/>
<text text-anchor="start" x="200" y="-415" font-family="FreeSans" font-size="10.00"> &lt; IndexPairT, pair</text>
<text text-anchor="middle" x="239.5" y="-404" font-family="FreeSans" font-size="10.00">&lt; size_t, bool &gt; &gt;</text>
</g>
<!-- Node7 -->
<g id="node7" class="node"><title>Node7</title>
<polygon fill="white" stroke="#bfbfbf" points="239.5,-546.5 239.5,-603.5 268.5,-603.5 268.5,-546.5 239.5,-546.5"/>
<text text-anchor="middle" x="254" y="-591.5" font-family="FreeSans" font-size="10.00">K</text>
<polyline fill="none" stroke="#bfbfbf" points="239.5,-584.5 268.5,-584.5 "/>
<text text-anchor="middle" x="254" y="-572.5" font-family="FreeSans" font-size="10.00"> </text>
<polyline fill="none" stroke="#bfbfbf" points="239.5,-565.5 268.5,-565.5 "/>
<text text-anchor="middle" x="254" y="-553.5" font-family="FreeSans" font-size="10.00"> </text>
</g>
<!-- Node7&#45;&gt;Node6 -->
<g id="edge7" class="edge"><title>Node7&#45;&gt;Node6</title>
<path fill="none" stroke="#404040" d="M254,-546.398C254,-535.545 254,-522.873 254,-511.049"/>
<polygon fill="none" stroke="#404040" points="254,-510.678 250,-504.678 254,-498.678 258,-504.678 254,-510.678"/>
<text text-anchor="middle" x="268.5" y="-520" font-family="FreeSans" font-size="10.00"> +keys</text>
</g>
<!-- Node8 -->
<g id="node8" class="node"><title>Node8</title>
<polygon fill="white" stroke="#bfbfbf" points="411.5,-546.5 411.5,-603.5 440.5,-603.5 440.5,-546.5 411.5,-546.5"/>
<text text-anchor="middle" x="426" y="-591.5" font-family="FreeSans" font-size="10.00">T</text>
<polyline fill="none" stroke="#bfbfbf" points="411.5,-584.5 440.5,-584.5 "/>
<text text-anchor="middle" x="426" y="-572.5" font-family="FreeSans" font-size="10.00"> </text>
<polyline fill="none" stroke="#bfbfbf" points="411.5,-565.5 440.5,-565.5 "/>
<text text-anchor="middle" x="426" y="-553.5" font-family="FreeSans" font-size="10.00"> </text>
</g>
<!-- Node8&#45;&gt;Node6 -->
<g id="edge8" class="edge"><title>Node8&#45;&gt;Node6</title>
<path fill="none" stroke="#404040" d="M411.335,-565.218C388.784,-551.713 344.436,-525.156 308.556,-503.67"/>
<polygon fill="none" stroke="#404040" points="308.502,-503.638 301.3,-503.987 298.207,-497.473 305.41,-497.124 308.502,-503.638"/>
<text text-anchor="middle" x="370.5" y="-520" font-family="FreeSans" font-size="10.00"> +elements</text>
</g>
<!-- Node11 -->
<g id="node11" class="node"><title>Node11</title>
<g id="a_node11"><a xlink:title="STL class. ">
<polygon fill="white" stroke="#bfbfbf" points="471,-441.5 471,-498.5 555,-498.5 555,-441.5 471,-441.5"/>
<text text-anchor="middle" x="513" y="-486.5" font-family="FreeSans" font-size="10.00">std::vector&lt; T &gt;</text>
<polyline fill="none" stroke="#bfbfbf" points="471,-479.5 555,-479.5 "/>
<text text-anchor="middle" x="513" y="-467.5" font-family="FreeSans" font-size="10.00"> </text>
<polyline fill="none" stroke="#bfbfbf" points="471,-460.5 555,-460.5 "/>
<text text-anchor="middle" x="513" y="-448.5" font-family="FreeSans" font-size="10.00"> </text>
</a>
</g>
</g>
<!-- Node8&#45;&gt;Node11 -->
<g id="edge12" class="edge"><title>Node8&#45;&gt;Node11</title>
<path fill="none" stroke="#404040" d="M440.758,-556.527C451.943,-543.285 467.718,-524.61 481.673,-508.088"/>
<polygon fill="none" stroke="#404040" points="481.889,-507.833 482.704,-500.668 489.632,-498.666 488.816,-505.83 481.889,-507.833"/>
<text text-anchor="middle" x="497.5" y="-520" font-family="FreeSans" font-size="10.00"> +elements</text>
</g>
<!-- Node9 -->
<g id="node9" class="node"><title>Node9</title>
<polygon fill="white" stroke="#bfbfbf" points="366,-320 366,-377 472,-377 472,-320 366,-320"/>
<text text-anchor="middle" x="419" y="-365" font-family="FreeSans" font-size="10.00">std::vector&lt; EdgeT &gt;</text>
<polyline fill="none" stroke="#bfbfbf" points="366,-358 472,-358 "/>
<text text-anchor="middle" x="419" y="-346" font-family="FreeSans" font-size="10.00"> </text>
<polyline fill="none" stroke="#bfbfbf" points="366,-339 472,-339 "/>
<text text-anchor="middle" x="419" y="-327" font-family="FreeSans" font-size="10.00"> </text>
</g>
<!-- Node9&#45;&gt;Node1 -->
<g id="edge9" class="edge"><title>Node9&#45;&gt;Node1</title>
<path fill="none" stroke="#404040" d="M419,-319.583C419,-302.979 419,-280.564 419,-256.821"/>
<polygon fill="none" stroke="#404040" points="419,-256.696 415,-250.696 419,-244.696 423,-250.696 419,-256.696"/>
<text text-anchor="middle" x="440.5" y="-277" font-family="FreeSans" font-size="10.00"> &#45;edgeList</text>
</g>
<!-- Node10 -->
<g id="node10" class="node"><title>Node10</title>
<polygon fill="white" stroke="#bfbfbf" points="329,-441.5 329,-498.5 367,-498.5 367,-441.5 329,-441.5"/>
<text text-anchor="middle" x="348" y="-486.5" font-family="FreeSans" font-size="10.00">tuple</text>
<polyline fill="none" stroke="#bfbfbf" points="329,-479.5 367,-479.5 "/>
<text text-anchor="middle" x="348" y="-467.5" font-family="FreeSans" font-size="10.00"> </text>
<polyline fill="none" stroke="#bfbfbf" points="329,-460.5 367,-460.5 "/>
<text text-anchor="middle" x="348" y="-448.5" font-family="FreeSans" font-size="10.00"> </text>
</g>
<!-- Node10&#45;&gt;Node9 -->
<g id="edge10" class="edge"><title>Node10&#45;&gt;Node9</title>
<path fill="none" stroke="#404040" d="M342.97,-441.49C341.922,-428.54 342.675,-413.281 349,-401 351.863,-395.442 355.632,-390.334 359.941,-385.676"/>
<polygon fill="none" stroke="#404040" points="360.09,-385.534 361.688,-378.502 368.793,-377.273 367.196,-384.305 360.09,-385.534"/>
<text text-anchor="middle" x="373.5" y="-409.5" font-family="FreeSans" font-size="10.00"> +elements</text>
</g>
<!-- Node12 -->
<g id="node12" class="node"><title>Node12</title>
<polygon fill="white" stroke="#bfbfbf" points="204,-320 204,-377 348,-377 348,-320 204,-320"/>
<text text-anchor="middle" x="276" y="-365" font-family="FreeSans" font-size="10.00">std::vector&lt; ObservationQT &gt;</text>
<polyline fill="none" stroke="#bfbfbf" points="204,-358 348,-358 "/>
<text text-anchor="middle" x="276" y="-346" font-family="FreeSans" font-size="10.00"> </text>
<polyline fill="none" stroke="#bfbfbf" points="204,-339 348,-339 "/>
<text text-anchor="middle" x="276" y="-327" font-family="FreeSans" font-size="10.00"> </text>
</g>
<!-- Node10&#45;&gt;Node12 -->
<g id="edge14" class="edge"><title>Node10&#45;&gt;Node12</title>
<path fill="none" stroke="#404040" d="M328.737,-455.639C314.178,-445.158 295.891,-431.039 291,-423 284.886,-412.95 281.219,-400.841 279.033,-389.378"/>
<polygon fill="none" stroke="#404040" points="279.004,-389.184 274.146,-383.855 277.198,-377.321 282.055,-382.65 279.004,-389.184"/>
<text text-anchor="middle" x="315.5" y="-409.5" font-family="FreeSans" font-size="10.00"> +elements</text>
</g>
<!-- Node14 -->
<g id="node14" class="node"><title>Node14</title>
<polygon fill="white" stroke="#bfbfbf" points="543.5,-320 543.5,-377 680.5,-377 680.5,-320 543.5,-320"/>
<text text-anchor="middle" x="612" y="-365" font-family="FreeSans" font-size="10.00">std::vector&lt; ObservationT &gt;</text>
<polyline fill="none" stroke="#bfbfbf" points="543.5,-358 680.5,-358 "/>
<text text-anchor="middle" x="612" y="-346" font-family="FreeSans" font-size="10.00"> </text>
<polyline fill="none" stroke="#bfbfbf" points="543.5,-339 680.5,-339 "/>
<text text-anchor="middle" x="612" y="-327" font-family="FreeSans" font-size="10.00"> </text>
</g>
<!-- Node10&#45;&gt;Node14 -->
<g id="edge18" class="edge"><title>Node10&#45;&gt;Node14</title>
<path fill="none" stroke="#404040" d="M367.21,-464.848C403.969,-456.67 482.682,-437.975 506,-423 516.871,-416.019 515.089,-409.288 525,-401 532.371,-394.836 540.567,-388.954 548.9,-383.514"/>
<polygon fill="none" stroke="#404040" points="548.926,-383.497 551.876,-376.917 559.084,-377.109 556.135,-383.689 548.926,-383.497"/>
<text text-anchor="middle" x="549.5" y="-409.5" font-family="FreeSans" font-size="10.00"> +elements</text>
</g>
<!-- Node11&#45;&gt;Node9 -->
<g id="edge11" class="edge"><title>Node11&#45;&gt;Node9</title>
<path fill="none" stroke="orange" d="M563.581,-441.305C579.128,-429.271 589.47,-414.795 578,-401 549.966,-367.285 522.345,-397.599 481,-383 476.155,-381.289 471.23,-379.238 466.383,-377.004"/>
<polygon fill="orange" stroke="orange" points="561.187,-438.712 555.064,-447.359 565.243,-444.418 561.187,-438.712"/>
<text text-anchor="middle" x="606.5" y="-409.5" font-family="FreeSans" font-size="10.00"> &lt; EdgeT &gt;</text>
</g>
<!-- Node11&#45;&gt;Node12 -->
<g id="edge15" class="edge"><title>Node11&#45;&gt;Node12</title>
<path fill="none" stroke="orange" d="M461.456,-446.617C447.829,-439.803 433.457,-431.77 421,-423 409.433,-414.857 409.822,-408.768 398,-401 395.202,-399.162 369.685,-388.331 342.706,-377.073"/>
<polygon fill="orange" stroke="orange" points="460.214,-449.905 470.738,-451.134 463.277,-443.611 460.214,-449.905"/>
<text text-anchor="middle" x="463.5" y="-409.5" font-family="FreeSans" font-size="10.00"> &lt; ObservationQT &gt;</text>
</g>
<!-- Node11&#45;&gt;Node14 -->
<g id="edge19" class="edge"><title>Node11&#45;&gt;Node14</title>
<path fill="none" stroke="orange" d="M565.063,-462.911C590.303,-457.043 618.456,-445.539 634,-423 643.377,-409.403 638.508,-391.734 630.995,-377.127"/>
<polygon fill="orange" stroke="orange" points="564.279,-459.499 555.202,-464.963 565.705,-466.353 564.279,-459.499"/>
<text text-anchor="middle" x="679" y="-409.5" font-family="FreeSans" font-size="10.00"> &lt; ObservationT &gt;</text>
</g>
<!-- Node12&#45;&gt;Node1 -->
<g id="edge13" class="edge"><title>Node12&#45;&gt;Node1</title>
<path fill="none" stroke="#404040" d="M293.822,-319.583C304.712,-302.524 319.518,-279.331 335.136,-254.867"/>
<polygon fill="none" stroke="#404040" points="335.172,-254.81 335.029,-247.601 341.63,-244.696 341.773,-251.905 335.172,-254.81"/>
<text text-anchor="middle" x="361.5" y="-277" font-family="FreeSans" font-size="10.00"> &#45;observationsQ</text>
</g>
<!-- Node13 -->
<g id="node13" class="node"><title>Node13</title>
<g id="a_node13"><a xlink:href="classbool.html" target="_top" xlink:title="{bool\n||}">
<polygon fill="white" stroke="black" points="490.5,-320 490.5,-377 525.5,-377 525.5,-320 490.5,-320"/>
<text text-anchor="middle" x="508" y="-365" font-family="FreeSans" font-size="10.00">bool</text>
<polyline fill="none" stroke="black" points="490.5,-358 525.5,-358 "/>
<text text-anchor="middle" x="508" y="-346" font-family="FreeSans" font-size="10.00"> </text>
<polyline fill="none" stroke="black" points="490.5,-339 525.5,-339 "/>
<text text-anchor="middle" x="508" y="-327" font-family="FreeSans" font-size="10.00"> </text>
</a>
</g>
</g>
<!-- Node13&#45;&gt;Node1 -->
<g id="edge16" class="edge"><title>Node13&#45;&gt;Node1</title>
<path fill="none" stroke="#404040" d="M496.908,-319.583C490.25,-302.827 481.242,-280.154 471.713,-256.171"/>
<polygon fill="none" stroke="#404040" points="471.585,-255.848 465.652,-251.749 467.154,-244.696 473.086,-248.795 471.585,-255.848"/>
<text text-anchor="middle" x="508.5" y="-277" font-family="FreeSans" font-size="10.00"> &#45;flagValid</text>
</g>
<!-- Node14&#45;&gt;Node1 -->
<g id="edge17" class="edge"><title>Node14&#45;&gt;Node1</title>
<path fill="none" stroke="#404040" d="M587.947,-319.583C569.645,-298.341 543.149,-267.59 516.548,-236.716"/>
<polygon fill="none" stroke="#404040" points="516.508,-236.669 509.561,-234.735 508.675,-227.578 515.621,-229.513 516.508,-236.669"/>
<text text-anchor="middle" x="596.5" y="-277" font-family="FreeSans" font-size="10.00"> &#45;observations</text>
</g>
<!-- Node15 -->
<g id="node15" class="node"><title>Node15</title>
<polygon fill="white" stroke="#bfbfbf" points="699,-320 699,-377 741,-377 741,-320 699,-320"/>
<text text-anchor="middle" x="720" y="-365" font-family="FreeSans" font-size="10.00">size_t</text>
<polyline fill="none" stroke="#bfbfbf" points="699,-358 741,-358 "/>
<text text-anchor="middle" x="720" y="-346" font-family="FreeSans" font-size="10.00"> </text>
<polyline fill="none" stroke="#bfbfbf" points="699,-339 741,-339 "/>
<text text-anchor="middle" x="720" y="-327" font-family="FreeSans" font-size="10.00"> </text>
</g>
<!-- Node15&#45;&gt;Node1 -->
<g id="edge20" class="edge"><title>Node15&#45;&gt;Node1</title>
<path fill="none" stroke="#404040" d="M698.958,-324.137C695.682,-320.682 692.291,-317.208 689,-314 664.422,-290.038 658.292,-283.818 631,-263 595.609,-236.004 555.134,-208.59 519.101,-185.292"/>
<polygon fill="none" stroke="#404040" points="518.661,-185.009 511.451,-185.127 508.569,-178.517 515.779,-178.399 518.661,-185.009"/>
<text text-anchor="middle" x="691" y="-288" font-family="FreeSans" font-size="10.00"> +iWeight</text>
<text text-anchor="middle" x="691" y="-277" font-family="FreeSans" font-size="10.00">+iVertex1</text>
<text text-anchor="middle" x="691" y="-266" font-family="FreeSans" font-size="10.00">+iVertex2</text>
</g>
</g>
</svg>
