<?xml version="1.0" encoding="UTF-8" standalone="no"?>
<!DOCTYPE svg PUBLIC "-//W3C//DTD SVG 1.1//EN"
 "http://www.w3.org/Graphics/SVG/1.1/DTD/svg11.dtd">
<!-- Generated by graphviz version 2.38.0 (20140413.2041)
 -->
<!-- Title: boost::dynamic_bitset::append Pages: 1 -->
<!--zoomable 1105 -->
<svg id="main" version="1.1" xmlns="http://www.w3.org/2000/svg" xmlns:xlink="http://www.w3.org/1999/xlink" xml:space="preserve" onload="init(evt)">
<style type="text/css"><![CDATA[
.edge:hover path { stroke: red; }
.edge:hover polygon { stroke: red; fill: red; }
]]></style>
<script type="text/javascript"><![CDATA[
var edges = document.getElementsByTagName('g');
if (edges && edges.length) {
  for (var i=0;i<edges.length;i++) {
    if (edges[i].id.substr(0,4)=='edge') {
      edges[i].setAttribute('class','edge');
    }
  }
}
]]></script>
        <defs>
                <circle id="rim" cx="0" cy="0" r="7"/>
                <circle id="rim2" cx="0" cy="0" r="3.5"/>
                <g id="zoomPlus">
                        <use xlink:href="#rim" fill="#404040">
                                <set attributeName="fill" to="#808080" begin="zoomplus.mouseover" end="zoomplus.mouseout"/>
                        </use>
                        <path d="M-4,0h8M0,-4v8" fill="none" stroke="white" stroke-width="1.5" pointer-events="none"/>
                </g>
                <g id="zoomMin">
                        <use xlink:href="#rim" fill="#404040">
                                <set attributeName="fill" to="#808080" begin="zoomminus.mouseover" end="zoomminus.mouseout"/>
                        </use>
                        <path d="M-4,0h8" fill="none" stroke="white" stroke-width="1.5" pointer-events="none"/>
                </g>
                <g id="dirArrow">
                        <path fill="none" stroke="white" stroke-width="1.5" d="M0,-3.0v7 M-2.5,-0.5L0,-3.0L2.5,-0.5"/>
                </g>
               <g id="resetDef">
                       <use xlink:href="#rim2" fill="#404040">
                               <set attributeName="fill" to="#808080" begin="reset.mouseover" end="reset.mouseout"/>
                       </use>
               </g>
        </defs>

<script type="text/javascript">
var viewWidth = 883;
var viewHeight = 1105;
var sectionId = 'dynsection-16';
</script>
<script xlink:href="svgpan.js"/>
<svg id="graph" class="graph">
<g id="viewport">
<title>boost::dynamic_bitset::append</title>
<polygon fill="white" stroke="none" points="-4,4 -4,-1100.99 879,-1100.99 879,4 -4,4"/>
<!-- Node136 -->
<g id="node1" class="node"><title>Node136</title>
<polygon fill="#bfbfbf" stroke="black" points="0,-406.5 0,-436.5 110,-436.5 110,-406.5 0,-406.5"/>
<text text-anchor="start" x="8" y="-424.5" font-family="FreeSans" font-size="10.00">boost::dynamic_bitset</text>
<text text-anchor="middle" x="55" y="-413.5" font-family="FreeSans" font-size="10.00">::append</text>
</g>
<!-- Node137 -->
<g id="node2" class="node"><title>Node137</title>
<g id="a_node2"><a xlink:href="classboost_1_1dynamic__bitset.html#afe2f3aef73404981463fd177d80d990b" target="_top" xlink:title="boost::dynamic_bitset::all">
<polygon fill="white" stroke="black" points="146,-963 146,-982 271,-982 271,-963 146,-963"/>
<text text-anchor="middle" x="208.5" y="-970" font-family="FreeSans" font-size="10.00">boost::dynamic_bitset::all</text>
</a>
</g>
</g>
<!-- Node136&#45;&gt;Node137 -->
<g id="edge1" class="edge"><title>Node136&#45;&gt;Node137</title>
<path fill="none" stroke="midnightblue" d="M59.3763,-436.822C70.5269,-487.017 107.655,-650.948 146,-784.5 163.872,-846.749 188.788,-919.31 200.671,-953.207"/>
<polygon fill="midnightblue" stroke="midnightblue" points="197.423,-954.522 204.045,-962.792 204.026,-952.197 197.423,-954.522"/>
</g>
<!-- Node146 -->
<g id="node11" class="node"><title>Node146</title>
<g id="a_node11"><a xlink:href="classboost_1_1dynamic__bitset.html#abe895e5662c299d5e6f382a15cfab700" target="_top" xlink:title="boost::dynamic_bitset::any">
<polygon fill="white" stroke="black" points="307,-580 307,-599 437,-599 437,-580 307,-580"/>
<text text-anchor="middle" x="372" y="-587" font-family="FreeSans" font-size="10.00">boost::dynamic_bitset::any</text>
</a>
</g>
</g>
<!-- Node136&#45;&gt;Node146 -->
<g id="edge15" class="edge"><title>Node136&#45;&gt;Node146</title>
<path fill="none" stroke="midnightblue" d="M57.9572,-436.593C63.6613,-473.594 83.9992,-568.623 146,-607.5 173.561,-624.782 260.014,-612.076 317.376,-601.011"/>
<polygon fill="midnightblue" stroke="midnightblue" points="318.239,-604.408 327.374,-599.042 316.887,-597.54 318.239,-604.408"/>
</g>
<!-- Node147 -->
<g id="node12" class="node"><title>Node147</title>
<g id="a_node12"><a xlink:href="classboost_1_1dynamic__bitset.html#af33290ad2afc70ea785b49c87d801c92" target="_top" xlink:title="boost::dynamic_bitset\l::count">
<polygon fill="white" stroke="black" points="619,-524.5 619,-554.5 729,-554.5 729,-524.5 619,-524.5"/>
<text text-anchor="start" x="627" y="-542.5" font-family="FreeSans" font-size="10.00">boost::dynamic_bitset</text>
<text text-anchor="middle" x="674" y="-531.5" font-family="FreeSans" font-size="10.00">::count</text>
</a>
</g>
</g>
<!-- Node136&#45;&gt;Node147 -->
<g id="edge17" class="edge"><title>Node136&#45;&gt;Node147</title>
<path fill="none" stroke="midnightblue" d="M64.4203,-436.535C78.1252,-459.307 107.627,-501.765 146,-519.5 226.455,-556.684 486.638,-549.064 608.684,-543.141"/>
<polygon fill="midnightblue" stroke="midnightblue" points="609.182,-546.621 618.996,-542.629 608.834,-539.63 609.182,-546.621"/>
</g>
<!-- Node148 -->
<g id="node13" class="node"><title>Node148</title>
<g id="a_node13"><a xlink:href="classboost_1_1dynamic__bitset_1_1reference.html#ab416bef772ad56da9f3c24ec6e781fd5" target="_top" xlink:title="boost::dynamic_bitset\l::reference::flip">
<polygon fill="white" stroke="black" points="153.5,-480.5 153.5,-510.5 263.5,-510.5 263.5,-480.5 153.5,-480.5"/>
<text text-anchor="start" x="161.5" y="-498.5" font-family="FreeSans" font-size="10.00">boost::dynamic_bitset</text>
<text text-anchor="middle" x="208.5" y="-487.5" font-family="FreeSans" font-size="10.00">::reference::flip</text>
</a>
</g>
</g>
<!-- Node136&#45;&gt;Node148 -->
<g id="edge19" class="edge"><title>Node136&#45;&gt;Node148</title>
<path fill="none" stroke="midnightblue" d="M81.9827,-436.657C99.7461,-446.767 123.973,-460.067 146,-470.5 150.267,-472.521 154.744,-474.536 159.254,-476.494"/>
<polygon fill="midnightblue" stroke="midnightblue" points="157.927,-479.733 168.5,-480.419 160.662,-473.29 157.927,-479.733"/>
</g>
<!-- Node150 -->
<g id="node15" class="node"><title>Node150</title>
<g id="a_node15"><a xlink:href="classboost_1_1dynamic__bitset.html#aae513b2c4bbcc1a42ac9ebd11e98f8ae" target="_top" xlink:title="boost::dynamic_bitset\l::m_append">
<polygon fill="white" stroke="black" points="153.5,-382.5 153.5,-412.5 263.5,-412.5 263.5,-382.5 153.5,-382.5"/>
<text text-anchor="start" x="161.5" y="-400.5" font-family="FreeSans" font-size="10.00">boost::dynamic_bitset</text>
<text text-anchor="middle" x="208.5" y="-389.5" font-family="FreeSans" font-size="10.00">::m_append</text>
</a>
</g>
</g>
<!-- Node136&#45;&gt;Node150 -->
<g id="edge21" class="edge"><title>Node136&#45;&gt;Node150</title>
<path fill="none" stroke="midnightblue" d="M110.267,-412.903C120.993,-411.204 132.345,-409.406 143.362,-407.66"/>
<polygon fill="midnightblue" stroke="midnightblue" points="144.028,-411.099 153.357,-406.077 142.933,-404.185 144.028,-411.099"/>
</g>
<!-- Node151 -->
<g id="node16" class="node"><title>Node151</title>
<g id="a_node16"><a xlink:href="classboost_1_1dynamic__bitset.html#a52d6c3ebdd4da76f7117a1386246288c" target="_top" xlink:title="boost::dynamic_bitset\l::none">
<polygon fill="white" stroke="black" points="153.5,-568.5 153.5,-598.5 263.5,-598.5 263.5,-568.5 153.5,-568.5"/>
<text text-anchor="start" x="161.5" y="-586.5" font-family="FreeSans" font-size="10.00">boost::dynamic_bitset</text>
<text text-anchor="middle" x="208.5" y="-575.5" font-family="FreeSans" font-size="10.00">::none</text>
</a>
</g>
</g>
<!-- Node136&#45;&gt;Node151 -->
<g id="edge22" class="edge"><title>Node136&#45;&gt;Node151</title>
<path fill="none" stroke="midnightblue" d="M63.1199,-436.845C76.1912,-463.601 106.352,-519.206 146,-553.5 150.212,-557.143 154.943,-560.458 159.862,-563.442"/>
<polygon fill="midnightblue" stroke="midnightblue" points="158.411,-566.64 168.849,-568.457 161.822,-560.528 158.411,-566.64"/>
</g>
<!-- Node152 -->
<g id="node17" class="node"><title>Node152</title>
<g id="a_node17"><a xlink:href="classboost_1_1dynamic__bitset_1_1reference.html#a0f77433ae251f284caf9d389e3f0b800" target="_top" xlink:title="boost::dynamic_bitset\l::reference::operator &amp;=">
<polygon fill="white" stroke="black" points="150.5,-333.5 150.5,-363.5 266.5,-363.5 266.5,-333.5 150.5,-333.5"/>
<text text-anchor="start" x="158.5" y="-351.5" font-family="FreeSans" font-size="10.00">boost::dynamic_bitset</text>
<text text-anchor="middle" x="208.5" y="-340.5" font-family="FreeSans" font-size="10.00">::reference::operator &amp;=</text>
</a>
</g>
</g>
<!-- Node136&#45;&gt;Node152 -->
<g id="edge24" class="edge"><title>Node136&#45;&gt;Node152</title>
<path fill="none" stroke="midnightblue" d="M81.5481,-406.464C99.3248,-396.283 123.739,-382.853 146,-372.5 149.637,-370.808 153.43,-369.131 157.267,-367.495"/>
<polygon fill="midnightblue" stroke="midnightblue" points="158.935,-370.592 166.833,-363.53 156.255,-364.125 158.935,-370.592"/>
</g>
<!-- Node154 -->
<g id="node19" class="node"><title>Node154</title>
<g id="a_node19"><a xlink:href="classboost_1_1dynamic__bitset_1_1reference.html#a5d2937fb501f3ed16834f6a4acb9d0bf" target="_top" xlink:title="boost::dynamic_bitset\l::reference::operator&#45;=">
<polygon fill="white" stroke="black" points="153.5,-284.5 153.5,-314.5 263.5,-314.5 263.5,-284.5 153.5,-284.5"/>
<text text-anchor="start" x="161.5" y="-302.5" font-family="FreeSans" font-size="10.00">boost::dynamic_bitset</text>
<text text-anchor="middle" x="208.5" y="-291.5" font-family="FreeSans" font-size="10.00">::reference::operator&#45;=</text>
</a>
</g>
</g>
<!-- Node136&#45;&gt;Node154 -->
<g id="edge26" class="edge"><title>Node136&#45;&gt;Node154</title>
<path fill="none" stroke="midnightblue" d="M66.5225,-406.217C81.8087,-385.027 112.064,-346.717 146,-323.5 148.152,-322.028 150.407,-320.628 152.73,-319.298"/>
<polygon fill="midnightblue" stroke="midnightblue" points="154.683,-322.229 161.952,-314.521 151.463,-316.013 154.683,-322.229"/>
</g>
<!-- Node155 -->
<g id="node20" class="node"><title>Node155</title>
<g id="a_node20"><a xlink:href="classboost_1_1dynamic__bitset.html#a1b84e67b1363ffecfdfcf72174ca1145" target="_top" xlink:title="boost::dynamic_bitset\l::operator\&lt;\&lt;">
<polygon fill="white" stroke="black" points="153.5,-235.5 153.5,-265.5 263.5,-265.5 263.5,-235.5 153.5,-235.5"/>
<text text-anchor="start" x="161.5" y="-253.5" font-family="FreeSans" font-size="10.00">boost::dynamic_bitset</text>
<text text-anchor="middle" x="208.5" y="-242.5" font-family="FreeSans" font-size="10.00">::operator&lt;&lt;</text>
</a>
</g>
</g>
<!-- Node136&#45;&gt;Node155 -->
<g id="edge28" class="edge"><title>Node136&#45;&gt;Node155</title>
<path fill="none" stroke="midnightblue" d="M61.4454,-406.365C72.7491,-376.964 101.477,-311.754 146,-274.5 147.516,-273.231 149.107,-272.025 150.757,-270.877"/>
<polygon fill="midnightblue" stroke="midnightblue" points="152.676,-273.806 159.406,-265.624 149.042,-267.824 152.676,-273.806"/>
</g>
<!-- Node156 -->
<g id="node21" class="node"><title>Node156</title>
<g id="a_node21"><a xlink:href="classboost_1_1dynamic__bitset.html#a960a61a17fc05b9c8a27c1676d2c4a51" target="_top" xlink:title="boost::dynamic_bitset\l::operator\&lt;\&lt;=">
<polygon fill="white" stroke="black" points="153.5,-744.5 153.5,-774.5 263.5,-774.5 263.5,-744.5 153.5,-744.5"/>
<text text-anchor="start" x="161.5" y="-762.5" font-family="FreeSans" font-size="10.00">boost::dynamic_bitset</text>
<text text-anchor="middle" x="208.5" y="-751.5" font-family="FreeSans" font-size="10.00">::operator&lt;&lt;=</text>
</a>
</g>
</g>
<!-- Node136&#45;&gt;Node156 -->
<g id="edge29" class="edge"><title>Node136&#45;&gt;Node156</title>
<path fill="none" stroke="midnightblue" d="M56.2779,-436.63C57.9428,-485.088 69.3219,-638.579 146,-729.5 148.922,-732.965 152.34,-736.064 156.04,-738.828"/>
<polygon fill="midnightblue" stroke="midnightblue" points="154.222,-741.821 164.509,-744.359 158.05,-735.96 154.222,-741.821"/>
</g>
<!-- Node157 -->
<g id="node22" class="node"><title>Node157</title>
<g id="a_node22"><a xlink:href="classboost_1_1dynamic__bitset.html#a850ee8554e666a35224d73355cc7d102" target="_top" xlink:title="boost::dynamic_bitset\l::reset">
<polygon fill="white" stroke="black" points="317,-694.5 317,-724.5 427,-724.5 427,-694.5 317,-694.5"/>
<text text-anchor="start" x="325" y="-712.5" font-family="FreeSans" font-size="10.00">boost::dynamic_bitset</text>
<text text-anchor="middle" x="372" y="-701.5" font-family="FreeSans" font-size="10.00">::reset</text>
</a>
</g>
</g>
<!-- Node136&#45;&gt;Node157 -->
<g id="edge48" class="edge"><title>Node136&#45;&gt;Node157</title>
<path fill="none" stroke="midnightblue" d="M55.5885,-436.645C55.2131,-484.196 61.2162,-631.226 146,-696.5 191.154,-731.264 257.754,-730.68 306.784,-723.717"/>
<polygon fill="midnightblue" stroke="midnightblue" points="307.617,-727.13 316.965,-722.144 306.548,-720.212 307.617,-727.13"/>
</g>
<!-- Node160 -->
<g id="node25" class="node"><title>Node160</title>
<g id="a_node25"><a xlink:href="classboost_1_1dynamic__bitset.html#a56d3a5d54516e3b3d72b12c5000fd969" target="_top" xlink:title="boost::dynamic_bitset\l::operator\&gt;\&gt;">
<polygon fill="white" stroke="black" points="153.5,-186.5 153.5,-216.5 263.5,-216.5 263.5,-186.5 153.5,-186.5"/>
<text text-anchor="start" x="161.5" y="-204.5" font-family="FreeSans" font-size="10.00">boost::dynamic_bitset</text>
<text text-anchor="middle" x="208.5" y="-193.5" font-family="FreeSans" font-size="10.00">::operator&gt;&gt;</text>
</a>
</g>
</g>
<!-- Node136&#45;&gt;Node160 -->
<g id="edge38" class="edge"><title>Node136&#45;&gt;Node160</title>
<path fill="none" stroke="midnightblue" d="M58.8654,-406.482C66.5129,-370.34 90.7061,-277.656 146,-225.5 147.12,-224.443 148.293,-223.431 149.508,-222.462"/>
<polygon fill="midnightblue" stroke="midnightblue" points="151.746,-225.174 158.068,-216.673 147.824,-219.376 151.746,-225.174"/>
</g>
<!-- Node161 -->
<g id="node26" class="node"><title>Node161</title>
<g id="a_node26"><a xlink:href="classboost_1_1dynamic__bitset.html#aa9f554ef089b2c4e1c9c1227feb6bfbd" target="_top" xlink:title="boost::dynamic_bitset\l::operator\&gt;\&gt;=">
<polygon fill="white" stroke="black" points="153.5,-656.5 153.5,-686.5 263.5,-686.5 263.5,-656.5 153.5,-656.5"/>
<text text-anchor="start" x="161.5" y="-674.5" font-family="FreeSans" font-size="10.00">boost::dynamic_bitset</text>
<text text-anchor="middle" x="208.5" y="-663.5" font-family="FreeSans" font-size="10.00">::operator&gt;&gt;=</text>
</a>
</g>
</g>
<!-- Node136&#45;&gt;Node161 -->
<g id="edge39" class="edge"><title>Node136&#45;&gt;Node161</title>
<path fill="none" stroke="midnightblue" d="M58.3576,-436.58C65.1351,-475.315 88.0313,-579.603 146,-641.5 149.327,-645.052 153.164,-648.236 157.263,-651.078"/>
<polygon fill="midnightblue" stroke="midnightblue" points="155.615,-654.174 165.964,-656.441 159.287,-648.214 155.615,-654.174"/>
</g>
<!-- Node162 -->
<g id="node27" class="node"><title>Node162</title>
<g id="a_node27"><a xlink:href="classboost_1_1dynamic__bitset_1_1reference.html#a0a2a2b246250f90added9ccef1d86211" target="_top" xlink:title="boost::dynamic_bitset\l::reference::operator^=">
<polygon fill="white" stroke="black" points="152.5,-431.5 152.5,-461.5 264.5,-461.5 264.5,-431.5 152.5,-431.5"/>
<text text-anchor="start" x="160.5" y="-449.5" font-family="FreeSans" font-size="10.00">boost::dynamic_bitset</text>
<text text-anchor="middle" x="208.5" y="-438.5" font-family="FreeSans" font-size="10.00">::reference::operator^=</text>
</a>
</g>
</g>
<!-- Node136&#45;&gt;Node162 -->
<g id="edge43" class="edge"><title>Node136&#45;&gt;Node162</title>
<path fill="none" stroke="midnightblue" d="M110.267,-430.455C120.626,-432.164 131.57,-433.97 142.231,-435.729"/>
<polygon fill="midnightblue" stroke="midnightblue" points="141.901,-439.222 152.337,-437.397 143.04,-432.316 141.901,-439.222"/>
</g>
<!-- Node163 -->
<g id="node28" class="node"><title>Node163</title>
<g id="a_node28"><a xlink:href="classboost_1_1dynamic__bitset_1_1reference.html#a3fcb131887d3fd531dc77c4eb66940fc" target="_top" xlink:title="boost::dynamic_bitset\l::reference::operator\|=">
<polygon fill="white" stroke="black" points="153.5,-137.5 153.5,-167.5 263.5,-167.5 263.5,-137.5 153.5,-137.5"/>
<text text-anchor="start" x="161.5" y="-155.5" font-family="FreeSans" font-size="10.00">boost::dynamic_bitset</text>
<text text-anchor="middle" x="208.5" y="-144.5" font-family="FreeSans" font-size="10.00">::reference::operator|=</text>
</a>
</g>
</g>
<!-- Node136&#45;&gt;Node163 -->
<g id="edge45" class="edge"><title>Node136&#45;&gt;Node163</title>
<path fill="none" stroke="midnightblue" d="M57.315,-406.295C61.7577,-364.055 79.8652,-243.972 146,-176.5 147.053,-175.426 148.16,-174.398 149.312,-173.416"/>
<polygon fill="midnightblue" stroke="midnightblue" points="151.391,-176.233 157.487,-167.567 147.317,-170.54 151.391,-176.233"/>
</g>
<!-- Node165 -->
<g id="node30" class="node"><title>Node165</title>
<g id="a_node30"><a xlink:href="classboost_1_1dynamic__bitset_1_1reference.html#ad553f4741e83a46954cbd037aa48d3ef" target="_top" xlink:title="boost::dynamic_bitset\l::reference::operator~">
<polygon fill="white" stroke="black" points="153.5,-88.5 153.5,-118.5 263.5,-118.5 263.5,-88.5 153.5,-88.5"/>
<text text-anchor="start" x="161.5" y="-106.5" font-family="FreeSans" font-size="10.00">boost::dynamic_bitset</text>
<text text-anchor="middle" x="208.5" y="-95.5" font-family="FreeSans" font-size="10.00">::reference::operator~</text>
</a>
</g>
</g>
<!-- Node136&#45;&gt;Node165 -->
<g id="edge47" class="edge"><title>Node136&#45;&gt;Node165</title>
<path fill="none" stroke="midnightblue" d="M56.2197,-406.457C57.7184,-359.031 68.6737,-210.855 146,-127.5 146.899,-126.531 147.841,-125.601 148.822,-124.708"/>
<polygon fill="midnightblue" stroke="midnightblue" points="151.104,-127.371 156.99,-118.561 146.895,-121.777 151.104,-127.371"/>
</g>
<!-- Node166 -->
<g id="node31" class="node"><title>Node166</title>
<g id="a_node31"><a xlink:href="classboost_1_1dynamic__bitset.html#ad3b5b02d08eaf568214ea42a35858709" target="_top" xlink:title="boost::dynamic_bitset\l::test">
<polygon fill="white" stroke="black" points="317,-22.5 317,-52.5 427,-52.5 427,-22.5 317,-22.5"/>
<text text-anchor="start" x="325" y="-40.5" font-family="FreeSans" font-size="10.00">boost::dynamic_bitset</text>
<text text-anchor="middle" x="372" y="-29.5" font-family="FreeSans" font-size="10.00">::test</text>
</a>
</g>
</g>
<!-- Node136&#45;&gt;Node166 -->
<g id="edge49" class="edge"><title>Node136&#45;&gt;Node166</title>
<path fill="none" stroke="midnightblue" d="M57.8396,-406.203C65.4208,-345.76 96.2082,-124.628 146,-78.5 168.909,-57.2764 248.619,-46.6548 306.675,-41.6194"/>
<polygon fill="midnightblue" stroke="midnightblue" points="307.205,-45.0876 316.881,-40.7718 306.626,-38.1116 307.205,-45.0876"/>
</g>
<!-- Node167 -->
<g id="node32" class="node"><title>Node167</title>
<g id="a_node32"><a xlink:href="classboost_1_1dynamic__bitset.html#a2ab69ae31663e941078fcb44727b625f" target="_top" xlink:title="boost::dynamic_bitset\l::test_set">
<polygon fill="white" stroke="black" points="153.5,-0.5 153.5,-30.5 263.5,-30.5 263.5,-0.5 153.5,-0.5"/>
<text text-anchor="start" x="161.5" y="-18.5" font-family="FreeSans" font-size="10.00">boost::dynamic_bitset</text>
<text text-anchor="middle" x="208.5" y="-7.5" font-family="FreeSans" font-size="10.00">::test_set</text>
</a>
</g>
</g>
<!-- Node136&#45;&gt;Node167 -->
<g id="edge50" class="edge"><title>Node136&#45;&gt;Node167</title>
<path fill="none" stroke="midnightblue" d="M57.8742,-406.44C65.9371,-343.696 99.3869,-103.623 146,-45.5 148.717,-42.1116 151.913,-39.0791 155.395,-36.37"/>
<polygon fill="midnightblue" stroke="midnightblue" points="157.602,-39.1038 163.949,-30.6203 153.697,-33.2943 157.602,-39.1038"/>
</g>
<!-- Node138 -->
<g id="node3" class="node"><title>Node138</title>
<g id="a_node3"><a xlink:href="classboost_1_1dynamic__bitset.html#a679e42842085d69a4b430f9a3d8a7eb5" target="_top" xlink:title="boost::dynamic_bitset\l::count_extra_bits">
<polygon fill="white" stroke="black" points="473,-957.5 473,-987.5 583,-987.5 583,-957.5 473,-957.5"/>
<text text-anchor="start" x="481" y="-975.5" font-family="FreeSans" font-size="10.00">boost::dynamic_bitset</text>
<text text-anchor="middle" x="528" y="-964.5" font-family="FreeSans" font-size="10.00">::count_extra_bits</text>
</a>
</g>
</g>
<!-- Node137&#45;&gt;Node138 -->
<g id="edge2" class="edge"><title>Node137&#45;&gt;Node138</title>
<path fill="none" stroke="midnightblue" d="M271.094,-972.5C326.268,-972.5 406.883,-972.5 462.832,-972.5"/>
<polygon fill="midnightblue" stroke="midnightblue" points="462.98,-976 472.98,-972.5 462.98,-969 462.98,-976"/>
</g>
<!-- Node141 -->
<g id="node6" class="node"><title>Node141</title>
<g id="a_node6"><a xlink:href="classboost_1_1dynamic__bitset.html#ac88286a8c4edfb58f3e0f946891ba1dd" target="_top" xlink:title="boost::dynamic_bitset\l::empty">
<polygon fill="white" stroke="black" points="317,-1045.5 317,-1075.5 427,-1075.5 427,-1045.5 317,-1045.5"/>
<text text-anchor="start" x="325" y="-1063.5" font-family="FreeSans" font-size="10.00">boost::dynamic_bitset</text>
<text text-anchor="middle" x="372" y="-1052.5" font-family="FreeSans" font-size="10.00">::empty</text>
</a>
</g>
</g>
<!-- Node137&#45;&gt;Node141 -->
<g id="edge5" class="edge"><title>Node137&#45;&gt;Node141</title>
<path fill="none" stroke="midnightblue" d="M224.436,-982.01C243.345,-993.904 277.07,-1014.63 307,-1030.5 313.634,-1034.02 320.753,-1037.57 327.746,-1040.93"/>
<polygon fill="midnightblue" stroke="midnightblue" points="326.611,-1044.27 337.146,-1045.39 329.609,-1037.94 326.611,-1044.27"/>
</g>
<!-- Node143 -->
<g id="node8" class="node"><title>Node143</title>
<g id="a_node8"><a xlink:href="classboost_1_1dynamic__bitset.html#adfa9723501c60abf84b9e801d3cf4d1f" target="_top" xlink:title="boost::dynamic_bitset\l::num_blocks">
<polygon fill="white" stroke="black" points="765,-820.5 765,-850.5 875,-850.5 875,-820.5 765,-820.5"/>
<text text-anchor="start" x="773" y="-838.5" font-family="FreeSans" font-size="10.00">boost::dynamic_bitset</text>
<text text-anchor="middle" x="820" y="-827.5" font-family="FreeSans" font-size="10.00">::num_blocks</text>
</a>
</g>
</g>
<!-- Node137&#45;&gt;Node143 -->
<g id="edge14" class="edge"><title>Node137&#45;&gt;Node143</title>
<path fill="none" stroke="midnightblue" d="M232.751,-982.101C294.321,-1005.91 464.946,-1061.32 583,-997.5 608.7,-983.606 597.45,-962.226 619,-942.5 662.883,-902.331 724.624,-872.308 767.863,-854.446"/>
<polygon fill="midnightblue" stroke="midnightblue" points="769.389,-857.604 777.34,-850.603 766.758,-851.117 769.389,-857.604"/>
</g>
<!-- Node145 -->
<g id="node10" class="node"><title>Node145</title>
<g id="a_node10"><a xlink:href="classboost_1_1dynamic__bitset.html#ae6a110a78bdf4ecf051ff1537e966b87" target="_top" xlink:title="boost::dynamic_bitset\l::m_highest_block">
<polygon fill="white" stroke="black" points="473,-908.5 473,-938.5 583,-938.5 583,-908.5 473,-908.5"/>
<text text-anchor="start" x="481" y="-926.5" font-family="FreeSans" font-size="10.00">boost::dynamic_bitset</text>
<text text-anchor="middle" x="528" y="-915.5" font-family="FreeSans" font-size="10.00">::m_highest_block</text>
</a>
</g>
</g>
<!-- Node137&#45;&gt;Node145 -->
<g id="edge13" class="edge"><title>Node137&#45;&gt;Node145</title>
<path fill="none" stroke="midnightblue" d="M271.094,-962.994C326.268,-954.479 406.883,-942.038 462.832,-933.403"/>
<polygon fill="midnightblue" stroke="midnightblue" points="463.63,-936.821 472.98,-931.837 462.563,-929.903 463.63,-936.821"/>
</g>
<!-- Node139 -->
<g id="node4" class="node"><title>Node139</title>
<g id="a_node4"><a xlink:href="classboost_1_1dynamic__bitset.html#a0d4d52847b94ef3c83b90542dc6c22c2" target="_top" xlink:title="boost::dynamic_bitset\l::bit_index">
<polygon fill="white" stroke="black" points="619,-732.5 619,-762.5 729,-762.5 729,-732.5 619,-732.5"/>
<text text-anchor="start" x="627" y="-750.5" font-family="FreeSans" font-size="10.00">boost::dynamic_bitset</text>
<text text-anchor="middle" x="674" y="-739.5" font-family="FreeSans" font-size="10.00">::bit_index</text>
</a>
</g>
</g>
<!-- Node138&#45;&gt;Node139 -->
<g id="edge3" class="edge"><title>Node138&#45;&gt;Node139</title>
<path fill="none" stroke="midnightblue" d="M571.381,-957.438C575.605,-954.868 579.586,-951.905 583,-948.5 633.557,-898.082 658.246,-814.264 667.904,-772.603"/>
<polygon fill="midnightblue" stroke="midnightblue" points="671.345,-773.252 670.091,-762.731 664.511,-771.737 671.345,-773.252"/>
</g>
<!-- Node140 -->
<g id="node5" class="node"><title>Node140</title>
<g id="a_node5"><a xlink:href="classboost_1_1dynamic__bitset.html#a20ecab6a6b9c1e154e5def4aebc4247d" target="_top" xlink:title="boost::dynamic_bitset\l::size">
<polygon fill="white" stroke="black" points="765,-1055.5 765,-1085.5 875,-1085.5 875,-1055.5 765,-1055.5"/>
<text text-anchor="start" x="773" y="-1073.5" font-family="FreeSans" font-size="10.00">boost::dynamic_bitset</text>
<text text-anchor="middle" x="820" y="-1062.5" font-family="FreeSans" font-size="10.00">::size</text>
</a>
</g>
</g>
<!-- Node138&#45;&gt;Node140 -->
<g id="edge4" class="edge"><title>Node138&#45;&gt;Node140</title>
<path fill="none" stroke="midnightblue" d="M583.046,-983.197C623.864,-992.076 680.88,-1006.2 729,-1024.5 747.783,-1031.64 767.773,-1041.6 784.13,-1050.43"/>
<polygon fill="midnightblue" stroke="midnightblue" points="782.854,-1053.72 793.304,-1055.46 786.222,-1047.58 782.854,-1053.72"/>
</g>
<!-- Node141&#45;&gt;Node140 -->
<g id="edge6" class="edge"><title>Node141&#45;&gt;Node140</title>
<path fill="none" stroke="midnightblue" d="M423.702,-1075.52C439.367,-1079.52 456.77,-1083.33 473,-1085.5 585.784,-1100.56 615.768,-1099.71 729,-1088.5 737.32,-1087.68 746.01,-1086.43 754.569,-1084.98"/>
<polygon fill="midnightblue" stroke="midnightblue" points="755.305,-1088.4 764.526,-1083.19 754.064,-1081.51 755.305,-1088.4"/>
</g>
<!-- Node142 -->
<g id="node7" class="node"><title>Node142</title>
<g id="a_node7"><a xlink:href="classboost_1_1dynamic__bitset.html#ab60240993da612a33a9fe920d3270eeb" target="_top" xlink:title="boost::dynamic_bitset\l::is_subset_of">
<polygon fill="white" stroke="black" points="473,-1045.5 473,-1075.5 583,-1075.5 583,-1045.5 473,-1045.5"/>
<text text-anchor="start" x="481" y="-1063.5" font-family="FreeSans" font-size="10.00">boost::dynamic_bitset</text>
<text text-anchor="middle" x="528" y="-1052.5" font-family="FreeSans" font-size="10.00">::is_subset_of</text>
</a>
</g>
</g>
<!-- Node141&#45;&gt;Node142 -->
<g id="edge7" class="edge"><title>Node141&#45;&gt;Node142</title>
<path fill="none" stroke="midnightblue" d="M427.295,-1060.5C438.748,-1060.5 450.937,-1060.5 462.718,-1060.5"/>
<polygon fill="midnightblue" stroke="midnightblue" points="462.936,-1064 472.936,-1060.5 462.936,-1057 462.936,-1064"/>
</g>
<!-- Node142&#45;&gt;Node140 -->
<g id="edge8" class="edge"><title>Node142&#45;&gt;Node140</title>
<path fill="none" stroke="midnightblue" d="M583.119,-1069.6C594.912,-1071.22 607.348,-1072.66 619,-1073.5 664.15,-1076.74 715.174,-1075.91 754.385,-1074.3"/>
<polygon fill="midnightblue" stroke="midnightblue" points="754.763,-1077.79 764.601,-1073.86 754.458,-1070.8 754.763,-1077.79"/>
</g>
<!-- Node142&#45;&gt;Node143 -->
<g id="edge9" class="edge"><title>Node142&#45;&gt;Node143</title>
<path fill="none" stroke="midnightblue" d="M562.076,-1045.44C603.697,-1025.54 676.123,-987.67 729,-942.5 758.458,-917.335 786.168,-881.957 802.859,-858.882"/>
<polygon fill="midnightblue" stroke="midnightblue" points="805.745,-860.864 808.697,-850.688 800.044,-856.802 805.745,-860.864"/>
</g>
<!-- Node144 -->
<g id="node9" class="node"><title>Node144</title>
<g id="a_node9"><a xlink:href="classboost_1_1dynamic__bitset.html#af616fbdc0b2dc593e8259416b7d19231" target="_top" xlink:title="boost::dynamic_bitset\l::is_proper_subset_of">
<polygon fill="white" stroke="black" points="619,-1033.5 619,-1063.5 729,-1063.5 729,-1033.5 619,-1033.5"/>
<text text-anchor="start" x="627" y="-1051.5" font-family="FreeSans" font-size="10.00">boost::dynamic_bitset</text>
<text text-anchor="middle" x="674" y="-1040.5" font-family="FreeSans" font-size="10.00">::is_proper_subset_of</text>
</a>
</g>
</g>
<!-- Node142&#45;&gt;Node144 -->
<g id="edge10" class="edge"><title>Node142&#45;&gt;Node144</title>
<path fill="none" stroke="midnightblue" d="M583.03,-1056C591.405,-1055.3 600.126,-1054.57 608.7,-1053.86"/>
<polygon fill="midnightblue" stroke="midnightblue" points="608.992,-1057.35 618.667,-1053.03 608.411,-1050.37 608.992,-1057.35"/>
</g>
<!-- Node144&#45;&gt;Node140 -->
<g id="edge11" class="edge"><title>Node144&#45;&gt;Node140</title>
<path fill="none" stroke="midnightblue" d="M729.03,-1056.75C737.405,-1058.03 746.126,-1059.37 754.7,-1060.68"/>
<polygon fill="midnightblue" stroke="midnightblue" points="754.253,-1064.15 764.667,-1062.2 755.311,-1057.23 754.253,-1064.15"/>
</g>
<!-- Node144&#45;&gt;Node143 -->
<g id="edge12" class="edge"><title>Node144&#45;&gt;Node143</title>
<path fill="none" stroke="midnightblue" d="M687.743,-1033.49C699.029,-1019.97 715.724,-999.361 729,-980.5 758.084,-939.18 788.359,-888.562 805.331,-859.373"/>
<polygon fill="midnightblue" stroke="midnightblue" points="808.378,-861.096 810.356,-850.687 802.319,-857.591 808.378,-861.096"/>
</g>
<!-- Node146&#45;&gt;Node143 -->
<g id="edge16" class="edge"><title>Node146&#45;&gt;Node143</title>
<path fill="none" stroke="midnightblue" d="M411.384,-579.999C481.762,-564.969 633.026,-544.041 729,-613.5 794.013,-660.552 812.151,-762.808 817.142,-810.31"/>
<polygon fill="midnightblue" stroke="midnightblue" points="813.667,-810.732 818.085,-820.362 820.636,-810.079 813.667,-810.732"/>
</g>
<!-- Node147&#45;&gt;Node143 -->
<g id="edge18" class="edge"><title>Node147&#45;&gt;Node143</title>
<path fill="none" stroke="midnightblue" d="M705.004,-554.615C713.713,-560.191 722.592,-567.209 729,-575.5 785.76,-648.934 808.206,-760.677 815.728,-810.271"/>
<polygon fill="midnightblue" stroke="midnightblue" points="812.298,-811.014 817.187,-820.414 819.227,-810.018 812.298,-811.014"/>
</g>
<!-- Node149 -->
<g id="node14" class="node"><title>Node149</title>
<g id="a_node14"><a xlink:href="classboost_1_1dynamic__bitset_1_1reference.html#a57843358f5ecedba983a61e932fab37a" target="_top" xlink:title="boost::dynamic_bitset\l::reference::do_flip">
<polygon fill="white" stroke="black" points="317,-456.5 317,-486.5 427,-486.5 427,-456.5 317,-456.5"/>
<text text-anchor="start" x="325" y="-474.5" font-family="FreeSans" font-size="10.00">boost::dynamic_bitset</text>
<text text-anchor="middle" x="372" y="-463.5" font-family="FreeSans" font-size="10.00">::reference::do_flip</text>
</a>
</g>
</g>
<!-- Node148&#45;&gt;Node149 -->
<g id="edge20" class="edge"><title>Node148&#45;&gt;Node149</title>
<path fill="none" stroke="midnightblue" d="M263.726,-487.442C277.515,-485.392 292.465,-483.171 306.702,-481.055"/>
<polygon fill="midnightblue" stroke="midnightblue" points="307.54,-484.469 316.917,-479.537 306.511,-477.545 307.54,-484.469"/>
</g>
<!-- Node151&#45;&gt;Node146 -->
<g id="edge23" class="edge"><title>Node151&#45;&gt;Node146</title>
<path fill="none" stroke="midnightblue" d="M263.726,-585.515C274.32,-585.908 285.599,-586.327 296.714,-586.74"/>
<polygon fill="midnightblue" stroke="midnightblue" points="296.728,-590.243 306.851,-587.117 296.988,-583.248 296.728,-590.243"/>
</g>
<!-- Node153 -->
<g id="node18" class="node"><title>Node153</title>
<g id="a_node18"><a xlink:href="classboost_1_1dynamic__bitset_1_1reference.html#a5296ea1d33880281a4bd738aa30f8baf" target="_top" xlink:title="boost::dynamic_bitset\l::reference::do_reset">
<polygon fill="white" stroke="black" points="317,-309.5 317,-339.5 427,-339.5 427,-309.5 317,-309.5"/>
<text text-anchor="start" x="325" y="-327.5" font-family="FreeSans" font-size="10.00">boost::dynamic_bitset</text>
<text text-anchor="middle" x="372" y="-316.5" font-family="FreeSans" font-size="10.00">::reference::do_reset</text>
</a>
</g>
</g>
<!-- Node152&#45;&gt;Node153 -->
<g id="edge25" class="edge"><title>Node152&#45;&gt;Node153</title>
<path fill="none" stroke="midnightblue" d="M266.894,-339.971C279.826,-338.049 293.633,-335.997 306.823,-334.037"/>
<polygon fill="midnightblue" stroke="midnightblue" points="307.388,-337.492 316.765,-332.56 306.359,-330.568 307.388,-337.492"/>
</g>
<!-- Node154&#45;&gt;Node153 -->
<g id="edge27" class="edge"><title>Node154&#45;&gt;Node153</title>
<path fill="none" stroke="midnightblue" d="M263.726,-307.894C277.515,-310.029 292.465,-312.343 306.702,-314.547"/>
<polygon fill="midnightblue" stroke="midnightblue" points="306.499,-318.057 316.917,-316.128 307.57,-311.139 306.499,-318.057"/>
</g>
<!-- Node156&#45;&gt;Node139 -->
<g id="edge32" class="edge"><title>Node156&#45;&gt;Node139</title>
<path fill="none" stroke="midnightblue" d="M263.576,-758.1C349.546,-755.874 517.037,-751.538 608.906,-749.159"/>
<polygon fill="midnightblue" stroke="midnightblue" points="609.004,-752.658 618.91,-748.9 608.823,-745.66 609.004,-752.658"/>
</g>
<!-- Node156&#45;&gt;Node143 -->
<g id="edge31" class="edge"><title>Node156&#45;&gt;Node143</title>
<path fill="none" stroke="midnightblue" d="M263.589,-766.244C375.835,-780.241 633.645,-812.388 754.393,-827.444"/>
<polygon fill="midnightblue" stroke="midnightblue" points="754.239,-830.952 764.595,-828.716 755.105,-824.006 754.239,-830.952"/>
</g>
<!-- Node156&#45;&gt;Node157 -->
<g id="edge30" class="edge"><title>Node156&#45;&gt;Node157</title>
<path fill="none" stroke="midnightblue" d="M257.955,-744.498C275.124,-739.183 294.624,-733.146 312.537,-727.6"/>
<polygon fill="midnightblue" stroke="midnightblue" points="313.782,-730.878 322.3,-724.577 311.712,-724.192 313.782,-730.878"/>
</g>
<!-- Node158 -->
<g id="node23" class="node"><title>Node158</title>
<g id="a_node23"><a xlink:href="classboost_1_1dynamic__bitset.html#af9989de5e8259d9a99aac3dd4687c8e0" target="_top" xlink:title="boost::dynamic_bitset\l::m_zero_unused_bits">
<polygon fill="white" stroke="black" points="317,-864.5 317,-894.5 427,-894.5 427,-864.5 317,-864.5"/>
<text text-anchor="start" x="325" y="-882.5" font-family="FreeSans" font-size="10.00">boost::dynamic_bitset</text>
<text text-anchor="middle" x="372" y="-871.5" font-family="FreeSans" font-size="10.00">::m_zero_unused_bits</text>
</a>
</g>
</g>
<!-- Node156&#45;&gt;Node158 -->
<g id="edge33" class="edge"><title>Node156&#45;&gt;Node158</title>
<path fill="none" stroke="midnightblue" d="M229.954,-774.698C258.471,-795.887 310.297,-834.396 342.562,-858.369"/>
<polygon fill="midnightblue" stroke="midnightblue" points="340.598,-861.27 350.712,-864.425 344.773,-855.652 340.598,-861.27"/>
</g>
<!-- Node158&#45;&gt;Node138 -->
<g id="edge36" class="edge"><title>Node158&#45;&gt;Node138</title>
<path fill="none" stroke="midnightblue" d="M392.592,-894.646C412.257,-909.451 443.748,-932.095 473,-948.5 475.687,-950.007 478.487,-951.491 481.336,-952.936"/>
<polygon fill="midnightblue" stroke="midnightblue" points="480.002,-956.179 490.526,-957.402 483.061,-949.883 480.002,-956.179"/>
</g>
<!-- Node158&#45;&gt;Node143 -->
<g id="edge34" class="edge"><title>Node158&#45;&gt;Node143</title>
<path fill="none" stroke="midnightblue" d="M427.41,-874.807C469.818,-871.094 530.174,-865.687 583,-860.5 641.066,-854.798 707.105,-847.755 754.529,-842.599"/>
<polygon fill="midnightblue" stroke="midnightblue" points="755.095,-846.058 764.657,-841.495 754.337,-839.099 755.095,-846.058"/>
</g>
<!-- Node158&#45;&gt;Node145 -->
<g id="edge37" class="edge"><title>Node158&#45;&gt;Node145</title>
<path fill="none" stroke="midnightblue" d="M425.567,-894.519C438.135,-898.11 451.672,-901.978 464.634,-905.681"/>
<polygon fill="midnightblue" stroke="midnightblue" points="463.831,-909.092 474.408,-908.474 465.755,-902.361 463.831,-909.092"/>
</g>
<!-- Node159 -->
<g id="node24" class="node"><title>Node159</title>
<g id="a_node24"><a xlink:href="classboost_1_1dynamic__bitset.html#a8a05876109fd0b3e819a6347541d2f81" target="_top" xlink:title="boost::dynamic_bitset\l::calc_num_blocks">
<polygon fill="white" stroke="black" points="473,-820.5 473,-850.5 583,-850.5 583,-820.5 473,-820.5"/>
<text text-anchor="start" x="481" y="-838.5" font-family="FreeSans" font-size="10.00">boost::dynamic_bitset</text>
<text text-anchor="middle" x="528" y="-827.5" font-family="FreeSans" font-size="10.00">::calc_num_blocks</text>
</a>
</g>
</g>
<!-- Node158&#45;&gt;Node159 -->
<g id="edge35" class="edge"><title>Node158&#45;&gt;Node159</title>
<path fill="none" stroke="midnightblue" d="M425.567,-864.481C438.135,-860.89 451.672,-857.022 464.634,-853.319"/>
<polygon fill="midnightblue" stroke="midnightblue" points="465.755,-856.639 474.408,-850.526 463.831,-849.908 465.755,-856.639"/>
</g>
<!-- Node161&#45;&gt;Node139 -->
<g id="edge42" class="edge"><title>Node161&#45;&gt;Node139</title>
<path fill="none" stroke="midnightblue" d="M263.607,-671.864C309.907,-672.881 378.198,-676.06 437,-685.5 499.479,-695.531 569.396,-714.964 616.799,-729.413"/>
<polygon fill="midnightblue" stroke="midnightblue" points="615.974,-732.821 626.561,-732.415 618.032,-726.131 615.974,-732.821"/>
</g>
<!-- Node161&#45;&gt;Node143 -->
<g id="edge41" class="edge"><title>Node161&#45;&gt;Node143</title>
<path fill="none" stroke="midnightblue" d="M263.554,-662.019C363.99,-647.408 582.469,-630.029 729,-723.5 763.65,-745.603 790.979,-785.65 806.058,-811.386"/>
<polygon fill="midnightblue" stroke="midnightblue" points="803.063,-813.199 811.05,-820.161 809.147,-809.738 803.063,-813.199"/>
</g>
<!-- Node161&#45;&gt;Node157 -->
<g id="edge40" class="edge"><title>Node161&#45;&gt;Node157</title>
<path fill="none" stroke="midnightblue" d="M263.726,-684.259C277.649,-687.535 292.756,-691.09 307.117,-694.469"/>
<polygon fill="midnightblue" stroke="midnightblue" points="306.381,-697.891 316.917,-696.775 307.984,-691.077 306.381,-697.891"/>
</g>
<!-- Node162&#45;&gt;Node149 -->
<g id="edge44" class="edge"><title>Node162&#45;&gt;Node149</title>
<path fill="none" stroke="midnightblue" d="M264.627,-455.034C278.231,-457.139 292.916,-459.413 306.904,-461.578"/>
<polygon fill="midnightblue" stroke="midnightblue" points="306.524,-465.061 316.941,-463.132 307.594,-458.143 306.524,-465.061"/>
</g>
<!-- Node164 -->
<g id="node29" class="node"><title>Node164</title>
<g id="a_node29"><a xlink:href="classboost_1_1dynamic__bitset_1_1reference.html#a76df264cef5fa940e2eec226c21066f1" target="_top" xlink:title="boost::dynamic_bitset\l::reference::do_set">
<polygon fill="white" stroke="black" points="317,-137.5 317,-167.5 427,-167.5 427,-137.5 317,-137.5"/>
<text text-anchor="start" x="325" y="-155.5" font-family="FreeSans" font-size="10.00">boost::dynamic_bitset</text>
<text text-anchor="middle" x="372" y="-144.5" font-family="FreeSans" font-size="10.00">::reference::do_set</text>
</a>
</g>
</g>
<!-- Node163&#45;&gt;Node164 -->
<g id="edge46" class="edge"><title>Node163&#45;&gt;Node164</title>
<path fill="none" stroke="midnightblue" d="M263.726,-152.5C277.515,-152.5 292.465,-152.5 306.702,-152.5"/>
<polygon fill="midnightblue" stroke="midnightblue" points="306.917,-156 316.917,-152.5 306.917,-149 306.917,-156"/>
</g>
<!-- Node167&#45;&gt;Node166 -->
<g id="edge51" class="edge"><title>Node167&#45;&gt;Node166</title>
<path fill="none" stroke="midnightblue" d="M263.726,-22.8869C277.515,-24.7653 292.465,-26.8018 306.702,-28.7412"/>
<polygon fill="midnightblue" stroke="midnightblue" points="306.536,-32.2507 316.917,-30.1326 307.481,-25.3148 306.536,-32.2507"/>
</g>
</g>
</svg>
        <g id="navigator" transform="translate(0 0)" fill="#404254">
                <rect fill="#f2f5e9" fill-opacity="0.5" stroke="#606060" stroke-width=".5" x="0" y="0" width="60" height="60"/>
                <use id="zoomplus" xlink:href="#zoomPlus" x="17" y="9" onmousedown="handleZoom(evt,'in')"/>
                <use id="zoomminus" xlink:href="#zoomMin" x="42" y="9" onmousedown="handleZoom(evt,'out')"/>
                <use id="reset" xlink:href="#resetDef" x="30" y="36" onmousedown="handleReset()"/>
                <g id="arrowUp" xlink:href="#dirArrow" transform="translate(30 24)" onmousedown="handlePan(0,-1)">
                  <use xlink:href="#rim" fill="#404040">
                        <set attributeName="fill" to="#808080" begin="arrowUp.mouseover" end="arrowUp.mouseout"/>
                  </use>
                  <path fill="none" stroke="white" stroke-width="1.5" d="M0,-3.0v7 M-2.5,-0.5L0,-3.0L2.5,-0.5"/>
                </g>
                <g id="arrowRight" xlink:href="#dirArrow" transform="rotate(90) translate(36 -43)" onmousedown="handlePan(1,0)">
                  <use xlink:href="#rim" fill="#404040">
                        <set attributeName="fill" to="#808080" begin="arrowRight.mouseover" end="arrowRight.mouseout"/>
                  </use>
                  <path fill="none" stroke="white" stroke-width="1.5" d="M0,-3.0v7 M-2.5,-0.5L0,-3.0L2.5,-0.5"/>
                </g>
                <g id="arrowDown" xlink:href="#dirArrow" transform="rotate(180) translate(-30 -48)" onmousedown="handlePan(0,1)">
                  <use xlink:href="#rim" fill="#404040">
                        <set attributeName="fill" to="#808080" begin="arrowDown.mouseover" end="arrowDown.mouseout"/>
                  </use>
                  <path fill="none" stroke="white" stroke-width="1.5" d="M0,-3.0v7 M-2.5,-0.5L0,-3.0L2.5,-0.5"/>
                </g>
                <g id="arrowLeft" xlink:href="#dirArrow" transform="rotate(270) translate(-36 17)" onmousedown="handlePan(-1,0)">
                  <use xlink:href="#rim" fill="#404040">
                        <set attributeName="fill" to="#808080" begin="arrowLeft.mouseover" end="arrowLeft.mouseout"/>
                  </use>
                  <path fill="none" stroke="white" stroke-width="1.5" d="M0,-3.0v7 M-2.5,-0.5L0,-3.0L2.5,-0.5"/>
                </g>
        </g>
        <svg viewBox="0 0 15 15" width="100%" height="30px" preserveAspectRatio="xMaxYMin meet">
         <g id="arrow_out" transform="scale(0.3 0.3)">
          <a xlink:href="classboost_1_1dynamic__bitset_a1597578265ec9f9cc6513bc6bedb4091_cgraph_org.svg" target="_base">
           <rect id="button" ry="5" rx="5" y="6" x="6" height="38" width="38"
                fill="#f2f5e9" fill-opacity="0.5" stroke="#606060" stroke-width="1.0"/>
           <path id="arrow"
             d="M 11.500037,31.436501 C 11.940474,20.09759 22.043105,11.32322 32.158766,21.979434 L 37.068811,17.246167 C 37.068811,17.246167 37.088388,32 37.088388,32 L 22.160133,31.978069 C 22.160133,31.978069 26.997745,27.140456 26.997745,27.140456 C 18.528582,18.264221 13.291696,25.230495 11.500037,31.436501 z"
             style="fill:#404040;"/>
          </a>
         </g>
        </svg>
</svg>
