<?xml version="1.0" encoding="UTF-8" standalone="no"?>
<!DOCTYPE svg PUBLIC "-//W3C//DTD SVG 1.1//EN"
 "http://www.w3.org/Graphics/SVG/1.1/DTD/svg11.dtd">
<!-- Generated by graphviz version 2.38.0 (20140413.2041)
 -->
<!-- Title: SeeSawN::GeometryN::EssentialSolverC::ModelFromBasis Pages: 1 -->
<svg width="274pt" height="50pt"
 viewBox="0.00 0.00 274.00 50.00" xmlns="http://www.w3.org/2000/svg" xmlns:xlink="http://www.w3.org/1999/xlink">
<g id="graph0" class="graph" transform="scale(1 1) rotate(0) translate(4 46)">
<title>SeeSawN::GeometryN::EssentialSolverC::ModelFromBasis</title>
<polygon fill="white" stroke="none" points="-4,4 -4,-46 270,-46 270,4 -4,4"/>
<!-- Node43 -->
<g id="node1" class="node"><title>Node43</title>
<polygon fill="#bfbfbf" stroke="black" points="0,-0.5 0,-41.5 115,-41.5 115,-0.5 0,-0.5"/>
<text text-anchor="start" x="8" y="-29.5" font-family="FreeSans" font-size="10.00">SeeSawN::GeometryN</text>
<text text-anchor="start" x="8" y="-18.5" font-family="FreeSans" font-size="10.00">::EssentialSolverC::</text>
<text text-anchor="middle" x="57.5" y="-7.5" font-family="FreeSans" font-size="10.00">ModelFromBasis</text>
</g>
<!-- Node44 -->
<g id="node2" class="node"><title>Node44</title>
<g id="a_node2"><a xlink:href="classSeeSawN_1_1GeometryN_1_1EssentialSolverC.html#a9ea73522fafff14871239a50afadc391" target="_top" xlink:title="Computes the model that best explains the correspondence set. ">
<polygon fill="white" stroke="black" points="151,-0.5 151,-41.5 266,-41.5 266,-0.5 151,-0.5"/>
<text text-anchor="start" x="159" y="-29.5" font-family="FreeSans" font-size="10.00">SeeSawN::GeometryN</text>
<text text-anchor="start" x="159" y="-18.5" font-family="FreeSans" font-size="10.00">::EssentialSolverC::</text>
<text text-anchor="middle" x="208.5" y="-7.5" font-family="FreeSans" font-size="10.00">operator()</text>
</a>
</g>
</g>
<!-- Node43&#45;&gt;Node44 -->
<g id="edge1" class="edge"><title>Node43&#45;&gt;Node44</title>
<path fill="none" stroke="midnightblue" d="M125.508,-21C133.99,-21 142.604,-21 150.902,-21"/>
<polygon fill="midnightblue" stroke="midnightblue" points="125.256,-17.5001 115.256,-21 125.256,-24.5001 125.256,-17.5001"/>
</g>
</g>
</svg>
