<?xml version="1.0" encoding="UTF-8" standalone="no"?>
<!DOCTYPE svg PUBLIC "-//W3C//DTD SVG 1.1//EN"
 "http://www.w3.org/Graphics/SVG/1.1/DTD/svg11.dtd">
<!-- Generated by graphviz version 2.38.0 (20140413.2041)
 -->
<!-- Title: SeeSawN::RANSACN::RANSACDualAbsoluteQuadricProblemC::GenerateModel Pages: 1 -->
<svg width="402pt" height="50pt"
 viewBox="0.00 0.00 402.00 50.00" xmlns="http://www.w3.org/2000/svg" xmlns:xlink="http://www.w3.org/1999/xlink">
<g id="graph0" class="graph" transform="scale(1 1) rotate(0) translate(4 46)">
<title>SeeSawN::RANSACN::RANSACDualAbsoluteQuadricProblemC::GenerateModel</title>
<polygon fill="white" stroke="none" points="-4,4 -4,-46 398,-46 398,4 -4,4"/>
<!-- Node30 -->
<g id="node1" class="node"><title>Node30</title>
<polygon fill="#bfbfbf" stroke="black" points="0,-0.5 0,-41.5 179,-41.5 179,-0.5 0,-0.5"/>
<text text-anchor="start" x="8" y="-29.5" font-family="FreeSans" font-size="10.00">SeeSawN::RANSACN::RANSACDual</text>
<text text-anchor="start" x="8" y="-18.5" font-family="FreeSans" font-size="10.00">AbsoluteQuadricProblemC</text>
<text text-anchor="middle" x="89.5" y="-7.5" font-family="FreeSans" font-size="10.00">::GenerateModel</text>
</g>
<!-- Node31 -->
<g id="node2" class="node"><title>Node31</title>
<g id="a_node2"><a xlink:href="classSeeSawN_1_1RANSACN_1_1RANSACDualAbsoluteQuadricProblemC.html#a35d93784053aa405852df40ea5464364" target="_top" xlink:title="Makes a generator from the indices. ">
<polygon fill="white" stroke="black" points="215,-0.5 215,-41.5 394,-41.5 394,-0.5 215,-0.5"/>
<text text-anchor="start" x="223" y="-29.5" font-family="FreeSans" font-size="10.00">SeeSawN::RANSACN::RANSACDual</text>
<text text-anchor="start" x="223" y="-18.5" font-family="FreeSans" font-size="10.00">AbsoluteQuadricProblemC</text>
<text text-anchor="middle" x="304.5" y="-7.5" font-family="FreeSans" font-size="10.00">::MakeGenerator</text>
</a>
</g>
</g>
<!-- Node30&#45;&gt;Node31 -->
<g id="edge1" class="edge"><title>Node30&#45;&gt;Node31</title>
<path fill="none" stroke="midnightblue" d="M179.289,-21C187.648,-21 196.156,-21 204.601,-21"/>
<polygon fill="midnightblue" stroke="midnightblue" points="204.855,-24.5001 214.855,-21 204.855,-17.5001 204.855,-24.5001"/>
</g>
</g>
</svg>
