<?xml version="1.0" encoding="UTF-8" standalone="no"?>
<!DOCTYPE svg PUBLIC "-//W3C//DTD SVG 1.1//EN"
 "http://www.w3.org/Graphics/SVG/1.1/DTD/svg11.dtd">
<!-- Generated by graphviz version 2.38.0 (20140413.2041)
 -->
<!-- Title: SeeSawN::UncertaintyEstimationN::SUTTriangulationProblemC::InputDimensionality Pages: 1 -->
<svg width="575pt" height="67pt"
 viewBox="0.00 0.00 575.00 66.50" xmlns="http://www.w3.org/2000/svg" xmlns:xlink="http://www.w3.org/1999/xlink">
<g id="graph0" class="graph" transform="scale(1 1) rotate(0) translate(4 62.5)">
<title>SeeSawN::UncertaintyEstimationN::SUTTriangulationProblemC::InputDimensionality</title>
<polygon fill="white" stroke="none" points="-4,4 -4,-62.5 571,-62.5 571,4 -4,4"/>
<!-- Node23 -->
<g id="node1" class="node"><title>Node23</title>
<polygon fill="#bfbfbf" stroke="black" points="5.68434e-14,-0.5 5.68434e-14,-41.5 161,-41.5 161,-0.5 5.68434e-14,-0.5"/>
<text text-anchor="start" x="8" y="-29.5" font-family="FreeSans" font-size="10.00">SeeSawN::UncertaintyEstimation</text>
<text text-anchor="start" x="8" y="-18.5" font-family="FreeSans" font-size="10.00">N::SUTTriangulationProblemC</text>
<text text-anchor="middle" x="80.5" y="-7.5" font-family="FreeSans" font-size="10.00">::InputDimensionality</text>
</g>
<!-- Node24 -->
<g id="node2" class="node"><title>Node24</title>
<g id="a_node2"><a xlink:href="classSeeSawN_1_1UncertaintyEstimationN_1_1SUTTriangulationProblemC.html#a937c5a7023b25ab5d38beb9ac949706b" target="_top" xlink:title="Computes the recommended alpha value. ">
<polygon fill="white" stroke="black" points="197,-28 197,-58 373,-58 373,-28 197,-28"/>
<text text-anchor="start" x="205" y="-46" font-family="FreeSans" font-size="10.00">SeeSawN::UncertaintyEstimation</text>
<text text-anchor="middle" x="285" y="-35" font-family="FreeSans" font-size="10.00">N::SUTTriangulationProblemC::Alpha</text>
</a>
</g>
</g>
<!-- Node23&#45;&gt;Node24 -->
<g id="edge1" class="edge"><title>Node23&#45;&gt;Node24</title>
<path fill="none" stroke="midnightblue" d="M171.222,-30.7476C179.78,-31.6773 188.449,-32.6191 196.98,-33.546"/>
<polygon fill="midnightblue" stroke="midnightblue" points="171.562,-27.264 161.243,-29.6634 170.806,-34.2231 171.562,-27.264"/>
</g>
<!-- Node25 -->
<g id="node3" class="node"><title>Node25</title>
<g id="a_node3"><a xlink:href="namespaceSeeSawN_1_1UnitTestsN_1_1TestUncertaintyEstimationN.html#a50e92ae5353eb4fc5ac7741caa87a793" target="_top" xlink:title="SeeSawN::UnitTestsN\l::TestUncertaintyEstimation\lN::BOOST_AUTO_TEST_CASE">
<polygon fill="white" stroke="black" points="409,-0.5 409,-41.5 567,-41.5 567,-0.5 409,-0.5"/>
<text text-anchor="start" x="417" y="-29.5" font-family="FreeSans" font-size="10.00">SeeSawN::UnitTestsN</text>
<text text-anchor="start" x="417" y="-18.5" font-family="FreeSans" font-size="10.00">::TestUncertaintyEstimation</text>
<text text-anchor="middle" x="488" y="-7.5" font-family="FreeSans" font-size="10.00">N::BOOST_AUTO_TEST_CASE</text>
</a>
</g>
</g>
<!-- Node23&#45;&gt;Node25 -->
<g id="edge3" class="edge"><title>Node23&#45;&gt;Node25</title>
<path fill="none" stroke="midnightblue" d="M171.232,-19.294C179.94,-19.1742 188.64,-19.0724 197,-19 275.219,-18.3228 294.781,-18.3139 373,-19 384.579,-19.1016 396.82,-19.2612 408.814,-19.4469"/>
<polygon fill="midnightblue" stroke="midnightblue" points="170.974,-15.7973 161.026,-19.4422 171.076,-22.7965 170.974,-15.7973"/>
</g>
<!-- Node24&#45;&gt;Node25 -->
<g id="edge2" class="edge"><title>Node24&#45;&gt;Node25</title>
<path fill="none" stroke="midnightblue" d="M383.341,-32.3458C391.932,-31.4055 400.554,-30.4617 408.955,-29.5422"/>
<polygon fill="midnightblue" stroke="midnightblue" points="382.844,-28.8791 373.285,-33.4465 383.606,-35.8376 382.844,-28.8791"/>
</g>
</g>
</svg>
