<?xml version="1.0" encoding="UTF-8" standalone="no"?>
<!DOCTYPE svg PUBLIC "-//W3C//DTD SVG 1.1//EN"
 "http://www.w3.org/Graphics/SVG/1.1/DTD/svg11.dtd">
<!-- Generated by graphviz version 2.38.0 (20140413.2041)
 -->
<!-- Title: SeeSawN::GeometryN::Rotation3DSolverC Pages: 1 -->
<svg width="460pt" height="965pt"
 viewBox="0.00 0.00 460.00 965.00" xmlns="http://www.w3.org/2000/svg" xmlns:xlink="http://www.w3.org/1999/xlink">
<g id="graph0" class="graph" transform="scale(1 1) rotate(0) translate(4 961)">
<title>SeeSawN::GeometryN::Rotation3DSolverC</title>
<polygon fill="white" stroke="none" points="-4,4 -4,-961 456,-961 456,4 -4,4"/>
<!-- Node3 -->
<g id="node1" class="node"><title>Node3</title>
<polygon fill="#bfbfbf" stroke="black" points="103.5,-0.5 103.5,-211.5 247.5,-211.5 247.5,-0.5 103.5,-0.5"/>
<text text-anchor="start" x="111.5" y="-199.5" font-family="FreeSans" font-size="10.00">SeeSawN::GeometryN</text>
<text text-anchor="middle" x="175.5" y="-188.5" font-family="FreeSans" font-size="10.00">::Rotation3DSolverC</text>
<polyline fill="none" stroke="black" points="103.5,-181.5 247.5,-181.5 "/>
<text text-anchor="middle" x="175.5" y="-169.5" font-family="FreeSans" font-size="10.00"> </text>
<polyline fill="none" stroke="black" points="103.5,-162.5 247.5,-162.5 "/>
<text text-anchor="start" x="111.5" y="-150.5" font-family="FreeSans" font-size="10.00">+ MakeMinimal()</text>
<text text-anchor="start" x="111.5" y="-139.5" font-family="FreeSans" font-size="10.00">+ ComputeSampleStatistics()</text>
<text text-anchor="start" x="111.5" y="-128.5" font-family="FreeSans" font-size="10.00">+ operator()()</text>
<text text-anchor="start" x="111.5" y="-117.5" font-family="FreeSans" font-size="10.00">* minimal_model_type</text>
<text text-anchor="start" x="111.5" y="-106.5" font-family="FreeSans" font-size="10.00">* uncertainty_type</text>
<text text-anchor="start" x="111.5" y="-95.5" font-family="FreeSans" font-size="10.00">* operator()()</text>
<text text-anchor="start" x="111.5" y="-84.5" font-family="FreeSans" font-size="10.00">* Cost()</text>
<text text-anchor="start" x="111.5" y="-73.5" font-family="FreeSans" font-size="10.00">* MakeMinimal()</text>
<text text-anchor="start" x="111.5" y="-62.5" font-family="FreeSans" font-size="10.00">* MakeModelFromMinimal()</text>
<text text-anchor="start" x="111.5" y="-51.5" font-family="FreeSans" font-size="10.00">* ComputeSampleStatistics()</text>
<text text-anchor="start" x="111.5" y="-40.5" font-family="FreeSans" font-size="10.00">* ExtractRotation()</text>
<text text-anchor="start" x="111.5" y="-29.5" font-family="FreeSans" font-size="10.00">* ComputeDistance()</text>
<text text-anchor="start" x="111.5" y="-18.5" font-family="FreeSans" font-size="10.00">* MakeVector()</text>
<text text-anchor="start" x="111.5" y="-7.5" font-family="FreeSans" font-size="10.00">* MakeModel()</text>
</g>
<!-- Node4 -->
<g id="node2" class="node"><title>Node4</title>
<g id="a_node2"><a xlink:href="classSeeSawN_1_1GeometryN_1_1GeometrySolverBaseC.html" target="_top" xlink:title="{SeeSawN::GeometryN\l::GeometrySolverBaseC\l\&lt; Rotation3DSolverC, Homography3\lDT, SymmetricTransferErrorC\l\&lt; Homography3DT \&gt;, 3, 3, 2, true,\l 1, 16, 3 \&gt;\n||+ EvaluateModel()\l+ EvaluateModel()\l* coordinate_type1\l* coordinate_type2\l* model_type\l* real_type\l* error_type\l* constraint_type\l* loss_type\l* distance_type\l* GeneratorSize()\l* IsNonminimal()\land 8 more...\l}">
<polygon fill="white" stroke="black" points="89,-249.5 89,-493.5 262,-493.5 262,-249.5 89,-249.5"/>
<text text-anchor="start" x="97" y="-481.5" font-family="FreeSans" font-size="10.00">SeeSawN::GeometryN</text>
<text text-anchor="start" x="97" y="-470.5" font-family="FreeSans" font-size="10.00">::GeometrySolverBaseC</text>
<text text-anchor="start" x="97" y="-459.5" font-family="FreeSans" font-size="10.00">&lt; Rotation3DSolverC, Homography3</text>
<text text-anchor="start" x="97" y="-448.5" font-family="FreeSans" font-size="10.00">DT, SymmetricTransferErrorC</text>
<text text-anchor="start" x="97" y="-437.5" font-family="FreeSans" font-size="10.00">&lt; Homography3DT &gt;, 3, 3, 2, true,</text>
<text text-anchor="middle" x="175.5" y="-426.5" font-family="FreeSans" font-size="10.00"> 1, 16, 3 &gt;</text>
<polyline fill="none" stroke="black" points="89,-419.5 262,-419.5 "/>
<text text-anchor="middle" x="175.5" y="-407.5" font-family="FreeSans" font-size="10.00"> </text>
<polyline fill="none" stroke="black" points="89,-400.5 262,-400.5 "/>
<text text-anchor="start" x="97" y="-388.5" font-family="FreeSans" font-size="10.00">+ EvaluateModel()</text>
<text text-anchor="start" x="97" y="-377.5" font-family="FreeSans" font-size="10.00">+ EvaluateModel()</text>
<text text-anchor="start" x="97" y="-366.5" font-family="FreeSans" font-size="10.00">* coordinate_type1</text>
<text text-anchor="start" x="97" y="-355.5" font-family="FreeSans" font-size="10.00">* coordinate_type2</text>
<text text-anchor="start" x="97" y="-344.5" font-family="FreeSans" font-size="10.00">* model_type</text>
<text text-anchor="start" x="97" y="-333.5" font-family="FreeSans" font-size="10.00">* real_type</text>
<text text-anchor="start" x="97" y="-322.5" font-family="FreeSans" font-size="10.00">* error_type</text>
<text text-anchor="start" x="97" y="-311.5" font-family="FreeSans" font-size="10.00">* constraint_type</text>
<text text-anchor="start" x="97" y="-300.5" font-family="FreeSans" font-size="10.00">* loss_type</text>
<text text-anchor="start" x="97" y="-289.5" font-family="FreeSans" font-size="10.00">* distance_type</text>
<text text-anchor="start" x="97" y="-278.5" font-family="FreeSans" font-size="10.00">* GeneratorSize()</text>
<text text-anchor="start" x="97" y="-267.5" font-family="FreeSans" font-size="10.00">* IsNonminimal()</text>
<text text-anchor="start" x="97" y="-256.5" font-family="FreeSans" font-size="10.00">and 8 more...</text>
</a>
</g>
</g>
<!-- Node4&#45;&gt;Node3 -->
<g id="edge1" class="edge"><title>Node4&#45;&gt;Node3</title>
<path fill="none" stroke="midnightblue" d="M175.5,-239.134C175.5,-229.883 175.5,-220.63 175.5,-211.557"/>
<polygon fill="none" stroke="midnightblue" points="172,-239.162 175.5,-249.162 179,-239.162 172,-239.162"/>
</g>
<!-- Node5 -->
<g id="node3" class="node"><title>Node5</title>
<polygon fill="white" stroke="#bfbfbf" points="0,-668 0,-725 139,-725 139,-668 0,-668"/>
<text text-anchor="middle" x="69.5" y="-713" font-family="FreeSans" font-size="10.00">static constexpr unsigned int</text>
<polyline fill="none" stroke="#bfbfbf" points="0,-706 139,-706 "/>
<text text-anchor="middle" x="69.5" y="-694" font-family="FreeSans" font-size="10.00"> </text>
<polyline fill="none" stroke="#bfbfbf" points="0,-687 139,-687 "/>
<text text-anchor="middle" x="69.5" y="-675" font-family="FreeSans" font-size="10.00"> </text>
</g>
<!-- Node5&#45;&gt;Node4 -->
<g id="edge2" class="edge"><title>Node5&#45;&gt;Node4</title>
<path fill="none" stroke="#404040" d="M72.5509,-667.846C77.105,-631.392 87.1746,-565.605 105.5,-512 106.272,-509.74 107.075,-507.471 107.904,-505.196"/>
<polygon fill="none" stroke="#404040" points="107.981,-504.991 106.383,-497.96 112.258,-493.779 113.857,-500.811 107.981,-504.991"/>
<text text-anchor="middle" x="133.5" y="-548" font-family="FreeSans" font-size="10.00"> #nDOF</text>
<text text-anchor="middle" x="133.5" y="-537" font-family="FreeSans" font-size="10.00">#nParameter</text>
<text text-anchor="middle" x="133.5" y="-526" font-family="FreeSans" font-size="10.00">#sGenerator</text>
<text text-anchor="middle" x="133.5" y="-515" font-family="FreeSans" font-size="10.00">#nSolution</text>
</g>
<!-- Node6 -->
<g id="node4" class="node"><title>Node6</title>
<g id="a_node4"><a xlink:href="classbool.html" target="_top" xlink:title="{bool\n||}">
<polygon fill="white" stroke="black" points="201,-899.5 201,-956.5 236,-956.5 236,-899.5 201,-899.5"/>
<text text-anchor="middle" x="218.5" y="-944.5" font-family="FreeSans" font-size="10.00">bool</text>
<polyline fill="none" stroke="black" points="201,-937.5 236,-937.5 "/>
<text text-anchor="middle" x="218.5" y="-925.5" font-family="FreeSans" font-size="10.00"> </text>
<polyline fill="none" stroke="black" points="201,-918.5 236,-918.5 "/>
<text text-anchor="middle" x="218.5" y="-906.5" font-family="FreeSans" font-size="10.00"> </text>
</a>
</g>
</g>
<!-- Node6&#45;&gt;Node4 -->
<g id="edge3" class="edge"><title>Node6&#45;&gt;Node4</title>
<path fill="none" stroke="#404040" d="M207.302,-899.112C199.267,-877.613 189.082,-846.933 184.5,-819 167.403,-714.763 165.954,-595.017 168.341,-505.789"/>
<polygon fill="none" stroke="#404040" points="168.344,-505.678 164.52,-499.564 168.693,-493.683 172.517,-499.797 168.344,-505.678"/>
<text text-anchor="middle" x="222" y="-694" font-family="FreeSans" font-size="10.00"> #flagNonminimal</text>
</g>
<!-- Node7 -->
<g id="node5" class="node"><title>Node7</title>
<g id="a_node5"><a xlink:href="classSeeSawN_1_1GeometryN_1_1GeometrySolverBaseC.html" target="_top" xlink:title="Base class for geometry solvers. ">
<polygon fill="white" stroke="black" points="269,-574.5 269,-818.5 452,-818.5 452,-574.5 269,-574.5"/>
<text text-anchor="start" x="277" y="-806.5" font-family="FreeSans" font-size="10.00">SeeSawN::GeometryN</text>
<text text-anchor="start" x="277" y="-795.5" font-family="FreeSans" font-size="10.00">::GeometrySolverBaseC</text>
<text text-anchor="start" x="277" y="-784.5" font-family="FreeSans" font-size="10.00">&lt; DerivedT, ModelT, ErrorT,</text>
<text text-anchor="start" x="277" y="-773.5" font-family="FreeSans" font-size="10.00"> DIM1, DIM2, GENERATOR_SIZE,</text>
<text text-anchor="start" x="277" y="-762.5" font-family="FreeSans" font-size="10.00"> FLAG_NONMINIMAL, NSOLUTION,</text>
<text text-anchor="middle" x="360.5" y="-751.5" font-family="FreeSans" font-size="10.00"> NPARAMETER, NDOF &gt;</text>
<polyline fill="none" stroke="black" points="269,-744.5 452,-744.5 "/>
<text text-anchor="middle" x="360.5" y="-732.5" font-family="FreeSans" font-size="10.00"> </text>
<polyline fill="none" stroke="black" points="269,-725.5 452,-725.5 "/>
<text text-anchor="start" x="277" y="-713.5" font-family="FreeSans" font-size="10.00">+ EvaluateModel()</text>
<text text-anchor="start" x="277" y="-702.5" font-family="FreeSans" font-size="10.00">+ EvaluateModel()</text>
<text text-anchor="start" x="277" y="-691.5" font-family="FreeSans" font-size="10.00">* coordinate_type1</text>
<text text-anchor="start" x="277" y="-680.5" font-family="FreeSans" font-size="10.00">* coordinate_type2</text>
<text text-anchor="start" x="277" y="-669.5" font-family="FreeSans" font-size="10.00">* model_type</text>
<text text-anchor="start" x="277" y="-658.5" font-family="FreeSans" font-size="10.00">* real_type</text>
<text text-anchor="start" x="277" y="-647.5" font-family="FreeSans" font-size="10.00">* error_type</text>
<text text-anchor="start" x="277" y="-636.5" font-family="FreeSans" font-size="10.00">* constraint_type</text>
<text text-anchor="start" x="277" y="-625.5" font-family="FreeSans" font-size="10.00">* loss_type</text>
<text text-anchor="start" x="277" y="-614.5" font-family="FreeSans" font-size="10.00">* distance_type</text>
<text text-anchor="start" x="277" y="-603.5" font-family="FreeSans" font-size="10.00">* GeneratorSize()</text>
<text text-anchor="start" x="277" y="-592.5" font-family="FreeSans" font-size="10.00">* IsNonminimal()</text>
<text text-anchor="start" x="277" y="-581.5" font-family="FreeSans" font-size="10.00">and 8 more...</text>
</a>
</g>
</g>
<!-- Node6&#45;&gt;Node7 -->
<g id="edge6" class="edge"><title>Node6&#45;&gt;Node7</title>
<path fill="none" stroke="#404040" d="M235.629,-899.317C246.944,-881.029 262.689,-855.582 279.193,-828.909"/>
<polygon fill="none" stroke="#404040" points="279.233,-828.843 278.989,-821.636 285.547,-818.638 285.792,-825.845 279.233,-828.843"/>
<text text-anchor="middle" x="311" y="-856.5" font-family="FreeSans" font-size="10.00"> #flagNonminimal</text>
</g>
<!-- Node7&#45;&gt;Node4 -->
<g id="edge4" class="edge"><title>Node7&#45;&gt;Node4</title>
<path fill="none" stroke="orange" d="M286.095,-565.593C272.474,-541.811 258.307,-517.077 244.841,-493.566"/>
<polygon fill="orange" stroke="orange" points="283.079,-567.37 291.086,-574.308 289.153,-563.891 283.079,-567.37"/>
<text text-anchor="start" x="279.5" y="-548" font-family="FreeSans" font-size="10.00"> &lt; Rotation3DSolverC,</text>
<text text-anchor="start" x="279.5" y="-537" font-family="FreeSans" font-size="10.00"> Homography3DT, SymmetricTransfer</text>
<text text-anchor="start" x="279.5" y="-526" font-family="FreeSans" font-size="10.00">ErrorC&lt; Homography3DT &gt;, 3,</text>
<text text-anchor="middle" x="361" y="-515" font-family="FreeSans" font-size="10.00"> 3, 2, true, 1, 16, 3 &gt;</text>
</g>
<!-- Node8 -->
<g id="node6" class="node"><title>Node8</title>
<polygon fill="white" stroke="#bfbfbf" points="346,-899.5 346,-956.5 375,-956.5 375,-899.5 346,-899.5"/>
<text text-anchor="middle" x="360.5" y="-944.5" font-family="FreeSans" font-size="10.00">int</text>
<polyline fill="none" stroke="#bfbfbf" points="346,-937.5 375,-937.5 "/>
<text text-anchor="middle" x="360.5" y="-925.5" font-family="FreeSans" font-size="10.00"> </text>
<polyline fill="none" stroke="#bfbfbf" points="346,-918.5 375,-918.5 "/>
<text text-anchor="middle" x="360.5" y="-906.5" font-family="FreeSans" font-size="10.00"> </text>
</g>
<!-- Node8&#45;&gt;Node7 -->
<g id="edge5" class="edge"><title>Node8&#45;&gt;Node7</title>
<path fill="none" stroke="#404040" d="M360.5,-899.317C360.5,-881.431 360.5,-856.7 360.5,-830.67"/>
<polygon fill="none" stroke="#404040" points="360.5,-830.638 356.5,-824.638 360.5,-818.638 364.5,-824.638 360.5,-830.638"/>
<text text-anchor="middle" x="388.5" y="-873" font-family="FreeSans" font-size="10.00"> #nDOF</text>
<text text-anchor="middle" x="388.5" y="-862" font-family="FreeSans" font-size="10.00">#nParameter</text>
<text text-anchor="middle" x="388.5" y="-851" font-family="FreeSans" font-size="10.00">#sGenerator</text>
<text text-anchor="middle" x="388.5" y="-840" font-family="FreeSans" font-size="10.00">#nSolution</text>
</g>
</g>
</svg>
