<?xml version="1.0" encoding="UTF-8" standalone="no"?>
<!DOCTYPE svg PUBLIC "-//W3C//DTD SVG 1.1//EN"
 "http://www.w3.org/Graphics/SVG/1.1/DTD/svg11.dtd">
<!-- Generated by graphviz version 2.38.0 (20140413.2041)
 -->
<!-- Title: SeeSawN::MatcherN::CorrespondenceFusionC::ConvertToUnified Pages: 1 -->
<!--zoomable 264 -->
<svg id="main" version="1.1" xmlns="http://www.w3.org/2000/svg" xmlns:xlink="http://www.w3.org/1999/xlink" xml:space="preserve" onload="init(evt)">
<style type="text/css"><![CDATA[
.edge:hover path { stroke: red; }
.edge:hover polygon { stroke: red; fill: red; }
]]></style>
<script type="text/javascript"><![CDATA[
var edges = document.getElementsByTagName('g');
if (edges && edges.length) {
  for (var i=0;i<edges.length;i++) {
    if (edges[i].id.substr(0,4)=='edge') {
      edges[i].setAttribute('class','edge');
    }
  }
}
]]></script>
        <defs>
                <circle id="rim" cx="0" cy="0" r="7"/>
                <circle id="rim2" cx="0" cy="0" r="3.5"/>
                <g id="zoomPlus">
                        <use xlink:href="#rim" fill="#404040">
                                <set attributeName="fill" to="#808080" begin="zoomplus.mouseover" end="zoomplus.mouseout"/>
                        </use>
                        <path d="M-4,0h8M0,-4v8" fill="none" stroke="white" stroke-width="1.5" pointer-events="none"/>
                </g>
                <g id="zoomMin">
                        <use xlink:href="#rim" fill="#404040">
                                <set attributeName="fill" to="#808080" begin="zoomminus.mouseover" end="zoomminus.mouseout"/>
                        </use>
                        <path d="M-4,0h8" fill="none" stroke="white" stroke-width="1.5" pointer-events="none"/>
                </g>
                <g id="dirArrow">
                        <path fill="none" stroke="white" stroke-width="1.5" d="M0,-3.0v7 M-2.5,-0.5L0,-3.0L2.5,-0.5"/>
                </g>
               <g id="resetDef">
                       <use xlink:href="#rim2" fill="#404040">
                               <set attributeName="fill" to="#808080" begin="reset.mouseover" end="reset.mouseout"/>
                       </use>
               </g>
        </defs>

<script type="text/javascript">
var viewWidth = 781;
var viewHeight = 264;
var sectionId = 'dynsection-6';
</script>
<script xlink:href="svgpan.js"/>
<svg id="graph" class="graph">
<g id="viewport">
<title>SeeSawN::MatcherN::CorrespondenceFusionC::ConvertToUnified</title>
<polygon fill="white" stroke="none" points="-4,4 -4,-259.5 777,-259.5 777,4 -4,4"/>
<!-- Node16 -->
<g id="node1" class="node"><title>Node16</title>
<polygon fill="#bfbfbf" stroke="black" points="0,-154 0,-195 123,-195 123,-154 0,-154"/>
<text text-anchor="start" x="8" y="-183" font-family="FreeSans" font-size="10.00">SeeSawN::MatcherN::</text>
<text text-anchor="start" x="8" y="-172" font-family="FreeSans" font-size="10.00">CorrespondenceFusionC</text>
<text text-anchor="middle" x="61.5" y="-161" font-family="FreeSans" font-size="10.00">::ConvertToUnified</text>
</g>
<!-- Node17 -->
<g id="node2" class="node"><title>Node17</title>
<g id="a_node2"><a xlink:href="namespaceSeeSawN_1_1UnitTestsN_1_1TestMatcherN.html#a641a8e764b501990232df5fa300392e5" target="_top" xlink:title="SeeSawN::UnitTestsN\l::TestMatcherN::BOOST\l_AUTO_TEST_SUITE_END">
<polygon fill="white" stroke="black" points="169.5,-214 169.5,-255 309.5,-255 309.5,-214 169.5,-214"/>
<text text-anchor="start" x="177.5" y="-243" font-family="FreeSans" font-size="10.00">SeeSawN::UnitTestsN</text>
<text text-anchor="start" x="177.5" y="-232" font-family="FreeSans" font-size="10.00">::TestMatcherN::BOOST</text>
<text text-anchor="middle" x="239.5" y="-221" font-family="FreeSans" font-size="10.00">_AUTO_TEST_SUITE_END</text>
</a>
</g>
</g>
<!-- Node16&#45;&gt;Node17 -->
<g id="edge1" class="edge"><title>Node16&#45;&gt;Node17</title>
<path fill="none" stroke="midnightblue" d="M132.806,-198.468C147.808,-203.582 163.526,-208.941 178.117,-213.915"/>
<polygon fill="midnightblue" stroke="midnightblue" points="133.664,-195.063 123.069,-195.149 131.405,-201.688 133.664,-195.063"/>
</g>
<!-- Node18 -->
<g id="node3" class="node"><title>Node18</title>
<g id="a_node3"><a xlink:href="classSeeSawN_1_1GeometryN_1_1SfMPipelineC.html#a228bbaea7fbd4d88d0050341e4ebd4c8" target="_top" xlink:title="Performs multiview triangulation. ">
<polygon fill="white" stroke="black" points="159,-154 159,-195 320,-195 320,-154 159,-154"/>
<text text-anchor="start" x="167" y="-183" font-family="FreeSans" font-size="10.00">SeeSawN::GeometryN</text>
<text text-anchor="start" x="167" y="-172" font-family="FreeSans" font-size="10.00">::SfMPipelineC::PerformMultiview</text>
<text text-anchor="middle" x="239.5" y="-161" font-family="FreeSans" font-size="10.00">Triangulation</text>
</a>
</g>
</g>
<!-- Node16&#45;&gt;Node18 -->
<g id="edge2" class="edge"><title>Node16&#45;&gt;Node18</title>
<path fill="none" stroke="midnightblue" d="M133.225,-174.5C141.658,-174.5 150.312,-174.5 158.86,-174.5"/>
<polygon fill="midnightblue" stroke="midnightblue" points="133.069,-171 123.069,-174.5 133.069,-178 133.069,-171"/>
</g>
<!-- Node21 -->
<g id="node6" class="node"><title>Node21</title>
<g id="a_node6"><a xlink:href="classSeeSawN_1_1GeometryN_1_1MultiviewPanoramaBuilderC.html#af4677eb2d52fbffc1921725c6b99041a" target="_top" xlink:title="Runs the algorithm. ">
<polygon fill="white" stroke="black" points="171,-91 171,-132 308,-132 308,-91 171,-91"/>
<text text-anchor="start" x="179" y="-120" font-family="FreeSans" font-size="10.00">SeeSawN::GeometryN</text>
<text text-anchor="start" x="179" y="-109" font-family="FreeSans" font-size="10.00">::MultiviewPanoramaBuilder</text>
<text text-anchor="middle" x="239.5" y="-98" font-family="FreeSans" font-size="10.00">C::Run</text>
</a>
</g>
</g>
<!-- Node16&#45;&gt;Node21 -->
<g id="edge5" class="edge"><title>Node16&#45;&gt;Node21</title>
<path fill="none" stroke="midnightblue" d="M129.915,-150.369C146.779,-144.332 164.712,-137.913 181.042,-132.067"/>
<polygon fill="midnightblue" stroke="midnightblue" points="128.364,-147.206 120.129,-153.871 130.724,-153.796 128.364,-147.206"/>
</g>
<!-- Node19 -->
<g id="node4" class="node"><title>Node19</title>
<g id="a_node4"><a xlink:href="classSeeSawN_1_1GeometryN_1_1SfMPipelineC.html#af69465c85b2ab27de0522cb35cea1407" target="_top" xlink:title="Estimates the camera poses. ">
<polygon fill="white" stroke="black" points="366,-166.5 366,-196.5 512,-196.5 512,-166.5 366,-166.5"/>
<text text-anchor="start" x="374" y="-184.5" font-family="FreeSans" font-size="10.00">SeeSawN::GeometryN</text>
<text text-anchor="middle" x="439" y="-173.5" font-family="FreeSans" font-size="10.00">::SfMPipelineC::EstimatePose</text>
</a>
</g>
</g>
<!-- Node18&#45;&gt;Node19 -->
<g id="edge3" class="edge"><title>Node18&#45;&gt;Node19</title>
<path fill="none" stroke="midnightblue" d="M330.599,-177.693C342.431,-178.113 354.43,-178.538 365.909,-178.945"/>
<polygon fill="midnightblue" stroke="midnightblue" points="330.379,-174.183 320.262,-177.327 330.131,-181.179 330.379,-174.183"/>
</g>
<!-- Node20 -->
<g id="node5" class="node"><title>Node20</title>
<g id="a_node5"><a xlink:href="classSeeSawN_1_1GeometryN_1_1SfMPipelineC.html#a3ce680beb7933e8917bb41fadf29c6b2" target="_top" xlink:title="Runs the algorithm. ">
<polygon fill="white" stroke="black" points="608,-170.5 608,-200.5 723,-200.5 723,-170.5 608,-170.5"/>
<text text-anchor="start" x="616" y="-188.5" font-family="FreeSans" font-size="10.00">SeeSawN::GeometryN</text>
<text text-anchor="middle" x="665.5" y="-177.5" font-family="FreeSans" font-size="10.00">::SfMPipelineC::Run</text>
</a>
</g>
</g>
<!-- Node19&#45;&gt;Node20 -->
<g id="edge4" class="edge"><title>Node19&#45;&gt;Node20</title>
<path fill="none" stroke="midnightblue" d="M522.557,-182.971C550.856,-183.475 581.867,-184.028 607.666,-184.487"/>
<polygon fill="midnightblue" stroke="midnightblue" points="522.33,-179.466 512.269,-182.788 522.205,-186.465 522.33,-179.466"/>
</g>
<!-- Node22 -->
<g id="node7" class="node"><title>Node22</title>
<g id="a_node7"><a xlink:href="classSeeSawN_1_1GeometryN_1_1SparseUnitSphereReconstructionPipelineC.html#ab2168d14acac87a86acc1d54f59ea0ff" target="_top" xlink:title="Runs the algorithm. ">
<polygon fill="white" stroke="black" points="356,-91 356,-132 522,-132 522,-91 356,-91"/>
<text text-anchor="start" x="364" y="-120" font-family="FreeSans" font-size="10.00">SeeSawN::GeometryN</text>
<text text-anchor="start" x="364" y="-109" font-family="FreeSans" font-size="10.00">::SparseUnitSphereReconstruction</text>
<text text-anchor="middle" x="439" y="-98" font-family="FreeSans" font-size="10.00">PipelineC::Run</text>
</a>
</g>
</g>
<!-- Node21&#45;&gt;Node22 -->
<g id="edge6" class="edge"><title>Node21&#45;&gt;Node22</title>
<path fill="none" stroke="midnightblue" d="M318.373,-111.5C330.64,-111.5 343.357,-111.5 355.72,-111.5"/>
<polygon fill="midnightblue" stroke="midnightblue" points="318.192,-108 308.192,-111.5 318.192,-115 318.192,-108"/>
</g>
<!-- Node25 -->
<g id="node10" class="node"><title>Node25</title>
<g id="a_node10"><a xlink:href="classSeeSawN_1_1GeometryN_1_1PfMPipelineC.html#aa435d8f0f4abec5cf35e3f525c407fb7" target="_top" xlink:title="Runs the algorithm. ">
<polygon fill="white" stroke="black" points="381.5,-27.5 381.5,-57.5 496.5,-57.5 496.5,-27.5 381.5,-27.5"/>
<text text-anchor="start" x="389.5" y="-45.5" font-family="FreeSans" font-size="10.00">SeeSawN::GeometryN</text>
<text text-anchor="middle" x="439" y="-34.5" font-family="FreeSans" font-size="10.00">::PfMPipelineC::Run</text>
</a>
</g>
</g>
<!-- Node21&#45;&gt;Node25 -->
<g id="edge9" class="edge"><title>Node21&#45;&gt;Node25</title>
<path fill="none" stroke="midnightblue" d="M308.752,-87.6549C337.329,-77.6711 369.684,-66.3673 394.873,-57.5671"/>
<polygon fill="midnightblue" stroke="midnightblue" points="307.508,-84.3821 299.222,-90.9845 309.817,-90.9905 307.508,-84.3821"/>
</g>
<!-- Node23 -->
<g id="node8" class="node"><title>Node23</title>
<g id="a_node8"><a xlink:href="classSeeSawN_1_1GeometryN_1_1SparseUnitSphereReconstructionPipelineC.html#a36e5a2830a39ac90749196f3f4cbc8eb" target="_top" xlink:title="Conversion from binary scene features to oriented scene features. ">
<polygon fill="white" stroke="black" points="582.5,-110 582.5,-151 748.5,-151 748.5,-110 582.5,-110"/>
<text text-anchor="start" x="590.5" y="-139" font-family="FreeSans" font-size="10.00">SeeSawN::GeometryN</text>
<text text-anchor="start" x="590.5" y="-128" font-family="FreeSans" font-size="10.00">::SparseUnitSphereReconstruction</text>
<text text-anchor="middle" x="665.5" y="-117" font-family="FreeSans" font-size="10.00">PipelineC::MakeOriented</text>
</a>
</g>
</g>
<!-- Node22&#45;&gt;Node23 -->
<g id="edge7" class="edge"><title>Node22&#45;&gt;Node23</title>
<path fill="none" stroke="midnightblue" d="M532.248,-119.307C548.849,-120.712 566.053,-122.168 582.344,-123.547"/>
<polygon fill="midnightblue" stroke="midnightblue" points="532.262,-115.796 522.003,-118.44 531.672,-122.771 532.262,-115.796"/>
</g>
<!-- Node24 -->
<g id="node9" class="node"><title>Node24</title>
<g id="a_node9"><a xlink:href="classSeeSawN_1_1AppSparseUnitSphereBuilderN_1_1AppSparseUnitSphereBuilderImplementationC.html#a21278d448f57f45c6ab74176e677592e" target="_top" xlink:title="Runs the application. ">
<polygon fill="white" stroke="black" points="573,-50 573,-91 758,-91 758,-50 573,-50"/>
<text text-anchor="start" x="581" y="-79" font-family="FreeSans" font-size="10.00">SeeSawN::AppSparseUnitSphere</text>
<text text-anchor="start" x="581" y="-68" font-family="FreeSans" font-size="10.00">BuilderN::AppSparseUnitSphereBuilder</text>
<text text-anchor="middle" x="665.5" y="-57" font-family="FreeSans" font-size="10.00">ImplementationC::Run</text>
</a>
</g>
</g>
<!-- Node22&#45;&gt;Node24 -->
<g id="edge8" class="edge"><title>Node22&#45;&gt;Node24</title>
<path fill="none" stroke="midnightblue" d="M532.182,-94.665C545.611,-92.2124 559.437,-89.6874 572.856,-87.2368"/>
<polygon fill="midnightblue" stroke="midnightblue" points="531.211,-91.2843 522.003,-96.524 532.469,-98.1704 531.211,-91.2843"/>
</g>
<!-- Node26 -->
<g id="node11" class="node"><title>Node26</title>
<g id="a_node11"><a xlink:href="classSeeSawN_1_1AppPfMN_1_1AppPfMImplementationC.html#a907a06d88e1dc5911dedb8d3a8223780" target="_top" xlink:title="Runs the application. ">
<polygon fill="white" stroke="black" points="558,-0.5 558,-30.5 773,-30.5 773,-0.5 558,-0.5"/>
<text text-anchor="start" x="566" y="-18.5" font-family="FreeSans" font-size="10.00">SeeSawN::AppPfMN::AppPfMImplementation</text>
<text text-anchor="middle" x="665.5" y="-7.5" font-family="FreeSans" font-size="10.00">C::Run</text>
</a>
</g>
</g>
<!-- Node25&#45;&gt;Node26 -->
<g id="edge10" class="edge"><title>Node25&#45;&gt;Node26</title>
<path fill="none" stroke="midnightblue" d="M506.91,-34.4529C522.87,-32.5335 540.299,-30.4373 557.561,-28.3612"/>
<polygon fill="midnightblue" stroke="midnightblue" points="506.161,-31.0176 496.651,-35.6868 506.997,-37.9676 506.161,-31.0176"/>
</g>
</g>
</svg>
        <g id="navigator" transform="translate(0 0)" fill="#404254">
                <rect fill="#f2f5e9" fill-opacity="0.5" stroke="#606060" stroke-width=".5" x="0" y="0" width="60" height="60"/>
                <use id="zoomplus" xlink:href="#zoomPlus" x="17" y="9" onmousedown="handleZoom(evt,'in')"/>
                <use id="zoomminus" xlink:href="#zoomMin" x="42" y="9" onmousedown="handleZoom(evt,'out')"/>
                <use id="reset" xlink:href="#resetDef" x="30" y="36" onmousedown="handleReset()"/>
                <g id="arrowUp" xlink:href="#dirArrow" transform="translate(30 24)" onmousedown="handlePan(0,-1)">
                  <use xlink:href="#rim" fill="#404040">
                        <set attributeName="fill" to="#808080" begin="arrowUp.mouseover" end="arrowUp.mouseout"/>
                  </use>
                  <path fill="none" stroke="white" stroke-width="1.5" d="M0,-3.0v7 M-2.5,-0.5L0,-3.0L2.5,-0.5"/>
                </g>
                <g id="arrowRight" xlink:href="#dirArrow" transform="rotate(90) translate(36 -43)" onmousedown="handlePan(1,0)">
                  <use xlink:href="#rim" fill="#404040">
                        <set attributeName="fill" to="#808080" begin="arrowRight.mouseover" end="arrowRight.mouseout"/>
                  </use>
                  <path fill="none" stroke="white" stroke-width="1.5" d="M0,-3.0v7 M-2.5,-0.5L0,-3.0L2.5,-0.5"/>
                </g>
                <g id="arrowDown" xlink:href="#dirArrow" transform="rotate(180) translate(-30 -48)" onmousedown="handlePan(0,1)">
                  <use xlink:href="#rim" fill="#404040">
                        <set attributeName="fill" to="#808080" begin="arrowDown.mouseover" end="arrowDown.mouseout"/>
                  </use>
                  <path fill="none" stroke="white" stroke-width="1.5" d="M0,-3.0v7 M-2.5,-0.5L0,-3.0L2.5,-0.5"/>
                </g>
                <g id="arrowLeft" xlink:href="#dirArrow" transform="rotate(270) translate(-36 17)" onmousedown="handlePan(-1,0)">
                  <use xlink:href="#rim" fill="#404040">
                        <set attributeName="fill" to="#808080" begin="arrowLeft.mouseover" end="arrowLeft.mouseout"/>
                  </use>
                  <path fill="none" stroke="white" stroke-width="1.5" d="M0,-3.0v7 M-2.5,-0.5L0,-3.0L2.5,-0.5"/>
                </g>
        </g>
        <svg viewBox="0 0 15 15" width="100%" height="30px" preserveAspectRatio="xMaxYMin meet">
         <g id="arrow_out" transform="scale(0.3 0.3)">
          <a xlink:href="classSeeSawN_1_1MatcherN_1_1CorrespondenceFusionC_abf146cc92bcec7beca955b9659ca5b45_icgraph_org.svg" target="_base">
           <rect id="button" ry="5" rx="5" y="6" x="6" height="38" width="38"
                fill="#f2f5e9" fill-opacity="0.5" stroke="#606060" stroke-width="1.0"/>
           <path id="arrow"
             d="M 11.500037,31.436501 C 11.940474,20.09759 22.043105,11.32322 32.158766,21.979434 L 37.068811,17.246167 C 37.068811,17.246167 37.088388,32 37.088388,32 L 22.160133,31.978069 C 22.160133,31.978069 26.997745,27.140456 26.997745,27.140456 C 18.528582,18.264221 13.291696,25.230495 11.500037,31.436501 z"
             style="fill:#404040;"/>
          </a>
         </g>
        </svg>
</svg>
