<?xml version="1.0" encoding="UTF-8" standalone="no"?>
<!DOCTYPE svg PUBLIC "-//W3C//DTD SVG 1.1//EN"
 "http://www.w3.org/Graphics/SVG/1.1/DTD/svg11.dtd">
<!-- Generated by graphviz version 2.38.0 (20140413.2041)
 -->
<!-- Title: SeeSawN::GeometryN::GeometryEstimationPipelineC::ComputeCovariance Pages: 1 -->
<svg width="358pt" height="50pt"
 viewBox="0.00 0.00 358.00 50.00" xmlns="http://www.w3.org/2000/svg" xmlns:xlink="http://www.w3.org/1999/xlink">
<g id="graph0" class="graph" transform="scale(1 1) rotate(0) translate(4 46)">
<title>SeeSawN::GeometryN::GeometryEstimationPipelineC::ComputeCovariance</title>
<polygon fill="white" stroke="none" points="-4,4 -4,-46 354,-46 354,4 -4,4"/>
<!-- Node0 -->
<g id="node1" class="node"><title>Node0</title>
<polygon fill="#bfbfbf" stroke="black" points="0,-0.5 0,-41.5 143,-41.5 143,-0.5 0,-0.5"/>
<text text-anchor="start" x="8" y="-29.5" font-family="FreeSans" font-size="10.00">SeeSawN::GeometryN</text>
<text text-anchor="start" x="8" y="-18.5" font-family="FreeSans" font-size="10.00">::GeometryEstimationPipeline</text>
<text text-anchor="middle" x="71.5" y="-7.5" font-family="FreeSans" font-size="10.00">C::ComputeCovariance</text>
</g>
<!-- Node1 -->
<g id="node2" class="node"><title>Node1</title>
<g id="a_node2"><a xlink:href="classSeeSawN_1_1UncertaintyEstimationN_1_1ScaledUnscentedTransformationC.html#ad8228f30447897569ade041b9e4ff60d" target="_top" xlink:title="Applies SUT. ">
<polygon fill="white" stroke="black" points="179,-0.5 179,-41.5 350,-41.5 350,-0.5 179,-0.5"/>
<text text-anchor="start" x="187" y="-29.5" font-family="FreeSans" font-size="10.00">SeeSawN::UncertaintyEstimation</text>
<text text-anchor="start" x="187" y="-18.5" font-family="FreeSans" font-size="10.00">N::ScaledUnscentedTransformation</text>
<text text-anchor="middle" x="264.5" y="-7.5" font-family="FreeSans" font-size="10.00">C::Run</text>
</a>
</g>
</g>
<!-- Node0&#45;&gt;Node1 -->
<g id="edge1" class="edge"><title>Node0&#45;&gt;Node1</title>
<path fill="none" stroke="midnightblue" d="M143.079,-21C151.48,-21 160.159,-21 168.828,-21"/>
<polygon fill="midnightblue" stroke="midnightblue" points="168.984,-24.5001 178.984,-21 168.984,-17.5001 168.984,-24.5001"/>
</g>
</g>
</svg>
