<?xml version="1.0" encoding="UTF-8" standalone="no"?>
<!DOCTYPE svg PUBLIC "-//W3C//DTD SVG 1.1//EN"
 "http://www.w3.org/Graphics/SVG/1.1/DTD/svg11.dtd">
<!-- Generated by graphviz version 2.38.0 (20140413.2041)
 -->
<!-- Title: SeeSawN::GeometryN::SfMPipelineC::PerformCorrespondenceFusion Pages: 1 -->
<svg width="728pt" height="110pt"
 viewBox="0.00 0.00 728.00 110.00" xmlns="http://www.w3.org/2000/svg" xmlns:xlink="http://www.w3.org/1999/xlink">
<g id="graph0" class="graph" transform="scale(1 1) rotate(0) translate(4 106)">
<title>SeeSawN::GeometryN::SfMPipelineC::PerformCorrespondenceFusion</title>
<polygon fill="white" stroke="none" points="-4,4 -4,-106 724,-106 724,4 -4,4"/>
<!-- Node121 -->
<g id="node1" class="node"><title>Node121</title>
<polygon fill="#bfbfbf" stroke="black" points="0,-30.5 0,-71.5 190,-71.5 190,-30.5 0,-30.5"/>
<text text-anchor="start" x="8" y="-59.5" font-family="FreeSans" font-size="10.00">SeeSawN::GeometryN</text>
<text text-anchor="start" x="8" y="-48.5" font-family="FreeSans" font-size="10.00">::SfMPipelineC::PerformCorrespondence</text>
<text text-anchor="middle" x="95" y="-37.5" font-family="FreeSans" font-size="10.00">Fusion</text>
</g>
<!-- Node122 -->
<g id="node2" class="node"><title>Node122</title>
<g id="a_node2"><a xlink:href="classSeeSawN_1_1GeometryN_1_1SfMPipelineC.html#a0fc7841df20638c7a00499880d6faf5a" target="_top" xlink:title="Builds a scene model from each epipolar geometry estimate. ">
<polygon fill="white" stroke="black" points="234,-60.5 234,-101.5 379,-101.5 379,-60.5 234,-60.5"/>
<text text-anchor="start" x="242" y="-89.5" font-family="FreeSans" font-size="10.00">SeeSawN::GeometryN</text>
<text text-anchor="start" x="242" y="-78.5" font-family="FreeSans" font-size="10.00">::SfMPipelineC::FormPairwise</text>
<text text-anchor="middle" x="306.5" y="-67.5" font-family="FreeSans" font-size="10.00">SceneModels</text>
</a>
</g>
</g>
<!-- Node121&#45;&gt;Node122 -->
<g id="edge1" class="edge"><title>Node121&#45;&gt;Node122</title>
<path fill="none" stroke="midnightblue" d="M200.037,-65.8979C211.448,-67.5319 222.87,-69.1676 233.762,-70.7273"/>
<polygon fill="midnightblue" stroke="midnightblue" points="200.421,-62.4173 190.026,-64.4643 199.429,-69.3466 200.421,-62.4173"/>
</g>
<!-- Node123 -->
<g id="node3" class="node"><title>Node123</title>
<g id="a_node3"><a xlink:href="classSeeSawN_1_1GeometryN_1_1SfMPipelineC.html#a228bbaea7fbd4d88d0050341e4ebd4c8" target="_top" xlink:title="Performs multiview triangulation. ">
<polygon fill="white" stroke="black" points="226,-0.5 226,-41.5 387,-41.5 387,-0.5 226,-0.5"/>
<text text-anchor="start" x="234" y="-29.5" font-family="FreeSans" font-size="10.00">SeeSawN::GeometryN</text>
<text text-anchor="start" x="234" y="-18.5" font-family="FreeSans" font-size="10.00">::SfMPipelineC::PerformMultiview</text>
<text text-anchor="middle" x="306.5" y="-7.5" font-family="FreeSans" font-size="10.00">Triangulation</text>
</a>
</g>
</g>
<!-- Node121&#45;&gt;Node123 -->
<g id="edge2" class="edge"><title>Node121&#45;&gt;Node123</title>
<path fill="none" stroke="midnightblue" d="M200.152,-36.0856C208.793,-34.8483 217.439,-33.6102 225.855,-32.4051"/>
<polygon fill="midnightblue" stroke="midnightblue" points="199.429,-32.6534 190.026,-37.5357 200.421,-39.5827 199.429,-32.6534"/>
</g>
<!-- Node124 -->
<g id="node4" class="node"><title>Node124</title>
<g id="a_node4"><a xlink:href="classSeeSawN_1_1GeometryN_1_1SfMPipelineC.html#af69465c85b2ab27de0522cb35cea1407" target="_top" xlink:title="Estimates the camera poses. ">
<polygon fill="white" stroke="black" points="423,-6 423,-36 569,-36 569,-6 423,-6"/>
<text text-anchor="start" x="431" y="-24" font-family="FreeSans" font-size="10.00">SeeSawN::GeometryN</text>
<text text-anchor="middle" x="496" y="-13" font-family="FreeSans" font-size="10.00">::SfMPipelineC::EstimatePose</text>
</a>
</g>
</g>
<!-- Node123&#45;&gt;Node124 -->
<g id="edge3" class="edge"><title>Node123&#45;&gt;Node124</title>
<path fill="none" stroke="midnightblue" d="M397.095,-21C405.713,-21 414.379,-21 422.799,-21"/>
<polygon fill="midnightblue" stroke="midnightblue" points="397.017,-17.5001 387.017,-21 397.017,-24.5001 397.017,-17.5001"/>
</g>
<!-- Node125 -->
<g id="node5" class="node"><title>Node125</title>
<g id="a_node5"><a xlink:href="classSeeSawN_1_1GeometryN_1_1SfMPipelineC.html#a3ce680beb7933e8917bb41fadf29c6b2" target="_top" xlink:title="Runs the algorithm. ">
<polygon fill="white" stroke="black" points="605,-6 605,-36 720,-36 720,-6 605,-6"/>
<text text-anchor="start" x="613" y="-24" font-family="FreeSans" font-size="10.00">SeeSawN::GeometryN</text>
<text text-anchor="middle" x="662.5" y="-13" font-family="FreeSans" font-size="10.00">::SfMPipelineC::Run</text>
</a>
</g>
</g>
<!-- Node124&#45;&gt;Node125 -->
<g id="edge4" class="edge"><title>Node124&#45;&gt;Node125</title>
<path fill="none" stroke="midnightblue" d="M579.249,-21C587.87,-21 596.49,-21 604.732,-21"/>
<polygon fill="midnightblue" stroke="midnightblue" points="579.152,-17.5001 569.152,-21 579.152,-24.5001 579.152,-17.5001"/>
</g>
</g>
</svg>
