<?xml version="1.0" encoding="UTF-8" standalone="no"?>
<!DOCTYPE svg PUBLIC "-//W3C//DTD SVG 1.1//EN"
 "http://www.w3.org/Graphics/SVG/1.1/DTD/svg11.dtd">
<!-- Generated by graphviz version 2.38.0 (20140413.2041)
 -->
<!-- Title: SeeSawN::ZeroN::ZeroReconstructionEvaluationModuleC::ComputeReprojectionError Pages: 1 -->
<svg width="663pt" height="50pt"
 viewBox="0.00 0.00 663.00 50.00" xmlns="http://www.w3.org/2000/svg" xmlns:xlink="http://www.w3.org/1999/xlink">
<g id="graph0" class="graph" transform="scale(1 1) rotate(0) translate(4 46)">
<title>SeeSawN::ZeroN::ZeroReconstructionEvaluationModuleC::ComputeReprojectionError</title>
<polygon fill="white" stroke="none" points="-4,4 -4,-46 659,-46 659,4 -4,4"/>
<!-- Node8 -->
<g id="node1" class="node"><title>Node8</title>
<polygon fill="#bfbfbf" stroke="black" points="0,-6 0,-36 218,-36 218,-6 0,-6"/>
<text text-anchor="start" x="8" y="-24" font-family="FreeSans" font-size="10.00">SeeSawN::ZeroN::ZeroReconstruction</text>
<text text-anchor="middle" x="109" y="-13" font-family="FreeSans" font-size="10.00">EvaluationModuleC::ComputeReprojectionError</text>
</g>
<!-- Node9 -->
<g id="node2" class="node"><title>Node9</title>
<g id="a_node2"><a xlink:href="classSeeSawN_1_1ZeroN_1_1ZeroReconstructionEvaluationModuleC.html#a1c02c043a6ceb18f03a4fe5af9c66edf" target="_top" xlink:title="Evaluates the image error. ">
<polygon fill="white" stroke="black" points="254,-6 254,-36 443,-36 443,-6 254,-6"/>
<text text-anchor="start" x="262" y="-24" font-family="FreeSans" font-size="10.00">SeeSawN::ZeroN::ZeroReconstruction</text>
<text text-anchor="middle" x="348.5" y="-13" font-family="FreeSans" font-size="10.00">EvaluationModuleC::EvaluateImageError</text>
</a>
</g>
</g>
<!-- Node8&#45;&gt;Node9 -->
<g id="edge1" class="edge"><title>Node8&#45;&gt;Node9</title>
<path fill="none" stroke="midnightblue" d="M228.36,-21C236.919,-21 245.48,-21 253.867,-21"/>
<polygon fill="midnightblue" stroke="midnightblue" points="228.325,-17.5001 218.325,-21 228.325,-24.5001 228.325,-17.5001"/>
</g>
<!-- Node10 -->
<g id="node3" class="node"><title>Node10</title>
<g id="a_node3"><a xlink:href="classSeeSawN_1_1AppZeroReconstructionEvaluationN_1_1AppZeroReconstructionEvaluationImplementationC.html#a627d6c37454be6dba342f8321dad0e31" target="_top" xlink:title="Runs the application. ">
<polygon fill="white" stroke="black" points="479,-0.5 479,-41.5 655,-41.5 655,-0.5 479,-0.5"/>
<text text-anchor="start" x="487" y="-29.5" font-family="FreeSans" font-size="10.00">SeeSawN::AppZeroReconstruction</text>
<text text-anchor="start" x="487" y="-18.5" font-family="FreeSans" font-size="10.00">EvaluationN::AppZeroReconstruction</text>
<text text-anchor="middle" x="567" y="-7.5" font-family="FreeSans" font-size="10.00">EvaluationImplementationC::Run</text>
</a>
</g>
</g>
<!-- Node9&#45;&gt;Node10 -->
<g id="edge2" class="edge"><title>Node9&#45;&gt;Node10</title>
<path fill="none" stroke="midnightblue" d="M453.272,-21C461.878,-21 470.521,-21 478.984,-21"/>
<polygon fill="midnightblue" stroke="midnightblue" points="453.201,-17.5001 443.201,-21 453.201,-24.5001 453.201,-17.5001"/>
</g>
</g>
</svg>
