<?xml version="1.0" encoding="UTF-8" standalone="no"?>
<!DOCTYPE svg PUBLIC "-//W3C//DTD SVG 1.1//EN"
 "http://www.w3.org/Graphics/SVG/1.1/DTD/svg11.dtd">
<!-- Generated by graphviz version 2.38.0 (20140413.2041)
 -->
<!-- Title: SeeSawN::GeometryN::Rotation3DSolverC::ComputeDistance Pages: 1 -->
<svg width="480pt" height="105pt"
 viewBox="0.00 0.00 480.00 105.00" xmlns="http://www.w3.org/2000/svg" xmlns:xlink="http://www.w3.org/1999/xlink">
<g id="graph0" class="graph" transform="scale(1 1) rotate(0) translate(4 101)">
<title>SeeSawN::GeometryN::Rotation3DSolverC::ComputeDistance</title>
<polygon fill="white" stroke="none" points="-4,4 -4,-101 476,-101 476,4 -4,4"/>
<!-- Node2 -->
<g id="node1" class="node"><title>Node2</title>
<polygon fill="#bfbfbf" stroke="black" points="0,-27.5 0,-68.5 115,-68.5 115,-27.5 0,-27.5"/>
<text text-anchor="start" x="8" y="-56.5" font-family="FreeSans" font-size="10.00">SeeSawN::GeometryN</text>
<text text-anchor="start" x="8" y="-45.5" font-family="FreeSans" font-size="10.00">::Rotation3DSolverC</text>
<text text-anchor="middle" x="57.5" y="-34.5" font-family="FreeSans" font-size="10.00">::ComputeDistance</text>
</g>
<!-- Node3 -->
<g id="node2" class="node"><title>Node3</title>
<g id="a_node2"><a xlink:href="namespaceSeeSawN_1_1UnitTestsN_1_1TestGeometryN.html#aa3f415d916823d62c4a36b8c34c0b5ea" target="_top" xlink:title="SeeSawN::UnitTestsN\l::TestGeometryN::BOOST\l_AUTO_TEST_CASE">
<polygon fill="white" stroke="black" points="164.5,-55.5 164.5,-96.5 293.5,-96.5 293.5,-55.5 164.5,-55.5"/>
<text text-anchor="start" x="172.5" y="-84.5" font-family="FreeSans" font-size="10.00">SeeSawN::UnitTestsN</text>
<text text-anchor="start" x="172.5" y="-73.5" font-family="FreeSans" font-size="10.00">::TestGeometryN::BOOST</text>
<text text-anchor="middle" x="229" y="-62.5" font-family="FreeSans" font-size="10.00">_AUTO_TEST_CASE</text>
</a>
</g>
</g>
<!-- Node2&#45;&gt;Node3 -->
<g id="edge1" class="edge"><title>Node2&#45;&gt;Node3</title>
<path fill="none" stroke="midnightblue" d="M125.5,-59.0679C138.258,-61.1754 151.578,-63.3757 164.232,-65.466"/>
<polygon fill="midnightblue" stroke="midnightblue" points="125.849,-55.5782 115.413,-57.4015 124.708,-62.4846 125.849,-55.5782"/>
</g>
<!-- Node4 -->
<g id="node3" class="node"><title>Node4</title>
<g id="a_node3"><a xlink:href="classSeeSawN_1_1GeometryN_1_1P2PSolverC.html#a3276e5bc93752ce70ebdb4a78f6456d6" target="_top" xlink:title="Computes the distance between two models. ">
<polygon fill="white" stroke="black" points="151,-6 151,-36 307,-36 307,-6 151,-6"/>
<text text-anchor="start" x="159" y="-24" font-family="FreeSans" font-size="10.00">SeeSawN::GeometryN</text>
<text text-anchor="middle" x="229" y="-13" font-family="FreeSans" font-size="10.00">::P2PSolverC::ComputeDistance</text>
</a>
</g>
</g>
<!-- Node2&#45;&gt;Node4 -->
<g id="edge2" class="edge"><title>Node2&#45;&gt;Node4</title>
<path fill="none" stroke="midnightblue" d="M125.419,-37.3404C133.739,-36.0151 142.299,-34.6516 150.758,-33.3041"/>
<polygon fill="midnightblue" stroke="midnightblue" points="124.737,-33.9047 115.413,-38.9343 125.839,-40.8175 124.737,-33.9047"/>
</g>
<!-- Node5 -->
<g id="node4" class="node"><title>Node5</title>
<g id="a_node4"><a xlink:href="namespaceSeeSawN_1_1UnitTestsN_1_1TestGeometryN.html#a2ea8003b5ca751b06762dd8416d13d1a" target="_top" xlink:title="SeeSawN::UnitTestsN\l::TestGeometryN::BOOST\l_AUTO_TEST_CASE">
<polygon fill="white" stroke="black" points="343,-0.5 343,-41.5 472,-41.5 472,-0.5 343,-0.5"/>
<text text-anchor="start" x="351" y="-29.5" font-family="FreeSans" font-size="10.00">SeeSawN::UnitTestsN</text>
<text text-anchor="start" x="351" y="-18.5" font-family="FreeSans" font-size="10.00">::TestGeometryN::BOOST</text>
<text text-anchor="middle" x="407.5" y="-7.5" font-family="FreeSans" font-size="10.00">_AUTO_TEST_CASE</text>
</a>
</g>
</g>
<!-- Node4&#45;&gt;Node5 -->
<g id="edge3" class="edge"><title>Node4&#45;&gt;Node5</title>
<path fill="none" stroke="midnightblue" d="M317.301,-21C325.962,-21 334.636,-21 342.987,-21"/>
<polygon fill="midnightblue" stroke="midnightblue" points="317.159,-17.5001 307.159,-21 317.159,-24.5001 317.159,-17.5001"/>
</g>
</g>
</svg>
