<?xml version="1.0" encoding="UTF-8" standalone="no"?>
<!DOCTYPE svg PUBLIC "-//W3C//DTD SVG 1.1//EN"
 "http://www.w3.org/Graphics/SVG/1.1/DTD/svg11.dtd">
<!-- Generated by graphviz version 2.38.0 (20140413.2041)
 -->
<!-- Title: SeeSawN::SynchronisationN::RelativeSynchronisationC::AssignCorrespondences Pages: 1 -->
<svg width="470pt" height="220pt"
 viewBox="0.00 0.00 470.00 219.50" xmlns="http://www.w3.org/2000/svg" xmlns:xlink="http://www.w3.org/1999/xlink">
<g id="graph0" class="graph" transform="scale(1 1) rotate(0) translate(4 215.5)">
<title>SeeSawN::SynchronisationN::RelativeSynchronisationC::AssignCorrespondences</title>
<polygon fill="white" stroke="none" points="-4,4 -4,-215.5 466,-215.5 466,4 -4,4"/>
<!-- Node8 -->
<g id="node1" class="node"><title>Node8</title>
<polygon fill="#bfbfbf" stroke="black" points="0,-90.5 0,-131.5 140,-131.5 140,-90.5 0,-90.5"/>
<text text-anchor="start" x="8" y="-119.5" font-family="FreeSans" font-size="10.00">SeeSawN::Synchronisation</text>
<text text-anchor="start" x="8" y="-108.5" font-family="FreeSans" font-size="10.00">N::RelativeSynchronisationC</text>
<text text-anchor="middle" x="70" y="-97.5" font-family="FreeSans" font-size="10.00">::AssignCorrespondences</text>
</g>
<!-- Node9 -->
<g id="node2" class="node"><title>Node9</title>
<g id="a_node2"><a xlink:href="classboost_1_1dynamic__bitset.html#af33290ad2afc70ea785b49c87d801c92" target="_top" xlink:title="boost::dynamic_bitset\l::count">
<polygon fill="white" stroke="black" points="191,-181 191,-211 301,-211 301,-181 191,-181"/>
<text text-anchor="start" x="199" y="-199" font-family="FreeSans" font-size="10.00">boost::dynamic_bitset</text>
<text text-anchor="middle" x="246" y="-188" font-family="FreeSans" font-size="10.00">::count</text>
</a>
</g>
</g>
<!-- Node8&#45;&gt;Node9 -->
<g id="edge1" class="edge"><title>Node8&#45;&gt;Node9</title>
<path fill="none" stroke="midnightblue" d="M103.801,-131.684C124.129,-144.009 151.039,-159.45 176,-171 180.651,-173.152 185.543,-175.245 190.486,-177.244"/>
<polygon fill="midnightblue" stroke="midnightblue" points="189.418,-180.584 200.006,-180.964 191.966,-174.064 189.418,-180.584"/>
</g>
<!-- Node11 -->
<g id="node4" class="node"><title>Node11</title>
<g id="a_node4"><a xlink:href="classSeeSawN_1_1SynchronisationN_1_1RelativeSynchronisationC.html#a99e15c4f24cbb6b10ce19c55e6ec9fac" target="_top" xlink:title="Converts an indicator array to a membership list. ">
<polygon fill="white" stroke="black" points="176,-120.5 176,-161.5 316,-161.5 316,-120.5 176,-120.5"/>
<text text-anchor="start" x="184" y="-149.5" font-family="FreeSans" font-size="10.00">SeeSawN::Synchronisation</text>
<text text-anchor="start" x="184" y="-138.5" font-family="FreeSans" font-size="10.00">N::RelativeSynchronisationC</text>
<text text-anchor="middle" x="246" y="-127.5" font-family="FreeSans" font-size="10.00">::MakeMembership</text>
</a>
</g>
</g>
<!-- Node8&#45;&gt;Node11 -->
<g id="edge3" class="edge"><title>Node8&#45;&gt;Node11</title>
<path fill="none" stroke="midnightblue" d="M140.019,-122.9C148.476,-124.358 157.169,-125.857 165.761,-127.338"/>
<polygon fill="midnightblue" stroke="midnightblue" points="165.33,-130.815 175.779,-129.065 166.52,-123.917 165.33,-130.815"/>
</g>
<!-- Node12 -->
<g id="node5" class="node"><title>Node12</title>
<g id="a_node5"><a xlink:href="classSeeSawN_1_1SynchronisationN_1_1RelativeSynchronisationC.html#a09056f16817fed095df8429d1a5b45ab" target="_top" xlink:title="Removes isolated index correspondences. ">
<polygon fill="white" stroke="black" points="176,-60.5 176,-101.5 316,-101.5 316,-60.5 176,-60.5"/>
<text text-anchor="start" x="184" y="-89.5" font-family="FreeSans" font-size="10.00">SeeSawN::Synchronisation</text>
<text text-anchor="start" x="184" y="-78.5" font-family="FreeSans" font-size="10.00">N::RelativeSynchronisationC</text>
<text text-anchor="middle" x="246" y="-67.5" font-family="FreeSans" font-size="10.00">::RemoveIsolated</text>
</a>
</g>
</g>
<!-- Node8&#45;&gt;Node12 -->
<g id="edge4" class="edge"><title>Node8&#45;&gt;Node12</title>
<path fill="none" stroke="midnightblue" d="M140.019,-99.1001C148.476,-97.6421 157.169,-96.1433 165.761,-94.6619"/>
<polygon fill="midnightblue" stroke="midnightblue" points="166.52,-98.0828 175.779,-92.9346 165.33,-91.1846 166.52,-98.0828"/>
</g>
<!-- Node13 -->
<g id="node6" class="node"><title>Node13</title>
<g id="a_node6"><a xlink:href="classSeeSawN_1_1SynchronisationN_1_1RelativeSynchronisationC.html#a16e7463d4594db65da523b1f7a51e006" target="_top" xlink:title="Resolves the conflicting assignments due to overlapping support regions. ">
<polygon fill="white" stroke="black" points="176,-0.5 176,-41.5 316,-41.5 316,-0.5 176,-0.5"/>
<text text-anchor="start" x="184" y="-29.5" font-family="FreeSans" font-size="10.00">SeeSawN::Synchronisation</text>
<text text-anchor="start" x="184" y="-18.5" font-family="FreeSans" font-size="10.00">N::RelativeSynchronisationC</text>
<text text-anchor="middle" x="246" y="-7.5" font-family="FreeSans" font-size="10.00">::ResolveConflict</text>
</a>
</g>
</g>
<!-- Node8&#45;&gt;Node13 -->
<g id="edge5" class="edge"><title>Node8&#45;&gt;Node13</title>
<path fill="none" stroke="midnightblue" d="M105.008,-90.3122C125.315,-78.2768 151.787,-63.1364 176,-51 179.35,-49.3208 182.816,-47.6413 186.329,-45.9825"/>
<polygon fill="midnightblue" stroke="midnightblue" points="188.084,-49.027 195.694,-41.6548 185.148,-42.6728 188.084,-49.027"/>
</g>
<!-- Node10 -->
<g id="node3" class="node"><title>Node10</title>
<g id="a_node3"><a xlink:href="classboost_1_1dynamic__bitset.html#adfa9723501c60abf84b9e801d3cf4d1f" target="_top" xlink:title="boost::dynamic_bitset\l::num_blocks">
<polygon fill="white" stroke="black" points="352,-181 352,-211 462,-211 462,-181 352,-181"/>
<text text-anchor="start" x="360" y="-199" font-family="FreeSans" font-size="10.00">boost::dynamic_bitset</text>
<text text-anchor="middle" x="407" y="-188" font-family="FreeSans" font-size="10.00">::num_blocks</text>
</a>
</g>
</g>
<!-- Node9&#45;&gt;Node10 -->
<g id="edge2" class="edge"><title>Node9&#45;&gt;Node10</title>
<path fill="none" stroke="midnightblue" d="M301.274,-196C314.322,-196 328.38,-196 341.831,-196"/>
<polygon fill="midnightblue" stroke="midnightblue" points="341.971,-199.5 351.971,-196 341.97,-192.5 341.971,-199.5"/>
</g>
</g>
</svg>
