<?xml version="1.0" encoding="UTF-8" standalone="no"?>
<!DOCTYPE svg PUBLIC "-//W3C//DTD SVG 1.1//EN"
 "http://www.w3.org/Graphics/SVG/1.1/DTD/svg11.dtd">
<!-- Generated by graphviz version 2.38.0 (20140413.2041)
 -->
<!-- Title: SeeSawN::AppPfMN::AppPfMImplementationC::SaveOutput Pages: 1 -->
<svg width="562pt" height="137pt"
 viewBox="0.00 0.00 562.00 137.00" xmlns="http://www.w3.org/2000/svg" xmlns:xlink="http://www.w3.org/1999/xlink">
<g id="graph0" class="graph" transform="scale(1 1) rotate(0) translate(4 133)">
<title>SeeSawN::AppPfMN::AppPfMImplementationC::SaveOutput</title>
<polygon fill="white" stroke="none" points="-4,4 -4,-133 558,-133 558,4 -4,4"/>
<!-- Node122 -->
<g id="node1" class="node"><title>Node122</title>
<polygon fill="#bfbfbf" stroke="black" points="0,-49.5 0,-79.5 215,-79.5 215,-49.5 0,-49.5"/>
<text text-anchor="start" x="8" y="-67.5" font-family="FreeSans" font-size="10.00">SeeSawN::AppPfMN::AppPfMImplementation</text>
<text text-anchor="middle" x="107.5" y="-56.5" font-family="FreeSans" font-size="10.00">C::SaveOutput</text>
</g>
<!-- Node123 -->
<g id="node2" class="node"><title>Node123</title>
<g id="a_node2"><a xlink:href="group__Elements.html#gaed97416c6eb370835de21c7c7d9942dd" target="_top" xlink:title="Composes a camera matrix. ">
<polygon fill="white" stroke="black" points="259.5,-98.5 259.5,-128.5 381.5,-128.5 381.5,-98.5 259.5,-98.5"/>
<text text-anchor="start" x="267.5" y="-116.5" font-family="FreeSans" font-size="10.00">SeeSawN::ElementsN</text>
<text text-anchor="middle" x="320.5" y="-105.5" font-family="FreeSans" font-size="10.00">::ComposeCameraMatrix</text>
</a>
</g>
</g>
<!-- Node122&#45;&gt;Node123 -->
<g id="edge1" class="edge"><title>Node122&#45;&gt;Node123</title>
<path fill="none" stroke="midnightblue" d="M173.241,-79.5346C197.304,-85.1226 224.709,-91.4869 249.242,-97.1842"/>
<polygon fill="midnightblue" stroke="midnightblue" points="248.67,-100.644 259.202,-99.4973 250.253,-93.8258 248.67,-100.644"/>
</g>
<!-- Node124 -->
<g id="node3" class="node"><title>Node124</title>
<g id="a_node3"><a xlink:href="group__Elements.html#ga55a635a974118036dd0778de74a63a82" target="_top" xlink:title="Decomposes a camera into its constituent elements. ">
<polygon fill="white" stroke="black" points="264,-49.5 264,-79.5 377,-79.5 377,-49.5 264,-49.5"/>
<text text-anchor="start" x="272" y="-67.5" font-family="FreeSans" font-size="10.00">SeeSawN::ElementsN</text>
<text text-anchor="middle" x="320.5" y="-56.5" font-family="FreeSans" font-size="10.00">::DecomposeCamera</text>
</a>
</g>
</g>
<!-- Node122&#45;&gt;Node124 -->
<g id="edge2" class="edge"><title>Node122&#45;&gt;Node124</title>
<path fill="none" stroke="midnightblue" d="M215.236,-64.5C228.413,-64.5 241.563,-64.5 253.866,-64.5"/>
<polygon fill="midnightblue" stroke="midnightblue" points="253.983,-68.0001 263.982,-64.5 253.982,-61.0001 253.983,-68.0001"/>
</g>
<!-- Node126 -->
<g id="node5" class="node"><title>Node126</title>
<g id="a_node5"><a xlink:href="classSeeSawN_1_1ION_1_1CameraIOC.html#a4759dcf917cf4b01f8a6e0855f8b1089" target="_top" xlink:title="Writes a camera range to a file. ">
<polygon fill="white" stroke="black" points="251,-0.5 251,-30.5 390,-30.5 390,-0.5 251,-0.5"/>
<text text-anchor="start" x="259" y="-18.5" font-family="FreeSans" font-size="10.00">SeeSawN::ION::CameraIOC</text>
<text text-anchor="middle" x="320.5" y="-7.5" font-family="FreeSans" font-size="10.00">::WriteCameraFile</text>
</a>
</g>
</g>
<!-- Node122&#45;&gt;Node126 -->
<g id="edge4" class="edge"><title>Node122&#45;&gt;Node126</title>
<path fill="none" stroke="midnightblue" d="M173.241,-49.4654C195.925,-44.1976 221.579,-38.2399 244.997,-32.8016"/>
<polygon fill="midnightblue" stroke="midnightblue" points="245.932,-36.1776 254.882,-30.5062 244.349,-29.3591 245.932,-36.1776"/>
</g>
<!-- Node125 -->
<g id="node4" class="node"><title>Node125</title>
<g id="a_node4"><a xlink:href="namespaceSeeSawN_1_1NumericN.html#a1de61a43a6f9cc9d3040f3850008e202" target="_top" xlink:title="SeeSawN::NumericN::\lRQDecomposition33">
<polygon fill="white" stroke="black" points="433,-49.5 433,-79.5 547,-79.5 547,-49.5 433,-49.5"/>
<text text-anchor="start" x="441" y="-67.5" font-family="FreeSans" font-size="10.00">SeeSawN::NumericN::</text>
<text text-anchor="middle" x="490" y="-56.5" font-family="FreeSans" font-size="10.00">RQDecomposition33</text>
</a>
</g>
</g>
<!-- Node124&#45;&gt;Node125 -->
<g id="edge3" class="edge"><title>Node124&#45;&gt;Node125</title>
<path fill="none" stroke="midnightblue" d="M377.275,-64.5C391.812,-64.5 407.619,-64.5 422.645,-64.5"/>
<polygon fill="midnightblue" stroke="midnightblue" points="422.897,-68.0001 432.897,-64.5 422.897,-61.0001 422.897,-68.0001"/>
</g>
<!-- Node127 -->
<g id="node6" class="node"><title>Node127</title>
<g id="a_node6"><a xlink:href="classSeeSawN_1_1ION_1_1ArrayIOC.html#aa793e397a91afe98f3a57b0e74011b12" target="_top" xlink:title="Writes an array into a file. ">
<polygon fill="white" stroke="black" points="426,-0.5 426,-30.5 554,-30.5 554,-0.5 426,-0.5"/>
<text text-anchor="start" x="434" y="-18.5" font-family="FreeSans" font-size="10.00">SeeSawN::ION::ArrayIOC</text>
<text text-anchor="middle" x="490" y="-7.5" font-family="FreeSans" font-size="10.00">::WriteArray</text>
</a>
</g>
</g>
<!-- Node126&#45;&gt;Node127 -->
<g id="edge5" class="edge"><title>Node126&#45;&gt;Node127</title>
<path fill="none" stroke="midnightblue" d="M390.112,-15.5C398.526,-15.5 407.151,-15.5 415.632,-15.5"/>
<polygon fill="midnightblue" stroke="midnightblue" points="415.882,-19.0001 425.881,-15.5 415.881,-12.0001 415.882,-19.0001"/>
</g>
</g>
</svg>
