<?xml version="1.0" encoding="UTF-8" standalone="no"?>
<!DOCTYPE svg PUBLIC "-//W3C//DTD SVG 1.1//EN"
 "http://www.w3.org/Graphics/SVG/1.1/DTD/svg11.dtd">
<!-- Generated by graphviz version 2.38.0 (20140413.2041)
 -->
<!-- Title: SeeSawN::AppGeometryEstimator32N::GeometryEstimator32ImplementationC::ComputeP2P Pages: 1 -->
<svg width="577pt" height="116pt"
 viewBox="0.00 0.00 577.00 115.50" xmlns="http://www.w3.org/2000/svg" xmlns:xlink="http://www.w3.org/1999/xlink">
<g id="graph0" class="graph" transform="scale(1 1) rotate(0) translate(4 111.5)">
<title>SeeSawN::AppGeometryEstimator32N::GeometryEstimator32ImplementationC::ComputeP2P</title>
<polygon fill="white" stroke="none" points="-4,4 -4,-111.5 573,-111.5 573,4 -4,4"/>
<!-- Node2 -->
<g id="node1" class="node"><title>Node2</title>
<polygon fill="#bfbfbf" stroke="black" points="0,-44 0,-85 189,-85 189,-44 0,-44"/>
<text text-anchor="start" x="8" y="-73" font-family="FreeSans" font-size="10.00">SeeSawN::AppGeometryEstimator32</text>
<text text-anchor="start" x="8" y="-62" font-family="FreeSans" font-size="10.00">N::GeometryEstimator32Implementation</text>
<text text-anchor="middle" x="94.5" y="-51" font-family="FreeSans" font-size="10.00">C::ComputeP2P</text>
</g>
<!-- Node3 -->
<g id="node2" class="node"><title>Node3</title>
<g id="a_node2"><a xlink:href="namespaceSeeSawN_1_1GeometryN.html#a7e330393b7063826de0885ca289e0865" target="_top" xlink:title="SeeSawN::GeometryN\l::MakeGeometryEstimationPipeline\lP2PProblem">
<polygon fill="white" stroke="black" points="402,-66 402,-107 569,-107 569,-66 402,-66"/>
<text text-anchor="start" x="410" y="-95" font-family="FreeSans" font-size="10.00">SeeSawN::GeometryN</text>
<text text-anchor="start" x="410" y="-84" font-family="FreeSans" font-size="10.00">::MakeGeometryEstimationPipeline</text>
<text text-anchor="middle" x="485.5" y="-73" font-family="FreeSans" font-size="10.00">P2PProblem</text>
</a>
</g>
</g>
<!-- Node2&#45;&gt;Node3 -->
<g id="edge1" class="edge"><title>Node2&#45;&gt;Node3</title>
<path fill="none" stroke="midnightblue" d="M189.266,-84.7799C201.243,-86.7271 213.375,-88.3882 225,-89.5 287.382,-95.4663 303.338,-90.2931 366,-89.5 374.357,-89.3942 383.044,-89.2465 391.746,-89.0729"/>
<polygon fill="midnightblue" stroke="midnightblue" points="392.027,-92.5678 401.951,-88.858 391.879,-85.5694 392.027,-92.5678"/>
</g>
<!-- Node4 -->
<g id="node3" class="node"><title>Node4</title>
<g id="a_node3"><a xlink:href="group__P2P.html#gab7a0ef34275614e52888d517696ec816" target="_top" xlink:title="Makes a PDL problem for 2&#45;point orientation estimation. ">
<polygon fill="white" stroke="black" points="236,-49.5 236,-79.5 355,-79.5 355,-49.5 236,-49.5"/>
<text text-anchor="start" x="244" y="-67.5" font-family="FreeSans" font-size="10.00">SeeSawN::GeometryN</text>
<text text-anchor="middle" x="295.5" y="-56.5" font-family="FreeSans" font-size="10.00">::MakePDLP2PProblem</text>
</a>
</g>
</g>
<!-- Node2&#45;&gt;Node4 -->
<g id="edge2" class="edge"><title>Node2&#45;&gt;Node4</title>
<path fill="none" stroke="midnightblue" d="M189.173,-64.5C201.492,-64.5 213.931,-64.5 225.73,-64.5"/>
<polygon fill="midnightblue" stroke="midnightblue" points="225.916,-68.0001 235.916,-64.5 225.916,-61.0001 225.916,-68.0001"/>
</g>
<!-- Node5 -->
<g id="node4" class="node"><title>Node5</title>
<g id="a_node4"><a xlink:href="group__P2P.html#ga00ab11f896763c58e61a621a9b50dc3b" target="_top" xlink:title="Makes a RANSAC problem for 2&#45;point orientation estimation. ">
<polygon fill="white" stroke="black" points="225,-0.5 225,-30.5 366,-30.5 366,-0.5 225,-0.5"/>
<text text-anchor="start" x="233" y="-18.5" font-family="FreeSans" font-size="10.00">SeeSawN::GeometryN</text>
<text text-anchor="middle" x="295.5" y="-7.5" font-family="FreeSans" font-size="10.00">::MakeRANSACP2PProblem</text>
</a>
</g>
</g>
<!-- Node2&#45;&gt;Node5 -->
<g id="edge4" class="edge"><title>Node2&#45;&gt;Node5</title>
<path fill="none" stroke="midnightblue" d="M179.029,-43.9326C193.893,-40.2725 209.246,-36.4922 223.713,-32.93"/>
<polygon fill="midnightblue" stroke="midnightblue" points="224.697,-36.2923 233.57,-30.5028 223.023,-29.4953 224.697,-36.2923"/>
</g>
<!-- Node4&#45;&gt;Node3 -->
<g id="edge3" class="edge"><title>Node4&#45;&gt;Node3</title>
<path fill="none" stroke="midnightblue" d="M355.211,-71.3704C366.858,-72.7333 379.35,-74.1952 391.811,-75.6534"/>
<polygon fill="midnightblue" stroke="midnightblue" points="391.442,-79.1341 401.781,-76.8202 392.256,-72.1815 391.442,-79.1341"/>
</g>
</g>
</svg>
