<?xml version="1.0" encoding="UTF-8" standalone="no"?>
<!DOCTYPE svg PUBLIC "-//W3C//DTD SVG 1.1//EN"
 "http://www.w3.org/Graphics/SVG/1.1/DTD/svg11.dtd">
<!-- Generated by graphviz version 2.38.0 (20140413.2041)
 -->
<!-- Title: SeeSawN::GeometryN::SfMPipelineC::AugmentPoseGraph Pages: 1 -->
<svg width="325pt" height="50pt"
 viewBox="0.00 0.00 325.00 50.00" xmlns="http://www.w3.org/2000/svg" xmlns:xlink="http://www.w3.org/1999/xlink">
<g id="graph0" class="graph" transform="scale(1 1) rotate(0) translate(4 46)">
<title>SeeSawN::GeometryN::SfMPipelineC::AugmentPoseGraph</title>
<polygon fill="white" stroke="none" points="-4,4 -4,-46 321,-46 321,4 -4,4"/>
<!-- Node2 -->
<g id="node1" class="node"><title>Node2</title>
<polygon fill="#bfbfbf" stroke="black" points="0,-0.5 0,-41.5 146,-41.5 146,-0.5 0,-0.5"/>
<text text-anchor="start" x="8" y="-29.5" font-family="FreeSans" font-size="10.00">SeeSawN::GeometryN</text>
<text text-anchor="start" x="8" y="-18.5" font-family="FreeSans" font-size="10.00">::SfMPipelineC::AugmentPose</text>
<text text-anchor="middle" x="73" y="-7.5" font-family="FreeSans" font-size="10.00">Graph</text>
</g>
<!-- Node3 -->
<g id="node2" class="node"><title>Node3</title>
<g id="a_node2"><a xlink:href="classSeeSawN_1_1GeometryN_1_1SfMPipelineC.html#a3d4c0ab3f10766c01750a66313fefa78" target="_top" xlink:title="Makes a pose graph from an edge list. ">
<polygon fill="white" stroke="black" points="182,-6 182,-36 317,-36 317,-6 182,-6"/>
<text text-anchor="start" x="190" y="-24" font-family="FreeSans" font-size="10.00">SeeSawN::GeometryN</text>
<text text-anchor="middle" x="249.5" y="-13" font-family="FreeSans" font-size="10.00">::SfMPipelineC::MakeGraph</text>
</a>
</g>
</g>
<!-- Node2&#45;&gt;Node3 -->
<g id="edge1" class="edge"><title>Node2&#45;&gt;Node3</title>
<path fill="none" stroke="midnightblue" d="M146.235,-21C154.634,-21 163.225,-21 171.683,-21"/>
<polygon fill="midnightblue" stroke="midnightblue" points="171.912,-24.5001 181.912,-21 171.912,-17.5001 171.912,-24.5001"/>
</g>
</g>
</svg>
