<?xml version="1.0" encoding="UTF-8" standalone="no"?>
<!DOCTYPE svg PUBLIC "-//W3C//DTD SVG 1.1//EN"
 "http://www.w3.org/Graphics/SVG/1.1/DTD/svg11.dtd">
<!-- Generated by graphviz version 2.38.0 (20140413.2041)
 -->
<!-- Title: SeeSawN::StateEstimationN::KFSimpleProblemBaseC&lt; DIMS, DIMM, RealT &gt; Pages: 1 -->
<svg width="355pt" height="772pt"
 viewBox="0.00 0.00 354.50 772.00" xmlns="http://www.w3.org/2000/svg" xmlns:xlink="http://www.w3.org/1999/xlink">
<g id="graph0" class="graph" transform="scale(1 1) rotate(0) translate(4 768)">
<title>SeeSawN::StateEstimationN::KFSimpleProblemBaseC&lt; DIMS, DIMM, RealT &gt;</title>
<polygon fill="white" stroke="none" points="-4,4 -4,-768 350.5,-768 350.5,4 -4,4"/>
<!-- Node0 -->
<g id="node1" class="node"><title>Node0</title>
<polygon fill="#bfbfbf" stroke="black" points="98.5,-541.5 98.5,-763.5 250.5,-763.5 250.5,-541.5 98.5,-541.5"/>
<text text-anchor="start" x="106.5" y="-751.5" font-family="FreeSans" font-size="10.00">SeeSawN::StateEstimation</text>
<text text-anchor="start" x="106.5" y="-740.5" font-family="FreeSans" font-size="10.00">N::KFSimpleProblemBaseC</text>
<text text-anchor="middle" x="174.5" y="-729.5" font-family="FreeSans" font-size="10.00">&lt; DIMS, DIMM, RealT &gt;</text>
<polyline fill="none" stroke="black" points="98.5,-722.5 250.5,-722.5 "/>
<text text-anchor="middle" x="174.5" y="-710.5" font-family="FreeSans" font-size="10.00"> </text>
<polyline fill="none" stroke="black" points="98.5,-703.5 250.5,-703.5 "/>
<text text-anchor="start" x="106.5" y="-691.5" font-family="FreeSans" font-size="10.00">* state_type</text>
<text text-anchor="start" x="106.5" y="-680.5" font-family="FreeSans" font-size="10.00">* state_vector_type</text>
<text text-anchor="start" x="106.5" y="-669.5" font-family="FreeSans" font-size="10.00">* state_covariance_type</text>
<text text-anchor="start" x="106.5" y="-658.5" font-family="FreeSans" font-size="10.00">* measurement_type</text>
<text text-anchor="start" x="106.5" y="-647.5" font-family="FreeSans" font-size="10.00">* propagation_jacobian_type</text>
<text text-anchor="start" x="106.5" y="-636.5" font-family="FreeSans" font-size="10.00">* measurement_jacobian_type</text>
<text text-anchor="start" x="106.5" y="-625.5" font-family="FreeSans" font-size="10.00">* innovation_vector_type</text>
<text text-anchor="start" x="106.5" y="-614.5" font-family="FreeSans" font-size="10.00">* innovation_covariance_type</text>
<text text-anchor="start" x="106.5" y="-603.5" font-family="FreeSans" font-size="10.00">* GetStateMean()</text>
<text text-anchor="start" x="106.5" y="-592.5" font-family="FreeSans" font-size="10.00">* GetStateCovariance()</text>
<text text-anchor="start" x="106.5" y="-581.5" font-family="FreeSans" font-size="10.00">* GetMeasurementCovariance()</text>
<text text-anchor="start" x="106.5" y="-570.5" font-family="FreeSans" font-size="10.00">* ComputeInnovationVector()</text>
<text text-anchor="start" x="106.5" y="-559.5" font-family="FreeSans" font-size="10.00">* Update()</text>
<text text-anchor="start" x="106.5" y="-548.5" font-family="FreeSans" font-size="10.00">* IsValid()</text>
</g>
<!-- Node1 -->
<g id="node2" class="node"><title>Node1</title>
<g id="a_node2"><a xlink:href="classSeeSawN_1_1StateEstimationN_1_1KFSimpleProblemBaseC.html" target="_top" xlink:title="{SeeSawN::StateEstimation\lN::KFSimpleProblemBaseC\l\&lt; RowsM\&lt; VectorT \&gt;::value,\l RowsM\&lt; VectorT \&gt;::value,\l ValueTypeM\&lt; VectorT \&gt;::type \&gt;\n||* state_type\l* state_vector_type\l* state_covariance_type\l* measurement_type\l* propagation_jacobian_type\l* measurement_jacobian_type\l* innovation_vector_type\l* innovation_covariance_type\l* GetStateMean()\l* GetStateCovariance()\l* GetMeasurementCovariance()\l* ComputeInnovationVector()\l* Update()\l* IsValid()\l}">
<polygon fill="white" stroke="black" points="5,-216.5 5,-460.5 160,-460.5 160,-216.5 5,-216.5"/>
<text text-anchor="start" x="13" y="-448.5" font-family="FreeSans" font-size="10.00">SeeSawN::StateEstimation</text>
<text text-anchor="start" x="13" y="-437.5" font-family="FreeSans" font-size="10.00">N::KFSimpleProblemBaseC</text>
<text text-anchor="start" x="13" y="-426.5" font-family="FreeSans" font-size="10.00">&lt; RowsM&lt; VectorT &gt;::value,</text>
<text text-anchor="start" x="13" y="-415.5" font-family="FreeSans" font-size="10.00"> RowsM&lt; VectorT &gt;::value,</text>
<text text-anchor="middle" x="82.5" y="-404.5" font-family="FreeSans" font-size="10.00"> ValueTypeM&lt; VectorT &gt;::type &gt;</text>
<polyline fill="none" stroke="black" points="5,-397.5 160,-397.5 "/>
<text text-anchor="middle" x="82.5" y="-385.5" font-family="FreeSans" font-size="10.00"> </text>
<polyline fill="none" stroke="black" points="5,-378.5 160,-378.5 "/>
<text text-anchor="start" x="13" y="-366.5" font-family="FreeSans" font-size="10.00">* state_type</text>
<text text-anchor="start" x="13" y="-355.5" font-family="FreeSans" font-size="10.00">* state_vector_type</text>
<text text-anchor="start" x="13" y="-344.5" font-family="FreeSans" font-size="10.00">* state_covariance_type</text>
<text text-anchor="start" x="13" y="-333.5" font-family="FreeSans" font-size="10.00">* measurement_type</text>
<text text-anchor="start" x="13" y="-322.5" font-family="FreeSans" font-size="10.00">* propagation_jacobian_type</text>
<text text-anchor="start" x="13" y="-311.5" font-family="FreeSans" font-size="10.00">* measurement_jacobian_type</text>
<text text-anchor="start" x="13" y="-300.5" font-family="FreeSans" font-size="10.00">* innovation_vector_type</text>
<text text-anchor="start" x="13" y="-289.5" font-family="FreeSans" font-size="10.00">* innovation_covariance_type</text>
<text text-anchor="start" x="13" y="-278.5" font-family="FreeSans" font-size="10.00">* GetStateMean()</text>
<text text-anchor="start" x="13" y="-267.5" font-family="FreeSans" font-size="10.00">* GetStateCovariance()</text>
<text text-anchor="start" x="13" y="-256.5" font-family="FreeSans" font-size="10.00">* GetMeasurementCovariance()</text>
<text text-anchor="start" x="13" y="-245.5" font-family="FreeSans" font-size="10.00">* ComputeInnovationVector()</text>
<text text-anchor="start" x="13" y="-234.5" font-family="FreeSans" font-size="10.00">* Update()</text>
<text text-anchor="start" x="13" y="-223.5" font-family="FreeSans" font-size="10.00">* IsValid()</text>
</a>
</g>
</g>
<!-- Node0&#45;&gt;Node1 -->
<g id="edge1" class="edge"><title>Node0&#45;&gt;Node1</title>
<path fill="none" stroke="orange" d="M106.52,-531.84C105.449,-528.889 104.44,-525.94 103.5,-523 97.2032,-503.3 92.7463,-481.878 89.6019,-460.852"/>
<polygon fill="orange" stroke="orange" points="103.286,-533.182 110.138,-541.263 109.821,-530.673 103.286,-533.182"/>
<text text-anchor="start" x="103.5" y="-515" font-family="FreeSans" font-size="10.00"> &lt; RowsM&lt; VectorT &gt;</text>
<text text-anchor="start" x="103.5" y="-504" font-family="FreeSans" font-size="10.00">::value, RowsM&lt; VectorT</text>
<text text-anchor="start" x="103.5" y="-493" font-family="FreeSans" font-size="10.00"> &gt;::value, ValueTypeM&lt;</text>
<text text-anchor="middle" x="158" y="-482" font-family="FreeSans" font-size="10.00"> VectorT &gt;::type &gt;</text>
</g>
<!-- Node3 -->
<g id="node4" class="node"><title>Node3</title>
<g id="a_node4"><a xlink:href="classSeeSawN_1_1StateEstimationN_1_1KFSimpleProblemBaseC.html" target="_top" xlink:title="{SeeSawN::StateEstimation\lN::KFSimpleProblemBaseC\l\&lt; 2 *DIMM, DIMM, RealT \&gt;\n||* state_type\l* state_vector_type\l* state_covariance_type\l* measurement_type\l* propagation_jacobian_type\l* measurement_jacobian_type\l* innovation_vector_type\l* innovation_covariance_type\l* GetStateMean()\l* GetStateCovariance()\l* GetMeasurementCovariance()\l* ComputeInnovationVector()\l* Update()\l* IsValid()\l}">
<polygon fill="white" stroke="black" points="181.5,-227.5 181.5,-449.5 333.5,-449.5 333.5,-227.5 181.5,-227.5"/>
<text text-anchor="start" x="189.5" y="-437.5" font-family="FreeSans" font-size="10.00">SeeSawN::StateEstimation</text>
<text text-anchor="start" x="189.5" y="-426.5" font-family="FreeSans" font-size="10.00">N::KFSimpleProblemBaseC</text>
<text text-anchor="middle" x="257.5" y="-415.5" font-family="FreeSans" font-size="10.00">&lt; 2 *DIMM, DIMM, RealT &gt;</text>
<polyline fill="none" stroke="black" points="181.5,-408.5 333.5,-408.5 "/>
<text text-anchor="middle" x="257.5" y="-396.5" font-family="FreeSans" font-size="10.00"> </text>
<polyline fill="none" stroke="black" points="181.5,-389.5 333.5,-389.5 "/>
<text text-anchor="start" x="189.5" y="-377.5" font-family="FreeSans" font-size="10.00">* state_type</text>
<text text-anchor="start" x="189.5" y="-366.5" font-family="FreeSans" font-size="10.00">* state_vector_type</text>
<text text-anchor="start" x="189.5" y="-355.5" font-family="FreeSans" font-size="10.00">* state_covariance_type</text>
<text text-anchor="start" x="189.5" y="-344.5" font-family="FreeSans" font-size="10.00">* measurement_type</text>
<text text-anchor="start" x="189.5" y="-333.5" font-family="FreeSans" font-size="10.00">* propagation_jacobian_type</text>
<text text-anchor="start" x="189.5" y="-322.5" font-family="FreeSans" font-size="10.00">* measurement_jacobian_type</text>
<text text-anchor="start" x="189.5" y="-311.5" font-family="FreeSans" font-size="10.00">* innovation_vector_type</text>
<text text-anchor="start" x="189.5" y="-300.5" font-family="FreeSans" font-size="10.00">* innovation_covariance_type</text>
<text text-anchor="start" x="189.5" y="-289.5" font-family="FreeSans" font-size="10.00">* GetStateMean()</text>
<text text-anchor="start" x="189.5" y="-278.5" font-family="FreeSans" font-size="10.00">* GetStateCovariance()</text>
<text text-anchor="start" x="189.5" y="-267.5" font-family="FreeSans" font-size="10.00">* GetMeasurementCovariance()</text>
<text text-anchor="start" x="189.5" y="-256.5" font-family="FreeSans" font-size="10.00">* ComputeInnovationVector()</text>
<text text-anchor="start" x="189.5" y="-245.5" font-family="FreeSans" font-size="10.00">* Update()</text>
<text text-anchor="start" x="189.5" y="-234.5" font-family="FreeSans" font-size="10.00">* IsValid()</text>
</a>
</g>
</g>
<!-- Node0&#45;&gt;Node3 -->
<g id="edge3" class="edge"><title>Node0&#45;&gt;Node3</title>
<path fill="none" stroke="orange" d="M214.117,-531.514C214.933,-528.653 215.728,-525.811 216.5,-523 222.98,-499.391 229.182,-473.865 234.713,-449.572"/>
<polygon fill="orange" stroke="orange" points="210.701,-530.728 211.274,-541.307 217.424,-532.679 210.701,-530.728"/>
<text text-anchor="middle" x="287" y="-498.5" font-family="FreeSans" font-size="10.00"> &lt; 2 *DIMM, DIMM, RealT &gt;</text>
</g>
<!-- Node2 -->
<g id="node3" class="node"><title>Node2</title>
<g id="a_node3"><a xlink:href="classSeeSawN_1_1StateEstimationN_1_1KFVectorMeasurementFusionProblemC.html" target="_top" xlink:title="Kalman filter problem for fusing a set of vector measurements. ">
<polygon fill="white" stroke="black" points="0,-0.5 0,-178.5 161,-178.5 161,-0.5 0,-0.5"/>
<text text-anchor="start" x="8" y="-166.5" font-family="FreeSans" font-size="10.00">SeeSawN::StateEstimation</text>
<text text-anchor="start" x="8" y="-155.5" font-family="FreeSans" font-size="10.00">N::KFVectorMeasurementFusion</text>
<text text-anchor="middle" x="80.5" y="-144.5" font-family="FreeSans" font-size="10.00">ProblemC&lt; VectorT &gt;</text>
<polyline fill="none" stroke="black" points="0,-137.5 161,-137.5 "/>
<text text-anchor="middle" x="80.5" y="-125.5" font-family="FreeSans" font-size="10.00"> </text>
<polyline fill="none" stroke="black" points="0,-118.5 161,-118.5 "/>
<text text-anchor="start" x="8" y="-106.5" font-family="FreeSans" font-size="10.00">+ PropagateStateMean()</text>
<text text-anchor="start" x="8" y="-95.5" font-family="FreeSans" font-size="10.00">+ ComputePropagationJacobian()</text>
<text text-anchor="start" x="8" y="-84.5" font-family="FreeSans" font-size="10.00">+ PredictMeasurement()</text>
<text text-anchor="start" x="8" y="-73.5" font-family="FreeSans" font-size="10.00">+ ComputeMeasurementFunction</text>
<text text-anchor="start" x="8" y="-62.5" font-family="FreeSans" font-size="10.00">Jacobian()</text>
<text text-anchor="start" x="8" y="-51.5" font-family="FreeSans" font-size="10.00">* PropagateStateMean()</text>
<text text-anchor="start" x="8" y="-40.5" font-family="FreeSans" font-size="10.00">* ComputePropagationJacobian()</text>
<text text-anchor="start" x="8" y="-29.5" font-family="FreeSans" font-size="10.00">* PredictMeasurement()</text>
<text text-anchor="start" x="8" y="-18.5" font-family="FreeSans" font-size="10.00">* ComputeMeasurementFunction</text>
<text text-anchor="start" x="8" y="-7.5" font-family="FreeSans" font-size="10.00">Jacobian()</text>
</a>
</g>
</g>
<!-- Node1&#45;&gt;Node2 -->
<g id="edge2" class="edge"><title>Node1&#45;&gt;Node2</title>
<path fill="none" stroke="midnightblue" d="M81.4357,-206.063C81.3604,-196.761 81.2856,-187.52 81.213,-178.55"/>
<polygon fill="none" stroke="midnightblue" points="77.9366,-206.2 81.5176,-216.171 84.9364,-206.143 77.9366,-206.2"/>
</g>
<!-- Node4 -->
<g id="node5" class="node"><title>Node4</title>
<g id="a_node5"><a xlink:href="classSeeSawN_1_1StateEstimationN_1_1KFFeatureTrackingProblemC.html" target="_top" xlink:title="Kalman filter problem for feature tracking. ">
<polygon fill="white" stroke="black" points="179.5,-28 179.5,-151 337.5,-151 337.5,-28 179.5,-28"/>
<text text-anchor="start" x="187.5" y="-139" font-family="FreeSans" font-size="10.00">SeeSawN::StateEstimation</text>
<text text-anchor="start" x="187.5" y="-128" font-family="FreeSans" font-size="10.00">N::KFFeatureTrackingProblemC</text>
<text text-anchor="middle" x="258.5" y="-117" font-family="FreeSans" font-size="10.00">&lt; DIMM, RealT &gt;</text>
<polyline fill="none" stroke="black" points="179.5,-110 337.5,-110 "/>
<text text-anchor="middle" x="258.5" y="-98" font-family="FreeSans" font-size="10.00"> </text>
<polyline fill="none" stroke="black" points="179.5,-91 337.5,-91 "/>
<text text-anchor="start" x="187.5" y="-79" font-family="FreeSans" font-size="10.00">* PropagateStateMean()</text>
<text text-anchor="start" x="187.5" y="-68" font-family="FreeSans" font-size="10.00">* ComputePropagationJacobian()</text>
<text text-anchor="start" x="187.5" y="-57" font-family="FreeSans" font-size="10.00">* PredictMeasurement()</text>
<text text-anchor="start" x="187.5" y="-46" font-family="FreeSans" font-size="10.00">* ComputeMeasurementFunction</text>
<text text-anchor="start" x="187.5" y="-35" font-family="FreeSans" font-size="10.00">Jacobian()</text>
</a>
</g>
</g>
<!-- Node3&#45;&gt;Node4 -->
<g id="edge4" class="edge"><title>Node3&#45;&gt;Node4</title>
<path fill="none" stroke="midnightblue" d="M257.987,-217.185C258.08,-194.211 258.174,-171.09 258.255,-151.005"/>
<polygon fill="none" stroke="midnightblue" points="254.487,-217.35 257.946,-227.364 261.486,-217.378 254.487,-217.35"/>
</g>
</g>
</svg>
