<?xml version="1.0" encoding="UTF-8" standalone="no"?>
<!DOCTYPE svg PUBLIC "-//W3C//DTD SVG 1.1//EN"
 "http://www.w3.org/Graphics/SVG/1.1/DTD/svg11.dtd">
<!-- Generated by graphviz version 2.38.0 (20140413.2041)
 -->
<!-- Title: boost::dynamic_bitset::resize Pages: 1 -->
<!--zoomable 461 -->
<svg id="main" version="1.1" xmlns="http://www.w3.org/2000/svg" xmlns:xlink="http://www.w3.org/1999/xlink" xml:space="preserve" onload="init(evt)">
<style type="text/css"><![CDATA[
.edge:hover path { stroke: red; }
.edge:hover polygon { stroke: red; fill: red; }
]]></style>
<script type="text/javascript"><![CDATA[
var edges = document.getElementsByTagName('g');
if (edges && edges.length) {
  for (var i=0;i<edges.length;i++) {
    if (edges[i].id.substr(0,4)=='edge') {
      edges[i].setAttribute('class','edge');
    }
  }
}
]]></script>
        <defs>
                <circle id="rim" cx="0" cy="0" r="7"/>
                <circle id="rim2" cx="0" cy="0" r="3.5"/>
                <g id="zoomPlus">
                        <use xlink:href="#rim" fill="#404040">
                                <set attributeName="fill" to="#808080" begin="zoomplus.mouseover" end="zoomplus.mouseout"/>
                        </use>
                        <path d="M-4,0h8M0,-4v8" fill="none" stroke="white" stroke-width="1.5" pointer-events="none"/>
                </g>
                <g id="zoomMin">
                        <use xlink:href="#rim" fill="#404040">
                                <set attributeName="fill" to="#808080" begin="zoomminus.mouseover" end="zoomminus.mouseout"/>
                        </use>
                        <path d="M-4,0h8" fill="none" stroke="white" stroke-width="1.5" pointer-events="none"/>
                </g>
                <g id="dirArrow">
                        <path fill="none" stroke="white" stroke-width="1.5" d="M0,-3.0v7 M-2.5,-0.5L0,-3.0L2.5,-0.5"/>
                </g>
               <g id="resetDef">
                       <use xlink:href="#rim2" fill="#404040">
                               <set attributeName="fill" to="#808080" begin="reset.mouseover" end="reset.mouseout"/>
                       </use>
               </g>
        </defs>

<script type="text/javascript">
var viewWidth = 1140;
var viewHeight = 461;
var sectionId = 'dynsection-93';
</script>
<script xlink:href="svgpan.js"/>
<svg id="graph" class="graph">
<g id="viewport">
<title>boost::dynamic_bitset::resize</title>
<polygon fill="white" stroke="none" points="-4,4 -4,-457 1136,-457 1136,4 -4,4"/>
<!-- Node931 -->
<g id="node1" class="node"><title>Node931</title>
<polygon fill="#bfbfbf" stroke="black" points="0,-165 0,-195 110,-195 110,-165 0,-165"/>
<text text-anchor="start" x="8" y="-183" font-family="FreeSans" font-size="10.00">boost::dynamic_bitset</text>
<text text-anchor="middle" x="55" y="-172" font-family="FreeSans" font-size="10.00">::resize</text>
</g>
<!-- Node932 -->
<g id="node2" class="node"><title>Node932</title>
<g id="a_node2"><a xlink:href="classboost_1_1dynamic__bitset.html#a8a05876109fd0b3e819a6347541d2f81" target="_top" xlink:title="boost::dynamic_bitset\l::calc_num_blocks">
<polygon fill="white" stroke="black" points="876,-318 876,-348 986,-348 986,-318 876,-318"/>
<text text-anchor="start" x="884" y="-336" font-family="FreeSans" font-size="10.00">boost::dynamic_bitset</text>
<text text-anchor="middle" x="931" y="-325" font-family="FreeSans" font-size="10.00">::calc_num_blocks</text>
</a>
</g>
</g>
<!-- Node931&#45;&gt;Node932 -->
<g id="edge1" class="edge"><title>Node931&#45;&gt;Node932</title>
<path fill="none" stroke="midnightblue" d="M64.5616,-195.058C95.2931,-246.925 205.702,-415 346,-415 346,-415 346,-415 640,-415 731.805,-415 834,-376.478 889.214,-352.24"/>
<polygon fill="midnightblue" stroke="midnightblue" points="890.929,-355.307 898.638,-348.04 888.079,-348.914 890.929,-355.307"/>
</g>
<!-- Node933 -->
<g id="node3" class="node"><title>Node933</title>
<g id="a_node3"><a xlink:href="classboost_1_1dynamic__bitset.html#ade408c6a85af4180fa461013154b186f" target="_top" xlink:title="boost::dynamic_bitset\l::clear">
<polygon fill="white" stroke="black" points="146,-187 146,-217 256,-217 256,-187 146,-187"/>
<text text-anchor="start" x="154" y="-205" font-family="FreeSans" font-size="10.00">boost::dynamic_bitset</text>
<text text-anchor="middle" x="201" y="-194" font-family="FreeSans" font-size="10.00">::clear</text>
</a>
</g>
</g>
<!-- Node931&#45;&gt;Node933 -->
<g id="edge2" class="edge"><title>Node931&#45;&gt;Node933</title>
<path fill="none" stroke="midnightblue" d="M110.03,-188.255C118.405,-189.534 127.126,-190.866 135.7,-192.176"/>
<polygon fill="midnightblue" stroke="midnightblue" points="135.253,-195.649 145.667,-193.699 136.311,-188.729 135.253,-195.649"/>
</g>
<!-- Node937 -->
<g id="node7" class="node"><title>Node937</title>
<g id="a_node7"><a xlink:href="classboost_1_1dynamic__bitset.html#a679e42842085d69a4b430f9a3d8a7eb5" target="_top" xlink:title="boost::dynamic_bitset\l::count_extra_bits">
<polygon fill="white" stroke="black" points="876,-181 876,-211 986,-211 986,-181 876,-181"/>
<text text-anchor="start" x="884" y="-199" font-family="FreeSans" font-size="10.00">boost::dynamic_bitset</text>
<text text-anchor="middle" x="931" y="-188" font-family="FreeSans" font-size="10.00">::count_extra_bits</text>
</a>
</g>
</g>
<!-- Node931&#45;&gt;Node937 -->
<g id="edge27" class="edge"><title>Node931&#45;&gt;Node937</title>
<path fill="none" stroke="midnightblue" d="M80.1566,-164.878C128.615,-136.033 241.968,-76 346,-76 346,-76 346,-76 640,-76 732.428,-76 756.541,-93.2817 840,-133 863.236,-144.058 886.979,-160.96 904.24,-174.474"/>
<polygon fill="midnightblue" stroke="midnightblue" points="902.163,-177.294 912.162,-180.795 906.529,-171.822 902.163,-177.294"/>
</g>
<!-- Node942 -->
<g id="node12" class="node"><title>Node942</title>
<g id="a_node12"><a xlink:href="classboost_1_1dynamic__bitset.html#adfa9723501c60abf84b9e801d3cf4d1f" target="_top" xlink:title="boost::dynamic_bitset\l::num_blocks">
<polygon fill="white" stroke="black" points="876,-99 876,-129 986,-129 986,-99 876,-99"/>
<text text-anchor="start" x="884" y="-117" font-family="FreeSans" font-size="10.00">boost::dynamic_bitset</text>
<text text-anchor="middle" x="931" y="-106" font-family="FreeSans" font-size="10.00">::num_blocks</text>
</a>
</g>
</g>
<!-- Node931&#45;&gt;Node942 -->
<g id="edge29" class="edge"><title>Node931&#45;&gt;Node942</title>
<path fill="none" stroke="midnightblue" d="M66.9872,-164.997C82.5929,-144.574 112.974,-107.942 146,-85 225.322,-29.8967 249.416,-0 346,-0 346,-0 346,-0 640,-0 740.791,-0 848.479,-60.3828 899.638,-93.2568"/>
<polygon fill="midnightblue" stroke="midnightblue" points="897.941,-96.3283 908.228,-98.8617 901.766,-90.4659 897.941,-96.3283"/>
</g>
<!-- Node944 -->
<g id="node14" class="node"><title>Node944</title>
<g id="a_node14"><a xlink:href="classboost_1_1dynamic__bitset.html#af9989de5e8259d9a99aac3dd4687c8e0" target="_top" xlink:title="boost::dynamic_bitset\l::m_zero_unused_bits">
<polygon fill="white" stroke="black" points="730,-143 730,-173 840,-173 840,-143 730,-143"/>
<text text-anchor="start" x="738" y="-161" font-family="FreeSans" font-size="10.00">boost::dynamic_bitset</text>
<text text-anchor="middle" x="785" y="-150" font-family="FreeSans" font-size="10.00">::m_zero_unused_bits</text>
</a>
</g>
</g>
<!-- Node931&#45;&gt;Node944 -->
<g id="edge28" class="edge"><title>Node931&#45;&gt;Node944</title>
<path fill="none" stroke="midnightblue" d="M110.157,-173.429C168.342,-166.946 263.572,-158 346,-158 346,-158 346,-158 494,-158 571.536,-158 660.734,-158 719.502,-158"/>
<polygon fill="midnightblue" stroke="midnightblue" points="719.75,-161.5 729.75,-158 719.75,-154.5 719.75,-161.5"/>
</g>
<!-- Node934 -->
<g id="node4" class="node"><title>Node934</title>
<g id="a_node4"><a xlink:href="classboost_1_1dynamic__bitset.html#a35743351df1df3444117da89c31cc700" target="_top" xlink:title="boost::dynamic_bitset\l::push_back">
<polygon fill="white" stroke="black" points="292,-231 292,-261 402,-261 402,-231 292,-231"/>
<text text-anchor="start" x="300" y="-249" font-family="FreeSans" font-size="10.00">boost::dynamic_bitset</text>
<text text-anchor="middle" x="347" y="-238" font-family="FreeSans" font-size="10.00">::push_back</text>
</a>
</g>
</g>
<!-- Node933&#45;&gt;Node934 -->
<g id="edge3" class="edge"><title>Node933&#45;&gt;Node934</title>
<path fill="none" stroke="midnightblue" d="M251.154,-217.019C262.611,-220.52 274.93,-224.284 286.772,-227.903"/>
<polygon fill="midnightblue" stroke="midnightblue" points="285.992,-231.324 296.579,-230.899 288.038,-224.63 285.992,-231.324"/>
</g>
<!-- Node934&#45;&gt;Node931 -->
<g id="edge25" class="edge"><title>Node934&#45;&gt;Node931</title>
<path fill="none" stroke="midnightblue" d="M291.907,-245.994C251.065,-244.704 194.04,-240.131 146,-226 125.83,-220.067 104.826,-209.612 88.1873,-200.167"/>
<polygon fill="midnightblue" stroke="midnightblue" points="89.8273,-197.071 79.4254,-195.058 86.3016,-203.119 89.8273,-197.071"/>
</g>
<!-- Node935 -->
<g id="node5" class="node"><title>Node935</title>
<g id="a_node5"><a xlink:href="classboost_1_1dynamic__bitset.html#a8855f645c5e6ce6686a7062637b0d225" target="_top" xlink:title="boost::dynamic_bitset\l::pop_back">
<polygon fill="white" stroke="black" points="438,-231 438,-261 548,-261 548,-231 438,-231"/>
<text text-anchor="start" x="446" y="-249" font-family="FreeSans" font-size="10.00">boost::dynamic_bitset</text>
<text text-anchor="middle" x="493" y="-238" font-family="FreeSans" font-size="10.00">::pop_back</text>
</a>
</g>
</g>
<!-- Node934&#45;&gt;Node935 -->
<g id="edge4" class="edge"><title>Node934&#45;&gt;Node935</title>
<path fill="none" stroke="midnightblue" d="M402.03,-246C410.314,-246 418.936,-246 427.42,-246"/>
<polygon fill="midnightblue" stroke="midnightblue" points="427.667,-249.5 437.667,-246 427.667,-242.5 427.667,-249.5"/>
</g>
<!-- Node939 -->
<g id="node9" class="node"><title>Node939</title>
<g id="a_node9"><a xlink:href="classboost_1_1dynamic__bitset.html#a20ecab6a6b9c1e154e5def4aebc4247d" target="_top" xlink:title="boost::dynamic_bitset\l::size">
<polygon fill="white" stroke="black" points="1022,-318 1022,-348 1132,-348 1132,-318 1022,-318"/>
<text text-anchor="start" x="1030" y="-336" font-family="FreeSans" font-size="10.00">boost::dynamic_bitset</text>
<text text-anchor="middle" x="1077" y="-325" font-family="FreeSans" font-size="10.00">::size</text>
</a>
</g>
</g>
<!-- Node934&#45;&gt;Node939 -->
<g id="edge26" class="edge"><title>Node934&#45;&gt;Node939</title>
<path fill="none" stroke="midnightblue" d="M358.405,-261.221C392.446,-309.025 505.934,-453 638,-453 638,-453 638,-453 786,-453 888.288,-453 996.505,-388.47 1046.95,-354.052"/>
<polygon fill="midnightblue" stroke="midnightblue" points="1049.17,-356.77 1055.4,-348.198 1045.18,-351.017 1049.17,-356.77"/>
</g>
<!-- Node935&#45;&gt;Node932 -->
<g id="edge18" class="edge"><title>Node935&#45;&gt;Node932</title>
<path fill="none" stroke="midnightblue" d="M532.97,-261.098C579.199,-278.29 658.967,-305.712 730,-319 774.85,-327.39 826.21,-330.859 865.653,-332.246"/>
<polygon fill="midnightblue" stroke="midnightblue" points="865.564,-335.745 875.67,-332.563 865.786,-328.748 865.564,-335.745"/>
</g>
<!-- Node936 -->
<g id="node6" class="node"><title>Node936</title>
<g id="a_node6"><a xlink:href="classboost_1_1dynamic__bitset.html#a8b3c31fc3832efe37866827cdfe847a8" target="_top" xlink:title="boost::dynamic_bitset\l::append">
<polygon fill="white" stroke="black" points="584,-234 584,-264 694,-264 694,-234 584,-234"/>
<text text-anchor="start" x="592" y="-252" font-family="FreeSans" font-size="10.00">boost::dynamic_bitset</text>
<text text-anchor="middle" x="639" y="-241" font-family="FreeSans" font-size="10.00">::append</text>
</a>
</g>
</g>
<!-- Node935&#45;&gt;Node936 -->
<g id="edge5" class="edge"><title>Node935&#45;&gt;Node936</title>
<path fill="none" stroke="midnightblue" d="M548.03,-247.126C556.314,-247.298 564.936,-247.478 573.42,-247.655"/>
<polygon fill="midnightblue" stroke="midnightblue" points="573.596,-251.159 583.667,-247.868 573.742,-244.16 573.596,-251.159"/>
</g>
<!-- Node935&#45;&gt;Node942 -->
<g id="edge24" class="edge"><title>Node935&#45;&gt;Node942</title>
<path fill="none" stroke="midnightblue" d="M510.997,-230.775C547.694,-199.111 638.45,-127.181 730,-104 774.335,-92.7744 825.916,-95.7261 865.59,-101.249"/>
<polygon fill="midnightblue" stroke="midnightblue" points="865.263,-104.739 875.668,-102.742 866.289,-97.8142 865.263,-104.739"/>
</g>
<!-- Node935&#45;&gt;Node944 -->
<g id="edge19" class="edge"><title>Node935&#45;&gt;Node944</title>
<path fill="none" stroke="midnightblue" d="M543.523,-230.972C593.628,-215.768 671.112,-192.256 724.516,-176.05"/>
<polygon fill="midnightblue" stroke="midnightblue" points="725.643,-179.366 734.196,-173.113 723.61,-172.668 725.643,-179.366"/>
</g>
<!-- Node936&#45;&gt;Node937 -->
<g id="edge6" class="edge"><title>Node936&#45;&gt;Node937</title>
<path fill="none" stroke="midnightblue" d="M694.132,-248.227C734.746,-246.664 791.463,-242.381 840,-231 856.201,-227.201 873.369,-221.086 888.318,-215.023"/>
<polygon fill="midnightblue" stroke="midnightblue" points="889.908,-218.152 897.789,-211.071 887.212,-211.692 889.908,-218.152"/>
</g>
<!-- Node936&#45;&gt;Node939 -->
<g id="edge17" class="edge"><title>Node936&#45;&gt;Node939</title>
<path fill="none" stroke="midnightblue" d="M655.234,-264.064C672.134,-279.959 700.88,-304.651 730,-319 790.145,-348.637 809.492,-348.487 876,-357 924.493,-363.207 937.526,-363.352 986,-357 996.803,-355.584 1008.15,-353.251 1019.01,-350.582"/>
<polygon fill="midnightblue" stroke="midnightblue" points="1020.01,-353.939 1028.82,-348.053 1018.27,-347.161 1020.01,-353.939"/>
</g>
<!-- Node940 -->
<g id="node10" class="node"><title>Node940</title>
<g id="a_node10"><a xlink:href="classboost_1_1dynamic__bitset.html#a3420644a3fdf212b82a1f73c684f015b" target="_top" xlink:title="boost::dynamic_bitset\l::m_check_invariants">
<polygon fill="white" stroke="black" points="730,-280 730,-310 840,-310 840,-280 730,-280"/>
<text text-anchor="start" x="738" y="-298" font-family="FreeSans" font-size="10.00">boost::dynamic_bitset</text>
<text text-anchor="middle" x="785" y="-287" font-family="FreeSans" font-size="10.00">::m_check_invariants</text>
</a>
</g>
</g>
<!-- Node936&#45;&gt;Node940 -->
<g id="edge9" class="edge"><title>Node936&#45;&gt;Node940</title>
<path fill="none" stroke="midnightblue" d="M687.151,-264.062C699.831,-268.113 713.684,-272.538 726.845,-276.742"/>
<polygon fill="midnightblue" stroke="midnightblue" points="726.152,-280.195 736.743,-279.904 728.282,-273.527 726.152,-280.195"/>
</g>
<!-- Node936&#45;&gt;Node942 -->
<g id="edge15" class="edge"><title>Node936&#45;&gt;Node942</title>
<path fill="none" stroke="midnightblue" d="M646.789,-233.682C659.156,-207.828 688.011,-156.093 730,-133 771.134,-110.377 824.299,-106.291 865.474,-107.502"/>
<polygon fill="midnightblue" stroke="midnightblue" points="865.535,-111.008 875.669,-107.917 865.82,-104.014 865.535,-111.008"/>
</g>
<!-- Node943 -->
<g id="node13" class="node"><title>Node943</title>
<g id="a_node13"><a xlink:href="classboost_1_1dynamic__bitset.html#aa1f574ecfefe8509ddc889c2b85d8d75" target="_top" xlink:title="boost::dynamic_bitset\l::operator &amp;=">
<polygon fill="white" stroke="black" points="730,-192 730,-222 840,-222 840,-192 730,-192"/>
<text text-anchor="start" x="738" y="-210" font-family="FreeSans" font-size="10.00">boost::dynamic_bitset</text>
<text text-anchor="middle" x="785" y="-199" font-family="FreeSans" font-size="10.00">::operator &amp;=</text>
</a>
</g>
</g>
<!-- Node936&#45;&gt;Node943 -->
<g id="edge16" class="edge"><title>Node936&#45;&gt;Node943</title>
<path fill="none" stroke="midnightblue" d="M691.581,-233.956C701.61,-231.03 712.216,-227.937 722.528,-224.929"/>
<polygon fill="midnightblue" stroke="midnightblue" points="723.676,-228.241 732.296,-222.08 721.716,-221.521 723.676,-228.241"/>
</g>
<!-- Node938 -->
<g id="node8" class="node"><title>Node938</title>
<g id="a_node8"><a xlink:href="classboost_1_1dynamic__bitset.html#a0d4d52847b94ef3c83b90542dc6c22c2" target="_top" xlink:title="boost::dynamic_bitset\l::bit_index">
<polygon fill="white" stroke="black" points="1022,-181 1022,-211 1132,-211 1132,-181 1022,-181"/>
<text text-anchor="start" x="1030" y="-199" font-family="FreeSans" font-size="10.00">boost::dynamic_bitset</text>
<text text-anchor="middle" x="1077" y="-188" font-family="FreeSans" font-size="10.00">::bit_index</text>
</a>
</g>
</g>
<!-- Node937&#45;&gt;Node938 -->
<g id="edge7" class="edge"><title>Node937&#45;&gt;Node938</title>
<path fill="none" stroke="midnightblue" d="M986.03,-196C994.314,-196 1002.94,-196 1011.42,-196"/>
<polygon fill="midnightblue" stroke="midnightblue" points="1011.67,-199.5 1021.67,-196 1011.67,-192.5 1011.67,-199.5"/>
</g>
<!-- Node937&#45;&gt;Node939 -->
<g id="edge8" class="edge"><title>Node937&#45;&gt;Node939</title>
<path fill="none" stroke="midnightblue" d="M971.901,-211.066C976.864,-213.696 981.699,-216.674 986,-220 1018.51,-245.141 1046.28,-284.399 1062.05,-309.399"/>
<polygon fill="midnightblue" stroke="midnightblue" points="1059.08,-311.241 1067.31,-317.911 1065.04,-307.564 1059.08,-311.241"/>
</g>
<!-- Node940&#45;&gt;Node932 -->
<g id="edge10" class="edge"><title>Node940&#45;&gt;Node932</title>
<path fill="none" stroke="midnightblue" d="M840.03,-309.258C848.496,-311.492 857.315,-313.819 865.979,-316.106"/>
<polygon fill="midnightblue" stroke="midnightblue" points="865.105,-319.495 875.667,-318.662 866.891,-312.726 865.105,-319.495"/>
</g>
<!-- Node940&#45;&gt;Node937 -->
<g id="edge11" class="edge"><title>Node940&#45;&gt;Node937</title>
<path fill="none" stroke="midnightblue" d="M817.901,-279.97C825.522,-275.669 833.365,-270.607 840,-265 859.563,-248.469 855.721,-235.646 876,-220 877.614,-218.754 879.304,-217.558 881.046,-216.41"/>
<polygon fill="midnightblue" stroke="midnightblue" points="883.265,-219.165 890.106,-211.074 879.713,-213.133 883.265,-219.165"/>
</g>
<!-- Node940&#45;&gt;Node939 -->
<g id="edge14" class="edge"><title>Node940&#45;&gt;Node939</title>
<path fill="none" stroke="midnightblue" d="M840.252,-295.513C880.682,-296.623 937.114,-299.713 986,-308 996.772,-309.826 1008.11,-312.423 1018.97,-315.258"/>
<polygon fill="midnightblue" stroke="midnightblue" points="1018.2,-318.678 1028.77,-317.913 1020.03,-311.921 1018.2,-318.678"/>
</g>
<!-- Node941 -->
<g id="node11" class="node"><title>Node941</title>
<g id="a_node11"><a xlink:href="classboost_1_1dynamic__bitset.html#ae6a110a78bdf4ecf051ff1537e966b87" target="_top" xlink:title="boost::dynamic_bitset\l::m_highest_block">
<polygon fill="white" stroke="black" points="876,-230 876,-260 986,-260 986,-230 876,-230"/>
<text text-anchor="start" x="884" y="-248" font-family="FreeSans" font-size="10.00">boost::dynamic_bitset</text>
<text text-anchor="middle" x="931" y="-237" font-family="FreeSans" font-size="10.00">::m_highest_block</text>
</a>
</g>
</g>
<!-- Node940&#45;&gt;Node941 -->
<g id="edge12" class="edge"><title>Node940&#45;&gt;Node941</title>
<path fill="none" stroke="midnightblue" d="M829.205,-279.998C844.161,-274.805 861.101,-268.923 876.767,-263.484"/>
<polygon fill="midnightblue" stroke="midnightblue" points="878.029,-266.75 886.328,-260.164 875.733,-260.138 878.029,-266.75"/>
</g>
<!-- Node940&#45;&gt;Node942 -->
<g id="edge13" class="edge"><title>Node940&#45;&gt;Node942</title>
<path fill="none" stroke="midnightblue" d="M800.042,-279.785C811.394,-267.159 827.487,-248.503 840,-231 858.085,-205.701 857.195,-195.768 876,-171 885.196,-158.888 896.632,-146.507 906.61,-136.393"/>
<polygon fill="midnightblue" stroke="midnightblue" points="909.276,-138.677 913.894,-129.142 904.338,-133.716 909.276,-138.677"/>
</g>
<!-- Node944&#45;&gt;Node932 -->
<g id="edge20" class="edge"><title>Node944&#45;&gt;Node932</title>
<path fill="none" stroke="midnightblue" d="M828.747,-173.131C832.853,-175.68 836.706,-178.62 840,-182 869.204,-211.97 854.249,-233.251 876,-269 884.964,-283.733 897.215,-298.554 907.783,-310.218"/>
<polygon fill="midnightblue" stroke="midnightblue" points="905.402,-312.798 914.769,-317.749 910.534,-308.037 905.402,-312.798"/>
</g>
<!-- Node944&#45;&gt;Node937 -->
<g id="edge21" class="edge"><title>Node944&#45;&gt;Node937</title>
<path fill="none" stroke="midnightblue" d="M840.03,-172.258C848.496,-174.492 857.315,-176.819 865.979,-179.106"/>
<polygon fill="midnightblue" stroke="midnightblue" points="865.105,-182.495 875.667,-181.662 866.891,-175.726 865.105,-182.495"/>
</g>
<!-- Node944&#45;&gt;Node941 -->
<g id="edge22" class="edge"><title>Node944&#45;&gt;Node941</title>
<path fill="none" stroke="midnightblue" d="M825.072,-173.129C830.272,-175.778 835.392,-178.743 840,-182 858.997,-195.429 857.106,-206.426 876,-220 878.479,-221.781 881.105,-223.484 883.811,-225.103"/>
<polygon fill="midnightblue" stroke="midnightblue" points="882.2,-228.211 892.645,-229.982 885.584,-222.084 882.2,-228.211"/>
</g>
<!-- Node944&#45;&gt;Node942 -->
<g id="edge23" class="edge"><title>Node944&#45;&gt;Node942</title>
<path fill="none" stroke="midnightblue" d="M835.154,-142.981C846.611,-139.48 858.93,-135.716 870.772,-132.097"/>
<polygon fill="midnightblue" stroke="midnightblue" points="872.038,-135.37 880.579,-129.101 869.992,-128.676 872.038,-135.37"/>
</g>
</g>
</svg>
        <g id="navigator" transform="translate(0 0)" fill="#404254">
                <rect fill="#f2f5e9" fill-opacity="0.5" stroke="#606060" stroke-width=".5" x="0" y="0" width="60" height="60"/>
                <use id="zoomplus" xlink:href="#zoomPlus" x="17" y="9" onmousedown="handleZoom(evt,'in')"/>
                <use id="zoomminus" xlink:href="#zoomMin" x="42" y="9" onmousedown="handleZoom(evt,'out')"/>
                <use id="reset" xlink:href="#resetDef" x="30" y="36" onmousedown="handleReset()"/>
                <g id="arrowUp" xlink:href="#dirArrow" transform="translate(30 24)" onmousedown="handlePan(0,-1)">
                  <use xlink:href="#rim" fill="#404040">
                        <set attributeName="fill" to="#808080" begin="arrowUp.mouseover" end="arrowUp.mouseout"/>
                  </use>
                  <path fill="none" stroke="white" stroke-width="1.5" d="M0,-3.0v7 M-2.5,-0.5L0,-3.0L2.5,-0.5"/>
                </g>
                <g id="arrowRight" xlink:href="#dirArrow" transform="rotate(90) translate(36 -43)" onmousedown="handlePan(1,0)">
                  <use xlink:href="#rim" fill="#404040">
                        <set attributeName="fill" to="#808080" begin="arrowRight.mouseover" end="arrowRight.mouseout"/>
                  </use>
                  <path fill="none" stroke="white" stroke-width="1.5" d="M0,-3.0v7 M-2.5,-0.5L0,-3.0L2.5,-0.5"/>
                </g>
                <g id="arrowDown" xlink:href="#dirArrow" transform="rotate(180) translate(-30 -48)" onmousedown="handlePan(0,1)">
                  <use xlink:href="#rim" fill="#404040">
                        <set attributeName="fill" to="#808080" begin="arrowDown.mouseover" end="arrowDown.mouseout"/>
                  </use>
                  <path fill="none" stroke="white" stroke-width="1.5" d="M0,-3.0v7 M-2.5,-0.5L0,-3.0L2.5,-0.5"/>
                </g>
                <g id="arrowLeft" xlink:href="#dirArrow" transform="rotate(270) translate(-36 17)" onmousedown="handlePan(-1,0)">
                  <use xlink:href="#rim" fill="#404040">
                        <set attributeName="fill" to="#808080" begin="arrowLeft.mouseover" end="arrowLeft.mouseout"/>
                  </use>
                  <path fill="none" stroke="white" stroke-width="1.5" d="M0,-3.0v7 M-2.5,-0.5L0,-3.0L2.5,-0.5"/>
                </g>
        </g>
        <svg viewBox="0 0 15 15" width="100%" height="30px" preserveAspectRatio="xMaxYMin meet">
         <g id="arrow_out" transform="scale(0.3 0.3)">
          <a xlink:href="classboost_1_1dynamic__bitset_a805db456f774adbc37a5d4dae4b8b4e6_cgraph_org.svg" target="_base">
           <rect id="button" ry="5" rx="5" y="6" x="6" height="38" width="38"
                fill="#f2f5e9" fill-opacity="0.5" stroke="#606060" stroke-width="1.0"/>
           <path id="arrow"
             d="M 11.500037,31.436501 C 11.940474,20.09759 22.043105,11.32322 32.158766,21.979434 L 37.068811,17.246167 C 37.068811,17.246167 37.088388,32 37.088388,32 L 22.160133,31.978069 C 22.160133,31.978069 26.997745,27.140456 26.997745,27.140456 C 18.528582,18.264221 13.291696,25.230495 11.500037,31.436501 z"
             style="fill:#404040;"/>
          </a>
         </g>
        </svg>
</svg>
