<?xml version="1.0" encoding="UTF-8" standalone="no"?>
<!DOCTYPE svg PUBLIC "-//W3C//DTD SVG 1.1//EN"
 "http://www.w3.org/Graphics/SVG/1.1/DTD/svg11.dtd">
<!-- Generated by graphviz version 2.38.0 (20140413.2041)
 -->
<!-- Title: SeeSawN::SynchronisationN::MulticameraSynchonisationC::MakeRelativeSynchronisation Pages: 1 -->
<svg width="1016pt" height="110pt"
 viewBox="0.00 0.00 1016.00 110.00" xmlns="http://www.w3.org/2000/svg" xmlns:xlink="http://www.w3.org/1999/xlink">
<g id="graph0" class="graph" transform="scale(1 1) rotate(0) translate(4 106)">
<title>SeeSawN::SynchronisationN::MulticameraSynchonisationC::MakeRelativeSynchronisation</title>
<polygon fill="white" stroke="none" points="-4,4 -4,-106 1012,-106 1012,4 -4,4"/>
<!-- Node27 -->
<g id="node1" class="node"><title>Node27</title>
<polygon fill="#bfbfbf" stroke="black" points="0,-30.5 0,-71.5 156,-71.5 156,-30.5 0,-30.5"/>
<text text-anchor="start" x="8" y="-59.5" font-family="FreeSans" font-size="10.00">SeeSawN::Synchronisation</text>
<text text-anchor="start" x="8" y="-48.5" font-family="FreeSans" font-size="10.00">N::MulticameraSynchonisation</text>
<text text-anchor="middle" x="78" y="-37.5" font-family="FreeSans" font-size="10.00">C::MakeRelativeSynchronisation</text>
</g>
<!-- Node28 -->
<g id="node2" class="node"><title>Node28</title>
<g id="a_node2"><a xlink:href="classSeeSawN_1_1SynchronisationN_1_1MulticameraSynchonisationC.html#a07826266c26e7dcee999810753e539f1" target="_top" xlink:title="Evaluates an absolute synchronisation hypothesis. ">
<polygon fill="white" stroke="black" points="192.5,-60.5 192.5,-101.5 340.5,-101.5 340.5,-60.5 192.5,-60.5"/>
<text text-anchor="start" x="200.5" y="-89.5" font-family="FreeSans" font-size="10.00">SeeSawN::Synchronisation</text>
<text text-anchor="start" x="200.5" y="-78.5" font-family="FreeSans" font-size="10.00">N::MulticameraSynchonisation</text>
<text text-anchor="middle" x="266.5" y="-67.5" font-family="FreeSans" font-size="10.00">C::EvaluateSynchronisation</text>
</a>
</g>
</g>
<!-- Node27&#45;&gt;Node28 -->
<g id="edge1" class="edge"><title>Node27&#45;&gt;Node28</title>
<path fill="none" stroke="midnightblue" d="M166.332,-65.0481C175.003,-66.4428 183.742,-67.8486 192.249,-69.217"/>
<polygon fill="midnightblue" stroke="midnightblue" points="166.632,-61.5514 156.203,-63.4187 165.52,-68.4625 166.632,-61.5514"/>
</g>
<!-- Node32 -->
<g id="node6" class="node"><title>Node32</title>
<g id="a_node6"><a xlink:href="classSeeSawN_1_1SynchronisationN_1_1MulticameraSynchonisationC.html#ab319cd130026fe6223a732b912d054d0" target="_top" xlink:title="Makes an initial relative synchronisation estimate. ">
<polygon fill="white" stroke="black" points="192,-0.5 192,-41.5 341,-41.5 341,-0.5 192,-0.5"/>
<text text-anchor="start" x="200" y="-29.5" font-family="FreeSans" font-size="10.00">SeeSawN::Synchronisation</text>
<text text-anchor="start" x="200" y="-18.5" font-family="FreeSans" font-size="10.00">N::MulticameraSynchonisation</text>
<text text-anchor="middle" x="266.5" y="-7.5" font-family="FreeSans" font-size="10.00">C::MakeRelativeInitialEstimate</text>
</a>
</g>
</g>
<!-- Node27&#45;&gt;Node32 -->
<g id="edge5" class="edge"><title>Node27&#45;&gt;Node32</title>
<path fill="none" stroke="midnightblue" d="M166.247,-36.9657C174.844,-35.5827 183.51,-34.1887 191.95,-32.8311"/>
<polygon fill="midnightblue" stroke="midnightblue" points="165.52,-33.5375 156.203,-38.5813 166.632,-40.4486 165.52,-33.5375"/>
</g>
<!-- Node29 -->
<g id="node3" class="node"><title>Node29</title>
<g id="a_node3"><a xlink:href="classSeeSawN_1_1SynchronisationN_1_1MulticameraSynchonisationC.html#adbcfcad7c96d5b46f26a15a6811e5e66" target="_top" xlink:title="Computes the absolute synchronisation from the pairwise measurements. ">
<polygon fill="white" stroke="black" points="377,-60.5 377,-101.5 525,-101.5 525,-60.5 377,-60.5"/>
<text text-anchor="start" x="385" y="-89.5" font-family="FreeSans" font-size="10.00">SeeSawN::Synchronisation</text>
<text text-anchor="start" x="385" y="-78.5" font-family="FreeSans" font-size="10.00">N::MulticameraSynchonisation</text>
<text text-anchor="middle" x="451" y="-67.5" font-family="FreeSans" font-size="10.00">C::Synchronise</text>
</a>
</g>
</g>
<!-- Node28&#45;&gt;Node29 -->
<g id="edge2" class="edge"><title>Node28&#45;&gt;Node29</title>
<path fill="none" stroke="midnightblue" d="M350.801,-81C359.478,-81 368.252,-81 376.805,-81"/>
<polygon fill="midnightblue" stroke="midnightblue" points="350.678,-77.5001 340.678,-81 350.678,-84.5001 350.678,-77.5001"/>
</g>
<!-- Node30 -->
<g id="node4" class="node"><title>Node30</title>
<g id="a_node4"><a xlink:href="classSeeSawN_1_1SynchronisationN_1_1MulticameraSynchonisationC.html#a75a116defe53be4d2d177a2188f909bf" target="_top" xlink:title="Runs the synchronisation algorithm. ">
<polygon fill="white" stroke="black" points="561,-30.5 561,-71.5 709,-71.5 709,-30.5 561,-30.5"/>
<text text-anchor="start" x="569" y="-59.5" font-family="FreeSans" font-size="10.00">SeeSawN::Synchronisation</text>
<text text-anchor="start" x="569" y="-48.5" font-family="FreeSans" font-size="10.00">N::MulticameraSynchonisation</text>
<text text-anchor="middle" x="635" y="-37.5" font-family="FreeSans" font-size="10.00">C::Run</text>
</a>
</g>
</g>
<!-- Node29&#45;&gt;Node30 -->
<g id="edge3" class="edge"><title>Node29&#45;&gt;Node30</title>
<path fill="none" stroke="midnightblue" d="M535.237,-67.2797C543.804,-65.8674 552.464,-64.4399 560.91,-63.0478"/>
<polygon fill="midnightblue" stroke="midnightblue" points="534.537,-63.8476 525.24,-68.9275 535.676,-70.7544 534.537,-63.8476"/>
</g>
<!-- Node31 -->
<g id="node5" class="node"><title>Node31</title>
<g id="a_node5"><a xlink:href="classSeeSawN_1_1AppMulticameraSynchronisationN_1_1AppMulticameraSynchronisationImplementationC.html#a74cf8f1a5ba9bb9ddb48089b2d43bd58" target="_top" xlink:title="Runs the application. ">
<polygon fill="white" stroke="black" points="745,-36 745,-66 1008,-66 1008,-36 745,-36"/>
<text text-anchor="start" x="753" y="-54" font-family="FreeSans" font-size="10.00">SeeSawN::AppMulticameraSynchronisation</text>
<text text-anchor="middle" x="876.5" y="-43" font-family="FreeSans" font-size="10.00">N::AppMulticameraSynchronisationImplementationC::Run</text>
</a>
</g>
</g>
<!-- Node30&#45;&gt;Node31 -->
<g id="edge4" class="edge"><title>Node30&#45;&gt;Node31</title>
<path fill="none" stroke="midnightblue" d="M719.216,-51C727.578,-51 736.202,-51 744.904,-51"/>
<polygon fill="midnightblue" stroke="midnightblue" points="719.159,-47.5001 709.159,-51 719.159,-54.5001 719.159,-47.5001"/>
</g>
<!-- Node33 -->
<g id="node7" class="node"><title>Node33</title>
<g id="a_node7"><a xlink:href="classSeeSawN_1_1SynchronisationN_1_1MulticameraSynchonisationC.html#ab2c6d7d550a2c5520694ca2d08f48a7a" target="_top" xlink:title="Prepares the relative synchronisation tasks. ">
<polygon fill="white" stroke="black" points="377,-0.5 377,-41.5 525,-41.5 525,-0.5 377,-0.5"/>
<text text-anchor="start" x="385" y="-29.5" font-family="FreeSans" font-size="10.00">SeeSawN::Synchronisation</text>
<text text-anchor="start" x="385" y="-18.5" font-family="FreeSans" font-size="10.00">N::MulticameraSynchonisation</text>
<text text-anchor="middle" x="451" y="-7.5" font-family="FreeSans" font-size="10.00">C::MakeTasks</text>
</a>
</g>
</g>
<!-- Node32&#45;&gt;Node33 -->
<g id="edge6" class="edge"><title>Node32&#45;&gt;Node33</title>
<path fill="none" stroke="midnightblue" d="M351.214,-21C359.792,-21 368.46,-21 376.911,-21"/>
<polygon fill="midnightblue" stroke="midnightblue" points="351.204,-17.5001 341.204,-21 351.204,-24.5001 351.204,-17.5001"/>
</g>
<!-- Node33&#45;&gt;Node30 -->
<g id="edge7" class="edge"><title>Node33&#45;&gt;Node30</title>
<path fill="none" stroke="midnightblue" d="M535.237,-34.7203C543.804,-36.1326 552.464,-37.5601 560.91,-38.9522"/>
<polygon fill="midnightblue" stroke="midnightblue" points="535.676,-31.2456 525.24,-33.0725 534.537,-38.1524 535.676,-31.2456"/>
</g>
</g>
</svg>
