<?xml version="1.0" encoding="UTF-8" standalone="no"?>
<!DOCTYPE svg PUBLIC "-//W3C//DTD SVG 1.1//EN"
 "http://www.w3.org/Graphics/SVG/1.1/DTD/svg11.dtd">
<!-- Generated by graphviz version 2.38.0 (20140413.2041)
 -->
<!-- Title: SeeSawN::GeometryN::Fundamental8SolverC Pages: 1 -->
<svg width="251pt" height="959pt"
 viewBox="0.00 0.00 250.50 959.00" xmlns="http://www.w3.org/2000/svg" xmlns:xlink="http://www.w3.org/1999/xlink">
<g id="graph0" class="graph" transform="scale(1 1) rotate(0) translate(4 955)">
<title>SeeSawN::GeometryN::Fundamental8SolverC</title>
<polygon fill="white" stroke="none" points="-4,4 -4,-955 246.5,-955 246.5,4 -4,4"/>
<!-- Node0 -->
<g id="node1" class="node"><title>Node0</title>
<polygon fill="#bfbfbf" stroke="black" points="19.5,-0.5 19.5,-211.5 163.5,-211.5 163.5,-0.5 19.5,-0.5"/>
<text text-anchor="start" x="27.5" y="-199.5" font-family="FreeSans" font-size="10.00">SeeSawN::GeometryN</text>
<text text-anchor="middle" x="91.5" y="-188.5" font-family="FreeSans" font-size="10.00">::Fundamental8SolverC</text>
<polyline fill="none" stroke="black" points="19.5,-181.5 163.5,-181.5 "/>
<text text-anchor="middle" x="91.5" y="-169.5" font-family="FreeSans" font-size="10.00"> </text>
<polyline fill="none" stroke="black" points="19.5,-162.5 163.5,-162.5 "/>
<text text-anchor="start" x="27.5" y="-150.5" font-family="FreeSans" font-size="10.00">+ MakeMinimal()</text>
<text text-anchor="start" x="27.5" y="-139.5" font-family="FreeSans" font-size="10.00">+ ComputeSampleStatistics()</text>
<text text-anchor="start" x="27.5" y="-128.5" font-family="FreeSans" font-size="10.00">+ operator()()</text>
<text text-anchor="start" x="27.5" y="-117.5" font-family="FreeSans" font-size="10.00">* distance_type</text>
<text text-anchor="start" x="27.5" y="-106.5" font-family="FreeSans" font-size="10.00">* minimal_model_type</text>
<text text-anchor="start" x="27.5" y="-95.5" font-family="FreeSans" font-size="10.00">* uncertainty_type</text>
<text text-anchor="start" x="27.5" y="-84.5" font-family="FreeSans" font-size="10.00">* operator()()</text>
<text text-anchor="start" x="27.5" y="-73.5" font-family="FreeSans" font-size="10.00">* Cost()</text>
<text text-anchor="start" x="27.5" y="-62.5" font-family="FreeSans" font-size="10.00">* MakeMinimal()</text>
<text text-anchor="start" x="27.5" y="-51.5" font-family="FreeSans" font-size="10.00">* MakeModelFromMinimal()</text>
<text text-anchor="start" x="27.5" y="-40.5" font-family="FreeSans" font-size="10.00">* ComputeSampleStatistics()</text>
<text text-anchor="start" x="27.5" y="-29.5" font-family="FreeSans" font-size="10.00">* iRotationL</text>
<text text-anchor="start" x="27.5" y="-18.5" font-family="FreeSans" font-size="10.00">* iRotationR</text>
<text text-anchor="start" x="27.5" y="-7.5" font-family="FreeSans" font-size="10.00">* iScalar</text>
</g>
<!-- Node1 -->
<g id="node2" class="node"><title>Node1</title>
<g id="a_node2"><a xlink:href="classSeeSawN_1_1GeometryN_1_1GeometrySolverBaseC.html" target="_top" xlink:title="{SeeSawN::GeometryN\l::GeometrySolverBaseC\l\&lt; Fundamental8SolverC,\l EpipolarMatrixT, EpipolarSampson\lErrorC, 2, 2, 8, true, 1, 9, 7 \&gt;\n|# sGenerator\l# flagNonminimal\l# nSolution\l# nParameter\l# nDOF\l|+ EvaluateModel()\l+ EvaluateModel()\l* coordinate_type1\l* coordinate_type2\l* model_type\l* real_type\l* error_type\l* constraint_type\l* loss_type\l* distance_type\l* GeneratorSize()\l* IsNonminimal()\land 8 more...\l* sGenerator\l* flagNonminimal\l* nSolution\l* nParameter\l* nDOF\l}">
<polygon fill="white" stroke="black" points="8,-249.5 8,-581.5 175,-581.5 175,-249.5 8,-249.5"/>
<text text-anchor="start" x="16" y="-569.5" font-family="FreeSans" font-size="10.00">SeeSawN::GeometryN</text>
<text text-anchor="start" x="16" y="-558.5" font-family="FreeSans" font-size="10.00">::GeometrySolverBaseC</text>
<text text-anchor="start" x="16" y="-547.5" font-family="FreeSans" font-size="10.00">&lt; Fundamental8SolverC,</text>
<text text-anchor="start" x="16" y="-536.5" font-family="FreeSans" font-size="10.00"> EpipolarMatrixT, EpipolarSampson</text>
<text text-anchor="middle" x="91.5" y="-525.5" font-family="FreeSans" font-size="10.00">ErrorC, 2, 2, 8, true, 1, 9, 7 &gt;</text>
<polyline fill="none" stroke="black" points="8,-518.5 175,-518.5 "/>
<text text-anchor="start" x="16" y="-506.5" font-family="FreeSans" font-size="10.00"># sGenerator</text>
<text text-anchor="start" x="16" y="-495.5" font-family="FreeSans" font-size="10.00"># flagNonminimal</text>
<text text-anchor="start" x="16" y="-484.5" font-family="FreeSans" font-size="10.00"># nSolution</text>
<text text-anchor="start" x="16" y="-473.5" font-family="FreeSans" font-size="10.00"># nParameter</text>
<text text-anchor="start" x="16" y="-462.5" font-family="FreeSans" font-size="10.00"># nDOF</text>
<polyline fill="none" stroke="black" points="8,-455.5 175,-455.5 "/>
<text text-anchor="start" x="16" y="-443.5" font-family="FreeSans" font-size="10.00">+ EvaluateModel()</text>
<text text-anchor="start" x="16" y="-432.5" font-family="FreeSans" font-size="10.00">+ EvaluateModel()</text>
<text text-anchor="start" x="16" y="-421.5" font-family="FreeSans" font-size="10.00">* coordinate_type1</text>
<text text-anchor="start" x="16" y="-410.5" font-family="FreeSans" font-size="10.00">* coordinate_type2</text>
<text text-anchor="start" x="16" y="-399.5" font-family="FreeSans" font-size="10.00">* model_type</text>
<text text-anchor="start" x="16" y="-388.5" font-family="FreeSans" font-size="10.00">* real_type</text>
<text text-anchor="start" x="16" y="-377.5" font-family="FreeSans" font-size="10.00">* error_type</text>
<text text-anchor="start" x="16" y="-366.5" font-family="FreeSans" font-size="10.00">* constraint_type</text>
<text text-anchor="start" x="16" y="-355.5" font-family="FreeSans" font-size="10.00">* loss_type</text>
<text text-anchor="start" x="16" y="-344.5" font-family="FreeSans" font-size="10.00">* distance_type</text>
<text text-anchor="start" x="16" y="-333.5" font-family="FreeSans" font-size="10.00">* GeneratorSize()</text>
<text text-anchor="start" x="16" y="-322.5" font-family="FreeSans" font-size="10.00">* IsNonminimal()</text>
<text text-anchor="start" x="16" y="-311.5" font-family="FreeSans" font-size="10.00">and 8 more...</text>
<text text-anchor="start" x="16" y="-300.5" font-family="FreeSans" font-size="10.00">* sGenerator</text>
<text text-anchor="start" x="16" y="-289.5" font-family="FreeSans" font-size="10.00">* flagNonminimal</text>
<text text-anchor="start" x="16" y="-278.5" font-family="FreeSans" font-size="10.00">* nSolution</text>
<text text-anchor="start" x="16" y="-267.5" font-family="FreeSans" font-size="10.00">* nParameter</text>
<text text-anchor="start" x="16" y="-256.5" font-family="FreeSans" font-size="10.00">* nDOF</text>
</a>
</g>
</g>
<!-- Node1&#45;&gt;Node0 -->
<g id="edge1" class="edge"><title>Node1&#45;&gt;Node0</title>
<path fill="none" stroke="midnightblue" d="M91.5,-239.309C91.5,-229.952 91.5,-220.703 91.5,-211.704"/>
<polygon fill="none" stroke="midnightblue" points="88.0001,-239.498 91.5,-249.498 95.0001,-239.498 88.0001,-239.498"/>
</g>
<!-- Node2 -->
<g id="node3" class="node"><title>Node2</title>
<g id="a_node3"><a xlink:href="classSeeSawN_1_1GeometryN_1_1GeometrySolverBaseC.html" target="_top" xlink:title="Base class for geometry solvers. ">
<polygon fill="white" stroke="black" points="0,-651.5 0,-950.5 183,-950.5 183,-651.5 0,-651.5"/>
<text text-anchor="start" x="8" y="-938.5" font-family="FreeSans" font-size="10.00">SeeSawN::GeometryN</text>
<text text-anchor="start" x="8" y="-927.5" font-family="FreeSans" font-size="10.00">::GeometrySolverBaseC</text>
<text text-anchor="start" x="8" y="-916.5" font-family="FreeSans" font-size="10.00">&lt; DerivedT, ModelT, ErrorT,</text>
<text text-anchor="start" x="8" y="-905.5" font-family="FreeSans" font-size="10.00"> DIM1, DIM2, GENERATOR_SIZE,</text>
<text text-anchor="start" x="8" y="-894.5" font-family="FreeSans" font-size="10.00"> FLAG_NONMINIMAL, NSOLUTION,</text>
<text text-anchor="middle" x="91.5" y="-883.5" font-family="FreeSans" font-size="10.00"> NPARAMETER, NDOF &gt;</text>
<polyline fill="none" stroke="black" points="0,-876.5 183,-876.5 "/>
<text text-anchor="middle" x="91.5" y="-864.5" font-family="FreeSans" font-size="10.00"> </text>
<polyline fill="none" stroke="black" points="0,-857.5 183,-857.5 "/>
<text text-anchor="start" x="8" y="-845.5" font-family="FreeSans" font-size="10.00">+ EvaluateModel()</text>
<text text-anchor="start" x="8" y="-834.5" font-family="FreeSans" font-size="10.00">+ EvaluateModel()</text>
<text text-anchor="start" x="8" y="-823.5" font-family="FreeSans" font-size="10.00">* coordinate_type1</text>
<text text-anchor="start" x="8" y="-812.5" font-family="FreeSans" font-size="10.00">* coordinate_type2</text>
<text text-anchor="start" x="8" y="-801.5" font-family="FreeSans" font-size="10.00">* model_type</text>
<text text-anchor="start" x="8" y="-790.5" font-family="FreeSans" font-size="10.00">* real_type</text>
<text text-anchor="start" x="8" y="-779.5" font-family="FreeSans" font-size="10.00">* error_type</text>
<text text-anchor="start" x="8" y="-768.5" font-family="FreeSans" font-size="10.00">* constraint_type</text>
<text text-anchor="start" x="8" y="-757.5" font-family="FreeSans" font-size="10.00">* loss_type</text>
<text text-anchor="start" x="8" y="-746.5" font-family="FreeSans" font-size="10.00">* distance_type</text>
<text text-anchor="start" x="8" y="-735.5" font-family="FreeSans" font-size="10.00">* GeneratorSize()</text>
<text text-anchor="start" x="8" y="-724.5" font-family="FreeSans" font-size="10.00">* IsNonminimal()</text>
<text text-anchor="start" x="8" y="-713.5" font-family="FreeSans" font-size="10.00">and 8 more...</text>
<text text-anchor="start" x="8" y="-702.5" font-family="FreeSans" font-size="10.00">* sGenerator</text>
<text text-anchor="start" x="8" y="-691.5" font-family="FreeSans" font-size="10.00">* flagNonminimal</text>
<text text-anchor="start" x="8" y="-680.5" font-family="FreeSans" font-size="10.00">* nSolution</text>
<text text-anchor="start" x="8" y="-669.5" font-family="FreeSans" font-size="10.00">* nParameter</text>
<text text-anchor="start" x="8" y="-658.5" font-family="FreeSans" font-size="10.00">* nDOF</text>
</a>
</g>
</g>
<!-- Node2&#45;&gt;Node1 -->
<g id="edge2" class="edge"><title>Node2&#45;&gt;Node1</title>
<path fill="none" stroke="orange" d="M91.5,-641.224C91.5,-621.567 91.5,-601.435 91.5,-581.685"/>
<polygon fill="orange" stroke="orange" points="88.0001,-641.454 91.5,-651.454 95.0001,-641.455 88.0001,-641.454"/>
<text text-anchor="start" x="91.5" y="-625" font-family="FreeSans" font-size="10.00"> &lt; Fundamental8SolverC,</text>
<text text-anchor="start" x="91.5" y="-614" font-family="FreeSans" font-size="10.00"> EpipolarMatrixT, EpipolarSampson</text>
<text text-anchor="middle" x="167" y="-603" font-family="FreeSans" font-size="10.00">ErrorC, 2, 2, 8, true, 1, 9, 7 &gt;</text>
</g>
</g>
</svg>
