<?xml version="1.0" encoding="UTF-8" standalone="no"?>
<!DOCTYPE svg PUBLIC "-//W3C//DTD SVG 1.1//EN"
 "http://www.w3.org/Graphics/SVG/1.1/DTD/svg11.dtd">
<!-- Generated by graphviz version 2.38.0 (20140413.2041)
 -->
<!-- Title: SeeSawN::GeometryN::Rotation3DSolverC::Cost Pages: 1 -->
<svg width="455pt" height="137pt"
 viewBox="0.00 0.00 455.00 137.00" xmlns="http://www.w3.org/2000/svg" xmlns:xlink="http://www.w3.org/1999/xlink">
<g id="graph0" class="graph" transform="scale(1 1) rotate(0) translate(4 133)">
<title>SeeSawN::GeometryN::Rotation3DSolverC::Cost</title>
<polygon fill="white" stroke="none" points="-4,4 -4,-133 451,-133 451,4 -4,4"/>
<!-- Node19 -->
<g id="node1" class="node"><title>Node19</title>
<polygon fill="#bfbfbf" stroke="black" points="0,-73.5 0,-103.5 128,-103.5 128,-73.5 0,-73.5"/>
<text text-anchor="start" x="8" y="-91.5" font-family="FreeSans" font-size="10.00">SeeSawN::GeometryN</text>
<text text-anchor="middle" x="64" y="-80.5" font-family="FreeSans" font-size="10.00">::Rotation3DSolverC::Cost</text>
</g>
<!-- Node20 -->
<g id="node2" class="node"><title>Node20</title>
<g id="a_node2"><a xlink:href="classSeeSawN_1_1GeometryN_1_1P2PSolverC.html#ab0a7b49c22b1bc35b59b92d0a3de7c1a" target="_top" xlink:title="Computational cost of the solver. ">
<polygon fill="white" stroke="black" points="172.5,-98.5 172.5,-128.5 287.5,-128.5 287.5,-98.5 172.5,-98.5"/>
<text text-anchor="start" x="180.5" y="-116.5" font-family="FreeSans" font-size="10.00">SeeSawN::GeometryN</text>
<text text-anchor="middle" x="230" y="-105.5" font-family="FreeSans" font-size="10.00">::P2PSolverC::Cost</text>
</a>
</g>
</g>
<!-- Node19&#45;&gt;Node20 -->
<g id="edge1" class="edge"><title>Node19&#45;&gt;Node20</title>
<path fill="none" stroke="midnightblue" d="M138.374,-99.685C149.808,-101.428 161.468,-103.206 172.452,-104.88"/>
<polygon fill="midnightblue" stroke="midnightblue" points="138.82,-96.2127 128.407,-98.1657 137.765,-103.133 138.82,-96.2127"/>
</g>
<!-- Node22 -->
<g id="node4" class="node"><title>Node22</title>
<g id="a_node4"><a xlink:href="classSeeSawN_1_1GeometryN_1_1Similarity3DSolverC.html#a09903cb9881b69f7bf4caaef344e85a0" target="_top" xlink:title="Computational cost of the solver. ">
<polygon fill="white" stroke="black" points="164,-49.5 164,-79.5 296,-79.5 296,-49.5 164,-49.5"/>
<text text-anchor="start" x="172" y="-67.5" font-family="FreeSans" font-size="10.00">SeeSawN::GeometryN</text>
<text text-anchor="middle" x="230" y="-56.5" font-family="FreeSans" font-size="10.00">::Similarity3DSolverC::Cost</text>
</a>
</g>
</g>
<!-- Node19&#45;&gt;Node22 -->
<g id="edge3" class="edge"><title>Node19&#45;&gt;Node22</title>
<path fill="none" stroke="midnightblue" d="M138.32,-77.7702C146.833,-76.5244 155.472,-75.2601 163.865,-74.0319"/>
<polygon fill="midnightblue" stroke="midnightblue" points="137.794,-74.3098 128.407,-79.221 138.808,-81.236 137.794,-74.3098"/>
</g>
<!-- Node21 -->
<g id="node3" class="node"><title>Node21</title>
<g id="a_node3"><a xlink:href="classSeeSawN_1_1GeometryN_1_1P2PfSolverC.html#ad718fb83fbccb5561459b3b97188832f" target="_top" xlink:title="Computational cost of the solver. ">
<polygon fill="white" stroke="black" points="332,-98.5 332,-128.5 447,-128.5 447,-98.5 332,-98.5"/>
<text text-anchor="start" x="340" y="-116.5" font-family="FreeSans" font-size="10.00">SeeSawN::GeometryN</text>
<text text-anchor="middle" x="389.5" y="-105.5" font-family="FreeSans" font-size="10.00">::P2PfSolverC::Cost</text>
</a>
</g>
</g>
<!-- Node20&#45;&gt;Node21 -->
<g id="edge2" class="edge"><title>Node20&#45;&gt;Node21</title>
<path fill="none" stroke="midnightblue" d="M298.106,-113.5C309.392,-113.5 321.003,-113.5 331.986,-113.5"/>
<polygon fill="midnightblue" stroke="midnightblue" points="297.861,-110 287.861,-113.5 297.861,-117 297.861,-110"/>
</g>
<!-- Node23 -->
<g id="node5" class="node"><title>Node23</title>
<g id="a_node5"><a xlink:href="classSeeSawN_1_1GeometryN_1_1P3PSolverC.html#a32b50b1bd9376224dc99cbbcf1994bd5" target="_top" xlink:title="Computational cost of the solver. ">
<polygon fill="white" stroke="black" points="332,-49.5 332,-79.5 447,-79.5 447,-49.5 332,-49.5"/>
<text text-anchor="start" x="340" y="-67.5" font-family="FreeSans" font-size="10.00">SeeSawN::GeometryN</text>
<text text-anchor="middle" x="389.5" y="-56.5" font-family="FreeSans" font-size="10.00">::P3PSolverC::Cost</text>
</a>
</g>
</g>
<!-- Node22&#45;&gt;Node23 -->
<g id="edge4" class="edge"><title>Node22&#45;&gt;Node23</title>
<path fill="none" stroke="midnightblue" d="M306.615,-64.5C315.009,-64.5 323.45,-64.5 331.557,-64.5"/>
<polygon fill="midnightblue" stroke="midnightblue" points="306.426,-61.0001 296.426,-64.5 306.426,-68.0001 306.426,-61.0001"/>
</g>
<!-- Node24 -->
<g id="node6" class="node"><title>Node24</title>
<g id="a_node6"><a xlink:href="classSeeSawN_1_1GeometryN_1_1P4PSolverC.html#ad633958d73a8be5ca9f451c7a331ebd8" target="_top" xlink:title="Computational cost of the solver. ">
<polygon fill="white" stroke="black" points="332,-0.5 332,-30.5 447,-30.5 447,-0.5 332,-0.5"/>
<text text-anchor="start" x="340" y="-18.5" font-family="FreeSans" font-size="10.00">SeeSawN::GeometryN</text>
<text text-anchor="middle" x="389.5" y="-7.5" font-family="FreeSans" font-size="10.00">::P4PSolverC::Cost</text>
</a>
</g>
</g>
<!-- Node22&#45;&gt;Node24 -->
<g id="edge5" class="edge"><title>Node22&#45;&gt;Node24</title>
<path fill="none" stroke="midnightblue" d="M289.22,-46.3871C305.964,-41.1778 324.04,-35.5543 340.12,-30.5516"/>
<polygon fill="midnightblue" stroke="midnightblue" points="288.049,-43.0858 279.54,-49.3986 290.129,-49.7698 288.049,-43.0858"/>
</g>
</g>
</svg>
