<?xml version="1.0" encoding="UTF-8" standalone="no"?>
<!DOCTYPE svg PUBLIC "-//W3C//DTD SVG 1.1//EN"
 "http://www.w3.org/Graphics/SVG/1.1/DTD/svg11.dtd">
<!-- Generated by graphviz version 2.38.0 (20140413.2041)
 -->
<!-- Title: boost::dynamic_bitset::reference::do_reset Pages: 1 -->
<!--zoomable 137 -->
<svg id="main" version="1.1" xmlns="http://www.w3.org/2000/svg" xmlns:xlink="http://www.w3.org/1999/xlink" xml:space="preserve" onload="init(evt)">
<style type="text/css"><![CDATA[
.edge:hover path { stroke: red; }
.edge:hover polygon { stroke: red; fill: red; }
]]></style>
<script type="text/javascript"><![CDATA[
var edges = document.getElementsByTagName('g');
if (edges && edges.length) {
  for (var i=0;i<edges.length;i++) {
    if (edges[i].id.substr(0,4)=='edge') {
      edges[i].setAttribute('class','edge');
    }
  }
}
]]></script>
        <defs>
                <circle id="rim" cx="0" cy="0" r="7"/>
                <circle id="rim2" cx="0" cy="0" r="3.5"/>
                <g id="zoomPlus">
                        <use xlink:href="#rim" fill="#404040">
                                <set attributeName="fill" to="#808080" begin="zoomplus.mouseover" end="zoomplus.mouseout"/>
                        </use>
                        <path d="M-4,0h8M0,-4v8" fill="none" stroke="white" stroke-width="1.5" pointer-events="none"/>
                </g>
                <g id="zoomMin">
                        <use xlink:href="#rim" fill="#404040">
                                <set attributeName="fill" to="#808080" begin="zoomminus.mouseover" end="zoomminus.mouseout"/>
                        </use>
                        <path d="M-4,0h8" fill="none" stroke="white" stroke-width="1.5" pointer-events="none"/>
                </g>
                <g id="dirArrow">
                        <path fill="none" stroke="white" stroke-width="1.5" d="M0,-3.0v7 M-2.5,-0.5L0,-3.0L2.5,-0.5"/>
                </g>
               <g id="resetDef">
                       <use xlink:href="#rim2" fill="#404040">
                               <set attributeName="fill" to="#808080" begin="reset.mouseover" end="reset.mouseout"/>
                       </use>
               </g>
        </defs>

<script type="text/javascript">
var viewWidth = 714;
var viewHeight = 137;
var sectionId = 'dynsection-6';
</script>
<script xlink:href="svgpan.js"/>
<svg id="graph" class="graph">
<g id="viewport">
<title>boost::dynamic_bitset::reference::do_reset</title>
<polygon fill="white" stroke="none" points="-4,4 -4,-133 710,-133 710,4 -4,4"/>
<!-- Node17 -->
<g id="node1" class="node"><title>Node17</title>
<polygon fill="#bfbfbf" stroke="black" points="0,-49.5 0,-79.5 110,-79.5 110,-49.5 0,-49.5"/>
<text text-anchor="start" x="8" y="-67.5" font-family="FreeSans" font-size="10.00">boost::dynamic_bitset</text>
<text text-anchor="middle" x="55" y="-56.5" font-family="FreeSans" font-size="10.00">::reference::do_reset</text>
</g>
<!-- Node18 -->
<g id="node2" class="node"><title>Node18</title>
<g id="a_node2"><a xlink:href="classboost_1_1dynamic__bitset_1_1reference.html#a4de26cec039119d0e64c4df8c5de3c8e" target="_top" xlink:title="boost::dynamic_bitset\l::reference::do_assign">
<polygon fill="white" stroke="black" points="149,-98.5 149,-128.5 259,-128.5 259,-98.5 149,-98.5"/>
<text text-anchor="start" x="157" y="-116.5" font-family="FreeSans" font-size="10.00">boost::dynamic_bitset</text>
<text text-anchor="middle" x="204" y="-105.5" font-family="FreeSans" font-size="10.00">::reference::do_assign</text>
</a>
</g>
</g>
<!-- Node17&#45;&gt;Node18 -->
<g id="edge1" class="edge"><title>Node17&#45;&gt;Node18</title>
<path fill="none" stroke="midnightblue" d="M111.216,-82.9055C126.597,-88.0322 143.118,-93.5392 157.845,-98.4484"/>
<polygon fill="midnightblue" stroke="midnightblue" points="111.898,-79.4434 101.304,-79.6014 109.684,-86.0842 111.898,-79.4434"/>
</g>
<!-- Node22 -->
<g id="node6" class="node"><title>Node22</title>
<g id="a_node6"><a xlink:href="classboost_1_1dynamic__bitset_1_1reference.html#a0f77433ae251f284caf9d389e3f0b800" target="_top" xlink:title="boost::dynamic_bitset\l::reference::operator &amp;=">
<polygon fill="white" stroke="black" points="146,-49.5 146,-79.5 262,-79.5 262,-49.5 146,-49.5"/>
<text text-anchor="start" x="154" y="-67.5" font-family="FreeSans" font-size="10.00">boost::dynamic_bitset</text>
<text text-anchor="middle" x="204" y="-56.5" font-family="FreeSans" font-size="10.00">::reference::operator &amp;=</text>
</a>
</g>
</g>
<!-- Node17&#45;&gt;Node22 -->
<g id="edge5" class="edge"><title>Node17&#45;&gt;Node22</title>
<path fill="none" stroke="midnightblue" d="M120.532,-64.5C128.996,-64.5 137.62,-64.5 145.947,-64.5"/>
<polygon fill="midnightblue" stroke="midnightblue" points="120.32,-61.0001 110.32,-64.5 120.32,-68.0001 120.32,-61.0001"/>
</g>
<!-- Node24 -->
<g id="node8" class="node"><title>Node24</title>
<g id="a_node8"><a xlink:href="classboost_1_1dynamic__bitset_1_1reference.html#a5d2937fb501f3ed16834f6a4acb9d0bf" target="_top" xlink:title="boost::dynamic_bitset\l::reference::operator&#45;=">
<polygon fill="white" stroke="black" points="149,-0.5 149,-30.5 259,-30.5 259,-0.5 149,-0.5"/>
<text text-anchor="start" x="157" y="-18.5" font-family="FreeSans" font-size="10.00">boost::dynamic_bitset</text>
<text text-anchor="middle" x="204" y="-7.5" font-family="FreeSans" font-size="10.00">::reference::operator&#45;=</text>
</a>
</g>
</g>
<!-- Node17&#45;&gt;Node24 -->
<g id="edge7" class="edge"><title>Node17&#45;&gt;Node24</title>
<path fill="none" stroke="midnightblue" d="M111.216,-46.0945C126.597,-40.9678 143.118,-35.4608 157.845,-30.5516"/>
<polygon fill="midnightblue" stroke="midnightblue" points="109.684,-42.9158 101.304,-49.3986 111.898,-49.5566 109.684,-42.9158"/>
</g>
<!-- Node19 -->
<g id="node3" class="node"><title>Node19</title>
<g id="a_node3"><a xlink:href="classboost_1_1dynamic__bitset_1_1reference.html#ab4350336052e970af1d8d21987b9e099" target="_top" xlink:title="boost::dynamic_bitset\l::reference::operator=">
<polygon fill="white" stroke="black" points="298,-98.5 298,-128.5 408,-128.5 408,-98.5 298,-98.5"/>
<text text-anchor="start" x="306" y="-116.5" font-family="FreeSans" font-size="10.00">boost::dynamic_bitset</text>
<text text-anchor="middle" x="353" y="-105.5" font-family="FreeSans" font-size="10.00">::reference::operator=</text>
</a>
</g>
</g>
<!-- Node18&#45;&gt;Node19 -->
<g id="edge2" class="edge"><title>Node18&#45;&gt;Node19</title>
<path fill="none" stroke="midnightblue" d="M269.497,-113.5C278.978,-113.5 288.661,-113.5 297.904,-113.5"/>
<polygon fill="midnightblue" stroke="midnightblue" points="269.32,-110 259.32,-113.5 269.32,-117 269.32,-110"/>
</g>
<!-- Node20 -->
<g id="node4" class="node"><title>Node20</title>
<g id="a_node4"><a xlink:href="classboost_1_1dynamic__bitset.html#ab4467b805732d0f46bd5a2f3432193c8" target="_top" xlink:title="boost::dynamic_bitset\l::init_from_block_range">
<polygon fill="white" stroke="black" points="444,-98.5 444,-128.5 560,-128.5 560,-98.5 444,-98.5"/>
<text text-anchor="start" x="452" y="-116.5" font-family="FreeSans" font-size="10.00">boost::dynamic_bitset</text>
<text text-anchor="middle" x="502" y="-105.5" font-family="FreeSans" font-size="10.00">::init_from_block_range</text>
</a>
</g>
</g>
<!-- Node19&#45;&gt;Node20 -->
<g id="edge3" class="edge"><title>Node19&#45;&gt;Node20</title>
<path fill="none" stroke="midnightblue" d="M418.532,-113.5C426.996,-113.5 435.62,-113.5 443.947,-113.5"/>
<polygon fill="midnightblue" stroke="midnightblue" points="418.32,-110 408.32,-113.5 418.32,-117 418.32,-110"/>
</g>
<!-- Node21 -->
<g id="node5" class="node"><title>Node21</title>
<g id="a_node5"><a xlink:href="classboost_1_1dynamic__bitset.html#af98fb40e5d97967f43efea9627eef9e1" target="_top" xlink:title="boost::dynamic_bitset\l::dispatch_init">
<polygon fill="white" stroke="black" points="596,-98.5 596,-128.5 706,-128.5 706,-98.5 596,-98.5"/>
<text text-anchor="start" x="604" y="-116.5" font-family="FreeSans" font-size="10.00">boost::dynamic_bitset</text>
<text text-anchor="middle" x="651" y="-105.5" font-family="FreeSans" font-size="10.00">::dispatch_init</text>
</a>
</g>
</g>
<!-- Node20&#45;&gt;Node21 -->
<g id="edge4" class="edge"><title>Node20&#45;&gt;Node21</title>
<path fill="none" stroke="midnightblue" d="M570.435,-113.5C578.848,-113.5 587.368,-113.5 595.55,-113.5"/>
<polygon fill="midnightblue" stroke="midnightblue" points="570.255,-110 560.255,-113.5 570.255,-117 570.255,-110"/>
</g>
<!-- Node23 -->
<g id="node7" class="node"><title>Node23</title>
<g id="a_node7"><a xlink:href="classboost_1_1dynamic__bitset.html#a1597578265ec9f9cc6513bc6bedb4091" target="_top" xlink:title="boost::dynamic_bitset\l::append">
<polygon fill="white" stroke="black" points="298,-25.5 298,-55.5 408,-55.5 408,-25.5 298,-25.5"/>
<text text-anchor="start" x="306" y="-43.5" font-family="FreeSans" font-size="10.00">boost::dynamic_bitset</text>
<text text-anchor="middle" x="353" y="-32.5" font-family="FreeSans" font-size="10.00">::append</text>
</a>
</g>
</g>
<!-- Node22&#45;&gt;Node23 -->
<g id="edge6" class="edge"><title>Node22&#45;&gt;Node23</title>
<path fill="none" stroke="midnightblue" d="M272.157,-53.5356C280.661,-52.1472 289.278,-50.7403 297.55,-49.3898"/>
<polygon fill="midnightblue" stroke="midnightblue" points="271.56,-50.0866 262.255,-55.1523 272.688,-56.9951 271.56,-50.0866"/>
</g>
<!-- Node24&#45;&gt;Node23 -->
<g id="edge8" class="edge"><title>Node24&#45;&gt;Node23</title>
<path fill="none" stroke="midnightblue" d="M269.195,-26.4174C278.772,-28.0462 288.563,-29.7113 297.904,-31.2999"/>
<polygon fill="midnightblue" stroke="midnightblue" points="269.765,-22.9643 259.32,-24.738 268.591,-29.8652 269.765,-22.9643"/>
</g>
</g>
</svg>
        <g id="navigator" transform="translate(0 0)" fill="#404254">
                <rect fill="#f2f5e9" fill-opacity="0.5" stroke="#606060" stroke-width=".5" x="0" y="0" width="60" height="60"/>
                <use id="zoomplus" xlink:href="#zoomPlus" x="17" y="9" onmousedown="handleZoom(evt,'in')"/>
                <use id="zoomminus" xlink:href="#zoomMin" x="42" y="9" onmousedown="handleZoom(evt,'out')"/>
                <use id="reset" xlink:href="#resetDef" x="30" y="36" onmousedown="handleReset()"/>
                <g id="arrowUp" xlink:href="#dirArrow" transform="translate(30 24)" onmousedown="handlePan(0,-1)">
                  <use xlink:href="#rim" fill="#404040">
                        <set attributeName="fill" to="#808080" begin="arrowUp.mouseover" end="arrowUp.mouseout"/>
                  </use>
                  <path fill="none" stroke="white" stroke-width="1.5" d="M0,-3.0v7 M-2.5,-0.5L0,-3.0L2.5,-0.5"/>
                </g>
                <g id="arrowRight" xlink:href="#dirArrow" transform="rotate(90) translate(36 -43)" onmousedown="handlePan(1,0)">
                  <use xlink:href="#rim" fill="#404040">
                        <set attributeName="fill" to="#808080" begin="arrowRight.mouseover" end="arrowRight.mouseout"/>
                  </use>
                  <path fill="none" stroke="white" stroke-width="1.5" d="M0,-3.0v7 M-2.5,-0.5L0,-3.0L2.5,-0.5"/>
                </g>
                <g id="arrowDown" xlink:href="#dirArrow" transform="rotate(180) translate(-30 -48)" onmousedown="handlePan(0,1)">
                  <use xlink:href="#rim" fill="#404040">
                        <set attributeName="fill" to="#808080" begin="arrowDown.mouseover" end="arrowDown.mouseout"/>
                  </use>
                  <path fill="none" stroke="white" stroke-width="1.5" d="M0,-3.0v7 M-2.5,-0.5L0,-3.0L2.5,-0.5"/>
                </g>
                <g id="arrowLeft" xlink:href="#dirArrow" transform="rotate(270) translate(-36 17)" onmousedown="handlePan(-1,0)">
                  <use xlink:href="#rim" fill="#404040">
                        <set attributeName="fill" to="#808080" begin="arrowLeft.mouseover" end="arrowLeft.mouseout"/>
                  </use>
                  <path fill="none" stroke="white" stroke-width="1.5" d="M0,-3.0v7 M-2.5,-0.5L0,-3.0L2.5,-0.5"/>
                </g>
        </g>
        <svg viewBox="0 0 15 15" width="100%" height="30px" preserveAspectRatio="xMaxYMin meet">
         <g id="arrow_out" transform="scale(0.3 0.3)">
          <a xlink:href="classboost_1_1dynamic__bitset_1_1reference_a5296ea1d33880281a4bd738aa30f8baf_icgraph_org.svg" target="_base">
           <rect id="button" ry="5" rx="5" y="6" x="6" height="38" width="38"
                fill="#f2f5e9" fill-opacity="0.5" stroke="#606060" stroke-width="1.0"/>
           <path id="arrow"
             d="M 11.500037,31.436501 C 11.940474,20.09759 22.043105,11.32322 32.158766,21.979434 L 37.068811,17.246167 C 37.068811,17.246167 37.088388,32 37.088388,32 L 22.160133,31.978069 C 22.160133,31.978069 26.997745,27.140456 26.997745,27.140456 C 18.528582,18.264221 13.291696,25.230495 11.500037,31.436501 z"
             style="fill:#404040;"/>
          </a>
         </g>
        </svg>
</svg>
