<?xml version="1.0" encoding="UTF-8" standalone="no"?>
<!DOCTYPE svg PUBLIC "-//W3C//DTD SVG 1.1//EN"
 "http://www.w3.org/Graphics/SVG/1.1/DTD/svg11.dtd">
<!-- Generated by graphviz version 2.38.0 (20140413.2041)
 -->
<!-- Title: SeeSawN::OptimisationN::PDLP4PProblemC Pages: 1 -->
<svg width="268pt" height="970pt"
 viewBox="0.00 0.00 268.00 970.00" xmlns="http://www.w3.org/2000/svg" xmlns:xlink="http://www.w3.org/1999/xlink">
<g id="graph0" class="graph" transform="scale(1 1) rotate(0) translate(4 966)">
<title>SeeSawN::OptimisationN::PDLP4PProblemC</title>
<polygon fill="white" stroke="none" points="-4,4 -4,-966 264,-966 264,4 -4,4"/>
<!-- Node0 -->
<g id="node1" class="node"><title>Node0</title>
<polygon fill="#bfbfbf" stroke="black" points="17.5,-0.5 17.5,-145.5 184.5,-145.5 184.5,-0.5 17.5,-0.5"/>
<text text-anchor="start" x="25.5" y="-133.5" font-family="FreeSans" font-size="10.00">SeeSawN::OptimisationN</text>
<text text-anchor="middle" x="101" y="-122.5" font-family="FreeSans" font-size="10.00">::PDLP4PProblemC</text>
<polyline fill="none" stroke="black" points="17.5,-115.5 184.5,-115.5 "/>
<text text-anchor="middle" x="101" y="-103.5" font-family="FreeSans" font-size="10.00"> </text>
<polyline fill="none" stroke="black" points="17.5,-96.5 184.5,-96.5 "/>
<text text-anchor="start" x="25.5" y="-84.5" font-family="FreeSans" font-size="10.00">* PDLP4PProblemC()</text>
<text text-anchor="start" x="25.5" y="-73.5" font-family="FreeSans" font-size="10.00">* PDLP4PProblemC()</text>
<text text-anchor="start" x="25.5" y="-62.5" font-family="FreeSans" font-size="10.00">* ComputeJacobian()</text>
<text text-anchor="start" x="25.5" y="-51.5" font-family="FreeSans" font-size="10.00">* InitialEstimate()</text>
<text text-anchor="start" x="25.5" y="-40.5" font-family="FreeSans" font-size="10.00">* ComputeError()</text>
<text text-anchor="start" x="25.5" y="-29.5" font-family="FreeSans" font-size="10.00">* Update()</text>
<text text-anchor="start" x="25.5" y="-18.5" font-family="FreeSans" font-size="10.00">* MakeResult()</text>
<text text-anchor="start" x="25.5" y="-7.5" font-family="FreeSans" font-size="10.00">* ComputeRelativeModelDistance()</text>
</g>
<!-- Node1 -->
<g id="node2" class="node"><title>Node1</title>
<g id="a_node2"><a xlink:href="classSeeSawN_1_1OptimisationN_1_1PDLGeometryEstimationProblemBaseC.html" target="_top" xlink:title="{SeeSawN::OptimisationN\l::PDLGeometryEstimationProblem\lBaseC\&lt; PDLP4PProblemC, P4PSolverC \&gt;\n|# initialEstimate\l# correspondences\l# solver\l# errorMetric\l# flagValid\l|+ PDLGeometryEstimationProblem\lBaseC()\l+ PDLGeometryEstimationProblem\lBaseC()\l# ComputeError()\l# ComputeJacobian()\l* result_type\l* has_normal_solver\l* has_covariance_estimator\l* has_nontrivial_update\l* observation_set_type\l* ComputeError()\l* Configure()\l* IsValid()\l* InitialEstimate()\l* Update()\land 7 more...\l* initialEstimate\l* correspondences\l* solver\l* errorMetric\l* flagValid\l* ComputeError()\l* ComputeJacobian()\l* PDLGeometryEstimationProblem\lBaseC()\l* PDLGeometryEstimationProblem\lBaseC()\l}">
<polygon fill="white" stroke="black" points="0,-183.5 0,-603.5 202,-603.5 202,-183.5 0,-183.5"/>
<text text-anchor="start" x="8" y="-591.5" font-family="FreeSans" font-size="10.00">SeeSawN::OptimisationN</text>
<text text-anchor="start" x="8" y="-580.5" font-family="FreeSans" font-size="10.00">::PDLGeometryEstimationProblem</text>
<text text-anchor="middle" x="101" y="-569.5" font-family="FreeSans" font-size="10.00">BaseC&lt; PDLP4PProblemC, P4PSolverC &gt;</text>
<polyline fill="none" stroke="black" points="0,-562.5 202,-562.5 "/>
<text text-anchor="start" x="8" y="-550.5" font-family="FreeSans" font-size="10.00"># initialEstimate</text>
<text text-anchor="start" x="8" y="-539.5" font-family="FreeSans" font-size="10.00"># correspondences</text>
<text text-anchor="start" x="8" y="-528.5" font-family="FreeSans" font-size="10.00"># solver</text>
<text text-anchor="start" x="8" y="-517.5" font-family="FreeSans" font-size="10.00"># errorMetric</text>
<text text-anchor="start" x="8" y="-506.5" font-family="FreeSans" font-size="10.00"># flagValid</text>
<polyline fill="none" stroke="black" points="0,-499.5 202,-499.5 "/>
<text text-anchor="start" x="8" y="-487.5" font-family="FreeSans" font-size="10.00">+ PDLGeometryEstimationProblem</text>
<text text-anchor="start" x="8" y="-476.5" font-family="FreeSans" font-size="10.00">BaseC()</text>
<text text-anchor="start" x="8" y="-465.5" font-family="FreeSans" font-size="10.00">+ PDLGeometryEstimationProblem</text>
<text text-anchor="start" x="8" y="-454.5" font-family="FreeSans" font-size="10.00">BaseC()</text>
<text text-anchor="start" x="8" y="-443.5" font-family="FreeSans" font-size="10.00"># ComputeError()</text>
<text text-anchor="start" x="8" y="-432.5" font-family="FreeSans" font-size="10.00"># ComputeJacobian()</text>
<text text-anchor="start" x="8" y="-421.5" font-family="FreeSans" font-size="10.00">* result_type</text>
<text text-anchor="start" x="8" y="-410.5" font-family="FreeSans" font-size="10.00">* has_normal_solver</text>
<text text-anchor="start" x="8" y="-399.5" font-family="FreeSans" font-size="10.00">* has_covariance_estimator</text>
<text text-anchor="start" x="8" y="-388.5" font-family="FreeSans" font-size="10.00">* has_nontrivial_update</text>
<text text-anchor="start" x="8" y="-377.5" font-family="FreeSans" font-size="10.00">* observation_set_type</text>
<text text-anchor="start" x="8" y="-366.5" font-family="FreeSans" font-size="10.00">* ComputeError()</text>
<text text-anchor="start" x="8" y="-355.5" font-family="FreeSans" font-size="10.00">* Configure()</text>
<text text-anchor="start" x="8" y="-344.5" font-family="FreeSans" font-size="10.00">* IsValid()</text>
<text text-anchor="start" x="8" y="-333.5" font-family="FreeSans" font-size="10.00">* InitialEstimate()</text>
<text text-anchor="start" x="8" y="-322.5" font-family="FreeSans" font-size="10.00">* Update()</text>
<text text-anchor="start" x="8" y="-311.5" font-family="FreeSans" font-size="10.00">and 7 more...</text>
<text text-anchor="start" x="8" y="-300.5" font-family="FreeSans" font-size="10.00">* initialEstimate</text>
<text text-anchor="start" x="8" y="-289.5" font-family="FreeSans" font-size="10.00">* correspondences</text>
<text text-anchor="start" x="8" y="-278.5" font-family="FreeSans" font-size="10.00">* solver</text>
<text text-anchor="start" x="8" y="-267.5" font-family="FreeSans" font-size="10.00">* errorMetric</text>
<text text-anchor="start" x="8" y="-256.5" font-family="FreeSans" font-size="10.00">* flagValid</text>
<text text-anchor="start" x="8" y="-245.5" font-family="FreeSans" font-size="10.00">* ComputeError()</text>
<text text-anchor="start" x="8" y="-234.5" font-family="FreeSans" font-size="10.00">* ComputeJacobian()</text>
<text text-anchor="start" x="8" y="-223.5" font-family="FreeSans" font-size="10.00">* PDLGeometryEstimationProblem</text>
<text text-anchor="start" x="8" y="-212.5" font-family="FreeSans" font-size="10.00">BaseC()</text>
<text text-anchor="start" x="8" y="-201.5" font-family="FreeSans" font-size="10.00">* PDLGeometryEstimationProblem</text>
<text text-anchor="start" x="8" y="-190.5" font-family="FreeSans" font-size="10.00">BaseC()</text>
</a>
</g>
</g>
<!-- Node1&#45;&gt;Node0 -->
<g id="edge1" class="edge"><title>Node1&#45;&gt;Node0</title>
<path fill="none" stroke="midnightblue" d="M101,-173.06C101,-163.475 101,-154.232 101,-145.5"/>
<polygon fill="none" stroke="midnightblue" points="97.5001,-173.164 101,-183.164 104.5,-173.164 97.5001,-173.164"/>
</g>
<!-- Node2 -->
<g id="node3" class="node"><title>Node2</title>
<g id="a_node3"><a xlink:href="classSeeSawN_1_1OptimisationN_1_1PDLGeometryEstimationProblemBaseC.html" target="_top" xlink:title="Base problem class for Powell&#39;s dog leg geometry estimation problems. ">
<polygon fill="white" stroke="black" points="10,-651.5 10,-961.5 192,-961.5 192,-651.5 10,-651.5"/>
<text text-anchor="start" x="18" y="-949.5" font-family="FreeSans" font-size="10.00">SeeSawN::OptimisationN</text>
<text text-anchor="start" x="18" y="-938.5" font-family="FreeSans" font-size="10.00">::PDLGeometryEstimationProblem</text>
<text text-anchor="middle" x="101" y="-927.5" font-family="FreeSans" font-size="10.00">BaseC&lt; DerivedT, GeometrySolverT &gt;</text>
<polyline fill="none" stroke="black" points="10,-920.5 192,-920.5 "/>
<text text-anchor="middle" x="101" y="-908.5" font-family="FreeSans" font-size="10.00"> </text>
<polyline fill="none" stroke="black" points="10,-901.5 192,-901.5 "/>
<text text-anchor="start" x="18" y="-889.5" font-family="FreeSans" font-size="10.00">* initialEstimate</text>
<text text-anchor="start" x="18" y="-878.5" font-family="FreeSans" font-size="10.00">* correspondences</text>
<text text-anchor="start" x="18" y="-867.5" font-family="FreeSans" font-size="10.00">* solver</text>
<text text-anchor="start" x="18" y="-856.5" font-family="FreeSans" font-size="10.00">* errorMetric</text>
<text text-anchor="start" x="18" y="-845.5" font-family="FreeSans" font-size="10.00">* flagValid</text>
<text text-anchor="start" x="18" y="-834.5" font-family="FreeSans" font-size="10.00">* ComputeError()</text>
<text text-anchor="start" x="18" y="-823.5" font-family="FreeSans" font-size="10.00">* ComputeJacobian()</text>
<text text-anchor="start" x="18" y="-812.5" font-family="FreeSans" font-size="10.00">* PDLGeometryEstimationProblem</text>
<text text-anchor="start" x="18" y="-801.5" font-family="FreeSans" font-size="10.00">BaseC()</text>
<text text-anchor="start" x="18" y="-790.5" font-family="FreeSans" font-size="10.00">* PDLGeometryEstimationProblem</text>
<text text-anchor="start" x="18" y="-779.5" font-family="FreeSans" font-size="10.00">BaseC()</text>
<text text-anchor="start" x="18" y="-768.5" font-family="FreeSans" font-size="10.00">* result_type</text>
<text text-anchor="start" x="18" y="-757.5" font-family="FreeSans" font-size="10.00">* has_normal_solver</text>
<text text-anchor="start" x="18" y="-746.5" font-family="FreeSans" font-size="10.00">* has_covariance_estimator</text>
<text text-anchor="start" x="18" y="-735.5" font-family="FreeSans" font-size="10.00">* has_nontrivial_update</text>
<text text-anchor="start" x="18" y="-724.5" font-family="FreeSans" font-size="10.00">* observation_set_type</text>
<text text-anchor="start" x="18" y="-713.5" font-family="FreeSans" font-size="10.00">* Configure()</text>
<text text-anchor="start" x="18" y="-702.5" font-family="FreeSans" font-size="10.00">* IsValid()</text>
<text text-anchor="start" x="18" y="-691.5" font-family="FreeSans" font-size="10.00">* InitialEstimate()</text>
<text text-anchor="start" x="18" y="-680.5" font-family="FreeSans" font-size="10.00">* ComputeError()</text>
<text text-anchor="start" x="18" y="-669.5" font-family="FreeSans" font-size="10.00">* Update()</text>
<text text-anchor="start" x="18" y="-658.5" font-family="FreeSans" font-size="10.00">and 7 more...</text>
</a>
</g>
</g>
<!-- Node2&#45;&gt;Node1 -->
<g id="edge2" class="edge"><title>Node2&#45;&gt;Node1</title>
<path fill="none" stroke="orange" d="M101,-640.994C101,-628.675 101,-616.151 101,-603.609"/>
<polygon fill="orange" stroke="orange" points="97.5001,-641.289 101,-651.289 104.5,-641.289 97.5001,-641.289"/>
<text text-anchor="middle" x="180.5" y="-625" font-family="FreeSans" font-size="10.00"> &lt; PDLP4PProblemC, P4PSolverC &gt;</text>
</g>
</g>
</svg>
