<?xml version="1.0" encoding="UTF-8" standalone="no"?>
<!DOCTYPE svg PUBLIC "-//W3C//DTD SVG 1.1//EN"
 "http://www.w3.org/Graphics/SVG/1.1/DTD/svg11.dtd">
<!-- Generated by graphviz version 2.38.0 (20140413.2041)
 -->
<!-- Title: SeeSawN::ApplicationN::InterfaceSparseUnitSphereReconstructionC::MakeParameterObject Pages: 1 -->
<!--zoomable 280 -->
<svg id="main" version="1.1" xmlns="http://www.w3.org/2000/svg" xmlns:xlink="http://www.w3.org/1999/xlink" xml:space="preserve" onload="init(evt)">
<style type="text/css"><![CDATA[
.edge:hover path { stroke: red; }
.edge:hover polygon { stroke: red; fill: red; }
]]></style>
<script type="text/javascript"><![CDATA[
var edges = document.getElementsByTagName('g');
if (edges && edges.length) {
  for (var i=0;i<edges.length;i++) {
    if (edges[i].id.substr(0,4)=='edge') {
      edges[i].setAttribute('class','edge');
    }
  }
}
]]></script>
        <defs>
                <circle id="rim" cx="0" cy="0" r="7"/>
                <circle id="rim2" cx="0" cy="0" r="3.5"/>
                <g id="zoomPlus">
                        <use xlink:href="#rim" fill="#404040">
                                <set attributeName="fill" to="#808080" begin="zoomplus.mouseover" end="zoomplus.mouseout"/>
                        </use>
                        <path d="M-4,0h8M0,-4v8" fill="none" stroke="white" stroke-width="1.5" pointer-events="none"/>
                </g>
                <g id="zoomMin">
                        <use xlink:href="#rim" fill="#404040">
                                <set attributeName="fill" to="#808080" begin="zoomminus.mouseover" end="zoomminus.mouseout"/>
                        </use>
                        <path d="M-4,0h8" fill="none" stroke="white" stroke-width="1.5" pointer-events="none"/>
                </g>
                <g id="dirArrow">
                        <path fill="none" stroke="white" stroke-width="1.5" d="M0,-3.0v7 M-2.5,-0.5L0,-3.0L2.5,-0.5"/>
                </g>
               <g id="resetDef">
                       <use xlink:href="#rim2" fill="#404040">
                               <set attributeName="fill" to="#808080" begin="reset.mouseover" end="reset.mouseout"/>
                       </use>
               </g>
        </defs>

<script type="text/javascript">
var viewWidth = 776;
var viewHeight = 280;
var sectionId = 'dynsection-1';
</script>
<script xlink:href="svgpan.js"/>
<svg id="graph" class="graph">
<g id="viewport">
<title>SeeSawN::ApplicationN::InterfaceSparseUnitSphereReconstructionC::MakeParameterObject</title>
<polygon fill="white" stroke="none" points="-4,4 -4,-276 772,-276 772,4 -4,4"/>
<!-- Node0 -->
<g id="node1" class="node"><title>Node0</title>
<polygon fill="#bfbfbf" stroke="black" points="0,-132.5 0,-173.5 191,-173.5 191,-132.5 0,-132.5"/>
<text text-anchor="start" x="8" y="-161.5" font-family="FreeSans" font-size="10.00">SeeSawN::ApplicationN</text>
<text text-anchor="start" x="8" y="-150.5" font-family="FreeSans" font-size="10.00">::InterfaceSparseUnitSphere</text>
<text text-anchor="middle" x="95.5" y="-139.5" font-family="FreeSans" font-size="10.00">ReconstructionC::MakeParameterObject</text>
</g>
<!-- Node1 -->
<g id="node2" class="node"><title>Node1</title>
<g id="a_node2"><a xlink:href="classSeeSawN_1_1ApplicationN_1_1InterfaceMultiviewPanoramaBuilderC.html#ae64ad3d3b4f4626f250d6f45ede90ad3" target="_top" xlink:title="Makes a parameter object from a property tree. ">
<polygon fill="white" stroke="black" points="456,-230.5 456,-271.5 611,-271.5 611,-230.5 456,-230.5"/>
<text text-anchor="start" x="464" y="-259.5" font-family="FreeSans" font-size="10.00">SeeSawN::ApplicationN</text>
<text text-anchor="start" x="464" y="-248.5" font-family="FreeSans" font-size="10.00">::InterfaceMultiviewPanorama</text>
<text text-anchor="middle" x="533.5" y="-237.5" font-family="FreeSans" font-size="10.00">BuilderC::MakeParameterObject</text>
</a>
</g>
</g>
<!-- Node0&#45;&gt;Node1 -->
<g id="edge1" class="edge"><title>Node0&#45;&gt;Node1</title>
<path fill="none" stroke="midnightblue" d="M130.945,-173.592C156.543,-187.894 192.806,-206.097 227,-216 298.889,-236.821 383.661,-245.334 445.646,-248.775"/>
<polygon fill="midnightblue" stroke="midnightblue" points="445.612,-252.278 455.78,-249.304 445.976,-245.288 445.612,-252.278"/>
</g>
<!-- Node2 -->
<g id="node3" class="node"><title>Node2</title>
<g id="a_node3"><a xlink:href="group__Utility.html#ga48dc86b390790f70172782dc63ab5e8f" target="_top" xlink:title="Reads and validates a parameter from a property tree. ">
<polygon fill="white" stroke="black" points="647,-168 647,-198 768,-198 768,-168 647,-168"/>
<text text-anchor="start" x="655" y="-186" font-family="FreeSans" font-size="10.00">SeeSawN::ApplicationN</text>
<text text-anchor="middle" x="707.5" y="-175" font-family="FreeSans" font-size="10.00">::ReadParameter</text>
</a>
</g>
</g>
<!-- Node0&#45;&gt;Node2 -->
<g id="edge10" class="edge"><title>Node0&#45;&gt;Node2</title>
<path fill="none" stroke="midnightblue" d="M172.596,-173.53C190.321,-177.464 209.214,-180.982 227,-183 371.904,-199.441 543.029,-193.381 636.633,-187.916"/>
<polygon fill="midnightblue" stroke="midnightblue" points="637.055,-191.397 646.828,-187.305 636.637,-184.409 637.055,-191.397"/>
</g>
<!-- Node3 -->
<g id="node4" class="node"><title>Node3</title>
<g id="a_node4"><a xlink:href="classSeeSawN_1_1ApplicationN_1_1InterfaceMultisourceFeatureMatcherC.html#a32151a42087a150e45561f576e7bac11" target="_top" xlink:title="Makes a parameter object from a property tree. ">
<polygon fill="white" stroke="black" points="243,-132.5 243,-173.5 404,-173.5 404,-132.5 243,-132.5"/>
<text text-anchor="start" x="251" y="-161.5" font-family="FreeSans" font-size="10.00">SeeSawN::ApplicationN</text>
<text text-anchor="start" x="251" y="-150.5" font-family="FreeSans" font-size="10.00">::InterfaceMultisourceFeature</text>
<text text-anchor="middle" x="323.5" y="-139.5" font-family="FreeSans" font-size="10.00">MatcherC::MakeParameterObject</text>
</a>
</g>
</g>
<!-- Node0&#45;&gt;Node3 -->
<g id="edge3" class="edge"><title>Node0&#45;&gt;Node3</title>
<path fill="none" stroke="midnightblue" d="M191.035,-153C204.722,-153 218.78,-153 232.378,-153"/>
<polygon fill="midnightblue" stroke="midnightblue" points="232.672,-156.5 242.672,-153 232.672,-149.5 232.672,-156.5"/>
</g>
<!-- Node6 -->
<g id="node7" class="node"><title>Node6</title>
<g id="a_node7"><a xlink:href="classSeeSawN_1_1ApplicationN_1_1InterfaceSparseUnitSphereReconstructionC.html#aa183452a85be71a4bfa71fffaad4de47" target="_top" xlink:title="Removes the redundant elements from a multisource feature matcher property tree. ">
<polygon fill="white" stroke="black" points="239,-61 239,-113 408,-113 408,-61 239,-61"/>
<text text-anchor="start" x="247" y="-101" font-family="FreeSans" font-size="10.00">SeeSawN::ApplicationN</text>
<text text-anchor="start" x="247" y="-90" font-family="FreeSans" font-size="10.00">::InterfaceSparseUnitSphere</text>
<text text-anchor="start" x="247" y="-79" font-family="FreeSans" font-size="10.00">ReconstructionC::PruneMultisource</text>
<text text-anchor="middle" x="323.5" y="-68" font-family="FreeSans" font-size="10.00">FeatureMatcher</text>
</a>
</g>
</g>
<!-- Node0&#45;&gt;Node6 -->
<g id="edge8" class="edge"><title>Node0&#45;&gt;Node6</title>
<path fill="none" stroke="midnightblue" d="M166.769,-132.479C186.456,-126.73 208.173,-120.387 228.981,-114.311"/>
<polygon fill="midnightblue" stroke="midnightblue" points="230.17,-117.61 238.787,-111.447 228.207,-110.891 230.17,-117.61"/>
</g>
<!-- Node7 -->
<g id="node8" class="node"><title>Node7</title>
<g id="a_node8"><a xlink:href="classSeeSawN_1_1ApplicationN_1_1InterfaceSparseUnitSphereReconstructionC.html#ae6bf21ea90f7f974b77106b41df05d2c" target="_top" xlink:title="Removes the redundant elements from a multiview panorama builder property tree. ">
<polygon fill="white" stroke="black" points="227,-0.5 227,-41.5 420,-41.5 420,-0.5 227,-0.5"/>
<text text-anchor="start" x="235" y="-29.5" font-family="FreeSans" font-size="10.00">SeeSawN::ApplicationN</text>
<text text-anchor="start" x="235" y="-18.5" font-family="FreeSans" font-size="10.00">::InterfaceSparseUnitSphere</text>
<text text-anchor="middle" x="323.5" y="-7.5" font-family="FreeSans" font-size="10.00">ReconstructionC::PrunePanoramaBuilder</text>
</a>
</g>
</g>
<!-- Node0&#45;&gt;Node7 -->
<g id="edge9" class="edge"><title>Node0&#45;&gt;Node7</title>
<path fill="none" stroke="midnightblue" d="M118.404,-132.161C143.076,-109.663 185.208,-74.091 227,-52 231.301,-49.7267 235.798,-47.5807 240.399,-45.5611"/>
<polygon fill="midnightblue" stroke="midnightblue" points="242.064,-48.6597 249.958,-41.5932 239.38,-42.1946 242.064,-48.6597"/>
</g>
<!-- Node1&#45;&gt;Node2 -->
<g id="edge2" class="edge"><title>Node1&#45;&gt;Node2</title>
<path fill="none" stroke="midnightblue" d="M586.572,-230.413C609.672,-221.281 636.661,-210.611 659.18,-201.708"/>
<polygon fill="midnightblue" stroke="midnightblue" points="660.521,-204.942 668.533,-198.01 657.947,-198.432 660.521,-204.942"/>
</g>
<!-- Node3&#45;&gt;Node2 -->
<g id="edge7" class="edge"><title>Node3&#45;&gt;Node2</title>
<path fill="none" stroke="midnightblue" d="M404.115,-159.252C472.815,-164.648 571.069,-172.364 636.734,-177.521"/>
<polygon fill="midnightblue" stroke="midnightblue" points="636.74,-181.032 646.984,-178.326 637.288,-174.054 636.74,-181.032"/>
</g>
<!-- Node4 -->
<g id="node5" class="node"><title>Node4</title>
<g id="a_node5"><a xlink:href="classSeeSawN_1_1ApplicationN_1_1InterfaceFeatureMatcherC.html#af7d4e6a1ebf6147dc4385a4a6df3b4e5" target="_top" xlink:title="Makes a parameter object from a property tree. ">
<polygon fill="white" stroke="black" points="466.5,-94.5 466.5,-135.5 600.5,-135.5 600.5,-94.5 466.5,-94.5"/>
<text text-anchor="start" x="474.5" y="-123.5" font-family="FreeSans" font-size="10.00">SeeSawN::ApplicationN</text>
<text text-anchor="start" x="474.5" y="-112.5" font-family="FreeSans" font-size="10.00">::InterfaceFeatureMatcherC</text>
<text text-anchor="middle" x="533.5" y="-101.5" font-family="FreeSans" font-size="10.00">::MakeParameterObject</text>
</a>
</g>
</g>
<!-- Node3&#45;&gt;Node4 -->
<g id="edge4" class="edge"><title>Node3&#45;&gt;Node4</title>
<path fill="none" stroke="midnightblue" d="M404.026,-138.471C421.187,-135.336 439.29,-132.029 456.32,-128.918"/>
<polygon fill="midnightblue" stroke="midnightblue" points="456.999,-132.352 466.207,-127.111 455.741,-125.466 456.999,-132.352"/>
</g>
<!-- Node5 -->
<g id="node6" class="node"><title>Node5</title>
<g id="a_node6"><a xlink:href="classSeeSawN_1_1ApplicationN_1_1InterfaceMultisourceFeatureMatcherC.html#a2e08a3ff773867c3dd24a374109ea603" target="_top" xlink:title="Removes the redundant matcher parameters. ">
<polygon fill="white" stroke="black" points="462,-34.5 462,-75.5 605,-75.5 605,-34.5 462,-34.5"/>
<text text-anchor="start" x="470" y="-63.5" font-family="FreeSans" font-size="10.00">SeeSawN::ApplicationN</text>
<text text-anchor="start" x="470" y="-52.5" font-family="FreeSans" font-size="10.00">::InterfaceMultisourceFeature</text>
<text text-anchor="middle" x="533.5" y="-41.5" font-family="FreeSans" font-size="10.00">MatcherC::PruneMatcher</text>
</a>
</g>
</g>
<!-- Node3&#45;&gt;Node5 -->
<g id="edge6" class="edge"><title>Node3&#45;&gt;Node5</title>
<path fill="none" stroke="midnightblue" d="M402.128,-132.399C408.357,-129.62 414.399,-126.499 420,-123 439.731,-110.674 436.708,-98.0028 456,-85 458.384,-83.3929 460.868,-81.8528 463.419,-80.3793"/>
<polygon fill="midnightblue" stroke="midnightblue" points="465.145,-83.4254 472.314,-75.6246 461.845,-77.252 465.145,-83.4254"/>
</g>
<!-- Node4&#45;&gt;Node2 -->
<g id="edge5" class="edge"><title>Node4&#45;&gt;Node2</title>
<path fill="none" stroke="midnightblue" d="M586.572,-135.587C609.672,-144.719 636.661,-155.389 659.18,-164.292"/>
<polygon fill="midnightblue" stroke="midnightblue" points="657.947,-167.568 668.533,-167.99 660.521,-161.058 657.947,-167.568"/>
</g>
</g>
</svg>
        <g id="navigator" transform="translate(0 0)" fill="#404254">
                <rect fill="#f2f5e9" fill-opacity="0.5" stroke="#606060" stroke-width=".5" x="0" y="0" width="60" height="60"/>
                <use id="zoomplus" xlink:href="#zoomPlus" x="17" y="9" onmousedown="handleZoom(evt,'in')"/>
                <use id="zoomminus" xlink:href="#zoomMin" x="42" y="9" onmousedown="handleZoom(evt,'out')"/>
                <use id="reset" xlink:href="#resetDef" x="30" y="36" onmousedown="handleReset()"/>
                <g id="arrowUp" xlink:href="#dirArrow" transform="translate(30 24)" onmousedown="handlePan(0,-1)">
                  <use xlink:href="#rim" fill="#404040">
                        <set attributeName="fill" to="#808080" begin="arrowUp.mouseover" end="arrowUp.mouseout"/>
                  </use>
                  <path fill="none" stroke="white" stroke-width="1.5" d="M0,-3.0v7 M-2.5,-0.5L0,-3.0L2.5,-0.5"/>
                </g>
                <g id="arrowRight" xlink:href="#dirArrow" transform="rotate(90) translate(36 -43)" onmousedown="handlePan(1,0)">
                  <use xlink:href="#rim" fill="#404040">
                        <set attributeName="fill" to="#808080" begin="arrowRight.mouseover" end="arrowRight.mouseout"/>
                  </use>
                  <path fill="none" stroke="white" stroke-width="1.5" d="M0,-3.0v7 M-2.5,-0.5L0,-3.0L2.5,-0.5"/>
                </g>
                <g id="arrowDown" xlink:href="#dirArrow" transform="rotate(180) translate(-30 -48)" onmousedown="handlePan(0,1)">
                  <use xlink:href="#rim" fill="#404040">
                        <set attributeName="fill" to="#808080" begin="arrowDown.mouseover" end="arrowDown.mouseout"/>
                  </use>
                  <path fill="none" stroke="white" stroke-width="1.5" d="M0,-3.0v7 M-2.5,-0.5L0,-3.0L2.5,-0.5"/>
                </g>
                <g id="arrowLeft" xlink:href="#dirArrow" transform="rotate(270) translate(-36 17)" onmousedown="handlePan(-1,0)">
                  <use xlink:href="#rim" fill="#404040">
                        <set attributeName="fill" to="#808080" begin="arrowLeft.mouseover" end="arrowLeft.mouseout"/>
                  </use>
                  <path fill="none" stroke="white" stroke-width="1.5" d="M0,-3.0v7 M-2.5,-0.5L0,-3.0L2.5,-0.5"/>
                </g>
        </g>
        <svg viewBox="0 0 15 15" width="100%" height="30px" preserveAspectRatio="xMaxYMin meet">
         <g id="arrow_out" transform="scale(0.3 0.3)">
          <a xlink:href="classSeeSawN_1_1ApplicationN_1_1InterfaceSparseUnitSphereReconstructionC_ae65a4c92e3dd37422ffd23871f84b97e_cgraph_org.svg" target="_base">
           <rect id="button" ry="5" rx="5" y="6" x="6" height="38" width="38"
                fill="#f2f5e9" fill-opacity="0.5" stroke="#606060" stroke-width="1.0"/>
           <path id="arrow"
             d="M 11.500037,31.436501 C 11.940474,20.09759 22.043105,11.32322 32.158766,21.979434 L 37.068811,17.246167 C 37.068811,17.246167 37.088388,32 37.088388,32 L 22.160133,31.978069 C 22.160133,31.978069 26.997745,27.140456 26.997745,27.140456 C 18.528582,18.264221 13.291696,25.230495 11.500037,31.436501 z"
             style="fill:#404040;"/>
          </a>
         </g>
        </svg>
</svg>
