<?xml version="1.0" encoding="UTF-8" standalone="no"?>
<!DOCTYPE svg PUBLIC "-//W3C//DTD SVG 1.1//EN"
 "http://www.w3.org/Graphics/SVG/1.1/DTD/svg11.dtd">
<!-- Generated by graphviz version 2.38.0 (20140413.2041)
 -->
<!-- Title: SeeSawN::GeometryN::Fundamental8SolverC Pages: 1 -->
<svg width="522pt" height="921pt"
 viewBox="0.00 0.00 521.50 921.00" xmlns="http://www.w3.org/2000/svg" xmlns:xlink="http://www.w3.org/1999/xlink">
<g id="graph0" class="graph" transform="scale(1 1) rotate(0) translate(4 917)">
<title>SeeSawN::GeometryN::Fundamental8SolverC</title>
<polygon fill="white" stroke="none" points="-4,4 -4,-917 517.5,-917 517.5,4 -4,4"/>
<!-- Node3 -->
<g id="node1" class="node"><title>Node3</title>
<polygon fill="#bfbfbf" stroke="black" points="369.5,-0.5 369.5,-178.5 513.5,-178.5 513.5,-0.5 369.5,-0.5"/>
<text text-anchor="start" x="377.5" y="-166.5" font-family="FreeSans" font-size="10.00">SeeSawN::GeometryN</text>
<text text-anchor="middle" x="441.5" y="-155.5" font-family="FreeSans" font-size="10.00">::Fundamental8SolverC</text>
<polyline fill="none" stroke="black" points="369.5,-148.5 513.5,-148.5 "/>
<text text-anchor="middle" x="441.5" y="-136.5" font-family="FreeSans" font-size="10.00"> </text>
<polyline fill="none" stroke="black" points="369.5,-129.5 513.5,-129.5 "/>
<text text-anchor="start" x="377.5" y="-117.5" font-family="FreeSans" font-size="10.00">+ MakeMinimal()</text>
<text text-anchor="start" x="377.5" y="-106.5" font-family="FreeSans" font-size="10.00">+ ComputeSampleStatistics()</text>
<text text-anchor="start" x="377.5" y="-95.5" font-family="FreeSans" font-size="10.00">+ operator()()</text>
<text text-anchor="start" x="377.5" y="-84.5" font-family="FreeSans" font-size="10.00">* distance_type</text>
<text text-anchor="start" x="377.5" y="-73.5" font-family="FreeSans" font-size="10.00">* minimal_model_type</text>
<text text-anchor="start" x="377.5" y="-62.5" font-family="FreeSans" font-size="10.00">* uncertainty_type</text>
<text text-anchor="start" x="377.5" y="-51.5" font-family="FreeSans" font-size="10.00">* operator()()</text>
<text text-anchor="start" x="377.5" y="-40.5" font-family="FreeSans" font-size="10.00">* Cost()</text>
<text text-anchor="start" x="377.5" y="-29.5" font-family="FreeSans" font-size="10.00">* MakeMinimal()</text>
<text text-anchor="start" x="377.5" y="-18.5" font-family="FreeSans" font-size="10.00">* MakeModelFromMinimal()</text>
<text text-anchor="start" x="377.5" y="-7.5" font-family="FreeSans" font-size="10.00">* ComputeSampleStatistics()</text>
</g>
<!-- Node4 -->
<g id="node2" class="node"><title>Node4</title>
<g id="a_node2"><a xlink:href="classSeeSawN_1_1GeometryN_1_1GeometrySolverBaseC.html" target="_top" xlink:title="{SeeSawN::GeometryN\l::GeometrySolverBaseC\l\&lt; Fundamental8SolverC,\l EpipolarMatrixT, EpipolarSampson\lErrorC, 2, 2, 8, true, 1, 9, 7 \&gt;\n||+ EvaluateModel()\l+ EvaluateModel()\l* coordinate_type1\l* coordinate_type2\l* model_type\l* real_type\l* error_type\l* constraint_type\l* loss_type\l* distance_type\l* GeneratorSize()\l* IsNonminimal()\land 8 more...\l}">
<polygon fill="white" stroke="black" points="130,-216.5 130,-449.5 297,-449.5 297,-216.5 130,-216.5"/>
<text text-anchor="start" x="138" y="-437.5" font-family="FreeSans" font-size="10.00">SeeSawN::GeometryN</text>
<text text-anchor="start" x="138" y="-426.5" font-family="FreeSans" font-size="10.00">::GeometrySolverBaseC</text>
<text text-anchor="start" x="138" y="-415.5" font-family="FreeSans" font-size="10.00">&lt; Fundamental8SolverC,</text>
<text text-anchor="start" x="138" y="-404.5" font-family="FreeSans" font-size="10.00"> EpipolarMatrixT, EpipolarSampson</text>
<text text-anchor="middle" x="213.5" y="-393.5" font-family="FreeSans" font-size="10.00">ErrorC, 2, 2, 8, true, 1, 9, 7 &gt;</text>
<polyline fill="none" stroke="black" points="130,-386.5 297,-386.5 "/>
<text text-anchor="middle" x="213.5" y="-374.5" font-family="FreeSans" font-size="10.00"> </text>
<polyline fill="none" stroke="black" points="130,-367.5 297,-367.5 "/>
<text text-anchor="start" x="138" y="-355.5" font-family="FreeSans" font-size="10.00">+ EvaluateModel()</text>
<text text-anchor="start" x="138" y="-344.5" font-family="FreeSans" font-size="10.00">+ EvaluateModel()</text>
<text text-anchor="start" x="138" y="-333.5" font-family="FreeSans" font-size="10.00">* coordinate_type1</text>
<text text-anchor="start" x="138" y="-322.5" font-family="FreeSans" font-size="10.00">* coordinate_type2</text>
<text text-anchor="start" x="138" y="-311.5" font-family="FreeSans" font-size="10.00">* model_type</text>
<text text-anchor="start" x="138" y="-300.5" font-family="FreeSans" font-size="10.00">* real_type</text>
<text text-anchor="start" x="138" y="-289.5" font-family="FreeSans" font-size="10.00">* error_type</text>
<text text-anchor="start" x="138" y="-278.5" font-family="FreeSans" font-size="10.00">* constraint_type</text>
<text text-anchor="start" x="138" y="-267.5" font-family="FreeSans" font-size="10.00">* loss_type</text>
<text text-anchor="start" x="138" y="-256.5" font-family="FreeSans" font-size="10.00">* distance_type</text>
<text text-anchor="start" x="138" y="-245.5" font-family="FreeSans" font-size="10.00">* GeneratorSize()</text>
<text text-anchor="start" x="138" y="-234.5" font-family="FreeSans" font-size="10.00">* IsNonminimal()</text>
<text text-anchor="start" x="138" y="-223.5" font-family="FreeSans" font-size="10.00">and 8 more...</text>
</a>
</g>
</g>
<!-- Node4&#45;&gt;Node3 -->
<g id="edge1" class="edge"><title>Node4&#45;&gt;Node3</title>
<path fill="none" stroke="midnightblue" d="M304.079,-236.057C325.703,-213.154 348.501,-189.005 369.178,-167.104"/>
<polygon fill="none" stroke="midnightblue" points="301.424,-233.771 297.104,-243.446 306.514,-238.577 301.424,-233.771"/>
</g>
<!-- Node5 -->
<g id="node3" class="node"><title>Node5</title>
<polygon fill="white" stroke="#bfbfbf" points="0,-624 0,-681 139,-681 139,-624 0,-624"/>
<text text-anchor="middle" x="69.5" y="-669" font-family="FreeSans" font-size="10.00">static constexpr unsigned int</text>
<polyline fill="none" stroke="#bfbfbf" points="0,-662 139,-662 "/>
<text text-anchor="middle" x="69.5" y="-650" font-family="FreeSans" font-size="10.00"> </text>
<polyline fill="none" stroke="#bfbfbf" points="0,-643 139,-643 "/>
<text text-anchor="middle" x="69.5" y="-631" font-family="FreeSans" font-size="10.00"> </text>
</g>
<!-- Node5&#45;&gt;Node4 -->
<g id="edge2" class="edge"><title>Node5&#45;&gt;Node4</title>
<path fill="none" stroke="#404040" d="M70.8019,-623.797C73.4467,-586.72 81.4356,-519.645 105.5,-468 110.469,-457.336 116.465,-446.782 123.053,-436.557"/>
<polygon fill="none" stroke="#404040" points="123.145,-436.42 123.161,-429.209 129.823,-426.45 129.807,-433.661 123.145,-436.42"/>
<text text-anchor="middle" x="133.5" y="-504" font-family="FreeSans" font-size="10.00"> #nDOF</text>
<text text-anchor="middle" x="133.5" y="-493" font-family="FreeSans" font-size="10.00">#nParameter</text>
<text text-anchor="middle" x="133.5" y="-482" font-family="FreeSans" font-size="10.00">#sGenerator</text>
<text text-anchor="middle" x="133.5" y="-471" font-family="FreeSans" font-size="10.00">#nSolution</text>
</g>
<!-- Node6 -->
<g id="node4" class="node"><title>Node6</title>
<g id="a_node4"><a xlink:href="classbool.html" target="_top" xlink:title="{bool\n||}">
<polygon fill="white" stroke="black" points="200,-855.5 200,-912.5 235,-912.5 235,-855.5 200,-855.5"/>
<text text-anchor="middle" x="217.5" y="-900.5" font-family="FreeSans" font-size="10.00">bool</text>
<polyline fill="none" stroke="black" points="200,-893.5 235,-893.5 "/>
<text text-anchor="middle" x="217.5" y="-881.5" font-family="FreeSans" font-size="10.00"> </text>
<polyline fill="none" stroke="black" points="200,-874.5 235,-874.5 "/>
<text text-anchor="middle" x="217.5" y="-862.5" font-family="FreeSans" font-size="10.00"> </text>
</a>
</g>
</g>
<!-- Node6&#45;&gt;Node4 -->
<g id="edge3" class="edge"><title>Node6&#45;&gt;Node4</title>
<path fill="none" stroke="#404040" d="M206.473,-855.106C198.591,-833.604 188.671,-802.923 184.5,-775 168.841,-670.164 178.528,-550.049 190.765,-461.676"/>
<polygon fill="none" stroke="#404040" points="190.779,-461.576 187.663,-455.073 192.467,-449.695 195.583,-456.198 190.779,-461.576"/>
<text text-anchor="middle" x="222" y="-650" font-family="FreeSans" font-size="10.00"> #flagNonminimal</text>
</g>
<!-- Node7 -->
<g id="node5" class="node"><title>Node7</title>
<g id="a_node5"><a xlink:href="classSeeSawN_1_1GeometryN_1_1GeometrySolverBaseC.html" target="_top" xlink:title="Base class for geometry solvers. ">
<polygon fill="white" stroke="black" points="269,-530.5 269,-774.5 452,-774.5 452,-530.5 269,-530.5"/>
<text text-anchor="start" x="277" y="-762.5" font-family="FreeSans" font-size="10.00">SeeSawN::GeometryN</text>
<text text-anchor="start" x="277" y="-751.5" font-family="FreeSans" font-size="10.00">::GeometrySolverBaseC</text>
<text text-anchor="start" x="277" y="-740.5" font-family="FreeSans" font-size="10.00">&lt; DerivedT, ModelT, ErrorT,</text>
<text text-anchor="start" x="277" y="-729.5" font-family="FreeSans" font-size="10.00"> DIM1, DIM2, GENERATOR_SIZE,</text>
<text text-anchor="start" x="277" y="-718.5" font-family="FreeSans" font-size="10.00"> FLAG_NONMINIMAL, NSOLUTION,</text>
<text text-anchor="middle" x="360.5" y="-707.5" font-family="FreeSans" font-size="10.00"> NPARAMETER, NDOF &gt;</text>
<polyline fill="none" stroke="black" points="269,-700.5 452,-700.5 "/>
<text text-anchor="middle" x="360.5" y="-688.5" font-family="FreeSans" font-size="10.00"> </text>
<polyline fill="none" stroke="black" points="269,-681.5 452,-681.5 "/>
<text text-anchor="start" x="277" y="-669.5" font-family="FreeSans" font-size="10.00">+ EvaluateModel()</text>
<text text-anchor="start" x="277" y="-658.5" font-family="FreeSans" font-size="10.00">+ EvaluateModel()</text>
<text text-anchor="start" x="277" y="-647.5" font-family="FreeSans" font-size="10.00">* coordinate_type1</text>
<text text-anchor="start" x="277" y="-636.5" font-family="FreeSans" font-size="10.00">* coordinate_type2</text>
<text text-anchor="start" x="277" y="-625.5" font-family="FreeSans" font-size="10.00">* model_type</text>
<text text-anchor="start" x="277" y="-614.5" font-family="FreeSans" font-size="10.00">* real_type</text>
<text text-anchor="start" x="277" y="-603.5" font-family="FreeSans" font-size="10.00">* error_type</text>
<text text-anchor="start" x="277" y="-592.5" font-family="FreeSans" font-size="10.00">* constraint_type</text>
<text text-anchor="start" x="277" y="-581.5" font-family="FreeSans" font-size="10.00">* loss_type</text>
<text text-anchor="start" x="277" y="-570.5" font-family="FreeSans" font-size="10.00">* distance_type</text>
<text text-anchor="start" x="277" y="-559.5" font-family="FreeSans" font-size="10.00">* GeneratorSize()</text>
<text text-anchor="start" x="277" y="-548.5" font-family="FreeSans" font-size="10.00">* IsNonminimal()</text>
<text text-anchor="start" x="277" y="-537.5" font-family="FreeSans" font-size="10.00">and 8 more...</text>
</a>
</g>
</g>
<!-- Node6&#45;&gt;Node7 -->
<g id="edge6" class="edge"><title>Node6&#45;&gt;Node7</title>
<path fill="none" stroke="#404040" d="M234.749,-855.317C246.145,-837.029 262,-811.582 278.62,-784.909"/>
<polygon fill="none" stroke="#404040" points="278.673,-784.823 278.451,-777.615 285.019,-774.638 285.241,-781.846 278.673,-784.823"/>
<text text-anchor="middle" x="310" y="-812.5" font-family="FreeSans" font-size="10.00"> #flagNonminimal</text>
</g>
<!-- Node7&#45;&gt;Node4 -->
<g id="edge4" class="edge"><title>Node7&#45;&gt;Node4</title>
<path fill="none" stroke="orange" d="M299.968,-520.759C289.041,-497.158 277.719,-472.704 267.009,-449.573"/>
<polygon fill="orange" stroke="orange" points="296.919,-522.504 304.296,-530.108 303.271,-519.563 296.919,-522.504"/>
<text text-anchor="start" x="296.5" y="-498.5" font-family="FreeSans" font-size="10.00"> &lt; Fundamental8SolverC,</text>
<text text-anchor="start" x="296.5" y="-487.5" font-family="FreeSans" font-size="10.00"> EpipolarMatrixT, EpipolarSampson</text>
<text text-anchor="middle" x="372" y="-476.5" font-family="FreeSans" font-size="10.00">ErrorC, 2, 2, 8, true, 1, 9, 7 &gt;</text>
</g>
<!-- Node8 -->
<g id="node6" class="node"><title>Node8</title>
<polygon fill="white" stroke="#bfbfbf" points="418,-855.5 418,-912.5 447,-912.5 447,-855.5 418,-855.5"/>
<text text-anchor="middle" x="432.5" y="-900.5" font-family="FreeSans" font-size="10.00">int</text>
<polyline fill="none" stroke="#bfbfbf" points="418,-893.5 447,-893.5 "/>
<text text-anchor="middle" x="432.5" y="-881.5" font-family="FreeSans" font-size="10.00"> </text>
<polyline fill="none" stroke="#bfbfbf" points="418,-874.5 447,-874.5 "/>
<text text-anchor="middle" x="432.5" y="-862.5" font-family="FreeSans" font-size="10.00"> </text>
</g>
<!-- Node8&#45;&gt;Node3 -->
<g id="edge7" class="edge"><title>Node8&#45;&gt;Node3</title>
<path fill="none" stroke="#404040" d="M447.223,-868.251C454.549,-859.854 462.647,-848.696 466.5,-837 472.619,-818.426 466.723,-812.554 466.5,-793 465.167,-676.088 464.358,-646.856 460.5,-530 456.657,-413.601 450.65,-279.929 446.422,-190.863"/>
<polygon fill="none" stroke="#404040" points="446.422,-190.856 442.14,-185.053 445.85,-178.87 450.131,-184.672 446.422,-190.856"/>
<text text-anchor="middle" x="486.5" y="-498.5" font-family="FreeSans" font-size="10.00"> +iScalar</text>
<text text-anchor="middle" x="486.5" y="-487.5" font-family="FreeSans" font-size="10.00">+iRotationR</text>
<text text-anchor="middle" x="486.5" y="-476.5" font-family="FreeSans" font-size="10.00">+iRotationL</text>
</g>
<!-- Node8&#45;&gt;Node7 -->
<g id="edge5" class="edge"><title>Node8&#45;&gt;Node7</title>
<path fill="none" stroke="#404040" d="M418.185,-855.128C415.434,-849.226 412.722,-842.974 410.5,-837 404.515,-820.907 398.898,-803.781 393.747,-786.705"/>
<polygon fill="none" stroke="#404040" points="393.66,-786.411 388.123,-781.792 390.257,-774.904 395.794,-779.523 393.66,-786.411"/>
<text text-anchor="middle" x="438.5" y="-829" font-family="FreeSans" font-size="10.00"> #nDOF</text>
<text text-anchor="middle" x="438.5" y="-818" font-family="FreeSans" font-size="10.00">#nParameter</text>
<text text-anchor="middle" x="438.5" y="-807" font-family="FreeSans" font-size="10.00">#sGenerator</text>
<text text-anchor="middle" x="438.5" y="-796" font-family="FreeSans" font-size="10.00">#nSolution</text>
</g>
</g>
</svg>
