<?xml version="1.0" encoding="UTF-8" standalone="no"?>
<!DOCTYPE svg PUBLIC "-//W3C//DTD SVG 1.1//EN"
 "http://www.w3.org/Graphics/SVG/1.1/DTD/svg11.dtd">
<!-- Generated by graphviz version 2.38.0 (20140413.2041)
 -->
<!-- Title: SeeSawN::ApplicationN::InterfaceCalibrationVerificationPipelineC::MakeParameterObject Pages: 1 -->
<svg width="410pt" height="50pt"
 viewBox="0.00 0.00 410.00 50.00" xmlns="http://www.w3.org/2000/svg" xmlns:xlink="http://www.w3.org/1999/xlink">
<g id="graph0" class="graph" transform="scale(1 1) rotate(0) translate(4 46)">
<title>SeeSawN::ApplicationN::InterfaceCalibrationVerificationPipelineC::MakeParameterObject</title>
<polygon fill="white" stroke="none" points="-4,4 -4,-46 406,-46 406,4 -4,4"/>
<!-- Node18 -->
<g id="node1" class="node"><title>Node18</title>
<polygon fill="#bfbfbf" stroke="black" points="0,-0.5 0,-41.5 160,-41.5 160,-0.5 0,-0.5"/>
<text text-anchor="start" x="8" y="-29.5" font-family="FreeSans" font-size="10.00">SeeSawN::ApplicationN</text>
<text text-anchor="start" x="8" y="-18.5" font-family="FreeSans" font-size="10.00">::InterfaceCalibrationVerification</text>
<text text-anchor="middle" x="80" y="-7.5" font-family="FreeSans" font-size="10.00">PipelineC::MakeParameterObject</text>
</g>
<!-- Node19 -->
<g id="node2" class="node"><title>Node19</title>
<g id="a_node2"><a xlink:href="classSeeSawN_1_1AppCalibrationVerificationN_1_1AppCalibrationVerificationImplementationC.html#ac04bcbed179f0534015eb622d62c9d92" target="_top" xlink:title="Sets and validates the application parameters. ">
<polygon fill="white" stroke="black" points="196,-0.5 196,-41.5 402,-41.5 402,-0.5 196,-0.5"/>
<text text-anchor="start" x="204" y="-29.5" font-family="FreeSans" font-size="10.00">SeeSawN::AppCalibrationVerification</text>
<text text-anchor="start" x="204" y="-18.5" font-family="FreeSans" font-size="10.00">N::AppCalibrationVerificationImplementation</text>
<text text-anchor="middle" x="299" y="-7.5" font-family="FreeSans" font-size="10.00">C::SetParameters</text>
</a>
</g>
</g>
<!-- Node18&#45;&gt;Node19 -->
<g id="edge1" class="edge"><title>Node18&#45;&gt;Node19</title>
<path fill="none" stroke="midnightblue" d="M170.449,-21C178.876,-21 187.462,-21 195.993,-21"/>
<polygon fill="midnightblue" stroke="midnightblue" points="170.263,-17.5001 160.263,-21 170.263,-24.5001 170.263,-17.5001"/>
</g>
</g>
</svg>
