<?xml version="1.0" encoding="UTF-8" standalone="no"?>
<!DOCTYPE svg PUBLIC "-//W3C//DTD SVG 1.1//EN"
 "http://www.w3.org/Graphics/SVG/1.1/DTD/svg11.dtd">
<!-- Generated by graphviz version 2.38.0 (20140413.2041)
 -->
<!-- Title: SeeSawN::GeometryN::SfMPipelineC::EstimateSceneNoise Pages: 1 -->
<svg width="340pt" height="50pt"
 viewBox="0.00 0.00 340.00 50.00" xmlns="http://www.w3.org/2000/svg" xmlns:xlink="http://www.w3.org/1999/xlink">
<g id="graph0" class="graph" transform="scale(1 1) rotate(0) translate(4 46)">
<title>SeeSawN::GeometryN::SfMPipelineC::EstimateSceneNoise</title>
<polygon fill="white" stroke="none" points="-4,4 -4,-46 336,-46 336,4 -4,4"/>
<!-- Node66 -->
<g id="node1" class="node"><title>Node66</title>
<polygon fill="#bfbfbf" stroke="black" points="0,-0.5 0,-41.5 151,-41.5 151,-0.5 0,-0.5"/>
<text text-anchor="start" x="8" y="-29.5" font-family="FreeSans" font-size="10.00">SeeSawN::GeometryN</text>
<text text-anchor="start" x="8" y="-18.5" font-family="FreeSans" font-size="10.00">::SfMPipelineC::EstimateScene</text>
<text text-anchor="middle" x="75.5" y="-7.5" font-family="FreeSans" font-size="10.00">Noise</text>
</g>
<!-- Node67 -->
<g id="node2" class="node"><title>Node67</title>
<g id="a_node2"><a xlink:href="classSeeSawN_1_1GeometryN_1_1SfMPipelineC.html#a0fc7841df20638c7a00499880d6faf5a" target="_top" xlink:title="Builds a scene model from each epipolar geometry estimate. ">
<polygon fill="white" stroke="black" points="187,-0.5 187,-41.5 332,-41.5 332,-0.5 187,-0.5"/>
<text text-anchor="start" x="195" y="-29.5" font-family="FreeSans" font-size="10.00">SeeSawN::GeometryN</text>
<text text-anchor="start" x="195" y="-18.5" font-family="FreeSans" font-size="10.00">::SfMPipelineC::FormPairwise</text>
<text text-anchor="middle" x="259.5" y="-7.5" font-family="FreeSans" font-size="10.00">SceneModels</text>
</a>
</g>
</g>
<!-- Node66&#45;&gt;Node67 -->
<g id="edge1" class="edge"><title>Node66&#45;&gt;Node67</title>
<path fill="none" stroke="midnightblue" d="M161.063,-21C169.637,-21 178.287,-21 186.708,-21"/>
<polygon fill="midnightblue" stroke="midnightblue" points="161.052,-17.5001 151.051,-21 161.051,-24.5001 161.052,-17.5001"/>
</g>
</g>
</svg>
