<?xml version="1.0" encoding="UTF-8" standalone="no"?>
<!DOCTYPE svg PUBLIC "-//W3C//DTD SVG 1.1//EN"
 "http://www.w3.org/Graphics/SVG/1.1/DTD/svg11.dtd">
<!-- Generated by graphviz version 2.38.0 (20140413.2041)
 -->
<!-- Title: SeeSawN::OptimisationN::PDLSimilarity3DEstimationProblemC::InitialEstimate Pages: 1 -->
<svg width="493pt" height="50pt"
 viewBox="0.00 0.00 493.00 50.00" xmlns="http://www.w3.org/2000/svg" xmlns:xlink="http://www.w3.org/1999/xlink">
<g id="graph0" class="graph" transform="scale(1 1) rotate(0) translate(4 46)">
<title>SeeSawN::OptimisationN::PDLSimilarity3DEstimationProblemC::InitialEstimate</title>
<polygon fill="white" stroke="none" points="-4,4 -4,-46 489,-46 489,4 -4,4"/>
<!-- Node28 -->
<g id="node1" class="node"><title>Node28</title>
<polygon fill="#bfbfbf" stroke="black" points="0,-0.5 0,-41.5 174,-41.5 174,-0.5 0,-0.5"/>
<text text-anchor="start" x="8" y="-29.5" font-family="FreeSans" font-size="10.00">SeeSawN::OptimisationN</text>
<text text-anchor="start" x="8" y="-18.5" font-family="FreeSans" font-size="10.00">::PDLSimilarity3DEstimationProblem</text>
<text text-anchor="middle" x="87" y="-7.5" font-family="FreeSans" font-size="10.00">C::InitialEstimate</text>
</g>
<!-- Node29 -->
<g id="node2" class="node"><title>Node29</title>
<g id="a_node2"><a xlink:href="group__Utility.html#ga05230e491e79d79998aa0cc021194486" target="_top" xlink:title="Decomposes a 3D similarity transformation. ">
<polygon fill="white" stroke="black" points="210,-6 210,-36 335,-36 335,-6 210,-6"/>
<text text-anchor="start" x="218" y="-24" font-family="FreeSans" font-size="10.00">SeeSawN::ElementsN</text>
<text text-anchor="middle" x="272.5" y="-13" font-family="FreeSans" font-size="10.00">::DecomposeSimilarity3D</text>
</a>
</g>
</g>
<!-- Node28&#45;&gt;Node29 -->
<g id="edge1" class="edge"><title>Node28&#45;&gt;Node29</title>
<path fill="none" stroke="midnightblue" d="M174.108,-21C182.715,-21 191.387,-21 199.822,-21"/>
<polygon fill="midnightblue" stroke="midnightblue" points="199.972,-24.5001 209.971,-21 199.971,-17.5001 199.972,-24.5001"/>
</g>
<!-- Node30 -->
<g id="node3" class="node"><title>Node30</title>
<g id="a_node3"><a xlink:href="namespaceSeeSawN_1_1NumericN.html#a1de61a43a6f9cc9d3040f3850008e202" target="_top" xlink:title="SeeSawN::NumericN::\lRQDecomposition33">
<polygon fill="white" stroke="black" points="371,-6 371,-36 485,-36 485,-6 371,-6"/>
<text text-anchor="start" x="379" y="-24" font-family="FreeSans" font-size="10.00">SeeSawN::NumericN::</text>
<text text-anchor="middle" x="428" y="-13" font-family="FreeSans" font-size="10.00">RQDecomposition33</text>
</a>
</g>
</g>
<!-- Node29&#45;&gt;Node30 -->
<g id="edge2" class="edge"><title>Node29&#45;&gt;Node30</title>
<path fill="none" stroke="midnightblue" d="M335.05,-21C343.47,-21 352.145,-21 360.646,-21"/>
<polygon fill="midnightblue" stroke="midnightblue" points="360.901,-24.5001 370.901,-21 360.901,-17.5001 360.901,-24.5001"/>
</g>
</g>
</svg>
