<?xml version="1.0" encoding="UTF-8" standalone="no"?>
<!DOCTYPE svg PUBLIC "-//W3C//DTD SVG 1.1//EN"
 "http://www.w3.org/Graphics/SVG/1.1/DTD/svg11.dtd">
<!-- Generated by graphviz version 2.38.0 (20140413.2041)
 -->
<!-- Title: SeeSawN::MatcherN::ImageFeatureMatchingProblemC&lt; SimilarityT, ConstraintT &gt; Pages: 1 -->
<!--zoomable 1135 -->
<svg id="main" version="1.1" xmlns="http://www.w3.org/2000/svg" xmlns:xlink="http://www.w3.org/1999/xlink" xml:space="preserve" onload="init(evt)">
<style type="text/css"><![CDATA[
.edge:hover path { stroke: red; }
.edge:hover polygon { stroke: red; fill: red; }
]]></style>
<script type="text/javascript"><![CDATA[
var edges = document.getElementsByTagName('g');
if (edges && edges.length) {
  for (var i=0;i<edges.length;i++) {
    if (edges[i].id.substr(0,4)=='edge') {
      edges[i].setAttribute('class','edge');
    }
  }
}
]]></script>
        <defs>
                <circle id="rim" cx="0" cy="0" r="7"/>
                <circle id="rim2" cx="0" cy="0" r="3.5"/>
                <g id="zoomPlus">
                        <use xlink:href="#rim" fill="#404040">
                                <set attributeName="fill" to="#808080" begin="zoomplus.mouseover" end="zoomplus.mouseout"/>
                        </use>
                        <path d="M-4,0h8M0,-4v8" fill="none" stroke="white" stroke-width="1.5" pointer-events="none"/>
                </g>
                <g id="zoomMin">
                        <use xlink:href="#rim" fill="#404040">
                                <set attributeName="fill" to="#808080" begin="zoomminus.mouseover" end="zoomminus.mouseout"/>
                        </use>
                        <path d="M-4,0h8" fill="none" stroke="white" stroke-width="1.5" pointer-events="none"/>
                </g>
                <g id="dirArrow">
                        <path fill="none" stroke="white" stroke-width="1.5" d="M0,-3.0v7 M-2.5,-0.5L0,-3.0L2.5,-0.5"/>
                </g>
               <g id="resetDef">
                       <use xlink:href="#rim2" fill="#404040">
                               <set attributeName="fill" to="#808080" begin="reset.mouseover" end="reset.mouseout"/>
                       </use>
               </g>
        </defs>

<script type="text/javascript">
var viewWidth = 238;
var viewHeight = 1135;
var sectionId = 'dynsection-0';
</script>
<script xlink:href="svgpan.js"/>
<svg id="graph" class="graph">
<g id="viewport">
<title>SeeSawN::MatcherN::ImageFeatureMatchingProblemC&lt; SimilarityT, ConstraintT &gt;</title>
<polygon fill="white" stroke="none" points="-4,4 -4,-1131 233.5,-1131 233.5,4 -4,4"/>
<!-- Node0 -->
<g id="node1" class="node"><title>Node0</title>
<polygon fill="#bfbfbf" stroke="black" points="1,-0.5 1,-90.5 172,-90.5 172,-0.5 1,-0.5"/>
<text text-anchor="start" x="9" y="-78.5" font-family="FreeSans" font-size="10.00">SeeSawN::MatcherN::</text>
<text text-anchor="start" x="9" y="-67.5" font-family="FreeSans" font-size="10.00">ImageFeatureMatchingProblem</text>
<text text-anchor="middle" x="86.5" y="-56.5" font-family="FreeSans" font-size="10.00">C&lt; SimilarityT, ConstraintT &gt;</text>
<polyline fill="none" stroke="black" points="1,-49.5 172,-49.5 "/>
<text text-anchor="middle" x="86.5" y="-37.5" font-family="FreeSans" font-size="10.00"> </text>
<polyline fill="none" stroke="black" points="1,-30.5 172,-30.5 "/>
<text text-anchor="start" x="9" y="-18.5" font-family="FreeSans" font-size="10.00">* ImageFeatureMatchingProblemC()</text>
<text text-anchor="start" x="9" y="-7.5" font-family="FreeSans" font-size="10.00">* ImageFeatureMatchingProblemC()</text>
</g>
<!-- Node1 -->
<g id="node2" class="node"><title>Node1</title>
<g id="a_node2"><a xlink:href="classSeeSawN_1_1MatcherN_1_1FeatureMatchingProblemBaseC.html" target="_top" xlink:title="{SeeSawN::MatcherN::\lFeatureMatchingProblemBase\lC\&lt; ImageFeatureC, ImageFeatureC,\l SimilarityT, ConstraintT \&gt;\n|# flagStatic\l# flagValid\l&#45; similarityMetric\l&#45; constraint\l&#45; set1\l&#45; set2\l|+ FeatureMatchingProblemBaseC()\l+ GetConstraint()\l+ SetConstraint()\l* RealArrayT\l* BoolArrayT\l* similarityCache\l* similarityValidityArray\l* constraintCache\l* ArrayXbT\l* ArrayXrT\l* ApplyCoordinateTransformation()\l* SimilarityCacheInnerLoopST()\l* SimilarityCacheInnerLoopMT()\l* real_type\l* FeatureMatchingProblemBaseC()\l* GetSize1()\l* GetSize2()\l* ComputeSimilarity()\l* IsValid()\l* feature_type1\l* feature_type2\l* similarity_type\l* constraint_type\l* Initialise()\l* AssessAmbiguity()\l* ApplyCoordinateTransformation1()\l* ApplyCoordinateTransformation2()\l* similarityMetric\l* constraint\l* set1\l* set2\l* FeatureMatchingProblemBaseC()\l* GetConstraint()\l* SetConstraint()\l}">
<polygon fill="white" stroke="black" points="0,-128.5 0,-636.5 173,-636.5 173,-128.5 0,-128.5"/>
<text text-anchor="start" x="8" y="-624.5" font-family="FreeSans" font-size="10.00">SeeSawN::MatcherN::</text>
<text text-anchor="start" x="8" y="-613.5" font-family="FreeSans" font-size="10.00">FeatureMatchingProblemBase</text>
<text text-anchor="start" x="8" y="-602.5" font-family="FreeSans" font-size="10.00">C&lt; ImageFeatureC, ImageFeatureC,</text>
<text text-anchor="middle" x="86.5" y="-591.5" font-family="FreeSans" font-size="10.00"> SimilarityT, ConstraintT &gt;</text>
<polyline fill="none" stroke="black" points="0,-584.5 173,-584.5 "/>
<text text-anchor="start" x="8" y="-572.5" font-family="FreeSans" font-size="10.00"># flagStatic</text>
<text text-anchor="start" x="8" y="-561.5" font-family="FreeSans" font-size="10.00"># flagValid</text>
<text text-anchor="start" x="8" y="-550.5" font-family="FreeSans" font-size="10.00">&#45; similarityMetric</text>
<text text-anchor="start" x="8" y="-539.5" font-family="FreeSans" font-size="10.00">&#45; constraint</text>
<text text-anchor="start" x="8" y="-528.5" font-family="FreeSans" font-size="10.00">&#45; set1</text>
<text text-anchor="start" x="8" y="-517.5" font-family="FreeSans" font-size="10.00">&#45; set2</text>
<polyline fill="none" stroke="black" points="0,-510.5 173,-510.5 "/>
<text text-anchor="start" x="8" y="-498.5" font-family="FreeSans" font-size="10.00">+ FeatureMatchingProblemBaseC()</text>
<text text-anchor="start" x="8" y="-487.5" font-family="FreeSans" font-size="10.00">+ GetConstraint()</text>
<text text-anchor="start" x="8" y="-476.5" font-family="FreeSans" font-size="10.00">+ SetConstraint()</text>
<text text-anchor="start" x="8" y="-465.5" font-family="FreeSans" font-size="10.00">* RealArrayT</text>
<text text-anchor="start" x="8" y="-454.5" font-family="FreeSans" font-size="10.00">* BoolArrayT</text>
<text text-anchor="start" x="8" y="-443.5" font-family="FreeSans" font-size="10.00">* similarityCache</text>
<text text-anchor="start" x="8" y="-432.5" font-family="FreeSans" font-size="10.00">* similarityValidityArray</text>
<text text-anchor="start" x="8" y="-421.5" font-family="FreeSans" font-size="10.00">* constraintCache</text>
<text text-anchor="start" x="8" y="-410.5" font-family="FreeSans" font-size="10.00">* ArrayXbT</text>
<text text-anchor="start" x="8" y="-399.5" font-family="FreeSans" font-size="10.00">* ArrayXrT</text>
<text text-anchor="start" x="8" y="-388.5" font-family="FreeSans" font-size="10.00">* ApplyCoordinateTransformation()</text>
<text text-anchor="start" x="8" y="-377.5" font-family="FreeSans" font-size="10.00">* SimilarityCacheInnerLoopST()</text>
<text text-anchor="start" x="8" y="-366.5" font-family="FreeSans" font-size="10.00">* SimilarityCacheInnerLoopMT()</text>
<text text-anchor="start" x="8" y="-355.5" font-family="FreeSans" font-size="10.00">* real_type</text>
<text text-anchor="start" x="8" y="-344.5" font-family="FreeSans" font-size="10.00">* FeatureMatchingProblemBaseC()</text>
<text text-anchor="start" x="8" y="-333.5" font-family="FreeSans" font-size="10.00">* GetSize1()</text>
<text text-anchor="start" x="8" y="-322.5" font-family="FreeSans" font-size="10.00">* GetSize2()</text>
<text text-anchor="start" x="8" y="-311.5" font-family="FreeSans" font-size="10.00">* ComputeSimilarity()</text>
<text text-anchor="start" x="8" y="-300.5" font-family="FreeSans" font-size="10.00">* IsValid()</text>
<text text-anchor="start" x="8" y="-289.5" font-family="FreeSans" font-size="10.00">* feature_type1</text>
<text text-anchor="start" x="8" y="-278.5" font-family="FreeSans" font-size="10.00">* feature_type2</text>
<text text-anchor="start" x="8" y="-267.5" font-family="FreeSans" font-size="10.00">* similarity_type</text>
<text text-anchor="start" x="8" y="-256.5" font-family="FreeSans" font-size="10.00">* constraint_type</text>
<text text-anchor="start" x="8" y="-245.5" font-family="FreeSans" font-size="10.00">* Initialise()</text>
<text text-anchor="start" x="8" y="-234.5" font-family="FreeSans" font-size="10.00">* AssessAmbiguity()</text>
<text text-anchor="start" x="8" y="-223.5" font-family="FreeSans" font-size="10.00">* ApplyCoordinateTransformation1()</text>
<text text-anchor="start" x="8" y="-212.5" font-family="FreeSans" font-size="10.00">* ApplyCoordinateTransformation2()</text>
<text text-anchor="start" x="8" y="-201.5" font-family="FreeSans" font-size="10.00">* similarityMetric</text>
<text text-anchor="start" x="8" y="-190.5" font-family="FreeSans" font-size="10.00">* constraint</text>
<text text-anchor="start" x="8" y="-179.5" font-family="FreeSans" font-size="10.00">* set1</text>
<text text-anchor="start" x="8" y="-168.5" font-family="FreeSans" font-size="10.00">* set2</text>
<text text-anchor="start" x="8" y="-157.5" font-family="FreeSans" font-size="10.00">* FeatureMatchingProblemBaseC()</text>
<text text-anchor="start" x="8" y="-146.5" font-family="FreeSans" font-size="10.00">* GetConstraint()</text>
<text text-anchor="start" x="8" y="-135.5" font-family="FreeSans" font-size="10.00">* SetConstraint()</text>
</a>
</g>
</g>
<!-- Node1&#45;&gt;Node0 -->
<g id="edge1" class="edge"><title>Node1&#45;&gt;Node0</title>
<path fill="none" stroke="midnightblue" d="M86.5,-118.296C86.5,-108.358 86.5,-99.0973 86.5,-90.7504"/>
<polygon fill="none" stroke="midnightblue" points="83.0001,-118.45 86.5,-128.45 90.0001,-118.45 83.0001,-118.45"/>
</g>
<!-- Node2 -->
<g id="node3" class="node"><title>Node2</title>
<g id="a_node3"><a xlink:href="classSeeSawN_1_1MatcherN_1_1FeatureMatchingProblemBaseC.html" target="_top" xlink:title="Base class for feature matching problems. ">
<polygon fill="white" stroke="black" points="1.5,-695.5 1.5,-1126.5 171.5,-1126.5 171.5,-695.5 1.5,-695.5"/>
<text text-anchor="start" x="9.5" y="-1114.5" font-family="FreeSans" font-size="10.00">SeeSawN::MatcherN::</text>
<text text-anchor="start" x="9.5" y="-1103.5" font-family="FreeSans" font-size="10.00">FeatureMatchingProblemBase</text>
<text text-anchor="start" x="9.5" y="-1092.5" font-family="FreeSans" font-size="10.00">C&lt; Feature1T, Feature2T,</text>
<text text-anchor="middle" x="86.5" y="-1081.5" font-family="FreeSans" font-size="10.00"> SimilarityT, ConstraintT &gt;</text>
<polyline fill="none" stroke="black" points="1.5,-1074.5 171.5,-1074.5 "/>
<text text-anchor="start" x="9.5" y="-1062.5" font-family="FreeSans" font-size="10.00"># flagStatic</text>
<text text-anchor="start" x="9.5" y="-1051.5" font-family="FreeSans" font-size="10.00"># flagValid</text>
<polyline fill="none" stroke="black" points="1.5,-1044.5 171.5,-1044.5 "/>
<text text-anchor="start" x="9.5" y="-1032.5" font-family="FreeSans" font-size="10.00">* similarityMetric</text>
<text text-anchor="start" x="9.5" y="-1021.5" font-family="FreeSans" font-size="10.00">* constraint</text>
<text text-anchor="start" x="9.5" y="-1010.5" font-family="FreeSans" font-size="10.00">* set1</text>
<text text-anchor="start" x="9.5" y="-999.5" font-family="FreeSans" font-size="10.00">* set2</text>
<text text-anchor="start" x="9.5" y="-988.5" font-family="FreeSans" font-size="10.00">* RealArrayT</text>
<text text-anchor="start" x="9.5" y="-977.5" font-family="FreeSans" font-size="10.00">* BoolArrayT</text>
<text text-anchor="start" x="9.5" y="-966.5" font-family="FreeSans" font-size="10.00">* similarityCache</text>
<text text-anchor="start" x="9.5" y="-955.5" font-family="FreeSans" font-size="10.00">* similarityValidityArray</text>
<text text-anchor="start" x="9.5" y="-944.5" font-family="FreeSans" font-size="10.00">* constraintCache</text>
<text text-anchor="start" x="9.5" y="-933.5" font-family="FreeSans" font-size="10.00">* ArrayXbT</text>
<text text-anchor="start" x="9.5" y="-922.5" font-family="FreeSans" font-size="10.00">* ArrayXrT</text>
<text text-anchor="start" x="9.5" y="-911.5" font-family="FreeSans" font-size="10.00">* ApplyCoordinateTransformation()</text>
<text text-anchor="start" x="9.5" y="-900.5" font-family="FreeSans" font-size="10.00">* SimilarityCacheInnerLoopST()</text>
<text text-anchor="start" x="9.5" y="-889.5" font-family="FreeSans" font-size="10.00">* SimilarityCacheInnerLoopMT()</text>
<text text-anchor="start" x="9.5" y="-878.5" font-family="FreeSans" font-size="10.00">* FeatureMatchingProblemBaseC()</text>
<text text-anchor="start" x="9.5" y="-867.5" font-family="FreeSans" font-size="10.00">* real_type</text>
<text text-anchor="start" x="9.5" y="-856.5" font-family="FreeSans" font-size="10.00">* FeatureMatchingProblemBaseC()</text>
<text text-anchor="start" x="9.5" y="-845.5" font-family="FreeSans" font-size="10.00">* GetSize1()</text>
<text text-anchor="start" x="9.5" y="-834.5" font-family="FreeSans" font-size="10.00">* GetSize2()</text>
<text text-anchor="start" x="9.5" y="-823.5" font-family="FreeSans" font-size="10.00">* ComputeSimilarity()</text>
<text text-anchor="start" x="9.5" y="-812.5" font-family="FreeSans" font-size="10.00">* IsValid()</text>
<text text-anchor="start" x="9.5" y="-801.5" font-family="FreeSans" font-size="10.00">* feature_type1</text>
<text text-anchor="start" x="9.5" y="-790.5" font-family="FreeSans" font-size="10.00">* feature_type2</text>
<text text-anchor="start" x="9.5" y="-779.5" font-family="FreeSans" font-size="10.00">* similarity_type</text>
<text text-anchor="start" x="9.5" y="-768.5" font-family="FreeSans" font-size="10.00">* constraint_type</text>
<text text-anchor="start" x="9.5" y="-757.5" font-family="FreeSans" font-size="10.00">* Initialise()</text>
<text text-anchor="start" x="9.5" y="-746.5" font-family="FreeSans" font-size="10.00">* AssessAmbiguity()</text>
<text text-anchor="start" x="9.5" y="-735.5" font-family="FreeSans" font-size="10.00">* ApplyCoordinateTransformation1()</text>
<text text-anchor="start" x="9.5" y="-724.5" font-family="FreeSans" font-size="10.00">* ApplyCoordinateTransformation2()</text>
<text text-anchor="start" x="9.5" y="-713.5" font-family="FreeSans" font-size="10.00">* GetConstraint()</text>
<text text-anchor="start" x="9.5" y="-702.5" font-family="FreeSans" font-size="10.00">* SetConstraint()</text>
</a>
</g>
</g>
<!-- Node2&#45;&gt;Node1 -->
<g id="edge2" class="edge"><title>Node2&#45;&gt;Node1</title>
<path fill="none" stroke="orange" d="M86.5,-685.467C86.5,-669.352 86.5,-653.039 86.5,-636.777"/>
<polygon fill="orange" stroke="orange" points="83.0001,-685.473 86.5,-695.473 90.0001,-685.473 83.0001,-685.473"/>
<text text-anchor="start" x="86.5" y="-669" font-family="FreeSans" font-size="10.00"> &lt; ImageFeatureC, ImageFeature</text>
<text text-anchor="middle" x="158" y="-658" font-family="FreeSans" font-size="10.00">C, SimilarityT, ConstraintT &gt;</text>
</g>
</g>
</svg>
        <g id="navigator" transform="translate(0 0)" fill="#404254">
                <rect fill="#f2f5e9" fill-opacity="0.5" stroke="#606060" stroke-width=".5" x="0" y="0" width="60" height="60"/>
                <use id="zoomplus" xlink:href="#zoomPlus" x="17" y="9" onmousedown="handleZoom(evt,'in')"/>
                <use id="zoomminus" xlink:href="#zoomMin" x="42" y="9" onmousedown="handleZoom(evt,'out')"/>
                <use id="reset" xlink:href="#resetDef" x="30" y="36" onmousedown="handleReset()"/>
                <g id="arrowUp" xlink:href="#dirArrow" transform="translate(30 24)" onmousedown="handlePan(0,-1)">
                  <use xlink:href="#rim" fill="#404040">
                        <set attributeName="fill" to="#808080" begin="arrowUp.mouseover" end="arrowUp.mouseout"/>
                  </use>
                  <path fill="none" stroke="white" stroke-width="1.5" d="M0,-3.0v7 M-2.5,-0.5L0,-3.0L2.5,-0.5"/>
                </g>
                <g id="arrowRight" xlink:href="#dirArrow" transform="rotate(90) translate(36 -43)" onmousedown="handlePan(1,0)">
                  <use xlink:href="#rim" fill="#404040">
                        <set attributeName="fill" to="#808080" begin="arrowRight.mouseover" end="arrowRight.mouseout"/>
                  </use>
                  <path fill="none" stroke="white" stroke-width="1.5" d="M0,-3.0v7 M-2.5,-0.5L0,-3.0L2.5,-0.5"/>
                </g>
                <g id="arrowDown" xlink:href="#dirArrow" transform="rotate(180) translate(-30 -48)" onmousedown="handlePan(0,1)">
                  <use xlink:href="#rim" fill="#404040">
                        <set attributeName="fill" to="#808080" begin="arrowDown.mouseover" end="arrowDown.mouseout"/>
                  </use>
                  <path fill="none" stroke="white" stroke-width="1.5" d="M0,-3.0v7 M-2.5,-0.5L0,-3.0L2.5,-0.5"/>
                </g>
                <g id="arrowLeft" xlink:href="#dirArrow" transform="rotate(270) translate(-36 17)" onmousedown="handlePan(-1,0)">
                  <use xlink:href="#rim" fill="#404040">
                        <set attributeName="fill" to="#808080" begin="arrowLeft.mouseover" end="arrowLeft.mouseout"/>
                  </use>
                  <path fill="none" stroke="white" stroke-width="1.5" d="M0,-3.0v7 M-2.5,-0.5L0,-3.0L2.5,-0.5"/>
                </g>
        </g>
        <svg viewBox="0 0 15 15" width="100%" height="30px" preserveAspectRatio="xMaxYMin meet">
         <g id="arrow_out" transform="scale(0.3 0.3)">
          <a xlink:href="classSeeSawN_1_1MatcherN_1_1ImageFeatureMatchingProblemC__inherit__graph_org.svg" target="_base">
           <rect id="button" ry="5" rx="5" y="6" x="6" height="38" width="38"
                fill="#f2f5e9" fill-opacity="0.5" stroke="#606060" stroke-width="1.0"/>
           <path id="arrow"
             d="M 11.500037,31.436501 C 11.940474,20.09759 22.043105,11.32322 32.158766,21.979434 L 37.068811,17.246167 C 37.068811,17.246167 37.088388,32 37.088388,32 L 22.160133,31.978069 C 22.160133,31.978069 26.997745,27.140456 26.997745,27.140456 C 18.528582,18.264221 13.291696,25.230495 11.500037,31.436501 z"
             style="fill:#404040;"/>
          </a>
         </g>
        </svg>
</svg>
