<?xml version="1.0" encoding="UTF-8" standalone="no"?>
<!DOCTYPE svg PUBLIC "-//W3C//DTD SVG 1.1//EN"
 "http://www.w3.org/Graphics/SVG/1.1/DTD/svg11.dtd">
<!-- Generated by graphviz version 2.38.0 (20140413.2041)
 -->
<!-- Title: SeeSawN::GeometryN::RelativeRotationRegistrationC::SolveLS Pages: 1 -->
<!--zoomable 222 -->
<svg id="main" version="1.1" xmlns="http://www.w3.org/2000/svg" xmlns:xlink="http://www.w3.org/1999/xlink" xml:space="preserve" onload="init(evt)">
<style type="text/css"><![CDATA[
.edge:hover path { stroke: red; }
.edge:hover polygon { stroke: red; fill: red; }
]]></style>
<script type="text/javascript"><![CDATA[
var edges = document.getElementsByTagName('g');
if (edges && edges.length) {
  for (var i=0;i<edges.length;i++) {
    if (edges[i].id.substr(0,4)=='edge') {
      edges[i].setAttribute('class','edge');
    }
  }
}
]]></script>
        <defs>
                <circle id="rim" cx="0" cy="0" r="7"/>
                <circle id="rim2" cx="0" cy="0" r="3.5"/>
                <g id="zoomPlus">
                        <use xlink:href="#rim" fill="#404040">
                                <set attributeName="fill" to="#808080" begin="zoomplus.mouseover" end="zoomplus.mouseout"/>
                        </use>
                        <path d="M-4,0h8M0,-4v8" fill="none" stroke="white" stroke-width="1.5" pointer-events="none"/>
                </g>
                <g id="zoomMin">
                        <use xlink:href="#rim" fill="#404040">
                                <set attributeName="fill" to="#808080" begin="zoomminus.mouseover" end="zoomminus.mouseout"/>
                        </use>
                        <path d="M-4,0h8" fill="none" stroke="white" stroke-width="1.5" pointer-events="none"/>
                </g>
                <g id="dirArrow">
                        <path fill="none" stroke="white" stroke-width="1.5" d="M0,-3.0v7 M-2.5,-0.5L0,-3.0L2.5,-0.5"/>
                </g>
               <g id="resetDef">
                       <use xlink:href="#rim2" fill="#404040">
                               <set attributeName="fill" to="#808080" begin="reset.mouseover" end="reset.mouseout"/>
                       </use>
               </g>
        </defs>

<script type="text/javascript">
var viewWidth = 1158;
var viewHeight = 222;
var sectionId = 'dynsection-8';
</script>
<script xlink:href="svgpan.js"/>
<svg id="graph" class="graph">
<g id="viewport">
<title>SeeSawN::GeometryN::RelativeRotationRegistrationC::SolveLS</title>
<polygon fill="white" stroke="none" points="-4,4 -4,-218 1154,-218 1154,4 -4,4"/>
<!-- Node57 -->
<g id="node1" class="node"><title>Node57</title>
<polygon fill="#bfbfbf" stroke="black" points="0,-112.5 0,-153.5 144,-153.5 144,-112.5 0,-112.5"/>
<text text-anchor="start" x="8" y="-141.5" font-family="FreeSans" font-size="10.00">SeeSawN::GeometryN</text>
<text text-anchor="start" x="8" y="-130.5" font-family="FreeSans" font-size="10.00">::RelativeRotationRegistration</text>
<text text-anchor="middle" x="72" y="-119.5" font-family="FreeSans" font-size="10.00">C::SolveLS</text>
</g>
<!-- Node58 -->
<g id="node2" class="node"><title>Node58</title>
<g id="a_node2"><a xlink:href="classSeeSawN_1_1GeometryN_1_1RelativeRotationRegistrationC.html#a420348223a6e35fb846c1167b29a92c9" target="_top" xlink:title="Runs the algorithm. ">
<polygon fill="white" stroke="black" points="180,-112.5 180,-153.5 324,-153.5 324,-112.5 180,-112.5"/>
<text text-anchor="start" x="188" y="-141.5" font-family="FreeSans" font-size="10.00">SeeSawN::GeometryN</text>
<text text-anchor="start" x="188" y="-130.5" font-family="FreeSans" font-size="10.00">::RelativeRotationRegistration</text>
<text text-anchor="middle" x="252" y="-119.5" font-family="FreeSans" font-size="10.00">C::Run</text>
</a>
</g>
</g>
<!-- Node57&#45;&gt;Node58 -->
<g id="edge1" class="edge"><title>Node57&#45;&gt;Node58</title>
<path fill="none" stroke="midnightblue" d="M154.17,-133C162.789,-133 171.506,-133 179.995,-133"/>
<polygon fill="midnightblue" stroke="midnightblue" points="154.118,-129.5 144.118,-133 154.118,-136.5 154.118,-129.5"/>
</g>
<!-- Node59 -->
<g id="node3" class="node"><title>Node59</title>
<g id="a_node3"><a xlink:href="namespaceSeeSawN_1_1UnitTestsN_1_1TestGeometryN.html#a2ab1a5298e01a1ff4a1e941d256dadcd" target="_top" xlink:title="SeeSawN::UnitTestsN\l::TestGeometryN::BOOST\l_AUTO_TEST_CASE">
<polygon fill="white" stroke="black" points="385,-172.5 385,-213.5 514,-213.5 514,-172.5 385,-172.5"/>
<text text-anchor="start" x="393" y="-201.5" font-family="FreeSans" font-size="10.00">SeeSawN::UnitTestsN</text>
<text text-anchor="start" x="393" y="-190.5" font-family="FreeSans" font-size="10.00">::TestGeometryN::BOOST</text>
<text text-anchor="middle" x="449.5" y="-179.5" font-family="FreeSans" font-size="10.00">_AUTO_TEST_CASE</text>
</a>
</g>
</g>
<!-- Node58&#45;&gt;Node59 -->
<g id="edge2" class="edge"><title>Node58&#45;&gt;Node59</title>
<path fill="none" stroke="midnightblue" d="M329.736,-156.551C347.995,-162.154 367.28,-168.073 384.878,-173.474"/>
<polygon fill="midnightblue" stroke="midnightblue" points="330.593,-153.153 320.006,-153.565 328.539,-159.845 330.593,-153.153"/>
</g>
<!-- Node60 -->
<g id="node4" class="node"><title>Node60</title>
<g id="a_node4"><a xlink:href="classSeeSawN_1_1RandomSpanningTreeSamplerN_1_1RSTSRotationRegistrationProblemC.html#a888d25d5b23de9bf97065b469591ab27" target="_top" xlink:title="Generates a model from a list of relative rotations. ">
<polygon fill="white" stroke="black" points="360,-112.5 360,-153.5 539,-153.5 539,-112.5 360,-112.5"/>
<text text-anchor="start" x="368" y="-141.5" font-family="FreeSans" font-size="10.00">SeeSawN::RandomSpanningTree</text>
<text text-anchor="start" x="368" y="-130.5" font-family="FreeSans" font-size="10.00">SamplerN::RSTSRotationRegistration</text>
<text text-anchor="middle" x="449.5" y="-119.5" font-family="FreeSans" font-size="10.00">ProblemC::GenerateModel</text>
</a>
</g>
</g>
<!-- Node58&#45;&gt;Node60 -->
<g id="edge3" class="edge"><title>Node58&#45;&gt;Node60</title>
<path fill="none" stroke="midnightblue" d="M334.286,-133C342.693,-133 351.266,-133 359.748,-133"/>
<polygon fill="midnightblue" stroke="midnightblue" points="334.133,-129.5 324.133,-133 334.133,-136.5 334.133,-129.5"/>
</g>
<!-- Node62 -->
<g id="node6" class="node"><title>Node62</title>
<g id="a_node6"><a xlink:href="classSeeSawN_1_1GeometryN_1_1RotationRegistrationPipelineC.html#a22a6c27b89defbebeaa221583b2a1c5c" target="_top" xlink:title="Runs the algorithm. ">
<polygon fill="white" stroke="black" points="378,-52.5 378,-93.5 521,-93.5 521,-52.5 378,-52.5"/>
<text text-anchor="start" x="386" y="-81.5" font-family="FreeSans" font-size="10.00">SeeSawN::GeometryN</text>
<text text-anchor="start" x="386" y="-70.5" font-family="FreeSans" font-size="10.00">::RotationRegistrationPipeline</text>
<text text-anchor="middle" x="449.5" y="-59.5" font-family="FreeSans" font-size="10.00">C::Run</text>
</a>
</g>
</g>
<!-- Node58&#45;&gt;Node62 -->
<g id="edge5" class="edge"><title>Node58&#45;&gt;Node62</title>
<path fill="none" stroke="midnightblue" d="M329.935,-109.388C347.001,-104.151 364.954,-98.6408 381.581,-93.5378"/>
<polygon fill="midnightblue" stroke="midnightblue" points="328.539,-106.155 320.006,-112.435 330.593,-112.847 328.539,-106.155"/>
</g>
<!-- Node61 -->
<g id="node5" class="node"><title>Node61</title>
<g id="a_node5"><a xlink:href="namespaceSeeSawN_1_1UnitTestsN_1_1TestRandomSpanningTreeSamplerN.html#ab11a13ed8d076b5d028192358fd48a44" target="_top" xlink:title="SeeSawN::UnitTestsN\l::TestRandomSpanningTreeSampler\lN::BOOST_AUTO_TEST_CASE">
<polygon fill="white" stroke="black" points="575,-112.5 575,-153.5 748,-153.5 748,-112.5 575,-112.5"/>
<text text-anchor="start" x="583" y="-141.5" font-family="FreeSans" font-size="10.00">SeeSawN::UnitTestsN</text>
<text text-anchor="start" x="583" y="-130.5" font-family="FreeSans" font-size="10.00">::TestRandomSpanningTreeSampler</text>
<text text-anchor="middle" x="661.5" y="-119.5" font-family="FreeSans" font-size="10.00">N::BOOST_AUTO_TEST_CASE</text>
</a>
</g>
</g>
<!-- Node60&#45;&gt;Node61 -->
<g id="edge4" class="edge"><title>Node60&#45;&gt;Node61</title>
<path fill="none" stroke="midnightblue" d="M549.502,-133C557.937,-133 566.423,-133 574.742,-133"/>
<polygon fill="midnightblue" stroke="midnightblue" points="549.255,-129.5 539.255,-133 549.254,-136.5 549.255,-129.5"/>
</g>
<!-- Node63 -->
<g id="node7" class="node"><title>Node63</title>
<g id="a_node7"><a xlink:href="classSeeSawN_1_1GeometryN_1_1PfMPipelineC.html#ad572dea46d62bd8e369f7da5e7bdbf58" target="_top" xlink:title="Estimates the calibration parameters for the cameras. ">
<polygon fill="white" stroke="black" points="580.5,-61 580.5,-91 742.5,-91 742.5,-61 580.5,-61"/>
<text text-anchor="start" x="588.5" y="-79" font-family="FreeSans" font-size="10.00">SeeSawN::GeometryN</text>
<text text-anchor="middle" x="661.5" y="-68" font-family="FreeSans" font-size="10.00">::PfMPipelineC::CalibrateCameras</text>
</a>
</g>
</g>
<!-- Node62&#45;&gt;Node63 -->
<g id="edge6" class="edge"><title>Node62&#45;&gt;Node63</title>
<path fill="none" stroke="midnightblue" d="M531.437,-74.1562C547.501,-74.3857 564.36,-74.6266 580.397,-74.8557"/>
<polygon fill="midnightblue" stroke="midnightblue" points="531.06,-70.6506 521.011,-74.0073 530.96,-77.6499 531.06,-70.6506"/>
</g>
<!-- Node66 -->
<g id="node10" class="node"><title>Node66</title>
<g id="a_node10"><a xlink:href="namespaceSeeSawN_1_1UnitTestsN_1_1TestGeometryN.html#a4a4aaa20fcf77922a3986150278a181f" target="_top" xlink:title="SeeSawN::UnitTestsN\l::TestGeometryN::BOOST\l_AUTO_TEST_CASE">
<polygon fill="white" stroke="black" points="597,-0.5 597,-41.5 726,-41.5 726,-0.5 597,-0.5"/>
<text text-anchor="start" x="605" y="-29.5" font-family="FreeSans" font-size="10.00">SeeSawN::UnitTestsN</text>
<text text-anchor="start" x="605" y="-18.5" font-family="FreeSans" font-size="10.00">::TestGeometryN::BOOST</text>
<text text-anchor="middle" x="661.5" y="-7.5" font-family="FreeSans" font-size="10.00">_AUTO_TEST_CASE</text>
</a>
</g>
</g>
<!-- Node62&#45;&gt;Node66 -->
<g id="edge9" class="edge"><title>Node62&#45;&gt;Node66</title>
<path fill="none" stroke="midnightblue" d="M530.926,-53.0849C552.768,-47.6765 576.113,-41.8958 596.885,-36.7522"/>
<polygon fill="midnightblue" stroke="midnightblue" points="529.877,-49.739 521.011,-55.5401 531.559,-56.5338 529.877,-49.739"/>
</g>
<!-- Node64 -->
<g id="node8" class="node"><title>Node64</title>
<g id="a_node8"><a xlink:href="classSeeSawN_1_1GeometryN_1_1PfMPipelineC.html#aa435d8f0f4abec5cf35e3f525c407fb7" target="_top" xlink:title="Runs the algorithm. ">
<polygon fill="white" stroke="black" points="784,-61 784,-91 899,-91 899,-61 784,-61"/>
<text text-anchor="start" x="792" y="-79" font-family="FreeSans" font-size="10.00">SeeSawN::GeometryN</text>
<text text-anchor="middle" x="841.5" y="-68" font-family="FreeSans" font-size="10.00">::PfMPipelineC::Run</text>
</a>
</g>
</g>
<!-- Node63&#45;&gt;Node64 -->
<g id="edge7" class="edge"><title>Node63&#45;&gt;Node64</title>
<path fill="none" stroke="midnightblue" d="M752.803,-76C763.408,-76 773.989,-76 783.942,-76"/>
<polygon fill="midnightblue" stroke="midnightblue" points="752.648,-72.5001 742.648,-76 752.648,-79.5001 752.648,-72.5001"/>
</g>
<!-- Node65 -->
<g id="node9" class="node"><title>Node65</title>
<g id="a_node9"><a xlink:href="classSeeSawN_1_1AppPfMN_1_1AppPfMImplementationC.html#a907a06d88e1dc5911dedb8d3a8223780" target="_top" xlink:title="Runs the application. ">
<polygon fill="white" stroke="black" points="935,-61 935,-91 1150,-91 1150,-61 935,-61"/>
<text text-anchor="start" x="943" y="-79" font-family="FreeSans" font-size="10.00">SeeSawN::AppPfMN::AppPfMImplementation</text>
<text text-anchor="middle" x="1042.5" y="-68" font-family="FreeSans" font-size="10.00">C::Run</text>
</a>
</g>
</g>
<!-- Node64&#45;&gt;Node65 -->
<g id="edge8" class="edge"><title>Node64&#45;&gt;Node65</title>
<path fill="none" stroke="midnightblue" d="M909.505,-76C917.75,-76 926.33,-76 934.981,-76"/>
<polygon fill="midnightblue" stroke="midnightblue" points="909.259,-72.5001 899.259,-76 909.259,-79.5001 909.259,-72.5001"/>
</g>
</g>
</svg>
        <g id="navigator" transform="translate(0 0)" fill="#404254">
                <rect fill="#f2f5e9" fill-opacity="0.5" stroke="#606060" stroke-width=".5" x="0" y="0" width="60" height="60"/>
                <use id="zoomplus" xlink:href="#zoomPlus" x="17" y="9" onmousedown="handleZoom(evt,'in')"/>
                <use id="zoomminus" xlink:href="#zoomMin" x="42" y="9" onmousedown="handleZoom(evt,'out')"/>
                <use id="reset" xlink:href="#resetDef" x="30" y="36" onmousedown="handleReset()"/>
                <g id="arrowUp" xlink:href="#dirArrow" transform="translate(30 24)" onmousedown="handlePan(0,-1)">
                  <use xlink:href="#rim" fill="#404040">
                        <set attributeName="fill" to="#808080" begin="arrowUp.mouseover" end="arrowUp.mouseout"/>
                  </use>
                  <path fill="none" stroke="white" stroke-width="1.5" d="M0,-3.0v7 M-2.5,-0.5L0,-3.0L2.5,-0.5"/>
                </g>
                <g id="arrowRight" xlink:href="#dirArrow" transform="rotate(90) translate(36 -43)" onmousedown="handlePan(1,0)">
                  <use xlink:href="#rim" fill="#404040">
                        <set attributeName="fill" to="#808080" begin="arrowRight.mouseover" end="arrowRight.mouseout"/>
                  </use>
                  <path fill="none" stroke="white" stroke-width="1.5" d="M0,-3.0v7 M-2.5,-0.5L0,-3.0L2.5,-0.5"/>
                </g>
                <g id="arrowDown" xlink:href="#dirArrow" transform="rotate(180) translate(-30 -48)" onmousedown="handlePan(0,1)">
                  <use xlink:href="#rim" fill="#404040">
                        <set attributeName="fill" to="#808080" begin="arrowDown.mouseover" end="arrowDown.mouseout"/>
                  </use>
                  <path fill="none" stroke="white" stroke-width="1.5" d="M0,-3.0v7 M-2.5,-0.5L0,-3.0L2.5,-0.5"/>
                </g>
                <g id="arrowLeft" xlink:href="#dirArrow" transform="rotate(270) translate(-36 17)" onmousedown="handlePan(-1,0)">
                  <use xlink:href="#rim" fill="#404040">
                        <set attributeName="fill" to="#808080" begin="arrowLeft.mouseover" end="arrowLeft.mouseout"/>
                  </use>
                  <path fill="none" stroke="white" stroke-width="1.5" d="M0,-3.0v7 M-2.5,-0.5L0,-3.0L2.5,-0.5"/>
                </g>
        </g>
        <svg viewBox="0 0 15 15" width="100%" height="30px" preserveAspectRatio="xMaxYMin meet">
         <g id="arrow_out" transform="scale(0.3 0.3)">
          <a xlink:href="classSeeSawN_1_1GeometryN_1_1RelativeRotationRegistrationC_a38b1e77617d92ac4b8d05a24edc20959_icgraph_org.svg" target="_base">
           <rect id="button" ry="5" rx="5" y="6" x="6" height="38" width="38"
                fill="#f2f5e9" fill-opacity="0.5" stroke="#606060" stroke-width="1.0"/>
           <path id="arrow"
             d="M 11.500037,31.436501 C 11.940474,20.09759 22.043105,11.32322 32.158766,21.979434 L 37.068811,17.246167 C 37.068811,17.246167 37.088388,32 37.088388,32 L 22.160133,31.978069 C 22.160133,31.978069 26.997745,27.140456 26.997745,27.140456 C 18.528582,18.264221 13.291696,25.230495 11.500037,31.436501 z"
             style="fill:#404040;"/>
          </a>
         </g>
        </svg>
</svg>
