<?xml version="1.0" encoding="UTF-8" standalone="no"?>
<!DOCTYPE svg PUBLIC "-//W3C//DTD SVG 1.1//EN"
 "http://www.w3.org/Graphics/SVG/1.1/DTD/svg11.dtd">
<!-- Generated by graphviz version 2.38.0 (20140413.2041)
 -->
<!-- Title: SeeSawN::GeometryN::MultiviewPanoramaBuilderC::Run Pages: 1 -->
<!--zoomable 160 -->
<svg id="main" version="1.1" xmlns="http://www.w3.org/2000/svg" xmlns:xlink="http://www.w3.org/1999/xlink" xml:space="preserve" onload="init(evt)">
<style type="text/css"><![CDATA[
.edge:hover path { stroke: red; }
.edge:hover polygon { stroke: red; fill: red; }
]]></style>
<script type="text/javascript"><![CDATA[
var edges = document.getElementsByTagName('g');
if (edges && edges.length) {
  for (var i=0;i<edges.length;i++) {
    if (edges[i].id.substr(0,4)=='edge') {
      edges[i].setAttribute('class','edge');
    }
  }
}
]]></script>
        <defs>
                <circle id="rim" cx="0" cy="0" r="7"/>
                <circle id="rim2" cx="0" cy="0" r="3.5"/>
                <g id="zoomPlus">
                        <use xlink:href="#rim" fill="#404040">
                                <set attributeName="fill" to="#808080" begin="zoomplus.mouseover" end="zoomplus.mouseout"/>
                        </use>
                        <path d="M-4,0h8M0,-4v8" fill="none" stroke="white" stroke-width="1.5" pointer-events="none"/>
                </g>
                <g id="zoomMin">
                        <use xlink:href="#rim" fill="#404040">
                                <set attributeName="fill" to="#808080" begin="zoomminus.mouseover" end="zoomminus.mouseout"/>
                        </use>
                        <path d="M-4,0h8" fill="none" stroke="white" stroke-width="1.5" pointer-events="none"/>
                </g>
                <g id="dirArrow">
                        <path fill="none" stroke="white" stroke-width="1.5" d="M0,-3.0v7 M-2.5,-0.5L0,-3.0L2.5,-0.5"/>
                </g>
               <g id="resetDef">
                       <use xlink:href="#rim2" fill="#404040">
                               <set attributeName="fill" to="#808080" begin="reset.mouseover" end="reset.mouseout"/>
                       </use>
               </g>
        </defs>

<script type="text/javascript">
var viewWidth = 598;
var viewHeight = 160;
var sectionId = 'dynsection-11';
</script>
<script xlink:href="svgpan.js"/>
<svg id="graph" class="graph">
<g id="viewport">
<title>SeeSawN::GeometryN::MultiviewPanoramaBuilderC::Run</title>
<polygon fill="white" stroke="none" points="-4,4 -4,-155.5 594,-155.5 594,4 -4,4"/>
<!-- Node64 -->
<g id="node1" class="node"><title>Node64</title>
<polygon fill="#bfbfbf" stroke="black" points="0,-22 0,-63 137,-63 137,-22 0,-22"/>
<text text-anchor="start" x="8" y="-51" font-family="FreeSans" font-size="10.00">SeeSawN::GeometryN</text>
<text text-anchor="start" x="8" y="-40" font-family="FreeSans" font-size="10.00">::MultiviewPanoramaBuilder</text>
<text text-anchor="middle" x="68.5" y="-29" font-family="FreeSans" font-size="10.00">C::Run</text>
</g>
<!-- Node65 -->
<g id="node2" class="node"><title>Node65</title>
<g id="a_node2"><a xlink:href="classSeeSawN_1_1GeometryN_1_1SparseUnitSphereReconstructionPipelineC.html#ab2168d14acac87a86acc1d54f59ea0ff" target="_top" xlink:title="Runs the algorithm. ">
<polygon fill="white" stroke="black" points="173,-50 173,-91 339,-91 339,-50 173,-50"/>
<text text-anchor="start" x="181" y="-79" font-family="FreeSans" font-size="10.00">SeeSawN::GeometryN</text>
<text text-anchor="start" x="181" y="-68" font-family="FreeSans" font-size="10.00">::SparseUnitSphereReconstruction</text>
<text text-anchor="middle" x="256" y="-57" font-family="FreeSans" font-size="10.00">PipelineC::Run</text>
</a>
</g>
</g>
<!-- Node64&#45;&gt;Node65 -->
<g id="edge1" class="edge"><title>Node64&#45;&gt;Node65</title>
<path fill="none" stroke="midnightblue" d="M147.153,-54.2213C155.667,-55.5063 164.355,-56.8177 172.92,-58.1105"/>
<polygon fill="midnightblue" stroke="midnightblue" points="147.668,-50.7593 137.257,-52.7275 146.623,-57.6809 147.668,-50.7593"/>
</g>
<!-- Node68 -->
<g id="node5" class="node"><title>Node68</title>
<g id="a_node5"><a xlink:href="classSeeSawN_1_1GeometryN_1_1PfMPipelineC.html#aa435d8f0f4abec5cf35e3f525c407fb7" target="_top" xlink:title="Runs the algorithm. ">
<polygon fill="white" stroke="black" points="198.5,-0.5 198.5,-30.5 313.5,-30.5 313.5,-0.5 198.5,-0.5"/>
<text text-anchor="start" x="206.5" y="-18.5" font-family="FreeSans" font-size="10.00">SeeSawN::GeometryN</text>
<text text-anchor="middle" x="256" y="-7.5" font-family="FreeSans" font-size="10.00">::PfMPipelineC::Run</text>
</a>
</g>
</g>
<!-- Node64&#45;&gt;Node68 -->
<g id="edge4" class="edge"><title>Node64&#45;&gt;Node68</title>
<path fill="none" stroke="midnightblue" d="M147.258,-31.1822C164.411,-28.6854 182.268,-26.0863 198.396,-23.7388"/>
<polygon fill="midnightblue" stroke="midnightblue" points="146.649,-27.7338 137.257,-32.6378 147.657,-34.6608 146.649,-27.7338"/>
</g>
<!-- Node66 -->
<g id="node3" class="node"><title>Node66</title>
<g id="a_node3"><a xlink:href="classSeeSawN_1_1AppSparseUnitSphereBuilderN_1_1AppSparseUnitSphereBuilderImplementationC.html#a21278d448f57f45c6ab74176e677592e" target="_top" xlink:title="Runs the application. ">
<polygon fill="white" stroke="black" points="390,-110 390,-151 575,-151 575,-110 390,-110"/>
<text text-anchor="start" x="398" y="-139" font-family="FreeSans" font-size="10.00">SeeSawN::AppSparseUnitSphere</text>
<text text-anchor="start" x="398" y="-128" font-family="FreeSans" font-size="10.00">BuilderN::AppSparseUnitSphereBuilder</text>
<text text-anchor="middle" x="482.5" y="-117" font-family="FreeSans" font-size="10.00">ImplementationC::Run</text>
</a>
</g>
</g>
<!-- Node65&#45;&gt;Node66 -->
<g id="edge2" class="edge"><title>Node65&#45;&gt;Node66</title>
<path fill="none" stroke="midnightblue" d="M343.702,-93.6719C363.787,-99.04 385.025,-104.716 404.654,-109.962"/>
<polygon fill="midnightblue" stroke="midnightblue" points="344.511,-90.2654 333.946,-91.0647 342.703,-97.028 344.511,-90.2654"/>
</g>
<!-- Node67 -->
<g id="node4" class="node"><title>Node67</title>
<g id="a_node4"><a xlink:href="classSeeSawN_1_1GeometryN_1_1SparseUnitSphereReconstructionPipelineC.html#a36e5a2830a39ac90749196f3f4cbc8eb" target="_top" xlink:title="Conversion from binary scene features to oriented scene features. ">
<polygon fill="white" stroke="black" points="399.5,-50 399.5,-91 565.5,-91 565.5,-50 399.5,-50"/>
<text text-anchor="start" x="407.5" y="-79" font-family="FreeSans" font-size="10.00">SeeSawN::GeometryN</text>
<text text-anchor="start" x="407.5" y="-68" font-family="FreeSans" font-size="10.00">::SparseUnitSphereReconstruction</text>
<text text-anchor="middle" x="482.5" y="-57" font-family="FreeSans" font-size="10.00">PipelineC::MakeOriented</text>
</a>
</g>
</g>
<!-- Node65&#45;&gt;Node67 -->
<g id="edge3" class="edge"><title>Node65&#45;&gt;Node67</title>
<path fill="none" stroke="midnightblue" d="M349.248,-70.5C365.849,-70.5 383.053,-70.5 399.344,-70.5"/>
<polygon fill="midnightblue" stroke="midnightblue" points="349.003,-67.0001 339.003,-70.5 349.003,-74.0001 349.003,-67.0001"/>
</g>
<!-- Node69 -->
<g id="node6" class="node"><title>Node69</title>
<g id="a_node6"><a xlink:href="classSeeSawN_1_1AppPfMN_1_1AppPfMImplementationC.html#a907a06d88e1dc5911dedb8d3a8223780" target="_top" xlink:title="Runs the application. ">
<polygon fill="white" stroke="black" points="375,-0.5 375,-30.5 590,-30.5 590,-0.5 375,-0.5"/>
<text text-anchor="start" x="383" y="-18.5" font-family="FreeSans" font-size="10.00">SeeSawN::AppPfMN::AppPfMImplementation</text>
<text text-anchor="middle" x="482.5" y="-7.5" font-family="FreeSans" font-size="10.00">C::Run</text>
</a>
</g>
</g>
<!-- Node68&#45;&gt;Node69 -->
<g id="edge5" class="edge"><title>Node68&#45;&gt;Node69</title>
<path fill="none" stroke="midnightblue" d="M323.91,-15.5C339.87,-15.5 357.299,-15.5 374.561,-15.5"/>
<polygon fill="midnightblue" stroke="midnightblue" points="323.651,-12.0001 313.651,-15.5 323.651,-19.0001 323.651,-12.0001"/>
</g>
</g>
</svg>
        <g id="navigator" transform="translate(0 0)" fill="#404254">
                <rect fill="#f2f5e9" fill-opacity="0.5" stroke="#606060" stroke-width=".5" x="0" y="0" width="60" height="60"/>
                <use id="zoomplus" xlink:href="#zoomPlus" x="17" y="9" onmousedown="handleZoom(evt,'in')"/>
                <use id="zoomminus" xlink:href="#zoomMin" x="42" y="9" onmousedown="handleZoom(evt,'out')"/>
                <use id="reset" xlink:href="#resetDef" x="30" y="36" onmousedown="handleReset()"/>
                <g id="arrowUp" xlink:href="#dirArrow" transform="translate(30 24)" onmousedown="handlePan(0,-1)">
                  <use xlink:href="#rim" fill="#404040">
                        <set attributeName="fill" to="#808080" begin="arrowUp.mouseover" end="arrowUp.mouseout"/>
                  </use>
                  <path fill="none" stroke="white" stroke-width="1.5" d="M0,-3.0v7 M-2.5,-0.5L0,-3.0L2.5,-0.5"/>
                </g>
                <g id="arrowRight" xlink:href="#dirArrow" transform="rotate(90) translate(36 -43)" onmousedown="handlePan(1,0)">
                  <use xlink:href="#rim" fill="#404040">
                        <set attributeName="fill" to="#808080" begin="arrowRight.mouseover" end="arrowRight.mouseout"/>
                  </use>
                  <path fill="none" stroke="white" stroke-width="1.5" d="M0,-3.0v7 M-2.5,-0.5L0,-3.0L2.5,-0.5"/>
                </g>
                <g id="arrowDown" xlink:href="#dirArrow" transform="rotate(180) translate(-30 -48)" onmousedown="handlePan(0,1)">
                  <use xlink:href="#rim" fill="#404040">
                        <set attributeName="fill" to="#808080" begin="arrowDown.mouseover" end="arrowDown.mouseout"/>
                  </use>
                  <path fill="none" stroke="white" stroke-width="1.5" d="M0,-3.0v7 M-2.5,-0.5L0,-3.0L2.5,-0.5"/>
                </g>
                <g id="arrowLeft" xlink:href="#dirArrow" transform="rotate(270) translate(-36 17)" onmousedown="handlePan(-1,0)">
                  <use xlink:href="#rim" fill="#404040">
                        <set attributeName="fill" to="#808080" begin="arrowLeft.mouseover" end="arrowLeft.mouseout"/>
                  </use>
                  <path fill="none" stroke="white" stroke-width="1.5" d="M0,-3.0v7 M-2.5,-0.5L0,-3.0L2.5,-0.5"/>
                </g>
        </g>
        <svg viewBox="0 0 15 15" width="100%" height="30px" preserveAspectRatio="xMaxYMin meet">
         <g id="arrow_out" transform="scale(0.3 0.3)">
          <a xlink:href="classSeeSawN_1_1GeometryN_1_1MultiviewPanoramaBuilderC_af4677eb2d52fbffc1921725c6b99041a_icgraph_org.svg" target="_base">
           <rect id="button" ry="5" rx="5" y="6" x="6" height="38" width="38"
                fill="#f2f5e9" fill-opacity="0.5" stroke="#606060" stroke-width="1.0"/>
           <path id="arrow"
             d="M 11.500037,31.436501 C 11.940474,20.09759 22.043105,11.32322 32.158766,21.979434 L 37.068811,17.246167 C 37.068811,17.246167 37.088388,32 37.088388,32 L 22.160133,31.978069 C 22.160133,31.978069 26.997745,27.140456 26.997745,27.140456 C 18.528582,18.264221 13.291696,25.230495 11.500037,31.436501 z"
             style="fill:#404040;"/>
          </a>
         </g>
        </svg>
</svg>
