<?xml version="1.0" encoding="UTF-8" standalone="no"?>
<!DOCTYPE svg PUBLIC "-//W3C//DTD SVG 1.1//EN"
 "http://www.w3.org/Graphics/SVG/1.1/DTD/svg11.dtd">
<!-- Generated by graphviz version 2.38.0 (20140413.2041)
 -->
<!-- Title: SeeSawN::GeometryN::PfMPipelineC Pages: 1 -->
<svg width="186pt" height="358pt"
 viewBox="0.00 0.00 186.00 358.00" xmlns="http://www.w3.org/2000/svg" xmlns:xlink="http://www.w3.org/1999/xlink">
<g id="graph0" class="graph" transform="scale(1 1) rotate(0) translate(4 354)">
<title>SeeSawN::GeometryN::PfMPipelineC</title>
<polygon fill="white" stroke="none" points="-4,4 -4,-354 182,-354 182,4 -4,4"/>
<!-- Node1 -->
<g id="node1" class="node"><title>Node1</title>
<polygon fill="#bfbfbf" stroke="black" points="-1.42109e-14,-0.5 -1.42109e-14,-189.5 178,-189.5 178,-0.5 -1.42109e-14,-0.5"/>
<text text-anchor="start" x="8" y="-177.5" font-family="FreeSans" font-size="10.00">SeeSawN::GeometryN</text>
<text text-anchor="middle" x="89" y="-166.5" font-family="FreeSans" font-size="10.00">::PfMPipelineC</text>
<polyline fill="none" stroke="black" points="-1.42109e-14,-159.5 178,-159.5 "/>
<text text-anchor="middle" x="89" y="-147.5" font-family="FreeSans" font-size="10.00"> </text>
<polyline fill="none" stroke="black" points="-1.42109e-14,-140.5 178,-140.5 "/>
<text text-anchor="start" x="8" y="-128.5" font-family="FreeSans" font-size="10.00">+ Run()</text>
<text text-anchor="start" x="8" y="-117.5" font-family="FreeSans" font-size="10.00">* MeasurementT</text>
<text text-anchor="start" x="8" y="-106.5" font-family="FreeSans" font-size="10.00">* TrackListT</text>
<text text-anchor="start" x="8" y="-95.5" font-family="FreeSans" font-size="10.00">* ValidateInput()</text>
<text text-anchor="start" x="8" y="-84.5" font-family="FreeSans" font-size="10.00">* ProcessCameras()</text>
<text text-anchor="start" x="8" y="-73.5" font-family="FreeSans" font-size="10.00">* ComputeLocalDirectionVectors()</text>
<text text-anchor="start" x="8" y="-62.5" font-family="FreeSans" font-size="10.00">* ComputeNormalisedCoordinates()</text>
<text text-anchor="start" x="8" y="-51.5" font-family="FreeSans" font-size="10.00">* ExtractRelativeRotation()</text>
<text text-anchor="start" x="8" y="-40.5" font-family="FreeSans" font-size="10.00">* EvaluateRecomposedHomography()</text>
<text text-anchor="start" x="8" y="-29.5" font-family="FreeSans" font-size="10.00">* ExtractMeasurements()</text>
<text text-anchor="start" x="8" y="-18.5" font-family="FreeSans" font-size="10.00">* RemoveUnconnected()</text>
<text text-anchor="start" x="8" y="-7.5" font-family="FreeSans" font-size="10.00">and 9 more...</text>
</g>
<!-- Node2 -->
<g id="node2" class="node"><title>Node2</title>
<polygon fill="white" stroke="#bfbfbf" points="68,-292.5 68,-349.5 110,-349.5 110,-292.5 68,-292.5"/>
<text text-anchor="middle" x="89" y="-337.5" font-family="FreeSans" font-size="10.00">size_t</text>
<polyline fill="none" stroke="#bfbfbf" points="68,-330.5 110,-330.5 "/>
<text text-anchor="middle" x="89" y="-318.5" font-family="FreeSans" font-size="10.00"> </text>
<polyline fill="none" stroke="#bfbfbf" points="68,-311.5 110,-311.5 "/>
<text text-anchor="middle" x="89" y="-299.5" font-family="FreeSans" font-size="10.00"> </text>
</g>
<!-- Node2&#45;&gt;Node1 -->
<g id="edge1" class="edge"><title>Node2&#45;&gt;Node1</title>
<path fill="none" stroke="#404040" d="M89,-292.083C89,-269.156 89,-235.15 89,-201.869"/>
<polygon fill="none" stroke="#404040" points="89.0001,-201.662 85,-195.662 89,-189.662 93,-195.662 89.0001,-201.662"/>
<text text-anchor="middle" x="127.5" y="-266" font-family="FreeSans" font-size="10.00"> &#45;iFocalLength1</text>
<text text-anchor="middle" x="127.5" y="-255" font-family="FreeSans" font-size="10.00">&#45;iFocalLength2</text>
<text text-anchor="middle" x="127.5" y="-244" font-family="FreeSans" font-size="10.00">&#45;iCamera1</text>
<text text-anchor="middle" x="127.5" y="-233" font-family="FreeSans" font-size="10.00">&#45;iQuality</text>
<text text-anchor="middle" x="127.5" y="-222" font-family="FreeSans" font-size="10.00">&#45;iCamera2</text>
<text text-anchor="middle" x="127.5" y="-211" font-family="FreeSans" font-size="10.00">&#45;iRelativeRotation</text>
</g>
</g>
</svg>
