<?xml version="1.0" encoding="UTF-8" standalone="no"?>
<!DOCTYPE svg PUBLIC "-//W3C//DTD SVG 1.1//EN"
 "http://www.w3.org/Graphics/SVG/1.1/DTD/svg11.dtd">
<!-- Generated by graphviz version 2.38.0 (20140413.2041)
 -->
<!-- Title: SeeSawN::GeometryN::RoamingCameraTrackingPipelineC::RoamingCameraTrackingPipelineC Pages: 1 -->
<svg width="388pt" height="100pt"
 viewBox="0.00 0.00 388.00 99.50" xmlns="http://www.w3.org/2000/svg" xmlns:xlink="http://www.w3.org/1999/xlink">
<g id="graph0" class="graph" transform="scale(1 1) rotate(0) translate(4 95.5)">
<title>SeeSawN::GeometryN::RoamingCameraTrackingPipelineC::RoamingCameraTrackingPipelineC</title>
<polygon fill="white" stroke="none" points="-4,4 -4,-95.5 384,-95.5 384,4 -4,4"/>
<!-- Node2 -->
<g id="node1" class="node"><title>Node2</title>
<polygon fill="#bfbfbf" stroke="black" points="0,-27.5 0,-68.5 179,-68.5 179,-27.5 0,-27.5"/>
<text text-anchor="start" x="8" y="-56.5" font-family="FreeSans" font-size="10.00">SeeSawN::GeometryN</text>
<text text-anchor="start" x="8" y="-45.5" font-family="FreeSans" font-size="10.00">::RoamingCameraTrackingPipeline</text>
<text text-anchor="middle" x="89.5" y="-34.5" font-family="FreeSans" font-size="10.00">C::RoamingCameraTrackingPipelineC</text>
</g>
<!-- Node3 -->
<g id="node2" class="node"><title>Node3</title>
<g id="a_node2"><a xlink:href="namespaceSeeSawN_1_1ElementsN.html#a55b8a7d70fe7cb0af19aff28cf0f0995" target="_top" xlink:title="SeeSawN::ElementsN\l::MakeCoordinateVector">
<polygon fill="white" stroke="black" points="237.5,-61 237.5,-91 357.5,-91 357.5,-61 237.5,-61"/>
<text text-anchor="start" x="245.5" y="-79" font-family="FreeSans" font-size="10.00">SeeSawN::ElementsN</text>
<text text-anchor="middle" x="297.5" y="-68" font-family="FreeSans" font-size="10.00">::MakeCoordinateVector</text>
</a>
</g>
</g>
<!-- Node2&#45;&gt;Node3 -->
<g id="edge1" class="edge"><title>Node2&#45;&gt;Node3</title>
<path fill="none" stroke="midnightblue" d="M179.058,-60.037C195.249,-62.2378 211.926,-64.5045 227.446,-66.614"/>
<polygon fill="midnightblue" stroke="midnightblue" points="227.08,-70.0963 237.46,-67.9752 228.023,-63.1601 227.08,-70.0963"/>
</g>
<!-- Node4 -->
<g id="node3" class="node"><title>Node4</title>
<g id="a_node3"><a xlink:href="classSeeSawN_1_1GeometryN_1_1RoamingCameraTrackingPipelineC.html#a32cda8af31d957b72aca4dd2096b27ff" target="_top" xlink:title="Validates the parameters. ">
<polygon fill="white" stroke="black" points="215,-0.5 215,-41.5 380,-41.5 380,-0.5 215,-0.5"/>
<text text-anchor="start" x="223" y="-29.5" font-family="FreeSans" font-size="10.00">SeeSawN::GeometryN</text>
<text text-anchor="start" x="223" y="-18.5" font-family="FreeSans" font-size="10.00">::RoamingCameraTrackingPipeline</text>
<text text-anchor="middle" x="297.5" y="-7.5" font-family="FreeSans" font-size="10.00">C::Validate</text>
</a>
</g>
</g>
<!-- Node2&#45;&gt;Node4 -->
<g id="edge2" class="edge"><title>Node2&#45;&gt;Node4</title>
<path fill="none" stroke="midnightblue" d="M179.058,-36.3929C187.601,-35.2731 196.28,-34.1356 204.852,-33.0121"/>
<polygon fill="midnightblue" stroke="midnightblue" points="205.392,-36.4714 214.852,-31.7014 204.482,-29.5307 205.392,-36.4714"/>
</g>
</g>
</svg>
