<?xml version="1.0" encoding="UTF-8" standalone="no"?>
<!DOCTYPE svg PUBLIC "-//W3C//DTD SVG 1.1//EN"
 "http://www.w3.org/Graphics/SVG/1.1/DTD/svg11.dtd">
<!-- Generated by graphviz version 2.38.0 (20140413.2041)
 -->
<!-- Title: SeeSawN::ION::ImageFeatureTrajectoryIOC&lt; TimeStampT &gt; Pages: 1 -->
<svg width="158pt" height="121pt"
 viewBox="0.00 0.00 158.00 121.00" xmlns="http://www.w3.org/2000/svg" xmlns:xlink="http://www.w3.org/1999/xlink">
<g id="graph0" class="graph" transform="scale(1 1) rotate(0) translate(4 117)">
<title>SeeSawN::ION::ImageFeatureTrajectoryIOC&lt; TimeStampT &gt;</title>
<polygon fill="white" stroke="none" points="-4,4 -4,-117 154,-117 154,4 -4,4"/>
<!-- Node1 -->
<g id="node1" class="node"><title>Node1</title>
<polygon fill="#bfbfbf" stroke="black" points="-1.42109e-14,-0.5 -1.42109e-14,-112.5 150,-112.5 150,-0.5 -1.42109e-14,-0.5"/>
<text text-anchor="start" x="8" y="-100.5" font-family="FreeSans" font-size="10.00">SeeSawN::ION::ImageFeature</text>
<text text-anchor="middle" x="75" y="-89.5" font-family="FreeSans" font-size="10.00">TrajectoryIOC&lt; TimeStampT &gt;</text>
<polyline fill="none" stroke="black" points="-1.42109e-14,-82.5 150,-82.5 "/>
<text text-anchor="middle" x="75" y="-70.5" font-family="FreeSans" font-size="10.00"> </text>
<polyline fill="none" stroke="black" points="-1.42109e-14,-63.5 150,-63.5 "/>
<text text-anchor="start" x="8" y="-51.5" font-family="FreeSans" font-size="10.00">+ ReadTrajectoryFile()</text>
<text text-anchor="start" x="8" y="-40.5" font-family="FreeSans" font-size="10.00">+ WriteTrajectoryFile()</text>
<text text-anchor="start" x="8" y="-29.5" font-family="FreeSans" font-size="10.00">+ PreprocessMeasurements()</text>
<text text-anchor="start" x="8" y="-18.5" font-family="FreeSans" font-size="10.00">+ PostprocessMeasurements()</text>
<text text-anchor="start" x="8" y="-7.5" font-family="FreeSans" font-size="10.00">* WriteSampleFile()</text>
</g>
</g>
</svg>
