<?xml version="1.0" encoding="UTF-8" standalone="no"?>
<!DOCTYPE svg PUBLIC "-//W3C//DTD SVG 1.1//EN"
 "http://www.w3.org/Graphics/SVG/1.1/DTD/svg11.dtd">
<!-- Generated by graphviz version 2.38.0 (20140413.2041)
 -->
<!-- Title: SeeSawN::ApplicationN::InterfacePfMPipelineC::MakeParameterTree Pages: 1 -->
<!--zoomable 693 -->
<svg id="main" version="1.1" xmlns="http://www.w3.org/2000/svg" xmlns:xlink="http://www.w3.org/1999/xlink" xml:space="preserve" onload="init(evt)">
<style type="text/css"><![CDATA[
.edge:hover path { stroke: red; }
.edge:hover polygon { stroke: red; fill: red; }
]]></style>
<script type="text/javascript"><![CDATA[
var edges = document.getElementsByTagName('g');
if (edges && edges.length) {
  for (var i=0;i<edges.length;i++) {
    if (edges[i].id.substr(0,4)=='edge') {
      edges[i].setAttribute('class','edge');
    }
  }
}
]]></script>
        <defs>
                <circle id="rim" cx="0" cy="0" r="7"/>
                <circle id="rim2" cx="0" cy="0" r="3.5"/>
                <g id="zoomPlus">
                        <use xlink:href="#rim" fill="#404040">
                                <set attributeName="fill" to="#808080" begin="zoomplus.mouseover" end="zoomplus.mouseout"/>
                        </use>
                        <path d="M-4,0h8M0,-4v8" fill="none" stroke="white" stroke-width="1.5" pointer-events="none"/>
                </g>
                <g id="zoomMin">
                        <use xlink:href="#rim" fill="#404040">
                                <set attributeName="fill" to="#808080" begin="zoomminus.mouseover" end="zoomminus.mouseout"/>
                        </use>
                        <path d="M-4,0h8" fill="none" stroke="white" stroke-width="1.5" pointer-events="none"/>
                </g>
                <g id="dirArrow">
                        <path fill="none" stroke="white" stroke-width="1.5" d="M0,-3.0v7 M-2.5,-0.5L0,-3.0L2.5,-0.5"/>
                </g>
               <g id="resetDef">
                       <use xlink:href="#rim2" fill="#404040">
                               <set attributeName="fill" to="#808080" begin="reset.mouseover" end="reset.mouseout"/>
                       </use>
               </g>
        </defs>

<script type="text/javascript">
var viewWidth = 1218;
var viewHeight = 693;
var sectionId = 'dynsection-3';
</script>
<script xlink:href="svgpan.js"/>
<svg id="graph" class="graph">
<g id="viewport">
<title>SeeSawN::ApplicationN::InterfacePfMPipelineC::MakeParameterTree</title>
<polygon fill="white" stroke="none" points="-4,4 -4,-689 1214,-689 1214,4 -4,4"/>
<!-- Node29 -->
<g id="node1" class="node"><title>Node29</title>
<polygon fill="#bfbfbf" stroke="black" points="0,-300.5 0,-341.5 121,-341.5 121,-300.5 0,-300.5"/>
<text text-anchor="start" x="8" y="-329.5" font-family="FreeSans" font-size="10.00">SeeSawN::ApplicationN</text>
<text text-anchor="start" x="8" y="-318.5" font-family="FreeSans" font-size="10.00">::InterfacePfMPipelineC</text>
<text text-anchor="middle" x="60.5" y="-307.5" font-family="FreeSans" font-size="10.00">::MakeParameterTree</text>
</g>
<!-- Node30 -->
<g id="node2" class="node"><title>Node30</title>
<g id="a_node2"><a xlink:href="classSeeSawN_1_1ApplicationN_1_1InterfaceTwoStageRANSACC.html#a7e85422f8b1d8be4f0e488558d0cd5d2" target="_top" xlink:title="Augments the tree with the parameters for RANSACGeometryEstimationProblemC. ">
<polygon fill="white" stroke="black" points="373,-556.5 373,-597.5 547,-597.5 547,-556.5 373,-556.5"/>
<text text-anchor="start" x="381" y="-585.5" font-family="FreeSans" font-size="10.00">SeeSawN::ApplicationN</text>
<text text-anchor="start" x="381" y="-574.5" font-family="FreeSans" font-size="10.00">::InterfaceTwoStageRANSACC</text>
<text text-anchor="middle" x="460" y="-563.5" font-family="FreeSans" font-size="10.00">::InsertGeometryProblemParameters</text>
</a>
</g>
</g>
<!-- Node29&#45;&gt;Node30 -->
<g id="edge1" class="edge"><title>Node29&#45;&gt;Node30</title>
<path fill="none" stroke="midnightblue" d="M63.6664,-341.611C69.5647,-386.364 90.2421,-492.385 157,-542 215.407,-585.409 298.499,-592.212 362.746,-589.249"/>
<polygon fill="midnightblue" stroke="midnightblue" points="363.095,-592.735 372.888,-588.693 362.712,-585.745 363.095,-592.735"/>
</g>
<!-- Node34 -->
<g id="node6" class="node"><title>Node34</title>
<g id="a_node6"><a xlink:href="classSeeSawN_1_1ApplicationN_1_1InterfaceRandomSpanningTreeSamplerC.html#a9f00212663e90a208de73d5f49b3bb25" target="_top" xlink:title="Makes a property tree from a parameter object. ">
<polygon fill="white" stroke="black" points="382.5,-338.5 382.5,-379.5 537.5,-379.5 537.5,-338.5 382.5,-338.5"/>
<text text-anchor="start" x="390.5" y="-367.5" font-family="FreeSans" font-size="10.00">SeeSawN::ApplicationN</text>
<text text-anchor="start" x="390.5" y="-356.5" font-family="FreeSans" font-size="10.00">::InterfaceRandomSpanningTree</text>
<text text-anchor="middle" x="460" y="-345.5" font-family="FreeSans" font-size="10.00">SamplerC::MakeParameterTree</text>
</a>
</g>
</g>
<!-- Node29&#45;&gt;Node34 -->
<g id="edge5" class="edge"><title>Node29&#45;&gt;Node34</title>
<path fill="none" stroke="midnightblue" d="M117.932,-341.565C130.624,-345.39 144.144,-348.854 157,-351 228.766,-362.982 311.435,-364.327 372.116,-363.045"/>
<polygon fill="midnightblue" stroke="midnightblue" points="372.507,-366.537 382.42,-362.798 372.339,-359.539 372.507,-366.537"/>
</g>
<!-- Node35 -->
<g id="node7" class="node"><title>Node35</title>
<g id="a_node7"><a xlink:href="classSeeSawN_1_1ApplicationN_1_1InterfaceRotationRegistrationPipelineC.html#a44e96fe1dbf07c44b1541c77e45feda3" target="_top" xlink:title="Makes a property tree from a parameter object. ">
<polygon fill="white" stroke="black" points="171,-398.5 171,-439.5 322,-439.5 322,-398.5 171,-398.5"/>
<text text-anchor="start" x="179" y="-427.5" font-family="FreeSans" font-size="10.00">SeeSawN::ApplicationN</text>
<text text-anchor="start" x="179" y="-416.5" font-family="FreeSans" font-size="10.00">::InterfaceRotationRegistration</text>
<text text-anchor="middle" x="246.5" y="-405.5" font-family="FreeSans" font-size="10.00">PipelineC::MakeParameterTree</text>
</a>
</g>
</g>
<!-- Node29&#45;&gt;Node35 -->
<g id="edge6" class="edge"><title>Node29&#45;&gt;Node35</title>
<path fill="none" stroke="midnightblue" d="M89.3954,-341.622C107.957,-354.778 133.214,-371.621 157,-384 164.085,-387.688 171.651,-391.231 179.262,-394.552"/>
<polygon fill="midnightblue" stroke="midnightblue" points="177.967,-397.805 188.54,-398.489 180.702,-391.361 177.967,-397.805"/>
</g>
<!-- Node36 -->
<g id="node8" class="node"><title>Node36</title>
<g id="a_node8"><a xlink:href="classSeeSawN_1_1ApplicationN_1_1InterfaceGeometryEstimatorC.html#a57783740d44193595dd5b49a9d40d6fb" target="_top" xlink:title="Makes a property tree from a parameter object. ">
<polygon fill="white" stroke="black" points="613.5,-507.5 613.5,-548.5 756.5,-548.5 756.5,-507.5 613.5,-507.5"/>
<text text-anchor="start" x="621.5" y="-536.5" font-family="FreeSans" font-size="10.00">SeeSawN::ApplicationN</text>
<text text-anchor="start" x="621.5" y="-525.5" font-family="FreeSans" font-size="10.00">::InterfaceGeometryEstimator</text>
<text text-anchor="middle" x="685" y="-514.5" font-family="FreeSans" font-size="10.00">C::MakeParameterTree</text>
</a>
</g>
</g>
<!-- Node29&#45;&gt;Node36 -->
<g id="edge8" class="edge"><title>Node29&#45;&gt;Node36</title>
<path fill="none" stroke="midnightblue" d="M64.997,-341.701C73.0415,-382.062 96.9926,-470.671 157,-509 228.648,-554.764 473.703,-544.127 602.853,-534.837"/>
<polygon fill="midnightblue" stroke="midnightblue" points="603.368,-538.309 613.085,-534.087 602.855,-531.328 603.368,-538.309"/>
</g>
<!-- Node41 -->
<g id="node13" class="node"><title>Node41</title>
<g id="a_node13"><a xlink:href="classSeeSawN_1_1ApplicationN_1_1InterfaceMultiviewPanoramaBuilderC.html#a7c05869326a24ce69c2673778f7e2f58" target="_top" xlink:title="Makes a property tree from a parameter object. ">
<polygon fill="white" stroke="black" points="173.5,-300.5 173.5,-341.5 319.5,-341.5 319.5,-300.5 173.5,-300.5"/>
<text text-anchor="start" x="181.5" y="-329.5" font-family="FreeSans" font-size="10.00">SeeSawN::ApplicationN</text>
<text text-anchor="start" x="181.5" y="-318.5" font-family="FreeSans" font-size="10.00">::InterfaceMultiviewPanorama</text>
<text text-anchor="middle" x="246.5" y="-307.5" font-family="FreeSans" font-size="10.00">BuilderC::MakeParameterTree</text>
</a>
</g>
</g>
<!-- Node29&#45;&gt;Node41 -->
<g id="edge15" class="edge"><title>Node29&#45;&gt;Node41</title>
<path fill="none" stroke="midnightblue" d="M121.24,-321C134.581,-321 148.959,-321 163.036,-321"/>
<polygon fill="midnightblue" stroke="midnightblue" points="163.214,-324.5 173.214,-321 163.214,-317.5 163.214,-324.5"/>
</g>
<!-- Node42 -->
<g id="node14" class="node"><title>Node42</title>
<g id="a_node14"><a xlink:href="classSeeSawN_1_1ApplicationN_1_1InterfaceVisionGraphPipelineC.html#a77a4bbe1e205b28c8b9a5c5df718c73d" target="_top" xlink:title="Makes a property tree from a parameter object. ">
<polygon fill="white" stroke="black" points="173,-458.5 173,-499.5 320,-499.5 320,-458.5 173,-458.5"/>
<text text-anchor="start" x="181" y="-487.5" font-family="FreeSans" font-size="10.00">SeeSawN::ApplicationN</text>
<text text-anchor="start" x="181" y="-476.5" font-family="FreeSans" font-size="10.00">::InterfaceVisionGraphPipeline</text>
<text text-anchor="middle" x="246.5" y="-465.5" font-family="FreeSans" font-size="10.00">C::MakeParameterTree</text>
</a>
</g>
</g>
<!-- Node29&#45;&gt;Node42 -->
<g id="edge16" class="edge"><title>Node29&#45;&gt;Node42</title>
<path fill="none" stroke="midnightblue" d="M71.8278,-341.804C86.8431,-370.008 117.298,-420.155 157,-449 159.125,-450.544 161.334,-452.012 163.61,-453.408"/>
<polygon fill="midnightblue" stroke="midnightblue" points="162.232,-456.647 172.674,-458.445 165.633,-450.528 162.232,-456.647"/>
</g>
<!-- Node50 -->
<g id="node22" class="node"><title>Node50</title>
<g id="a_node22"><a xlink:href="classSeeSawN_1_1ApplicationN_1_1InterfacePfMPipelineC.html#acf83865ec2d0c3efb68bad283a4d9fed" target="_top" xlink:title="Removes the redundant elements from a geometry estimator property tree. ">
<polygon fill="white" stroke="black" points="181.5,-240.5 181.5,-281.5 311.5,-281.5 311.5,-240.5 181.5,-240.5"/>
<text text-anchor="start" x="189.5" y="-269.5" font-family="FreeSans" font-size="10.00">SeeSawN::ApplicationN</text>
<text text-anchor="start" x="189.5" y="-258.5" font-family="FreeSans" font-size="10.00">::InterfacePfMPipelineC</text>
<text text-anchor="middle" x="246.5" y="-247.5" font-family="FreeSans" font-size="10.00">::PruneGeometryEstimator</text>
</a>
</g>
</g>
<!-- Node29&#45;&gt;Node50 -->
<g id="edge26" class="edge"><title>Node29&#45;&gt;Node50</title>
<path fill="none" stroke="midnightblue" d="M121.24,-301.52C137.643,-296.171 155.613,-290.311 172.664,-284.751"/>
<polygon fill="midnightblue" stroke="midnightblue" points="174.157,-287.946 182.579,-281.518 171.986,-281.291 174.157,-287.946"/>
</g>
<!-- Node51 -->
<g id="node23" class="node"><title>Node51</title>
<g id="a_node23"><a xlink:href="classSeeSawN_1_1ApplicationN_1_1InterfacePfMPipelineC.html#affa7582c169ecd321f4f2f1965e3081d" target="_top" xlink:title="Removes the redundant elements from a multiview panorama builder property tree. ">
<polygon fill="white" stroke="black" points="162,-180.5 162,-221.5 331,-221.5 331,-180.5 162,-180.5"/>
<text text-anchor="start" x="170" y="-209.5" font-family="FreeSans" font-size="10.00">SeeSawN::ApplicationN</text>
<text text-anchor="start" x="170" y="-198.5" font-family="FreeSans" font-size="10.00">::InterfacePfMPipelineC</text>
<text text-anchor="middle" x="246.5" y="-187.5" font-family="FreeSans" font-size="10.00">::PruneMultiviewPanoramaBuilderC</text>
</a>
</g>
</g>
<!-- Node29&#45;&gt;Node51 -->
<g id="edge27" class="edge"><title>Node29&#45;&gt;Node51</title>
<path fill="none" stroke="midnightblue" d="M78.5371,-300.447C96.2648,-280.242 125.759,-249.781 157,-231 159.85,-229.286 162.812,-227.655 165.848,-226.103"/>
<polygon fill="midnightblue" stroke="midnightblue" points="167.615,-229.139 175.146,-221.686 164.611,-222.816 167.615,-229.139"/>
</g>
<!-- Node52 -->
<g id="node24" class="node"><title>Node52</title>
<g id="a_node24"><a xlink:href="classSeeSawN_1_1ApplicationN_1_1InterfacePfMPipelineC.html#a596124d8ee7fbd0fa5b1d6930bfbeb28" target="_top" xlink:title="Removes the redundant elements from a RSTS property tree. ">
<polygon fill="white" stroke="black" points="157,-120.5 157,-161.5 336,-161.5 336,-120.5 157,-120.5"/>
<text text-anchor="start" x="165" y="-149.5" font-family="FreeSans" font-size="10.00">SeeSawN::ApplicationN</text>
<text text-anchor="start" x="165" y="-138.5" font-family="FreeSans" font-size="10.00">::InterfacePfMPipelineC</text>
<text text-anchor="middle" x="246.5" y="-127.5" font-family="FreeSans" font-size="10.00">::PruneRandomSpanningTreeSampler</text>
</a>
</g>
</g>
<!-- Node29&#45;&gt;Node52 -->
<g id="edge28" class="edge"><title>Node29&#45;&gt;Node52</title>
<path fill="none" stroke="midnightblue" d="M69.3087,-300.4C82.5275,-268.215 112.312,-206.067 157,-171 158.815,-169.576 160.701,-168.218 162.645,-166.922"/>
<polygon fill="midnightblue" stroke="midnightblue" points="164.707,-169.767 171.498,-161.634 161.118,-163.757 164.707,-169.767"/>
</g>
<!-- Node53 -->
<g id="node25" class="node"><title>Node53</title>
<g id="a_node25"><a xlink:href="classSeeSawN_1_1ApplicationN_1_1InterfacePfMPipelineC.html#adb9622003b021bb64be99721b9c089b3" target="_top" xlink:title="Removes the redundant elements from a rotation registration pipeline property tree. ">
<polygon fill="white" stroke="black" points="162,-60.5 162,-101.5 331,-101.5 331,-60.5 162,-60.5"/>
<text text-anchor="start" x="170" y="-89.5" font-family="FreeSans" font-size="10.00">SeeSawN::ApplicationN</text>
<text text-anchor="start" x="170" y="-78.5" font-family="FreeSans" font-size="10.00">::InterfacePfMPipelineC</text>
<text text-anchor="middle" x="246.5" y="-67.5" font-family="FreeSans" font-size="10.00">::PruneRotationRegistrationPipeline</text>
</a>
</g>
</g>
<!-- Node29&#45;&gt;Node53 -->
<g id="edge29" class="edge"><title>Node29&#45;&gt;Node53</title>
<path fill="none" stroke="midnightblue" d="M65.1857,-300.479C73.7325,-258.785 98.7875,-163.665 157,-111 158.323,-109.803 159.696,-108.653 161.112,-107.549"/>
<polygon fill="midnightblue" stroke="midnightblue" points="163.368,-110.246 169.645,-101.711 159.416,-104.469 163.368,-110.246"/>
</g>
<!-- Node54 -->
<g id="node26" class="node"><title>Node54</title>
<g id="a_node26"><a xlink:href="classSeeSawN_1_1ApplicationN_1_1InterfacePfMPipelineC.html#a47331d862e95034027d30b46166eaa48" target="_top" xlink:title="Removes the redundant elements from a vision graph pipeline property tree. ">
<polygon fill="white" stroke="black" points="179.5,-0.5 179.5,-41.5 313.5,-41.5 313.5,-0.5 179.5,-0.5"/>
<text text-anchor="start" x="187.5" y="-29.5" font-family="FreeSans" font-size="10.00">SeeSawN::ApplicationN</text>
<text text-anchor="start" x="187.5" y="-18.5" font-family="FreeSans" font-size="10.00">::InterfacePfMPipelineC</text>
<text text-anchor="middle" x="246.5" y="-7.5" font-family="FreeSans" font-size="10.00">::PruneVisionGraphPipeline</text>
</a>
</g>
</g>
<!-- Node29&#45;&gt;Node54 -->
<g id="edge30" class="edge"><title>Node29&#45;&gt;Node54</title>
<path fill="none" stroke="midnightblue" d="M62.8477,-300.19C67.2042,-250.133 85.1619,-121.9 157,-51 160.969,-47.0826 165.468,-43.6764 170.283,-40.7146"/>
<polygon fill="midnightblue" stroke="midnightblue" points="172.126,-43.6964 179.245,-35.8491 168.786,-37.5446 172.126,-43.6964"/>
</g>
<!-- Node31 -->
<g id="node3" class="node"><title>Node31</title>
<g id="a_node3"><a xlink:href="classSeeSawN_1_1ApplicationN_1_1InterfaceRANSACC.html#a7e2149121a77f84d306e80c0df6f1fb0" target="_top" xlink:title="Augments the tree with the parameters for RANSACGeometryEstimationProblemC. ">
<polygon fill="white" stroke="black" points="595.5,-643.5 595.5,-684.5 774.5,-684.5 774.5,-643.5 595.5,-643.5"/>
<text text-anchor="start" x="603.5" y="-672.5" font-family="FreeSans" font-size="10.00">SeeSawN::ApplicationN</text>
<text text-anchor="start" x="603.5" y="-661.5" font-family="FreeSans" font-size="10.00">::InterfaceRANSACC::InsertGeometry</text>
<text text-anchor="middle" x="685" y="-650.5" font-family="FreeSans" font-size="10.00">ProblemParameters</text>
</a>
</g>
</g>
<!-- Node30&#45;&gt;Node31 -->
<g id="edge2" class="edge"><title>Node30&#45;&gt;Node31</title>
<path fill="none" stroke="midnightblue" d="M507.734,-597.579C530.589,-607.432 558.586,-619.192 584,-629 593.558,-632.689 603.691,-636.429 613.696,-640.024"/>
<polygon fill="midnightblue" stroke="midnightblue" points="612.631,-643.361 623.226,-643.42 614.981,-636.767 612.631,-643.361"/>
</g>
<!-- Node32 -->
<g id="node4" class="node"><title>Node32</title>
<g id="a_node4"><a xlink:href="classSeeSawN_1_1ApplicationN_1_1InterfaceTwoStageRANSACC.html#a5e4db2b73abfd256c621e2853efb31c9" target="_top" xlink:title="Prune any redundant parameters from Stage 1 RANSAC configuration. ">
<polygon fill="white" stroke="black" points="1034,-594.5 1034,-635.5 1186,-635.5 1186,-594.5 1034,-594.5"/>
<text text-anchor="start" x="1042" y="-623.5" font-family="FreeSans" font-size="10.00">SeeSawN::ApplicationN</text>
<text text-anchor="start" x="1042" y="-612.5" font-family="FreeSans" font-size="10.00">::InterfaceTwoStageRANSACC</text>
<text text-anchor="middle" x="1110" y="-601.5" font-family="FreeSans" font-size="10.00">::PruneStage1</text>
</a>
</g>
</g>
<!-- Node30&#45;&gt;Node32 -->
<g id="edge3" class="edge"><title>Node30&#45;&gt;Node32</title>
<path fill="none" stroke="midnightblue" d="M547.049,-582.046C671.283,-589.331 899.54,-602.717 1023.48,-609.985"/>
<polygon fill="midnightblue" stroke="midnightblue" points="1023.49,-613.491 1033.68,-610.583 1023.9,-606.503 1023.49,-613.491"/>
</g>
<!-- Node33 -->
<g id="node5" class="node"><title>Node33</title>
<g id="a_node5"><a xlink:href="classSeeSawN_1_1ApplicationN_1_1InterfaceTwoStageRANSACC.html#af9cc401ab63f8343edb68ccbb76de645" target="_top" xlink:title="Prune any redundant parameters from Stage 2 RANSAC configuration. ">
<polygon fill="white" stroke="black" points="1034,-534.5 1034,-575.5 1186,-575.5 1186,-534.5 1034,-534.5"/>
<text text-anchor="start" x="1042" y="-563.5" font-family="FreeSans" font-size="10.00">SeeSawN::ApplicationN</text>
<text text-anchor="start" x="1042" y="-552.5" font-family="FreeSans" font-size="10.00">::InterfaceTwoStageRANSACC</text>
<text text-anchor="middle" x="1110" y="-541.5" font-family="FreeSans" font-size="10.00">::PruneStage2</text>
</a>
</g>
</g>
<!-- Node30&#45;&gt;Node33 -->
<g id="edge4" class="edge"><title>Node30&#45;&gt;Node33</title>
<path fill="none" stroke="midnightblue" d="M547.049,-574.079C671.283,-569.861 899.54,-562.111 1023.48,-557.904"/>
<polygon fill="midnightblue" stroke="midnightblue" points="1023.8,-561.395 1033.68,-557.557 1023.57,-554.399 1023.8,-561.395"/>
</g>
<!-- Node35&#45;&gt;Node34 -->
<g id="edge7" class="edge"><title>Node35&#45;&gt;Node34</title>
<path fill="none" stroke="midnightblue" d="M319.99,-398.435C338.32,-393.236 358.133,-387.615 376.9,-382.291"/>
<polygon fill="midnightblue" stroke="midnightblue" points="377.939,-385.634 386.604,-379.538 376.029,-378.9 377.939,-385.634"/>
</g>
<!-- Node37 -->
<g id="node9" class="node"><title>Node37</title>
<g id="a_node9"><a xlink:href="classSeeSawN_1_1ApplicationN_1_1InterfacePowellDogLegC.html#a63d658fac13be5c76a2c90a8e9c451e5" target="_top" xlink:title="Makes a property tree from a parameter object. ">
<polygon fill="white" stroke="black" points="833.5,-447.5 833.5,-488.5 962.5,-488.5 962.5,-447.5 833.5,-447.5"/>
<text text-anchor="start" x="841.5" y="-476.5" font-family="FreeSans" font-size="10.00">SeeSawN::ApplicationN</text>
<text text-anchor="start" x="841.5" y="-465.5" font-family="FreeSans" font-size="10.00">::InterfacePowellDogLegC</text>
<text text-anchor="middle" x="898" y="-454.5" font-family="FreeSans" font-size="10.00">::MakeParameterTree</text>
</a>
</g>
</g>
<!-- Node36&#45;&gt;Node37 -->
<g id="edge9" class="edge"><title>Node36&#45;&gt;Node37</title>
<path fill="none" stroke="midnightblue" d="M756.553,-507.937C778.059,-501.822 801.749,-495.086 823.447,-488.915"/>
<polygon fill="midnightblue" stroke="midnightblue" points="824.601,-492.226 833.262,-486.125 822.686,-485.493 824.601,-492.226"/>
</g>
<!-- Node38 -->
<g id="node10" class="node"><title>Node38</title>
<g id="a_node10"><a xlink:href="classSeeSawN_1_1ApplicationN_1_1InterfaceTwoStageRANSACC.html#a1c3fd82c5b1d840f1cfc78e3842f79ff" target="_top" xlink:title="Makes a property tree from a parameter object. ">
<polygon fill="white" stroke="black" points="822,-507.5 822,-548.5 974,-548.5 974,-507.5 822,-507.5"/>
<text text-anchor="start" x="830" y="-536.5" font-family="FreeSans" font-size="10.00">SeeSawN::ApplicationN</text>
<text text-anchor="start" x="830" y="-525.5" font-family="FreeSans" font-size="10.00">::InterfaceTwoStageRANSACC</text>
<text text-anchor="middle" x="898" y="-514.5" font-family="FreeSans" font-size="10.00">::MakeParameterTree</text>
</a>
</g>
</g>
<!-- Node36&#45;&gt;Node38 -->
<g id="edge10" class="edge"><title>Node36&#45;&gt;Node38</title>
<path fill="none" stroke="midnightblue" d="M756.553,-528C774.243,-528 793.41,-528 811.732,-528"/>
<polygon fill="midnightblue" stroke="midnightblue" points="811.809,-531.5 821.809,-528 811.809,-524.5 811.809,-531.5"/>
</g>
<!-- Node40 -->
<g id="node12" class="node"><title>Node40</title>
<g id="a_node12"><a xlink:href="classSeeSawN_1_1ApplicationN_1_1InterfaceGeometryEstimatorC.html#a28da5d10fb234fa4838da7b3f4ecf2db" target="_top" xlink:title="Removes the redundant refinement parameters. ">
<polygon fill="white" stroke="black" points="826.5,-387.5 826.5,-428.5 969.5,-428.5 969.5,-387.5 826.5,-387.5"/>
<text text-anchor="start" x="834.5" y="-416.5" font-family="FreeSans" font-size="10.00">SeeSawN::ApplicationN</text>
<text text-anchor="start" x="834.5" y="-405.5" font-family="FreeSans" font-size="10.00">::InterfaceGeometryEstimator</text>
<text text-anchor="middle" x="898" y="-394.5" font-family="FreeSans" font-size="10.00">C::PruneRefinement</text>
</a>
</g>
</g>
<!-- Node36&#45;&gt;Node40 -->
<g id="edge14" class="edge"><title>Node36&#45;&gt;Node40</title>
<path fill="none" stroke="midnightblue" d="M756.739,-514.012C767.193,-509.957 777.343,-504.731 786,-498 810.55,-478.911 798.324,-458.163 822,-438 823.521,-436.704 825.106,-435.46 826.742,-434.265"/>
<polygon fill="midnightblue" stroke="midnightblue" points="828.823,-437.086 835.293,-428.696 825.003,-431.22 828.823,-437.086"/>
</g>
<!-- Node38&#45;&gt;Node32 -->
<g id="edge12" class="edge"><title>Node38&#45;&gt;Node32</title>
<path fill="none" stroke="midnightblue" d="M935.22,-548.703C956.544,-560.354 984.294,-574.604 1010,-585 1015.15,-587.083 1020.5,-589.101 1025.93,-591.039"/>
<polygon fill="midnightblue" stroke="midnightblue" points="1025.17,-594.477 1035.76,-594.437 1027.45,-587.861 1025.17,-594.477"/>
</g>
<!-- Node38&#45;&gt;Node33 -->
<g id="edge13" class="edge"><title>Node38&#45;&gt;Node33</title>
<path fill="none" stroke="midnightblue" d="M974.222,-537.671C990.303,-539.739 1007.4,-541.937 1023.83,-544.049"/>
<polygon fill="midnightblue" stroke="midnightblue" points="1023.59,-547.547 1033.95,-545.351 1024.48,-540.604 1023.59,-547.547"/>
</g>
<!-- Node39 -->
<g id="node11" class="node"><title>Node39</title>
<g id="a_node11"><a xlink:href="classSeeSawN_1_1ApplicationN_1_1InterfaceRANSACC.html#a917a194d5f663901c83b091b687a6b27" target="_top" xlink:title="Makes a property tree from a parameter object. ">
<polygon fill="white" stroke="black" points="1010,-485 1010,-515 1210,-515 1210,-485 1010,-485"/>
<text text-anchor="start" x="1018" y="-503" font-family="FreeSans" font-size="10.00">SeeSawN::ApplicationN</text>
<text text-anchor="middle" x="1110" y="-492" font-family="FreeSans" font-size="10.00">::InterfaceRANSACC::MakeParameterTree</text>
</a>
</g>
</g>
<!-- Node38&#45;&gt;Node39 -->
<g id="edge11" class="edge"><title>Node38&#45;&gt;Node39</title>
<path fill="none" stroke="midnightblue" d="M974.222,-517.97C982.511,-516.865 991.071,-515.724 999.67,-514.577"/>
<polygon fill="midnightblue" stroke="midnightblue" points="1000.32,-518.022 1009.77,-513.231 999.393,-511.083 1000.32,-518.022"/>
</g>
<!-- Node42&#45;&gt;Node30 -->
<g id="edge24" class="edge"><title>Node42&#45;&gt;Node30</title>
<path fill="none" stroke="midnightblue" d="M291.837,-499.544C324.973,-514.898 370.419,-535.956 405.563,-552.239"/>
<polygon fill="midnightblue" stroke="midnightblue" points="404.176,-555.454 414.721,-556.483 407.119,-549.103 404.176,-555.454"/>
</g>
<!-- Node43 -->
<g id="node15" class="node"><title>Node43</title>
<g id="a_node15"><a xlink:href="classSeeSawN_1_1ApplicationN_1_1InterfaceGeometryEstimationPipelineC.html#a8ea82534c109d79b1a1b23f601cc82fd" target="_top" xlink:title="Makes a property tree from a parameter object. ">
<polygon fill="white" stroke="black" points="384.5,-398.5 384.5,-439.5 535.5,-439.5 535.5,-398.5 384.5,-398.5"/>
<text text-anchor="start" x="392.5" y="-427.5" font-family="FreeSans" font-size="10.00">SeeSawN::ApplicationN</text>
<text text-anchor="start" x="392.5" y="-416.5" font-family="FreeSans" font-size="10.00">::InterfaceGeometryEstimation</text>
<text text-anchor="middle" x="460" y="-405.5" font-family="FreeSans" font-size="10.00">PipelineC::MakeParameterTree</text>
</a>
</g>
</g>
<!-- Node42&#45;&gt;Node43 -->
<g id="edge17" class="edge"><title>Node42&#45;&gt;Node43</title>
<path fill="none" stroke="midnightblue" d="M319.99,-458.435C338.32,-453.236 358.133,-447.615 376.9,-442.291"/>
<polygon fill="midnightblue" stroke="midnightblue" points="377.939,-445.634 386.604,-439.538 376.029,-438.9 377.939,-445.634"/>
</g>
<!-- Node49 -->
<g id="node21" class="node"><title>Node49</title>
<g id="a_node21"><a xlink:href="classSeeSawN_1_1ApplicationN_1_1InterfaceVisionGraphPipelineC.html#a6b40014b0a963b158dfb7cb1f6774be1" target="_top" xlink:title="Removes the redundant geometry estimation pipeline parameters. ">
<polygon fill="white" stroke="black" points="372,-458.5 372,-499.5 548,-499.5 548,-458.5 372,-458.5"/>
<text text-anchor="start" x="380" y="-487.5" font-family="FreeSans" font-size="10.00">SeeSawN::ApplicationN</text>
<text text-anchor="start" x="380" y="-476.5" font-family="FreeSans" font-size="10.00">::InterfaceVisionGraphPipeline</text>
<text text-anchor="middle" x="460" y="-465.5" font-family="FreeSans" font-size="10.00">C::PruneGeometryEstimationPipeline</text>
</a>
</g>
</g>
<!-- Node42&#45;&gt;Node49 -->
<g id="edge25" class="edge"><title>Node42&#45;&gt;Node49</title>
<path fill="none" stroke="midnightblue" d="M320.286,-479C333.652,-479 347.797,-479 361.745,-479"/>
<polygon fill="midnightblue" stroke="midnightblue" points="361.852,-482.5 371.852,-479 361.852,-475.5 361.852,-482.5"/>
</g>
<!-- Node43&#45;&gt;Node36 -->
<g id="edge19" class="edge"><title>Node43&#45;&gt;Node36</title>
<path fill="none" stroke="midnightblue" d="M532.622,-439.607C538.038,-442.377 543.239,-445.495 548,-449 569.762,-465.021 561.917,-482.424 584,-498 590.059,-502.274 596.735,-505.948 603.676,-509.104"/>
<polygon fill="midnightblue" stroke="midnightblue" points="602.695,-512.487 613.272,-513.096 605.383,-506.024 602.695,-512.487"/>
</g>
<!-- Node44 -->
<g id="node16" class="node"><title>Node44</title>
<g id="a_node16"><a xlink:href="classSeeSawN_1_1ApplicationN_1_1InterfaceScaledUnscentedTransformationC.html#a38f2f31bf197aefc23e1e6bdc38885db" target="_top" xlink:title="Makes a property tree from a parameter object. ">
<polygon fill="white" stroke="black" points="584,-327.5 584,-368.5 786,-368.5 786,-327.5 584,-327.5"/>
<text text-anchor="start" x="592" y="-356.5" font-family="FreeSans" font-size="10.00">SeeSawN::ApplicationN</text>
<text text-anchor="start" x="592" y="-345.5" font-family="FreeSans" font-size="10.00">::InterfaceScaledUnscentedTransformation</text>
<text text-anchor="middle" x="685" y="-334.5" font-family="FreeSans" font-size="10.00">C::MakeParameterTree</text>
</a>
</g>
</g>
<!-- Node43&#45;&gt;Node44 -->
<g id="edge18" class="edge"><title>Node43&#45;&gt;Node44</title>
<path fill="none" stroke="midnightblue" d="M521.566,-398.406C541.419,-391.764 563.613,-384.454 584,-378 590.772,-375.856 597.813,-373.666 604.884,-371.493"/>
<polygon fill="midnightblue" stroke="midnightblue" points="605.98,-374.818 614.521,-368.548 603.934,-368.124 605.98,-374.818"/>
</g>
<!-- Node45 -->
<g id="node17" class="node"><title>Node45</title>
<g id="a_node17"><a xlink:href="classSeeSawN_1_1ApplicationN_1_1InterfaceFeatureMatcherC.html#a8f472195d3cff175bf0fc44d10e23687" target="_top" xlink:title="Makes a property tree from a parameter object. ">
<polygon fill="white" stroke="black" points="618,-267.5 618,-308.5 752,-308.5 752,-267.5 618,-267.5"/>
<text text-anchor="start" x="626" y="-296.5" font-family="FreeSans" font-size="10.00">SeeSawN::ApplicationN</text>
<text text-anchor="start" x="626" y="-285.5" font-family="FreeSans" font-size="10.00">::InterfaceFeatureMatcherC</text>
<text text-anchor="middle" x="685" y="-274.5" font-family="FreeSans" font-size="10.00">::MakeParameterTree</text>
</a>
</g>
</g>
<!-- Node43&#45;&gt;Node45 -->
<g id="edge20" class="edge"><title>Node43&#45;&gt;Node45</title>
<path fill="none" stroke="midnightblue" d="M534.564,-398.498C539.362,-395.719 543.905,-392.569 548,-389 574.674,-365.756 556.86,-340.697 584,-318 591.224,-311.959 599.634,-307.134 608.451,-303.281"/>
<polygon fill="midnightblue" stroke="midnightblue" points="609.74,-306.535 617.755,-299.607 607.169,-300.025 609.74,-306.535"/>
</g>
<!-- Node46 -->
<g id="node18" class="node"><title>Node46</title>
<g id="a_node18"><a xlink:href="classSeeSawN_1_1ApplicationN_1_1InterfaceGeometryEstimationPipelineC.html#a8de326e5a379da5e9ceeed191efaf741" target="_top" xlink:title="Removes the redundant geometry estimator parameters. ">
<polygon fill="white" stroke="black" points="599.5,-207.5 599.5,-248.5 770.5,-248.5 770.5,-207.5 599.5,-207.5"/>
<text text-anchor="start" x="607.5" y="-236.5" font-family="FreeSans" font-size="10.00">SeeSawN::ApplicationN</text>
<text text-anchor="start" x="607.5" y="-225.5" font-family="FreeSans" font-size="10.00">::InterfaceGeometryEstimation</text>
<text text-anchor="middle" x="685" y="-214.5" font-family="FreeSans" font-size="10.00">PipelineC::PruneGeometryEstimator</text>
</a>
</g>
</g>
<!-- Node43&#45;&gt;Node46 -->
<g id="edge21" class="edge"><title>Node43&#45;&gt;Node46</title>
<path fill="none" stroke="midnightblue" d="M535.824,-399.12C540.27,-396.198 544.393,-392.845 548,-389 589.311,-344.963 541.804,-301.189 584,-258 586.138,-255.812 588.428,-253.782 590.841,-251.899"/>
<polygon fill="midnightblue" stroke="midnightblue" points="593.164,-254.553 599.479,-246.046 589.238,-248.758 593.164,-254.553"/>
</g>
<!-- Node47 -->
<g id="node19" class="node"><title>Node47</title>
<g id="a_node19"><a xlink:href="classSeeSawN_1_1ApplicationN_1_1InterfaceGeometryEstimationPipelineC.html#a0bf4271cfcf3f3ea9930f9ef1013ff60" target="_top" xlink:title="Removes the redundant matcher parameters. ">
<polygon fill="white" stroke="black" points="611.5,-447.5 611.5,-488.5 758.5,-488.5 758.5,-447.5 611.5,-447.5"/>
<text text-anchor="start" x="619.5" y="-476.5" font-family="FreeSans" font-size="10.00">SeeSawN::ApplicationN</text>
<text text-anchor="start" x="619.5" y="-465.5" font-family="FreeSans" font-size="10.00">::InterfaceGeometryEstimation</text>
<text text-anchor="middle" x="685" y="-454.5" font-family="FreeSans" font-size="10.00">PipelineC::PruneMatcher</text>
</a>
</g>
</g>
<!-- Node43&#45;&gt;Node47 -->
<g id="edge22" class="edge"><title>Node43&#45;&gt;Node47</title>
<path fill="none" stroke="midnightblue" d="M535.566,-435.384C556.757,-440.041 579.955,-445.138 601.584,-449.891"/>
<polygon fill="midnightblue" stroke="midnightblue" points="600.88,-453.319 611.398,-452.047 602.382,-446.482 600.88,-453.319"/>
</g>
<!-- Node48 -->
<g id="node20" class="node"><title>Node48</title>
<g id="a_node20"><a xlink:href="classSeeSawN_1_1ApplicationN_1_1InterfaceGeometryEstimationPipelineC.html#a385b2067ced635ddf4941aafb05279c6" target="_top" xlink:title="Removes the redundant SUT parameters. ">
<polygon fill="white" stroke="black" points="611.5,-387.5 611.5,-428.5 758.5,-428.5 758.5,-387.5 611.5,-387.5"/>
<text text-anchor="start" x="619.5" y="-416.5" font-family="FreeSans" font-size="10.00">SeeSawN::ApplicationN</text>
<text text-anchor="start" x="619.5" y="-405.5" font-family="FreeSans" font-size="10.00">::InterfaceGeometryEstimation</text>
<text text-anchor="middle" x="685" y="-394.5" font-family="FreeSans" font-size="10.00">PipelineC::PruneSUT</text>
</a>
</g>
</g>
<!-- Node43&#45;&gt;Node48 -->
<g id="edge23" class="edge"><title>Node43&#45;&gt;Node48</title>
<path fill="none" stroke="midnightblue" d="M535.566,-415.322C556.662,-414.281 579.746,-413.143 601.291,-412.08"/>
<polygon fill="midnightblue" stroke="midnightblue" points="601.582,-415.57 611.398,-411.581 601.238,-408.578 601.582,-415.57"/>
</g>
</g>
</svg>
        <g id="navigator" transform="translate(0 0)" fill="#404254">
                <rect fill="#f2f5e9" fill-opacity="0.5" stroke="#606060" stroke-width=".5" x="0" y="0" width="60" height="60"/>
                <use id="zoomplus" xlink:href="#zoomPlus" x="17" y="9" onmousedown="handleZoom(evt,'in')"/>
                <use id="zoomminus" xlink:href="#zoomMin" x="42" y="9" onmousedown="handleZoom(evt,'out')"/>
                <use id="reset" xlink:href="#resetDef" x="30" y="36" onmousedown="handleReset()"/>
                <g id="arrowUp" xlink:href="#dirArrow" transform="translate(30 24)" onmousedown="handlePan(0,-1)">
                  <use xlink:href="#rim" fill="#404040">
                        <set attributeName="fill" to="#808080" begin="arrowUp.mouseover" end="arrowUp.mouseout"/>
                  </use>
                  <path fill="none" stroke="white" stroke-width="1.5" d="M0,-3.0v7 M-2.5,-0.5L0,-3.0L2.5,-0.5"/>
                </g>
                <g id="arrowRight" xlink:href="#dirArrow" transform="rotate(90) translate(36 -43)" onmousedown="handlePan(1,0)">
                  <use xlink:href="#rim" fill="#404040">
                        <set attributeName="fill" to="#808080" begin="arrowRight.mouseover" end="arrowRight.mouseout"/>
                  </use>
                  <path fill="none" stroke="white" stroke-width="1.5" d="M0,-3.0v7 M-2.5,-0.5L0,-3.0L2.5,-0.5"/>
                </g>
                <g id="arrowDown" xlink:href="#dirArrow" transform="rotate(180) translate(-30 -48)" onmousedown="handlePan(0,1)">
                  <use xlink:href="#rim" fill="#404040">
                        <set attributeName="fill" to="#808080" begin="arrowDown.mouseover" end="arrowDown.mouseout"/>
                  </use>
                  <path fill="none" stroke="white" stroke-width="1.5" d="M0,-3.0v7 M-2.5,-0.5L0,-3.0L2.5,-0.5"/>
                </g>
                <g id="arrowLeft" xlink:href="#dirArrow" transform="rotate(270) translate(-36 17)" onmousedown="handlePan(-1,0)">
                  <use xlink:href="#rim" fill="#404040">
                        <set attributeName="fill" to="#808080" begin="arrowLeft.mouseover" end="arrowLeft.mouseout"/>
                  </use>
                  <path fill="none" stroke="white" stroke-width="1.5" d="M0,-3.0v7 M-2.5,-0.5L0,-3.0L2.5,-0.5"/>
                </g>
        </g>
        <svg viewBox="0 0 15 15" width="100%" height="30px" preserveAspectRatio="xMaxYMin meet">
         <g id="arrow_out" transform="scale(0.3 0.3)">
          <a xlink:href="classSeeSawN_1_1ApplicationN_1_1InterfacePfMPipelineC_a87fe7e3fd13d810f533783a0ecc4f434_cgraph_org.svg" target="_base">
           <rect id="button" ry="5" rx="5" y="6" x="6" height="38" width="38"
                fill="#f2f5e9" fill-opacity="0.5" stroke="#606060" stroke-width="1.0"/>
           <path id="arrow"
             d="M 11.500037,31.436501 C 11.940474,20.09759 22.043105,11.32322 32.158766,21.979434 L 37.068811,17.246167 C 37.068811,17.246167 37.088388,32 37.088388,32 L 22.160133,31.978069 C 22.160133,31.978069 26.997745,27.140456 26.997745,27.140456 C 18.528582,18.264221 13.291696,25.230495 11.500037,31.436501 z"
             style="fill:#404040;"/>
          </a>
         </g>
        </svg>
</svg>
