<?xml version="1.0" encoding="UTF-8" standalone="no"?>
<!DOCTYPE svg PUBLIC "-//W3C//DTD SVG 1.1//EN"
 "http://www.w3.org/Graphics/SVG/1.1/DTD/svg11.dtd">
<!-- Generated by graphviz version 2.38.0 (20140413.2041)
 -->
<!-- Title: SeeSawN::GeometryN::MultiviewTriangulationC::Evaluate3DPoint Pages: 1 -->
<!--zoomable 207 -->
<svg id="main" version="1.1" xmlns="http://www.w3.org/2000/svg" xmlns:xlink="http://www.w3.org/1999/xlink" xml:space="preserve" onload="init(evt)">
<style type="text/css"><![CDATA[
.edge:hover path { stroke: red; }
.edge:hover polygon { stroke: red; fill: red; }
]]></style>
<script type="text/javascript"><![CDATA[
var edges = document.getElementsByTagName('g');
if (edges && edges.length) {
  for (var i=0;i<edges.length;i++) {
    if (edges[i].id.substr(0,4)=='edge') {
      edges[i].setAttribute('class','edge');
    }
  }
}
]]></script>
        <defs>
                <circle id="rim" cx="0" cy="0" r="7"/>
                <circle id="rim2" cx="0" cy="0" r="3.5"/>
                <g id="zoomPlus">
                        <use xlink:href="#rim" fill="#404040">
                                <set attributeName="fill" to="#808080" begin="zoomplus.mouseover" end="zoomplus.mouseout"/>
                        </use>
                        <path d="M-4,0h8M0,-4v8" fill="none" stroke="white" stroke-width="1.5" pointer-events="none"/>
                </g>
                <g id="zoomMin">
                        <use xlink:href="#rim" fill="#404040">
                                <set attributeName="fill" to="#808080" begin="zoomminus.mouseover" end="zoomminus.mouseout"/>
                        </use>
                        <path d="M-4,0h8" fill="none" stroke="white" stroke-width="1.5" pointer-events="none"/>
                </g>
                <g id="dirArrow">
                        <path fill="none" stroke="white" stroke-width="1.5" d="M0,-3.0v7 M-2.5,-0.5L0,-3.0L2.5,-0.5"/>
                </g>
               <g id="resetDef">
                       <use xlink:href="#rim2" fill="#404040">
                               <set attributeName="fill" to="#808080" begin="reset.mouseover" end="reset.mouseout"/>
                       </use>
               </g>
        </defs>

<script type="text/javascript">
var viewWidth = 1138;
var viewHeight = 207;
var sectionId = 'dynsection-5';
</script>
<script xlink:href="svgpan.js"/>
<svg id="graph" class="graph">
<g id="viewport">
<title>SeeSawN::GeometryN::MultiviewTriangulationC::Evaluate3DPoint</title>
<polygon fill="white" stroke="none" points="-4,4 -4,-202.5 1134,-202.5 1134,4 -4,4"/>
<!-- Node38 -->
<g id="node1" class="node"><title>Node38</title>
<polygon fill="#bfbfbf" stroke="black" points="0,-69 0,-110 125,-110 125,-69 0,-69"/>
<text text-anchor="start" x="8" y="-98" font-family="FreeSans" font-size="10.00">SeeSawN::GeometryN</text>
<text text-anchor="start" x="8" y="-87" font-family="FreeSans" font-size="10.00">::MultiviewTriangulationC</text>
<text text-anchor="middle" x="62.5" y="-76" font-family="FreeSans" font-size="10.00">::Evaluate3DPoint</text>
</g>
<!-- Node39 -->
<g id="node2" class="node"><title>Node39</title>
<g id="a_node2"><a xlink:href="classSeeSawN_1_1GeometryN_1_1MultiviewTriangulationC.html#a94fc22437574f93163b47c8c9c56553b" target="_top" xlink:title="For each cluster, identifies the best measurement, and removes the outliers wrt it. ">
<polygon fill="white" stroke="black" points="161,-69 161,-110 286,-110 286,-69 161,-69"/>
<text text-anchor="start" x="169" y="-98" font-family="FreeSans" font-size="10.00">SeeSawN::GeometryN</text>
<text text-anchor="start" x="169" y="-87" font-family="FreeSans" font-size="10.00">::MultiviewTriangulationC</text>
<text text-anchor="middle" x="223.5" y="-76" font-family="FreeSans" font-size="10.00">::RemoveOutliers</text>
</a>
</g>
</g>
<!-- Node38&#45;&gt;Node39 -->
<g id="edge1" class="edge"><title>Node38&#45;&gt;Node39</title>
<path fill="none" stroke="midnightblue" d="M135.592,-89.5C143.99,-89.5 152.499,-89.5 160.74,-89.5"/>
<polygon fill="midnightblue" stroke="midnightblue" points="135.429,-86.0001 125.429,-89.5 135.429,-93.0001 135.429,-86.0001"/>
</g>
<!-- Node40 -->
<g id="node3" class="node"><title>Node40</title>
<g id="a_node3"><a xlink:href="classSeeSawN_1_1GeometryN_1_1MultiviewTriangulationC.html#a89824d36ba52be840543d7d31020861d" target="_top" xlink:title="Runs the algorithm. ">
<polygon fill="white" stroke="black" points="322,-74.5 322,-104.5 468,-104.5 468,-74.5 322,-74.5"/>
<text text-anchor="start" x="330" y="-92.5" font-family="FreeSans" font-size="10.00">SeeSawN::GeometryN</text>
<text text-anchor="middle" x="395" y="-81.5" font-family="FreeSans" font-size="10.00">::MultiviewTriangulationC::Run</text>
</a>
</g>
</g>
<!-- Node39&#45;&gt;Node40 -->
<g id="edge2" class="edge"><title>Node39&#45;&gt;Node40</title>
<path fill="none" stroke="midnightblue" d="M296.319,-89.5C304.727,-89.5 313.309,-89.5 321.723,-89.5"/>
<polygon fill="midnightblue" stroke="midnightblue" points="296.173,-86.0001 286.173,-89.5 296.173,-93.0001 296.173,-86.0001"/>
</g>
<!-- Node41 -->
<g id="node4" class="node"><title>Node41</title>
<g id="a_node4"><a xlink:href="classSeeSawN_1_1GeometryN_1_1SfMPipelineC.html#a228bbaea7fbd4d88d0050341e4ebd4c8" target="_top" xlink:title="Performs multiview triangulation. ">
<polygon fill="white" stroke="black" points="515,-157 515,-198 676,-198 676,-157 515,-157"/>
<text text-anchor="start" x="523" y="-186" font-family="FreeSans" font-size="10.00">SeeSawN::GeometryN</text>
<text text-anchor="start" x="523" y="-175" font-family="FreeSans" font-size="10.00">::SfMPipelineC::PerformMultiview</text>
<text text-anchor="middle" x="595.5" y="-164" font-family="FreeSans" font-size="10.00">Triangulation</text>
</a>
</g>
</g>
<!-- Node40&#45;&gt;Node41 -->
<g id="edge3" class="edge"><title>Node40&#45;&gt;Node41</title>
<path fill="none" stroke="midnightblue" d="M429.946,-109.688C450.853,-121.624 478.457,-136.505 504,-147.5 511.602,-150.772 519.687,-153.911 527.776,-156.843"/>
<polygon fill="midnightblue" stroke="midnightblue" points="431.544,-106.57 421.133,-104.605 428.047,-112.633 431.544,-106.57"/>
</g>
<!-- Node44 -->
<g id="node7" class="node"><title>Node44</title>
<g id="a_node7"><a xlink:href="classSeeSawN_1_1GeometryN_1_1Sparse3DReconstructionPipelineC.html#a5cbc6f822733759c2ee28fc7df054719" target="_top" xlink:title="Runs the reconstruction pipeline. ">
<polygon fill="white" stroke="black" points="513.5,-97 513.5,-138 677.5,-138 677.5,-97 513.5,-97"/>
<text text-anchor="start" x="521.5" y="-126" font-family="FreeSans" font-size="10.00">SeeSawN::GeometryN</text>
<text text-anchor="start" x="521.5" y="-115" font-family="FreeSans" font-size="10.00">::Sparse3DReconstructionPipeline</text>
<text text-anchor="middle" x="595.5" y="-104" font-family="FreeSans" font-size="10.00">C::Reconstruct</text>
</a>
</g>
</g>
<!-- Node40&#45;&gt;Node44 -->
<g id="edge6" class="edge"><title>Node40&#45;&gt;Node44</title>
<path fill="none" stroke="midnightblue" d="M478.284,-101.107C489.843,-102.737 501.718,-104.412 513.257,-106.04"/>
<polygon fill="midnightblue" stroke="midnightblue" points="478.615,-97.619 468.225,-99.6878 477.638,-104.55 478.615,-97.619"/>
</g>
<!-- Node45 -->
<g id="node8" class="node"><title>Node45</title>
<g id="a_node8"><a xlink:href="classSeeSawN_1_1ZeroN_1_1ZeroReconstructionEvaluationModuleC.html#aa1b7a6fe75a85181bf1593b9b7054c26" target="_top" xlink:title="Reconstructs a 3D model of the scene from the specified cameras. ">
<polygon fill="white" stroke="black" points="504,-47.5 504,-77.5 687,-77.5 687,-47.5 504,-47.5"/>
<text text-anchor="start" x="512" y="-65.5" font-family="FreeSans" font-size="10.00">SeeSawN::ZeroN::ZeroReconstruction</text>
<text text-anchor="middle" x="595.5" y="-54.5" font-family="FreeSans" font-size="10.00">EvaluationModuleC::ReconstructModel</text>
</a>
</g>
</g>
<!-- Node40&#45;&gt;Node45 -->
<g id="edge7" class="edge"><title>Node40&#45;&gt;Node45</title>
<path fill="none" stroke="midnightblue" d="M478.337,-78.3005C486.709,-77.1618 495.246,-76.0006 503.701,-74.8506"/>
<polygon fill="midnightblue" stroke="midnightblue" points="477.662,-74.8601 468.225,-79.676 478.605,-81.7962 477.662,-74.8601"/>
</g>
<!-- Node48 -->
<g id="node11" class="node"><title>Node48</title>
<g id="a_node11"><a xlink:href="classSeeSawN_1_1ZeroN_1_1ZeroReconstructionEvaluationModuleC.html#a867d3450b3c82e34059cc95320706589" target="_top" xlink:title="Performs a multiview 3D reconstruction from image observations. ">
<polygon fill="white" stroke="black" points="729.5,-0.5 729.5,-30.5 911.5,-30.5 911.5,-0.5 729.5,-0.5"/>
<text text-anchor="start" x="737.5" y="-18.5" font-family="FreeSans" font-size="10.00">SeeSawN::ZeroN::ZeroReconstruction</text>
<text text-anchor="middle" x="820.5" y="-7.5" font-family="FreeSans" font-size="10.00">EvaluationModuleC::Reconstruct</text>
</a>
</g>
</g>
<!-- Node40&#45;&gt;Node48 -->
<g id="edge10" class="edge"><title>Node40&#45;&gt;Node48</title>
<path fill="none" stroke="midnightblue" d="M429.001,-69.5515C449.76,-58.0493 477.541,-44.515 504,-37.5 578.17,-17.835 665.382,-13.084 729.294,-12.8243"/>
<polygon fill="midnightblue" stroke="midnightblue" points="427.248,-66.5218 420.273,-74.4967 430.699,-72.6122 427.248,-66.5218"/>
</g>
<!-- Node42 -->
<g id="node5" class="node"><title>Node42</title>
<g id="a_node5"><a xlink:href="classSeeSawN_1_1GeometryN_1_1SfMPipelineC.html#af69465c85b2ab27de0522cb35cea1407" target="_top" xlink:title="Estimates the camera poses. ">
<polygon fill="white" stroke="black" points="747.5,-162.5 747.5,-192.5 893.5,-192.5 893.5,-162.5 747.5,-162.5"/>
<text text-anchor="start" x="755.5" y="-180.5" font-family="FreeSans" font-size="10.00">SeeSawN::GeometryN</text>
<text text-anchor="middle" x="820.5" y="-169.5" font-family="FreeSans" font-size="10.00">::SfMPipelineC::EstimatePose</text>
</a>
</g>
</g>
<!-- Node41&#45;&gt;Node42 -->
<g id="edge4" class="edge"><title>Node41&#45;&gt;Node42</title>
<path fill="none" stroke="midnightblue" d="M686.265,-177.5C706.587,-177.5 727.912,-177.5 747.395,-177.5"/>
<polygon fill="midnightblue" stroke="midnightblue" points="686.064,-174 676.064,-177.5 686.064,-181 686.064,-174"/>
</g>
<!-- Node43 -->
<g id="node6" class="node"><title>Node43</title>
<g id="a_node6"><a xlink:href="classSeeSawN_1_1GeometryN_1_1SfMPipelineC.html#a3ce680beb7933e8917bb41fadf29c6b2" target="_top" xlink:title="Runs the algorithm. ">
<polygon fill="white" stroke="black" points="984.5,-162.5 984.5,-192.5 1099.5,-192.5 1099.5,-162.5 984.5,-162.5"/>
<text text-anchor="start" x="992.5" y="-180.5" font-family="FreeSans" font-size="10.00">SeeSawN::GeometryN</text>
<text text-anchor="middle" x="1042" y="-169.5" font-family="FreeSans" font-size="10.00">::SfMPipelineC::Run</text>
</a>
</g>
</g>
<!-- Node42&#45;&gt;Node43 -->
<g id="edge5" class="edge"><title>Node42&#45;&gt;Node43</title>
<path fill="none" stroke="midnightblue" d="M903.842,-177.5C930.703,-177.5 959.904,-177.5 984.431,-177.5"/>
<polygon fill="midnightblue" stroke="midnightblue" points="903.677,-174 893.677,-177.5 903.676,-181 903.677,-174"/>
</g>
<!-- Node46 -->
<g id="node9" class="node"><title>Node46</title>
<g id="a_node9"><a xlink:href="classSeeSawN_1_1ZeroN_1_1ZeroReconstructionEvaluationModuleC.html#a4349de15b78a95932b4f253130d77b96" target="_top" xlink:title="Evaluates the consistency of reconstructions. ">
<polygon fill="white" stroke="black" points="723,-49.5 723,-79.5 918,-79.5 918,-49.5 723,-49.5"/>
<text text-anchor="start" x="731" y="-67.5" font-family="FreeSans" font-size="10.00">SeeSawN::ZeroN::ZeroReconstruction</text>
<text text-anchor="middle" x="820.5" y="-56.5" font-family="FreeSans" font-size="10.00">EvaluationModuleC::EvaluateConsistency</text>
</a>
</g>
</g>
<!-- Node45&#45;&gt;Node46 -->
<g id="edge8" class="edge"><title>Node45&#45;&gt;Node46</title>
<path fill="none" stroke="midnightblue" d="M697.412,-63.405C705.826,-63.4805 714.32,-63.5567 722.702,-63.6319"/>
<polygon fill="midnightblue" stroke="midnightblue" points="697.234,-59.9034 687.203,-63.3135 697.171,-66.9031 697.234,-59.9034"/>
</g>
<!-- Node47 -->
<g id="node10" class="node"><title>Node47</title>
<g id="a_node10"><a xlink:href="classSeeSawN_1_1AppZeroReconstructionEvaluationN_1_1AppZeroReconstructionEvaluationImplementationC.html#a627d6c37454be6dba342f8321dad0e31" target="_top" xlink:title="Runs the application. ">
<polygon fill="white" stroke="black" points="954,-20 954,-61 1130,-61 1130,-20 954,-20"/>
<text text-anchor="start" x="962" y="-49" font-family="FreeSans" font-size="10.00">SeeSawN::AppZeroReconstruction</text>
<text text-anchor="start" x="962" y="-38" font-family="FreeSans" font-size="10.00">EvaluationN::AppZeroReconstruction</text>
<text text-anchor="middle" x="1042" y="-27" font-family="FreeSans" font-size="10.00">EvaluationImplementationC::Run</text>
</a>
</g>
</g>
<!-- Node46&#45;&gt;Node47 -->
<g id="edge9" class="edge"><title>Node46&#45;&gt;Node47</title>
<path fill="none" stroke="midnightblue" d="M928.128,-52.8414C936.695,-51.9047 945.287,-50.9652 953.695,-50.0458"/>
<polygon fill="midnightblue" stroke="midnightblue" points="927.656,-49.3721 918.095,-53.9383 928.417,-56.3306 927.656,-49.3721"/>
</g>
<!-- Node48&#45;&gt;Node47 -->
<g id="edge11" class="edge"><title>Node48&#45;&gt;Node47</title>
<path fill="none" stroke="midnightblue" d="M921.93,-26.9385C932.621,-28.1562 943.432,-29.3874 953.951,-30.5855"/>
<polygon fill="midnightblue" stroke="midnightblue" points="922.061,-23.4309 911.729,-25.7767 921.269,-30.3859 922.061,-23.4309"/>
</g>
</g>
</svg>
        <g id="navigator" transform="translate(0 0)" fill="#404254">
                <rect fill="#f2f5e9" fill-opacity="0.5" stroke="#606060" stroke-width=".5" x="0" y="0" width="60" height="60"/>
                <use id="zoomplus" xlink:href="#zoomPlus" x="17" y="9" onmousedown="handleZoom(evt,'in')"/>
                <use id="zoomminus" xlink:href="#zoomMin" x="42" y="9" onmousedown="handleZoom(evt,'out')"/>
                <use id="reset" xlink:href="#resetDef" x="30" y="36" onmousedown="handleReset()"/>
                <g id="arrowUp" xlink:href="#dirArrow" transform="translate(30 24)" onmousedown="handlePan(0,-1)">
                  <use xlink:href="#rim" fill="#404040">
                        <set attributeName="fill" to="#808080" begin="arrowUp.mouseover" end="arrowUp.mouseout"/>
                  </use>
                  <path fill="none" stroke="white" stroke-width="1.5" d="M0,-3.0v7 M-2.5,-0.5L0,-3.0L2.5,-0.5"/>
                </g>
                <g id="arrowRight" xlink:href="#dirArrow" transform="rotate(90) translate(36 -43)" onmousedown="handlePan(1,0)">
                  <use xlink:href="#rim" fill="#404040">
                        <set attributeName="fill" to="#808080" begin="arrowRight.mouseover" end="arrowRight.mouseout"/>
                  </use>
                  <path fill="none" stroke="white" stroke-width="1.5" d="M0,-3.0v7 M-2.5,-0.5L0,-3.0L2.5,-0.5"/>
                </g>
                <g id="arrowDown" xlink:href="#dirArrow" transform="rotate(180) translate(-30 -48)" onmousedown="handlePan(0,1)">
                  <use xlink:href="#rim" fill="#404040">
                        <set attributeName="fill" to="#808080" begin="arrowDown.mouseover" end="arrowDown.mouseout"/>
                  </use>
                  <path fill="none" stroke="white" stroke-width="1.5" d="M0,-3.0v7 M-2.5,-0.5L0,-3.0L2.5,-0.5"/>
                </g>
                <g id="arrowLeft" xlink:href="#dirArrow" transform="rotate(270) translate(-36 17)" onmousedown="handlePan(-1,0)">
                  <use xlink:href="#rim" fill="#404040">
                        <set attributeName="fill" to="#808080" begin="arrowLeft.mouseover" end="arrowLeft.mouseout"/>
                  </use>
                  <path fill="none" stroke="white" stroke-width="1.5" d="M0,-3.0v7 M-2.5,-0.5L0,-3.0L2.5,-0.5"/>
                </g>
        </g>
        <svg viewBox="0 0 15 15" width="100%" height="30px" preserveAspectRatio="xMaxYMin meet">
         <g id="arrow_out" transform="scale(0.3 0.3)">
          <a xlink:href="classSeeSawN_1_1GeometryN_1_1MultiviewTriangulationC_a80aa196d58c6b0359d2ddb79904f408e_icgraph_org.svg" target="_base">
           <rect id="button" ry="5" rx="5" y="6" x="6" height="38" width="38"
                fill="#f2f5e9" fill-opacity="0.5" stroke="#606060" stroke-width="1.0"/>
           <path id="arrow"
             d="M 11.500037,31.436501 C 11.940474,20.09759 22.043105,11.32322 32.158766,21.979434 L 37.068811,17.246167 C 37.068811,17.246167 37.088388,32 37.088388,32 L 22.160133,31.978069 C 22.160133,31.978069 26.997745,27.140456 26.997745,27.140456 C 18.528582,18.264221 13.291696,25.230495 11.500037,31.436501 z"
             style="fill:#404040;"/>
          </a>
         </g>
        </svg>
</svg>
