<?xml version="1.0" encoding="UTF-8" standalone="no"?>
<!DOCTYPE svg PUBLIC "-//W3C//DTD SVG 1.1//EN"
 "http://www.w3.org/Graphics/SVG/1.1/DTD/svg11.dtd">
<!-- Generated by graphviz version 2.38.0 (20140413.2041)
 -->
<!-- Title: SeeSawN::ZeroN::ZeroReconstructionEvaluationModuleC::PreprocessCameras Pages: 1 -->
<!--zoomable 50 -->
<svg id="main" version="1.1" xmlns="http://www.w3.org/2000/svg" xmlns:xlink="http://www.w3.org/1999/xlink" xml:space="preserve" onload="init(evt)">
<style type="text/css"><![CDATA[
.edge:hover path { stroke: red; }
.edge:hover polygon { stroke: red; fill: red; }
]]></style>
<script type="text/javascript"><![CDATA[
var edges = document.getElementsByTagName('g');
if (edges && edges.length) {
  for (var i=0;i<edges.length;i++) {
    if (edges[i].id.substr(0,4)=='edge') {
      edges[i].setAttribute('class','edge');
    }
  }
}
]]></script>
        <defs>
                <circle id="rim" cx="0" cy="0" r="7"/>
                <circle id="rim2" cx="0" cy="0" r="3.5"/>
                <g id="zoomPlus">
                        <use xlink:href="#rim" fill="#404040">
                                <set attributeName="fill" to="#808080" begin="zoomplus.mouseover" end="zoomplus.mouseout"/>
                        </use>
                        <path d="M-4,0h8M0,-4v8" fill="none" stroke="white" stroke-width="1.5" pointer-events="none"/>
                </g>
                <g id="zoomMin">
                        <use xlink:href="#rim" fill="#404040">
                                <set attributeName="fill" to="#808080" begin="zoomminus.mouseover" end="zoomminus.mouseout"/>
                        </use>
                        <path d="M-4,0h8" fill="none" stroke="white" stroke-width="1.5" pointer-events="none"/>
                </g>
                <g id="dirArrow">
                        <path fill="none" stroke="white" stroke-width="1.5" d="M0,-3.0v7 M-2.5,-0.5L0,-3.0L2.5,-0.5"/>
                </g>
               <g id="resetDef">
                       <use xlink:href="#rim2" fill="#404040">
                               <set attributeName="fill" to="#808080" begin="reset.mouseover" end="reset.mouseout"/>
                       </use>
               </g>
        </defs>

<script type="text/javascript">
var viewWidth = 892;
var viewHeight = 50;
var sectionId = 'dynsection-12';
</script>
<script xlink:href="svgpan.js"/>
<svg id="graph" class="graph">
<g id="viewport">
<title>SeeSawN::ZeroN::ZeroReconstructionEvaluationModuleC::PreprocessCameras</title>
<polygon fill="white" stroke="none" points="-4,4 -4,-46 888,-46 888,4 -4,4"/>
<!-- Node81 -->
<g id="node1" class="node"><title>Node81</title>
<polygon fill="#bfbfbf" stroke="black" points="0,-6 0,-36 193,-36 193,-6 0,-6"/>
<text text-anchor="start" x="8" y="-24" font-family="FreeSans" font-size="10.00">SeeSawN::ZeroN::ZeroReconstruction</text>
<text text-anchor="middle" x="96.5" y="-13" font-family="FreeSans" font-size="10.00">EvaluationModuleC::PreprocessCameras</text>
</g>
<!-- Node82 -->
<g id="node2" class="node"><title>Node82</title>
<g id="a_node2"><a xlink:href="classSeeSawN_1_1ZeroN_1_1ZeroReconstructionEvaluationModuleC.html#ae5dd9b14879ca5490dfced6487d2ec8d" target="_top" xlink:title="Computes the reprojection error for image observations. ">
<polygon fill="white" stroke="black" points="229,-6 229,-36 447,-36 447,-6 229,-6"/>
<text text-anchor="start" x="237" y="-24" font-family="FreeSans" font-size="10.00">SeeSawN::ZeroN::ZeroReconstruction</text>
<text text-anchor="middle" x="338" y="-13" font-family="FreeSans" font-size="10.00">EvaluationModuleC::ComputeReprojectionError</text>
</a>
</g>
</g>
<!-- Node81&#45;&gt;Node82 -->
<g id="edge1" class="edge"><title>Node81&#45;&gt;Node82</title>
<path fill="none" stroke="midnightblue" d="M203.427,-21C211.868,-21 220.401,-21 228.856,-21"/>
<polygon fill="midnightblue" stroke="midnightblue" points="203.189,-17.5001 193.189,-21 203.189,-24.5001 203.189,-17.5001"/>
</g>
<!-- Node83 -->
<g id="node3" class="node"><title>Node83</title>
<g id="a_node3"><a xlink:href="classSeeSawN_1_1ZeroN_1_1ZeroReconstructionEvaluationModuleC.html#a1c02c043a6ceb18f03a4fe5af9c66edf" target="_top" xlink:title="Evaluates the image error. ">
<polygon fill="white" stroke="black" points="483,-6 483,-36 672,-36 672,-6 483,-6"/>
<text text-anchor="start" x="491" y="-24" font-family="FreeSans" font-size="10.00">SeeSawN::ZeroN::ZeroReconstruction</text>
<text text-anchor="middle" x="577.5" y="-13" font-family="FreeSans" font-size="10.00">EvaluationModuleC::EvaluateImageError</text>
</a>
</g>
</g>
<!-- Node82&#45;&gt;Node83 -->
<g id="edge2" class="edge"><title>Node82&#45;&gt;Node83</title>
<path fill="none" stroke="midnightblue" d="M457.36,-21C465.919,-21 474.48,-21 482.867,-21"/>
<polygon fill="midnightblue" stroke="midnightblue" points="457.325,-17.5001 447.325,-21 457.325,-24.5001 457.325,-17.5001"/>
</g>
<!-- Node84 -->
<g id="node4" class="node"><title>Node84</title>
<g id="a_node4"><a xlink:href="classSeeSawN_1_1AppZeroReconstructionEvaluationN_1_1AppZeroReconstructionEvaluationImplementationC.html#a627d6c37454be6dba342f8321dad0e31" target="_top" xlink:title="Runs the application. ">
<polygon fill="white" stroke="black" points="708,-0.5 708,-41.5 884,-41.5 884,-0.5 708,-0.5"/>
<text text-anchor="start" x="716" y="-29.5" font-family="FreeSans" font-size="10.00">SeeSawN::AppZeroReconstruction</text>
<text text-anchor="start" x="716" y="-18.5" font-family="FreeSans" font-size="10.00">EvaluationN::AppZeroReconstruction</text>
<text text-anchor="middle" x="796" y="-7.5" font-family="FreeSans" font-size="10.00">EvaluationImplementationC::Run</text>
</a>
</g>
</g>
<!-- Node83&#45;&gt;Node84 -->
<g id="edge3" class="edge"><title>Node83&#45;&gt;Node84</title>
<path fill="none" stroke="midnightblue" d="M682.272,-21C690.878,-21 699.521,-21 707.984,-21"/>
<polygon fill="midnightblue" stroke="midnightblue" points="682.201,-17.5001 672.201,-21 682.201,-24.5001 682.201,-17.5001"/>
</g>
</g>
</svg>
        <g id="navigator" transform="translate(0 0)" fill="#404254">
                <rect fill="#f2f5e9" fill-opacity="0.5" stroke="#606060" stroke-width=".5" x="0" y="0" width="60" height="60"/>
                <use id="zoomplus" xlink:href="#zoomPlus" x="17" y="9" onmousedown="handleZoom(evt,'in')"/>
                <use id="zoomminus" xlink:href="#zoomMin" x="42" y="9" onmousedown="handleZoom(evt,'out')"/>
                <use id="reset" xlink:href="#resetDef" x="30" y="36" onmousedown="handleReset()"/>
                <g id="arrowUp" xlink:href="#dirArrow" transform="translate(30 24)" onmousedown="handlePan(0,-1)">
                  <use xlink:href="#rim" fill="#404040">
                        <set attributeName="fill" to="#808080" begin="arrowUp.mouseover" end="arrowUp.mouseout"/>
                  </use>
                  <path fill="none" stroke="white" stroke-width="1.5" d="M0,-3.0v7 M-2.5,-0.5L0,-3.0L2.5,-0.5"/>
                </g>
                <g id="arrowRight" xlink:href="#dirArrow" transform="rotate(90) translate(36 -43)" onmousedown="handlePan(1,0)">
                  <use xlink:href="#rim" fill="#404040">
                        <set attributeName="fill" to="#808080" begin="arrowRight.mouseover" end="arrowRight.mouseout"/>
                  </use>
                  <path fill="none" stroke="white" stroke-width="1.5" d="M0,-3.0v7 M-2.5,-0.5L0,-3.0L2.5,-0.5"/>
                </g>
                <g id="arrowDown" xlink:href="#dirArrow" transform="rotate(180) translate(-30 -48)" onmousedown="handlePan(0,1)">
                  <use xlink:href="#rim" fill="#404040">
                        <set attributeName="fill" to="#808080" begin="arrowDown.mouseover" end="arrowDown.mouseout"/>
                  </use>
                  <path fill="none" stroke="white" stroke-width="1.5" d="M0,-3.0v7 M-2.5,-0.5L0,-3.0L2.5,-0.5"/>
                </g>
                <g id="arrowLeft" xlink:href="#dirArrow" transform="rotate(270) translate(-36 17)" onmousedown="handlePan(-1,0)">
                  <use xlink:href="#rim" fill="#404040">
                        <set attributeName="fill" to="#808080" begin="arrowLeft.mouseover" end="arrowLeft.mouseout"/>
                  </use>
                  <path fill="none" stroke="white" stroke-width="1.5" d="M0,-3.0v7 M-2.5,-0.5L0,-3.0L2.5,-0.5"/>
                </g>
        </g>
        <svg viewBox="0 0 15 15" width="100%" height="30px" preserveAspectRatio="xMaxYMin meet">
         <g id="arrow_out" transform="scale(0.3 0.3)">
          <a xlink:href="classSeeSawN_1_1ZeroN_1_1ZeroReconstructionEvaluationModuleC_a104cb6816bf6d75263c24954462d1396_icgraph_org.svg" target="_base">
           <rect id="button" ry="5" rx="5" y="6" x="6" height="38" width="38"
                fill="#f2f5e9" fill-opacity="0.5" stroke="#606060" stroke-width="1.0"/>
           <path id="arrow"
             d="M 11.500037,31.436501 C 11.940474,20.09759 22.043105,11.32322 32.158766,21.979434 L 37.068811,17.246167 C 37.068811,17.246167 37.088388,32 37.088388,32 L 22.160133,31.978069 C 22.160133,31.978069 26.997745,27.140456 26.997745,27.140456 C 18.528582,18.264221 13.291696,25.230495 11.500037,31.436501 z"
             style="fill:#404040;"/>
          </a>
         </g>
        </svg>
</svg>
