<?xml version="1.0" encoding="UTF-8" standalone="no"?>
<!DOCTYPE svg PUBLIC "-//W3C//DTD SVG 1.1//EN"
 "http://www.w3.org/Graphics/SVG/1.1/DTD/svg11.dtd">
<!-- Generated by graphviz version 2.38.0 (20140413.2041)
 -->
<!-- Title: SeeSawN::ION::BaseImageFeatureIOC::PreprocessFeature Pages: 1 -->
<!--zoomable 801 -->
<svg id="main" version="1.1" xmlns="http://www.w3.org/2000/svg" xmlns:xlink="http://www.w3.org/1999/xlink" xml:space="preserve" onload="init(evt)">
<style type="text/css"><![CDATA[
.edge:hover path { stroke: red; }
.edge:hover polygon { stroke: red; fill: red; }
]]></style>
<script type="text/javascript"><![CDATA[
var edges = document.getElementsByTagName('g');
if (edges && edges.length) {
  for (var i=0;i<edges.length;i++) {
    if (edges[i].id.substr(0,4)=='edge') {
      edges[i].setAttribute('class','edge');
    }
  }
}
]]></script>
        <defs>
                <circle id="rim" cx="0" cy="0" r="7"/>
                <circle id="rim2" cx="0" cy="0" r="3.5"/>
                <g id="zoomPlus">
                        <use xlink:href="#rim" fill="#404040">
                                <set attributeName="fill" to="#808080" begin="zoomplus.mouseover" end="zoomplus.mouseout"/>
                        </use>
                        <path d="M-4,0h8M0,-4v8" fill="none" stroke="white" stroke-width="1.5" pointer-events="none"/>
                </g>
                <g id="zoomMin">
                        <use xlink:href="#rim" fill="#404040">
                                <set attributeName="fill" to="#808080" begin="zoomminus.mouseover" end="zoomminus.mouseout"/>
                        </use>
                        <path d="M-4,0h8" fill="none" stroke="white" stroke-width="1.5" pointer-events="none"/>
                </g>
                <g id="dirArrow">
                        <path fill="none" stroke="white" stroke-width="1.5" d="M0,-3.0v7 M-2.5,-0.5L0,-3.0L2.5,-0.5"/>
                </g>
               <g id="resetDef">
                       <use xlink:href="#rim2" fill="#404040">
                               <set attributeName="fill" to="#808080" begin="reset.mouseover" end="reset.mouseout"/>
                       </use>
               </g>
        </defs>

<script type="text/javascript">
var viewWidth = 1088;
var viewHeight = 801;
var sectionId = 'dynsection-9';
</script>
<script xlink:href="svgpan.js"/>
<svg id="graph" class="graph">
<g id="viewport">
<title>SeeSawN::ION::BaseImageFeatureIOC::PreprocessFeature</title>
<polygon fill="white" stroke="none" points="-4,4 -4,-797 1084,-797 1084,4 -4,4"/>
<!-- Node66 -->
<g id="node1" class="node"><title>Node66</title>
<polygon fill="#bfbfbf" stroke="black" points="0,-373 0,-403 170,-403 170,-373 0,-373"/>
<text text-anchor="start" x="8" y="-391" font-family="FreeSans" font-size="10.00">SeeSawN::ION::BaseImageFeature</text>
<text text-anchor="middle" x="85" y="-380" font-family="FreeSans" font-size="10.00">IOC::PreprocessFeature</text>
</g>
<!-- Node67 -->
<g id="node2" class="node"><title>Node67</title>
<g id="a_node2"><a xlink:href="namespaceSeeSawN_1_1UnitTestsN_1_1TestION.html#aa78afa93b7f0232bdea8ac2b2870a15f" target="_top" xlink:title="SeeSawN::UnitTestsN\l::TestION::BOOST_AUTO\l_TEST_CASE">
<polygon fill="white" stroke="black" points="489,-727.5 489,-768.5 620,-768.5 620,-727.5 489,-727.5"/>
<text text-anchor="start" x="497" y="-756.5" font-family="FreeSans" font-size="10.00">SeeSawN::UnitTestsN</text>
<text text-anchor="start" x="497" y="-745.5" font-family="FreeSans" font-size="10.00">::TestION::BOOST_AUTO</text>
<text text-anchor="middle" x="554.5" y="-734.5" font-family="FreeSans" font-size="10.00">_TEST_CASE</text>
</a>
</g>
</g>
<!-- Node66&#45;&gt;Node67 -->
<g id="edge1" class="edge"><title>Node66&#45;&gt;Node67</title>
<path fill="none" stroke="midnightblue" d="M103.751,-411.448C150.926,-472.053 286.158,-634.947 437,-718 452.826,-726.714 471.258,-732.964 488.727,-737.421"/>
<polygon fill="midnightblue" stroke="midnightblue" points="106.32,-409.047 97.4388,-403.27 100.779,-413.325 106.32,-409.047"/>
</g>
<!-- Node70 -->
<g id="node5" class="node"><title>Node70</title>
<g id="a_node5"><a xlink:href="classSeeSawN_1_1ION_1_1BaseImageFeatureIOC.html#a2067646ba61ee313f15f759c4776bcd7" target="_top" xlink:title="Applies some common operations to the features. ">
<polygon fill="white" stroke="black" points="218.5,-373 218.5,-403 388.5,-403 388.5,-373 218.5,-373"/>
<text text-anchor="start" x="226.5" y="-391" font-family="FreeSans" font-size="10.00">SeeSawN::ION::BaseImageFeature</text>
<text text-anchor="middle" x="303.5" y="-380" font-family="FreeSans" font-size="10.00">IOC::PreprocessFeatureSet</text>
</a>
</g>
</g>
<!-- Node66&#45;&gt;Node70 -->
<g id="edge5" class="edge"><title>Node66&#45;&gt;Node70</title>
<path fill="none" stroke="midnightblue" d="M180.102,-388C192.767,-388 205.695,-388 218.176,-388"/>
<polygon fill="midnightblue" stroke="midnightblue" points="180.014,-384.5 170.014,-388 180.014,-391.5 180.014,-384.5"/>
</g>
<!-- Node85 -->
<g id="node20" class="node"><title>Node85</title>
<g id="a_node20"><a xlink:href="classSeeSawN_1_1ION_1_1ImageFeatureTrajectoryIOC.html#ade28c2e3fe6e1ff731cde05fb7527c08" target="_top" xlink:title="Common pre&#45;processing operations after a trajectory set is read in. ">
<polygon fill="white" stroke="black" points="206,-165 206,-195 401,-195 401,-165 206,-165"/>
<text text-anchor="start" x="214" y="-183" font-family="FreeSans" font-size="10.00">SeeSawN::ION::ImageFeature</text>
<text text-anchor="middle" x="303.5" y="-172" font-family="FreeSans" font-size="10.00">TrajectoryIOC::PreprocessMeasurements</text>
</a>
</g>
</g>
<!-- Node66&#45;&gt;Node85 -->
<g id="edge22" class="edge"><title>Node66&#45;&gt;Node85</title>
<path fill="none" stroke="midnightblue" d="M109.34,-365.577C153.735,-322.924 249.262,-231.148 286.849,-195.037"/>
<polygon fill="midnightblue" stroke="midnightblue" points="106.706,-363.253 101.92,-372.705 111.556,-368.301 106.706,-363.253"/>
</g>
<!-- Node68 -->
<g id="node3" class="node"><title>Node68</title>
<g id="a_node3"><a xlink:href="namespaceSeeSawN_1_1UnitTestsN_1_1TestION.html#a2aae24ec621ab1fd2c5eb24ced60d473" target="_top" xlink:title="SeeSawN::UnitTestsN\l::TestION::BOOST_AUTO\l_TEST_SUITE_END">
<polygon fill="white" stroke="black" points="745,-751.5 745,-792.5 876,-792.5 876,-751.5 745,-751.5"/>
<text text-anchor="start" x="753" y="-780.5" font-family="FreeSans" font-size="10.00">SeeSawN::UnitTestsN</text>
<text text-anchor="start" x="753" y="-769.5" font-family="FreeSans" font-size="10.00">::TestION::BOOST_AUTO</text>
<text text-anchor="middle" x="810.5" y="-758.5" font-family="FreeSans" font-size="10.00">_TEST_SUITE_END</text>
</a>
</g>
</g>
<!-- Node67&#45;&gt;Node68 -->
<g id="edge2" class="edge"><title>Node67&#45;&gt;Node68</title>
<path fill="none" stroke="midnightblue" d="M630.313,-755.069C666.678,-758.505 709.954,-762.594 744.866,-765.893"/>
<polygon fill="midnightblue" stroke="midnightblue" points="630.537,-751.575 620.252,-754.118 629.879,-758.544 630.537,-751.575"/>
</g>
<!-- Node69 -->
<g id="node4" class="node"><title>Node69</title>
<g id="a_node4"><a xlink:href="namespaceSeeSawN_1_1UnitTestsN_1_1TestION.html#afb727e43f59f1e398de236bcfc53f70e" target="_top" xlink:title="SeeSawN::UnitTestsN\l::TestION::BOOST_AUTO\l_TEST_CASE">
<polygon fill="white" stroke="black" points="949,-726.5 949,-767.5 1080,-767.5 1080,-726.5 949,-726.5"/>
<text text-anchor="start" x="957" y="-755.5" font-family="FreeSans" font-size="10.00">SeeSawN::UnitTestsN</text>
<text text-anchor="start" x="957" y="-744.5" font-family="FreeSans" font-size="10.00">::TestION::BOOST_AUTO</text>
<text text-anchor="middle" x="1014.5" y="-733.5" font-family="FreeSans" font-size="10.00">_TEST_CASE</text>
</a>
</g>
</g>
<!-- Node67&#45;&gt;Node69 -->
<g id="edge4" class="edge"><title>Node67&#45;&gt;Node69</title>
<path fill="none" stroke="midnightblue" d="M630.1,-744.478C654.881,-743.465 682.621,-742.499 708,-742 799.094,-740.209 821.917,-739.736 913,-742 924.614,-742.289 936.975,-742.765 948.912,-743.311"/>
<polygon fill="midnightblue" stroke="midnightblue" points="629.885,-740.984 620.04,-744.899 630.177,-747.978 629.885,-740.984"/>
</g>
<!-- Node68&#45;&gt;Node69 -->
<g id="edge3" class="edge"><title>Node68&#45;&gt;Node69</title>
<path fill="none" stroke="midnightblue" d="M886.191,-762.756C906.735,-760.213 928.841,-757.478 948.773,-755.011"/>
<polygon fill="midnightblue" stroke="midnightblue" points="885.742,-759.285 876.248,-763.987 886.602,-766.232 885.742,-759.285"/>
</g>
<!-- Node70&#45;&gt;Node67 -->
<g id="edge21" class="edge"><title>Node70&#45;&gt;Node67</title>
<path fill="none" stroke="midnightblue" d="M319.085,-412.029C339.791,-447.013 377.768,-514.515 401,-576 424.012,-636.905 391.048,-671.876 437,-718 450.782,-731.834 470.038,-739.565 488.93,-743.805"/>
<polygon fill="midnightblue" stroke="midnightblue" points="321.86,-409.849 313.729,-403.055 315.849,-413.436 321.86,-409.849"/>
</g>
<!-- Node71 -->
<g id="node6" class="node"><title>Node71</title>
<g id="a_node6"><a xlink:href="classSeeSawN_1_1AppCalibrationVerificationN_1_1AppCalibrationVerificationImplementationC.html#ab875f9541a951b2e1cfc6cf350224db9" target="_top" xlink:title="Loads the image features. ">
<polygon fill="white" stroke="black" points="451.5,-667.5 451.5,-708.5 657.5,-708.5 657.5,-667.5 451.5,-667.5"/>
<text text-anchor="start" x="459.5" y="-696.5" font-family="FreeSans" font-size="10.00">SeeSawN::AppCalibrationVerification</text>
<text text-anchor="start" x="459.5" y="-685.5" font-family="FreeSans" font-size="10.00">N::AppCalibrationVerificationImplementation</text>
<text text-anchor="middle" x="554.5" y="-674.5" font-family="FreeSans" font-size="10.00">C::LoadFeatures</text>
</a>
</g>
</g>
<!-- Node70&#45;&gt;Node71 -->
<g id="edge6" class="edge"><title>Node70&#45;&gt;Node71</title>
<path fill="none" stroke="midnightblue" d="M317.734,-412.604C336.79,-448.291 372.769,-516.644 401,-576 418.096,-611.944 406.675,-632.22 437,-658 441.455,-661.788 446.33,-665.106 451.479,-668.012"/>
<polygon fill="midnightblue" stroke="midnightblue" points="320.633,-410.604 312.828,-403.439 314.462,-413.908 320.633,-410.604"/>
</g>
<!-- Node72 -->
<g id="node7" class="node"><title>Node72</title>
<g id="a_node7"><a xlink:href="classSeeSawN_1_1AppGeometryEstimator22N_1_1GeometryEstimator22ImplementationC.html#ac392f5122ff68257793bc283797f88ea" target="_top" xlink:title="Loads and preprocesses the features. ">
<polygon fill="white" stroke="black" points="460,-607.5 460,-648.5 649,-648.5 649,-607.5 460,-607.5"/>
<text text-anchor="start" x="468" y="-636.5" font-family="FreeSans" font-size="10.00">SeeSawN::AppGeometryEstimator22</text>
<text text-anchor="start" x="468" y="-625.5" font-family="FreeSans" font-size="10.00">N::GeometryEstimator22Implementation</text>
<text text-anchor="middle" x="554.5" y="-614.5" font-family="FreeSans" font-size="10.00">C::LoadFeatures</text>
</a>
</g>
</g>
<!-- Node70&#45;&gt;Node72 -->
<g id="edge7" class="edge"><title>Node70&#45;&gt;Node72</title>
<path fill="none" stroke="midnightblue" d="M313.012,-412.602C329.608,-456.811 370.59,-549.581 437,-598 444.004,-603.106 451.798,-607.345 459.943,-610.864"/>
<polygon fill="midnightblue" stroke="midnightblue" points="316.296,-411.391 309.577,-403.199 309.721,-413.793 316.296,-411.391"/>
</g>
<!-- Node73 -->
<g id="node8" class="node"><title>Node73</title>
<g id="a_node8"><a xlink:href="classSeeSawN_1_1AppGeometryEstimator32N_1_1GeometryEstimator32ImplementationC.html#a08de0523f5dac5e8579857bab821a200" target="_top" xlink:title="Loads the image features. ">
<polygon fill="white" stroke="black" points="460,-547.5 460,-588.5 649,-588.5 649,-547.5 460,-547.5"/>
<text text-anchor="start" x="468" y="-576.5" font-family="FreeSans" font-size="10.00">SeeSawN::AppGeometryEstimator32</text>
<text text-anchor="start" x="468" y="-565.5" font-family="FreeSans" font-size="10.00">N::GeometryEstimator32Implementation</text>
<text text-anchor="middle" x="554.5" y="-554.5" font-family="FreeSans" font-size="10.00">C::LoadImageFeatures</text>
</a>
</g>
</g>
<!-- Node70&#45;&gt;Node73 -->
<g id="edge8" class="edge"><title>Node70&#45;&gt;Node73</title>
<path fill="none" stroke="midnightblue" d="M319.13,-412.155C340.686,-445.63 384.189,-505.647 437,-538 444.124,-542.364 451.865,-546.097 459.858,-549.289"/>
<polygon fill="midnightblue" stroke="midnightblue" points="321.94,-410.05 313.643,-403.462 316.021,-413.787 321.94,-410.05"/>
</g>
<!-- Node74 -->
<g id="node9" class="node"><title>Node74</title>
<g id="a_node9"><a xlink:href="classSeeSawN_1_1AppMatchmakerN_1_1MatchmakerImplementationC.html#aad9245e8af20744d5974bab03a778e02" target="_top" xlink:title="Loads and preprocesses the features. ">
<polygon fill="white" stroke="black" points="480,-487.5 480,-528.5 629,-528.5 629,-487.5 480,-487.5"/>
<text text-anchor="start" x="488" y="-516.5" font-family="FreeSans" font-size="10.00">SeeSawN::AppMatchmakerN</text>
<text text-anchor="start" x="488" y="-505.5" font-family="FreeSans" font-size="10.00">::MatchmakerImplementationC</text>
<text text-anchor="middle" x="554.5" y="-494.5" font-family="FreeSans" font-size="10.00">::LoadFeatures</text>
</a>
</g>
</g>
<!-- Node70&#45;&gt;Node74 -->
<g id="edge9" class="edge"><title>Node70&#45;&gt;Node74</title>
<path fill="none" stroke="midnightblue" d="M330.659,-409.816C356.275,-430.161 397.156,-459.998 437,-478 450.418,-484.062 465.282,-489.061 479.776,-493.122"/>
<polygon fill="midnightblue" stroke="midnightblue" points="332.565,-406.857 322.581,-403.311 328.175,-412.309 332.565,-406.857"/>
</g>
<!-- Node75 -->
<g id="node10" class="node"><title>Node75</title>
<g id="a_node10"><a xlink:href="classSeeSawN_1_1AppMultimodelGeometryEstimator22N_1_1AppMultimodelGeometryEstimator22ImplementationC.html#ae64ef622769dd0752ae6b2e44f9b1305" target="_top" xlink:title="Loads the image features. ">
<polygon fill="white" stroke="black" points="438,-427.5 438,-468.5 671,-468.5 671,-427.5 438,-427.5"/>
<text text-anchor="start" x="446" y="-456.5" font-family="FreeSans" font-size="10.00">SeeSawN::AppMultimodelGeometry</text>
<text text-anchor="start" x="446" y="-445.5" font-family="FreeSans" font-size="10.00">Estimator22N::AppMultimodelGeometry</text>
<text text-anchor="middle" x="554.5" y="-434.5" font-family="FreeSans" font-size="10.00">Estimator22ImplementationC::LoadImageFeatures</text>
</a>
</g>
</g>
<!-- Node70&#45;&gt;Node75 -->
<g id="edge10" class="edge"><title>Node70&#45;&gt;Node75</title>
<path fill="none" stroke="midnightblue" d="M376.933,-405.454C405.545,-412.348 438.633,-420.321 468.378,-427.489"/>
<polygon fill="midnightblue" stroke="midnightblue" points="377.553,-402.003 367.012,-403.063 375.914,-408.808 377.553,-402.003"/>
</g>
<!-- Node76 -->
<g id="node11" class="node"><title>Node76</title>
<g id="a_node11"><a xlink:href="classSeeSawN_1_1AppNodalCameraTrackerN_1_1AppNodalCameraTrackerImplementationC.html#a351b725aa9a42a94472fd4915ef97049" target="_top" xlink:title="Loads the features. ">
<polygon fill="white" stroke="black" points="452,-367.5 452,-408.5 657,-408.5 657,-367.5 452,-367.5"/>
<text text-anchor="start" x="460" y="-396.5" font-family="FreeSans" font-size="10.00">SeeSawN::AppNodalCameraTracker</text>
<text text-anchor="start" x="460" y="-385.5" font-family="FreeSans" font-size="10.00">N::AppNodalCameraTrackerImplementation</text>
<text text-anchor="middle" x="554.5" y="-374.5" font-family="FreeSans" font-size="10.00">C::LoadFeatures</text>
</a>
</g>
</g>
<!-- Node70&#45;&gt;Node76 -->
<g id="edge11" class="edge"><title>Node70&#45;&gt;Node76</title>
<path fill="none" stroke="midnightblue" d="M398.847,-388C416.09,-388 434.154,-388 451.605,-388"/>
<polygon fill="midnightblue" stroke="midnightblue" points="398.8,-384.5 388.8,-388 398.8,-391.5 398.8,-384.5"/>
</g>
<!-- Node77 -->
<g id="node12" class="node"><title>Node77</title>
<g id="a_node12"><a xlink:href="classSeeSawN_1_1AppPfMN_1_1AppPfMImplementationC.html#a0baa062f674c535b7b141ab952299d6d" target="_top" xlink:title="Loads the features. ">
<polygon fill="white" stroke="black" points="447,-318 447,-348 662,-348 662,-318 447,-318"/>
<text text-anchor="start" x="455" y="-336" font-family="FreeSans" font-size="10.00">SeeSawN::AppPfMN::AppPfMImplementation</text>
<text text-anchor="middle" x="554.5" y="-325" font-family="FreeSans" font-size="10.00">C::LoadFeatures</text>
</a>
</g>
</g>
<!-- Node70&#45;&gt;Node77 -->
<g id="edge12" class="edge"><title>Node70&#45;&gt;Node77</title>
<path fill="none" stroke="midnightblue" d="M380.069,-370.735C398.673,-366.528 418.55,-362.068 437,-358 451.848,-354.726 467.773,-351.271 482.933,-348.01"/>
<polygon fill="midnightblue" stroke="midnightblue" points="379.157,-367.353 370.177,-372.976 380.703,-374.18 379.157,-367.353"/>
</g>
<!-- Node78 -->
<g id="node13" class="node"><title>Node78</title>
<g id="a_node13"><a xlink:href="classSeeSawN_1_1AppSparseModelBuilderN_1_1AppSparseModelBuilderImplementationC.html#a3a9b3a8c6fc799ab33fa492aa5dee1d6" target="_top" xlink:title="Loads the image features. ">
<polygon fill="white" stroke="black" points="454.5,-257.5 454.5,-298.5 654.5,-298.5 654.5,-257.5 454.5,-257.5"/>
<text text-anchor="start" x="462.5" y="-286.5" font-family="FreeSans" font-size="10.00">SeeSawN::AppSparseModelBuilder</text>
<text text-anchor="start" x="462.5" y="-275.5" font-family="FreeSans" font-size="10.00">N::AppSparseModelBuilderImplementation</text>
<text text-anchor="middle" x="554.5" y="-264.5" font-family="FreeSans" font-size="10.00">C::LoadFeatures</text>
</a>
</g>
</g>
<!-- Node70&#45;&gt;Node78 -->
<g id="edge13" class="edge"><title>Node70&#45;&gt;Node78</title>
<path fill="none" stroke="midnightblue" d="M333.315,-367.208C359.308,-349.297 399.16,-323.892 437,-308 445.28,-304.522 454.066,-301.367 462.953,-298.523"/>
<polygon fill="midnightblue" stroke="midnightblue" points="331.253,-364.378 325.053,-372.97 335.258,-370.119 331.253,-364.378"/>
</g>
<!-- Node79 -->
<g id="node14" class="node"><title>Node79</title>
<g id="a_node14"><a xlink:href="classSeeSawN_1_1AppSparseUnitSphereBuilderN_1_1AppSparseUnitSphereBuilderImplementationC.html#a27bcf9fbdc0ff681a507b104890422b6" target="_top" xlink:title="Loads the features. ">
<polygon fill="white" stroke="black" points="718,-186.5 718,-227.5 903,-227.5 903,-186.5 718,-186.5"/>
<text text-anchor="start" x="726" y="-215.5" font-family="FreeSans" font-size="10.00">SeeSawN::AppSparseUnitSphere</text>
<text text-anchor="start" x="726" y="-204.5" font-family="FreeSans" font-size="10.00">BuilderN::AppSparseUnitSphereBuilder</text>
<text text-anchor="middle" x="810.5" y="-193.5" font-family="FreeSans" font-size="10.00">ImplementationC::LoadFeatures</text>
</a>
</g>
</g>
<!-- Node70&#45;&gt;Node79 -->
<g id="edge14" class="edge"><title>Node70&#45;&gt;Node79</title>
<path fill="none" stroke="midnightblue" d="M318.963,-364.446C340.318,-331.997 383.585,-274.549 437,-248 484.701,-224.291 623.787,-214.138 717.832,-209.899"/>
<polygon fill="midnightblue" stroke="midnightblue" points="315.998,-362.585 313.53,-372.889 321.885,-366.373 315.998,-362.585"/>
</g>
<!-- Node80 -->
<g id="node15" class="node"><title>Node80</title>
<g id="a_node15"><a xlink:href="classSeeSawN_1_1AppStalker22N_1_1StalkerImplementationC.html#ac143120dd00a79ad086927b3c518deda" target="_top" xlink:title="Loads the image features. ">
<polygon fill="white" stroke="black" points="489,-159.5 489,-200.5 620,-200.5 620,-159.5 489,-159.5"/>
<text text-anchor="start" x="497" y="-188.5" font-family="FreeSans" font-size="10.00">SeeSawN::AppStalker22N</text>
<text text-anchor="start" x="497" y="-177.5" font-family="FreeSans" font-size="10.00">::StalkerImplementationC</text>
<text text-anchor="middle" x="554.5" y="-166.5" font-family="FreeSans" font-size="10.00">::LoadFeatures</text>
</a>
</g>
</g>
<!-- Node70&#45;&gt;Node80 -->
<g id="edge15" class="edge"><title>Node70&#45;&gt;Node80</title>
<path fill="none" stroke="midnightblue" d="M316.588,-363.784C336.526,-326.309 379.853,-254.477 437,-215 452.378,-204.377 471.046,-196.916 488.892,-191.7"/>
<polygon fill="midnightblue" stroke="midnightblue" points="313.324,-362.474 311.81,-372.96 319.533,-365.707 313.324,-362.474"/>
</g>
<!-- Node81 -->
<g id="node16" class="node"><title>Node81</title>
<g id="a_node16"><a xlink:href="classSeeSawN_1_1ION_1_1BinaryImageFeatureIOC.html#a16a105a0609bbd4c625a5b21c8e29169" target="_top" xlink:title="Reads a feature file. ">
<polygon fill="white" stroke="black" points="483,-110 483,-140 626,-140 626,-110 483,-110"/>
<text text-anchor="start" x="491" y="-128" font-family="FreeSans" font-size="10.00">SeeSawN::ION::BinaryImage</text>
<text text-anchor="middle" x="554.5" y="-117" font-family="FreeSans" font-size="10.00">FeatureIOC::ReadFeatureFile</text>
</a>
</g>
</g>
<!-- Node70&#45;&gt;Node81 -->
<g id="edge16" class="edge"><title>Node70&#45;&gt;Node81</title>
<path fill="none" stroke="midnightblue" d="M317.199,-363.947C348.454,-304.925 427.277,-157.195 437,-150 450.302,-140.156 466.668,-134.023 482.883,-130.243"/>
<polygon fill="midnightblue" stroke="midnightblue" points="314.024,-362.464 312.442,-372.94 320.212,-365.738 314.024,-362.464"/>
</g>
<!-- Node84 -->
<g id="node19" class="node"><title>Node84</title>
<g id="a_node19"><a xlink:href="classSeeSawN_1_1ION_1_1BaseImageFeatureIOC.html#ade3651d1f50481bed015904c87466598" target="_top" xlink:title="Applies some common operations to the features. ">
<polygon fill="white" stroke="black" points="469.5,-61 469.5,-91 639.5,-91 639.5,-61 469.5,-61"/>
<text text-anchor="start" x="477.5" y="-79" font-family="FreeSans" font-size="10.00">SeeSawN::ION::BaseImageFeature</text>
<text text-anchor="middle" x="554.5" y="-68" font-family="FreeSans" font-size="10.00">IOC::PreprocessFeatureSet</text>
</a>
</g>
</g>
<!-- Node70&#45;&gt;Node84 -->
<g id="edge20" class="edge"><title>Node70&#45;&gt;Node84</title>
<path fill="none" stroke="midnightblue" d="M318.738,-363.719C338.717,-329.048 375.482,-263.013 401,-204 420.413,-159.104 400.238,-132.266 437,-100 446.235,-91.8948 457.47,-86.2608 469.277,-82.3871"/>
<polygon fill="midnightblue" stroke="midnightblue" points="315.557,-362.227 313.571,-372.634 321.613,-365.737 315.557,-362.227"/>
</g>
<!-- Node81&#45;&gt;Node79 -->
<g id="edge18" class="edge"><title>Node81&#45;&gt;Node79</title>
<path fill="none" stroke="midnightblue" d="M635.806,-139.947C648.042,-142.881 660.437,-146.235 672,-150 688.649,-155.421 691.88,-159.165 708,-166 724.097,-172.826 741.733,-180.041 757.723,-186.484"/>
<polygon fill="midnightblue" stroke="midnightblue" points="636.578,-136.533 626.046,-137.685 634.997,-143.352 636.578,-136.533"/>
</g>
<!-- Node82 -->
<g id="node17" class="node"><title>Node82</title>
<g id="a_node17"><a xlink:href="classSeeSawN_1_1AppNodalCameraTrackerN_1_1AppNodalCameraTrackerImplementationC.html#ae4778e31c23e2b726d86a72bd74ca39a" target="_top" xlink:title="Loads the features. ">
<polygon fill="white" stroke="black" points="708,-115.5 708,-156.5 913,-156.5 913,-115.5 708,-115.5"/>
<text text-anchor="start" x="716" y="-144.5" font-family="FreeSans" font-size="10.00">SeeSawN::AppNodalCameraTracker</text>
<text text-anchor="start" x="716" y="-133.5" font-family="FreeSans" font-size="10.00">N::AppNodalCameraTrackerImplementation</text>
<text text-anchor="middle" x="810.5" y="-122.5" font-family="FreeSans" font-size="10.00">C::LoadFeatures</text>
</a>
</g>
</g>
<!-- Node81&#45;&gt;Node82 -->
<g id="edge17" class="edge"><title>Node81&#45;&gt;Node82</title>
<path fill="none" stroke="midnightblue" d="M636.497,-128.508C659.166,-129.489 684.096,-130.569 707.8,-131.596"/>
<polygon fill="midnightblue" stroke="midnightblue" points="636.395,-125 626.253,-128.064 636.092,-131.994 636.395,-125"/>
</g>
<!-- Node83 -->
<g id="node18" class="node"><title>Node83</title>
<g id="a_node18"><a xlink:href="namespaceSeeSawN_1_1UnitTestsN_1_1TestION.html#abb08c3a73fe296a0795da284f8d514ec" target="_top" xlink:title="SeeSawN::UnitTestsN\l::TestION::BOOST_AUTO\l_TEST_CASE">
<polygon fill="white" stroke="black" points="745,-55.5 745,-96.5 876,-96.5 876,-55.5 745,-55.5"/>
<text text-anchor="start" x="753" y="-84.5" font-family="FreeSans" font-size="10.00">SeeSawN::UnitTestsN</text>
<text text-anchor="start" x="753" y="-73.5" font-family="FreeSans" font-size="10.00">::TestION::BOOST_AUTO</text>
<text text-anchor="middle" x="810.5" y="-62.5" font-family="FreeSans" font-size="10.00">_TEST_CASE</text>
</a>
</g>
</g>
<!-- Node81&#45;&gt;Node83 -->
<g id="edge19" class="edge"><title>Node81&#45;&gt;Node83</title>
<path fill="none" stroke="midnightblue" d="M636.445,-109.385C671.437,-102.634 711.823,-94.8431 744.776,-88.4861"/>
<polygon fill="midnightblue" stroke="midnightblue" points="635.409,-106.02 626.253,-111.351 636.735,-112.893 635.409,-106.02"/>
</g>
<!-- Node86 -->
<g id="node21" class="node"><title>Node86</title>
<g id="a_node21"><a xlink:href="classSeeSawN_1_1AppMulticameraSynchronisationN_1_1AppMulticameraSynchronisationImplementationC.html#a7eb2f8e9e3a4d30d91a20056487d7ee2" target="_top" xlink:title="Loads the input data. ">
<polygon fill="white" stroke="black" points="437,-0.5 437,-41.5 672,-41.5 672,-0.5 437,-0.5"/>
<text text-anchor="start" x="445" y="-29.5" font-family="FreeSans" font-size="10.00">SeeSawN::AppMulticameraSynchronisation</text>
<text text-anchor="start" x="445" y="-18.5" font-family="FreeSans" font-size="10.00">N::AppMulticameraSynchronisationImplementation</text>
<text text-anchor="middle" x="554.5" y="-7.5" font-family="FreeSans" font-size="10.00">C::LoadInput</text>
</a>
</g>
</g>
<!-- Node85&#45;&gt;Node86 -->
<g id="edge23" class="edge"><title>Node85&#45;&gt;Node86</title>
<path fill="none" stroke="midnightblue" d="M322.012,-156.658C345.129,-127.517 388.601,-78.2012 437,-51 443.281,-47.4697 449.986,-44.3461 456.885,-41.5836"/>
<polygon fill="midnightblue" stroke="midnightblue" points="319.164,-154.619 315.776,-164.658 324.685,-158.923 319.164,-154.619"/>
</g>
</g>
</svg>
        <g id="navigator" transform="translate(0 0)" fill="#404254">
                <rect fill="#f2f5e9" fill-opacity="0.5" stroke="#606060" stroke-width=".5" x="0" y="0" width="60" height="60"/>
                <use id="zoomplus" xlink:href="#zoomPlus" x="17" y="9" onmousedown="handleZoom(evt,'in')"/>
                <use id="zoomminus" xlink:href="#zoomMin" x="42" y="9" onmousedown="handleZoom(evt,'out')"/>
                <use id="reset" xlink:href="#resetDef" x="30" y="36" onmousedown="handleReset()"/>
                <g id="arrowUp" xlink:href="#dirArrow" transform="translate(30 24)" onmousedown="handlePan(0,-1)">
                  <use xlink:href="#rim" fill="#404040">
                        <set attributeName="fill" to="#808080" begin="arrowUp.mouseover" end="arrowUp.mouseout"/>
                  </use>
                  <path fill="none" stroke="white" stroke-width="1.5" d="M0,-3.0v7 M-2.5,-0.5L0,-3.0L2.5,-0.5"/>
                </g>
                <g id="arrowRight" xlink:href="#dirArrow" transform="rotate(90) translate(36 -43)" onmousedown="handlePan(1,0)">
                  <use xlink:href="#rim" fill="#404040">
                        <set attributeName="fill" to="#808080" begin="arrowRight.mouseover" end="arrowRight.mouseout"/>
                  </use>
                  <path fill="none" stroke="white" stroke-width="1.5" d="M0,-3.0v7 M-2.5,-0.5L0,-3.0L2.5,-0.5"/>
                </g>
                <g id="arrowDown" xlink:href="#dirArrow" transform="rotate(180) translate(-30 -48)" onmousedown="handlePan(0,1)">
                  <use xlink:href="#rim" fill="#404040">
                        <set attributeName="fill" to="#808080" begin="arrowDown.mouseover" end="arrowDown.mouseout"/>
                  </use>
                  <path fill="none" stroke="white" stroke-width="1.5" d="M0,-3.0v7 M-2.5,-0.5L0,-3.0L2.5,-0.5"/>
                </g>
                <g id="arrowLeft" xlink:href="#dirArrow" transform="rotate(270) translate(-36 17)" onmousedown="handlePan(-1,0)">
                  <use xlink:href="#rim" fill="#404040">
                        <set attributeName="fill" to="#808080" begin="arrowLeft.mouseover" end="arrowLeft.mouseout"/>
                  </use>
                  <path fill="none" stroke="white" stroke-width="1.5" d="M0,-3.0v7 M-2.5,-0.5L0,-3.0L2.5,-0.5"/>
                </g>
        </g>
        <svg viewBox="0 0 15 15" width="100%" height="30px" preserveAspectRatio="xMaxYMin meet">
         <g id="arrow_out" transform="scale(0.3 0.3)">
          <a xlink:href="classSeeSawN_1_1ION_1_1BaseImageFeatureIOC_abf5ab318c2496a12a275026f014cd235_icgraph_org.svg" target="_base">
           <rect id="button" ry="5" rx="5" y="6" x="6" height="38" width="38"
                fill="#f2f5e9" fill-opacity="0.5" stroke="#606060" stroke-width="1.0"/>
           <path id="arrow"
             d="M 11.500037,31.436501 C 11.940474,20.09759 22.043105,11.32322 32.158766,21.979434 L 37.068811,17.246167 C 37.068811,17.246167 37.088388,32 37.088388,32 L 22.160133,31.978069 C 22.160133,31.978069 26.997745,27.140456 26.997745,27.140456 C 18.528582,18.264221 13.291696,25.230495 11.500037,31.436501 z"
             style="fill:#404040;"/>
          </a>
         </g>
        </svg>
</svg>
