<?xml version="1.0" encoding="UTF-8" standalone="no"?>
<!DOCTYPE svg PUBLIC "-//W3C//DTD SVG 1.1//EN"
 "http://www.w3.org/Graphics/SVG/1.1/DTD/svg11.dtd">
<!-- Generated by graphviz version 2.38.0 (20140413.2041)
 -->
<!-- Title: SeeSawN::GeometryN::Similarity3DSolverC::Cost Pages: 1 -->
<svg width="631pt" height="340pt"
 viewBox="0.00 0.00 631.00 339.50" xmlns="http://www.w3.org/2000/svg" xmlns:xlink="http://www.w3.org/1999/xlink">
<g id="graph0" class="graph" transform="scale(1 1) rotate(0) translate(4 335.5)">
<title>SeeSawN::GeometryN::Similarity3DSolverC::Cost</title>
<polygon fill="white" stroke="none" points="-4,4 -4,-335.5 627,-335.5 627,4 -4,4"/>
<!-- Node13 -->
<g id="node1" class="node"><title>Node13</title>
<polygon fill="#bfbfbf" stroke="black" points="0,-144 0,-174 132,-174 132,-144 0,-144"/>
<text text-anchor="start" x="8" y="-162" font-family="FreeSans" font-size="10.00">SeeSawN::GeometryN</text>
<text text-anchor="middle" x="66" y="-151" font-family="FreeSans" font-size="10.00">::Similarity3DSolverC::Cost</text>
</g>
<!-- Node14 -->
<g id="node2" class="node"><title>Node14</title>
<g id="a_node2"><a xlink:href="classSeeSawN_1_1GeometryN_1_1Rotation3DSolverC.html#ae4e92f0a969e298989796c86b0742a6e" target="_top" xlink:title="Computational cost of the solver. ">
<polygon fill="white" stroke="black" points="170.5,-216 170.5,-246 298.5,-246 298.5,-216 170.5,-216"/>
<text text-anchor="start" x="178.5" y="-234" font-family="FreeSans" font-size="10.00">SeeSawN::GeometryN</text>
<text text-anchor="middle" x="234.5" y="-223" font-family="FreeSans" font-size="10.00">::Rotation3DSolverC::Cost</text>
</a>
</g>
</g>
<!-- Node13&#45;&gt;Node14 -->
<g id="edge1" class="edge"><title>Node13&#45;&gt;Node14</title>
<path fill="none" stroke="midnightblue" d="M101.904,-174.094C127.323,-185.086 161.946,-200.058 189.298,-211.885"/>
<polygon fill="midnightblue" stroke="midnightblue" points="188.074,-215.17 198.642,-215.926 190.853,-208.745 188.074,-215.17"/>
</g>
<!-- Node18 -->
<g id="node6" class="node"><title>Node18</title>
<g id="a_node6"><a xlink:href="classSeeSawN_1_1NumericN_1_1ComplexityEstimatorC.html#a7001ea5d3cc57f35e8f76b9c5e86390b" target="_top" xlink:title="Estimates the cost for . ">
<polygon fill="white" stroke="black" points="168,-138.5 168,-179.5 301,-179.5 301,-138.5 168,-138.5"/>
<text text-anchor="start" x="176" y="-167.5" font-family="FreeSans" font-size="10.00">SeeSawN::NumericN::</text>
<text text-anchor="start" x="176" y="-156.5" font-family="FreeSans" font-size="10.00">ComplexityEstimatorC</text>
<text text-anchor="middle" x="234.5" y="-145.5" font-family="FreeSans" font-size="10.00">::MatrixVectorMultiplication</text>
</a>
</g>
</g>
<!-- Node13&#45;&gt;Node18 -->
<g id="edge5" class="edge"><title>Node13&#45;&gt;Node18</title>
<path fill="none" stroke="midnightblue" d="M132.327,-159C140.618,-159 149.157,-159 157.596,-159"/>
<polygon fill="midnightblue" stroke="midnightblue" points="157.814,-162.5 167.814,-159 157.814,-155.5 157.814,-162.5"/>
</g>
<!-- Node19 -->
<g id="node7" class="node"><title>Node19</title>
<g id="a_node7"><a xlink:href="classSeeSawN_1_1NumericN_1_1ComplexityEstimatorC.html#abe881cecaa354327287f927d2e416360" target="_top" xlink:title="Estimates the costs for the variance of a set of vectors. ">
<polygon fill="white" stroke="black" points="174,-76.5 174,-117.5 295,-117.5 295,-76.5 174,-76.5"/>
<text text-anchor="start" x="182" y="-105.5" font-family="FreeSans" font-size="10.00">SeeSawN::NumericN::</text>
<text text-anchor="start" x="182" y="-94.5" font-family="FreeSans" font-size="10.00">ComplexityEstimatorC</text>
<text text-anchor="middle" x="234.5" y="-83.5" font-family="FreeSans" font-size="10.00">::VectorSampleVariance</text>
</a>
</g>
</g>
<!-- Node13&#45;&gt;Node19 -->
<g id="edge6" class="edge"><title>Node13&#45;&gt;Node19</title>
<path fill="none" stroke="midnightblue" d="M107.305,-143.992C125.75,-137.123 148.067,-128.813 168.775,-121.102"/>
<polygon fill="midnightblue" stroke="midnightblue" points="170.006,-124.378 178.156,-117.609 167.563,-117.818 170.006,-124.378"/>
</g>
<!-- Node15 -->
<g id="node3" class="node"><title>Node15</title>
<g id="a_node3"><a xlink:href="classSeeSawN_1_1NumericN_1_1ComplexityEstimatorC.html#aed4f57d872fe256473e8a413cd8b8682" target="_top" xlink:title="Estimates the cost for eigenvalue decomposition. ">
<polygon fill="white" stroke="black" points="337,-301 337,-331 473,-331 473,-301 337,-301"/>
<text text-anchor="start" x="345" y="-319" font-family="FreeSans" font-size="10.00">SeeSawN::NumericN::</text>
<text text-anchor="middle" x="405" y="-308" font-family="FreeSans" font-size="10.00">ComplexityEstimatorC::EVD</text>
</a>
</g>
</g>
<!-- Node14&#45;&gt;Node15 -->
<g id="edge2" class="edge"><title>Node14&#45;&gt;Node15</title>
<path fill="none" stroke="midnightblue" d="M258.242,-246.023C278.404,-258.954 308.922,-277.592 337,-291 341.39,-293.096 346.007,-295.137 350.677,-297.089"/>
<polygon fill="midnightblue" stroke="midnightblue" points="349.7,-300.469 360.283,-300.963 352.318,-293.977 349.7,-300.469"/>
</g>
<!-- Node16 -->
<g id="node4" class="node"><title>Node16</title>
<g id="a_node4"><a xlink:href="classSeeSawN_1_1NumericN_1_1ComplexityEstimatorC.html#a84eb6b555480e3d2866c59dc429d5885" target="_top" xlink:title="Estimates the cost for . ">
<polygon fill="white" stroke="black" points="348,-240.5 348,-281.5 462,-281.5 462,-240.5 348,-240.5"/>
<text text-anchor="start" x="356" y="-269.5" font-family="FreeSans" font-size="10.00">SeeSawN::NumericN::</text>
<text text-anchor="start" x="356" y="-258.5" font-family="FreeSans" font-size="10.00">ComplexityEstimatorC</text>
<text text-anchor="middle" x="405" y="-247.5" font-family="FreeSans" font-size="10.00">::MatrixAdd</text>
</a>
</g>
</g>
<!-- Node14&#45;&gt;Node16 -->
<g id="edge3" class="edge"><title>Node14&#45;&gt;Node16</title>
<path fill="none" stroke="midnightblue" d="M298.723,-242.256C311.47,-244.526 324.904,-246.918 337.752,-249.205"/>
<polygon fill="midnightblue" stroke="midnightblue" points="337.447,-252.706 347.906,-251.013 338.674,-245.814 337.447,-252.706"/>
</g>
<!-- Node17 -->
<g id="node5" class="node"><title>Node17</title>
<g id="a_node5"><a xlink:href="classSeeSawN_1_1NumericN_1_1ComplexityEstimatorC.html#a81a6ecfb1bc469c8b6f13cb8629edeec" target="_top" xlink:title="Estimates the cost for . ">
<polygon fill="white" stroke="black" points="348,-180.5 348,-221.5 462,-221.5 462,-180.5 348,-180.5"/>
<text text-anchor="start" x="356" y="-209.5" font-family="FreeSans" font-size="10.00">SeeSawN::NumericN::</text>
<text text-anchor="start" x="356" y="-198.5" font-family="FreeSans" font-size="10.00">ComplexityEstimatorC</text>
<text text-anchor="middle" x="405" y="-187.5" font-family="FreeSans" font-size="10.00">::OuterProduct</text>
</a>
</g>
</g>
<!-- Node14&#45;&gt;Node17 -->
<g id="edge4" class="edge"><title>Node14&#45;&gt;Node17</title>
<path fill="none" stroke="midnightblue" d="M298.723,-219.744C311.47,-217.474 324.904,-215.082 337.752,-212.795"/>
<polygon fill="midnightblue" stroke="midnightblue" points="338.674,-216.186 347.906,-210.987 337.447,-209.294 338.674,-216.186"/>
</g>
<!-- Node20 -->
<g id="node8" class="node"><title>Node20</title>
<g id="a_node8"><a xlink:href="classSeeSawN_1_1NumericN_1_1ComplexityEstimatorC.html#aef84e97a1c644a791d80e862a4866bd3" target="_top" xlink:title="Estimates the cost for . ">
<polygon fill="white" stroke="black" points="348,-120.5 348,-161.5 462,-161.5 462,-120.5 348,-120.5"/>
<text text-anchor="start" x="356" y="-149.5" font-family="FreeSans" font-size="10.00">SeeSawN::NumericN::</text>
<text text-anchor="start" x="356" y="-138.5" font-family="FreeSans" font-size="10.00">ComplexityEstimatorC</text>
<text text-anchor="middle" x="405" y="-127.5" font-family="FreeSans" font-size="10.00">::L2Norm</text>
</a>
</g>
</g>
<!-- Node19&#45;&gt;Node20 -->
<g id="edge7" class="edge"><title>Node19&#45;&gt;Node20</title>
<path fill="none" stroke="midnightblue" d="M295.381,-112.637C309.159,-116.234 323.887,-120.08 337.911,-123.742"/>
<polygon fill="midnightblue" stroke="midnightblue" points="337.414,-127.23 347.974,-126.37 339.183,-120.457 337.414,-127.23"/>
</g>
<!-- Node21 -->
<g id="node9" class="node"><title>Node21</title>
<g id="a_node9"><a xlink:href="classSeeSawN_1_1NumericN_1_1ComplexityEstimatorC.html#abb97af533d77462ee33df833965ffd5a" target="_top" xlink:title="Estimates the cost for the mean of a set of vectors. ">
<polygon fill="white" stroke="black" points="348,-60.5 348,-101.5 462,-101.5 462,-60.5 348,-60.5"/>
<text text-anchor="start" x="356" y="-89.5" font-family="FreeSans" font-size="10.00">SeeSawN::NumericN::</text>
<text text-anchor="start" x="356" y="-78.5" font-family="FreeSans" font-size="10.00">ComplexityEstimatorC</text>
<text text-anchor="middle" x="405" y="-67.5" font-family="FreeSans" font-size="10.00">::VectorSampleMean</text>
</a>
</g>
</g>
<!-- Node19&#45;&gt;Node21 -->
<g id="edge8" class="edge"><title>Node19&#45;&gt;Node21</title>
<path fill="none" stroke="midnightblue" d="M295.381,-91.3139C309.159,-90.0057 323.887,-88.6071 337.911,-87.2755"/>
<polygon fill="midnightblue" stroke="midnightblue" points="338.35,-90.7497 347.974,-86.32 337.688,-83.781 338.35,-90.7497"/>
</g>
<!-- Node24 -->
<g id="node12" class="node"><title>Node24</title>
<g id="a_node12"><a xlink:href="classSeeSawN_1_1NumericN_1_1ComplexityEstimatorC.html#ae6019608c5b316ec70493dbc405a3247" target="_top" xlink:title="Estimates the cost for . ">
<polygon fill="white" stroke="black" points="348,-0.5 348,-41.5 462,-41.5 462,-0.5 348,-0.5"/>
<text text-anchor="start" x="356" y="-29.5" font-family="FreeSans" font-size="10.00">SeeSawN::NumericN::</text>
<text text-anchor="start" x="356" y="-18.5" font-family="FreeSans" font-size="10.00">ComplexityEstimatorC</text>
<text text-anchor="middle" x="405" y="-7.5" font-family="FreeSans" font-size="10.00">::VectorAdd</text>
</a>
</g>
</g>
<!-- Node19&#45;&gt;Node24 -->
<g id="edge11" class="edge"><title>Node19&#45;&gt;Node24</title>
<path fill="none" stroke="midnightblue" d="M280.702,-76.4618C298.27,-68.4933 318.567,-59.3038 337,-51 340.791,-49.2922 344.704,-47.5325 348.646,-45.7617"/>
<polygon fill="midnightblue" stroke="midnightblue" points="350.164,-48.917 357.854,-41.6294 347.298,-42.5306 350.164,-48.917"/>
</g>
<!-- Node22 -->
<g id="node10" class="node"><title>Node22</title>
<g id="a_node10"><a xlink:href="classSeeSawN_1_1NumericN_1_1ComplexityEstimatorC.html#a53b9d3a5c77793e3865aeecbc1bd6b57" target="_top" xlink:title="Estimates the cost for . ">
<polygon fill="white" stroke="black" points="509,-90.5 509,-131.5 623,-131.5 623,-90.5 509,-90.5"/>
<text text-anchor="start" x="517" y="-119.5" font-family="FreeSans" font-size="10.00">SeeSawN::NumericN::</text>
<text text-anchor="start" x="517" y="-108.5" font-family="FreeSans" font-size="10.00">ComplexityEstimatorC</text>
<text text-anchor="middle" x="566" y="-97.5" font-family="FreeSans" font-size="10.00">::VectorAddAssign</text>
</a>
</g>
</g>
<!-- Node21&#45;&gt;Node22 -->
<g id="edge9" class="edge"><title>Node21&#45;&gt;Node22</title>
<path fill="none" stroke="midnightblue" d="M462.057,-91.5769C473.932,-93.8174 486.573,-96.2024 498.783,-98.5063"/>
<polygon fill="midnightblue" stroke="midnightblue" points="498.437,-102.003 508.913,-100.418 499.735,-95.124 498.437,-102.003"/>
</g>
<!-- Node23 -->
<g id="node11" class="node"><title>Node23</title>
<g id="a_node11"><a xlink:href="classSeeSawN_1_1NumericN_1_1ComplexityEstimatorC.html#a5837606cc6c79309f89a9e41034914ed" target="_top" xlink:title="Estimates the cost for . ">
<polygon fill="white" stroke="black" points="509,-30.5 509,-71.5 623,-71.5 623,-30.5 509,-30.5"/>
<text text-anchor="start" x="517" y="-59.5" font-family="FreeSans" font-size="10.00">SeeSawN::NumericN::</text>
<text text-anchor="start" x="517" y="-48.5" font-family="FreeSans" font-size="10.00">ComplexityEstimatorC</text>
<text text-anchor="middle" x="566" y="-37.5" font-family="FreeSans" font-size="10.00">::VectorScale</text>
</a>
</g>
</g>
<!-- Node21&#45;&gt;Node23 -->
<g id="edge10" class="edge"><title>Node21&#45;&gt;Node23</title>
<path fill="none" stroke="midnightblue" d="M462.057,-70.4231C473.932,-68.1826 486.573,-65.7976 498.783,-63.4937"/>
<polygon fill="midnightblue" stroke="midnightblue" points="499.735,-66.876 508.913,-61.5825 498.437,-59.9973 499.735,-66.876"/>
</g>
</g>
</svg>
