<?xml version="1.0" encoding="UTF-8" standalone="no"?>
<!DOCTYPE svg PUBLIC "-//W3C//DTD SVG 1.1//EN"
 "http://www.w3.org/Graphics/SVG/1.1/DTD/svg11.dtd">
<!-- Generated by graphviz version 2.38.0 (20140413.2041)
 -->
<!-- Title: SeeSawN::MetricsN::PseudoHuberLossC::operator() Pages: 1 -->
<svg width="547pt" height="110pt"
 viewBox="0.00 0.00 547.00 110.00" xmlns="http://www.w3.org/2000/svg" xmlns:xlink="http://www.w3.org/1999/xlink">
<g id="graph0" class="graph" transform="scale(1 1) rotate(0) translate(4 106)">
<title>SeeSawN::MetricsN::PseudoHuberLossC::operator()</title>
<polygon fill="white" stroke="none" points="-4,4 -4,-106 543,-106 543,4 -4,4"/>
<!-- Node22 -->
<g id="node1" class="node"><title>Node22</title>
<polygon fill="#bfbfbf" stroke="black" points="0,-36 0,-66 150,-66 150,-36 0,-36"/>
<text text-anchor="start" x="8" y="-54" font-family="FreeSans" font-size="10.00">SeeSawN::MetricsN::</text>
<text text-anchor="middle" x="75" y="-43" font-family="FreeSans" font-size="10.00">PseudoHuberLossC::operator()</text>
</g>
<!-- Node23 -->
<g id="node2" class="node"><title>Node23</title>
<g id="a_node2"><a xlink:href="classSeeSawN_1_1MetricsN_1_1PseudoHuberLossC.html#a98065aaceefe05b6ae7d969cf88356d0" target="_top" xlink:title="Sets the crossover and the scale parameters for the function. ">
<polygon fill="white" stroke="black" points="186,-36 186,-66 335,-66 335,-36 186,-36"/>
<text text-anchor="start" x="194" y="-54" font-family="FreeSans" font-size="10.00">SeeSawN::MetricsN::</text>
<text text-anchor="middle" x="260.5" y="-43" font-family="FreeSans" font-size="10.00">PseudoHuberLossC::Configure</text>
</a>
</g>
</g>
<!-- Node22&#45;&gt;Node23 -->
<g id="edge1" class="edge"><title>Node22&#45;&gt;Node23</title>
<path fill="none" stroke="midnightblue" d="M160.367,-51C168.828,-51 177.373,-51 185.712,-51"/>
<polygon fill="midnightblue" stroke="midnightblue" points="160.108,-47.5001 150.108,-51 160.108,-54.5001 160.108,-47.5001"/>
</g>
<!-- Node24 -->
<g id="node3" class="node"><title>Node24</title>
<g id="a_node3"><a xlink:href="namespaceSeeSawN_1_1UnitTestsN_1_1TestMetricsN.html#a8e2c82a6784407bbcc42999d649d5409" target="_top" xlink:title="SeeSawN::UnitTestsN\l::TestMetricsN::BOOST\l_AUTO_TEST_CASE">
<polygon fill="white" stroke="black" points="395.5,-60.5 395.5,-101.5 514.5,-101.5 514.5,-60.5 395.5,-60.5"/>
<text text-anchor="start" x="403.5" y="-89.5" font-family="FreeSans" font-size="10.00">SeeSawN::UnitTestsN</text>
<text text-anchor="start" x="403.5" y="-78.5" font-family="FreeSans" font-size="10.00">::TestMetricsN::BOOST</text>
<text text-anchor="middle" x="455" y="-67.5" font-family="FreeSans" font-size="10.00">_AUTO_TEST_CASE</text>
</a>
</g>
</g>
<!-- Node23&#45;&gt;Node24 -->
<g id="edge2" class="edge"><title>Node23&#45;&gt;Node24</title>
<path fill="none" stroke="midnightblue" d="M345.016,-64.0155C361.991,-66.6609 379.504,-69.3902 395.392,-71.8663"/>
<polygon fill="midnightblue" stroke="midnightblue" points="345.52,-60.5518 335.1,-62.4701 344.442,-67.4683 345.52,-60.5518"/>
</g>
<!-- Node25 -->
<g id="node4" class="node"><title>Node25</title>
<g id="a_node4"><a xlink:href="classSeeSawN_1_1MetricsN_1_1PseudoHuberLossC.html#a5bcb90d84a667d58beb97fa6b7f21f2e" target="_top" xlink:title="Constructor. ">
<polygon fill="white" stroke="black" points="371,-0.5 371,-41.5 539,-41.5 539,-0.5 371,-0.5"/>
<text text-anchor="start" x="379" y="-29.5" font-family="FreeSans" font-size="10.00">SeeSawN::MetricsN::</text>
<text text-anchor="start" x="379" y="-18.5" font-family="FreeSans" font-size="10.00">PseudoHuberLossC::PseudoHuber</text>
<text text-anchor="middle" x="455" y="-7.5" font-family="FreeSans" font-size="10.00">LossC</text>
</a>
</g>
</g>
<!-- Node23&#45;&gt;Node25 -->
<g id="edge3" class="edge"><title>Node23&#45;&gt;Node25</title>
<path fill="none" stroke="midnightblue" d="M345.046,-37.9798C353.587,-36.6489 362.262,-35.2968 370.799,-33.9664"/>
<polygon fill="midnightblue" stroke="midnightblue" points="344.442,-34.5317 335.1,-39.5299 345.52,-41.4482 344.442,-34.5317"/>
</g>
</g>
</svg>
