<?xml version="1.0" encoding="UTF-8" standalone="no"?>
<!DOCTYPE svg PUBLIC "-//W3C//DTD SVG 1.1//EN"
 "http://www.w3.org/Graphics/SVG/1.1/DTD/svg11.dtd">
<!-- Generated by graphviz version 2.38.0 (20140413.2041)
 -->
<!-- Title: SeeSawN::GeometryN::P2PfSolverC::operator() Pages: 1 -->
<svg width="298pt" height="39pt"
 viewBox="0.00 0.00 298.00 39.00" xmlns="http://www.w3.org/2000/svg" xmlns:xlink="http://www.w3.org/1999/xlink">
<g id="graph0" class="graph" transform="scale(1 1) rotate(0) translate(4 35)">
<title>SeeSawN::GeometryN::P2PfSolverC::operator()</title>
<polygon fill="white" stroke="none" points="-4,4 -4,-35 294,-35 294,4 -4,4"/>
<!-- Node45 -->
<g id="node1" class="node"><title>Node45</title>
<polygon fill="#bfbfbf" stroke="black" points="0,-0.5 0,-30.5 123,-30.5 123,-0.5 0,-0.5"/>
<text text-anchor="start" x="8" y="-18.5" font-family="FreeSans" font-size="10.00">SeeSawN::GeometryN</text>
<text text-anchor="middle" x="61.5" y="-7.5" font-family="FreeSans" font-size="10.00">::P2PfSolverC::operator()</text>
</g>
<!-- Node46 -->
<g id="node2" class="node"><title>Node46</title>
<g id="a_node2"><a xlink:href="group__Numerical.html#gaeb0c1b9709fce53c9a70f1163d938d3a" target="_top" xlink:title="Computes the roots of a real quadratic polynomial. ">
<polygon fill="white" stroke="black" points="159,-0.5 159,-30.5 290,-30.5 290,-0.5 159,-0.5"/>
<text text-anchor="start" x="167" y="-18.5" font-family="FreeSans" font-size="10.00">SeeSawN::NumericN::</text>
<text text-anchor="middle" x="224.5" y="-7.5" font-family="FreeSans" font-size="10.00">QuadraticPolynomialRoots</text>
</a>
</g>
</g>
<!-- Node45&#45;&gt;Node46 -->
<g id="edge1" class="edge"><title>Node45&#45;&gt;Node46</title>
<path fill="none" stroke="midnightblue" d="M123.367,-15.5C131.597,-15.5 140.119,-15.5 148.558,-15.5"/>
<polygon fill="midnightblue" stroke="midnightblue" points="148.787,-19.0001 158.787,-15.5 148.787,-12.0001 148.787,-19.0001"/>
</g>
</g>
</svg>
