<?xml version="1.0" encoding="UTF-8" standalone="no"?>
<!DOCTYPE svg PUBLIC "-//W3C//DTD SVG 1.1//EN"
 "http://www.w3.org/Graphics/SVG/1.1/DTD/svg11.dtd">
<!-- Generated by graphviz version 2.38.0 (20140413.2041)
 -->
<!-- Title: SeeSawN::OptimisationN::PDLHomographyKRKDecompositionProblemC::ComputeRelativeModelDistance Pages: 1 -->
<svg width="397pt" height="50pt"
 viewBox="0.00 0.00 397.00 50.00" xmlns="http://www.w3.org/2000/svg" xmlns:xlink="http://www.w3.org/1999/xlink">
<g id="graph0" class="graph" transform="scale(1 1) rotate(0) translate(4 46)">
<title>SeeSawN::OptimisationN::PDLHomographyKRKDecompositionProblemC::ComputeRelativeModelDistance</title>
<polygon fill="white" stroke="none" points="-4,4 -4,-46 393,-46 393,4 -4,4"/>
<!-- Node19 -->
<g id="node1" class="node"><title>Node19</title>
<polygon fill="#bfbfbf" stroke="black" points="0,-0.5 0,-41.5 203,-41.5 203,-0.5 0,-0.5"/>
<text text-anchor="start" x="8" y="-29.5" font-family="FreeSans" font-size="10.00">SeeSawN::OptimisationN</text>
<text text-anchor="start" x="8" y="-18.5" font-family="FreeSans" font-size="10.00">::PDLHomographyKRKDecomposition</text>
<text text-anchor="middle" x="101.5" y="-7.5" font-family="FreeSans" font-size="10.00">ProblemC::ComputeRelativeModelDistance</text>
</g>
<!-- Node20 -->
<g id="node2" class="node"><title>Node20</title>
<g id="a_node2"><a xlink:href="namespaceSeeSawN_1_1UnitTestsN_1_1TestOptimisationN.html#a227f13935ba80a39eaf1cd5e03355c2f" target="_top" xlink:title="SeeSawN::UnitTestsN\l::TestOptimisationN\l::BOOST_AUTO_TEST_CASE">
<polygon fill="white" stroke="black" points="239,-0.5 239,-41.5 389,-41.5 389,-0.5 239,-0.5"/>
<text text-anchor="start" x="247" y="-29.5" font-family="FreeSans" font-size="10.00">SeeSawN::UnitTestsN</text>
<text text-anchor="start" x="247" y="-18.5" font-family="FreeSans" font-size="10.00">::TestOptimisationN</text>
<text text-anchor="middle" x="314" y="-7.5" font-family="FreeSans" font-size="10.00">::BOOST_AUTO_TEST_CASE</text>
</a>
</g>
</g>
<!-- Node19&#45;&gt;Node20 -->
<g id="edge1" class="edge"><title>Node19&#45;&gt;Node20</title>
<path fill="none" stroke="midnightblue" d="M213.299,-21C221.956,-21 230.564,-21 238.886,-21"/>
<polygon fill="midnightblue" stroke="midnightblue" points="213.126,-17.5001 203.126,-21 213.126,-24.5001 213.126,-17.5001"/>
</g>
</g>
</svg>
