<?xml version="1.0" encoding="UTF-8" standalone="no"?>
<!DOCTYPE svg PUBLIC "-//W3C//DTD SVG 1.1//EN"
 "http://www.w3.org/Graphics/SVG/1.1/DTD/svg11.dtd">
<!-- Generated by graphviz version 2.38.0 (20140413.2041)
 -->
<!-- Title: SeeSawN::ApplicationN::InterfaceFeatureTrackerC::PruneMatcher Pages: 1 -->
<svg width="504pt" height="110pt"
 viewBox="0.00 0.00 504.00 110.00" xmlns="http://www.w3.org/2000/svg" xmlns:xlink="http://www.w3.org/1999/xlink">
<g id="graph0" class="graph" transform="scale(1 1) rotate(0) translate(4 106)">
<title>SeeSawN::ApplicationN::InterfaceFeatureTrackerC::PruneMatcher</title>
<polygon fill="white" stroke="none" points="-4,4 -4,-106 500,-106 500,4 -4,4"/>
<!-- Node12 -->
<g id="node1" class="node"><title>Node12</title>
<polygon fill="#bfbfbf" stroke="black" points="0,-30.5 0,-71.5 132,-71.5 132,-30.5 0,-30.5"/>
<text text-anchor="start" x="8" y="-59.5" font-family="FreeSans" font-size="10.00">SeeSawN::ApplicationN</text>
<text text-anchor="start" x="8" y="-48.5" font-family="FreeSans" font-size="10.00">::InterfaceFeatureTrackerC</text>
<text text-anchor="middle" x="66" y="-37.5" font-family="FreeSans" font-size="10.00">::PruneMatcher</text>
</g>
<!-- Node13 -->
<g id="node2" class="node"><title>Node13</title>
<g id="a_node2"><a xlink:href="classSeeSawN_1_1ApplicationN_1_1InterfaceFeatureTrackerC.html#ad25fe934540f046117733810186c00f9" target="_top" xlink:title="Makes a parameter object from a property tree. ">
<polygon fill="white" stroke="black" points="168,-60.5 168,-101.5 300,-101.5 300,-60.5 168,-60.5"/>
<text text-anchor="start" x="176" y="-89.5" font-family="FreeSans" font-size="10.00">SeeSawN::ApplicationN</text>
<text text-anchor="start" x="176" y="-78.5" font-family="FreeSans" font-size="10.00">::InterfaceFeatureTrackerC</text>
<text text-anchor="middle" x="234" y="-67.5" font-family="FreeSans" font-size="10.00">::MakeParameterObject</text>
</a>
</g>
</g>
<!-- Node12&#45;&gt;Node13 -->
<g id="edge1" class="edge"><title>Node12&#45;&gt;Node13</title>
<path fill="none" stroke="midnightblue" d="M142.114,-64.5748C150.681,-66.123 159.361,-67.6917 167.784,-69.214"/>
<polygon fill="midnightblue" stroke="midnightblue" points="142.594,-61.105 132.131,-62.7707 141.349,-67.9934 142.594,-61.105"/>
</g>
<!-- Node15 -->
<g id="node4" class="node"><title>Node15</title>
<g id="a_node4"><a xlink:href="classSeeSawN_1_1ApplicationN_1_1InterfaceFeatureTrackerC.html#ab45f1010ea265271129418f0d79465bd" target="_top" xlink:title="Makes a property tree from a parameter object. ">
<polygon fill="white" stroke="black" points="168,-0.5 168,-41.5 300,-41.5 300,-0.5 168,-0.5"/>
<text text-anchor="start" x="176" y="-29.5" font-family="FreeSans" font-size="10.00">SeeSawN::ApplicationN</text>
<text text-anchor="start" x="176" y="-18.5" font-family="FreeSans" font-size="10.00">::InterfaceFeatureTrackerC</text>
<text text-anchor="middle" x="234" y="-7.5" font-family="FreeSans" font-size="10.00">::MakeParameterTree</text>
</a>
</g>
</g>
<!-- Node12&#45;&gt;Node15 -->
<g id="edge3" class="edge"><title>Node12&#45;&gt;Node15</title>
<path fill="none" stroke="midnightblue" d="M142.114,-37.4252C150.681,-35.877 159.361,-34.3083 167.784,-32.786"/>
<polygon fill="midnightblue" stroke="midnightblue" points="141.349,-34.0066 132.131,-39.2293 142.594,-40.895 141.349,-34.0066"/>
</g>
<!-- Node14 -->
<g id="node3" class="node"><title>Node14</title>
<g id="a_node3"><a xlink:href="classSeeSawN_1_1ApplicationN_1_1InterfaceImageFeatureTrackingPipelineC.html#a64855882f38d56819bc17e7a314c7e4f" target="_top" xlink:title="Makes a parameter object from a property tree. ">
<polygon fill="white" stroke="black" points="336,-60.5 336,-101.5 496,-101.5 496,-60.5 336,-60.5"/>
<text text-anchor="start" x="344" y="-89.5" font-family="FreeSans" font-size="10.00">SeeSawN::ApplicationN</text>
<text text-anchor="start" x="344" y="-78.5" font-family="FreeSans" font-size="10.00">::InterfaceImageFeatureTracking</text>
<text text-anchor="middle" x="416" y="-67.5" font-family="FreeSans" font-size="10.00">PipelineC::MakeParameterObject</text>
</a>
</g>
</g>
<!-- Node13&#45;&gt;Node14 -->
<g id="edge2" class="edge"><title>Node13&#45;&gt;Node14</title>
<path fill="none" stroke="midnightblue" d="M310.4,-81C318.819,-81 327.412,-81 335.876,-81"/>
<polygon fill="midnightblue" stroke="midnightblue" points="310.239,-77.5001 300.239,-81 310.239,-84.5001 310.239,-77.5001"/>
</g>
<!-- Node16 -->
<g id="node5" class="node"><title>Node16</title>
<g id="a_node5"><a xlink:href="classSeeSawN_1_1ApplicationN_1_1InterfaceImageFeatureTrackingPipelineC.html#a893ec7ea11e98e77751cf4bf60236a57" target="_top" xlink:title="Makes a property tree from a parameter object. ">
<polygon fill="white" stroke="black" points="337.5,-0.5 337.5,-41.5 494.5,-41.5 494.5,-0.5 337.5,-0.5"/>
<text text-anchor="start" x="345.5" y="-29.5" font-family="FreeSans" font-size="10.00">SeeSawN::ApplicationN</text>
<text text-anchor="start" x="345.5" y="-18.5" font-family="FreeSans" font-size="10.00">::InterfaceImageFeatureTracking</text>
<text text-anchor="middle" x="416" y="-7.5" font-family="FreeSans" font-size="10.00">PipelineC::MakeParameterTree</text>
</a>
</g>
</g>
<!-- Node15&#45;&gt;Node16 -->
<g id="edge4" class="edge"><title>Node15&#45;&gt;Node16</title>
<path fill="none" stroke="midnightblue" d="M310.267,-21C319.243,-21 328.42,-21 337.427,-21"/>
<polygon fill="midnightblue" stroke="midnightblue" points="310.239,-17.5001 300.239,-21 310.239,-24.5001 310.239,-17.5001"/>
</g>
</g>
</svg>
