<?xml version="1.0" encoding="UTF-8" standalone="no"?>
<!DOCTYPE svg PUBLIC "-//W3C//DTD SVG 1.1//EN"
 "http://www.w3.org/Graphics/SVG/1.1/DTD/svg11.dtd">
<!-- Generated by graphviz version 2.38.0 (20140413.2041)
 -->
<!-- Title: SeeSawN::RandomSpanningTreeSamplerN::RSTSRatioRegistrationProblemC::GenerateModel Pages: 1 -->
<svg width="382pt" height="50pt"
 viewBox="0.00 0.00 382.00 50.00" xmlns="http://www.w3.org/2000/svg" xmlns:xlink="http://www.w3.org/1999/xlink">
<g id="graph0" class="graph" transform="scale(1 1) rotate(0) translate(4 46)">
<title>SeeSawN::RandomSpanningTreeSamplerN::RSTSRatioRegistrationProblemC::GenerateModel</title>
<polygon fill="white" stroke="none" points="-4,4 -4,-46 378,-46 378,4 -4,4"/>
<!-- Node21 -->
<g id="node1" class="node"><title>Node21</title>
<polygon fill="#bfbfbf" stroke="black" points="0,-0.5 0,-41.5 165,-41.5 165,-0.5 0,-0.5"/>
<text text-anchor="start" x="8" y="-29.5" font-family="FreeSans" font-size="10.00">SeeSawN::RandomSpanningTree</text>
<text text-anchor="start" x="8" y="-18.5" font-family="FreeSans" font-size="10.00">SamplerN::RSTSRatioRegistration</text>
<text text-anchor="middle" x="82.5" y="-7.5" font-family="FreeSans" font-size="10.00">ProblemC::GenerateModel</text>
</g>
<!-- Node22 -->
<g id="node2" class="node"><title>Node22</title>
<g id="a_node2"><a xlink:href="namespaceSeeSawN_1_1UnitTestsN_1_1TestRandomSpanningTreeSamplerN.html#a51006bdde4dc2743e234d76b0e6769b7" target="_top" xlink:title="SeeSawN::UnitTestsN\l::TestRandomSpanningTreeSampler\lN::BOOST_AUTO_TEST_CASE">
<polygon fill="white" stroke="black" points="201,-0.5 201,-41.5 374,-41.5 374,-0.5 201,-0.5"/>
<text text-anchor="start" x="209" y="-29.5" font-family="FreeSans" font-size="10.00">SeeSawN::UnitTestsN</text>
<text text-anchor="start" x="209" y="-18.5" font-family="FreeSans" font-size="10.00">::TestRandomSpanningTreeSampler</text>
<text text-anchor="middle" x="287.5" y="-7.5" font-family="FreeSans" font-size="10.00">N::BOOST_AUTO_TEST_CASE</text>
</a>
</g>
</g>
<!-- Node21&#45;&gt;Node22 -->
<g id="edge1" class="edge"><title>Node21&#45;&gt;Node22</title>
<path fill="none" stroke="midnightblue" d="M175.21,-21C183.795,-21 192.474,-21 200.999,-21"/>
<polygon fill="midnightblue" stroke="midnightblue" points="175.19,-17.5001 165.19,-21 175.19,-24.5001 175.19,-17.5001"/>
</g>
</g>
</svg>
