<?xml version="1.0" encoding="UTF-8" standalone="no"?>
<!DOCTYPE svg PUBLIC "-//W3C//DTD SVG 1.1//EN"
 "http://www.w3.org/Graphics/SVG/1.1/DTD/svg11.dtd">
<!-- Generated by graphviz version 2.38.0 (20140413.2041)
 -->
<!-- Title: SeeSawN::AppIntrinsicsEstimatorN::AppIntrinsicsEstimatorImplementationC Pages: 1 -->
<svg width="1169pt" height="965pt"
 viewBox="0.00 0.00 1169.00 965.00" xmlns="http://www.w3.org/2000/svg" xmlns:xlink="http://www.w3.org/1999/xlink">
<g id="graph0" class="graph" transform="scale(1 1) rotate(0) translate(4 961)">
<title>SeeSawN::AppIntrinsicsEstimatorN::AppIntrinsicsEstimatorImplementationC</title>
<polygon fill="white" stroke="none" points="-4,4 -4,-961 1165,-961 1165,4 -4,4"/>
<!-- Node1 -->
<g id="node1" class="node"><title>Node1</title>
<polygon fill="#bfbfbf" stroke="black" points="261,-0.5 261,-178.5 461,-178.5 461,-0.5 261,-0.5"/>
<text text-anchor="start" x="269" y="-166.5" font-family="FreeSans" font-size="10.00">SeeSawN::AppIntrinsicsEstimator</text>
<text text-anchor="middle" x="361" y="-155.5" font-family="FreeSans" font-size="10.00">N::AppIntrinsicsEstimatorImplementationC</text>
<polyline fill="none" stroke="black" points="261,-148.5 461,-148.5 "/>
<text text-anchor="middle" x="361" y="-136.5" font-family="FreeSans" font-size="10.00"> </text>
<polyline fill="none" stroke="black" points="261,-129.5 461,-129.5 "/>
<text text-anchor="start" x="269" y="-117.5" font-family="FreeSans" font-size="10.00">&#45; LoadData()</text>
<text text-anchor="start" x="269" y="-106.5" font-family="FreeSans" font-size="10.00">&#45; SaveLog()</text>
<text text-anchor="start" x="269" y="-95.5" font-family="FreeSans" font-size="10.00">&#45; SaveOutput()</text>
<text text-anchor="start" x="269" y="-84.5" font-family="FreeSans" font-size="10.00">* LoadData()</text>
<text text-anchor="start" x="269" y="-73.5" font-family="FreeSans" font-size="10.00">* SaveLog()</text>
<text text-anchor="start" x="269" y="-62.5" font-family="FreeSans" font-size="10.00">* SaveOutput()</text>
<text text-anchor="start" x="269" y="-51.5" font-family="FreeSans" font-size="10.00">* AppIntrinsicsEstimatorImplementationC()</text>
<text text-anchor="start" x="269" y="-40.5" font-family="FreeSans" font-size="10.00">* GetCommandLineOptions()</text>
<text text-anchor="start" x="269" y="-29.5" font-family="FreeSans" font-size="10.00">* SetParameters()</text>
<text text-anchor="start" x="269" y="-18.5" font-family="FreeSans" font-size="10.00">* Run()</text>
<text text-anchor="start" x="269" y="-7.5" font-family="FreeSans" font-size="10.00">* GenerateConfigFile()</text>
</g>
<!-- Node2 -->
<g id="node2" class="node"><title>Node2</title>
<polygon fill="white" stroke="#bfbfbf" points="114,-226.5 114,-294.5 224,-294.5 224,-226.5 114,-226.5"/>
<text text-anchor="start" x="122" y="-282.5" font-family="FreeSans" font-size="10.00">std::auto_ptr&lt; options</text>
<text text-anchor="middle" x="169" y="-271.5" font-family="FreeSans" font-size="10.00">_description &gt;</text>
<polyline fill="none" stroke="#bfbfbf" points="114,-264.5 224,-264.5 "/>
<text text-anchor="middle" x="169" y="-252.5" font-family="FreeSans" font-size="10.00"> </text>
<polyline fill="none" stroke="#bfbfbf" points="114,-245.5 224,-245.5 "/>
<text text-anchor="start" x="122" y="-233.5" font-family="FreeSans" font-size="10.00">+ operator&#45;&gt;()</text>
</g>
<!-- Node2&#45;&gt;Node1 -->
<g id="edge1" class="edge"><title>Node2&#45;&gt;Node1</title>
<path fill="none" stroke="#404040" d="M206.933,-226.111C219.997,-214.612 235.359,-201.09 251.234,-187.117"/>
<polygon fill="none" stroke="#404040" points="251.619,-186.778 253.48,-179.811 260.627,-178.85 258.766,-185.816 251.619,-186.778"/>
<text text-anchor="middle" x="287.5" y="-200" font-family="FreeSans" font-size="10.00"> &#45;commandLineOptions</text>
</g>
<!-- Node3 -->
<g id="node3" class="node"><title>Node3</title>
<polygon fill="white" stroke="#bfbfbf" points="115.5,-403 115.5,-460 216.5,-460 216.5,-403 115.5,-403"/>
<text text-anchor="middle" x="166" y="-448" font-family="FreeSans" font-size="10.00">options_description</text>
<polyline fill="none" stroke="#bfbfbf" points="115.5,-441 216.5,-441 "/>
<text text-anchor="middle" x="166" y="-429" font-family="FreeSans" font-size="10.00"> </text>
<polyline fill="none" stroke="#bfbfbf" points="115.5,-422 216.5,-422 "/>
<text text-anchor="middle" x="166" y="-410" font-family="FreeSans" font-size="10.00"> </text>
</g>
<!-- Node3&#45;&gt;Node2 -->
<g id="edge2" class="edge"><title>Node3&#45;&gt;Node2</title>
<path fill="none" stroke="#404040" d="M166.489,-402.971C166.951,-376.912 167.654,-337.322 168.199,-306.643"/>
<polygon fill="none" stroke="#404040" points="168.201,-306.527 164.308,-300.457 168.414,-294.529 172.307,-300.599 168.201,-306.527"/>
<text text-anchor="middle" x="179" y="-338" font-family="FreeSans" font-size="10.00"> +ptr</text>
</g>
<!-- Node4 -->
<g id="node4" class="node"><title>Node4</title>
<g id="a_node4"><a xlink:title="STL class. ">
<polygon fill="white" stroke="#bfbfbf" points="0,-403 0,-460 92,-460 92,-403 0,-403"/>
<text text-anchor="middle" x="46" y="-448" font-family="FreeSans" font-size="10.00">std::auto_ptr&lt; T &gt;</text>
<polyline fill="none" stroke="#bfbfbf" points="0,-441 92,-441 "/>
<text text-anchor="middle" x="46" y="-429" font-family="FreeSans" font-size="10.00"> </text>
<polyline fill="none" stroke="#bfbfbf" points="0,-422 92,-422 "/>
<text text-anchor="start" x="8" y="-410" font-family="FreeSans" font-size="10.00">+ operator&#45;&gt;()</text>
</a>
</g>
</g>
<!-- Node4&#45;&gt;Node2 -->
<g id="edge3" class="edge"><title>Node4&#45;&gt;Node2</title>
<path fill="none" stroke="orange" d="M41.9966,-392.459C41.372,-367.637 44.5437,-335.741 61,-313 73.7866,-295.33 94.2528,-283.491 113.948,-275.673"/>
<polygon fill="orange" stroke="orange" points="38.5081,-392.791 42.4691,-402.617 45.5006,-392.465 38.5081,-392.791"/>
<text text-anchor="middle" x="112.5" y="-338" font-family="FreeSans" font-size="10.00"> &lt; options_description &gt;</text>
</g>
<!-- Node5 -->
<g id="node5" class="node"><title>Node5</title>
<polygon fill="white" stroke="#bfbfbf" points="128.5,-557.5 128.5,-614.5 157.5,-614.5 157.5,-557.5 128.5,-557.5"/>
<text text-anchor="middle" x="143" y="-602.5" font-family="FreeSans" font-size="10.00">T</text>
<polyline fill="none" stroke="#bfbfbf" points="128.5,-595.5 157.5,-595.5 "/>
<text text-anchor="middle" x="143" y="-583.5" font-family="FreeSans" font-size="10.00"> </text>
<polyline fill="none" stroke="#bfbfbf" points="128.5,-576.5 157.5,-576.5 "/>
<text text-anchor="middle" x="143" y="-564.5" font-family="FreeSans" font-size="10.00"> </text>
</g>
<!-- Node5&#45;&gt;Node4 -->
<g id="edge4" class="edge"><title>Node5&#45;&gt;Node4</title>
<path fill="none" stroke="#404040" d="M128.478,-562.169C113.039,-537.896 88.3682,-499.11 70.026,-470.273"/>
<polygon fill="none" stroke="#404040" points="70.0239,-470.27 63.4286,-467.354 63.5835,-460.144 70.1788,-463.06 70.0239,-470.27"/>
<text text-anchor="middle" x="108" y="-503.5" font-family="FreeSans" font-size="10.00"> +ptr</text>
</g>
<!-- Node10 -->
<g id="node10" class="node"><title>Node10</title>
<g id="a_node10"><a xlink:title="STL class. ">
<polygon fill="white" stroke="#bfbfbf" points="235,-403 235,-460 323,-460 323,-403 235,-403"/>
<text text-anchor="middle" x="279" y="-448" font-family="FreeSans" font-size="10.00">std::map&lt; K, T &gt;</text>
<polyline fill="none" stroke="#bfbfbf" points="235,-441 323,-441 "/>
<text text-anchor="middle" x="279" y="-429" font-family="FreeSans" font-size="10.00"> </text>
<polyline fill="none" stroke="#bfbfbf" points="235,-422 323,-422 "/>
<text text-anchor="middle" x="279" y="-410" font-family="FreeSans" font-size="10.00"> </text>
</a>
</g>
</g>
<!-- Node5&#45;&gt;Node10 -->
<g id="edge11" class="edge"><title>Node5&#45;&gt;Node10</title>
<path fill="none" stroke="#404040" d="M157.554,-568.68C178.572,-545.112 217.993,-500.909 246.224,-469.253"/>
<polygon fill="none" stroke="#404040" points="246.241,-469.233 247.25,-462.093 254.228,-460.277 253.22,-467.417 246.241,-469.233"/>
<text text-anchor="middle" x="248.5" y="-503.5" font-family="FreeSans" font-size="10.00"> +elements</text>
</g>
<!-- Node6 -->
<g id="node6" class="node"><title>Node6</title>
<polygon fill="white" stroke="#bfbfbf" points="297,-232 297,-289 425,-289 425,-232 297,-232"/>
<text text-anchor="middle" x="361" y="-277" font-family="FreeSans" font-size="10.00">std::map&lt; string, double &gt;</text>
<polyline fill="none" stroke="#bfbfbf" points="297,-270 425,-270 "/>
<text text-anchor="middle" x="361" y="-258" font-family="FreeSans" font-size="10.00"> </text>
<polyline fill="none" stroke="#bfbfbf" points="297,-251 425,-251 "/>
<text text-anchor="middle" x="361" y="-239" font-family="FreeSans" font-size="10.00"> </text>
</g>
<!-- Node6&#45;&gt;Node1 -->
<g id="edge5" class="edge"><title>Node6&#45;&gt;Node1</title>
<path fill="none" stroke="#404040" d="M361,-231.971C361,-220.31 361,-205.94 361,-190.872"/>
<polygon fill="none" stroke="#404040" points="361,-190.676 357,-184.676 361,-178.676 365,-184.676 361,-190.676"/>
<text text-anchor="middle" x="377" y="-200" font-family="FreeSans" font-size="10.00"> &#45;logger</text>
</g>
<!-- Node7 -->
<g id="node7" class="node"><title>Node7</title>
<polygon fill="white" stroke="#bfbfbf" points="496.5,-794.5 496.5,-851.5 541.5,-851.5 541.5,-794.5 496.5,-794.5"/>
<text text-anchor="middle" x="519" y="-839.5" font-family="FreeSans" font-size="10.00">double</text>
<polyline fill="none" stroke="#bfbfbf" points="496.5,-832.5 541.5,-832.5 "/>
<text text-anchor="middle" x="519" y="-820.5" font-family="FreeSans" font-size="10.00"> </text>
<polyline fill="none" stroke="#bfbfbf" points="496.5,-813.5 541.5,-813.5 "/>
<text text-anchor="middle" x="519" y="-801.5" font-family="FreeSans" font-size="10.00"> </text>
</g>
<!-- Node7&#45;&gt;Node6 -->
<g id="edge6" class="edge"><title>Node7&#45;&gt;Node6</title>
<path fill="none" stroke="#404040" d="M496.304,-801.009C463.666,-769.186 404.692,-705.18 380,-637 338.047,-521.156 347.63,-372.006 355.56,-301.639"/>
<polygon fill="none" stroke="#404040" points="355.593,-301.359 352.328,-294.929 357.008,-289.443 360.272,-295.873 355.593,-301.359"/>
<text text-anchor="middle" x="378.5" y="-503.5" font-family="FreeSans" font-size="10.00"> +elements</text>
</g>
<!-- Node14 -->
<g id="node14" class="node"><title>Node14</title>
<g id="a_node14"><a xlink:href="structSeeSawN_1_1GeometryN_1_1LinearAutocalibrationPipelineParametersC.html" target="_top" xlink:title="Parameters for LinearAutocalibrationPipelineC. ">
<polygon fill="white" stroke="black" points="616.5,-386.5 616.5,-476.5 767.5,-476.5 767.5,-386.5 616.5,-386.5"/>
<text text-anchor="start" x="624.5" y="-464.5" font-family="FreeSans" font-size="10.00">SeeSawN::GeometryN</text>
<text text-anchor="start" x="624.5" y="-453.5" font-family="FreeSans" font-size="10.00">::LinearAutocalibrationPipeline</text>
<text text-anchor="middle" x="692" y="-442.5" font-family="FreeSans" font-size="10.00">ParametersC</text>
<polyline fill="none" stroke="black" points="616.5,-435.5 767.5,-435.5 "/>
<text text-anchor="middle" x="692" y="-423.5" font-family="FreeSans" font-size="10.00"> </text>
<polyline fill="none" stroke="black" points="616.5,-416.5 767.5,-416.5 "/>
<text text-anchor="start" x="624.5" y="-404.5" font-family="FreeSans" font-size="10.00">+ LinearAutocalibrationPipeline</text>
<text text-anchor="start" x="624.5" y="-393.5" font-family="FreeSans" font-size="10.00">ParametersC()</text>
</a>
</g>
</g>
<!-- Node7&#45;&gt;Node14 -->
<g id="edge15" class="edge"><title>Node7&#45;&gt;Node14</title>
<path fill="none" stroke="#404040" d="M511.846,-794.405C499.483,-740.429 479.798,-618.842 528,-535 545.364,-504.798 575.593,-482.24 605.406,-466.091"/>
<polygon fill="none" stroke="#404040" points="605.689,-465.945 609.179,-459.635 616.346,-460.43 612.856,-466.74 605.689,-465.945"/>
<text text-anchor="middle" x="548" y="-583.5" font-family="FreeSans" font-size="10.00"> +inlierTh</text>
</g>
<!-- Node16 -->
<g id="node16" class="node"><title>Node16</title>
<g id="a_node16"><a xlink:href="structSeeSawN_1_1RANSACN_1_1RANSACParametersC.html" target="_top" xlink:title="Parameters for RANSACC. ">
<polygon fill="white" stroke="black" points="577.5,-535.5 577.5,-636.5 794.5,-636.5 794.5,-535.5 577.5,-535.5"/>
<text text-anchor="middle" x="686" y="-624.5" font-family="FreeSans" font-size="10.00">SeeSawN::RANSACN::RANSACParametersC</text>
<polyline fill="none" stroke="black" points="577.5,-617.5 794.5,-617.5 "/>
<text text-anchor="middle" x="686" y="-605.5" font-family="FreeSans" font-size="10.00"> </text>
<polyline fill="none" stroke="black" points="577.5,-598.5 794.5,-598.5 "/>
<text text-anchor="start" x="585.5" y="-586.5" font-family="FreeSans" font-size="10.00">+ RANSACParametersC()</text>
<text text-anchor="start" x="585.5" y="-575.5" font-family="FreeSans" font-size="10.00">* minObservationSupport</text>
<text text-anchor="start" x="585.5" y="-564.5" font-family="FreeSans" font-size="10.00">* delta</text>
<text text-anchor="start" x="585.5" y="-553.5" font-family="FreeSans" font-size="10.00">* maxDeltaTolerance</text>
<text text-anchor="start" x="585.5" y="-542.5" font-family="FreeSans" font-size="10.00">* minCoverage</text>
</a>
</g>
</g>
<!-- Node7&#45;&gt;Node16 -->
<g id="edge18" class="edge"><title>Node7&#45;&gt;Node16</title>
<path fill="none" stroke="#404040" d="M528.409,-794.249C543.654,-749.751 572.958,-666.268 582,-655 584.797,-651.514 587.823,-648.147 591.022,-644.902"/>
<polygon fill="none" stroke="#404040" points="591.111,-644.819 592.744,-637.795 599.856,-636.602 598.222,-643.625 591.111,-644.819"/>
<text text-anchor="middle" x="627.5" y="-768" font-family="FreeSans" font-size="10.00"> +minModelSimilarity</text>
<text text-anchor="middle" x="627.5" y="-757" font-family="FreeSans" font-size="10.00">+maxErrorRatio</text>
<text text-anchor="middle" x="627.5" y="-746" font-family="FreeSans" font-size="10.00">+eligibilityRatio</text>
<text text-anchor="middle" x="627.5" y="-735" font-family="FreeSans" font-size="10.00">+diversityFactor</text>
<text text-anchor="middle" x="627.5" y="-724" font-family="FreeSans" font-size="10.00">+growthRate</text>
<text text-anchor="middle" x="627.5" y="-713" font-family="FreeSans" font-size="10.00">+maxError</text>
<text text-anchor="middle" x="627.5" y="-702" font-family="FreeSans" font-size="10.00">+parsimonyFactor</text>
<text text-anchor="middle" x="627.5" y="-691" font-family="FreeSans" font-size="10.00">+minConfidence</text>
<text text-anchor="middle" x="627.5" y="-680" font-family="FreeSans" font-size="10.00">+epsilon</text>
<text text-anchor="middle" x="627.5" y="-669" font-family="FreeSans" font-size="10.00">+minError</text>
<text text-anchor="middle" x="627.5" y="-658" font-family="FreeSans" font-size="10.00">...</text>
</g>
<!-- Node8 -->
<g id="node8" class="node"><title>Node8</title>
<g id="a_node8"><a xlink:title="STL class. ">
<polygon fill="white" stroke="#bfbfbf" points="397.5,-403 397.5,-460 456.5,-460 456.5,-403 397.5,-403"/>
<text text-anchor="middle" x="427" y="-448" font-family="FreeSans" font-size="10.00">std::string</text>
<polyline fill="none" stroke="#bfbfbf" points="397.5,-441 456.5,-441 "/>
<text text-anchor="middle" x="427" y="-429" font-family="FreeSans" font-size="10.00"> </text>
<polyline fill="none" stroke="#bfbfbf" points="397.5,-422 456.5,-422 "/>
<text text-anchor="middle" x="427" y="-410" font-family="FreeSans" font-size="10.00"> </text>
</a>
</g>
</g>
<!-- Node8&#45;&gt;Node6 -->
<g id="edge7" class="edge"><title>Node8&#45;&gt;Node6</title>
<path fill="none" stroke="#404040" d="M416.249,-402.971C405.366,-375.105 388.441,-331.765 376.19,-300.396"/>
<polygon fill="none" stroke="#404040" points="376.112,-300.195 370.203,-296.061 371.746,-289.017 377.655,-293.151 376.112,-300.195"/>
<text text-anchor="middle" x="416.5" y="-338" font-family="FreeSans" font-size="10.00"> +keys</text>
</g>
<!-- Node9 -->
<g id="node9" class="node"><title>Node9</title>
<g id="a_node9"><a xlink:title="STL class. ">
<polygon fill="white" stroke="#bfbfbf" points="389.5,-552 389.5,-620 482.5,-620 482.5,-552 389.5,-552"/>
<text text-anchor="start" x="397.5" y="-608" font-family="FreeSans" font-size="10.00">std::basic_string&lt;</text>
<text text-anchor="middle" x="436" y="-597" font-family="FreeSans" font-size="10.00"> char &gt;</text>
<polyline fill="none" stroke="#bfbfbf" points="389.5,-590 482.5,-590 "/>
<text text-anchor="middle" x="436" y="-578" font-family="FreeSans" font-size="10.00"> </text>
<polyline fill="none" stroke="#bfbfbf" points="389.5,-571 482.5,-571 "/>
<text text-anchor="middle" x="436" y="-559" font-family="FreeSans" font-size="10.00"> </text>
</a>
</g>
</g>
<!-- Node9&#45;&gt;Node8 -->
<g id="edge8" class="edge"><title>Node9&#45;&gt;Node8</title>
<path fill="none" stroke="midnightblue" d="M433.455,-541.885C431.914,-515.76 429.992,-483.192 428.647,-460.415"/>
<polygon fill="none" stroke="midnightblue" points="429.964,-542.133 434.047,-551.91 436.952,-541.721 429.964,-542.133"/>
</g>
<!-- Node10&#45;&gt;Node6 -->
<g id="edge9" class="edge"><title>Node10&#45;&gt;Node6</title>
<path fill="none" stroke="orange" d="M265.714,-393.219C259.412,-368.803 255.961,-337.077 270,-313 276.401,-302.023 286.105,-293.198 296.828,-286.17"/>
<polygon fill="orange" stroke="orange" points="262.351,-394.188 268.444,-402.855 269.086,-392.28 262.351,-394.188"/>
<text text-anchor="middle" x="308.5" y="-338" font-family="FreeSans" font-size="10.00"> &lt; string, double &gt;</text>
</g>
<!-- Node11 -->
<g id="node11" class="node"><title>Node11</title>
<polygon fill="white" stroke="#bfbfbf" points="264.5,-557.5 264.5,-614.5 293.5,-614.5 293.5,-557.5 264.5,-557.5"/>
<text text-anchor="middle" x="279" y="-602.5" font-family="FreeSans" font-size="10.00">K</text>
<polyline fill="none" stroke="#bfbfbf" points="264.5,-595.5 293.5,-595.5 "/>
<text text-anchor="middle" x="279" y="-583.5" font-family="FreeSans" font-size="10.00"> </text>
<polyline fill="none" stroke="#bfbfbf" points="264.5,-576.5 293.5,-576.5 "/>
<text text-anchor="middle" x="279" y="-564.5" font-family="FreeSans" font-size="10.00"> </text>
</g>
<!-- Node11&#45;&gt;Node10 -->
<g id="edge10" class="edge"><title>Node11&#45;&gt;Node10</title>
<path fill="none" stroke="#404040" d="M279,-557.383C279,-533.598 279,-498.977 279,-472.217"/>
<polygon fill="none" stroke="#404040" points="279,-472.168 275,-466.168 279,-460.168 283,-466.168 279,-472.168"/>
<text text-anchor="middle" x="293.5" y="-503.5" font-family="FreeSans" font-size="10.00"> +keys</text>
</g>
<!-- Node12 -->
<g id="node12" class="node"><title>Node12</title>
<g id="a_node12"><a xlink:href="structSeeSawN_1_1AppIntrinsicsEstimatorN_1_1AppIntrinsicsEstimatorParametersC.html" target="_top" xlink:title="Parameters for intrinsicsEstimator. ">
<polygon fill="white" stroke="black" points="774,-226.5 774,-294.5 960,-294.5 960,-226.5 774,-226.5"/>
<text text-anchor="start" x="782" y="-282.5" font-family="FreeSans" font-size="10.00">SeeSawN::AppIntrinsicsEstimator</text>
<text text-anchor="middle" x="867" y="-271.5" font-family="FreeSans" font-size="10.00">N::AppIntrinsicsEstimatorParametersC</text>
<polyline fill="none" stroke="black" points="774,-264.5 960,-264.5 "/>
<text text-anchor="middle" x="867" y="-252.5" font-family="FreeSans" font-size="10.00"> </text>
<polyline fill="none" stroke="black" points="774,-245.5 960,-245.5 "/>
<text text-anchor="start" x="782" y="-233.5" font-family="FreeSans" font-size="10.00">+ AppIntrinsicsEstimatorParametersC()</text>
</a>
</g>
</g>
<!-- Node12&#45;&gt;Node1 -->
<g id="edge12" class="edge"><title>Node12&#45;&gt;Node1</title>
<path fill="none" stroke="#404040" d="M773.897,-228.404C688.905,-200.018 563.119,-158.006 472.734,-127.818"/>
<polygon fill="none" stroke="#404040" points="472.719,-127.813 465.761,-129.707 461.337,-124.012 468.295,-122.119 472.719,-127.813"/>
<text text-anchor="middle" x="731.5" y="-200" font-family="FreeSans" font-size="10.00"> &#45;parameters</text>
</g>
<!-- Node13 -->
<g id="node13" class="node"><title>Node13</title>
<polygon fill="white" stroke="#bfbfbf" points="788.5,-403 788.5,-460 829.5,-460 829.5,-403 788.5,-403"/>
<text text-anchor="middle" x="809" y="-448" font-family="FreeSans" font-size="10.00">string</text>
<polyline fill="none" stroke="#bfbfbf" points="788.5,-441 829.5,-441 "/>
<text text-anchor="middle" x="809" y="-429" font-family="FreeSans" font-size="10.00"> </text>
<polyline fill="none" stroke="#bfbfbf" points="788.5,-422 829.5,-422 "/>
<text text-anchor="middle" x="809" y="-410" font-family="FreeSans" font-size="10.00"> </text>
</g>
<!-- Node13&#45;&gt;Node12 -->
<g id="edge13" class="edge"><title>Node13&#45;&gt;Node12</title>
<path fill="none" stroke="#404040" d="M803.143,-402.569C799.349,-377.88 797.208,-341.47 810,-313 811.362,-309.968 812.999,-307.039 814.845,-304.22"/>
<polygon fill="none" stroke="#404040" points="814.998,-304.022 815.492,-296.827 822.322,-294.516 821.829,-301.71 814.998,-304.022"/>
<text text-anchor="middle" x="860.5" y="-360" font-family="FreeSans" font-size="10.00"> +homographyFilename</text>
<text text-anchor="middle" x="860.5" y="-349" font-family="FreeSans" font-size="10.00">+cameraFilename</text>
<text text-anchor="middle" x="860.5" y="-338" font-family="FreeSans" font-size="10.00">+inputFilename</text>
<text text-anchor="middle" x="860.5" y="-327" font-family="FreeSans" font-size="10.00">+logFilename</text>
<text text-anchor="middle" x="860.5" y="-316" font-family="FreeSans" font-size="10.00">+outputPath</text>
</g>
<!-- Node14&#45;&gt;Node12 -->
<g id="edge14" class="edge"><title>Node14&#45;&gt;Node12</title>
<path fill="none" stroke="#404040" d="M685.99,-386.418C685.149,-362.234 688.477,-333.159 705,-313 719.656,-295.118 740.514,-283.358 762.405,-275.647"/>
<polygon fill="none" stroke="#404040" points="762.487,-275.621 766.988,-269.986 773.92,-271.973 769.42,-277.608 762.487,-275.621"/>
<text text-anchor="middle" x="751" y="-338" font-family="FreeSans" font-size="10.00"> +pipelineParameters</text>
</g>
<!-- Node15 -->
<g id="node15" class="node"><title>Node15</title>
<polygon fill="white" stroke="#bfbfbf" points="917.5,-794.5 917.5,-851.5 946.5,-851.5 946.5,-794.5 917.5,-794.5"/>
<text text-anchor="middle" x="932" y="-839.5" font-family="FreeSans" font-size="10.00">int</text>
<polyline fill="none" stroke="#bfbfbf" points="917.5,-832.5 946.5,-832.5 "/>
<text text-anchor="middle" x="932" y="-820.5" font-family="FreeSans" font-size="10.00"> </text>
<polyline fill="none" stroke="#bfbfbf" points="917.5,-813.5 946.5,-813.5 "/>
<text text-anchor="middle" x="932" y="-801.5" font-family="FreeSans" font-size="10.00"> </text>
</g>
<!-- Node15&#45;&gt;Node12 -->
<g id="edge23" class="edge"><title>Node15&#45;&gt;Node12</title>
<path fill="none" stroke="#404040" d="M941.051,-794.447C958.387,-738.186 993.263,-606.036 978,-495 966.56,-411.778 972.144,-383.844 927,-313 924.897,-309.701 922.519,-306.498 919.953,-303.41"/>
<polygon fill="none" stroke="#404040" points="919.898,-303.35 912.893,-301.64 911.778,-294.515 918.783,-296.226 919.898,-303.35"/>
<text text-anchor="middle" x="995" y="-503.5" font-family="FreeSans" font-size="10.00"> +seed</text>
</g>
<!-- Node15&#45;&gt;Node14 -->
<g id="edge16" class="edge"><title>Node15&#45;&gt;Node14</title>
<path fill="none" stroke="#404040" d="M934.693,-794.486C936.93,-760.364 937.158,-701.073 918,-655 888.247,-583.447 822.902,-523.32 770.091,-483.682"/>
<polygon fill="none" stroke="#404040" points="770.043,-483.646 762.84,-483.302 760.388,-476.521 767.591,-476.865 770.043,-483.646"/>
<text text-anchor="middle" x="941" y="-594.5" font-family="FreeSans" font-size="10.00"> +sGenerator</text>
<text text-anchor="middle" x="941" y="-583.5" font-family="FreeSans" font-size="10.00">+sLOGenerator</text>
<text text-anchor="middle" x="941" y="-572.5" font-family="FreeSans" font-size="10.00">+nLACIteration</text>
</g>
<!-- Node15&#45;&gt;Node16 -->
<g id="edge21" class="edge"><title>Node15&#45;&gt;Node16</title>
<path fill="none" stroke="#404040" d="M917.147,-813.792C894.684,-801.331 854.411,-778.787 852,-776 814.143,-732.25 841.836,-698.768 804,-655 800.871,-651.381 797.5,-647.909 793.944,-644.583"/>
<polygon fill="none" stroke="#404040" points="793.824,-644.479 786.67,-643.572 784.757,-636.619 791.911,-637.527 793.824,-644.479"/>
<text text-anchor="middle" x="885" y="-735" font-family="FreeSans" font-size="10.00"> +minIteration</text>
<text text-anchor="middle" x="885" y="-724" font-family="FreeSans" font-size="10.00">+maxSolution</text>
<text text-anchor="middle" x="885" y="-713" font-family="FreeSans" font-size="10.00">+nLOIterations</text>
<text text-anchor="middle" x="885" y="-702" font-family="FreeSans" font-size="10.00">+nThreads</text>
<text text-anchor="middle" x="885" y="-691" font-family="FreeSans" font-size="10.00">+maxIteration</text>
</g>
<!-- Node16&#45;&gt;Node14 -->
<g id="edge17" class="edge"><title>Node16&#45;&gt;Node14</title>
<path fill="none" stroke="#404040" d="M687.948,-535.488C688.537,-520.527 689.187,-503.995 689.791,-488.635"/>
<polygon fill="none" stroke="#404040" points="689.792,-488.611 686.031,-482.459 690.264,-476.621 694.025,-482.773 689.792,-488.611"/>
<text text-anchor="middle" x="734" y="-503.5" font-family="FreeSans" font-size="10.00"> +ransacParameters</text>
</g>
<!-- Node17 -->
<g id="node17" class="node"><title>Node17</title>
<polygon fill="white" stroke="#bfbfbf" points="667.5,-794.5 667.5,-851.5 762.5,-851.5 762.5,-794.5 667.5,-794.5"/>
<text text-anchor="middle" x="715" y="-839.5" font-family="FreeSans" font-size="10.00">optional&lt; double &gt;</text>
<polyline fill="none" stroke="#bfbfbf" points="667.5,-832.5 762.5,-832.5 "/>
<text text-anchor="middle" x="715" y="-820.5" font-family="FreeSans" font-size="10.00"> </text>
<polyline fill="none" stroke="#bfbfbf" points="667.5,-813.5 762.5,-813.5 "/>
<text text-anchor="middle" x="715" y="-801.5" font-family="FreeSans" font-size="10.00"> </text>
</g>
<!-- Node17&#45;&gt;Node16 -->
<g id="edge19" class="edge"><title>Node17&#45;&gt;Node16</title>
<path fill="none" stroke="#404040" d="M694.96,-794.409C691.685,-788.589 688.784,-782.297 687,-776 675.309,-734.73 675.297,-686.326 678.085,-648.836"/>
<polygon fill="none" stroke="#404040" points="678.112,-648.523 674.633,-642.206 679.125,-636.566 682.604,-642.882 678.112,-648.523"/>
<text text-anchor="middle" x="702" y="-713" font-family="FreeSans" font-size="10.00"> +topN</text>
</g>
<!-- Node18 -->
<g id="node18" class="node"><title>Node18</title>
<polygon fill="white" stroke="#bfbfbf" points="910,-899.5 910,-956.5 960,-956.5 960,-899.5 910,-899.5"/>
<text text-anchor="middle" x="935" y="-944.5" font-family="FreeSans" font-size="10.00">optional</text>
<polyline fill="none" stroke="#bfbfbf" points="910,-937.5 960,-937.5 "/>
<text text-anchor="middle" x="935" y="-925.5" font-family="FreeSans" font-size="10.00"> </text>
<polyline fill="none" stroke="#bfbfbf" points="910,-918.5 960,-918.5 "/>
<text text-anchor="middle" x="935" y="-906.5" font-family="FreeSans" font-size="10.00"> </text>
</g>
<!-- Node18&#45;&gt;Node17 -->
<g id="edge20" class="edge"><title>Node18&#45;&gt;Node17</title>
<path fill="none" stroke="orange" d="M900.374,-910.789C863.276,-893.42 804.144,-865.736 762.665,-846.316"/>
<polygon fill="orange" stroke="orange" points="899.223,-914.114 909.763,-915.185 902.191,-907.775 899.223,-914.114"/>
<text text-anchor="middle" x="856" y="-873" font-family="FreeSans" font-size="10.00"> &lt; double &gt;</text>
</g>
<!-- Node20 -->
<g id="node20" class="node"><title>Node20</title>
<polygon fill="white" stroke="#bfbfbf" points="1021.5,-687 1021.5,-744 1152.5,-744 1152.5,-687 1021.5,-687"/>
<text text-anchor="middle" x="1087" y="-732" font-family="FreeSans" font-size="10.00">optional&lt; Coordinate2DT &gt;</text>
<polyline fill="none" stroke="#bfbfbf" points="1021.5,-725 1152.5,-725 "/>
<text text-anchor="middle" x="1087" y="-713" font-family="FreeSans" font-size="10.00"> </text>
<polyline fill="none" stroke="#bfbfbf" points="1021.5,-706 1152.5,-706 "/>
<text text-anchor="middle" x="1087" y="-694" font-family="FreeSans" font-size="10.00"> </text>
</g>
<!-- Node18&#45;&gt;Node20 -->
<g id="edge26" class="edge"><title>Node18&#45;&gt;Node20</title>
<path fill="none" stroke="orange" d="M960.801,-891.27C990.858,-849.644 1039.87,-781.772 1067.12,-744.026"/>
<polygon fill="orange" stroke="orange" points="957.888,-889.324 954.871,-899.481 963.563,-893.422 957.888,-889.324"/>
<text text-anchor="middle" x="1015" y="-873" font-family="FreeSans" font-size="10.00"> &lt; Coordinate2DT &gt;</text>
</g>
<!-- Node19 -->
<g id="node19" class="node"><title>Node19</title>
<g id="a_node19"><a xlink:href="classbool.html" target="_top" xlink:title="{bool\n||}">
<polygon fill="white" stroke="black" points="836.5,-794.5 836.5,-851.5 871.5,-851.5 871.5,-794.5 836.5,-794.5"/>
<text text-anchor="middle" x="854" y="-839.5" font-family="FreeSans" font-size="10.00">bool</text>
<polyline fill="none" stroke="black" points="836.5,-832.5 871.5,-832.5 "/>
<text text-anchor="middle" x="854" y="-820.5" font-family="FreeSans" font-size="10.00"> </text>
<polyline fill="none" stroke="black" points="836.5,-813.5 871.5,-813.5 "/>
<text text-anchor="middle" x="854" y="-801.5" font-family="FreeSans" font-size="10.00"> </text>
</a>
</g>
</g>
<!-- Node19&#45;&gt;Node12 -->
<g id="edge24" class="edge"><title>Node19&#45;&gt;Node12</title>
<path fill="none" stroke="#404040" d="M871.76,-805.711C879.539,-797.558 888.014,-787.074 893,-776 918.625,-719.089 908.544,-699.255 913,-637 917.904,-568.482 918.599,-333.31 911,-313 909.974,-310.259 908.732,-307.563 907.325,-304.931"/>
<polygon fill="none" stroke="#404040" points="907.152,-304.657 900.567,-301.719 900.747,-294.51 907.332,-297.448 907.152,-304.657"/>
<text text-anchor="middle" x="945" y="-509" font-family="FreeSans" font-size="10.00"> +flagUniform</text>
<text text-anchor="middle" x="945" y="-498" font-family="FreeSans" font-size="10.00">+flagVerbose</text>
</g>
<!-- Node19&#45;&gt;Node16 -->
<g id="edge22" class="edge"><title>Node19&#45;&gt;Node16</title>
<path fill="none" stroke="#404040" d="M836.458,-815.966C806.113,-805.378 746.434,-783.834 740,-776 705.259,-733.696 733.584,-707.168 717,-655 716.248,-652.633 715.435,-650.24 714.574,-647.838"/>
<polygon fill="none" stroke="#404040" points="714.558,-647.796 708.67,-643.632 710.25,-636.596 716.137,-640.76 714.558,-647.796"/>
<text text-anchor="middle" x="772" y="-724" font-family="FreeSans" font-size="10.00"> +flagHistory</text>
<text text-anchor="middle" x="772" y="-713" font-family="FreeSans" font-size="10.00">+flagWaldSAC</text>
<text text-anchor="middle" x="772" y="-702" font-family="FreeSans" font-size="10.00">+flagPROSAC</text>
</g>
<!-- Node20&#45;&gt;Node12 -->
<g id="edge25" class="edge"><title>Node20&#45;&gt;Node12</title>
<path fill="none" stroke="#404040" d="M1091.17,-686.957C1100.3,-615.796 1114.31,-423.67 1020,-313 1007.28,-298.072 990.082,-287.458 971.804,-279.913"/>
<polygon fill="none" stroke="#404040" points="971.55,-279.818 964.527,-281.455 960.315,-275.601 967.338,-273.965 971.55,-279.818"/>
<text text-anchor="middle" x="1127.5" y="-503.5" font-family="FreeSans" font-size="10.00"> +principalPoint</text>
</g>
</g>
</svg>
