<?xml version="1.0" encoding="UTF-8" standalone="no"?>
<!DOCTYPE svg PUBLIC "-//W3C//DTD SVG 1.1//EN"
 "http://www.w3.org/Graphics/SVG/1.1/DTD/svg11.dtd">
<!-- Generated by graphviz version 2.38.0 (20140413.2041)
 -->
<!-- Title: SeeSawN::RANSACN::RANSACDualAbsoluteQuadricProblemC::EvaluateObservation Pages: 1 -->
<svg width="891pt" height="160pt"
 viewBox="0.00 0.00 891.00 159.50" xmlns="http://www.w3.org/2000/svg" xmlns:xlink="http://www.w3.org/1999/xlink">
<g id="graph0" class="graph" transform="scale(1 1) rotate(0) translate(4 155.5)">
<title>SeeSawN::RANSACN::RANSACDualAbsoluteQuadricProblemC::EvaluateObservation</title>
<polygon fill="white" stroke="none" points="-4,4 -4,-155.5 887,-155.5 887,4 -4,4"/>
<!-- Node10 -->
<g id="node1" class="node"><title>Node10</title>
<polygon fill="#bfbfbf" stroke="black" points="0,-50 0,-91 179,-91 179,-50 0,-50"/>
<text text-anchor="start" x="8" y="-79" font-family="FreeSans" font-size="10.00">SeeSawN::RANSACN::RANSACDual</text>
<text text-anchor="start" x="8" y="-68" font-family="FreeSans" font-size="10.00">AbsoluteQuadricProblemC</text>
<text text-anchor="middle" x="89.5" y="-57" font-family="FreeSans" font-size="10.00">::EvaluateObservation</text>
</g>
<!-- Node11 -->
<g id="node2" class="node"><title>Node11</title>
<g id="a_node2"><a xlink:href="classSeeSawN_1_1GeometryN_1_1DualAbsoluteQuadricSolverC.html#ae3aeea9a301f04ddd071a858aabbced2" target="_top" xlink:title="Evaluates the cost for an intrinsic calibration matrix. ">
<polygon fill="white" stroke="black" points="215,-50 215,-91 355,-91 355,-50 215,-50"/>
<text text-anchor="start" x="223" y="-79" font-family="FreeSans" font-size="10.00">SeeSawN::GeometryN</text>
<text text-anchor="start" x="223" y="-68" font-family="FreeSans" font-size="10.00">::DualAbsoluteQuadricSolver</text>
<text text-anchor="middle" x="285" y="-57" font-family="FreeSans" font-size="10.00">C::Evaluate</text>
</a>
</g>
</g>
<!-- Node10&#45;&gt;Node11 -->
<g id="edge1" class="edge"><title>Node10&#45;&gt;Node11</title>
<path fill="none" stroke="midnightblue" d="M179.039,-70.5C187.599,-70.5 196.246,-70.5 204.709,-70.5"/>
<polygon fill="midnightblue" stroke="midnightblue" points="204.922,-74.0001 214.922,-70.5 204.922,-67.0001 204.922,-74.0001"/>
</g>
<!-- Node12 -->
<g id="node3" class="node"><title>Node12</title>
<g id="a_node3"><a xlink:href="namespaceSeeSawN_1_1ElementsN.html#acc27beab4fd1a657c9c0bd6f95ecb0d6" target="_top" xlink:title="Extracts the intrinsic calibration parameters for a camera from the dual absolute quadric...">
<polygon fill="white" stroke="black" points="404.5,-110.5 404.5,-140.5 517.5,-140.5 517.5,-110.5 404.5,-110.5"/>
<text text-anchor="start" x="412.5" y="-128.5" font-family="FreeSans" font-size="10.00">SeeSawN::ElementsN</text>
<text text-anchor="middle" x="461" y="-117.5" font-family="FreeSans" font-size="10.00">::IntrinsicsFromDAQ</text>
</a>
</g>
</g>
<!-- Node11&#45;&gt;Node12 -->
<g id="edge2" class="edge"><title>Node11&#45;&gt;Node12</title>
<path fill="none" stroke="midnightblue" d="M351.286,-91.1365C368.056,-96.4374 385.976,-102.102 402.33,-107.271"/>
<polygon fill="midnightblue" stroke="midnightblue" points="401.697,-110.741 412.287,-110.418 403.806,-104.067 401.697,-110.741"/>
</g>
<!-- Node13 -->
<g id="node4" class="node"><title>Node13</title>
<g id="a_node4"><a xlink:href="classSeeSawN_1_1GeometryN_1_1DualAbsoluteQuadricSolverC.html#af63c488b84b048758d95b8721dfedabc" target="_top" xlink:title="Estimates the dual absolute quadric for a set of cameras. ">
<polygon fill="white" stroke="black" points="391,-50 391,-91 531,-91 531,-50 391,-50"/>
<text text-anchor="start" x="399" y="-79" font-family="FreeSans" font-size="10.00">SeeSawN::GeometryN</text>
<text text-anchor="start" x="399" y="-68" font-family="FreeSans" font-size="10.00">::DualAbsoluteQuadricSolver</text>
<text text-anchor="middle" x="461" y="-57" font-family="FreeSans" font-size="10.00">C::operator()</text>
</a>
</g>
</g>
<!-- Node11&#45;&gt;Node13 -->
<g id="edge3" class="edge"><title>Node11&#45;&gt;Node13</title>
<path fill="none" stroke="midnightblue" d="M355.019,-63.8798C363.476,-63.7561 372.169,-63.7208 380.761,-63.7739"/>
<polygon fill="midnightblue" stroke="midnightblue" points="380.744,-67.2738 390.779,-63.8769 380.816,-60.2742 380.744,-67.2738"/>
</g>
<!-- Node13&#45;&gt;Node11 -->
<g id="edge4" class="edge"><title>Node13&#45;&gt;Node11</title>
<path fill="none" stroke="midnightblue" d="M390.779,-77.1231C382.319,-77.2454 373.625,-77.2793 365.035,-77.2248"/>
<polygon fill="midnightblue" stroke="midnightblue" points="365.055,-73.7249 355.019,-77.1202 364.982,-80.7245 365.055,-73.7249"/>
</g>
<!-- Node14 -->
<g id="node5" class="node"><title>Node14</title>
<g id="a_node5"><a xlink:href="classSeeSawN_1_1GeometryN_1_1DualAbsoluteQuadricSolverC.html#afcc1fede20f19a42ed34cc21e0a148d4" target="_top" xlink:title="Builds the equation system. ">
<polygon fill="white" stroke="black" points="567,-110 567,-151 707,-151 707,-110 567,-110"/>
<text text-anchor="start" x="575" y="-139" font-family="FreeSans" font-size="10.00">SeeSawN::GeometryN</text>
<text text-anchor="start" x="575" y="-128" font-family="FreeSans" font-size="10.00">::DualAbsoluteQuadricSolver</text>
<text text-anchor="middle" x="637" y="-117" font-family="FreeSans" font-size="10.00">C::MakeEquationSystem</text>
</a>
</g>
</g>
<!-- Node13&#45;&gt;Node14 -->
<g id="edge5" class="edge"><title>Node13&#45;&gt;Node14</title>
<path fill="none" stroke="midnightblue" d="M521.881,-91.1486C536.316,-96.1261 551.857,-101.485 566.683,-106.598"/>
<polygon fill="midnightblue" stroke="midnightblue" points="565.709,-109.964 576.304,-109.915 567.991,-103.346 565.709,-109.964"/>
</g>
<!-- Node16 -->
<g id="node7" class="node"><title>Node16</title>
<g id="a_node7"><a xlink:href="classSeeSawN_1_1GeometryN_1_1DualAbsoluteQuadricSolverC.html#a6e96ebe8152fd2b583c630e7436aa769" target="_top" xlink:title="Converts the solution vector to an absolute dual quadric. ">
<polygon fill="white" stroke="black" points="567,-50 567,-91 707,-91 707,-50 567,-50"/>
<text text-anchor="start" x="575" y="-79" font-family="FreeSans" font-size="10.00">SeeSawN::GeometryN</text>
<text text-anchor="start" x="575" y="-68" font-family="FreeSans" font-size="10.00">::DualAbsoluteQuadricSolver</text>
<text text-anchor="middle" x="637" y="-57" font-family="FreeSans" font-size="10.00">C::MakeQ</text>
</a>
</g>
</g>
<!-- Node13&#45;&gt;Node16 -->
<g id="edge7" class="edge"><title>Node13&#45;&gt;Node16</title>
<path fill="none" stroke="midnightblue" d="M531.019,-70.5C539.476,-70.5 548.169,-70.5 556.761,-70.5"/>
<polygon fill="midnightblue" stroke="midnightblue" points="556.78,-74.0001 566.779,-70.5 556.779,-67.0001 556.78,-74.0001"/>
</g>
<!-- Node17 -->
<g id="node8" class="node"><title>Node17</title>
<g id="a_node8"><a xlink:href="group__Elements.html#ga95a4bac6210203f2ead6771fbd0f1894" target="_top" xlink:title="Computes the homography that maps a camera to the canonical camera matrix. ">
<polygon fill="white" stroke="black" points="580.5,-0.5 580.5,-30.5 693.5,-30.5 693.5,-0.5 580.5,-0.5"/>
<text text-anchor="start" x="588.5" y="-18.5" font-family="FreeSans" font-size="10.00">SeeSawN::ElementsN</text>
<text text-anchor="middle" x="637" y="-7.5" font-family="FreeSans" font-size="10.00">::MapToCanonical</text>
</a>
</g>
</g>
<!-- Node13&#45;&gt;Node17 -->
<g id="edge8" class="edge"><title>Node13&#45;&gt;Node17</title>
<path fill="none" stroke="midnightblue" d="M527.286,-49.8635C544.056,-44.5626 561.976,-38.8983 578.33,-33.7289"/>
<polygon fill="midnightblue" stroke="midnightblue" points="579.806,-36.9331 588.287,-30.5818 577.697,-30.2586 579.806,-36.9331"/>
</g>
<!-- Node15 -->
<g id="node6" class="node"><title>Node15</title>
<g id="a_node6"><a xlink:href="classSeeSawN_1_1GeometryN_1_1DualAbsoluteQuadricSolverC.html#a95c2e1c254a3bb977e10482530e746bb" target="_top" xlink:title="Makes an equation. ">
<polygon fill="white" stroke="black" points="743,-110 743,-151 883,-151 883,-110 743,-110"/>
<text text-anchor="start" x="751" y="-139" font-family="FreeSans" font-size="10.00">SeeSawN::GeometryN</text>
<text text-anchor="start" x="751" y="-128" font-family="FreeSans" font-size="10.00">::DualAbsoluteQuadricSolver</text>
<text text-anchor="middle" x="813" y="-117" font-family="FreeSans" font-size="10.00">C::MakeEquation</text>
</a>
</g>
</g>
<!-- Node14&#45;&gt;Node15 -->
<g id="edge6" class="edge"><title>Node14&#45;&gt;Node15</title>
<path fill="none" stroke="midnightblue" d="M707.019,-130.5C715.476,-130.5 724.169,-130.5 732.761,-130.5"/>
<polygon fill="midnightblue" stroke="midnightblue" points="732.78,-134 742.779,-130.5 732.779,-127 732.78,-134"/>
</g>
</g>
</svg>
