<?xml version="1.0" encoding="UTF-8" standalone="no"?>
<!DOCTYPE svg PUBLIC "-//W3C//DTD SVG 1.1//EN"
 "http://www.w3.org/Graphics/SVG/1.1/DTD/svg11.dtd">
<!-- Generated by graphviz version 2.38.0 (20140413.2041)
 -->
<!-- Title: model_type Pages: 1 -->
<svg width="74pt" height="66pt"
 viewBox="0.00 0.00 74.00 66.00" xmlns="http://www.w3.org/2000/svg" xmlns:xlink="http://www.w3.org/1999/xlink">
<g id="graph0" class="graph" transform="scale(1 1) rotate(0) translate(4 62)">
<title>model_type</title>
<polygon fill="white" stroke="none" points="-4,4 -4,-62 70,-62 70,4 -4,4"/>
<!-- Node1 -->
<g id="node1" class="node"><title>Node1</title>
<polygon fill="#bfbfbf" stroke="black" points="0,-0.5 0,-57.5 66,-57.5 66,-0.5 0,-0.5"/>
<text text-anchor="middle" x="33" y="-45.5" font-family="FreeSans" font-size="10.00">model_type</text>
<polyline fill="none" stroke="black" points="0,-38.5 66,-38.5 "/>
<text text-anchor="middle" x="33" y="-26.5" font-family="FreeSans" font-size="10.00"> </text>
<polyline fill="none" stroke="black" points="0,-19.5 66,-19.5 "/>
<text text-anchor="middle" x="33" y="-7.5" font-family="FreeSans" font-size="10.00"> </text>
</g>
</g>
</svg>
