<?xml version="1.0" encoding="UTF-8" standalone="no"?>
<!DOCTYPE svg PUBLIC "-//W3C//DTD SVG 1.1//EN"
 "http://www.w3.org/Graphics/SVG/1.1/DTD/svg11.dtd">
<!-- Generated by graphviz version 2.38.0 (20140413.2041)
 -->
<!-- Title: SeeSawN::SynchronisationN::RelativeSynchronisationC::AdjustInterval Pages: 1 -->
<!--zoomable 50 -->
<svg id="main" version="1.1" xmlns="http://www.w3.org/2000/svg" xmlns:xlink="http://www.w3.org/1999/xlink" xml:space="preserve" onload="init(evt)">
<style type="text/css"><![CDATA[
.edge:hover path { stroke: red; }
.edge:hover polygon { stroke: red; fill: red; }
]]></style>
<script type="text/javascript"><![CDATA[
var edges = document.getElementsByTagName('g');
if (edges && edges.length) {
  for (var i=0;i<edges.length;i++) {
    if (edges[i].id.substr(0,4)=='edge') {
      edges[i].setAttribute('class','edge');
    }
  }
}
]]></script>
        <defs>
                <circle id="rim" cx="0" cy="0" r="7"/>
                <circle id="rim2" cx="0" cy="0" r="3.5"/>
                <g id="zoomPlus">
                        <use xlink:href="#rim" fill="#404040">
                                <set attributeName="fill" to="#808080" begin="zoomplus.mouseover" end="zoomplus.mouseout"/>
                        </use>
                        <path d="M-4,0h8M0,-4v8" fill="none" stroke="white" stroke-width="1.5" pointer-events="none"/>
                </g>
                <g id="zoomMin">
                        <use xlink:href="#rim" fill="#404040">
                                <set attributeName="fill" to="#808080" begin="zoomminus.mouseover" end="zoomminus.mouseout"/>
                        </use>
                        <path d="M-4,0h8" fill="none" stroke="white" stroke-width="1.5" pointer-events="none"/>
                </g>
                <g id="dirArrow">
                        <path fill="none" stroke="white" stroke-width="1.5" d="M0,-3.0v7 M-2.5,-0.5L0,-3.0L2.5,-0.5"/>
                </g>
               <g id="resetDef">
                       <use xlink:href="#rim2" fill="#404040">
                               <set attributeName="fill" to="#808080" begin="reset.mouseover" end="reset.mouseout"/>
                       </use>
               </g>
        </defs>

<script type="text/javascript">
var viewWidth = 1356;
var viewHeight = 50;
var sectionId = 'dynsection-1';
</script>
<script xlink:href="svgpan.js"/>
<svg id="graph" class="graph">
<g id="viewport">
<title>SeeSawN::SynchronisationN::RelativeSynchronisationC::AdjustInterval</title>
<polygon fill="white" stroke="none" points="-4,4 -4,-46 1352,-46 1352,4 -4,4"/>
<!-- Node1 -->
<g id="node1" class="node"><title>Node1</title>
<polygon fill="#bfbfbf" stroke="black" points="0,-0.5 0,-41.5 140,-41.5 140,-0.5 0,-0.5"/>
<text text-anchor="start" x="8" y="-29.5" font-family="FreeSans" font-size="10.00">SeeSawN::Synchronisation</text>
<text text-anchor="start" x="8" y="-18.5" font-family="FreeSans" font-size="10.00">N::RelativeSynchronisationC</text>
<text text-anchor="middle" x="70" y="-7.5" font-family="FreeSans" font-size="10.00">::AdjustInterval</text>
</g>
<!-- Node2 -->
<g id="node2" class="node"><title>Node2</title>
<g id="a_node2"><a xlink:href="classSeeSawN_1_1SynchronisationN_1_1RelativeSynchronisationC.html#ae7a8e5552ff9450ca9d26d0df156a028" target="_top" xlink:title="Inserts a frame drop event. ">
<polygon fill="white" stroke="black" points="176,-0.5 176,-41.5 316,-41.5 316,-0.5 176,-0.5"/>
<text text-anchor="start" x="184" y="-29.5" font-family="FreeSans" font-size="10.00">SeeSawN::Synchronisation</text>
<text text-anchor="start" x="184" y="-18.5" font-family="FreeSans" font-size="10.00">N::RelativeSynchronisationC</text>
<text text-anchor="middle" x="246" y="-7.5" font-family="FreeSans" font-size="10.00">::InsertDrop</text>
</a>
</g>
</g>
<!-- Node1&#45;&gt;Node2 -->
<g id="edge1" class="edge"><title>Node1&#45;&gt;Node2</title>
<path fill="none" stroke="midnightblue" d="M150.035,-21C158.625,-21 167.319,-21 175.779,-21"/>
<polygon fill="midnightblue" stroke="midnightblue" points="150.019,-17.5001 140.019,-21 150.019,-24.5001 150.019,-17.5001"/>
</g>
<!-- Node3 -->
<g id="node3" class="node"><title>Node3</title>
<g id="a_node3"><a xlink:href="classSeeSawN_1_1SynchronisationN_1_1RelativeSynchronisationC.html#a7dde315873d029d2771d3d5524a0cf43" target="_top" xlink:title="Computes the frame drop events corresponding to the gaps between the sections. ">
<polygon fill="white" stroke="black" points="352,-0.5 352,-41.5 492,-41.5 492,-0.5 352,-0.5"/>
<text text-anchor="start" x="360" y="-29.5" font-family="FreeSans" font-size="10.00">SeeSawN::Synchronisation</text>
<text text-anchor="start" x="360" y="-18.5" font-family="FreeSans" font-size="10.00">N::RelativeSynchronisationC</text>
<text text-anchor="middle" x="422" y="-7.5" font-family="FreeSans" font-size="10.00">::MakeFrameDrop</text>
</a>
</g>
</g>
<!-- Node2&#45;&gt;Node3 -->
<g id="edge2" class="edge"><title>Node2&#45;&gt;Node3</title>
<path fill="none" stroke="midnightblue" d="M326.035,-21C334.625,-21 343.319,-21 351.779,-21"/>
<polygon fill="midnightblue" stroke="midnightblue" points="326.019,-17.5001 316.019,-21 326.019,-24.5001 326.019,-17.5001"/>
</g>
<!-- Node4 -->
<g id="node4" class="node"><title>Node4</title>
<g id="a_node4"><a xlink:href="classSeeSawN_1_1SynchronisationN_1_1RelativeSynchronisationC.html#a5bef63bba38b800f441eadc1ed40a536" target="_top" xlink:title="Runs the synchronisation pipeline. ">
<polygon fill="white" stroke="black" points="528,-0.5 528,-41.5 668,-41.5 668,-0.5 528,-0.5"/>
<text text-anchor="start" x="536" y="-29.5" font-family="FreeSans" font-size="10.00">SeeSawN::Synchronisation</text>
<text text-anchor="start" x="536" y="-18.5" font-family="FreeSans" font-size="10.00">N::RelativeSynchronisationC</text>
<text text-anchor="middle" x="598" y="-7.5" font-family="FreeSans" font-size="10.00">::Synchronise</text>
</a>
</g>
</g>
<!-- Node3&#45;&gt;Node4 -->
<g id="edge3" class="edge"><title>Node3&#45;&gt;Node4</title>
<path fill="none" stroke="midnightblue" d="M502.035,-21C510.625,-21 519.319,-21 527.779,-21"/>
<polygon fill="midnightblue" stroke="midnightblue" points="502.019,-17.5001 492.019,-21 502.019,-24.5001 502.019,-17.5001"/>
</g>
<!-- Node5 -->
<g id="node5" class="node"><title>Node5</title>
<g id="a_node5"><a xlink:href="classSeeSawN_1_1SynchronisationN_1_1RelativeSynchronisationC.html#a23ad32056f941388856c20ffecca138b" target="_top" xlink:title="Runs the algorithm. ">
<polygon fill="white" stroke="black" points="704,-6 704,-36 865,-36 865,-6 704,-6"/>
<text text-anchor="start" x="712" y="-24" font-family="FreeSans" font-size="10.00">SeeSawN::Synchronisation</text>
<text text-anchor="middle" x="784.5" y="-13" font-family="FreeSans" font-size="10.00">N::RelativeSynchronisationC::Run</text>
</a>
</g>
</g>
<!-- Node4&#45;&gt;Node5 -->
<g id="edge4" class="edge"><title>Node4&#45;&gt;Node5</title>
<path fill="none" stroke="midnightblue" d="M678.446,-21C686.9,-21 695.501,-21 703.956,-21"/>
<polygon fill="midnightblue" stroke="midnightblue" points="678.226,-17.5001 668.226,-21 678.226,-24.5001 678.226,-17.5001"/>
</g>
<!-- Node6 -->
<g id="node6" class="node"><title>Node6</title>
<g id="a_node6"><a xlink:href="classSeeSawN_1_1SynchronisationN_1_1MulticameraSynchonisationC.html#a75a116defe53be4d2d177a2188f909bf" target="_top" xlink:title="Runs the synchronisation algorithm. ">
<polygon fill="white" stroke="black" points="901,-0.5 901,-41.5 1049,-41.5 1049,-0.5 901,-0.5"/>
<text text-anchor="start" x="909" y="-29.5" font-family="FreeSans" font-size="10.00">SeeSawN::Synchronisation</text>
<text text-anchor="start" x="909" y="-18.5" font-family="FreeSans" font-size="10.00">N::MulticameraSynchonisation</text>
<text text-anchor="middle" x="975" y="-7.5" font-family="FreeSans" font-size="10.00">C::Run</text>
</a>
</g>
</g>
<!-- Node5&#45;&gt;Node6 -->
<g id="edge5" class="edge"><title>Node5&#45;&gt;Node6</title>
<path fill="none" stroke="midnightblue" d="M875.229,-21C883.835,-21 892.491,-21 900.909,-21"/>
<polygon fill="midnightblue" stroke="midnightblue" points="875.168,-17.5001 865.168,-21 875.168,-24.5001 875.168,-17.5001"/>
</g>
<!-- Node7 -->
<g id="node7" class="node"><title>Node7</title>
<g id="a_node7"><a xlink:href="classSeeSawN_1_1AppMulticameraSynchronisationN_1_1AppMulticameraSynchronisationImplementationC.html#a74cf8f1a5ba9bb9ddb48089b2d43bd58" target="_top" xlink:title="Runs the application. ">
<polygon fill="white" stroke="black" points="1085,-6 1085,-36 1348,-36 1348,-6 1085,-6"/>
<text text-anchor="start" x="1093" y="-24" font-family="FreeSans" font-size="10.00">SeeSawN::AppMulticameraSynchronisation</text>
<text text-anchor="middle" x="1216.5" y="-13" font-family="FreeSans" font-size="10.00">N::AppMulticameraSynchronisationImplementationC::Run</text>
</a>
</g>
</g>
<!-- Node6&#45;&gt;Node7 -->
<g id="edge6" class="edge"><title>Node6&#45;&gt;Node7</title>
<path fill="none" stroke="midnightblue" d="M1059.22,-21C1067.58,-21 1076.2,-21 1084.9,-21"/>
<polygon fill="midnightblue" stroke="midnightblue" points="1059.16,-17.5001 1049.16,-21 1059.16,-24.5001 1059.16,-17.5001"/>
</g>
</g>
</svg>
        <g id="navigator" transform="translate(0 0)" fill="#404254">
                <rect fill="#f2f5e9" fill-opacity="0.5" stroke="#606060" stroke-width=".5" x="0" y="0" width="60" height="60"/>
                <use id="zoomplus" xlink:href="#zoomPlus" x="17" y="9" onmousedown="handleZoom(evt,'in')"/>
                <use id="zoomminus" xlink:href="#zoomMin" x="42" y="9" onmousedown="handleZoom(evt,'out')"/>
                <use id="reset" xlink:href="#resetDef" x="30" y="36" onmousedown="handleReset()"/>
                <g id="arrowUp" xlink:href="#dirArrow" transform="translate(30 24)" onmousedown="handlePan(0,-1)">
                  <use xlink:href="#rim" fill="#404040">
                        <set attributeName="fill" to="#808080" begin="arrowUp.mouseover" end="arrowUp.mouseout"/>
                  </use>
                  <path fill="none" stroke="white" stroke-width="1.5" d="M0,-3.0v7 M-2.5,-0.5L0,-3.0L2.5,-0.5"/>
                </g>
                <g id="arrowRight" xlink:href="#dirArrow" transform="rotate(90) translate(36 -43)" onmousedown="handlePan(1,0)">
                  <use xlink:href="#rim" fill="#404040">
                        <set attributeName="fill" to="#808080" begin="arrowRight.mouseover" end="arrowRight.mouseout"/>
                  </use>
                  <path fill="none" stroke="white" stroke-width="1.5" d="M0,-3.0v7 M-2.5,-0.5L0,-3.0L2.5,-0.5"/>
                </g>
                <g id="arrowDown" xlink:href="#dirArrow" transform="rotate(180) translate(-30 -48)" onmousedown="handlePan(0,1)">
                  <use xlink:href="#rim" fill="#404040">
                        <set attributeName="fill" to="#808080" begin="arrowDown.mouseover" end="arrowDown.mouseout"/>
                  </use>
                  <path fill="none" stroke="white" stroke-width="1.5" d="M0,-3.0v7 M-2.5,-0.5L0,-3.0L2.5,-0.5"/>
                </g>
                <g id="arrowLeft" xlink:href="#dirArrow" transform="rotate(270) translate(-36 17)" onmousedown="handlePan(-1,0)">
                  <use xlink:href="#rim" fill="#404040">
                        <set attributeName="fill" to="#808080" begin="arrowLeft.mouseover" end="arrowLeft.mouseout"/>
                  </use>
                  <path fill="none" stroke="white" stroke-width="1.5" d="M0,-3.0v7 M-2.5,-0.5L0,-3.0L2.5,-0.5"/>
                </g>
        </g>
        <svg viewBox="0 0 15 15" width="100%" height="30px" preserveAspectRatio="xMaxYMin meet">
         <g id="arrow_out" transform="scale(0.3 0.3)">
          <a xlink:href="classSeeSawN_1_1SynchronisationN_1_1RelativeSynchronisationC_af57233a346514356bc211e599dc52aee_icgraph_org.svg" target="_base">
           <rect id="button" ry="5" rx="5" y="6" x="6" height="38" width="38"
                fill="#f2f5e9" fill-opacity="0.5" stroke="#606060" stroke-width="1.0"/>
           <path id="arrow"
             d="M 11.500037,31.436501 C 11.940474,20.09759 22.043105,11.32322 32.158766,21.979434 L 37.068811,17.246167 C 37.068811,17.246167 37.088388,32 37.088388,32 L 22.160133,31.978069 C 22.160133,31.978069 26.997745,27.140456 26.997745,27.140456 C 18.528582,18.264221 13.291696,25.230495 11.500037,31.436501 z"
             style="fill:#404040;"/>
          </a>
         </g>
        </svg>
</svg>
