<?xml version="1.0" encoding="UTF-8" standalone="no"?>
<!DOCTYPE svg PUBLIC "-//W3C//DTD SVG 1.1//EN"
 "http://www.w3.org/Graphics/SVG/1.1/DTD/svg11.dtd">
<!-- Generated by graphviz version 2.38.0 (20140413.2041)
 -->
<!-- Title: SeeSawN::GeometryN::CoordinateTransformationsC::ApplyAffineTransformation Pages: 1 -->
<!--zoomable 207 -->
<svg id="main" version="1.1" xmlns="http://www.w3.org/2000/svg" xmlns:xlink="http://www.w3.org/1999/xlink" xml:space="preserve" onload="init(evt)">
<style type="text/css"><![CDATA[
.edge:hover path { stroke: red; }
.edge:hover polygon { stroke: red; fill: red; }
]]></style>
<script type="text/javascript"><![CDATA[
var edges = document.getElementsByTagName('g');
if (edges && edges.length) {
  for (var i=0;i<edges.length;i++) {
    if (edges[i].id.substr(0,4)=='edge') {
      edges[i].setAttribute('class','edge');
    }
  }
}
]]></script>
        <defs>
                <circle id="rim" cx="0" cy="0" r="7"/>
                <circle id="rim2" cx="0" cy="0" r="3.5"/>
                <g id="zoomPlus">
                        <use xlink:href="#rim" fill="#404040">
                                <set attributeName="fill" to="#808080" begin="zoomplus.mouseover" end="zoomplus.mouseout"/>
                        </use>
                        <path d="M-4,0h8M0,-4v8" fill="none" stroke="white" stroke-width="1.5" pointer-events="none"/>
                </g>
                <g id="zoomMin">
                        <use xlink:href="#rim" fill="#404040">
                                <set attributeName="fill" to="#808080" begin="zoomminus.mouseover" end="zoomminus.mouseout"/>
                        </use>
                        <path d="M-4,0h8" fill="none" stroke="white" stroke-width="1.5" pointer-events="none"/>
                </g>
                <g id="dirArrow">
                        <path fill="none" stroke="white" stroke-width="1.5" d="M0,-3.0v7 M-2.5,-0.5L0,-3.0L2.5,-0.5"/>
                </g>
               <g id="resetDef">
                       <use xlink:href="#rim2" fill="#404040">
                               <set attributeName="fill" to="#808080" begin="reset.mouseover" end="reset.mouseout"/>
                       </use>
               </g>
        </defs>

<script type="text/javascript">
var viewWidth = 1173;
var viewHeight = 207;
var sectionId = 'dynsection-1';
</script>
<script xlink:href="svgpan.js"/>
<svg id="graph" class="graph">
<g id="viewport">
<title>SeeSawN::GeometryN::CoordinateTransformationsC::ApplyAffineTransformation</title>
<polygon fill="white" stroke="none" points="-4,4 -4,-203.478 1169,-203.478 1169,4 -4,4"/>
<!-- Node1 -->
<g id="node1" class="node"><title>Node1</title>
<polygon fill="#bfbfbf" stroke="black" points="0,-50.9781 0,-91.9781 141,-91.9781 141,-50.9781 0,-50.9781"/>
<text text-anchor="start" x="8" y="-79.9781" font-family="FreeSans" font-size="10.00">SeeSawN::GeometryN</text>
<text text-anchor="start" x="8" y="-68.9781" font-family="FreeSans" font-size="10.00">::CoordinateTransformations</text>
<text text-anchor="middle" x="70.5" y="-57.9781" font-family="FreeSans" font-size="10.00">C::ApplyAffineTransformation</text>
</g>
<!-- Node2 -->
<g id="node2" class="node"><title>Node2</title>
<g id="a_node2"><a xlink:href="namespaceSeeSawN_1_1UnitTestsN_1_1TestGeometryN.html#a16903f96b1422e5d271c5d1cd691c355" target="_top" xlink:title="SeeSawN::UnitTestsN\l::TestGeometryN::BOOST\l_AUTO_TEST_CASE">
<polygon fill="white" stroke="black" points="199,-140.978 199,-181.978 328,-181.978 328,-140.978 199,-140.978"/>
<text text-anchor="start" x="207" y="-169.978" font-family="FreeSans" font-size="10.00">SeeSawN::UnitTestsN</text>
<text text-anchor="start" x="207" y="-158.978" font-family="FreeSans" font-size="10.00">::TestGeometryN::BOOST</text>
<text text-anchor="middle" x="263.5" y="-147.978" font-family="FreeSans" font-size="10.00">_AUTO_TEST_CASE</text>
</a>
</g>
</g>
<!-- Node1&#45;&gt;Node2 -->
<g id="edge1" class="edge"><title>Node1&#45;&gt;Node2</title>
<path fill="none" stroke="midnightblue" d="M113.15,-97.4643C132.199,-108.744 155.313,-121.603 177,-131.478 184.302,-134.803 192.087,-137.993 199.874,-140.971"/>
<polygon fill="midnightblue" stroke="midnightblue" points="114.805,-94.376 104.428,-92.2421 111.21,-100.382 114.805,-94.376"/>
</g>
<!-- Node5 -->
<g id="node5" class="node"><title>Node5</title>
<g id="a_node5"><a xlink:href="classSeeSawN_1_1GeometryN_1_1PfMPipelineC.html#af9d542d91c75110a5ce68e7265feb0e2" target="_top" xlink:title="Lazy evaluation of image coordinate normalisation. ">
<polygon fill="white" stroke="black" points="177,-80.9781 177,-121.978 350,-121.978 350,-80.9781 177,-80.9781"/>
<text text-anchor="start" x="185" y="-109.978" font-family="FreeSans" font-size="10.00">SeeSawN::GeometryN</text>
<text text-anchor="start" x="185" y="-98.9781" font-family="FreeSans" font-size="10.00">::PfMPipelineC::ComputeNormalised</text>
<text text-anchor="middle" x="263.5" y="-87.9781" font-family="FreeSans" font-size="10.00">Coordinates</text>
</a>
</g>
</g>
<!-- Node1&#45;&gt;Node5 -->
<g id="edge5" class="edge"><title>Node1&#45;&gt;Node5</title>
<path fill="none" stroke="midnightblue" d="M151.18,-83.9933C159.708,-85.3327 168.408,-86.6993 177,-88.0487"/>
<polygon fill="midnightblue" stroke="midnightblue" points="151.688,-80.5302 141.266,-82.4361 150.602,-87.4454 151.688,-80.5302"/>
</g>
<!-- Node10 -->
<g id="node10" class="node"><title>Node10</title>
<g id="a_node10"><a xlink:href="classSeeSawN_1_1GeometryN_1_1Similarity3DSolverC.html#a2ebe257eb31ce52f60675e1ac18dea68" target="_top" xlink:title="Computes the similarity transformation that best explains the correspondence set. ...">
<polygon fill="white" stroke="black" points="206,-20.9781 206,-61.9781 321,-61.9781 321,-20.9781 206,-20.9781"/>
<text text-anchor="start" x="214" y="-49.9781" font-family="FreeSans" font-size="10.00">SeeSawN::GeometryN</text>
<text text-anchor="start" x="214" y="-38.9781" font-family="FreeSans" font-size="10.00">::Similarity3DSolverC</text>
<text text-anchor="middle" x="263.5" y="-27.9781" font-family="FreeSans" font-size="10.00">::operator()</text>
</a>
</g>
</g>
<!-- Node1&#45;&gt;Node10 -->
<g id="edge10" class="edge"><title>Node1&#45;&gt;Node10</title>
<path fill="none" stroke="midnightblue" d="M151.323,-58.9404C169.603,-56.0692 188.671,-53.0742 205.749,-50.3919"/>
<polygon fill="midnightblue" stroke="midnightblue" points="150.602,-55.5107 141.266,-60.52 151.688,-62.4259 150.602,-55.5107"/>
</g>
<!-- Node11 -->
<g id="node11" class="node"><title>Node11</title>
<g id="a_node11"><a xlink:href="classSeeSawN_1_1GeometryN_1_1PfMPipelineC.html#abd715f3ca9b6449b302790ba72fbc72c" target="_top" xlink:title="Refines the estimates via the robust geometry estimation pipeline. ">
<polygon fill="white" stroke="black" points="398,-17.4781 398,-47.4781 553,-47.4781 553,-17.4781 398,-17.4781"/>
<text text-anchor="start" x="406" y="-35.4781" font-family="FreeSans" font-size="10.00">SeeSawN::GeometryN</text>
<text text-anchor="middle" x="475.5" y="-24.4781" font-family="FreeSans" font-size="10.00">::PfMPipelineC::RefineEstimates</text>
</a>
</g>
</g>
<!-- Node1&#45;&gt;Node11 -->
<g id="edge11" class="edge"><title>Node1&#45;&gt;Node11</title>
<path fill="none" stroke="midnightblue" d="M106.72,-45.3051C126.324,-32.3742 151.803,-18.142 177,-11.4781 258.217,10.0015 355.988,-4.18142 416.705,-17.4499"/>
<polygon fill="midnightblue" stroke="midnightblue" points="104.734,-42.4224 98.4218,-50.9314 108.663,-48.2161 104.734,-42.4224"/>
</g>
<!-- Node3 -->
<g id="node3" class="node"><title>Node3</title>
<g id="a_node3"><a xlink:href="namespaceSeeSawN_1_1UnitTestsN_1_1TestGeometryN.html#afdcb94f2361f1220f461ba0c07e499c9" target="_top" xlink:title="SeeSawN::UnitTestsN\l::TestGeometryN::BOOST\l_AUTO_TEST_SUITE_END">
<polygon fill="white" stroke="black" points="405.5,-157.978 405.5,-198.978 545.5,-198.978 545.5,-157.978 405.5,-157.978"/>
<text text-anchor="start" x="413.5" y="-186.978" font-family="FreeSans" font-size="10.00">SeeSawN::UnitTestsN</text>
<text text-anchor="start" x="413.5" y="-175.978" font-family="FreeSans" font-size="10.00">::TestGeometryN::BOOST</text>
<text text-anchor="middle" x="475.5" y="-164.978" font-family="FreeSans" font-size="10.00">_AUTO_TEST_SUITE_END</text>
</a>
</g>
</g>
<!-- Node2&#45;&gt;Node3 -->
<g id="edge2" class="edge"><title>Node2&#45;&gt;Node3</title>
<path fill="none" stroke="midnightblue" d="M338.261,-167.449C360.044,-169.213 383.8,-171.136 405.286,-172.875"/>
<polygon fill="midnightblue" stroke="midnightblue" points="338.327,-163.943 328.077,-166.625 337.762,-170.92 338.327,-163.943"/>
</g>
<!-- Node4 -->
<g id="node4" class="node"><title>Node4</title>
<g id="a_node4"><a xlink:href="namespaceSeeSawN_1_1UnitTestsN_1_1TestGeometryN.html#a56e7b3fa3e4e5806ed6ca6e583f133a2" target="_top" xlink:title="SeeSawN::UnitTestsN\l::TestGeometryN::BOOST\l_AUTO_TEST_CASE">
<polygon fill="white" stroke="black" points="617.5,-136.978 617.5,-177.978 746.5,-177.978 746.5,-136.978 617.5,-136.978"/>
<text text-anchor="start" x="625.5" y="-165.978" font-family="FreeSans" font-size="10.00">SeeSawN::UnitTestsN</text>
<text text-anchor="start" x="625.5" y="-154.978" font-family="FreeSans" font-size="10.00">::TestGeometryN::BOOST</text>
<text text-anchor="middle" x="682" y="-143.978" font-family="FreeSans" font-size="10.00">_AUTO_TEST_CASE</text>
</a>
</g>
</g>
<!-- Node2&#45;&gt;Node4 -->
<g id="edge4" class="edge"><title>Node2&#45;&gt;Node4</title>
<path fill="none" stroke="midnightblue" d="M338.284,-152.312C354.008,-150.715 370.534,-149.303 386,-148.478 465.443,-144.24 485.504,-145.399 565,-148.478 581.955,-149.135 600.272,-150.33 617.233,-151.639"/>
<polygon fill="midnightblue" stroke="midnightblue" points="337.665,-148.857 328.086,-153.383 338.397,-155.819 337.665,-148.857"/>
</g>
<!-- Node3&#45;&gt;Node4 -->
<g id="edge3" class="edge"><title>Node3&#45;&gt;Node4</title>
<path fill="none" stroke="midnightblue" d="M555.925,-170.322C576.278,-168.232 597.903,-166.011 617.346,-164.015"/>
<polygon fill="midnightblue" stroke="midnightblue" points="555.324,-166.865 545.734,-171.368 556.04,-173.829 555.324,-166.865"/>
</g>
<!-- Node6 -->
<g id="node6" class="node"><title>Node6</title>
<g id="a_node6"><a xlink:href="classSeeSawN_1_1GeometryN_1_1PfMPipelineC.html#a81361c77a727646df413f9c49d010a87" target="_top" xlink:title="Extracts the focal length and relative orientation measurements. ">
<polygon fill="white" stroke="black" points="386,-69.4781 386,-99.4781 565,-99.4781 565,-69.4781 386,-69.4781"/>
<text text-anchor="start" x="394" y="-87.4781" font-family="FreeSans" font-size="10.00">SeeSawN::GeometryN</text>
<text text-anchor="middle" x="475.5" y="-76.4781" font-family="FreeSans" font-size="10.00">::PfMPipelineC::ExtractMeasurements</text>
</a>
</g>
</g>
<!-- Node5&#45;&gt;Node6 -->
<g id="edge6" class="edge"><title>Node5&#45;&gt;Node6</title>
<path fill="none" stroke="midnightblue" d="M360.236,-93.728C368.814,-93.0336 377.475,-92.3325 385.988,-91.6433"/>
<polygon fill="midnightblue" stroke="midnightblue" points="359.903,-90.2434 350.218,-94.539 360.468,-97.2206 359.903,-90.2434"/>
</g>
<!-- Node7 -->
<g id="node7" class="node"><title>Node7</title>
<g id="a_node7"><a xlink:href="classSeeSawN_1_1GeometryN_1_1PfMPipelineC.html#ad572dea46d62bd8e369f7da5e7bdbf58" target="_top" xlink:title="Estimates the calibration parameters for the cameras. ">
<polygon fill="white" stroke="black" points="601,-67.4781 601,-97.4781 763,-97.4781 763,-67.4781 601,-67.4781"/>
<text text-anchor="start" x="609" y="-85.4781" font-family="FreeSans" font-size="10.00">SeeSawN::GeometryN</text>
<text text-anchor="middle" x="682" y="-74.4781" font-family="FreeSans" font-size="10.00">::PfMPipelineC::CalibrateCameras</text>
</a>
</g>
</g>
<!-- Node6&#45;&gt;Node7 -->
<g id="edge7" class="edge"><title>Node6&#45;&gt;Node7</title>
<path fill="none" stroke="midnightblue" d="M575.071,-83.514C583.67,-83.4299 592.304,-83.3455 600.729,-83.2631"/>
<polygon fill="midnightblue" stroke="midnightblue" points="574.973,-80.0147 565.007,-83.6125 575.041,-87.0144 574.973,-80.0147"/>
</g>
<!-- Node8 -->
<g id="node8" class="node"><title>Node8</title>
<g id="a_node8"><a xlink:href="classSeeSawN_1_1GeometryN_1_1PfMPipelineC.html#aa435d8f0f4abec5cf35e3f525c407fb7" target="_top" xlink:title="Runs the algorithm. ">
<polygon fill="white" stroke="black" points="799,-44.4781 799,-74.4781 914,-74.4781 914,-44.4781 799,-44.4781"/>
<text text-anchor="start" x="807" y="-62.4781" font-family="FreeSans" font-size="10.00">SeeSawN::GeometryN</text>
<text text-anchor="middle" x="856.5" y="-51.4781" font-family="FreeSans" font-size="10.00">::PfMPipelineC::Run</text>
</a>
</g>
</g>
<!-- Node7&#45;&gt;Node8 -->
<g id="edge8" class="edge"><title>Node7&#45;&gt;Node8</title>
<path fill="none" stroke="midnightblue" d="M773.302,-70.4377C781.913,-69.2896 790.47,-68.1487 798.629,-67.0609"/>
<polygon fill="midnightblue" stroke="midnightblue" points="772.64,-66.995 763.19,-71.7861 773.565,-73.9336 772.64,-66.995"/>
</g>
<!-- Node9 -->
<g id="node9" class="node"><title>Node9</title>
<g id="a_node9"><a xlink:href="classSeeSawN_1_1AppPfMN_1_1AppPfMImplementationC.html#a907a06d88e1dc5911dedb8d3a8223780" target="_top" xlink:title="Runs the application. ">
<polygon fill="white" stroke="black" points="950,-44.4781 950,-74.4781 1165,-74.4781 1165,-44.4781 950,-44.4781"/>
<text text-anchor="start" x="958" y="-62.4781" font-family="FreeSans" font-size="10.00">SeeSawN::AppPfMN::AppPfMImplementation</text>
<text text-anchor="middle" x="1057.5" y="-51.4781" font-family="FreeSans" font-size="10.00">C::Run</text>
</a>
</g>
</g>
<!-- Node8&#45;&gt;Node9 -->
<g id="edge9" class="edge"><title>Node8&#45;&gt;Node9</title>
<path fill="none" stroke="midnightblue" d="M924.505,-59.4781C932.75,-59.4781 941.33,-59.4781 949.981,-59.4781"/>
<polygon fill="midnightblue" stroke="midnightblue" points="924.259,-55.9782 914.259,-59.4781 924.259,-62.9782 924.259,-55.9782"/>
</g>
<!-- Node11&#45;&gt;Node8 -->
<g id="edge12" class="edge"><title>Node11&#45;&gt;Node8</title>
<path fill="none" stroke="midnightblue" d="M563.209,-38.6553C635.571,-43.8103 736.605,-51.008 798.949,-55.4493"/>
<polygon fill="midnightblue" stroke="midnightblue" points="563.42,-35.1615 553.196,-37.9419 562.922,-42.1438 563.42,-35.1615"/>
</g>
</g>
</svg>
        <g id="navigator" transform="translate(0 0)" fill="#404254">
                <rect fill="#f2f5e9" fill-opacity="0.5" stroke="#606060" stroke-width=".5" x="0" y="0" width="60" height="60"/>
                <use id="zoomplus" xlink:href="#zoomPlus" x="17" y="9" onmousedown="handleZoom(evt,'in')"/>
                <use id="zoomminus" xlink:href="#zoomMin" x="42" y="9" onmousedown="handleZoom(evt,'out')"/>
                <use id="reset" xlink:href="#resetDef" x="30" y="36" onmousedown="handleReset()"/>
                <g id="arrowUp" xlink:href="#dirArrow" transform="translate(30 24)" onmousedown="handlePan(0,-1)">
                  <use xlink:href="#rim" fill="#404040">
                        <set attributeName="fill" to="#808080" begin="arrowUp.mouseover" end="arrowUp.mouseout"/>
                  </use>
                  <path fill="none" stroke="white" stroke-width="1.5" d="M0,-3.0v7 M-2.5,-0.5L0,-3.0L2.5,-0.5"/>
                </g>
                <g id="arrowRight" xlink:href="#dirArrow" transform="rotate(90) translate(36 -43)" onmousedown="handlePan(1,0)">
                  <use xlink:href="#rim" fill="#404040">
                        <set attributeName="fill" to="#808080" begin="arrowRight.mouseover" end="arrowRight.mouseout"/>
                  </use>
                  <path fill="none" stroke="white" stroke-width="1.5" d="M0,-3.0v7 M-2.5,-0.5L0,-3.0L2.5,-0.5"/>
                </g>
                <g id="arrowDown" xlink:href="#dirArrow" transform="rotate(180) translate(-30 -48)" onmousedown="handlePan(0,1)">
                  <use xlink:href="#rim" fill="#404040">
                        <set attributeName="fill" to="#808080" begin="arrowDown.mouseover" end="arrowDown.mouseout"/>
                  </use>
                  <path fill="none" stroke="white" stroke-width="1.5" d="M0,-3.0v7 M-2.5,-0.5L0,-3.0L2.5,-0.5"/>
                </g>
                <g id="arrowLeft" xlink:href="#dirArrow" transform="rotate(270) translate(-36 17)" onmousedown="handlePan(-1,0)">
                  <use xlink:href="#rim" fill="#404040">
                        <set attributeName="fill" to="#808080" begin="arrowLeft.mouseover" end="arrowLeft.mouseout"/>
                  </use>
                  <path fill="none" stroke="white" stroke-width="1.5" d="M0,-3.0v7 M-2.5,-0.5L0,-3.0L2.5,-0.5"/>
                </g>
        </g>
        <svg viewBox="0 0 15 15" width="100%" height="30px" preserveAspectRatio="xMaxYMin meet">
         <g id="arrow_out" transform="scale(0.3 0.3)">
          <a xlink:href="classSeeSawN_1_1GeometryN_1_1CoordinateTransformationsC_ac5db2cafc64d51264f6267b2ded8287c_icgraph_org.svg" target="_base">
           <rect id="button" ry="5" rx="5" y="6" x="6" height="38" width="38"
                fill="#f2f5e9" fill-opacity="0.5" stroke="#606060" stroke-width="1.0"/>
           <path id="arrow"
             d="M 11.500037,31.436501 C 11.940474,20.09759 22.043105,11.32322 32.158766,21.979434 L 37.068811,17.246167 C 37.068811,17.246167 37.088388,32 37.088388,32 L 22.160133,31.978069 C 22.160133,31.978069 26.997745,27.140456 26.997745,27.140456 C 18.528582,18.264221 13.291696,25.230495 11.500037,31.436501 z"
             style="fill:#404040;"/>
          </a>
         </g>
        </svg>
</svg>
