<?xml version="1.0" encoding="UTF-8" standalone="no"?>
<!DOCTYPE svg PUBLIC "-//W3C//DTD SVG 1.1//EN"
 "http://www.w3.org/Graphics/SVG/1.1/DTD/svg11.dtd">
<!-- Generated by graphviz version 2.38.0 (20140413.2041)
 -->
<!-- Title: SeeSawN::GeometryN::MultimodelGeometryEstimationPipelineC::DecimateCorrespondences Pages: 1 -->
<svg width="381pt" height="50pt"
 viewBox="0.00 0.00 381.00 50.00" xmlns="http://www.w3.org/2000/svg" xmlns:xlink="http://www.w3.org/1999/xlink">
<g id="graph0" class="graph" transform="scale(1 1) rotate(0) translate(4 46)">
<title>SeeSawN::GeometryN::MultimodelGeometryEstimationPipelineC::DecimateCorrespondences</title>
<polygon fill="white" stroke="none" points="-4,4 -4,-46 377,-46 377,4 -4,4"/>
<!-- Node0 -->
<g id="node1" class="node"><title>Node0</title>
<polygon fill="#bfbfbf" stroke="black" points="0,-0.5 0,-41.5 179,-41.5 179,-0.5 0,-0.5"/>
<text text-anchor="start" x="8" y="-29.5" font-family="FreeSans" font-size="10.00">SeeSawN::GeometryN</text>
<text text-anchor="start" x="8" y="-18.5" font-family="FreeSans" font-size="10.00">::MultimodelGeometryEstimation</text>
<text text-anchor="middle" x="89.5" y="-7.5" font-family="FreeSans" font-size="10.00">PipelineC::DecimateCorrespondences</text>
</g>
<!-- Node1 -->
<g id="node2" class="node"><title>Node1</title>
<g id="a_node2"><a xlink:href="group__Utility.html#ga4a3178cd608d8f7700486274f4af3b6d" target="_top" xlink:title="RANSAC problem for geometry estimation. ">
<polygon fill="white" stroke="black" points="215,-6 215,-36 373,-36 373,-6 215,-6"/>
<text text-anchor="start" x="223" y="-24" font-family="FreeSans" font-size="10.00">SeeSawN::RANSACN::Compute</text>
<text text-anchor="middle" x="294" y="-13" font-family="FreeSans" font-size="10.00">BinSize</text>
</a>
</g>
</g>
<!-- Node0&#45;&gt;Node1 -->
<g id="edge1" class="edge"><title>Node0&#45;&gt;Node1</title>
<path fill="none" stroke="midnightblue" d="M179.025,-21C187.499,-21 196.094,-21 204.567,-21"/>
<polygon fill="midnightblue" stroke="midnightblue" points="204.826,-24.5001 214.826,-21 204.826,-17.5001 204.826,-24.5001"/>
</g>
</g>
</svg>
