<?xml version="1.0" encoding="UTF-8" standalone="no"?>
<!DOCTYPE svg PUBLIC "-//W3C//DTD SVG 1.1//EN"
 "http://www.w3.org/Graphics/SVG/1.1/DTD/svg11.dtd">
<!-- Generated by graphviz version 2.38.0 (20140413.2041)
 -->
<!-- Title: SeeSawN::GeometryN::GeometrySolverBaseC&lt; DerivedT, ModelT, ErrorT, DIM1, DIM2, GENERATOR_SIZE, FLAG_NONMINIMAL, NSOLUTION, NPARAMETER, NDOF &gt; Pages: 1 -->
<svg width="206pt" height="391pt"
 viewBox="0.00 0.00 205.50 391.00" xmlns="http://www.w3.org/2000/svg" xmlns:xlink="http://www.w3.org/1999/xlink">
<g id="graph0" class="graph" transform="scale(1 1) rotate(0) translate(4 387)">
<title>SeeSawN::GeometryN::GeometrySolverBaseC&lt; DerivedT, ModelT, ErrorT, DIM1, DIM2, GENERATOR_SIZE, FLAG_NONMINIMAL, NSOLUTION, NPARAMETER, NDOF &gt;</title>
<polygon fill="white" stroke="none" points="-4,4 -4,-387 201.5,-387 201.5,4 -4,4"/>
<!-- Node27 -->
<g id="node1" class="node"><title>Node27</title>
<polygon fill="#bfbfbf" stroke="black" points="0,-0.5 0,-244.5 183,-244.5 183,-0.5 0,-0.5"/>
<text text-anchor="start" x="8" y="-232.5" font-family="FreeSans" font-size="10.00">SeeSawN::GeometryN</text>
<text text-anchor="start" x="8" y="-221.5" font-family="FreeSans" font-size="10.00">::GeometrySolverBaseC</text>
<text text-anchor="start" x="8" y="-210.5" font-family="FreeSans" font-size="10.00">&lt; DerivedT, ModelT, ErrorT,</text>
<text text-anchor="start" x="8" y="-199.5" font-family="FreeSans" font-size="10.00"> DIM1, DIM2, GENERATOR_SIZE,</text>
<text text-anchor="start" x="8" y="-188.5" font-family="FreeSans" font-size="10.00"> FLAG_NONMINIMAL, NSOLUTION,</text>
<text text-anchor="middle" x="91.5" y="-177.5" font-family="FreeSans" font-size="10.00"> NPARAMETER, NDOF &gt;</text>
<polyline fill="none" stroke="black" points="0,-170.5 183,-170.5 "/>
<text text-anchor="middle" x="91.5" y="-158.5" font-family="FreeSans" font-size="10.00"> </text>
<polyline fill="none" stroke="black" points="0,-151.5 183,-151.5 "/>
<text text-anchor="start" x="8" y="-139.5" font-family="FreeSans" font-size="10.00">+ EvaluateModel()</text>
<text text-anchor="start" x="8" y="-128.5" font-family="FreeSans" font-size="10.00">+ EvaluateModel()</text>
<text text-anchor="start" x="8" y="-117.5" font-family="FreeSans" font-size="10.00">* coordinate_type1</text>
<text text-anchor="start" x="8" y="-106.5" font-family="FreeSans" font-size="10.00">* coordinate_type2</text>
<text text-anchor="start" x="8" y="-95.5" font-family="FreeSans" font-size="10.00">* model_type</text>
<text text-anchor="start" x="8" y="-84.5" font-family="FreeSans" font-size="10.00">* real_type</text>
<text text-anchor="start" x="8" y="-73.5" font-family="FreeSans" font-size="10.00">* error_type</text>
<text text-anchor="start" x="8" y="-62.5" font-family="FreeSans" font-size="10.00">* constraint_type</text>
<text text-anchor="start" x="8" y="-51.5" font-family="FreeSans" font-size="10.00">* loss_type</text>
<text text-anchor="start" x="8" y="-40.5" font-family="FreeSans" font-size="10.00">* distance_type</text>
<text text-anchor="start" x="8" y="-29.5" font-family="FreeSans" font-size="10.00">* GeneratorSize()</text>
<text text-anchor="start" x="8" y="-18.5" font-family="FreeSans" font-size="10.00">* IsNonminimal()</text>
<text text-anchor="start" x="8" y="-7.5" font-family="FreeSans" font-size="10.00">and 8 more...</text>
</g>
<!-- Node28 -->
<g id="node2" class="node"><title>Node28</title>
<polygon fill="white" stroke="#bfbfbf" points="38,-325.5 38,-382.5 67,-382.5 67,-325.5 38,-325.5"/>
<text text-anchor="middle" x="52.5" y="-370.5" font-family="FreeSans" font-size="10.00">int</text>
<polyline fill="none" stroke="#bfbfbf" points="38,-363.5 67,-363.5 "/>
<text text-anchor="middle" x="52.5" y="-351.5" font-family="FreeSans" font-size="10.00"> </text>
<polyline fill="none" stroke="#bfbfbf" points="38,-344.5 67,-344.5 "/>
<text text-anchor="middle" x="52.5" y="-332.5" font-family="FreeSans" font-size="10.00"> </text>
</g>
<!-- Node28&#45;&gt;Node27 -->
<g id="edge1" class="edge"><title>Node28&#45;&gt;Node27</title>
<path fill="none" stroke="#404040" d="M50.9949,-325.291C50.4702,-307.425 50.6086,-283.738 53.5,-263 53.786,-260.949 54.0929,-258.885 54.4193,-256.812"/>
<polygon fill="none" stroke="#404040" points="54.4429,-256.675 51.5245,-250.081 56.489,-244.851 59.4074,-251.445 54.4429,-256.675"/>
<text text-anchor="middle" x="81.5" y="-299" font-family="FreeSans" font-size="10.00"> #nDOF</text>
<text text-anchor="middle" x="81.5" y="-288" font-family="FreeSans" font-size="10.00">#nParameter</text>
<text text-anchor="middle" x="81.5" y="-277" font-family="FreeSans" font-size="10.00">#sGenerator</text>
<text text-anchor="middle" x="81.5" y="-266" font-family="FreeSans" font-size="10.00">#nSolution</text>
</g>
<!-- Node29 -->
<g id="node3" class="node"><title>Node29</title>
<g id="a_node3"><a xlink:href="classbool.html" target="_top" xlink:title="{bool\n||}">
<polygon fill="white" stroke="black" points="114,-325.5 114,-382.5 149,-382.5 149,-325.5 114,-325.5"/>
<text text-anchor="middle" x="131.5" y="-370.5" font-family="FreeSans" font-size="10.00">bool</text>
<polyline fill="none" stroke="black" points="114,-363.5 149,-363.5 "/>
<text text-anchor="middle" x="131.5" y="-351.5" font-family="FreeSans" font-size="10.00"> </text>
<polyline fill="none" stroke="black" points="114,-344.5 149,-344.5 "/>
<text text-anchor="middle" x="131.5" y="-332.5" font-family="FreeSans" font-size="10.00"> </text>
</a>
</g>
</g>
<!-- Node29&#45;&gt;Node27 -->
<g id="edge2" class="edge"><title>Node29&#45;&gt;Node27</title>
<path fill="none" stroke="#404040" d="M126.675,-325.317C123.558,-307.431 119.247,-282.7 114.71,-256.67"/>
<polygon fill="none" stroke="#404040" points="114.674,-256.46 109.703,-251.236 112.613,-244.638 117.584,-249.863 114.674,-256.46"/>
<text text-anchor="middle" x="160" y="-282.5" font-family="FreeSans" font-size="10.00"> #flagNonminimal</text>
</g>
</g>
</svg>
