<?xml version="1.0" encoding="UTF-8" standalone="no"?>
<!DOCTYPE svg PUBLIC "-//W3C//DTD SVG 1.1//EN"
 "http://www.w3.org/Graphics/SVG/1.1/DTD/svg11.dtd">
<!-- Generated by graphviz version 2.38.0 (20140413.2041)
 -->
<!-- Title: SeeSawN::GeometryN::Rotation3DSolverC::MakeVector Pages: 1 -->
<svg width="274pt" height="50pt"
 viewBox="0.00 0.00 274.00 50.00" xmlns="http://www.w3.org/2000/svg" xmlns:xlink="http://www.w3.org/1999/xlink">
<g id="graph0" class="graph" transform="scale(1 1) rotate(0) translate(4 46)">
<title>SeeSawN::GeometryN::Rotation3DSolverC::MakeVector</title>
<polygon fill="white" stroke="none" points="-4,4 -4,-46 270,-46 270,4 -4,4"/>
<!-- Node54 -->
<g id="node1" class="node"><title>Node54</title>
<polygon fill="#bfbfbf" stroke="black" points="0,-0.5 0,-41.5 115,-41.5 115,-0.5 0,-0.5"/>
<text text-anchor="start" x="8" y="-29.5" font-family="FreeSans" font-size="10.00">SeeSawN::GeometryN</text>
<text text-anchor="start" x="8" y="-18.5" font-family="FreeSans" font-size="10.00">::Rotation3DSolverC</text>
<text text-anchor="middle" x="57.5" y="-7.5" font-family="FreeSans" font-size="10.00">::MakeVector</text>
</g>
<!-- Node55 -->
<g id="node2" class="node"><title>Node55</title>
<g id="a_node2"><a xlink:href="classSeeSawN_1_1GeometryN_1_1Rotation3DSolverC.html#a0a2b6c0c106ad9ecd19f455fc39293ab" target="_top" xlink:title="Extracts the rotation component from a model. ">
<polygon fill="white" stroke="black" points="151,-0.5 151,-41.5 266,-41.5 266,-0.5 151,-0.5"/>
<text text-anchor="start" x="159" y="-29.5" font-family="FreeSans" font-size="10.00">SeeSawN::GeometryN</text>
<text text-anchor="start" x="159" y="-18.5" font-family="FreeSans" font-size="10.00">::Rotation3DSolverC</text>
<text text-anchor="middle" x="208.5" y="-7.5" font-family="FreeSans" font-size="10.00">::ExtractRotation</text>
</a>
</g>
</g>
<!-- Node54&#45;&gt;Node55 -->
<g id="edge1" class="edge"><title>Node54&#45;&gt;Node55</title>
<path fill="none" stroke="midnightblue" d="M115.256,-21C123.558,-21 132.173,-21 140.654,-21"/>
<polygon fill="midnightblue" stroke="midnightblue" points="140.902,-24.5001 150.902,-21 140.902,-17.5001 140.902,-24.5001"/>
</g>
</g>
</svg>
