<?xml version="1.0" encoding="UTF-8" standalone="no"?>
<!DOCTYPE svg PUBLIC "-//W3C//DTD SVG 1.1//EN"
 "http://www.w3.org/Graphics/SVG/1.1/DTD/svg11.dtd">
<!-- Generated by graphviz version 2.38.0 (20140413.2041)
 -->
<!-- Title: SeeSawN::DataGeneratorN::RandomGeometryProblemGeneratorC::ApplyRandom3DTransformation Pages: 1 -->
<svg width="400pt" height="50pt"
 viewBox="0.00 0.00 400.00 50.00" xmlns="http://www.w3.org/2000/svg" xmlns:xlink="http://www.w3.org/1999/xlink">
<g id="graph0" class="graph" transform="scale(1 1) rotate(0) translate(4 46)">
<title>SeeSawN::DataGeneratorN::RandomGeometryProblemGeneratorC::ApplyRandom3DTransformation</title>
<polygon fill="white" stroke="none" points="-4,4 -4,-46 396,-46 396,4 -4,4"/>
<!-- Node8 -->
<g id="node1" class="node"><title>Node8</title>
<polygon fill="#bfbfbf" stroke="black" points="0,-0.5 0,-41.5 178,-41.5 178,-0.5 0,-0.5"/>
<text text-anchor="start" x="8" y="-29.5" font-family="FreeSans" font-size="10.00">SeeSawN::DataGeneratorN</text>
<text text-anchor="start" x="8" y="-18.5" font-family="FreeSans" font-size="10.00">::RandomGeometryProblemGenerator</text>
<text text-anchor="middle" x="89" y="-7.5" font-family="FreeSans" font-size="10.00">C::ApplyRandom3DTransformation</text>
</g>
<!-- Node9 -->
<g id="node2" class="node"><title>Node9</title>
<g id="a_node2"><a xlink:href="classSeeSawN_1_1DataGeneratorN_1_1RandomGeometryProblemGeneratorC.html#ae7a2561c381cbf92e51830af304b0736" target="_top" xlink:title="Generates a problem for solvers involving a camera pair and 2D correspondences. ">
<polygon fill="white" stroke="black" points="214,-0.5 214,-41.5 392,-41.5 392,-0.5 214,-0.5"/>
<text text-anchor="start" x="222" y="-29.5" font-family="FreeSans" font-size="10.00">SeeSawN::DataGeneratorN</text>
<text text-anchor="start" x="222" y="-18.5" font-family="FreeSans" font-size="10.00">::RandomGeometryProblemGenerator</text>
<text text-anchor="middle" x="303" y="-7.5" font-family="FreeSans" font-size="10.00">C::GenerateProblem22</text>
</a>
</g>
</g>
<!-- Node8&#45;&gt;Node9 -->
<g id="edge1" class="edge"><title>Node8&#45;&gt;Node9</title>
<path fill="none" stroke="midnightblue" d="M188.107,-21C196.7,-21 205.363,-21 213.868,-21"/>
<polygon fill="midnightblue" stroke="midnightblue" points="188.065,-17.5001 178.065,-21 188.065,-24.5001 188.065,-17.5001"/>
</g>
</g>
</svg>
