<?xml version="1.0" encoding="UTF-8" standalone="no"?>
<!DOCTYPE svg PUBLIC "-//W3C//DTD SVG 1.1//EN"
 "http://www.w3.org/Graphics/SVG/1.1/DTD/svg11.dtd">
<!-- Generated by graphviz version 2.38.0 (20140413.2041)
 -->
<!-- Title: SeeSawN::GeometryN::EssentialSolverC Pages: 1 -->
<!--zoomable 1003 -->
<svg id="main" version="1.1" xmlns="http://www.w3.org/2000/svg" xmlns:xlink="http://www.w3.org/1999/xlink" xml:space="preserve" onload="init(evt)">
<style type="text/css"><![CDATA[
.edge:hover path { stroke: red; }
.edge:hover polygon { stroke: red; fill: red; }
]]></style>
<script type="text/javascript"><![CDATA[
var edges = document.getElementsByTagName('g');
if (edges && edges.length) {
  for (var i=0;i<edges.length;i++) {
    if (edges[i].id.substr(0,4)=='edge') {
      edges[i].setAttribute('class','edge');
    }
  }
}
]]></script>
        <defs>
                <circle id="rim" cx="0" cy="0" r="7"/>
                <circle id="rim2" cx="0" cy="0" r="3.5"/>
                <g id="zoomPlus">
                        <use xlink:href="#rim" fill="#404040">
                                <set attributeName="fill" to="#808080" begin="zoomplus.mouseover" end="zoomplus.mouseout"/>
                        </use>
                        <path d="M-4,0h8M0,-4v8" fill="none" stroke="white" stroke-width="1.5" pointer-events="none"/>
                </g>
                <g id="zoomMin">
                        <use xlink:href="#rim" fill="#404040">
                                <set attributeName="fill" to="#808080" begin="zoomminus.mouseover" end="zoomminus.mouseout"/>
                        </use>
                        <path d="M-4,0h8" fill="none" stroke="white" stroke-width="1.5" pointer-events="none"/>
                </g>
                <g id="dirArrow">
                        <path fill="none" stroke="white" stroke-width="1.5" d="M0,-3.0v7 M-2.5,-0.5L0,-3.0L2.5,-0.5"/>
                </g>
               <g id="resetDef">
                       <use xlink:href="#rim2" fill="#404040">
                               <set attributeName="fill" to="#808080" begin="reset.mouseover" end="reset.mouseout"/>
                       </use>
               </g>
        </defs>

<script type="text/javascript">
var viewWidth = 209;
var viewHeight = 1003;
var sectionId = 'dynsection-0';
</script>
<script xlink:href="svgpan.js"/>
<svg id="graph" class="graph">
<g id="viewport">
<title>SeeSawN::GeometryN::EssentialSolverC</title>
<polygon fill="white" stroke="none" points="-4,4 -4,-999 204.5,-999 204.5,4 -4,4"/>
<!-- Node0 -->
<g id="node1" class="node"><title>Node0</title>
<polygon fill="#bfbfbf" stroke="black" points="19.5,-0.5 19.5,-244.5 163.5,-244.5 163.5,-0.5 19.5,-0.5"/>
<text text-anchor="start" x="27.5" y="-232.5" font-family="FreeSans" font-size="10.00">SeeSawN::GeometryN</text>
<text text-anchor="middle" x="91.5" y="-221.5" font-family="FreeSans" font-size="10.00">::EssentialSolverC</text>
<polyline fill="none" stroke="black" points="19.5,-214.5 163.5,-214.5 "/>
<text text-anchor="middle" x="91.5" y="-202.5" font-family="FreeSans" font-size="10.00"> </text>
<polyline fill="none" stroke="black" points="19.5,-195.5 163.5,-195.5 "/>
<text text-anchor="start" x="27.5" y="-183.5" font-family="FreeSans" font-size="10.00">+ MakeMinimal()</text>
<text text-anchor="start" x="27.5" y="-172.5" font-family="FreeSans" font-size="10.00">+ ComputeSampleStatistics()</text>
<text text-anchor="start" x="27.5" y="-161.5" font-family="FreeSans" font-size="10.00">+ operator()()</text>
<text text-anchor="start" x="27.5" y="-150.5" font-family="FreeSans" font-size="10.00">+ VerifyTraceConstraint()</text>
<text text-anchor="start" x="27.5" y="-139.5" font-family="FreeSans" font-size="10.00">* distance_type</text>
<text text-anchor="start" x="27.5" y="-128.5" font-family="FreeSans" font-size="10.00">* minimal_model_type</text>
<text text-anchor="start" x="27.5" y="-117.5" font-family="FreeSans" font-size="10.00">* uncertainty_type</text>
<text text-anchor="start" x="27.5" y="-106.5" font-family="FreeSans" font-size="10.00">* operator()()</text>
<text text-anchor="start" x="27.5" y="-95.5" font-family="FreeSans" font-size="10.00">* Cost()</text>
<text text-anchor="start" x="27.5" y="-84.5" font-family="FreeSans" font-size="10.00">* MakeMinimal()</text>
<text text-anchor="start" x="27.5" y="-73.5" font-family="FreeSans" font-size="10.00">* MakeModelFromMinimal()</text>
<text text-anchor="start" x="27.5" y="-62.5" font-family="FreeSans" font-size="10.00">* ComputeSampleStatistics()</text>
<text text-anchor="start" x="27.5" y="-51.5" font-family="FreeSans" font-size="10.00">* iRotation</text>
<text text-anchor="start" x="27.5" y="-40.5" font-family="FreeSans" font-size="10.00">* iAzimuth</text>
<text text-anchor="start" x="27.5" y="-29.5" font-family="FreeSans" font-size="10.00">* iElevation</text>
<text text-anchor="start" x="27.5" y="-18.5" font-family="FreeSans" font-size="10.00">* ModelFromBasis()</text>
<text text-anchor="start" x="27.5" y="-7.5" font-family="FreeSans" font-size="10.00">* ComputeActionMatrix()</text>
</g>
<!-- Node1 -->
<g id="node2" class="node"><title>Node1</title>
<g id="a_node2"><a xlink:href="classSeeSawN_1_1GeometryN_1_1GeometrySolverBaseC.html" target="_top" xlink:title="{SeeSawN::GeometryN\l::GeometrySolverBaseC\l\&lt; EssentialSolverC, Epipolar\lMatrixT, EpipolarSampsonErrorC,\l 2, 2, 5, true, 10, 9, 5 \&gt;\n|# sGenerator\l# flagNonminimal\l# nSolution\l# nParameter\l# nDOF\l|+ EvaluateModel()\l+ EvaluateModel()\l* coordinate_type1\l* coordinate_type2\l* model_type\l* real_type\l* error_type\l* constraint_type\l* loss_type\l* distance_type\l* GeneratorSize()\l* IsNonminimal()\land 8 more...\l* sGenerator\l* flagNonminimal\l* nSolution\l* nParameter\l* nDOF\l}">
<polygon fill="white" stroke="black" points="11.5,-282.5 11.5,-614.5 171.5,-614.5 171.5,-282.5 11.5,-282.5"/>
<text text-anchor="start" x="19.5" y="-602.5" font-family="FreeSans" font-size="10.00">SeeSawN::GeometryN</text>
<text text-anchor="start" x="19.5" y="-591.5" font-family="FreeSans" font-size="10.00">::GeometrySolverBaseC</text>
<text text-anchor="start" x="19.5" y="-580.5" font-family="FreeSans" font-size="10.00">&lt; EssentialSolverC, Epipolar</text>
<text text-anchor="start" x="19.5" y="-569.5" font-family="FreeSans" font-size="10.00">MatrixT, EpipolarSampsonErrorC,</text>
<text text-anchor="middle" x="91.5" y="-558.5" font-family="FreeSans" font-size="10.00"> 2, 2, 5, true, 10, 9, 5 &gt;</text>
<polyline fill="none" stroke="black" points="11.5,-551.5 171.5,-551.5 "/>
<text text-anchor="start" x="19.5" y="-539.5" font-family="FreeSans" font-size="10.00"># sGenerator</text>
<text text-anchor="start" x="19.5" y="-528.5" font-family="FreeSans" font-size="10.00"># flagNonminimal</text>
<text text-anchor="start" x="19.5" y="-517.5" font-family="FreeSans" font-size="10.00"># nSolution</text>
<text text-anchor="start" x="19.5" y="-506.5" font-family="FreeSans" font-size="10.00"># nParameter</text>
<text text-anchor="start" x="19.5" y="-495.5" font-family="FreeSans" font-size="10.00"># nDOF</text>
<polyline fill="none" stroke="black" points="11.5,-488.5 171.5,-488.5 "/>
<text text-anchor="start" x="19.5" y="-476.5" font-family="FreeSans" font-size="10.00">+ EvaluateModel()</text>
<text text-anchor="start" x="19.5" y="-465.5" font-family="FreeSans" font-size="10.00">+ EvaluateModel()</text>
<text text-anchor="start" x="19.5" y="-454.5" font-family="FreeSans" font-size="10.00">* coordinate_type1</text>
<text text-anchor="start" x="19.5" y="-443.5" font-family="FreeSans" font-size="10.00">* coordinate_type2</text>
<text text-anchor="start" x="19.5" y="-432.5" font-family="FreeSans" font-size="10.00">* model_type</text>
<text text-anchor="start" x="19.5" y="-421.5" font-family="FreeSans" font-size="10.00">* real_type</text>
<text text-anchor="start" x="19.5" y="-410.5" font-family="FreeSans" font-size="10.00">* error_type</text>
<text text-anchor="start" x="19.5" y="-399.5" font-family="FreeSans" font-size="10.00">* constraint_type</text>
<text text-anchor="start" x="19.5" y="-388.5" font-family="FreeSans" font-size="10.00">* loss_type</text>
<text text-anchor="start" x="19.5" y="-377.5" font-family="FreeSans" font-size="10.00">* distance_type</text>
<text text-anchor="start" x="19.5" y="-366.5" font-family="FreeSans" font-size="10.00">* GeneratorSize()</text>
<text text-anchor="start" x="19.5" y="-355.5" font-family="FreeSans" font-size="10.00">* IsNonminimal()</text>
<text text-anchor="start" x="19.5" y="-344.5" font-family="FreeSans" font-size="10.00">and 8 more...</text>
<text text-anchor="start" x="19.5" y="-333.5" font-family="FreeSans" font-size="10.00">* sGenerator</text>
<text text-anchor="start" x="19.5" y="-322.5" font-family="FreeSans" font-size="10.00">* flagNonminimal</text>
<text text-anchor="start" x="19.5" y="-311.5" font-family="FreeSans" font-size="10.00">* nSolution</text>
<text text-anchor="start" x="19.5" y="-300.5" font-family="FreeSans" font-size="10.00">* nParameter</text>
<text text-anchor="start" x="19.5" y="-289.5" font-family="FreeSans" font-size="10.00">* nDOF</text>
</a>
</g>
</g>
<!-- Node1&#45;&gt;Node0 -->
<g id="edge1" class="edge"><title>Node1&#45;&gt;Node0</title>
<path fill="none" stroke="midnightblue" d="M91.5,-272.119C91.5,-262.866 91.5,-253.671 91.5,-244.656"/>
<polygon fill="none" stroke="midnightblue" points="88.0001,-272.178 91.5,-282.178 95.0001,-272.178 88.0001,-272.178"/>
</g>
<!-- Node2 -->
<g id="node3" class="node"><title>Node2</title>
<g id="a_node3"><a xlink:href="classSeeSawN_1_1GeometryN_1_1GeometrySolverBaseC.html" target="_top" xlink:title="Base class for geometry solvers. ">
<polygon fill="white" stroke="black" points="0,-695.5 0,-994.5 183,-994.5 183,-695.5 0,-695.5"/>
<text text-anchor="start" x="8" y="-982.5" font-family="FreeSans" font-size="10.00">SeeSawN::GeometryN</text>
<text text-anchor="start" x="8" y="-971.5" font-family="FreeSans" font-size="10.00">::GeometrySolverBaseC</text>
<text text-anchor="start" x="8" y="-960.5" font-family="FreeSans" font-size="10.00">&lt; DerivedT, ModelT, ErrorT,</text>
<text text-anchor="start" x="8" y="-949.5" font-family="FreeSans" font-size="10.00"> DIM1, DIM2, GENERATOR_SIZE,</text>
<text text-anchor="start" x="8" y="-938.5" font-family="FreeSans" font-size="10.00"> FLAG_NONMINIMAL, NSOLUTION,</text>
<text text-anchor="middle" x="91.5" y="-927.5" font-family="FreeSans" font-size="10.00"> NPARAMETER, NDOF &gt;</text>
<polyline fill="none" stroke="black" points="0,-920.5 183,-920.5 "/>
<text text-anchor="middle" x="91.5" y="-908.5" font-family="FreeSans" font-size="10.00"> </text>
<polyline fill="none" stroke="black" points="0,-901.5 183,-901.5 "/>
<text text-anchor="start" x="8" y="-889.5" font-family="FreeSans" font-size="10.00">+ EvaluateModel()</text>
<text text-anchor="start" x="8" y="-878.5" font-family="FreeSans" font-size="10.00">+ EvaluateModel()</text>
<text text-anchor="start" x="8" y="-867.5" font-family="FreeSans" font-size="10.00">* coordinate_type1</text>
<text text-anchor="start" x="8" y="-856.5" font-family="FreeSans" font-size="10.00">* coordinate_type2</text>
<text text-anchor="start" x="8" y="-845.5" font-family="FreeSans" font-size="10.00">* model_type</text>
<text text-anchor="start" x="8" y="-834.5" font-family="FreeSans" font-size="10.00">* real_type</text>
<text text-anchor="start" x="8" y="-823.5" font-family="FreeSans" font-size="10.00">* error_type</text>
<text text-anchor="start" x="8" y="-812.5" font-family="FreeSans" font-size="10.00">* constraint_type</text>
<text text-anchor="start" x="8" y="-801.5" font-family="FreeSans" font-size="10.00">* loss_type</text>
<text text-anchor="start" x="8" y="-790.5" font-family="FreeSans" font-size="10.00">* distance_type</text>
<text text-anchor="start" x="8" y="-779.5" font-family="FreeSans" font-size="10.00">* GeneratorSize()</text>
<text text-anchor="start" x="8" y="-768.5" font-family="FreeSans" font-size="10.00">* IsNonminimal()</text>
<text text-anchor="start" x="8" y="-757.5" font-family="FreeSans" font-size="10.00">and 8 more...</text>
<text text-anchor="start" x="8" y="-746.5" font-family="FreeSans" font-size="10.00">* sGenerator</text>
<text text-anchor="start" x="8" y="-735.5" font-family="FreeSans" font-size="10.00">* flagNonminimal</text>
<text text-anchor="start" x="8" y="-724.5" font-family="FreeSans" font-size="10.00">* nSolution</text>
<text text-anchor="start" x="8" y="-713.5" font-family="FreeSans" font-size="10.00">* nParameter</text>
<text text-anchor="start" x="8" y="-702.5" font-family="FreeSans" font-size="10.00">* nDOF</text>
</a>
</g>
</g>
<!-- Node2&#45;&gt;Node1 -->
<g id="edge2" class="edge"><title>Node2&#45;&gt;Node1</title>
<path fill="none" stroke="orange" d="M91.5,-685.183C91.5,-662.01 91.5,-638.1 91.5,-614.8"/>
<polygon fill="orange" stroke="orange" points="88.0001,-685.419 91.5,-695.419 95.0001,-685.419 88.0001,-685.419"/>
<text text-anchor="start" x="91.5" y="-669" font-family="FreeSans" font-size="10.00"> &lt; EssentialSolverC,</text>
<text text-anchor="start" x="91.5" y="-658" font-family="FreeSans" font-size="10.00"> EpipolarMatrixT, Epipolar</text>
<text text-anchor="start" x="91.5" y="-647" font-family="FreeSans" font-size="10.00">SampsonErrorC, 2, 2, 5,</text>
<text text-anchor="middle" x="146" y="-636" font-family="FreeSans" font-size="10.00"> true, 10, 9, 5 &gt;</text>
</g>
</g>
</svg>
        <g id="navigator" transform="translate(0 0)" fill="#404254">
                <rect fill="#f2f5e9" fill-opacity="0.5" stroke="#606060" stroke-width=".5" x="0" y="0" width="60" height="60"/>
                <use id="zoomplus" xlink:href="#zoomPlus" x="17" y="9" onmousedown="handleZoom(evt,'in')"/>
                <use id="zoomminus" xlink:href="#zoomMin" x="42" y="9" onmousedown="handleZoom(evt,'out')"/>
                <use id="reset" xlink:href="#resetDef" x="30" y="36" onmousedown="handleReset()"/>
                <g id="arrowUp" xlink:href="#dirArrow" transform="translate(30 24)" onmousedown="handlePan(0,-1)">
                  <use xlink:href="#rim" fill="#404040">
                        <set attributeName="fill" to="#808080" begin="arrowUp.mouseover" end="arrowUp.mouseout"/>
                  </use>
                  <path fill="none" stroke="white" stroke-width="1.5" d="M0,-3.0v7 M-2.5,-0.5L0,-3.0L2.5,-0.5"/>
                </g>
                <g id="arrowRight" xlink:href="#dirArrow" transform="rotate(90) translate(36 -43)" onmousedown="handlePan(1,0)">
                  <use xlink:href="#rim" fill="#404040">
                        <set attributeName="fill" to="#808080" begin="arrowRight.mouseover" end="arrowRight.mouseout"/>
                  </use>
                  <path fill="none" stroke="white" stroke-width="1.5" d="M0,-3.0v7 M-2.5,-0.5L0,-3.0L2.5,-0.5"/>
                </g>
                <g id="arrowDown" xlink:href="#dirArrow" transform="rotate(180) translate(-30 -48)" onmousedown="handlePan(0,1)">
                  <use xlink:href="#rim" fill="#404040">
                        <set attributeName="fill" to="#808080" begin="arrowDown.mouseover" end="arrowDown.mouseout"/>
                  </use>
                  <path fill="none" stroke="white" stroke-width="1.5" d="M0,-3.0v7 M-2.5,-0.5L0,-3.0L2.5,-0.5"/>
                </g>
                <g id="arrowLeft" xlink:href="#dirArrow" transform="rotate(270) translate(-36 17)" onmousedown="handlePan(-1,0)">
                  <use xlink:href="#rim" fill="#404040">
                        <set attributeName="fill" to="#808080" begin="arrowLeft.mouseover" end="arrowLeft.mouseout"/>
                  </use>
                  <path fill="none" stroke="white" stroke-width="1.5" d="M0,-3.0v7 M-2.5,-0.5L0,-3.0L2.5,-0.5"/>
                </g>
        </g>
        <svg viewBox="0 0 15 15" width="100%" height="30px" preserveAspectRatio="xMaxYMin meet">
         <g id="arrow_out" transform="scale(0.3 0.3)">
          <a xlink:href="classSeeSawN_1_1GeometryN_1_1EssentialSolverC__inherit__graph_org.svg" target="_base">
           <rect id="button" ry="5" rx="5" y="6" x="6" height="38" width="38"
                fill="#f2f5e9" fill-opacity="0.5" stroke="#606060" stroke-width="1.0"/>
           <path id="arrow"
             d="M 11.500037,31.436501 C 11.940474,20.09759 22.043105,11.32322 32.158766,21.979434 L 37.068811,17.246167 C 37.068811,17.246167 37.088388,32 37.088388,32 L 22.160133,31.978069 C 22.160133,31.978069 26.997745,27.140456 26.997745,27.140456 C 18.528582,18.264221 13.291696,25.230495 11.500037,31.436501 z"
             style="fill:#404040;"/>
          </a>
         </g>
        </svg>
</svg>
