<?xml version="1.0" encoding="UTF-8" standalone="no"?>
<!DOCTYPE svg PUBLIC "-//W3C//DTD SVG 1.1//EN"
 "http://www.w3.org/Graphics/SVG/1.1/DTD/svg11.dtd">
<!-- Generated by graphviz version 2.38.0 (20140413.2041)
 -->
<!-- Title: SeeSawN::MetricsN::EpipolarSampsonErrorC Pages: 1 -->
<svg width="303pt" height="446pt"
 viewBox="0.00 0.00 303.00 446.00" xmlns="http://www.w3.org/2000/svg" xmlns:xlink="http://www.w3.org/1999/xlink">
<g id="graph0" class="graph" transform="scale(1 1) rotate(0) translate(4 442)">
<title>SeeSawN::MetricsN::EpipolarSampsonErrorC</title>
<polygon fill="white" stroke="none" points="-4,4 -4,-442 299,-442 299,4 -4,4"/>
<!-- Node1 -->
<g id="node1" class="node"><title>Node1</title>
<polygon fill="#bfbfbf" stroke="black" points="118.5,-0.5 118.5,-321.5 257.5,-321.5 257.5,-0.5 118.5,-0.5"/>
<text text-anchor="start" x="126.5" y="-309.5" font-family="FreeSans" font-size="10.00">SeeSawN::MetricsN::</text>
<text text-anchor="middle" x="188" y="-298.5" font-family="FreeSans" font-size="10.00">EpipolarSampsonErrorC</text>
<polyline fill="none" stroke="black" points="118.5,-291.5 257.5,-291.5 "/>
<text text-anchor="middle" x="188" y="-279.5" font-family="FreeSans" font-size="10.00"> </text>
<polyline fill="none" stroke="black" points="118.5,-272.5 257.5,-272.5 "/>
<text text-anchor="start" x="126.5" y="-260.5" font-family="FreeSans" font-size="10.00">+ Project()</text>
<text text-anchor="start" x="126.5" y="-249.5" font-family="FreeSans" font-size="10.00">+ InverseProject()</text>
<text text-anchor="start" x="126.5" y="-238.5" font-family="FreeSans" font-size="10.00">* TransformT</text>
<text text-anchor="start" x="126.5" y="-227.5" font-family="FreeSans" font-size="10.00">* result_type</text>
<text text-anchor="start" x="126.5" y="-216.5" font-family="FreeSans" font-size="10.00">* first_argument_type</text>
<text text-anchor="start" x="126.5" y="-205.5" font-family="FreeSans" font-size="10.00">* second_argument_type</text>
<text text-anchor="start" x="126.5" y="-194.5" font-family="FreeSans" font-size="10.00">* operator()()</text>
<text text-anchor="start" x="126.5" y="-183.5" font-family="FreeSans" font-size="10.00">* projected1_type</text>
<text text-anchor="start" x="126.5" y="-172.5" font-family="FreeSans" font-size="10.00">* projected2_type</text>
<text text-anchor="start" x="126.5" y="-161.5" font-family="FreeSans" font-size="10.00">* projector_type</text>
<text text-anchor="start" x="126.5" y="-150.5" font-family="FreeSans" font-size="10.00">* arity_tag</text>
<text text-anchor="start" x="126.5" y="-139.5" font-family="FreeSans" font-size="10.00">* jacobian_type</text>
<text text-anchor="start" x="126.5" y="-128.5" font-family="FreeSans" font-size="10.00">* Project()</text>
<text text-anchor="start" x="126.5" y="-117.5" font-family="FreeSans" font-size="10.00">* InverseProject()</text>
<text text-anchor="start" x="126.5" y="-106.5" font-family="FreeSans" font-size="10.00">* operator()()</text>
<text text-anchor="start" x="126.5" y="-95.5" font-family="FreeSans" font-size="10.00">* ComputeJacobiandP()</text>
<text text-anchor="start" x="126.5" y="-84.5" font-family="FreeSans" font-size="10.00">* ComputeJacobiandx1x2()</text>
<text text-anchor="start" x="126.5" y="-73.5" font-family="FreeSans" font-size="10.00">* Cost()</text>
<text text-anchor="start" x="126.5" y="-62.5" font-family="FreeSans" font-size="10.00">* ComputeFromProjected()</text>
<text text-anchor="start" x="126.5" y="-51.5" font-family="FreeSans" font-size="10.00">* ComputeOutlierThreshold()</text>
<text text-anchor="start" x="126.5" y="-40.5" font-family="FreeSans" font-size="10.00">* EpipolarSampsonErrorC()</text>
<text text-anchor="start" x="126.5" y="-29.5" font-family="FreeSans" font-size="10.00">* EpipolarSampsonErrorC()</text>
<text text-anchor="start" x="126.5" y="-18.5" font-family="FreeSans" font-size="10.00">* GetProjector()</text>
<text text-anchor="start" x="126.5" y="-7.5" font-family="FreeSans" font-size="10.00">* SetProjector()</text>
</g>
<!-- Node2 -->
<g id="node2" class="node"><title>Node2</title>
<polygon fill="white" stroke="#bfbfbf" points="0,-380.5 0,-437.5 128,-437.5 128,-380.5 0,-380.5"/>
<text text-anchor="middle" x="64" y="-425.5" font-family="FreeSans" font-size="10.00">projective_transform_type</text>
<polyline fill="none" stroke="#bfbfbf" points="0,-418.5 128,-418.5 "/>
<text text-anchor="middle" x="64" y="-406.5" font-family="FreeSans" font-size="10.00"> </text>
<polyline fill="none" stroke="#bfbfbf" points="0,-399.5 128,-399.5 "/>
<text text-anchor="middle" x="64" y="-387.5" font-family="FreeSans" font-size="10.00"> </text>
</g>
<!-- Node2&#45;&gt;Node1 -->
<g id="edge1" class="edge"><title>Node2&#45;&gt;Node1</title>
<path fill="none" stroke="#404040" d="M77.9833,-380.259C87.0016,-362.368 99.5122,-337.548 112.875,-311.038"/>
<polygon fill="none" stroke="#404040" points="113.039,-310.713 112.168,-303.555 118.44,-299.997 119.312,-307.156 113.039,-310.713"/>
<text text-anchor="middle" x="108.5" y="-354" font-family="FreeSans" font-size="10.00"> &#45;mF</text>
<text text-anchor="middle" x="108.5" y="-343" font-family="FreeSans" font-size="10.00">&#45;mFt</text>
</g>
<!-- Node3 -->
<g id="node3" class="node"><title>Node3</title>
<polygon fill="white" stroke="#bfbfbf" points="146.5,-380.5 146.5,-437.5 181.5,-437.5 181.5,-380.5 146.5,-380.5"/>
<text text-anchor="middle" x="164" y="-425.5" font-family="FreeSans" font-size="10.00">float</text>
<polyline fill="none" stroke="#bfbfbf" points="146.5,-418.5 181.5,-418.5 "/>
<text text-anchor="middle" x="164" y="-406.5" font-family="FreeSans" font-size="10.00"> </text>
<polyline fill="none" stroke="#bfbfbf" points="146.5,-399.5 181.5,-399.5 "/>
<text text-anchor="middle" x="164" y="-387.5" font-family="FreeSans" font-size="10.00"> </text>
</g>
<!-- Node3&#45;&gt;Node1 -->
<g id="edge2" class="edge"><title>Node3&#45;&gt;Node1</title>
<path fill="none" stroke="#404040" d="M164.231,-380.178C164.485,-367.854 164.993,-353.19 166,-340 166.159,-337.919 166.324,-335.825 166.496,-333.719"/>
<polygon fill="none" stroke="#404040" points="166.514,-333.513 163.045,-327.191 167.547,-321.558 171.016,-327.88 166.514,-333.513"/>
<text text-anchor="middle" x="178.5" y="-348.5" font-family="FreeSans" font-size="10.00"> &#45;cost</text>
</g>
<!-- Node4 -->
<g id="node4" class="node"><title>Node4</title>
<polygon fill="white" stroke="#bfbfbf" points="199.5,-380.5 199.5,-437.5 228.5,-437.5 228.5,-380.5 199.5,-380.5"/>
<text text-anchor="middle" x="214" y="-425.5" font-family="FreeSans" font-size="10.00">int</text>
<polyline fill="none" stroke="#bfbfbf" points="199.5,-418.5 228.5,-418.5 "/>
<text text-anchor="middle" x="214" y="-406.5" font-family="FreeSans" font-size="10.00"> </text>
<polyline fill="none" stroke="#bfbfbf" points="199.5,-399.5 228.5,-399.5 "/>
<text text-anchor="middle" x="214" y="-387.5" font-family="FreeSans" font-size="10.00"> </text>
</g>
<!-- Node4&#45;&gt;Node1 -->
<g id="edge3" class="edge"><title>Node4&#45;&gt;Node1</title>
<path fill="none" stroke="#404040" d="M211.068,-380.259C209.734,-367.641 208.037,-351.577 206.169,-333.904"/>
<polygon fill="none" stroke="#404040" points="206.146,-333.691 201.538,-328.145 204.885,-321.757 209.493,-327.304 206.146,-333.691"/>
<text text-anchor="middle" x="225.5" y="-348.5" font-family="FreeSans" font-size="10.00"> &#45;nDOF</text>
</g>
<!-- Node5 -->
<g id="node5" class="node"><title>Node5</title>
<g id="a_node5"><a xlink:href="classbool.html" target="_top" xlink:title="{bool\n||}">
<polygon fill="white" stroke="black" points="249.5,-380.5 249.5,-437.5 284.5,-437.5 284.5,-380.5 249.5,-380.5"/>
<text text-anchor="middle" x="267" y="-425.5" font-family="FreeSans" font-size="10.00">bool</text>
<polyline fill="none" stroke="black" points="249.5,-418.5 284.5,-418.5 "/>
<text text-anchor="middle" x="267" y="-406.5" font-family="FreeSans" font-size="10.00"> </text>
<polyline fill="none" stroke="black" points="249.5,-399.5 284.5,-399.5 "/>
<text text-anchor="middle" x="267" y="-387.5" font-family="FreeSans" font-size="10.00"> </text>
</a>
</g>
</g>
<!-- Node5&#45;&gt;Node1 -->
<g id="edge4" class="edge"><title>Node5&#45;&gt;Node1</title>
<path fill="none" stroke="#404040" d="M258.091,-380.259C254,-367.52 248.781,-351.269 243.042,-333.396"/>
<polygon fill="none" stroke="#404040" points="242.973,-333.183 237.33,-328.693 239.304,-321.757 244.947,-326.247 242.973,-333.183"/>
<text text-anchor="middle" x="273.5" y="-348.5" font-family="FreeSans" font-size="10.00"> &#45;flagValid</text>
</g>
</g>
</svg>
