<?xml version="1.0" encoding="UTF-8" standalone="no"?>
<!DOCTYPE svg PUBLIC "-//W3C//DTD SVG 1.1//EN"
 "http://www.w3.org/Graphics/SVG/1.1/DTD/svg11.dtd">
<!-- Generated by graphviz version 2.38.0 (20140413.2041)
 -->
<!-- Title: SeeSawN::ApplicationN::InterfaceGeometryEstimationPipelineC::MakeParameterObject Pages: 1 -->
<!--zoomable 508 -->
<svg id="main" version="1.1" xmlns="http://www.w3.org/2000/svg" xmlns:xlink="http://www.w3.org/1999/xlink" xml:space="preserve" onload="init(evt)">
<style type="text/css"><![CDATA[
.edge:hover path { stroke: red; }
.edge:hover polygon { stroke: red; fill: red; }
]]></style>
<script type="text/javascript"><![CDATA[
var edges = document.getElementsByTagName('g');
if (edges && edges.length) {
  for (var i=0;i<edges.length;i++) {
    if (edges[i].id.substr(0,4)=='edge') {
      edges[i].setAttribute('class','edge');
    }
  }
}
]]></script>
        <defs>
                <circle id="rim" cx="0" cy="0" r="7"/>
                <circle id="rim2" cx="0" cy="0" r="3.5"/>
                <g id="zoomPlus">
                        <use xlink:href="#rim" fill="#404040">
                                <set attributeName="fill" to="#808080" begin="zoomplus.mouseover" end="zoomplus.mouseout"/>
                        </use>
                        <path d="M-4,0h8M0,-4v8" fill="none" stroke="white" stroke-width="1.5" pointer-events="none"/>
                </g>
                <g id="zoomMin">
                        <use xlink:href="#rim" fill="#404040">
                                <set attributeName="fill" to="#808080" begin="zoomminus.mouseover" end="zoomminus.mouseout"/>
                        </use>
                        <path d="M-4,0h8" fill="none" stroke="white" stroke-width="1.5" pointer-events="none"/>
                </g>
                <g id="dirArrow">
                        <path fill="none" stroke="white" stroke-width="1.5" d="M0,-3.0v7 M-2.5,-0.5L0,-3.0L2.5,-0.5"/>
                </g>
               <g id="resetDef">
                       <use xlink:href="#rim2" fill="#404040">
                               <set attributeName="fill" to="#808080" begin="reset.mouseover" end="reset.mouseout"/>
                       </use>
               </g>
        </defs>

<script type="text/javascript">
var viewWidth = 909;
var viewHeight = 508;
var sectionId = 'dynsection-2';
</script>
<script xlink:href="svgpan.js"/>
<svg id="graph" class="graph">
<g id="viewport">
<title>SeeSawN::ApplicationN::InterfaceGeometryEstimationPipelineC::MakeParameterObject</title>
<polygon fill="white" stroke="none" points="-4,4 -4,-504 905,-504 905,4 -4,4"/>
<!-- Node14 -->
<g id="node1" class="node"><title>Node14</title>
<polygon fill="#bfbfbf" stroke="black" points="0,-240.5 0,-281.5 160,-281.5 160,-240.5 0,-240.5"/>
<text text-anchor="start" x="8" y="-269.5" font-family="FreeSans" font-size="10.00">SeeSawN::ApplicationN</text>
<text text-anchor="start" x="8" y="-258.5" font-family="FreeSans" font-size="10.00">::InterfaceGeometryEstimation</text>
<text text-anchor="middle" x="80" y="-247.5" font-family="FreeSans" font-size="10.00">PipelineC::MakeParameterObject</text>
</g>
<!-- Node15 -->
<g id="node2" class="node"><title>Node15</title>
<g id="a_node2"><a xlink:href="classSeeSawN_1_1ApplicationN_1_1InterfacePoseGraphPipelineC.html#a8b6ca5eab7c573298151bb52c18ce8a6" target="_top" xlink:title="Makes a parameter object from a property tree. ">
<polygon fill="white" stroke="black" points="227.5,-458.5 227.5,-499.5 370.5,-499.5 370.5,-458.5 227.5,-458.5"/>
<text text-anchor="start" x="235.5" y="-487.5" font-family="FreeSans" font-size="10.00">SeeSawN::ApplicationN</text>
<text text-anchor="start" x="235.5" y="-476.5" font-family="FreeSans" font-size="10.00">::InterfacePoseGraphPipeline</text>
<text text-anchor="middle" x="299" y="-465.5" font-family="FreeSans" font-size="10.00">C::MakeParameterObject</text>
</a>
</g>
</g>
<!-- Node14&#45;&gt;Node15 -->
<g id="edge1" class="edge"><title>Node14&#45;&gt;Node15</title>
<path fill="none" stroke="midnightblue" d="M92.38,-291.116C109.116,-331.503 144.109,-402.877 196,-444 205.244,-451.326 216.115,-457.166 227.254,-461.807"/>
<polygon fill="midnightblue" stroke="midnightblue" points="95.6044,-289.754 88.6133,-281.793 89.1141,-292.376 95.6044,-289.754"/>
</g>
<!-- Node16 -->
<g id="node3" class="node"><title>Node16</title>
<g id="a_node3"><a xlink:href="classSeeSawN_1_1ApplicationN_1_1InterfaceSfMPipelineC.html#a2dcd6302c84357ab559b2ba37a7cbbf9" target="_top" xlink:title="Makes a parameter object from a property tree. ">
<polygon fill="white" stroke="black" points="483.5,-420.5 483.5,-461.5 604.5,-461.5 604.5,-420.5 483.5,-420.5"/>
<text text-anchor="start" x="491.5" y="-449.5" font-family="FreeSans" font-size="10.00">SeeSawN::ApplicationN</text>
<text text-anchor="start" x="491.5" y="-438.5" font-family="FreeSans" font-size="10.00">::InterfaceSfMPipelineC</text>
<text text-anchor="middle" x="544" y="-427.5" font-family="FreeSans" font-size="10.00">::MakeParameterObject</text>
</a>
</g>
</g>
<!-- Node14&#45;&gt;Node16 -->
<g id="edge15" class="edge"><title>Node14&#45;&gt;Node16</title>
<path fill="none" stroke="midnightblue" d="M94.506,-291.036C112.229,-326.517 146.948,-384.109 196,-411 243.985,-437.307 397.579,-441.411 483.457,-441.558"/>
<polygon fill="midnightblue" stroke="midnightblue" points="97.4719,-289.13 89.96,-281.659 91.173,-292.184 97.4719,-289.13"/>
</g>
<!-- Node17 -->
<g id="node4" class="node"><title>Node17</title>
<g id="a_node4"><a xlink:href="classSeeSawN_1_1ApplicationN_1_1InterfaceVisionGraphPipelineC.html#a6cc54cb46531eefd52ca842ad62570b7" target="_top" xlink:title="Makes a parameter object from a property tree. ">
<polygon fill="white" stroke="black" points="225.5,-360.5 225.5,-401.5 372.5,-401.5 372.5,-360.5 225.5,-360.5"/>
<text text-anchor="start" x="233.5" y="-389.5" font-family="FreeSans" font-size="10.00">SeeSawN::ApplicationN</text>
<text text-anchor="start" x="233.5" y="-378.5" font-family="FreeSans" font-size="10.00">::InterfaceVisionGraphPipeline</text>
<text text-anchor="middle" x="299" y="-367.5" font-family="FreeSans" font-size="10.00">C::MakeParameterObject</text>
</a>
</g>
</g>
<!-- Node14&#45;&gt;Node17 -->
<g id="edge3" class="edge"><title>Node14&#45;&gt;Node17</title>
<path fill="none" stroke="midnightblue" d="M109.826,-288.642C131.88,-308.461 163.873,-334.476 196,-351 205.192,-355.728 215.244,-359.823 225.338,-363.335"/>
<polygon fill="midnightblue" stroke="midnightblue" points="111.913,-285.808 102.169,-281.649 107.193,-290.977 111.913,-285.808"/>
</g>
<!-- Node20 -->
<g id="node7" class="node"><title>Node20</title>
<g id="a_node7"><a xlink:href="classSeeSawN_1_1ApplicationN_1_1InterfaceCalibrationVerificationPipelineC.html#ac361593d46882b26eb89db49c9691a47" target="_top" xlink:title="Makes a parameter object from a property tree. ">
<polygon fill="white" stroke="black" points="219,-300.5 219,-341.5 379,-341.5 379,-300.5 219,-300.5"/>
<text text-anchor="start" x="227" y="-329.5" font-family="FreeSans" font-size="10.00">SeeSawN::ApplicationN</text>
<text text-anchor="start" x="227" y="-318.5" font-family="FreeSans" font-size="10.00">::InterfaceCalibrationVerification</text>
<text text-anchor="middle" x="299" y="-307.5" font-family="FreeSans" font-size="10.00">PipelineC::MakeParameterObject</text>
</a>
</g>
</g>
<!-- Node14&#45;&gt;Node20 -->
<g id="edge7" class="edge"><title>Node14&#45;&gt;Node20</title>
<path fill="none" stroke="midnightblue" d="M165.07,-284.245C184.406,-289.592 204.835,-295.24 223.722,-300.462"/>
<polygon fill="midnightblue" stroke="midnightblue" points="165.947,-280.856 155.375,-281.565 164.081,-287.603 165.947,-280.856"/>
</g>
<!-- Node22 -->
<g id="node9" class="node"><title>Node22</title>
<g id="a_node9"><a xlink:href="classSeeSawN_1_1ApplicationN_1_1InterfaceNodalCameraTrackingPipelineC.html#a1528e3aacb9088d316f1cb86978ac010" target="_top" xlink:title="Makes a parameter object from a property tree. ">
<polygon fill="white" stroke="black" points="219,-240.5 219,-281.5 379,-281.5 379,-240.5 219,-240.5"/>
<text text-anchor="start" x="227" y="-269.5" font-family="FreeSans" font-size="10.00">SeeSawN::ApplicationN</text>
<text text-anchor="start" x="227" y="-258.5" font-family="FreeSans" font-size="10.00">::InterfaceNodalCameraTracking</text>
<text text-anchor="middle" x="299" y="-247.5" font-family="FreeSans" font-size="10.00">PipelineC::MakeParameterObject</text>
</a>
</g>
</g>
<!-- Node14&#45;&gt;Node22 -->
<g id="edge9" class="edge"><title>Node14&#45;&gt;Node22</title>
<path fill="none" stroke="midnightblue" d="M170.687,-261C186.695,-261 203.268,-261 218.952,-261"/>
<polygon fill="midnightblue" stroke="midnightblue" points="170.263,-257.5 160.263,-261 170.263,-264.5 170.263,-257.5"/>
</g>
<!-- Node24 -->
<g id="node11" class="node"><title>Node24</title>
<g id="a_node11"><a xlink:href="classSeeSawN_1_1ApplicationN_1_1InterfaceRoamingCameraTrackingPipelineC.html#a8302af37f63e6682be01ab9f52fc7855" target="_top" xlink:title="Makes a parameter object from a property tree. ">
<polygon fill="white" stroke="black" points="214.5,-180.5 214.5,-221.5 383.5,-221.5 383.5,-180.5 214.5,-180.5"/>
<text text-anchor="start" x="222.5" y="-209.5" font-family="FreeSans" font-size="10.00">SeeSawN::ApplicationN</text>
<text text-anchor="start" x="222.5" y="-198.5" font-family="FreeSans" font-size="10.00">::InterfaceRoamingCameraTracking</text>
<text text-anchor="middle" x="299" y="-187.5" font-family="FreeSans" font-size="10.00">PipelineC::MakeParameterObject</text>
</a>
</g>
</g>
<!-- Node14&#45;&gt;Node24 -->
<g id="edge11" class="edge"><title>Node14&#45;&gt;Node24</title>
<path fill="none" stroke="midnightblue" d="M165.07,-237.755C184.406,-232.408 204.835,-226.76 223.722,-221.538"/>
<polygon fill="midnightblue" stroke="midnightblue" points="164.081,-234.397 155.375,-240.435 165.947,-241.144 164.081,-234.397"/>
</g>
<!-- Node25 -->
<g id="node12" class="node"><title>Node25</title>
<g id="a_node12"><a xlink:href="classSeeSawN_1_1ApplicationN_1_1InterfaceMultimodelGeometryEstimationPipelineC.html#a022f2ccad25296bf25259cd3eaee5dff" target="_top" xlink:title="Makes a parameter object from a property tree. ">
<polygon fill="white" stroke="black" points="196,-120.5 196,-161.5 402,-161.5 402,-120.5 196,-120.5"/>
<text text-anchor="start" x="204" y="-149.5" font-family="FreeSans" font-size="10.00">SeeSawN::ApplicationN</text>
<text text-anchor="start" x="204" y="-138.5" font-family="FreeSans" font-size="10.00">::InterfaceMultimodelGeometry</text>
<text text-anchor="middle" x="299" y="-127.5" font-family="FreeSans" font-size="10.00">EstimationPipelineC::MakeParameterObject</text>
</a>
</g>
</g>
<!-- Node14&#45;&gt;Node25 -->
<g id="edge12" class="edge"><title>Node14&#45;&gt;Node25</title>
<path fill="none" stroke="midnightblue" d="M109.826,-233.358C131.88,-213.539 163.873,-187.524 196,-171 202.812,-167.496 210.096,-164.34 217.52,-161.511"/>
<polygon fill="midnightblue" stroke="midnightblue" points="107.193,-231.023 102.169,-240.351 111.913,-236.192 107.193,-231.023"/>
</g>
<!-- Node27 -->
<g id="node14" class="node"><title>Node27</title>
<g id="a_node14"><a xlink:href="classSeeSawN_1_1ApplicationN_1_1InterfaceImageFeatureTrackingPipelineC.html#a64855882f38d56819bc17e7a314c7e4f" target="_top" xlink:title="Makes a parameter object from a property tree. ">
<polygon fill="white" stroke="black" points="219,-60.5 219,-101.5 379,-101.5 379,-60.5 219,-60.5"/>
<text text-anchor="start" x="227" y="-89.5" font-family="FreeSans" font-size="10.00">SeeSawN::ApplicationN</text>
<text text-anchor="start" x="227" y="-78.5" font-family="FreeSans" font-size="10.00">::InterfaceImageFeatureTracking</text>
<text text-anchor="middle" x="299" y="-67.5" font-family="FreeSans" font-size="10.00">PipelineC::MakeParameterObject</text>
</a>
</g>
</g>
<!-- Node14&#45;&gt;Node27 -->
<g id="edge14" class="edge"><title>Node14&#45;&gt;Node27</title>
<path fill="none" stroke="midnightblue" d="M96.0935,-231.459C114.952,-197.464 150.37,-142.31 196,-111 203.001,-106.196 210.78,-102.15 218.83,-98.7442"/>
<polygon fill="midnightblue" stroke="midnightblue" points="92.9088,-229.99 91.2189,-240.449 99.0624,-233.327 92.9088,-229.99"/>
</g>
<!-- Node28 -->
<g id="node15" class="node"><title>Node28</title>
<g id="a_node15"><a xlink:href="classSeeSawN_1_1AppGeometryEstimator32N_1_1GeometryEstimator32ImplementationC.html#aba68a985bf9fea064541a976c2bd5505" target="_top" xlink:title="Sets and validates the application parameters. ">
<polygon fill="white" stroke="black" points="204.5,-0.5 204.5,-41.5 393.5,-41.5 393.5,-0.5 204.5,-0.5"/>
<text text-anchor="start" x="212.5" y="-29.5" font-family="FreeSans" font-size="10.00">SeeSawN::AppGeometryEstimator32</text>
<text text-anchor="start" x="212.5" y="-18.5" font-family="FreeSans" font-size="10.00">N::GeometryEstimator32Implementation</text>
<text text-anchor="middle" x="299" y="-7.5" font-family="FreeSans" font-size="10.00">C::SetParameters</text>
</a>
</g>
</g>
<!-- Node14&#45;&gt;Node28 -->
<g id="edge16" class="edge"><title>Node14&#45;&gt;Node28</title>
<path fill="none" stroke="midnightblue" d="M89.4499,-230.562C103.73,-184.778 137.005,-98.5039 196,-51 200.313,-47.527 205.016,-44.456 209.958,-41.7405"/>
<polygon fill="midnightblue" stroke="midnightblue" points="86.0735,-229.636 86.5329,-240.221 92.7746,-231.66 86.0735,-229.636"/>
</g>
<!-- Node15&#45;&gt;Node16 -->
<g id="edge2" class="edge"><title>Node15&#45;&gt;Node16</title>
<path fill="none" stroke="midnightblue" d="M380.838,-466.359C414.311,-461.124 452.439,-455.162 483.311,-450.334"/>
<polygon fill="midnightblue" stroke="midnightblue" points="379.951,-462.955 370.612,-467.958 381.033,-469.871 379.951,-462.955"/>
</g>
<!-- Node17&#45;&gt;Node16 -->
<g id="edge6" class="edge"><title>Node17&#45;&gt;Node16</title>
<path fill="none" stroke="midnightblue" d="M382.693,-401.418C415.766,-409.584 453.126,-418.809 483.454,-426.297"/>
<polygon fill="midnightblue" stroke="midnightblue" points="383.126,-397.92 372.579,-398.921 381.448,-404.716 383.126,-397.92"/>
</g>
<!-- Node18 -->
<g id="node5" class="node"><title>Node18</title>
<g id="a_node5"><a xlink:href="classSeeSawN_1_1ApplicationN_1_1InterfacePfMPipelineC.html#acfbef1b92f2a55be0413a3c490ddeea0" target="_top" xlink:title="Makes a parameter object from a property tree. ">
<polygon fill="white" stroke="black" points="483.5,-360.5 483.5,-401.5 604.5,-401.5 604.5,-360.5 483.5,-360.5"/>
<text text-anchor="start" x="491.5" y="-389.5" font-family="FreeSans" font-size="10.00">SeeSawN::ApplicationN</text>
<text text-anchor="start" x="491.5" y="-378.5" font-family="FreeSans" font-size="10.00">::InterfacePfMPipelineC</text>
<text text-anchor="middle" x="544" y="-367.5" font-family="FreeSans" font-size="10.00">::MakeParameterObject</text>
</a>
</g>
</g>
<!-- Node17&#45;&gt;Node18 -->
<g id="edge4" class="edge"><title>Node17&#45;&gt;Node18</title>
<path fill="none" stroke="midnightblue" d="M382.693,-381C415.766,-381 453.126,-381 483.454,-381"/>
<polygon fill="midnightblue" stroke="midnightblue" points="382.579,-377.5 372.579,-381 382.579,-384.5 382.579,-377.5"/>
</g>
<!-- Node19 -->
<g id="node6" class="node"><title>Node19</title>
<g id="a_node6"><a xlink:href="classSeeSawN_1_1AppPfMN_1_1AppPfMImplementationC.html#abc73e8c53e5966a07e0da314df087d02" target="_top" xlink:title="Sets and validates the application parameters. ">
<polygon fill="white" stroke="black" points="686,-366 686,-396 901,-396 901,-366 686,-366"/>
<text text-anchor="start" x="694" y="-384" font-family="FreeSans" font-size="10.00">SeeSawN::AppPfMN::AppPfMImplementation</text>
<text text-anchor="middle" x="793.5" y="-373" font-family="FreeSans" font-size="10.00">C::SetParameters</text>
</a>
</g>
</g>
<!-- Node18&#45;&gt;Node19 -->
<g id="edge5" class="edge"><title>Node18&#45;&gt;Node19</title>
<path fill="none" stroke="midnightblue" d="M614.812,-381C636.79,-381 661.59,-381 685.535,-381"/>
<polygon fill="midnightblue" stroke="midnightblue" points="614.597,-377.5 604.597,-381 614.597,-384.5 614.597,-377.5"/>
</g>
<!-- Node21 -->
<g id="node8" class="node"><title>Node21</title>
<g id="a_node8"><a xlink:href="classSeeSawN_1_1AppCalibrationVerificationN_1_1AppCalibrationVerificationImplementationC.html#ac04bcbed179f0534015eb622d62c9d92" target="_top" xlink:title="Sets and validates the application parameters. ">
<polygon fill="white" stroke="black" points="441,-300.5 441,-341.5 647,-341.5 647,-300.5 441,-300.5"/>
<text text-anchor="start" x="449" y="-329.5" font-family="FreeSans" font-size="10.00">SeeSawN::AppCalibrationVerification</text>
<text text-anchor="start" x="449" y="-318.5" font-family="FreeSans" font-size="10.00">N::AppCalibrationVerificationImplementation</text>
<text text-anchor="middle" x="544" y="-307.5" font-family="FreeSans" font-size="10.00">C::SetParameters</text>
</a>
</g>
</g>
<!-- Node20&#45;&gt;Node21 -->
<g id="edge8" class="edge"><title>Node20&#45;&gt;Node21</title>
<path fill="none" stroke="midnightblue" d="M389.509,-321C406.216,-321 423.793,-321 440.847,-321"/>
<polygon fill="midnightblue" stroke="midnightblue" points="389.231,-317.5 379.231,-321 389.231,-324.5 389.231,-317.5"/>
</g>
<!-- Node23 -->
<g id="node10" class="node"><title>Node23</title>
<g id="a_node10"><a xlink:href="classSeeSawN_1_1AppNodalCameraTrackerN_1_1AppNodalCameraTrackerImplementationC.html#a3bcec328618771244080b0d1eba59093" target="_top" xlink:title="Sets and validates the application parameters. ">
<polygon fill="white" stroke="black" points="441.5,-240.5 441.5,-281.5 646.5,-281.5 646.5,-240.5 441.5,-240.5"/>
<text text-anchor="start" x="449.5" y="-269.5" font-family="FreeSans" font-size="10.00">SeeSawN::AppNodalCameraTracker</text>
<text text-anchor="start" x="449.5" y="-258.5" font-family="FreeSans" font-size="10.00">N::AppNodalCameraTrackerImplementation</text>
<text text-anchor="middle" x="544" y="-247.5" font-family="FreeSans" font-size="10.00">C::SetParameters</text>
</a>
</g>
</g>
<!-- Node22&#45;&gt;Node23 -->
<g id="edge10" class="edge"><title>Node22&#45;&gt;Node23</title>
<path fill="none" stroke="midnightblue" d="M389.582,-261C406.41,-261 424.117,-261 441.282,-261"/>
<polygon fill="midnightblue" stroke="midnightblue" points="389.231,-257.5 379.231,-261 389.231,-264.5 389.231,-257.5"/>
</g>
<!-- Node26 -->
<g id="node13" class="node"><title>Node26</title>
<g id="a_node13"><a xlink:href="classSeeSawN_1_1AppMultimodelGeometryEstimator22N_1_1AppMultimodelGeometryEstimator22ImplementationC.html#a6ab5cbfa539585a5493ffea2336d480a" target="_top" xlink:title="Sets and validates the application parameters. ">
<polygon fill="white" stroke="black" points="438,-120.5 438,-161.5 650,-161.5 650,-120.5 438,-120.5"/>
<text text-anchor="start" x="446" y="-149.5" font-family="FreeSans" font-size="10.00">SeeSawN::AppMultimodelGeometry</text>
<text text-anchor="start" x="446" y="-138.5" font-family="FreeSans" font-size="10.00">Estimator22N::AppMultimodelGeometry</text>
<text text-anchor="middle" x="544" y="-127.5" font-family="FreeSans" font-size="10.00">Estimator22ImplementationC::SetParameters</text>
</a>
</g>
</g>
<!-- Node25&#45;&gt;Node26 -->
<g id="edge13" class="edge"><title>Node25&#45;&gt;Node26</title>
<path fill="none" stroke="midnightblue" d="M412.523,-141C420.895,-141 429.324,-141 437.651,-141"/>
<polygon fill="midnightblue" stroke="midnightblue" points="412.35,-137.5 402.35,-141 412.35,-144.5 412.35,-137.5"/>
</g>
</g>
</svg>
        <g id="navigator" transform="translate(0 0)" fill="#404254">
                <rect fill="#f2f5e9" fill-opacity="0.5" stroke="#606060" stroke-width=".5" x="0" y="0" width="60" height="60"/>
                <use id="zoomplus" xlink:href="#zoomPlus" x="17" y="9" onmousedown="handleZoom(evt,'in')"/>
                <use id="zoomminus" xlink:href="#zoomMin" x="42" y="9" onmousedown="handleZoom(evt,'out')"/>
                <use id="reset" xlink:href="#resetDef" x="30" y="36" onmousedown="handleReset()"/>
                <g id="arrowUp" xlink:href="#dirArrow" transform="translate(30 24)" onmousedown="handlePan(0,-1)">
                  <use xlink:href="#rim" fill="#404040">
                        <set attributeName="fill" to="#808080" begin="arrowUp.mouseover" end="arrowUp.mouseout"/>
                  </use>
                  <path fill="none" stroke="white" stroke-width="1.5" d="M0,-3.0v7 M-2.5,-0.5L0,-3.0L2.5,-0.5"/>
                </g>
                <g id="arrowRight" xlink:href="#dirArrow" transform="rotate(90) translate(36 -43)" onmousedown="handlePan(1,0)">
                  <use xlink:href="#rim" fill="#404040">
                        <set attributeName="fill" to="#808080" begin="arrowRight.mouseover" end="arrowRight.mouseout"/>
                  </use>
                  <path fill="none" stroke="white" stroke-width="1.5" d="M0,-3.0v7 M-2.5,-0.5L0,-3.0L2.5,-0.5"/>
                </g>
                <g id="arrowDown" xlink:href="#dirArrow" transform="rotate(180) translate(-30 -48)" onmousedown="handlePan(0,1)">
                  <use xlink:href="#rim" fill="#404040">
                        <set attributeName="fill" to="#808080" begin="arrowDown.mouseover" end="arrowDown.mouseout"/>
                  </use>
                  <path fill="none" stroke="white" stroke-width="1.5" d="M0,-3.0v7 M-2.5,-0.5L0,-3.0L2.5,-0.5"/>
                </g>
                <g id="arrowLeft" xlink:href="#dirArrow" transform="rotate(270) translate(-36 17)" onmousedown="handlePan(-1,0)">
                  <use xlink:href="#rim" fill="#404040">
                        <set attributeName="fill" to="#808080" begin="arrowLeft.mouseover" end="arrowLeft.mouseout"/>
                  </use>
                  <path fill="none" stroke="white" stroke-width="1.5" d="M0,-3.0v7 M-2.5,-0.5L0,-3.0L2.5,-0.5"/>
                </g>
        </g>
        <svg viewBox="0 0 15 15" width="100%" height="30px" preserveAspectRatio="xMaxYMin meet">
         <g id="arrow_out" transform="scale(0.3 0.3)">
          <a xlink:href="classSeeSawN_1_1ApplicationN_1_1InterfaceGeometryEstimationPipelineC_a32894c85b4610b3d8da17e9ce002655f_icgraph_org.svg" target="_base">
           <rect id="button" ry="5" rx="5" y="6" x="6" height="38" width="38"
                fill="#f2f5e9" fill-opacity="0.5" stroke="#606060" stroke-width="1.0"/>
           <path id="arrow"
             d="M 11.500037,31.436501 C 11.940474,20.09759 22.043105,11.32322 32.158766,21.979434 L 37.068811,17.246167 C 37.068811,17.246167 37.088388,32 37.088388,32 L 22.160133,31.978069 C 22.160133,31.978069 26.997745,27.140456 26.997745,27.140456 C 18.528582,18.264221 13.291696,25.230495 11.500037,31.436501 z"
             style="fill:#404040;"/>
          </a>
         </g>
        </svg>
</svg>
