<?xml version="1.0" encoding="UTF-8" standalone="no"?>
<!DOCTYPE svg PUBLIC "-//W3C//DTD SVG 1.1//EN"
 "http://www.w3.org/Graphics/SVG/1.1/DTD/svg11.dtd">
<!-- Generated by graphviz version 2.38.0 (20140413.2041)
 -->
<!-- Title: SeeSawN::OptimisationN::PDLOneSidedFundamentalMatrixEstimationProblemC::ComputeRelativeModelDistance Pages: 1 -->
<!--zoomable 110 -->
<svg id="main" version="1.1" xmlns="http://www.w3.org/2000/svg" xmlns:xlink="http://www.w3.org/1999/xlink" xml:space="preserve" onload="init(evt)">
<style type="text/css"><![CDATA[
.edge:hover path { stroke: red; }
.edge:hover polygon { stroke: red; fill: red; }
]]></style>
<script type="text/javascript"><![CDATA[
var edges = document.getElementsByTagName('g');
if (edges && edges.length) {
  for (var i=0;i<edges.length;i++) {
    if (edges[i].id.substr(0,4)=='edge') {
      edges[i].setAttribute('class','edge');
    }
  }
}
]]></script>
        <defs>
                <circle id="rim" cx="0" cy="0" r="7"/>
                <circle id="rim2" cx="0" cy="0" r="3.5"/>
                <g id="zoomPlus">
                        <use xlink:href="#rim" fill="#404040">
                                <set attributeName="fill" to="#808080" begin="zoomplus.mouseover" end="zoomplus.mouseout"/>
                        </use>
                        <path d="M-4,0h8M0,-4v8" fill="none" stroke="white" stroke-width="1.5" pointer-events="none"/>
                </g>
                <g id="zoomMin">
                        <use xlink:href="#rim" fill="#404040">
                                <set attributeName="fill" to="#808080" begin="zoomminus.mouseover" end="zoomminus.mouseout"/>
                        </use>
                        <path d="M-4,0h8" fill="none" stroke="white" stroke-width="1.5" pointer-events="none"/>
                </g>
                <g id="dirArrow">
                        <path fill="none" stroke="white" stroke-width="1.5" d="M0,-3.0v7 M-2.5,-0.5L0,-3.0L2.5,-0.5"/>
                </g>
               <g id="resetDef">
                       <use xlink:href="#rim2" fill="#404040">
                               <set attributeName="fill" to="#808080" begin="reset.mouseover" end="reset.mouseout"/>
                       </use>
               </g>
        </defs>

<script type="text/javascript">
var viewWidth = 919;
var viewHeight = 110;
var sectionId = 'dynsection-5';
</script>
<script xlink:href="svgpan.js"/>
<svg id="graph" class="graph">
<g id="viewport">
<title>SeeSawN::OptimisationN::PDLOneSidedFundamentalMatrixEstimationProblemC::ComputeRelativeModelDistance</title>
<polygon fill="white" stroke="none" points="-4,4 -4,-106 915,-106 915,4 -4,4"/>
<!-- Node22 -->
<g id="node1" class="node"><title>Node22</title>
<polygon fill="#bfbfbf" stroke="black" points="0,-25 0,-77 184,-77 184,-25 0,-25"/>
<text text-anchor="start" x="8" y="-65" font-family="FreeSans" font-size="10.00">SeeSawN::OptimisationN</text>
<text text-anchor="start" x="8" y="-54" font-family="FreeSans" font-size="10.00">::PDLOneSidedFundamentalMatrix</text>
<text text-anchor="start" x="8" y="-43" font-family="FreeSans" font-size="10.00">EstimationProblemC::ComputeRelative</text>
<text text-anchor="middle" x="92" y="-32" font-family="FreeSans" font-size="10.00">ModelDistance</text>
</g>
<!-- Node23 -->
<g id="node2" class="node"><title>Node23</title>
<g id="a_node2"><a xlink:href="classSeeSawN_1_1OptimisationN_1_1PDLOneSidedFundamentalMatrixEstimationProblemC.html#a7b7b6f18eb19746e3ea904e09b5745ec" target="_top" xlink:title="Converts a vector to a model. ">
<polygon fill="white" stroke="black" points="220,-60.5 220,-101.5 386,-101.5 386,-60.5 220,-60.5"/>
<text text-anchor="start" x="228" y="-89.5" font-family="FreeSans" font-size="10.00">SeeSawN::OptimisationN</text>
<text text-anchor="start" x="228" y="-78.5" font-family="FreeSans" font-size="10.00">::PDLOneSidedFundamentalMatrix</text>
<text text-anchor="middle" x="303" y="-67.5" font-family="FreeSans" font-size="10.00">EstimationProblemC::MakeResult</text>
</a>
</g>
</g>
<!-- Node22&#45;&gt;Node23 -->
<g id="edge1" class="edge"><title>Node22&#45;&gt;Node23</title>
<path fill="none" stroke="midnightblue" d="M184.062,-64.0712C192.601,-65.2969 201.262,-66.54 209.811,-67.7672"/>
<polygon fill="midnightblue" stroke="midnightblue" points="209.386,-71.2419 219.782,-69.1984 210.381,-64.313 209.386,-71.2419"/>
</g>
<!-- Node27 -->
<g id="node6" class="node"><title>Node27</title>
<g id="a_node6"><a xlink:href="classSeeSawN_1_1OptimisationN_1_1PDLOneSidedFundamentalMatrixEstimationProblemC.html#a90622f2f4d6c730e970393cae5c81881" target="_top" xlink:title="Updates the current solution. ">
<polygon fill="white" stroke="black" points="220,-0.5 220,-41.5 386,-41.5 386,-0.5 220,-0.5"/>
<text text-anchor="start" x="228" y="-29.5" font-family="FreeSans" font-size="10.00">SeeSawN::OptimisationN</text>
<text text-anchor="start" x="228" y="-18.5" font-family="FreeSans" font-size="10.00">::PDLOneSidedFundamentalMatrix</text>
<text text-anchor="middle" x="303" y="-7.5" font-family="FreeSans" font-size="10.00">EstimationProblemC::Update</text>
</a>
</g>
</g>
<!-- Node22&#45;&gt;Node27 -->
<g id="edge5" class="edge"><title>Node22&#45;&gt;Node27</title>
<path fill="none" stroke="midnightblue" d="M184.062,-37.9288C192.601,-36.7031 201.262,-35.46 209.811,-34.2328"/>
<polygon fill="midnightblue" stroke="midnightblue" points="210.381,-37.687 219.782,-32.8016 209.386,-30.7581 210.381,-37.687"/>
</g>
<!-- Node24 -->
<g id="node3" class="node"><title>Node24</title>
<g id="a_node3"><a xlink:href="classSeeSawN_1_1OptimisationN_1_1PDLOneSidedFundamentalMatrixEstimationProblemC.html#abbd7765df04adb7159c414098b22e064" target="_top" xlink:title="Computes the essential matrix corresponding to the parameter vector. ">
<polygon fill="white" stroke="black" points="422,-60.5 422,-101.5 595,-101.5 595,-60.5 422,-60.5"/>
<text text-anchor="start" x="430" y="-89.5" font-family="FreeSans" font-size="10.00">SeeSawN::OptimisationN</text>
<text text-anchor="start" x="430" y="-78.5" font-family="FreeSans" font-size="10.00">::PDLOneSidedFundamentalMatrix</text>
<text text-anchor="middle" x="508.5" y="-67.5" font-family="FreeSans" font-size="10.00">EstimationProblemC::MakeEssential</text>
</a>
</g>
</g>
<!-- Node23&#45;&gt;Node24 -->
<g id="edge2" class="edge"><title>Node23&#45;&gt;Node24</title>
<path fill="none" stroke="midnightblue" d="M386.185,-81C394.498,-81 402.992,-81 411.433,-81"/>
<polygon fill="midnightblue" stroke="midnightblue" points="411.688,-84.5001 421.688,-81 411.688,-77.5001 411.688,-84.5001"/>
</g>
<!-- Node25 -->
<g id="node4" class="node"><title>Node25</title>
<g id="a_node4"><a xlink:href="group__Utility.html#gac3b857ffaf1804a2ae1802cb86192903" target="_top" xlink:title="Essential matrix from relative calibration. ">
<polygon fill="white" stroke="black" points="631,-66 631,-96 744,-96 744,-66 631,-66"/>
<text text-anchor="start" x="639" y="-84" font-family="FreeSans" font-size="10.00">SeeSawN::ElementsN</text>
<text text-anchor="middle" x="687.5" y="-73" font-family="FreeSans" font-size="10.00">::ComposeEssential</text>
</a>
</g>
</g>
<!-- Node24&#45;&gt;Node25 -->
<g id="edge3" class="edge"><title>Node24&#45;&gt;Node25</title>
<path fill="none" stroke="midnightblue" d="M595.148,-81C603.806,-81 612.5,-81 620.898,-81"/>
<polygon fill="midnightblue" stroke="midnightblue" points="620.973,-84.5001 630.973,-81 620.973,-77.5001 620.973,-84.5001"/>
</g>
<!-- Node26 -->
<g id="node5" class="node"><title>Node26</title>
<g id="a_node5"><a xlink:href="namespaceSeeSawN_1_1WrappersN.html#a7a58341e8f21a5c2a3a8d55453ec473d" target="_top" xlink:title="SeeSawN::WrappersN\l::MakeCrossProductMatrix">
<polygon fill="white" stroke="black" points="780,-66 780,-96 911,-96 911,-66 780,-66"/>
<text text-anchor="start" x="788" y="-84" font-family="FreeSans" font-size="10.00">SeeSawN::WrappersN</text>
<text text-anchor="middle" x="845.5" y="-73" font-family="FreeSans" font-size="10.00">::MakeCrossProductMatrix</text>
</a>
</g>
</g>
<!-- Node25&#45;&gt;Node26 -->
<g id="edge4" class="edge"><title>Node25&#45;&gt;Node26</title>
<path fill="none" stroke="midnightblue" d="M744.379,-81C752.674,-81 761.332,-81 769.935,-81"/>
<polygon fill="midnightblue" stroke="midnightblue" points="769.983,-84.5001 779.983,-81 769.983,-77.5001 769.983,-84.5001"/>
</g>
</g>
</svg>
        <g id="navigator" transform="translate(0 0)" fill="#404254">
                <rect fill="#f2f5e9" fill-opacity="0.5" stroke="#606060" stroke-width=".5" x="0" y="0" width="60" height="60"/>
                <use id="zoomplus" xlink:href="#zoomPlus" x="17" y="9" onmousedown="handleZoom(evt,'in')"/>
                <use id="zoomminus" xlink:href="#zoomMin" x="42" y="9" onmousedown="handleZoom(evt,'out')"/>
                <use id="reset" xlink:href="#resetDef" x="30" y="36" onmousedown="handleReset()"/>
                <g id="arrowUp" xlink:href="#dirArrow" transform="translate(30 24)" onmousedown="handlePan(0,-1)">
                  <use xlink:href="#rim" fill="#404040">
                        <set attributeName="fill" to="#808080" begin="arrowUp.mouseover" end="arrowUp.mouseout"/>
                  </use>
                  <path fill="none" stroke="white" stroke-width="1.5" d="M0,-3.0v7 M-2.5,-0.5L0,-3.0L2.5,-0.5"/>
                </g>
                <g id="arrowRight" xlink:href="#dirArrow" transform="rotate(90) translate(36 -43)" onmousedown="handlePan(1,0)">
                  <use xlink:href="#rim" fill="#404040">
                        <set attributeName="fill" to="#808080" begin="arrowRight.mouseover" end="arrowRight.mouseout"/>
                  </use>
                  <path fill="none" stroke="white" stroke-width="1.5" d="M0,-3.0v7 M-2.5,-0.5L0,-3.0L2.5,-0.5"/>
                </g>
                <g id="arrowDown" xlink:href="#dirArrow" transform="rotate(180) translate(-30 -48)" onmousedown="handlePan(0,1)">
                  <use xlink:href="#rim" fill="#404040">
                        <set attributeName="fill" to="#808080" begin="arrowDown.mouseover" end="arrowDown.mouseout"/>
                  </use>
                  <path fill="none" stroke="white" stroke-width="1.5" d="M0,-3.0v7 M-2.5,-0.5L0,-3.0L2.5,-0.5"/>
                </g>
                <g id="arrowLeft" xlink:href="#dirArrow" transform="rotate(270) translate(-36 17)" onmousedown="handlePan(-1,0)">
                  <use xlink:href="#rim" fill="#404040">
                        <set attributeName="fill" to="#808080" begin="arrowLeft.mouseover" end="arrowLeft.mouseout"/>
                  </use>
                  <path fill="none" stroke="white" stroke-width="1.5" d="M0,-3.0v7 M-2.5,-0.5L0,-3.0L2.5,-0.5"/>
                </g>
        </g>
        <svg viewBox="0 0 15 15" width="100%" height="30px" preserveAspectRatio="xMaxYMin meet">
         <g id="arrow_out" transform="scale(0.3 0.3)">
          <a xlink:href="classSeeSawN_1_1OptimisationN_1_1PDLOneSidedFundamentalMatrixEstimationProblemC_a5b2833b09ebd5adfdd403f51e9da6dbd_cgraph_org.svg" target="_base">
           <rect id="button" ry="5" rx="5" y="6" x="6" height="38" width="38"
                fill="#f2f5e9" fill-opacity="0.5" stroke="#606060" stroke-width="1.0"/>
           <path id="arrow"
             d="M 11.500037,31.436501 C 11.940474,20.09759 22.043105,11.32322 32.158766,21.979434 L 37.068811,17.246167 C 37.068811,17.246167 37.088388,32 37.088388,32 L 22.160133,31.978069 C 22.160133,31.978069 26.997745,27.140456 26.997745,27.140456 C 18.528582,18.264221 13.291696,25.230495 11.500037,31.436501 z"
             style="fill:#404040;"/>
          </a>
         </g>
        </svg>
</svg>
