<?xml version="1.0" encoding="UTF-8" standalone="no"?>
<!DOCTYPE svg PUBLIC "-//W3C//DTD SVG 1.1//EN"
 "http://www.w3.org/Graphics/SVG/1.1/DTD/svg11.dtd">
<!-- Generated by graphviz version 2.38.0 (20140413.2041)
 -->
<!-- Title: SeeSawN::StateEstimationN::UnscentedKalmanFilterC::Predict Pages: 1 -->
<svg width="973pt" height="214pt"
 viewBox="0.00 0.00 973.00 213.50" xmlns="http://www.w3.org/2000/svg" xmlns:xlink="http://www.w3.org/1999/xlink">
<g id="graph0" class="graph" transform="scale(1 1) rotate(0) translate(4 209.5)">
<title>SeeSawN::StateEstimationN::UnscentedKalmanFilterC::Predict</title>
<polygon fill="white" stroke="none" points="-4,4 -4,-209.5 969,-209.5 969,4 -4,4"/>
<!-- Node57 -->
<g id="node1" class="node"><title>Node57</title>
<polygon fill="#bfbfbf" stroke="black" points="0,-44 0,-85 137,-85 137,-44 0,-44"/>
<text text-anchor="start" x="8" y="-73" font-family="FreeSans" font-size="10.00">SeeSawN::StateEstimation</text>
<text text-anchor="start" x="8" y="-62" font-family="FreeSans" font-size="10.00">N::UnscentedKalmanFilterC</text>
<text text-anchor="middle" x="68.5" y="-51" font-family="FreeSans" font-size="10.00">::Predict</text>
</g>
<!-- Node58 -->
<g id="node2" class="node"><title>Node58</title>
<g id="a_node2"><a xlink:href="classSeeSawN_1_1StateEstimationN_1_1UnscentedKalmanFilterC.html#aae2faa75160f93beb701d3bb2026c63b" target="_top" xlink:title="Applies SUT to the augmented state. ">
<polygon fill="white" stroke="black" points="173,-74 173,-115 310,-115 310,-74 173,-74"/>
<text text-anchor="start" x="181" y="-103" font-family="FreeSans" font-size="10.00">SeeSawN::StateEstimation</text>
<text text-anchor="start" x="181" y="-92" font-family="FreeSans" font-size="10.00">N::UnscentedKalmanFilterC</text>
<text text-anchor="middle" x="241.5" y="-81" font-family="FreeSans" font-size="10.00">::ApplySUT</text>
</a>
</g>
</g>
<!-- Node57&#45;&gt;Node58 -->
<g id="edge1" class="edge"><title>Node57&#45;&gt;Node58</title>
<path fill="none" stroke="midnightblue" d="M137.084,-76.3568C145.538,-77.84 154.237,-79.3662 162.83,-80.8737"/>
<polygon fill="midnightblue" stroke="midnightblue" points="162.393,-84.3504 172.847,-82.6311 163.602,-77.4557 162.393,-84.3504"/>
</g>
<!-- Node66 -->
<g id="node10" class="node"><title>Node66</title>
<g id="a_node10"><a xlink:href="classSeeSawN_1_1StateEstimationN_1_1UnscentedKalmanFilterC.html#acc8f8a633f86c43f7b02f0b5c1312b3e" target="_top" xlink:title="Computes the sample weights for SUT. ">
<polygon fill="white" stroke="black" points="173,-14 173,-55 310,-55 310,-14 173,-14"/>
<text text-anchor="start" x="181" y="-43" font-family="FreeSans" font-size="10.00">SeeSawN::StateEstimation</text>
<text text-anchor="start" x="181" y="-32" font-family="FreeSans" font-size="10.00">N::UnscentedKalmanFilterC</text>
<text text-anchor="middle" x="241.5" y="-21" font-family="FreeSans" font-size="10.00">::ComputeWeights</text>
</a>
</g>
</g>
<!-- Node57&#45;&gt;Node66 -->
<g id="edge10" class="edge"><title>Node57&#45;&gt;Node66</title>
<path fill="none" stroke="midnightblue" d="M137.084,-52.6432C145.538,-51.16 154.237,-49.6338 162.83,-48.1263"/>
<polygon fill="midnightblue" stroke="midnightblue" points="163.602,-51.5443 172.847,-46.3689 162.393,-44.6496 163.602,-51.5443"/>
</g>
<!-- Node59 -->
<g id="node3" class="node"><title>Node59</title>
<g id="a_node3"><a xlink:href="classSeeSawN_1_1StateEstimationN_1_1UnscentedKalmanFilterC.html#a2dee69cb4032863bb8b3b46349d739d3" target="_top" xlink:title="Applies the update functions to a sample. ">
<polygon fill="white" stroke="black" points="368,-164 368,-205 505,-205 505,-164 368,-164"/>
<text text-anchor="start" x="376" y="-193" font-family="FreeSans" font-size="10.00">SeeSawN::StateEstimation</text>
<text text-anchor="start" x="376" y="-182" font-family="FreeSans" font-size="10.00">N::UnscentedKalmanFilterC</text>
<text text-anchor="middle" x="436.5" y="-171" font-family="FreeSans" font-size="10.00">::ApplyTransformation</text>
</a>
</g>
</g>
<!-- Node58&#45;&gt;Node59 -->
<g id="edge2" class="edge"><title>Node58&#45;&gt;Node59</title>
<path fill="none" stroke="midnightblue" d="M274.24,-115.148C294.279,-127.611 321.016,-143.211 346,-154.5 350.345,-156.463 354.858,-158.368 359.445,-160.201"/>
<polygon fill="midnightblue" stroke="midnightblue" points="358.345,-163.529 368.935,-163.862 360.865,-156.998 358.345,-163.529"/>
</g>
<!-- Node60 -->
<g id="node4" class="node"><title>Node60</title>
<g id="a_node4"><a xlink:href="classSeeSawN_1_1StateEstimationN_1_1UnscentedKalmanFilterC.html#a82ca58696cfeedc595e067b074b6b93b" target="_top" xlink:title="Delegates the decomposition of the measurement covariance to the problem. ">
<polygon fill="white" stroke="black" points="346,-104 346,-145 527,-145 527,-104 346,-104"/>
<text text-anchor="start" x="354" y="-133" font-family="FreeSans" font-size="10.00">SeeSawN::StateEstimation</text>
<text text-anchor="start" x="354" y="-122" font-family="FreeSans" font-size="10.00">N::UnscentedKalmanFilterC</text>
<text text-anchor="middle" x="436.5" y="-111" font-family="FreeSans" font-size="10.00">::DecomposeMeasurementCovariance</text>
</a>
</g>
</g>
<!-- Node58&#45;&gt;Node60 -->
<g id="edge3" class="edge"><title>Node58&#45;&gt;Node60</title>
<path fill="none" stroke="midnightblue" d="M310.002,-104.993C318.453,-106.306 327.231,-107.671 336.041,-109.04"/>
<polygon fill="midnightblue" stroke="midnightblue" points="335.568,-112.509 345.987,-110.586 336.644,-105.592 335.568,-112.509"/>
</g>
<!-- Node61 -->
<g id="node5" class="node"><title>Node61</title>
<g id="a_node5"><a xlink:href="classSeeSawN_1_1StateEstimationN_1_1UnscentedKalmanFilterC.html#aa3ea440bcb4b0961df41570ea9f92e21" target="_top" xlink:title="Delegates the decomposition of the state covariance to the problem. ">
<polygon fill="white" stroke="black" points="364,-44 364,-85 509,-85 509,-44 364,-44"/>
<text text-anchor="start" x="372" y="-73" font-family="FreeSans" font-size="10.00">SeeSawN::StateEstimation</text>
<text text-anchor="start" x="372" y="-62" font-family="FreeSans" font-size="10.00">N::UnscentedKalmanFilterC</text>
<text text-anchor="middle" x="436.5" y="-51" font-family="FreeSans" font-size="10.00">::DecomposeStateCovariance</text>
</a>
</g>
</g>
<!-- Node58&#45;&gt;Node61 -->
<g id="edge4" class="edge"><title>Node58&#45;&gt;Node61</title>
<path fill="none" stroke="midnightblue" d="M310.002,-84.0075C324.133,-81.8109 339.179,-79.4721 353.764,-77.205"/>
<polygon fill="midnightblue" stroke="midnightblue" points="354.427,-80.6441 363.771,-75.6496 353.352,-73.7271 354.427,-80.6441"/>
</g>
<!-- Node62 -->
<g id="node6" class="node"><title>Node62</title>
<g id="a_node6"><a xlink:href="namespaceboost.html#ab33d5e778d97f2702d840c5a8e28f5da" target="_top" xlink:title="boost::swap">
<polygon fill="white" stroke="black" points="402.5,-6 402.5,-25 470.5,-25 470.5,-6 402.5,-6"/>
<text text-anchor="middle" x="436.5" y="-13" font-family="FreeSans" font-size="10.00">boost::swap</text>
</a>
</g>
</g>
<!-- Node58&#45;&gt;Node62 -->
<g id="edge5" class="edge"><title>Node58&#45;&gt;Node62</title>
<path fill="none" stroke="midnightblue" d="M293.062,-73.8868C298.898,-70.9667 304.664,-67.8191 310,-64.5 327.685,-53.499 327.264,-43.5959 346,-34.5 360.281,-27.5671 377.051,-23.1516 392.191,-20.3446"/>
<polygon fill="midnightblue" stroke="midnightblue" points="393.074,-23.7457 402.361,-18.647 391.922,-16.8412 393.074,-23.7457"/>
</g>
<!-- Node63 -->
<g id="node7" class="node"><title>Node63</title>
<g id="a_node7"><a xlink:href="classboost_1_1dynamic__bitset.html#aeed52d861439697261690e501cb5ae8b" target="_top" xlink:title="boost::dynamic_bitset\l::swap">
<polygon fill="white" stroke="black" points="563,-0.5 563,-30.5 673,-30.5 673,-0.5 563,-0.5"/>
<text text-anchor="start" x="571" y="-18.5" font-family="FreeSans" font-size="10.00">boost::dynamic_bitset</text>
<text text-anchor="middle" x="618" y="-7.5" font-family="FreeSans" font-size="10.00">::swap</text>
</a>
</g>
</g>
<!-- Node62&#45;&gt;Node63 -->
<g id="edge6" class="edge"><title>Node62&#45;&gt;Node63</title>
<path fill="none" stroke="midnightblue" d="M470.842,-10.1121C493.778,-8.81775 524.978,-8.44587 552.663,-8.99649"/>
<polygon fill="midnightblue" stroke="midnightblue" points="552.599,-12.4959 562.682,-9.24109 552.77,-5.49797 552.599,-12.4959"/>
</g>
<!-- Node63&#45;&gt;Node62 -->
<g id="edge9" class="edge"><title>Node63&#45;&gt;Node62</title>
<path fill="none" stroke="midnightblue" d="M562.682,-21.7589C536.506,-22.5225 505.539,-22.3956 480.955,-21.3784"/>
<polygon fill="midnightblue" stroke="midnightblue" points="481,-17.8765 470.842,-20.8879 480.661,-24.8683 481,-17.8765"/>
</g>
<!-- Node64 -->
<g id="node8" class="node"><title>Node64</title>
<g id="a_node8"><a xlink:href="classboost_1_1dynamic__bitset.html#a8e3c3db2aa0fd4f45aaae2b6b7d96ef1" target="_top" xlink:title="boost::dynamic_bitset\l::operator=">
<polygon fill="white" stroke="black" points="709,-0.5 709,-30.5 819,-30.5 819,-0.5 709,-0.5"/>
<text text-anchor="start" x="717" y="-18.5" font-family="FreeSans" font-size="10.00">boost::dynamic_bitset</text>
<text text-anchor="middle" x="764" y="-7.5" font-family="FreeSans" font-size="10.00">::operator=</text>
</a>
</g>
</g>
<!-- Node63&#45;&gt;Node64 -->
<g id="edge7" class="edge"><title>Node63&#45;&gt;Node64</title>
<path fill="none" stroke="midnightblue" d="M673.03,-15.5C681.314,-15.5 689.936,-15.5 698.42,-15.5"/>
<polygon fill="midnightblue" stroke="midnightblue" points="698.667,-19.0001 708.667,-15.5 698.667,-12.0001 698.667,-19.0001"/>
</g>
<!-- Node65 -->
<g id="node9" class="node"><title>Node65</title>
<g id="a_node9"><a xlink:href="classboost_1_1dynamic__bitset.html#a54b534f528507c51a4b4270825956ec0" target="_top" xlink:title="boost::dynamic_bitset\l::dynamic_bitset">
<polygon fill="white" stroke="black" points="855,-0.5 855,-30.5 965,-30.5 965,-0.5 855,-0.5"/>
<text text-anchor="start" x="863" y="-18.5" font-family="FreeSans" font-size="10.00">boost::dynamic_bitset</text>
<text text-anchor="middle" x="910" y="-7.5" font-family="FreeSans" font-size="10.00">::dynamic_bitset</text>
</a>
</g>
</g>
<!-- Node64&#45;&gt;Node65 -->
<g id="edge8" class="edge"><title>Node64&#45;&gt;Node65</title>
<path fill="none" stroke="midnightblue" d="M819.03,-15.5C827.314,-15.5 835.936,-15.5 844.42,-15.5"/>
<polygon fill="midnightblue" stroke="midnightblue" points="844.667,-19.0001 854.667,-15.5 844.667,-12.0001 844.667,-19.0001"/>
</g>
</g>
</svg>
