<?xml version="1.0" encoding="UTF-8" standalone="no"?>
<!DOCTYPE svg PUBLIC "-//W3C//DTD SVG 1.1//EN"
 "http://www.w3.org/Graphics/SVG/1.1/DTD/svg11.dtd">
<!-- Generated by graphviz version 2.38.0 (20140413.2041)
 -->
<!-- Title: SeeSawN::GeometryN::GenericGeometryEstimationProblemC::MakeInlierList Pages: 1 -->
<svg width="537pt" height="182pt"
 viewBox="0.00 0.00 537.00 182.00" xmlns="http://www.w3.org/2000/svg" xmlns:xlink="http://www.w3.org/1999/xlink">
<g id="graph0" class="graph" transform="scale(1 1) rotate(0) translate(4 178)">
<title>SeeSawN::GeometryN::GenericGeometryEstimationProblemC::MakeInlierList</title>
<polygon fill="white" stroke="none" points="-4,4 -4,-178 533,-178 533,4 -4,4"/>
<!-- Node16 -->
<g id="node1" class="node"><title>Node16</title>
<polygon fill="#bfbfbf" stroke="black" points="0,-66.5 0,-107.5 143,-107.5 143,-66.5 0,-66.5"/>
<text text-anchor="start" x="8" y="-95.5" font-family="FreeSans" font-size="10.00">SeeSawN::GeometryN</text>
<text text-anchor="start" x="8" y="-84.5" font-family="FreeSans" font-size="10.00">::GenericGeometryEstimation</text>
<text text-anchor="middle" x="71.5" y="-73.5" font-family="FreeSans" font-size="10.00">ProblemC::MakeInlierList</text>
</g>
<!-- Node17 -->
<g id="node2" class="node"><title>Node17</title>
<g id="a_node2"><a xlink:href="classSeeSawN_1_1GeometryN_1_1GenericGeometryEstimationProblemC.html#a2d21984989f52e5aebe798351056eae6" target="_top" xlink:title="Reconfigures the problem. ">
<polygon fill="white" stroke="black" points="200,-132.5 200,-173.5 343,-173.5 343,-132.5 200,-132.5"/>
<text text-anchor="start" x="208" y="-161.5" font-family="FreeSans" font-size="10.00">SeeSawN::GeometryN</text>
<text text-anchor="start" x="208" y="-150.5" font-family="FreeSans" font-size="10.00">::GenericGeometryEstimation</text>
<text text-anchor="middle" x="271.5" y="-139.5" font-family="FreeSans" font-size="10.00">ProblemC::Configure</text>
</a>
</g>
</g>
<!-- Node16&#45;&gt;Node17 -->
<g id="edge1" class="edge"><title>Node16&#45;&gt;Node17</title>
<path fill="none" stroke="midnightblue" d="M142.635,-110.809C154.755,-114.895 167.237,-119.084 179,-123 188.2,-126.063 197.927,-129.278 207.472,-132.419"/>
<polygon fill="midnightblue" stroke="midnightblue" points="143.607,-107.443 133.013,-107.562 141.369,-114.076 143.607,-107.443"/>
</g>
<!-- Node19 -->
<g id="node4" class="node"><title>Node19</title>
<g id="a_node4"><a xlink:href="classSeeSawN_1_1GeometryN_1_1GenericGeometryEstimationProblemC.html#ac8788d9da512dc04d1a2e0c674490179" target="_top" xlink:title="Constructor. ">
<polygon fill="white" stroke="black" points="179,-61 179,-113 364,-113 364,-61 179,-61"/>
<text text-anchor="start" x="187" y="-101" font-family="FreeSans" font-size="10.00">SeeSawN::GeometryN</text>
<text text-anchor="start" x="187" y="-90" font-family="FreeSans" font-size="10.00">::GenericGeometryEstimation</text>
<text text-anchor="start" x="187" y="-79" font-family="FreeSans" font-size="10.00">ProblemC::GenericGeometryEstimation</text>
<text text-anchor="middle" x="271.5" y="-68" font-family="FreeSans" font-size="10.00">ProblemC</text>
</a>
</g>
</g>
<!-- Node16&#45;&gt;Node19 -->
<g id="edge3" class="edge"><title>Node16&#45;&gt;Node19</title>
<path fill="none" stroke="midnightblue" d="M153.284,-87C161.685,-87 170.267,-87 178.777,-87"/>
<polygon fill="midnightblue" stroke="midnightblue" points="153.144,-83.5001 143.144,-87 153.144,-90.5001 153.144,-83.5001"/>
</g>
<!-- Node20 -->
<g id="node5" class="node"><title>Node20</title>
<g id="a_node5"><a xlink:href="classSeeSawN_1_1GeometryN_1_1GenericGeometryEstimationProblemC.html#a59803c826e1e73bc9af35c9b800bd40c" target="_top" xlink:title="Processes the RANSAC result and returns a model for refinement. ">
<polygon fill="white" stroke="black" points="187,-0.5 187,-41.5 356,-41.5 356,-0.5 187,-0.5"/>
<text text-anchor="start" x="195" y="-29.5" font-family="FreeSans" font-size="10.00">SeeSawN::GeometryN</text>
<text text-anchor="start" x="195" y="-18.5" font-family="FreeSans" font-size="10.00">::GenericGeometryEstimation</text>
<text text-anchor="middle" x="271.5" y="-7.5" font-family="FreeSans" font-size="10.00">ProblemC::ProcessRANSACResult</text>
</a>
</g>
</g>
<!-- Node16&#45;&gt;Node20 -->
<g id="edge4" class="edge"><title>Node16&#45;&gt;Node20</title>
<path fill="none" stroke="midnightblue" d="M143.726,-63.2582C165.077,-56.1409 188.305,-48.3984 208.975,-41.5083"/>
<polygon fill="midnightblue" stroke="midnightblue" points="142.443,-59.9962 134.063,-66.479 144.657,-66.637 142.443,-59.9962"/>
</g>
<!-- Node18 -->
<g id="node3" class="node"><title>Node18</title>
<g id="a_node3"><a xlink:href="namespaceSeeSawN_1_1UnitTestsN_1_1TestGeometryN.html#a32654de8d3508439f7b2c562a9341d8e" target="_top" xlink:title="SeeSawN::UnitTestsN\l::TestGeometryN::BOOST\l_AUTO_TEST_CASE">
<polygon fill="white" stroke="black" points="400,-66.5 400,-107.5 529,-107.5 529,-66.5 400,-66.5"/>
<text text-anchor="start" x="408" y="-95.5" font-family="FreeSans" font-size="10.00">SeeSawN::UnitTestsN</text>
<text text-anchor="start" x="408" y="-84.5" font-family="FreeSans" font-size="10.00">::TestGeometryN::BOOST</text>
<text text-anchor="middle" x="464.5" y="-73.5" font-family="FreeSans" font-size="10.00">_AUTO_TEST_CASE</text>
</a>
</g>
</g>
<!-- Node17&#45;&gt;Node18 -->
<g id="edge2" class="edge"><title>Node17&#45;&gt;Node18</title>
<path fill="none" stroke="midnightblue" d="M345.779,-129.192C351.95,-127.121 358.088,-125.038 364,-123 378.154,-118.12 393.381,-112.699 407.562,-107.575"/>
<polygon fill="midnightblue" stroke="midnightblue" points="344.458,-125.943 336.081,-132.43 346.674,-132.583 344.458,-125.943"/>
</g>
<!-- Node20&#45;&gt;Node18 -->
<g id="edge5" class="edge"><title>Node20&#45;&gt;Node18</title>
<path fill="none" stroke="midnightblue" d="M343.15,-44.8451C350.198,-47.2511 357.242,-49.6668 364,-52 377.415,-56.6316 391.826,-61.6666 405.401,-66.4363"/>
<polygon fill="midnightblue" stroke="midnightblue" points="344.159,-41.4911 333.564,-41.5789 341.901,-48.1171 344.159,-41.4911"/>
</g>
</g>
</svg>
