<?xml version="1.0" encoding="UTF-8" standalone="no"?>
<!DOCTYPE svg PUBLIC "-//W3C//DTD SVG 1.1//EN"
 "http://www.w3.org/Graphics/SVG/1.1/DTD/svg11.dtd">
<!-- Generated by graphviz version 2.38.0 (20140413.2041)
 -->
<!-- Title: SeeSawN::ApplicationN::InterfaceRotationRegistrationPipelineC Pages: 1 -->
<svg width="155pt" height="99pt"
 viewBox="0.00 0.00 155.00 99.00" xmlns="http://www.w3.org/2000/svg" xmlns:xlink="http://www.w3.org/1999/xlink">
<g id="graph0" class="graph" transform="scale(1 1) rotate(0) translate(4 95)">
<title>SeeSawN::ApplicationN::InterfaceRotationRegistrationPipelineC</title>
<polygon fill="white" stroke="none" points="-4,4 -4,-95 151,-95 151,4 -4,4"/>
<!-- Node1 -->
<g id="node1" class="node"><title>Node1</title>
<polygon fill="#bfbfbf" stroke="black" points="0,-0.5 0,-90.5 147,-90.5 147,-0.5 0,-0.5"/>
<text text-anchor="start" x="8" y="-78.5" font-family="FreeSans" font-size="10.00">SeeSawN::ApplicationN</text>
<text text-anchor="start" x="8" y="-67.5" font-family="FreeSans" font-size="10.00">::InterfaceRotationRegistration</text>
<text text-anchor="middle" x="73.5" y="-56.5" font-family="FreeSans" font-size="10.00">PipelineC</text>
<polyline fill="none" stroke="black" points="0,-49.5 147,-49.5 "/>
<text text-anchor="middle" x="73.5" y="-37.5" font-family="FreeSans" font-size="10.00"> </text>
<polyline fill="none" stroke="black" points="0,-30.5 147,-30.5 "/>
<text text-anchor="start" x="8" y="-18.5" font-family="FreeSans" font-size="10.00">+ MakeParameterObject()</text>
<text text-anchor="start" x="8" y="-7.5" font-family="FreeSans" font-size="10.00">+ MakeParameterTree()</text>
</g>
</g>
</svg>
