<?xml version="1.0" encoding="UTF-8" standalone="no"?>
<!DOCTYPE svg PUBLIC "-//W3C//DTD SVG 1.1//EN"
 "http://www.w3.org/Graphics/SVG/1.1/DTD/svg11.dtd">
<!-- Generated by graphviz version 2.38.0 (20140413.2041)
 -->
<!-- Title: SeeSawN::ApplicationN::InterfaceFeatureTrackerC::MakeParameterObject Pages: 1 -->
<svg width="467pt" height="148pt"
 viewBox="0.00 0.00 467.00 148.00" xmlns="http://www.w3.org/2000/svg" xmlns:xlink="http://www.w3.org/1999/xlink">
<g id="graph0" class="graph" transform="scale(1 1) rotate(0) translate(4 144)">
<title>SeeSawN::ApplicationN::InterfaceFeatureTrackerC::MakeParameterObject</title>
<polygon fill="white" stroke="none" points="-4,4 -4,-144 463,-144 463,4 -4,4"/>
<!-- Node0 -->
<g id="node1" class="node"><title>Node0</title>
<polygon fill="#bfbfbf" stroke="black" points="0,-49.5 0,-90.5 132,-90.5 132,-49.5 0,-49.5"/>
<text text-anchor="start" x="8" y="-78.5" font-family="FreeSans" font-size="10.00">SeeSawN::ApplicationN</text>
<text text-anchor="start" x="8" y="-67.5" font-family="FreeSans" font-size="10.00">::InterfaceFeatureTrackerC</text>
<text text-anchor="middle" x="66" y="-56.5" font-family="FreeSans" font-size="10.00">::MakeParameterObject</text>
</g>
<!-- Node1 -->
<g id="node2" class="node"><title>Node1</title>
<g id="a_node2"><a xlink:href="classSeeSawN_1_1ApplicationN_1_1InterfaceFeatureMatcherC.html#af7d4e6a1ebf6147dc4385a4a6df3b4e5" target="_top" xlink:title="Makes a parameter object from a property tree. ">
<polygon fill="white" stroke="black" points="168,-98.5 168,-139.5 302,-139.5 302,-98.5 168,-98.5"/>
<text text-anchor="start" x="176" y="-127.5" font-family="FreeSans" font-size="10.00">SeeSawN::ApplicationN</text>
<text text-anchor="start" x="176" y="-116.5" font-family="FreeSans" font-size="10.00">::InterfaceFeatureMatcherC</text>
<text text-anchor="middle" x="235" y="-105.5" font-family="FreeSans" font-size="10.00">::MakeParameterObject</text>
</a>
</g>
</g>
<!-- Node0&#45;&gt;Node1 -->
<g id="edge1" class="edge"><title>Node0&#45;&gt;Node1</title>
<path fill="none" stroke="midnightblue" d="M132.045,-89.085C140.562,-91.5841 149.349,-94.1623 158.027,-96.7084"/>
<polygon fill="midnightblue" stroke="midnightblue" points="157.176,-100.106 167.757,-99.5635 159.147,-93.3896 157.176,-100.106"/>
</g>
<!-- Node2 -->
<g id="node3" class="node"><title>Node2</title>
<g id="a_node3"><a xlink:href="group__Utility.html#ga48dc86b390790f70172782dc63ab5e8f" target="_top" xlink:title="Reads and validates a parameter from a property tree. ">
<polygon fill="white" stroke="black" points="338,-79 338,-109 459,-109 459,-79 338,-79"/>
<text text-anchor="start" x="346" y="-97" font-family="FreeSans" font-size="10.00">SeeSawN::ApplicationN</text>
<text text-anchor="middle" x="398.5" y="-86" font-family="FreeSans" font-size="10.00">::ReadParameter</text>
</a>
</g>
</g>
<!-- Node0&#45;&gt;Node2 -->
<g id="edge4" class="edge"><title>Node0&#45;&gt;Node2</title>
<path fill="none" stroke="midnightblue" d="M132.296,-74.7416C188.73,-78.8397 270.077,-84.7469 327.769,-88.9363"/>
<polygon fill="midnightblue" stroke="midnightblue" points="327.667,-92.438 337.894,-89.6716 328.174,-85.4564 327.667,-92.438"/>
</g>
<!-- Node3 -->
<g id="node4" class="node"><title>Node3</title>
<g id="a_node4"><a xlink:href="classSeeSawN_1_1ApplicationN_1_1InterfaceFeatureTrackerC.html#a316de8206d0fff2fc082ed43952623b6" target="_top" xlink:title="Removes the redundant matcher parameters from the tree. ">
<polygon fill="white" stroke="black" points="169,-0.5 169,-41.5 301,-41.5 301,-0.5 169,-0.5"/>
<text text-anchor="start" x="177" y="-29.5" font-family="FreeSans" font-size="10.00">SeeSawN::ApplicationN</text>
<text text-anchor="start" x="177" y="-18.5" font-family="FreeSans" font-size="10.00">::InterfaceFeatureTrackerC</text>
<text text-anchor="middle" x="235" y="-7.5" font-family="FreeSans" font-size="10.00">::PruneMatcher</text>
</a>
</g>
</g>
<!-- Node0&#45;&gt;Node3 -->
<g id="edge3" class="edge"><title>Node0&#45;&gt;Node3</title>
<path fill="none" stroke="midnightblue" d="M132.045,-50.915C140.923,-48.3101 150.094,-45.6193 159.128,-42.9684"/>
<polygon fill="midnightblue" stroke="midnightblue" points="160.248,-46.2874 168.858,-40.1135 158.277,-39.5706 160.248,-46.2874"/>
</g>
<!-- Node1&#45;&gt;Node2 -->
<g id="edge2" class="edge"><title>Node1&#45;&gt;Node2</title>
<path fill="none" stroke="midnightblue" d="M302.154,-108.759C310.669,-107.441 319.408,-106.089 327.975,-104.762"/>
<polygon fill="midnightblue" stroke="midnightblue" points="328.583,-108.21 337.93,-103.221 327.512,-101.292 328.583,-108.21"/>
</g>
</g>
</svg>
