<?xml version="1.0" encoding="UTF-8" standalone="no"?>
<!DOCTYPE svg PUBLIC "-//W3C//DTD SVG 1.1//EN"
 "http://www.w3.org/Graphics/SVG/1.1/DTD/svg11.dtd">
<!-- Generated by graphviz version 2.38.0 (20140413.2041)
 -->
<!-- Title: SeeSawN::AppGeometryEstimator32N::GeometryEstimator32ImplementationC::GenerateConfigFile Pages: 1 -->
<svg width="1068pt" height="439pt"
 viewBox="0.00 0.00 1068.00 439.00" xmlns="http://www.w3.org/2000/svg" xmlns:xlink="http://www.w3.org/1999/xlink">
<g id="graph0" class="graph" transform="scale(1 1) rotate(0) translate(4 435)">
<title>SeeSawN::AppGeometryEstimator32N::GeometryEstimator32ImplementationC::GenerateConfigFile</title>
<polygon fill="white" stroke="none" points="-4,4 -4,-435 1064,-435 1064,4 -4,4"/>
<!-- Node30 -->
<g id="node1" class="node"><title>Node30</title>
<polygon fill="#bfbfbf" stroke="black" points="0,-264.5 0,-305.5 189,-305.5 189,-264.5 0,-264.5"/>
<text text-anchor="start" x="8" y="-293.5" font-family="FreeSans" font-size="10.00">SeeSawN::AppGeometryEstimator32</text>
<text text-anchor="start" x="8" y="-282.5" font-family="FreeSans" font-size="10.00">N::GeometryEstimator32Implementation</text>
<text text-anchor="middle" x="94.5" y="-271.5" font-family="FreeSans" font-size="10.00">C::GenerateConfigFile</text>
</g>
<!-- Node31 -->
<g id="node2" class="node"><title>Node31</title>
<g id="a_node2"><a xlink:href="classSeeSawN_1_1ApplicationN_1_1InterfaceTwoStageRANSACC.html#a7e85422f8b1d8be4f0e488558d0cd5d2" target="_top" xlink:title="Augments the tree with the parameters for RANSACGeometryEstimationProblemC. ">
<polygon fill="white" stroke="black" points="650,-336.5 650,-377.5 824,-377.5 824,-336.5 650,-336.5"/>
<text text-anchor="start" x="658" y="-365.5" font-family="FreeSans" font-size="10.00">SeeSawN::ApplicationN</text>
<text text-anchor="start" x="658" y="-354.5" font-family="FreeSans" font-size="10.00">::InterfaceTwoStageRANSACC</text>
<text text-anchor="middle" x="737" y="-343.5" font-family="FreeSans" font-size="10.00">::InsertGeometryProblemParameters</text>
</a>
</g>
</g>
<!-- Node30&#45;&gt;Node31 -->
<g id="edge1" class="edge"><title>Node30&#45;&gt;Node31</title>
<path fill="none" stroke="midnightblue" d="M173.531,-305.529C237.191,-321.243 329.728,-341.743 412,-351 488.152,-359.569 574.994,-360.718 639.59,-359.917"/>
<polygon fill="midnightblue" stroke="midnightblue" points="639.812,-363.414 649.762,-359.772 639.713,-356.415 639.812,-363.414"/>
</g>
<!-- Node35 -->
<g id="node6" class="node"><title>Node35</title>
<g id="a_node6"><a xlink:href="classSeeSawN_1_1ApplicationN_1_1InterfaceGeometryEstimationPipelineC.html#a8ea82534c109d79b1a1b23f601cc82fd" target="_top" xlink:title="Makes a property tree from a parameter object. ">
<polygon fill="white" stroke="black" points="225,-180.5 225,-221.5 376,-221.5 376,-180.5 225,-180.5"/>
<text text-anchor="start" x="233" y="-209.5" font-family="FreeSans" font-size="10.00">SeeSawN::ApplicationN</text>
<text text-anchor="start" x="233" y="-198.5" font-family="FreeSans" font-size="10.00">::InterfaceGeometryEstimation</text>
<text text-anchor="middle" x="300.5" y="-187.5" font-family="FreeSans" font-size="10.00">PipelineC::MakeParameterTree</text>
</a>
</g>
</g>
<!-- Node30&#45;&gt;Node35 -->
<g id="edge5" class="edge"><title>Node30&#45;&gt;Node35</title>
<path fill="none" stroke="midnightblue" d="M145.404,-264.451C173.929,-252.706 209.885,-237.9 239.889,-225.546"/>
<polygon fill="midnightblue" stroke="midnightblue" points="241.49,-228.672 249.404,-221.628 238.825,-222.199 241.49,-228.672"/>
</g>
<!-- Node32 -->
<g id="node3" class="node"><title>Node32</title>
<g id="a_node3"><a xlink:href="classSeeSawN_1_1ApplicationN_1_1InterfaceRANSACC.html#a7e2149121a77f84d306e80c0df6f1fb0" target="_top" xlink:title="Augments the tree with the parameters for RANSACGeometryEstimationProblemC. ">
<polygon fill="white" stroke="black" points="870.5,-389.5 870.5,-430.5 1049.5,-430.5 1049.5,-389.5 870.5,-389.5"/>
<text text-anchor="start" x="878.5" y="-418.5" font-family="FreeSans" font-size="10.00">SeeSawN::ApplicationN</text>
<text text-anchor="start" x="878.5" y="-407.5" font-family="FreeSans" font-size="10.00">::InterfaceRANSACC::InsertGeometry</text>
<text text-anchor="middle" x="960" y="-396.5" font-family="FreeSans" font-size="10.00">ProblemParameters</text>
</a>
</g>
</g>
<!-- Node31&#45;&gt;Node32 -->
<g id="edge2" class="edge"><title>Node31&#45;&gt;Node32</title>
<path fill="none" stroke="midnightblue" d="M823.761,-377.567C836.717,-380.674 850.151,-383.896 863.3,-387.049"/>
<polygon fill="midnightblue" stroke="midnightblue" points="862.747,-390.516 873.288,-389.445 864.379,-383.709 862.747,-390.516"/>
</g>
<!-- Node33 -->
<g id="node4" class="node"><title>Node33</title>
<g id="a_node4"><a xlink:href="classSeeSawN_1_1ApplicationN_1_1InterfaceTwoStageRANSACC.html#a5e4db2b73abfd256c621e2853efb31c9" target="_top" xlink:title="Prune any redundant parameters from Stage 1 RANSAC configuration. ">
<polygon fill="white" stroke="black" points="884,-329.5 884,-370.5 1036,-370.5 1036,-329.5 884,-329.5"/>
<text text-anchor="start" x="892" y="-358.5" font-family="FreeSans" font-size="10.00">SeeSawN::ApplicationN</text>
<text text-anchor="start" x="892" y="-347.5" font-family="FreeSans" font-size="10.00">::InterfaceTwoStageRANSACC</text>
<text text-anchor="middle" x="960" y="-336.5" font-family="FreeSans" font-size="10.00">::PruneStage1</text>
</a>
</g>
</g>
<!-- Node31&#45;&gt;Node33 -->
<g id="edge3" class="edge"><title>Node31&#45;&gt;Node33</title>
<path fill="none" stroke="midnightblue" d="M824.077,-354.274C840.437,-353.755 857.549,-353.213 873.878,-352.696"/>
<polygon fill="midnightblue" stroke="midnightblue" points="874.047,-356.193 883.931,-352.378 873.826,-349.196 874.047,-356.193"/>
</g>
<!-- Node34 -->
<g id="node5" class="node"><title>Node34</title>
<g id="a_node5"><a xlink:href="classSeeSawN_1_1ApplicationN_1_1InterfaceTwoStageRANSACC.html#af9cc401ab63f8343edb68ccbb76de645" target="_top" xlink:title="Prune any redundant parameters from Stage 2 RANSAC configuration. ">
<polygon fill="white" stroke="black" points="884,-269.5 884,-310.5 1036,-310.5 1036,-269.5 884,-269.5"/>
<text text-anchor="start" x="892" y="-298.5" font-family="FreeSans" font-size="10.00">SeeSawN::ApplicationN</text>
<text text-anchor="start" x="892" y="-287.5" font-family="FreeSans" font-size="10.00">::InterfaceTwoStageRANSACC</text>
<text text-anchor="middle" x="960" y="-276.5" font-family="FreeSans" font-size="10.00">::PruneStage2</text>
</a>
</g>
</g>
<!-- Node31&#45;&gt;Node34 -->
<g id="edge4" class="edge"><title>Node31&#45;&gt;Node34</title>
<path fill="none" stroke="midnightblue" d="M805.757,-336.448C823.415,-331.093 842.42,-325.33 860,-320 866.912,-317.904 874.096,-315.727 881.296,-313.545"/>
<polygon fill="midnightblue" stroke="midnightblue" points="882.544,-316.824 891.099,-310.574 880.514,-310.125 882.544,-316.824"/>
</g>
<!-- Node36 -->
<g id="node7" class="node"><title>Node36</title>
<g id="a_node7"><a xlink:href="classSeeSawN_1_1ApplicationN_1_1InterfaceGeometryEstimationPipelineC.html#a0bf4271cfcf3f3ea9930f9ef1013ff60" target="_top" xlink:title="Removes the redundant matcher parameters. ">
<polygon fill="white" stroke="black" points="439.5,-60.5 439.5,-101.5 586.5,-101.5 586.5,-60.5 439.5,-60.5"/>
<text text-anchor="start" x="447.5" y="-89.5" font-family="FreeSans" font-size="10.00">SeeSawN::ApplicationN</text>
<text text-anchor="start" x="447.5" y="-78.5" font-family="FreeSans" font-size="10.00">::InterfaceGeometryEstimation</text>
<text text-anchor="middle" x="513" y="-67.5" font-family="FreeSans" font-size="10.00">PipelineC::PruneMatcher</text>
</a>
</g>
</g>
<!-- Node35&#45;&gt;Node36 -->
<g id="edge6" class="edge"><title>Node35&#45;&gt;Node36</title>
<path fill="none" stroke="midnightblue" d="M321.707,-180.346C342.604,-160.063 377.024,-129.543 412,-111 417.622,-108.019 423.584,-105.292 429.685,-102.804"/>
<polygon fill="midnightblue" stroke="midnightblue" points="431.278,-105.942 439.359,-99.0907 428.769,-99.4068 431.278,-105.942"/>
</g>
<!-- Node37 -->
<g id="node8" class="node"><title>Node37</title>
<g id="a_node8"><a xlink:href="classSeeSawN_1_1ApplicationN_1_1InterfaceFeatureMatcherC.html#a8f472195d3cff175bf0fc44d10e23687" target="_top" xlink:title="Makes a property tree from a parameter object. ">
<polygon fill="white" stroke="black" points="446,-0.5 446,-41.5 580,-41.5 580,-0.5 446,-0.5"/>
<text text-anchor="start" x="454" y="-29.5" font-family="FreeSans" font-size="10.00">SeeSawN::ApplicationN</text>
<text text-anchor="start" x="454" y="-18.5" font-family="FreeSans" font-size="10.00">::InterfaceFeatureMatcherC</text>
<text text-anchor="middle" x="513" y="-7.5" font-family="FreeSans" font-size="10.00">::MakeParameterTree</text>
</a>
</g>
</g>
<!-- Node35&#45;&gt;Node37 -->
<g id="edge7" class="edge"><title>Node35&#45;&gt;Node37</title>
<path fill="none" stroke="midnightblue" d="M311.127,-180.475C327.352,-148.109 363.212,-85.366 412,-51 419.454,-45.7492 427.84,-41.4036 436.504,-37.8102"/>
<polygon fill="midnightblue" stroke="midnightblue" points="437.885,-41.0298 445.983,-34.199 435.392,-34.4884 437.885,-41.0298"/>
</g>
<!-- Node38 -->
<g id="node9" class="node"><title>Node38</title>
<g id="a_node9"><a xlink:href="classSeeSawN_1_1ApplicationN_1_1InterfaceGeometryEstimationPipelineC.html#a8de326e5a379da5e9ceeed191efaf741" target="_top" xlink:title="Removes the redundant geometry estimator parameters. ">
<polygon fill="white" stroke="black" points="427.5,-300.5 427.5,-341.5 598.5,-341.5 598.5,-300.5 427.5,-300.5"/>
<text text-anchor="start" x="435.5" y="-329.5" font-family="FreeSans" font-size="10.00">SeeSawN::ApplicationN</text>
<text text-anchor="start" x="435.5" y="-318.5" font-family="FreeSans" font-size="10.00">::InterfaceGeometryEstimation</text>
<text text-anchor="middle" x="513" y="-307.5" font-family="FreeSans" font-size="10.00">PipelineC::PruneGeometryEstimator</text>
</a>
</g>
</g>
<!-- Node35&#45;&gt;Node38 -->
<g id="edge8" class="edge"><title>Node35&#45;&gt;Node38</title>
<path fill="none" stroke="midnightblue" d="M321.707,-221.654C342.604,-241.937 377.024,-272.457 412,-291 415.693,-292.958 419.533,-294.807 423.462,-296.55"/>
<polygon fill="midnightblue" stroke="midnightblue" points="422.19,-299.812 432.767,-300.428 424.883,-293.35 422.19,-299.812"/>
</g>
<!-- Node39 -->
<g id="node10" class="node"><title>Node39</title>
<g id="a_node10"><a xlink:href="classSeeSawN_1_1ApplicationN_1_1InterfaceGeometryEstimatorC.html#a57783740d44193595dd5b49a9d40d6fb" target="_top" xlink:title="Makes a property tree from a parameter object. ">
<polygon fill="white" stroke="black" points="441.5,-120.5 441.5,-161.5 584.5,-161.5 584.5,-120.5 441.5,-120.5"/>
<text text-anchor="start" x="449.5" y="-149.5" font-family="FreeSans" font-size="10.00">SeeSawN::ApplicationN</text>
<text text-anchor="start" x="449.5" y="-138.5" font-family="FreeSans" font-size="10.00">::InterfaceGeometryEstimator</text>
<text text-anchor="middle" x="513" y="-127.5" font-family="FreeSans" font-size="10.00">C::MakeParameterTree</text>
</a>
</g>
</g>
<!-- Node35&#45;&gt;Node39 -->
<g id="edge9" class="edge"><title>Node35&#45;&gt;Node39</title>
<path fill="none" stroke="midnightblue" d="M373.648,-180.435C392.296,-175.12 412.487,-169.365 431.531,-163.936"/>
<polygon fill="midnightblue" stroke="midnightblue" points="432.714,-167.239 441.371,-161.132 430.795,-160.507 432.714,-167.239"/>
</g>
<!-- Node44 -->
<g id="node15" class="node"><title>Node44</title>
<g id="a_node15"><a xlink:href="classSeeSawN_1_1ApplicationN_1_1InterfaceGeometryEstimationPipelineC.html#a385b2067ced635ddf4941aafb05279c6" target="_top" xlink:title="Removes the redundant SUT parameters. ">
<polygon fill="white" stroke="black" points="439.5,-240.5 439.5,-281.5 586.5,-281.5 586.5,-240.5 439.5,-240.5"/>
<text text-anchor="start" x="447.5" y="-269.5" font-family="FreeSans" font-size="10.00">SeeSawN::ApplicationN</text>
<text text-anchor="start" x="447.5" y="-258.5" font-family="FreeSans" font-size="10.00">::InterfaceGeometryEstimation</text>
<text text-anchor="middle" x="513" y="-247.5" font-family="FreeSans" font-size="10.00">PipelineC::PruneSUT</text>
</a>
</g>
</g>
<!-- Node35&#45;&gt;Node44 -->
<g id="edge16" class="edge"><title>Node35&#45;&gt;Node44</title>
<path fill="none" stroke="midnightblue" d="M373.648,-221.565C391.89,-226.764 411.61,-232.385 430.288,-237.709"/>
<polygon fill="midnightblue" stroke="midnightblue" points="429.37,-241.087 439.947,-240.462 431.289,-234.355 429.37,-241.087"/>
</g>
<!-- Node45 -->
<g id="node16" class="node"><title>Node45</title>
<g id="a_node16"><a xlink:href="classSeeSawN_1_1ApplicationN_1_1InterfaceScaledUnscentedTransformationC.html#a38f2f31bf197aefc23e1e6bdc38885db" target="_top" xlink:title="Makes a property tree from a parameter object. ">
<polygon fill="white" stroke="black" points="412,-180.5 412,-221.5 614,-221.5 614,-180.5 412,-180.5"/>
<text text-anchor="start" x="420" y="-209.5" font-family="FreeSans" font-size="10.00">SeeSawN::ApplicationN</text>
<text text-anchor="start" x="420" y="-198.5" font-family="FreeSans" font-size="10.00">::InterfaceScaledUnscentedTransformation</text>
<text text-anchor="middle" x="513" y="-187.5" font-family="FreeSans" font-size="10.00">C::MakeParameterTree</text>
</a>
</g>
</g>
<!-- Node35&#45;&gt;Node45 -->
<g id="edge17" class="edge"><title>Node35&#45;&gt;Node45</title>
<path fill="none" stroke="midnightblue" d="M376.011,-201C384.341,-201 392.954,-201 401.612,-201"/>
<polygon fill="midnightblue" stroke="midnightblue" points="401.784,-204.5 411.784,-201 401.784,-197.5 401.784,-204.5"/>
</g>
<!-- Node40 -->
<g id="node11" class="node"><title>Node40</title>
<g id="a_node11"><a xlink:href="classSeeSawN_1_1ApplicationN_1_1InterfaceTwoStageRANSACC.html#a1c3fd82c5b1d840f1cfc78e3842f79ff" target="_top" xlink:title="Makes a property tree from a parameter object. ">
<polygon fill="white" stroke="black" points="661,-240.5 661,-281.5 813,-281.5 813,-240.5 661,-240.5"/>
<text text-anchor="start" x="669" y="-269.5" font-family="FreeSans" font-size="10.00">SeeSawN::ApplicationN</text>
<text text-anchor="start" x="669" y="-258.5" font-family="FreeSans" font-size="10.00">::InterfaceTwoStageRANSACC</text>
<text text-anchor="middle" x="737" y="-247.5" font-family="FreeSans" font-size="10.00">::MakeParameterTree</text>
</a>
</g>
</g>
<!-- Node39&#45;&gt;Node40 -->
<g id="edge10" class="edge"><title>Node39&#45;&gt;Node40</title>
<path fill="none" stroke="midnightblue" d="M584.523,-157.758C594.728,-161.426 604.86,-165.807 614,-171 632.872,-181.723 632.902,-190.63 650,-204 663.672,-214.691 679.314,-225.454 693.476,-234.703"/>
<polygon fill="midnightblue" stroke="midnightblue" points="691.773,-237.77 702.072,-240.253 695.569,-231.889 691.773,-237.77"/>
</g>
<!-- Node42 -->
<g id="node13" class="node"><title>Node42</title>
<g id="a_node13"><a xlink:href="classSeeSawN_1_1ApplicationN_1_1InterfaceGeometryEstimatorC.html#a28da5d10fb234fa4838da7b3f4ecf2db" target="_top" xlink:title="Removes the redundant refinement parameters. ">
<polygon fill="white" stroke="black" points="665.5,-153.5 665.5,-194.5 808.5,-194.5 808.5,-153.5 665.5,-153.5"/>
<text text-anchor="start" x="673.5" y="-182.5" font-family="FreeSans" font-size="10.00">SeeSawN::ApplicationN</text>
<text text-anchor="start" x="673.5" y="-171.5" font-family="FreeSans" font-size="10.00">::InterfaceGeometryEstimator</text>
<text text-anchor="middle" x="737" y="-160.5" font-family="FreeSans" font-size="10.00">C::PruneRefinement</text>
</a>
</g>
</g>
<!-- Node39&#45;&gt;Node42 -->
<g id="edge14" class="edge"><title>Node39&#45;&gt;Node42</title>
<path fill="none" stroke="midnightblue" d="M584.547,-151.487C606.998,-154.824 632.007,-158.542 655.129,-161.979"/>
<polygon fill="midnightblue" stroke="midnightblue" points="654.849,-165.475 665.255,-163.484 655.879,-158.552 654.849,-165.475"/>
</g>
<!-- Node43 -->
<g id="node14" class="node"><title>Node43</title>
<g id="a_node14"><a xlink:href="classSeeSawN_1_1ApplicationN_1_1InterfacePowellDogLegC.html#a63d658fac13be5c76a2c90a8e9c451e5" target="_top" xlink:title="Makes a property tree from a parameter object. ">
<polygon fill="white" stroke="black" points="672.5,-93.5 672.5,-134.5 801.5,-134.5 801.5,-93.5 672.5,-93.5"/>
<text text-anchor="start" x="680.5" y="-122.5" font-family="FreeSans" font-size="10.00">SeeSawN::ApplicationN</text>
<text text-anchor="start" x="680.5" y="-111.5" font-family="FreeSans" font-size="10.00">::InterfacePowellDogLegC</text>
<text text-anchor="middle" x="737" y="-100.5" font-family="FreeSans" font-size="10.00">::MakeParameterTree</text>
</a>
</g>
</g>
<!-- Node39&#45;&gt;Node43 -->
<g id="edge15" class="edge"><title>Node39&#45;&gt;Node43</title>
<path fill="none" stroke="midnightblue" d="M584.547,-132.42C609.32,-129.407 637.207,-126.015 662.236,-122.971"/>
<polygon fill="midnightblue" stroke="midnightblue" points="662.899,-126.417 672.403,-121.735 662.054,-119.468 662.899,-126.417"/>
</g>
<!-- Node40&#45;&gt;Node33 -->
<g id="edge12" class="edge"><title>Node40&#45;&gt;Node33</title>
<path fill="none" stroke="midnightblue" d="M776.593,-281.583C800.256,-293.717 831.401,-308.83 860,-320 865.412,-322.114 871.037,-324.172 876.735,-326.156"/>
<polygon fill="midnightblue" stroke="midnightblue" points="875.774,-329.526 886.369,-329.42 878.021,-322.896 875.774,-329.526"/>
</g>
<!-- Node40&#45;&gt;Node34 -->
<g id="edge13" class="edge"><title>Node40&#45;&gt;Node34</title>
<path fill="none" stroke="midnightblue" d="M813.129,-270.859C832.612,-273.415 853.734,-276.187 873.698,-278.806"/>
<polygon fill="midnightblue" stroke="midnightblue" points="873.333,-282.289 883.704,-280.119 874.244,-275.348 873.333,-282.289"/>
</g>
<!-- Node41 -->
<g id="node12" class="node"><title>Node41</title>
<g id="a_node12"><a xlink:href="classSeeSawN_1_1ApplicationN_1_1InterfaceRANSACC.html#a917a194d5f663901c83b091b687a6b27" target="_top" xlink:title="Makes a property tree from a parameter object. ">
<polygon fill="white" stroke="black" points="860,-220 860,-250 1060,-250 1060,-220 860,-220"/>
<text text-anchor="start" x="868" y="-238" font-family="FreeSans" font-size="10.00">SeeSawN::ApplicationN</text>
<text text-anchor="middle" x="960" y="-227" font-family="FreeSans" font-size="10.00">::InterfaceRANSACC::MakeParameterTree</text>
</a>
</g>
</g>
<!-- Node40&#45;&gt;Node41 -->
<g id="edge11" class="edge"><title>Node40&#45;&gt;Node41</title>
<path fill="none" stroke="midnightblue" d="M813.129,-252.161C824.977,-250.767 837.433,-249.302 849.865,-247.839"/>
<polygon fill="midnightblue" stroke="midnightblue" points="850.295,-251.313 859.818,-246.668 849.477,-244.361 850.295,-251.313"/>
</g>
</g>
</svg>
