<?xml version="1.0" encoding="UTF-8" standalone="no"?>
<!DOCTYPE svg PUBLIC "-//W3C//DTD SVG 1.1//EN"
 "http://www.w3.org/Graphics/SVG/1.1/DTD/svg11.dtd">
<!-- Generated by graphviz version 2.38.0 (20140413.2041)
 -->
<!-- Title: SeeSawN::ApplicationN::InterfaceMulticameraSynchronisationC::MakeParameterTree Pages: 1 -->
<!--zoomable 230 -->
<svg id="main" version="1.1" xmlns="http://www.w3.org/2000/svg" xmlns:xlink="http://www.w3.org/1999/xlink" xml:space="preserve" onload="init(evt)">
<style type="text/css"><![CDATA[
.edge:hover path { stroke: red; }
.edge:hover polygon { stroke: red; fill: red; }
]]></style>
<script type="text/javascript"><![CDATA[
var edges = document.getElementsByTagName('g');
if (edges && edges.length) {
  for (var i=0;i<edges.length;i++) {
    if (edges[i].id.substr(0,4)=='edge') {
      edges[i].setAttribute('class','edge');
    }
  }
}
]]></script>
        <defs>
                <circle id="rim" cx="0" cy="0" r="7"/>
                <circle id="rim2" cx="0" cy="0" r="3.5"/>
                <g id="zoomPlus">
                        <use xlink:href="#rim" fill="#404040">
                                <set attributeName="fill" to="#808080" begin="zoomplus.mouseover" end="zoomplus.mouseout"/>
                        </use>
                        <path d="M-4,0h8M0,-4v8" fill="none" stroke="white" stroke-width="1.5" pointer-events="none"/>
                </g>
                <g id="zoomMin">
                        <use xlink:href="#rim" fill="#404040">
                                <set attributeName="fill" to="#808080" begin="zoomminus.mouseover" end="zoomminus.mouseout"/>
                        </use>
                        <path d="M-4,0h8" fill="none" stroke="white" stroke-width="1.5" pointer-events="none"/>
                </g>
                <g id="dirArrow">
                        <path fill="none" stroke="white" stroke-width="1.5" d="M0,-3.0v7 M-2.5,-0.5L0,-3.0L2.5,-0.5"/>
                </g>
               <g id="resetDef">
                       <use xlink:href="#rim2" fill="#404040">
                               <set attributeName="fill" to="#808080" begin="reset.mouseover" end="reset.mouseout"/>
                       </use>
               </g>
        </defs>

<script type="text/javascript">
var viewWidth = 608;
var viewHeight = 230;
var sectionId = 'dynsection-3';
</script>
<script xlink:href="svgpan.js"/>
<svg id="graph" class="graph">
<g id="viewport">
<title>SeeSawN::ApplicationN::InterfaceMulticameraSynchronisationC::MakeParameterTree</title>
<polygon fill="white" stroke="none" points="-4,4 -4,-226 604,-226 604,4 -4,4"/>
<!-- Node10 -->
<g id="node1" class="node"><title>Node10</title>
<polygon fill="#bfbfbf" stroke="black" points="0,-60.5 0,-101.5 182,-101.5 182,-60.5 0,-60.5"/>
<text text-anchor="start" x="8" y="-89.5" font-family="FreeSans" font-size="10.00">SeeSawN::ApplicationN</text>
<text text-anchor="start" x="8" y="-78.5" font-family="FreeSans" font-size="10.00">::InterfaceMulticameraSynchronisation</text>
<text text-anchor="middle" x="91" y="-67.5" font-family="FreeSans" font-size="10.00">C::MakeParameterTree</text>
</g>
<!-- Node11 -->
<g id="node2" class="node"><title>Node11</title>
<g id="a_node2"><a xlink:href="classSeeSawN_1_1ApplicationN_1_1InterfaceRelativeSynchronisationC.html#a4d1889d9ebb9429b7065b973750d27b8" target="_top" xlink:title="Makes a property tree from a parameter object. ">
<polygon fill="white" stroke="black" points="227,-90.5 227,-131.5 391,-131.5 391,-90.5 227,-90.5"/>
<text text-anchor="start" x="235" y="-119.5" font-family="FreeSans" font-size="10.00">SeeSawN::ApplicationN</text>
<text text-anchor="start" x="235" y="-108.5" font-family="FreeSans" font-size="10.00">::InterfaceRelativeSynchronisation</text>
<text text-anchor="middle" x="309" y="-97.5" font-family="FreeSans" font-size="10.00">C::MakeParameterTree</text>
</a>
</g>
</g>
<!-- Node10&#45;&gt;Node11 -->
<g id="edge1" class="edge"><title>Node10&#45;&gt;Node11</title>
<path fill="none" stroke="midnightblue" d="M182.039,-93.5055C193.499,-95.0971 205.237,-96.7274 216.716,-98.3217"/>
<polygon fill="midnightblue" stroke="midnightblue" points="216.338,-101.803 226.724,-99.7117 217.301,-94.8692 216.338,-101.803"/>
</g>
<!-- Node16 -->
<g id="node7" class="node"><title>Node16</title>
<g id="a_node7"><a xlink:href="classSeeSawN_1_1ApplicationN_1_1InterfaceMulticameraSynchronisationC.html#a48e6e922c9cdc799e2aafa1f5c44f8d8" target="_top" xlink:title="Removes the redundant relative synchronisation parameters. ">
<polygon fill="white" stroke="black" points="218,-30.5 218,-71.5 400,-71.5 400,-30.5 218,-30.5"/>
<text text-anchor="start" x="226" y="-59.5" font-family="FreeSans" font-size="10.00">SeeSawN::ApplicationN</text>
<text text-anchor="start" x="226" y="-48.5" font-family="FreeSans" font-size="10.00">::InterfaceMulticameraSynchronisation</text>
<text text-anchor="middle" x="309" y="-37.5" font-family="FreeSans" font-size="10.00">C::PruneRelativeSynchronisation</text>
</a>
</g>
</g>
<!-- Node10&#45;&gt;Node16 -->
<g id="edge6" class="edge"><title>Node10&#45;&gt;Node16</title>
<path fill="none" stroke="midnightblue" d="M182.039,-68.4945C190.526,-67.3159 199.165,-66.116 207.738,-64.9253"/>
<polygon fill="midnightblue" stroke="midnightblue" points="208.336,-68.3759 217.759,-63.5334 207.373,-61.4425 208.336,-68.3759"/>
</g>
<!-- Node12 -->
<g id="node3" class="node"><title>Node12</title>
<g id="a_node3"><a xlink:href="classSeeSawN_1_1ApplicationN_1_1InterfaceRelativeSynchronisationC.html#acb8c9fadc442cbbb1c037002088ee92b" target="_top" xlink:title="Removes the redundant feature matcher parameters. ">
<polygon fill="white" stroke="black" points="436,-180.5 436,-221.5 600,-221.5 600,-180.5 436,-180.5"/>
<text text-anchor="start" x="444" y="-209.5" font-family="FreeSans" font-size="10.00">SeeSawN::ApplicationN</text>
<text text-anchor="start" x="444" y="-198.5" font-family="FreeSans" font-size="10.00">::InterfaceRelativeSynchronisation</text>
<text text-anchor="middle" x="518" y="-187.5" font-family="FreeSans" font-size="10.00">C::PruneFeatureMatcher</text>
</a>
</g>
</g>
<!-- Node11&#45;&gt;Node12 -->
<g id="edge2" class="edge"><title>Node11&#45;&gt;Node12</title>
<path fill="none" stroke="midnightblue" d="M350.719,-131.532C375.192,-143.584 407.095,-158.794 436,-171 440.63,-172.955 445.436,-174.913 450.293,-176.838"/>
<polygon fill="midnightblue" stroke="midnightblue" points="449.074,-180.119 459.662,-180.493 451.618,-173.598 449.074,-180.119"/>
</g>
<!-- Node13 -->
<g id="node4" class="node"><title>Node13</title>
<g id="a_node4"><a xlink:href="classSeeSawN_1_1ApplicationN_1_1InterfaceFeatureMatcherC.html#a8f472195d3cff175bf0fc44d10e23687" target="_top" xlink:title="Makes a property tree from a parameter object. ">
<polygon fill="white" stroke="black" points="451,-120.5 451,-161.5 585,-161.5 585,-120.5 451,-120.5"/>
<text text-anchor="start" x="459" y="-149.5" font-family="FreeSans" font-size="10.00">SeeSawN::ApplicationN</text>
<text text-anchor="start" x="459" y="-138.5" font-family="FreeSans" font-size="10.00">::InterfaceFeatureMatcherC</text>
<text text-anchor="middle" x="518" y="-127.5" font-family="FreeSans" font-size="10.00">::MakeParameterTree</text>
</a>
</g>
</g>
<!-- Node11&#45;&gt;Node13 -->
<g id="edge3" class="edge"><title>Node11&#45;&gt;Node13</title>
<path fill="none" stroke="midnightblue" d="M391.218,-122.771C407.539,-125.136 424.636,-127.614 440.779,-129.954"/>
<polygon fill="midnightblue" stroke="midnightblue" points="440.293,-133.42 450.692,-131.39 441.298,-126.492 440.293,-133.42"/>
</g>
<!-- Node14 -->
<g id="node5" class="node"><title>Node14</title>
<g id="a_node5"><a xlink:href="classSeeSawN_1_1ApplicationN_1_1InterfaceRelativeSynchronisationC.html#aad2ad5995ad2026bf4799712e5aff7e7" target="_top" xlink:title="Removes the redundant PDL parameters. ">
<polygon fill="white" stroke="black" points="436,-60.5 436,-101.5 600,-101.5 600,-60.5 436,-60.5"/>
<text text-anchor="start" x="444" y="-89.5" font-family="FreeSans" font-size="10.00">SeeSawN::ApplicationN</text>
<text text-anchor="start" x="444" y="-78.5" font-family="FreeSans" font-size="10.00">::InterfaceRelativeSynchronisation</text>
<text text-anchor="middle" x="518" y="-67.5" font-family="FreeSans" font-size="10.00">C::PrunePDL</text>
</a>
</g>
</g>
<!-- Node11&#45;&gt;Node14 -->
<g id="edge4" class="edge"><title>Node11&#45;&gt;Node14</title>
<path fill="none" stroke="midnightblue" d="M391.218,-99.2293C402.519,-97.5915 414.192,-95.8998 425.663,-94.2373"/>
<polygon fill="midnightblue" stroke="midnightblue" points="426.282,-97.6842 435.677,-92.786 425.278,-90.7565 426.282,-97.6842"/>
</g>
<!-- Node15 -->
<g id="node6" class="node"><title>Node15</title>
<g id="a_node6"><a xlink:href="classSeeSawN_1_1ApplicationN_1_1InterfacePowellDogLegC.html#a63d658fac13be5c76a2c90a8e9c451e5" target="_top" xlink:title="Makes a property tree from a parameter object. ">
<polygon fill="white" stroke="black" points="453.5,-0.5 453.5,-41.5 582.5,-41.5 582.5,-0.5 453.5,-0.5"/>
<text text-anchor="start" x="461.5" y="-29.5" font-family="FreeSans" font-size="10.00">SeeSawN::ApplicationN</text>
<text text-anchor="start" x="461.5" y="-18.5" font-family="FreeSans" font-size="10.00">::InterfacePowellDogLegC</text>
<text text-anchor="middle" x="518" y="-7.5" font-family="FreeSans" font-size="10.00">::MakeParameterTree</text>
</a>
</g>
</g>
<!-- Node11&#45;&gt;Node15 -->
<g id="edge5" class="edge"><title>Node11&#45;&gt;Node15</title>
<path fill="none" stroke="midnightblue" d="M380.386,-90.4127C387.165,-87.5816 393.813,-84.4465 400,-81 418.195,-70.8645 417.975,-61.4339 436,-51 439.011,-49.2568 442.142,-47.5832 445.346,-45.9809"/>
<polygon fill="midnightblue" stroke="midnightblue" points="446.976,-49.0824 454.531,-41.6551 443.993,-42.7496 446.976,-49.0824"/>
</g>
</g>
</svg>
        <g id="navigator" transform="translate(0 0)" fill="#404254">
                <rect fill="#f2f5e9" fill-opacity="0.5" stroke="#606060" stroke-width=".5" x="0" y="0" width="60" height="60"/>
                <use id="zoomplus" xlink:href="#zoomPlus" x="17" y="9" onmousedown="handleZoom(evt,'in')"/>
                <use id="zoomminus" xlink:href="#zoomMin" x="42" y="9" onmousedown="handleZoom(evt,'out')"/>
                <use id="reset" xlink:href="#resetDef" x="30" y="36" onmousedown="handleReset()"/>
                <g id="arrowUp" xlink:href="#dirArrow" transform="translate(30 24)" onmousedown="handlePan(0,-1)">
                  <use xlink:href="#rim" fill="#404040">
                        <set attributeName="fill" to="#808080" begin="arrowUp.mouseover" end="arrowUp.mouseout"/>
                  </use>
                  <path fill="none" stroke="white" stroke-width="1.5" d="M0,-3.0v7 M-2.5,-0.5L0,-3.0L2.5,-0.5"/>
                </g>
                <g id="arrowRight" xlink:href="#dirArrow" transform="rotate(90) translate(36 -43)" onmousedown="handlePan(1,0)">
                  <use xlink:href="#rim" fill="#404040">
                        <set attributeName="fill" to="#808080" begin="arrowRight.mouseover" end="arrowRight.mouseout"/>
                  </use>
                  <path fill="none" stroke="white" stroke-width="1.5" d="M0,-3.0v7 M-2.5,-0.5L0,-3.0L2.5,-0.5"/>
                </g>
                <g id="arrowDown" xlink:href="#dirArrow" transform="rotate(180) translate(-30 -48)" onmousedown="handlePan(0,1)">
                  <use xlink:href="#rim" fill="#404040">
                        <set attributeName="fill" to="#808080" begin="arrowDown.mouseover" end="arrowDown.mouseout"/>
                  </use>
                  <path fill="none" stroke="white" stroke-width="1.5" d="M0,-3.0v7 M-2.5,-0.5L0,-3.0L2.5,-0.5"/>
                </g>
                <g id="arrowLeft" xlink:href="#dirArrow" transform="rotate(270) translate(-36 17)" onmousedown="handlePan(-1,0)">
                  <use xlink:href="#rim" fill="#404040">
                        <set attributeName="fill" to="#808080" begin="arrowLeft.mouseover" end="arrowLeft.mouseout"/>
                  </use>
                  <path fill="none" stroke="white" stroke-width="1.5" d="M0,-3.0v7 M-2.5,-0.5L0,-3.0L2.5,-0.5"/>
                </g>
        </g>
        <svg viewBox="0 0 15 15" width="100%" height="30px" preserveAspectRatio="xMaxYMin meet">
         <g id="arrow_out" transform="scale(0.3 0.3)">
          <a xlink:href="classSeeSawN_1_1ApplicationN_1_1InterfaceMulticameraSynchronisationC_aa8cb827f8b3b19b8ee0bab7167644674_cgraph_org.svg" target="_base">
           <rect id="button" ry="5" rx="5" y="6" x="6" height="38" width="38"
                fill="#f2f5e9" fill-opacity="0.5" stroke="#606060" stroke-width="1.0"/>
           <path id="arrow"
             d="M 11.500037,31.436501 C 11.940474,20.09759 22.043105,11.32322 32.158766,21.979434 L 37.068811,17.246167 C 37.068811,17.246167 37.088388,32 37.088388,32 L 22.160133,31.978069 C 22.160133,31.978069 26.997745,27.140456 26.997745,27.140456 C 18.528582,18.264221 13.291696,25.230495 11.500037,31.436501 z"
             style="fill:#404040;"/>
          </a>
         </g>
        </svg>
</svg>
