<?xml version="1.0" encoding="UTF-8" standalone="no"?>
<!DOCTYPE svg PUBLIC "-//W3C//DTD SVG 1.1//EN"
 "http://www.w3.org/Graphics/SVG/1.1/DTD/svg11.dtd">
<!-- Generated by graphviz version 2.38.0 (20140413.2041)
 -->
<!-- Title: SeeSawN::GeometryN::DLTC::Cost Pages: 1 -->
<!--zoomable 460 -->
<svg id="main" version="1.1" xmlns="http://www.w3.org/2000/svg" xmlns:xlink="http://www.w3.org/1999/xlink" xml:space="preserve" onload="init(evt)">
<style type="text/css"><![CDATA[
.edge:hover path { stroke: red; }
.edge:hover polygon { stroke: red; fill: red; }
]]></style>
<script type="text/javascript"><![CDATA[
var edges = document.getElementsByTagName('g');
if (edges && edges.length) {
  for (var i=0;i<edges.length;i++) {
    if (edges[i].id.substr(0,4)=='edge') {
      edges[i].setAttribute('class','edge');
    }
  }
}
]]></script>
        <defs>
                <circle id="rim" cx="0" cy="0" r="7"/>
                <circle id="rim2" cx="0" cy="0" r="3.5"/>
                <g id="zoomPlus">
                        <use xlink:href="#rim" fill="#404040">
                                <set attributeName="fill" to="#808080" begin="zoomplus.mouseover" end="zoomplus.mouseout"/>
                        </use>
                        <path d="M-4,0h8M0,-4v8" fill="none" stroke="white" stroke-width="1.5" pointer-events="none"/>
                </g>
                <g id="zoomMin">
                        <use xlink:href="#rim" fill="#404040">
                                <set attributeName="fill" to="#808080" begin="zoomminus.mouseover" end="zoomminus.mouseout"/>
                        </use>
                        <path d="M-4,0h8" fill="none" stroke="white" stroke-width="1.5" pointer-events="none"/>
                </g>
                <g id="dirArrow">
                        <path fill="none" stroke="white" stroke-width="1.5" d="M0,-3.0v7 M-2.5,-0.5L0,-3.0L2.5,-0.5"/>
                </g>
               <g id="resetDef">
                       <use xlink:href="#rim2" fill="#404040">
                               <set attributeName="fill" to="#808080" begin="reset.mouseover" end="reset.mouseout"/>
                       </use>
               </g>
        </defs>

<script type="text/javascript">
var viewWidth = 596;
var viewHeight = 460;
var sectionId = 'dynsection-1';
</script>
<script xlink:href="svgpan.js"/>
<svg id="graph" class="graph">
<g id="viewport">
<title>SeeSawN::GeometryN::DLTC::Cost</title>
<polygon fill="white" stroke="none" points="-4,4 -4,-456 592,-456 592,4 -4,4"/>
<!-- Node0 -->
<g id="node1" class="node"><title>Node0</title>
<polygon fill="#bfbfbf" stroke="black" points="0,-236 0,-266 115,-266 115,-236 0,-236"/>
<text text-anchor="start" x="8" y="-254" font-family="FreeSans" font-size="10.00">SeeSawN::GeometryN</text>
<text text-anchor="middle" x="57.5" y="-243" font-family="FreeSans" font-size="10.00">::DLTC::Cost</text>
</g>
<!-- Node1 -->
<g id="node2" class="node"><title>Node1</title>
<g id="a_node2"><a xlink:href="classSeeSawN_1_1NumericN_1_1ComplexityEstimatorC.html#ac6f4f6293883508914bfb9174bc381a3" target="_top" xlink:title="Estimates the cost for Frobenius norm. ">
<polygon fill="white" stroke="black" points="162.5,-410.5 162.5,-451.5 276.5,-451.5 276.5,-410.5 162.5,-410.5"/>
<text text-anchor="start" x="170.5" y="-439.5" font-family="FreeSans" font-size="10.00">SeeSawN::NumericN::</text>
<text text-anchor="start" x="170.5" y="-428.5" font-family="FreeSans" font-size="10.00">ComplexityEstimatorC</text>
<text text-anchor="middle" x="219.5" y="-417.5" font-family="FreeSans" font-size="10.00">::FrobeniusNorm</text>
</a>
</g>
</g>
<!-- Node0&#45;&gt;Node1 -->
<g id="edge1" class="edge"><title>Node0&#45;&gt;Node1</title>
<path fill="none" stroke="midnightblue" d="M64.2844,-266.26C76.2311,-295.939 106.307,-361.942 151,-401 152.485,-402.297 154.034,-403.547 155.636,-404.751"/>
<polygon fill="midnightblue" stroke="midnightblue" points="153.765,-407.71 164.017,-410.383 157.67,-401.9 153.765,-407.71"/>
</g>
<!-- Node2 -->
<g id="node3" class="node"><title>Node2</title>
<g id="a_node3"><a xlink:href="classSeeSawN_1_1NumericN_1_1ComplexityEstimatorC.html#a778bec66202cd676ee748380fb3ad491" target="_top" xlink:title="Estimates the cost for . ">
<polygon fill="white" stroke="black" points="162.5,-350.5 162.5,-391.5 276.5,-391.5 276.5,-350.5 162.5,-350.5"/>
<text text-anchor="start" x="170.5" y="-379.5" font-family="FreeSans" font-size="10.00">SeeSawN::NumericN::</text>
<text text-anchor="start" x="170.5" y="-368.5" font-family="FreeSans" font-size="10.00">ComplexityEstimatorC</text>
<text text-anchor="middle" x="219.5" y="-357.5" font-family="FreeSans" font-size="10.00">::Inverse</text>
</a>
</g>
</g>
<!-- Node0&#45;&gt;Node2 -->
<g id="edge2" class="edge"><title>Node0&#45;&gt;Node2</title>
<path fill="none" stroke="midnightblue" d="M70.9536,-266.061C87.5831,-285.424 118.712,-319.149 151,-341 153.184,-342.478 155.452,-343.912 157.778,-345.3"/>
<polygon fill="midnightblue" stroke="midnightblue" points="156.531,-348.612 166.971,-350.417 159.936,-342.495 156.531,-348.612"/>
</g>
<!-- Node3 -->
<g id="node4" class="node"><title>Node3</title>
<g id="a_node4"><a xlink:href="classSeeSawN_1_1NumericN_1_1ComplexityEstimatorC.html#a5e307c4f12137a78b9166e44f65efe1a" target="_top" xlink:title="Estimates the cost for . ">
<polygon fill="white" stroke="black" points="162.5,-290.5 162.5,-331.5 276.5,-331.5 276.5,-290.5 162.5,-290.5"/>
<text text-anchor="start" x="170.5" y="-319.5" font-family="FreeSans" font-size="10.00">SeeSawN::NumericN::</text>
<text text-anchor="start" x="170.5" y="-308.5" font-family="FreeSans" font-size="10.00">ComplexityEstimatorC</text>
<text text-anchor="middle" x="219.5" y="-297.5" font-family="FreeSans" font-size="10.00">::MatrixMultiplication</text>
</a>
</g>
</g>
<!-- Node0&#45;&gt;Node3 -->
<g id="edge3" class="edge"><title>Node0&#45;&gt;Node3</title>
<path fill="none" stroke="midnightblue" d="M98.8748,-266.141C115.588,-272.408 135.387,-279.833 154.019,-286.82"/>
<polygon fill="midnightblue" stroke="midnightblue" points="153.041,-290.191 163.633,-290.425 155.499,-283.636 153.041,-290.191"/>
</g>
<!-- Node4 -->
<g id="node5" class="node"><title>Node4</title>
<g id="a_node5"><a xlink:href="classSeeSawN_1_1NumericN_1_1ComplexityEstimatorC.html#addf219b3a11cf8af28bbba91c156f31c" target="_top" xlink:title="Estimates the cost for . ">
<polygon fill="white" stroke="black" points="162.5,-230.5 162.5,-271.5 276.5,-271.5 276.5,-230.5 162.5,-230.5"/>
<text text-anchor="start" x="170.5" y="-259.5" font-family="FreeSans" font-size="10.00">SeeSawN::NumericN::</text>
<text text-anchor="start" x="170.5" y="-248.5" font-family="FreeSans" font-size="10.00">ComplexityEstimatorC</text>
<text text-anchor="middle" x="219.5" y="-237.5" font-family="FreeSans" font-size="10.00">::MatrixScale</text>
</a>
</g>
</g>
<!-- Node0&#45;&gt;Node4 -->
<g id="edge4" class="edge"><title>Node0&#45;&gt;Node4</title>
<path fill="none" stroke="midnightblue" d="M115.361,-251C127.29,-251 139.97,-251 152.21,-251"/>
<polygon fill="midnightblue" stroke="midnightblue" points="152.361,-254.5 162.361,-251 152.361,-247.5 152.361,-254.5"/>
</g>
<!-- Node5 -->
<g id="node6" class="node"><title>Node5</title>
<g id="a_node6"><a xlink:href="classSeeSawN_1_1NumericN_1_1ComplexityEstimatorC.html#a7001ea5d3cc57f35e8f76b9c5e86390b" target="_top" xlink:title="Estimates the cost for . ">
<polygon fill="white" stroke="black" points="153,-170.5 153,-211.5 286,-211.5 286,-170.5 153,-170.5"/>
<text text-anchor="start" x="161" y="-199.5" font-family="FreeSans" font-size="10.00">SeeSawN::NumericN::</text>
<text text-anchor="start" x="161" y="-188.5" font-family="FreeSans" font-size="10.00">ComplexityEstimatorC</text>
<text text-anchor="middle" x="219.5" y="-177.5" font-family="FreeSans" font-size="10.00">::MatrixVectorMultiplication</text>
</a>
</g>
</g>
<!-- Node0&#45;&gt;Node5 -->
<g id="edge5" class="edge"><title>Node0&#45;&gt;Node5</title>
<path fill="none" stroke="midnightblue" d="M98.8748,-235.859C115.588,-229.592 135.387,-222.167 154.019,-215.18"/>
<polygon fill="midnightblue" stroke="midnightblue" points="155.499,-218.364 163.633,-211.575 153.041,-211.809 155.499,-218.364"/>
</g>
<!-- Node6 -->
<g id="node7" class="node"><title>Node6</title>
<g id="a_node7"><a xlink:href="classSeeSawN_1_1NumericN_1_1ComplexityEstimatorC.html#aa19e8e2850e0a889fd0c8174c2be71e0" target="_top" xlink:title="Estimates the cost for SVD. ">
<polygon fill="white" stroke="black" points="151,-121 151,-151 288,-151 288,-121 151,-121"/>
<text text-anchor="start" x="159" y="-139" font-family="FreeSans" font-size="10.00">SeeSawN::NumericN::</text>
<text text-anchor="middle" x="219.5" y="-128" font-family="FreeSans" font-size="10.00">ComplexityEstimatorC::SVD</text>
</a>
</g>
</g>
<!-- Node0&#45;&gt;Node6 -->
<g id="edge6" class="edge"><title>Node0&#45;&gt;Node6</title>
<path fill="none" stroke="midnightblue" d="M70.4636,-235.959C86.7941,-216.305 117.845,-181.934 151,-161 154.144,-159.015 157.468,-157.154 160.889,-155.414"/>
<polygon fill="midnightblue" stroke="midnightblue" points="162.541,-158.505 170.112,-151.093 159.571,-152.167 162.541,-158.505"/>
</g>
<!-- Node7 -->
<g id="node8" class="node"><title>Node7</title>
<g id="a_node8"><a xlink:href="classSeeSawN_1_1NumericN_1_1ComplexityEstimatorC.html#abe881cecaa354327287f927d2e416360" target="_top" xlink:title="Estimates the costs for the variance of a set of vectors. ">
<polygon fill="white" stroke="black" points="159,-60.5 159,-101.5 280,-101.5 280,-60.5 159,-60.5"/>
<text text-anchor="start" x="167" y="-89.5" font-family="FreeSans" font-size="10.00">SeeSawN::NumericN::</text>
<text text-anchor="start" x="167" y="-78.5" font-family="FreeSans" font-size="10.00">ComplexityEstimatorC</text>
<text text-anchor="middle" x="219.5" y="-67.5" font-family="FreeSans" font-size="10.00">::VectorSampleVariance</text>
</a>
</g>
</g>
<!-- Node0&#45;&gt;Node7 -->
<g id="edge7" class="edge"><title>Node0&#45;&gt;Node7</title>
<path fill="none" stroke="midnightblue" d="M65.2209,-235.623C78.1344,-207.639 108.908,-147.966 151,-112 152.973,-110.314 155.053,-108.702 157.211,-107.162"/>
<polygon fill="midnightblue" stroke="midnightblue" points="159.357,-109.942 165.859,-101.578 155.56,-104.062 159.357,-109.942"/>
</g>
<!-- Node8 -->
<g id="node9" class="node"><title>Node8</title>
<g id="a_node9"><a xlink:href="classSeeSawN_1_1NumericN_1_1ComplexityEstimatorC.html#aef84e97a1c644a791d80e862a4866bd3" target="_top" xlink:title="Estimates the cost for . ">
<polygon fill="white" stroke="black" points="324,-120.5 324,-161.5 438,-161.5 438,-120.5 324,-120.5"/>
<text text-anchor="start" x="332" y="-149.5" font-family="FreeSans" font-size="10.00">SeeSawN::NumericN::</text>
<text text-anchor="start" x="332" y="-138.5" font-family="FreeSans" font-size="10.00">ComplexityEstimatorC</text>
<text text-anchor="middle" x="381" y="-127.5" font-family="FreeSans" font-size="10.00">::L2Norm</text>
</a>
</g>
</g>
<!-- Node7&#45;&gt;Node8 -->
<g id="edge8" class="edge"><title>Node7&#45;&gt;Node8</title>
<path fill="none" stroke="midnightblue" d="M275.391,-101.649C288.371,-106.531 302.326,-111.781 315.682,-116.805"/>
<polygon fill="midnightblue" stroke="midnightblue" points="314.686,-120.17 325.278,-120.415 317.151,-113.618 314.686,-120.17"/>
</g>
<!-- Node9 -->
<g id="node10" class="node"><title>Node9</title>
<g id="a_node10"><a xlink:href="classSeeSawN_1_1NumericN_1_1ComplexityEstimatorC.html#abb97af533d77462ee33df833965ffd5a" target="_top" xlink:title="Estimates the cost for the mean of a set of vectors. ">
<polygon fill="white" stroke="black" points="324,-60.5 324,-101.5 438,-101.5 438,-60.5 324,-60.5"/>
<text text-anchor="start" x="332" y="-89.5" font-family="FreeSans" font-size="10.00">SeeSawN::NumericN::</text>
<text text-anchor="start" x="332" y="-78.5" font-family="FreeSans" font-size="10.00">ComplexityEstimatorC</text>
<text text-anchor="middle" x="381" y="-67.5" font-family="FreeSans" font-size="10.00">::VectorSampleMean</text>
</a>
</g>
</g>
<!-- Node7&#45;&gt;Node9 -->
<g id="edge9" class="edge"><title>Node7&#45;&gt;Node9</title>
<path fill="none" stroke="midnightblue" d="M280.346,-81C291.242,-81 302.668,-81 313.736,-81"/>
<polygon fill="midnightblue" stroke="midnightblue" points="313.776,-84.5001 323.776,-81 313.776,-77.5001 313.776,-84.5001"/>
</g>
<!-- Node12 -->
<g id="node13" class="node"><title>Node12</title>
<g id="a_node13"><a xlink:href="classSeeSawN_1_1NumericN_1_1ComplexityEstimatorC.html#ae6019608c5b316ec70493dbc405a3247" target="_top" xlink:title="Estimates the cost for . ">
<polygon fill="white" stroke="black" points="324,-0.5 324,-41.5 438,-41.5 438,-0.5 324,-0.5"/>
<text text-anchor="start" x="332" y="-29.5" font-family="FreeSans" font-size="10.00">SeeSawN::NumericN::</text>
<text text-anchor="start" x="332" y="-18.5" font-family="FreeSans" font-size="10.00">ComplexityEstimatorC</text>
<text text-anchor="middle" x="381" y="-7.5" font-family="FreeSans" font-size="10.00">::VectorAdd</text>
</a>
</g>
</g>
<!-- Node7&#45;&gt;Node12 -->
<g id="edge12" class="edge"><title>Node7&#45;&gt;Node12</title>
<path fill="none" stroke="midnightblue" d="M275.391,-60.3514C288.371,-55.4687 302.326,-50.2189 315.682,-45.1949"/>
<polygon fill="midnightblue" stroke="midnightblue" points="317.151,-48.3818 325.278,-41.585 314.686,-41.83 317.151,-48.3818"/>
</g>
<!-- Node10 -->
<g id="node11" class="node"><title>Node10</title>
<g id="a_node11"><a xlink:href="classSeeSawN_1_1NumericN_1_1ComplexityEstimatorC.html#a53b9d3a5c77793e3865aeecbc1bd6b57" target="_top" xlink:title="Estimates the cost for . ">
<polygon fill="white" stroke="black" points="474,-90.5 474,-131.5 588,-131.5 588,-90.5 474,-90.5"/>
<text text-anchor="start" x="482" y="-119.5" font-family="FreeSans" font-size="10.00">SeeSawN::NumericN::</text>
<text text-anchor="start" x="482" y="-108.5" font-family="FreeSans" font-size="10.00">ComplexityEstimatorC</text>
<text text-anchor="middle" x="531" y="-97.5" font-family="FreeSans" font-size="10.00">::VectorAddAssign</text>
</a>
</g>
</g>
<!-- Node9&#45;&gt;Node10 -->
<g id="edge10" class="edge"><title>Node9&#45;&gt;Node10</title>
<path fill="none" stroke="midnightblue" d="M438.375,-92.4273C446.712,-94.1173 455.366,-95.8716 463.88,-97.5973"/>
<polygon fill="midnightblue" stroke="midnightblue" points="463.286,-101.048 473.782,-99.6045 464.677,-94.1875 463.286,-101.048"/>
</g>
<!-- Node11 -->
<g id="node12" class="node"><title>Node11</title>
<g id="a_node12"><a xlink:href="classSeeSawN_1_1NumericN_1_1ComplexityEstimatorC.html#a5837606cc6c79309f89a9e41034914ed" target="_top" xlink:title="Estimates the cost for . ">
<polygon fill="white" stroke="black" points="474,-30.5 474,-71.5 588,-71.5 588,-30.5 474,-30.5"/>
<text text-anchor="start" x="482" y="-59.5" font-family="FreeSans" font-size="10.00">SeeSawN::NumericN::</text>
<text text-anchor="start" x="482" y="-48.5" font-family="FreeSans" font-size="10.00">ComplexityEstimatorC</text>
<text text-anchor="middle" x="531" y="-37.5" font-family="FreeSans" font-size="10.00">::VectorScale</text>
</a>
</g>
</g>
<!-- Node9&#45;&gt;Node11 -->
<g id="edge11" class="edge"><title>Node9&#45;&gt;Node11</title>
<path fill="none" stroke="midnightblue" d="M438.375,-69.5727C446.712,-67.8827 455.366,-66.1284 463.88,-64.4027"/>
<polygon fill="midnightblue" stroke="midnightblue" points="464.677,-67.8125 473.782,-62.3955 463.286,-60.952 464.677,-67.8125"/>
</g>
</g>
</svg>
        <g id="navigator" transform="translate(0 0)" fill="#404254">
                <rect fill="#f2f5e9" fill-opacity="0.5" stroke="#606060" stroke-width=".5" x="0" y="0" width="60" height="60"/>
                <use id="zoomplus" xlink:href="#zoomPlus" x="17" y="9" onmousedown="handleZoom(evt,'in')"/>
                <use id="zoomminus" xlink:href="#zoomMin" x="42" y="9" onmousedown="handleZoom(evt,'out')"/>
                <use id="reset" xlink:href="#resetDef" x="30" y="36" onmousedown="handleReset()"/>
                <g id="arrowUp" xlink:href="#dirArrow" transform="translate(30 24)" onmousedown="handlePan(0,-1)">
                  <use xlink:href="#rim" fill="#404040">
                        <set attributeName="fill" to="#808080" begin="arrowUp.mouseover" end="arrowUp.mouseout"/>
                  </use>
                  <path fill="none" stroke="white" stroke-width="1.5" d="M0,-3.0v7 M-2.5,-0.5L0,-3.0L2.5,-0.5"/>
                </g>
                <g id="arrowRight" xlink:href="#dirArrow" transform="rotate(90) translate(36 -43)" onmousedown="handlePan(1,0)">
                  <use xlink:href="#rim" fill="#404040">
                        <set attributeName="fill" to="#808080" begin="arrowRight.mouseover" end="arrowRight.mouseout"/>
                  </use>
                  <path fill="none" stroke="white" stroke-width="1.5" d="M0,-3.0v7 M-2.5,-0.5L0,-3.0L2.5,-0.5"/>
                </g>
                <g id="arrowDown" xlink:href="#dirArrow" transform="rotate(180) translate(-30 -48)" onmousedown="handlePan(0,1)">
                  <use xlink:href="#rim" fill="#404040">
                        <set attributeName="fill" to="#808080" begin="arrowDown.mouseover" end="arrowDown.mouseout"/>
                  </use>
                  <path fill="none" stroke="white" stroke-width="1.5" d="M0,-3.0v7 M-2.5,-0.5L0,-3.0L2.5,-0.5"/>
                </g>
                <g id="arrowLeft" xlink:href="#dirArrow" transform="rotate(270) translate(-36 17)" onmousedown="handlePan(-1,0)">
                  <use xlink:href="#rim" fill="#404040">
                        <set attributeName="fill" to="#808080" begin="arrowLeft.mouseover" end="arrowLeft.mouseout"/>
                  </use>
                  <path fill="none" stroke="white" stroke-width="1.5" d="M0,-3.0v7 M-2.5,-0.5L0,-3.0L2.5,-0.5"/>
                </g>
        </g>
        <svg viewBox="0 0 15 15" width="100%" height="30px" preserveAspectRatio="xMaxYMin meet">
         <g id="arrow_out" transform="scale(0.3 0.3)">
          <a xlink:href="classSeeSawN_1_1GeometryN_1_1DLTC_a88d76f62fc8963b5435783fb92137ada_cgraph_org.svg" target="_base">
           <rect id="button" ry="5" rx="5" y="6" x="6" height="38" width="38"
                fill="#f2f5e9" fill-opacity="0.5" stroke="#606060" stroke-width="1.0"/>
           <path id="arrow"
             d="M 11.500037,31.436501 C 11.940474,20.09759 22.043105,11.32322 32.158766,21.979434 L 37.068811,17.246167 C 37.068811,17.246167 37.088388,32 37.088388,32 L 22.160133,31.978069 C 22.160133,31.978069 26.997745,27.140456 26.997745,27.140456 C 18.528582,18.264221 13.291696,25.230495 11.500037,31.436501 z"
             style="fill:#404040;"/>
          </a>
         </g>
        </svg>
</svg>
