<?xml version="1.0" encoding="UTF-8" standalone="no"?>
<!DOCTYPE svg PUBLIC "-//W3C//DTD SVG 1.1//EN"
 "http://www.w3.org/Graphics/SVG/1.1/DTD/svg11.dtd">
<!-- Generated by graphviz version 2.38.0 (20140413.2041)
 -->
<!-- Title: SeeSawN::MatcherN::BinarySceneImageFeatureMatchingProblemC&lt; SimilarityT, ConstraintT &gt; Pages: 1 -->
<svg width="233pt" height="1179pt"
 viewBox="0.00 0.00 232.50 1179.00" xmlns="http://www.w3.org/2000/svg" xmlns:xlink="http://www.w3.org/1999/xlink">
<g id="graph0" class="graph" transform="scale(1 1) rotate(0) translate(4 1175)">
<title>SeeSawN::MatcherN::BinarySceneImageFeatureMatchingProblemC&lt; SimilarityT, ConstraintT &gt;</title>
<polygon fill="white" stroke="none" points="-4,4 -4,-1175 228.5,-1175 228.5,4 -4,4"/>
<!-- Node0 -->
<g id="node1" class="node"><title>Node0</title>
<polygon fill="#bfbfbf" stroke="black" points="-1.42109e-14,-0.5 -1.42109e-14,-112.5 177,-112.5 177,-0.5 -1.42109e-14,-0.5"/>
<text text-anchor="start" x="8" y="-100.5" font-family="FreeSans" font-size="10.00">SeeSawN::MatcherN::</text>
<text text-anchor="start" x="8" y="-89.5" font-family="FreeSans" font-size="10.00">BinarySceneImageFeatureMatching</text>
<text text-anchor="middle" x="88.5" y="-78.5" font-family="FreeSans" font-size="10.00">ProblemC&lt; SimilarityT, ConstraintT &gt;</text>
<polyline fill="none" stroke="black" points="-1.42109e-14,-71.5 177,-71.5 "/>
<text text-anchor="middle" x="88.5" y="-59.5" font-family="FreeSans" font-size="10.00"> </text>
<polyline fill="none" stroke="black" points="-1.42109e-14,-52.5 177,-52.5 "/>
<text text-anchor="start" x="8" y="-40.5" font-family="FreeSans" font-size="10.00">* BinarySceneImageFeatureMatching</text>
<text text-anchor="start" x="8" y="-29.5" font-family="FreeSans" font-size="10.00">ProblemC()</text>
<text text-anchor="start" x="8" y="-18.5" font-family="FreeSans" font-size="10.00">* BinarySceneImageFeatureMatching</text>
<text text-anchor="start" x="8" y="-7.5" font-family="FreeSans" font-size="10.00">ProblemC()</text>
</g>
<!-- Node1 -->
<g id="node2" class="node"><title>Node1</title>
<g id="a_node2"><a xlink:href="classSeeSawN_1_1MatcherN_1_1FeatureMatchingProblemBaseC.html" target="_top" xlink:title="{SeeSawN::MatcherN::\lFeatureMatchingProblemBase\lC\&lt; OrientedBinarySceneFeatureC,\l BinaryImageFeatureC, SimilarityT,\l ConstraintT \&gt;\n|# flagStatic\l# flagValid\l&#45; similarityMetric\l&#45; constraint\l&#45; set1\l&#45; set2\l|+ FeatureMatchingProblemBaseC()\l+ GetConstraint()\l+ SetConstraint()\l* RealArrayT\l* BoolArrayT\l* similarityCache\l* similarityValidityArray\l* constraintCache\l* ArrayXbT\l* ArrayXrT\l* ApplyCoordinateTransformation()\l* SimilarityCacheInnerLoopST()\l* SimilarityCacheInnerLoopMT()\l* real_type\l* FeatureMatchingProblemBaseC()\l* GetSize1()\l* GetSize2()\l* ComputeSimilarity()\l* IsValid()\l* feature_type1\l* feature_type2\l* similarity_type\l* constraint_type\l* Initialise()\l* AssessAmbiguity()\l* ApplyCoordinateTransformation1()\l* ApplyCoordinateTransformation2()\l* similarityMetric\l* constraint\l* set1\l* set2\l* FeatureMatchingProblemBaseC()\l* GetConstraint()\l* SetConstraint()\l}">
<polygon fill="white" stroke="black" points="3.5,-150.5 3.5,-669.5 173.5,-669.5 173.5,-150.5 3.5,-150.5"/>
<text text-anchor="start" x="11.5" y="-657.5" font-family="FreeSans" font-size="10.00">SeeSawN::MatcherN::</text>
<text text-anchor="start" x="11.5" y="-646.5" font-family="FreeSans" font-size="10.00">FeatureMatchingProblemBase</text>
<text text-anchor="start" x="11.5" y="-635.5" font-family="FreeSans" font-size="10.00">C&lt; OrientedBinarySceneFeatureC,</text>
<text text-anchor="start" x="11.5" y="-624.5" font-family="FreeSans" font-size="10.00"> BinaryImageFeatureC, SimilarityT,</text>
<text text-anchor="middle" x="88.5" y="-613.5" font-family="FreeSans" font-size="10.00"> ConstraintT &gt;</text>
<polyline fill="none" stroke="black" points="3.5,-606.5 173.5,-606.5 "/>
<text text-anchor="start" x="11.5" y="-594.5" font-family="FreeSans" font-size="10.00"># flagStatic</text>
<text text-anchor="start" x="11.5" y="-583.5" font-family="FreeSans" font-size="10.00"># flagValid</text>
<text text-anchor="start" x="11.5" y="-572.5" font-family="FreeSans" font-size="10.00">&#45; similarityMetric</text>
<text text-anchor="start" x="11.5" y="-561.5" font-family="FreeSans" font-size="10.00">&#45; constraint</text>
<text text-anchor="start" x="11.5" y="-550.5" font-family="FreeSans" font-size="10.00">&#45; set1</text>
<text text-anchor="start" x="11.5" y="-539.5" font-family="FreeSans" font-size="10.00">&#45; set2</text>
<polyline fill="none" stroke="black" points="3.5,-532.5 173.5,-532.5 "/>
<text text-anchor="start" x="11.5" y="-520.5" font-family="FreeSans" font-size="10.00">+ FeatureMatchingProblemBaseC()</text>
<text text-anchor="start" x="11.5" y="-509.5" font-family="FreeSans" font-size="10.00">+ GetConstraint()</text>
<text text-anchor="start" x="11.5" y="-498.5" font-family="FreeSans" font-size="10.00">+ SetConstraint()</text>
<text text-anchor="start" x="11.5" y="-487.5" font-family="FreeSans" font-size="10.00">* RealArrayT</text>
<text text-anchor="start" x="11.5" y="-476.5" font-family="FreeSans" font-size="10.00">* BoolArrayT</text>
<text text-anchor="start" x="11.5" y="-465.5" font-family="FreeSans" font-size="10.00">* similarityCache</text>
<text text-anchor="start" x="11.5" y="-454.5" font-family="FreeSans" font-size="10.00">* similarityValidityArray</text>
<text text-anchor="start" x="11.5" y="-443.5" font-family="FreeSans" font-size="10.00">* constraintCache</text>
<text text-anchor="start" x="11.5" y="-432.5" font-family="FreeSans" font-size="10.00">* ArrayXbT</text>
<text text-anchor="start" x="11.5" y="-421.5" font-family="FreeSans" font-size="10.00">* ArrayXrT</text>
<text text-anchor="start" x="11.5" y="-410.5" font-family="FreeSans" font-size="10.00">* ApplyCoordinateTransformation()</text>
<text text-anchor="start" x="11.5" y="-399.5" font-family="FreeSans" font-size="10.00">* SimilarityCacheInnerLoopST()</text>
<text text-anchor="start" x="11.5" y="-388.5" font-family="FreeSans" font-size="10.00">* SimilarityCacheInnerLoopMT()</text>
<text text-anchor="start" x="11.5" y="-377.5" font-family="FreeSans" font-size="10.00">* real_type</text>
<text text-anchor="start" x="11.5" y="-366.5" font-family="FreeSans" font-size="10.00">* FeatureMatchingProblemBaseC()</text>
<text text-anchor="start" x="11.5" y="-355.5" font-family="FreeSans" font-size="10.00">* GetSize1()</text>
<text text-anchor="start" x="11.5" y="-344.5" font-family="FreeSans" font-size="10.00">* GetSize2()</text>
<text text-anchor="start" x="11.5" y="-333.5" font-family="FreeSans" font-size="10.00">* ComputeSimilarity()</text>
<text text-anchor="start" x="11.5" y="-322.5" font-family="FreeSans" font-size="10.00">* IsValid()</text>
<text text-anchor="start" x="11.5" y="-311.5" font-family="FreeSans" font-size="10.00">* feature_type1</text>
<text text-anchor="start" x="11.5" y="-300.5" font-family="FreeSans" font-size="10.00">* feature_type2</text>
<text text-anchor="start" x="11.5" y="-289.5" font-family="FreeSans" font-size="10.00">* similarity_type</text>
<text text-anchor="start" x="11.5" y="-278.5" font-family="FreeSans" font-size="10.00">* constraint_type</text>
<text text-anchor="start" x="11.5" y="-267.5" font-family="FreeSans" font-size="10.00">* Initialise()</text>
<text text-anchor="start" x="11.5" y="-256.5" font-family="FreeSans" font-size="10.00">* AssessAmbiguity()</text>
<text text-anchor="start" x="11.5" y="-245.5" font-family="FreeSans" font-size="10.00">* ApplyCoordinateTransformation1()</text>
<text text-anchor="start" x="11.5" y="-234.5" font-family="FreeSans" font-size="10.00">* ApplyCoordinateTransformation2()</text>
<text text-anchor="start" x="11.5" y="-223.5" font-family="FreeSans" font-size="10.00">* similarityMetric</text>
<text text-anchor="start" x="11.5" y="-212.5" font-family="FreeSans" font-size="10.00">* constraint</text>
<text text-anchor="start" x="11.5" y="-201.5" font-family="FreeSans" font-size="10.00">* set1</text>
<text text-anchor="start" x="11.5" y="-190.5" font-family="FreeSans" font-size="10.00">* set2</text>
<text text-anchor="start" x="11.5" y="-179.5" font-family="FreeSans" font-size="10.00">* FeatureMatchingProblemBaseC()</text>
<text text-anchor="start" x="11.5" y="-168.5" font-family="FreeSans" font-size="10.00">* GetConstraint()</text>
<text text-anchor="start" x="11.5" y="-157.5" font-family="FreeSans" font-size="10.00">* SetConstraint()</text>
</a>
</g>
</g>
<!-- Node1&#45;&gt;Node0 -->
<g id="edge1" class="edge"><title>Node1&#45;&gt;Node0</title>
<path fill="none" stroke="midnightblue" d="M88.5,-140.019C88.5,-130.319 88.5,-121.153 88.5,-112.703"/>
<polygon fill="none" stroke="midnightblue" points="85.0001,-140.312 88.5,-150.312 92.0001,-140.312 85.0001,-140.312"/>
</g>
<!-- Node2 -->
<g id="node3" class="node"><title>Node2</title>
<g id="a_node3"><a xlink:href="classSeeSawN_1_1MatcherN_1_1FeatureMatchingProblemBaseC.html" target="_top" xlink:title="Base class for feature matching problems. ">
<polygon fill="white" stroke="black" points="3.5,-739.5 3.5,-1170.5 173.5,-1170.5 173.5,-739.5 3.5,-739.5"/>
<text text-anchor="start" x="11.5" y="-1158.5" font-family="FreeSans" font-size="10.00">SeeSawN::MatcherN::</text>
<text text-anchor="start" x="11.5" y="-1147.5" font-family="FreeSans" font-size="10.00">FeatureMatchingProblemBase</text>
<text text-anchor="start" x="11.5" y="-1136.5" font-family="FreeSans" font-size="10.00">C&lt; Feature1T, Feature2T,</text>
<text text-anchor="middle" x="88.5" y="-1125.5" font-family="FreeSans" font-size="10.00"> SimilarityT, ConstraintT &gt;</text>
<polyline fill="none" stroke="black" points="3.5,-1118.5 173.5,-1118.5 "/>
<text text-anchor="start" x="11.5" y="-1106.5" font-family="FreeSans" font-size="10.00"># flagStatic</text>
<text text-anchor="start" x="11.5" y="-1095.5" font-family="FreeSans" font-size="10.00"># flagValid</text>
<polyline fill="none" stroke="black" points="3.5,-1088.5 173.5,-1088.5 "/>
<text text-anchor="start" x="11.5" y="-1076.5" font-family="FreeSans" font-size="10.00">* RealArrayT</text>
<text text-anchor="start" x="11.5" y="-1065.5" font-family="FreeSans" font-size="10.00">* BoolArrayT</text>
<text text-anchor="start" x="11.5" y="-1054.5" font-family="FreeSans" font-size="10.00">* similarityCache</text>
<text text-anchor="start" x="11.5" y="-1043.5" font-family="FreeSans" font-size="10.00">* similarityValidityArray</text>
<text text-anchor="start" x="11.5" y="-1032.5" font-family="FreeSans" font-size="10.00">* constraintCache</text>
<text text-anchor="start" x="11.5" y="-1021.5" font-family="FreeSans" font-size="10.00">* ArrayXbT</text>
<text text-anchor="start" x="11.5" y="-1010.5" font-family="FreeSans" font-size="10.00">* ArrayXrT</text>
<text text-anchor="start" x="11.5" y="-999.5" font-family="FreeSans" font-size="10.00">* ApplyCoordinateTransformation()</text>
<text text-anchor="start" x="11.5" y="-988.5" font-family="FreeSans" font-size="10.00">* SimilarityCacheInnerLoopST()</text>
<text text-anchor="start" x="11.5" y="-977.5" font-family="FreeSans" font-size="10.00">* SimilarityCacheInnerLoopMT()</text>
<text text-anchor="start" x="11.5" y="-966.5" font-family="FreeSans" font-size="10.00">* real_type</text>
<text text-anchor="start" x="11.5" y="-955.5" font-family="FreeSans" font-size="10.00">* FeatureMatchingProblemBaseC()</text>
<text text-anchor="start" x="11.5" y="-944.5" font-family="FreeSans" font-size="10.00">* GetSize1()</text>
<text text-anchor="start" x="11.5" y="-933.5" font-family="FreeSans" font-size="10.00">* GetSize2()</text>
<text text-anchor="start" x="11.5" y="-922.5" font-family="FreeSans" font-size="10.00">* ComputeSimilarity()</text>
<text text-anchor="start" x="11.5" y="-911.5" font-family="FreeSans" font-size="10.00">* IsValid()</text>
<text text-anchor="start" x="11.5" y="-900.5" font-family="FreeSans" font-size="10.00">* feature_type1</text>
<text text-anchor="start" x="11.5" y="-889.5" font-family="FreeSans" font-size="10.00">* feature_type2</text>
<text text-anchor="start" x="11.5" y="-878.5" font-family="FreeSans" font-size="10.00">* similarity_type</text>
<text text-anchor="start" x="11.5" y="-867.5" font-family="FreeSans" font-size="10.00">* constraint_type</text>
<text text-anchor="start" x="11.5" y="-856.5" font-family="FreeSans" font-size="10.00">* Initialise()</text>
<text text-anchor="start" x="11.5" y="-845.5" font-family="FreeSans" font-size="10.00">* AssessAmbiguity()</text>
<text text-anchor="start" x="11.5" y="-834.5" font-family="FreeSans" font-size="10.00">* ApplyCoordinateTransformation1()</text>
<text text-anchor="start" x="11.5" y="-823.5" font-family="FreeSans" font-size="10.00">* ApplyCoordinateTransformation2()</text>
<text text-anchor="start" x="11.5" y="-812.5" font-family="FreeSans" font-size="10.00">* similarityMetric</text>
<text text-anchor="start" x="11.5" y="-801.5" font-family="FreeSans" font-size="10.00">* constraint</text>
<text text-anchor="start" x="11.5" y="-790.5" font-family="FreeSans" font-size="10.00">* set1</text>
<text text-anchor="start" x="11.5" y="-779.5" font-family="FreeSans" font-size="10.00">* set2</text>
<text text-anchor="start" x="11.5" y="-768.5" font-family="FreeSans" font-size="10.00">* FeatureMatchingProblemBaseC()</text>
<text text-anchor="start" x="11.5" y="-757.5" font-family="FreeSans" font-size="10.00">* GetConstraint()</text>
<text text-anchor="start" x="11.5" y="-746.5" font-family="FreeSans" font-size="10.00">* SetConstraint()</text>
</a>
</g>
</g>
<!-- Node2&#45;&gt;Node1 -->
<g id="edge2" class="edge"><title>Node2&#45;&gt;Node1</title>
<path fill="none" stroke="orange" d="M88.5,-729.192C88.5,-709.626 88.5,-689.725 88.5,-669.914"/>
<polygon fill="orange" stroke="orange" points="85.0001,-729.392 88.5,-739.392 92.0001,-729.392 85.0001,-729.392"/>
<text text-anchor="start" x="88.5" y="-713" font-family="FreeSans" font-size="10.00"> &lt; OrientedBinarySceneFeature</text>
<text text-anchor="start" x="88.5" y="-702" font-family="FreeSans" font-size="10.00">C, BinaryImageFeatureC,</text>
<text text-anchor="middle" x="156.5" y="-691" font-family="FreeSans" font-size="10.00"> SimilarityT, ConstraintT &gt;</text>
</g>
</g>
</svg>
