<?xml version="1.0" encoding="UTF-8" standalone="no"?>
<!DOCTYPE svg PUBLIC "-//W3C//DTD SVG 1.1//EN"
 "http://www.w3.org/Graphics/SVG/1.1/DTD/svg11.dtd">
<!-- Generated by graphviz version 2.38.0 (20140413.2041)
 -->
<!-- Title: SeeSawN::AppNodalCameraTrackerN::AppNodalCameraTrackerImplementationC::LoadFeatures Pages: 1 -->
<svg width="831pt" height="284pt"
 viewBox="0.00 0.00 831.00 284.00" xmlns="http://www.w3.org/2000/svg" xmlns:xlink="http://www.w3.org/1999/xlink">
<g id="graph0" class="graph" transform="scale(1 1) rotate(0) translate(4 280)">
<title>SeeSawN::AppNodalCameraTrackerN::AppNodalCameraTrackerImplementationC::LoadFeatures</title>
<polygon fill="white" stroke="none" points="-4,4 -4,-280 827,-280 827,4 -4,4"/>
<!-- Node33 -->
<g id="node1" class="node"><title>Node33</title>
<polygon fill="#bfbfbf" stroke="black" points="0,-142 0,-183 205,-183 205,-142 0,-142"/>
<text text-anchor="start" x="8" y="-171" font-family="FreeSans" font-size="10.00">SeeSawN::AppNodalCameraTracker</text>
<text text-anchor="start" x="8" y="-160" font-family="FreeSans" font-size="10.00">N::AppNodalCameraTrackerImplementation</text>
<text text-anchor="middle" x="102.5" y="-149" font-family="FreeSans" font-size="10.00">C::LoadFeatures</text>
</g>
<!-- Node34 -->
<g id="node2" class="node"><title>Node34</title>
<g id="a_node2"><a xlink:href="classSeeSawN_1_1ElementsN_1_1CameraC.html#a7b6e2c5c05ea12ed5d2f034c5ee5f4a1" target="_top" xlink:title="Returns a constant reference to distortion. ">
<polygon fill="white" stroke="black" points="269.5,-196.5 269.5,-226.5 382.5,-226.5 382.5,-196.5 269.5,-196.5"/>
<text text-anchor="start" x="277.5" y="-214.5" font-family="FreeSans" font-size="10.00">SeeSawN::ElementsN</text>
<text text-anchor="middle" x="326" y="-203.5" font-family="FreeSans" font-size="10.00">::CameraC::Distortion</text>
</a>
</g>
</g>
<!-- Node33&#45;&gt;Node34 -->
<g id="edge1" class="edge"><title>Node33&#45;&gt;Node34</title>
<path fill="none" stroke="midnightblue" d="M196.473,-183.067C217.641,-187.75 239.697,-192.629 259.442,-196.997"/>
<polygon fill="midnightblue" stroke="midnightblue" points="258.715,-200.421 269.235,-199.164 260.227,-193.586 258.715,-200.421"/>
</g>
<!-- Node35 -->
<g id="node3" class="node"><title>Node35</title>
<g id="a_node3"><a xlink:href="classSeeSawN_1_1ION_1_1BaseImageFeatureIOC.html#a2067646ba61ee313f15f759c4776bcd7" target="_top" xlink:title="Applies some common operations to the features. ">
<polygon fill="white" stroke="black" points="241,-147.5 241,-177.5 411,-177.5 411,-147.5 241,-147.5"/>
<text text-anchor="start" x="249" y="-165.5" font-family="FreeSans" font-size="10.00">SeeSawN::ION::BaseImageFeature</text>
<text text-anchor="middle" x="326" y="-154.5" font-family="FreeSans" font-size="10.00">IOC::PreprocessFeatureSet</text>
</a>
</g>
</g>
<!-- Node33&#45;&gt;Node35 -->
<g id="edge2" class="edge"><title>Node33&#45;&gt;Node35</title>
<path fill="none" stroke="midnightblue" d="M205.174,-162.5C213.664,-162.5 222.225,-162.5 230.656,-162.5"/>
<polygon fill="midnightblue" stroke="midnightblue" points="230.863,-166 240.863,-162.5 230.863,-159 230.863,-166"/>
</g>
<!-- Node41 -->
<g id="node9" class="node"><title>Node41</title>
<g id="a_node9"><a xlink:href="classSeeSawN_1_1ION_1_1ImageFeatureIOC.html#a2f2fd5f3fea2ffce63b3671b254bbea0" target="_top" xlink:title="Reads a feature file. ">
<polygon fill="white" stroke="black" points="252,-49.5 252,-79.5 400,-79.5 400,-49.5 252,-49.5"/>
<text text-anchor="start" x="260" y="-67.5" font-family="FreeSans" font-size="10.00">SeeSawN::ION::ImageFeature</text>
<text text-anchor="middle" x="326" y="-56.5" font-family="FreeSans" font-size="10.00">IOC::ReadFeatureFile</text>
</a>
</g>
</g>
<!-- Node33&#45;&gt;Node41 -->
<g id="edge8" class="edge"><title>Node33&#45;&gt;Node41</title>
<path fill="none" stroke="midnightblue" d="M149.934,-141.956C188.76,-124.778 243.725,-100.459 281.66,-83.6751"/>
<polygon fill="midnightblue" stroke="midnightblue" points="283.189,-86.8262 290.918,-79.5793 280.357,-80.4247 283.189,-86.8262"/>
</g>
<!-- Node36 -->
<g id="node4" class="node"><title>Node36</title>
<g id="a_node4"><a xlink:href="namespaceSeeSawN_1_1ElementsN.html#a55b8a7d70fe7cb0af19aff28cf0f0995" target="_top" xlink:title="SeeSawN::ElementsN\l::MakeCoordinateVector">
<polygon fill="white" stroke="black" points="472,-245.5 472,-275.5 592,-275.5 592,-245.5 472,-245.5"/>
<text text-anchor="start" x="480" y="-263.5" font-family="FreeSans" font-size="10.00">SeeSawN::ElementsN</text>
<text text-anchor="middle" x="532" y="-252.5" font-family="FreeSans" font-size="10.00">::MakeCoordinateVector</text>
</a>
</g>
</g>
<!-- Node35&#45;&gt;Node36 -->
<g id="edge3" class="edge"><title>Node35&#45;&gt;Node36</title>
<path fill="none" stroke="midnightblue" d="M393.144,-177.611C399.451,-180.38 405.525,-183.647 411,-187.5 433.1,-203.052 424.815,-221.069 447,-236.5 451.786,-239.829 457.028,-242.699 462.482,-245.173"/>
<polygon fill="midnightblue" stroke="midnightblue" points="461.236,-248.445 471.817,-248.975 463.876,-241.962 461.236,-248.445"/>
</g>
<!-- Node37 -->
<g id="node5" class="node"><title>Node37</title>
<g id="a_node5"><a xlink:href="group__Elements.html#ga58fc9cd16b6263ea0d1eff6dc70ad799" target="_top" xlink:title="Finds the bounding box for a set of 2D coordinates. ">
<polygon fill="white" stroke="black" points="467.5,-196.5 467.5,-226.5 596.5,-226.5 596.5,-196.5 467.5,-196.5"/>
<text text-anchor="start" x="475.5" y="-214.5" font-family="FreeSans" font-size="10.00">SeeSawN::ElementsN</text>
<text text-anchor="middle" x="532" y="-203.5" font-family="FreeSans" font-size="10.00">::ComputeBoundingBox2D</text>
</a>
</g>
</g>
<!-- Node35&#45;&gt;Node37 -->
<g id="edge4" class="edge"><title>Node35&#45;&gt;Node37</title>
<path fill="none" stroke="midnightblue" d="M389.593,-177.535C411.426,-182.779 436.106,-188.707 458.666,-194.126"/>
<polygon fill="midnightblue" stroke="midnightblue" points="457.984,-197.561 468.525,-196.494 459.619,-190.755 457.984,-197.561"/>
</g>
<!-- Node38 -->
<g id="node6" class="node"><title>Node38</title>
<g id="a_node6"><a xlink:href="group__Elements.html#ga6db6c445bf9b07138dbb9cf279c6dce3" target="_top" xlink:title="Decimates a 2D coordinate set by picking the elements closest to a specified grid. ">
<polygon fill="white" stroke="black" points="475.5,-147.5 475.5,-177.5 588.5,-177.5 588.5,-147.5 475.5,-147.5"/>
<text text-anchor="start" x="483.5" y="-165.5" font-family="FreeSans" font-size="10.00">SeeSawN::ElementsN</text>
<text text-anchor="middle" x="532" y="-154.5" font-family="FreeSans" font-size="10.00">::DecimateFeatures2D</text>
</a>
</g>
</g>
<!-- Node35&#45;&gt;Node38 -->
<g id="edge5" class="edge"><title>Node35&#45;&gt;Node38</title>
<path fill="none" stroke="midnightblue" d="M411.152,-162.5C429.058,-162.5 447.72,-162.5 464.84,-162.5"/>
<polygon fill="midnightblue" stroke="midnightblue" points="465.279,-166 475.279,-162.5 465.279,-159 465.279,-166"/>
</g>
<!-- Node39 -->
<g id="node7" class="node"><title>Node39</title>
<g id="a_node7"><a xlink:href="classSeeSawN_1_1ION_1_1BaseImageFeatureIOC.html#abf5ab318c2496a12a275026f014cd235" target="_top" xlink:title="Common preprocessing operations after a read. ">
<polygon fill="white" stroke="black" points="447,-98.5 447,-128.5 617,-128.5 617,-98.5 447,-98.5"/>
<text text-anchor="start" x="455" y="-116.5" font-family="FreeSans" font-size="10.00">SeeSawN::ION::BaseImageFeature</text>
<text text-anchor="middle" x="532" y="-105.5" font-family="FreeSans" font-size="10.00">IOC::PreprocessFeature</text>
</a>
</g>
</g>
<!-- Node35&#45;&gt;Node39 -->
<g id="edge6" class="edge"><title>Node35&#45;&gt;Node39</title>
<path fill="none" stroke="midnightblue" d="M389.593,-147.465C411.426,-142.221 436.106,-136.293 458.666,-130.874"/>
<polygon fill="midnightblue" stroke="midnightblue" points="459.619,-134.245 468.525,-128.506 457.984,-127.439 459.619,-134.245"/>
</g>
<!-- Node40 -->
<g id="node8" class="node"><title>Node40</title>
<g id="a_node8"><a xlink:href="classSeeSawN_1_1ION_1_1BaseImageFeatureIOC.html#aed88f408a178eee19abe430b067a1bed" target="_top" xlink:title="Default normalisation&#45; dummy. ">
<polygon fill="white" stroke="black" points="653,-98.5 653,-128.5 823,-128.5 823,-98.5 653,-98.5"/>
<text text-anchor="start" x="661" y="-116.5" font-family="FreeSans" font-size="10.00">SeeSawN::ION::BaseImageFeature</text>
<text text-anchor="middle" x="738" y="-105.5" font-family="FreeSans" font-size="10.00">IOC::Normalise</text>
</a>
</g>
</g>
<!-- Node39&#45;&gt;Node40 -->
<g id="edge7" class="edge"><title>Node39&#45;&gt;Node40</title>
<path fill="none" stroke="midnightblue" d="M617.152,-113.5C625.501,-113.5 634.015,-113.5 642.46,-113.5"/>
<polygon fill="midnightblue" stroke="midnightblue" points="642.712,-117 652.712,-113.5 642.712,-110 642.712,-117"/>
</g>
<!-- Node42 -->
<g id="node10" class="node"><title>Node42</title>
<g id="a_node10"><a xlink:href="classSeeSawN_1_1ElementsN_1_1FeatureC.html#adf53174d5a0ddade03f4dc94d2661a9f" target="_top" xlink:title="Accessor for descriptor. ">
<polygon fill="white" stroke="black" points="475.5,-49.5 475.5,-79.5 588.5,-79.5 588.5,-49.5 475.5,-49.5"/>
<text text-anchor="start" x="483.5" y="-67.5" font-family="FreeSans" font-size="10.00">SeeSawN::ElementsN</text>
<text text-anchor="middle" x="532" y="-56.5" font-family="FreeSans" font-size="10.00">::FeatureC::Descriptor</text>
</a>
</g>
</g>
<!-- Node41&#45;&gt;Node42 -->
<g id="edge9" class="edge"><title>Node41&#45;&gt;Node42</title>
<path fill="none" stroke="midnightblue" d="M400.072,-64.5C421.393,-64.5 444.551,-64.5 465.38,-64.5"/>
<polygon fill="midnightblue" stroke="midnightblue" points="465.4,-68.0001 475.4,-64.5 465.4,-61.0001 465.4,-68.0001"/>
</g>
<!-- Node43 -->
<g id="node11" class="node"><title>Node43</title>
<g id="a_node11"><a xlink:href="classSeeSawN_1_1ElementsN_1_1FeatureC.html#a39e53d149bbdd3ce6f399f0d84273f93" target="_top" xlink:title="Accessor for roi. ">
<polygon fill="white" stroke="black" points="475.5,-0.5 475.5,-30.5 588.5,-30.5 588.5,-0.5 475.5,-0.5"/>
<text text-anchor="start" x="483.5" y="-18.5" font-family="FreeSans" font-size="10.00">SeeSawN::ElementsN</text>
<text text-anchor="middle" x="532" y="-7.5" font-family="FreeSans" font-size="10.00">::FeatureC::RoI</text>
</a>
</g>
</g>
<!-- Node41&#45;&gt;Node43 -->
<g id="edge10" class="edge"><title>Node41&#45;&gt;Node43</title>
<path fill="none" stroke="midnightblue" d="M389.593,-49.4654C413.681,-43.6796 441.234,-37.0615 465.581,-31.2134"/>
<polygon fill="midnightblue" stroke="midnightblue" points="466.539,-34.583 475.445,-28.8442 464.904,-27.7766 466.539,-34.583"/>
</g>
</g>
</svg>
