<?xml version="1.0" encoding="UTF-8" standalone="no"?>
<!DOCTYPE svg PUBLIC "-//W3C//DTD SVG 1.1//EN"
 "http://www.w3.org/Graphics/SVG/1.1/DTD/svg11.dtd">
<!-- Generated by graphviz version 2.38.0 (20140413.2041)
 -->
<!-- Title: SeeSawN::ApplicationN::InterfaceVisionGraphPipelineC::MakeParameterObject Pages: 1 -->
<!--zoomable 482 -->
<svg id="main" version="1.1" xmlns="http://www.w3.org/2000/svg" xmlns:xlink="http://www.w3.org/1999/xlink" xml:space="preserve" onload="init(evt)">
<style type="text/css"><![CDATA[
.edge:hover path { stroke: red; }
.edge:hover polygon { stroke: red; fill: red; }
]]></style>
<script type="text/javascript"><![CDATA[
var edges = document.getElementsByTagName('g');
if (edges && edges.length) {
  for (var i=0;i<edges.length;i++) {
    if (edges[i].id.substr(0,4)=='edge') {
      edges[i].setAttribute('class','edge');
    }
  }
}
]]></script>
        <defs>
                <circle id="rim" cx="0" cy="0" r="7"/>
                <circle id="rim2" cx="0" cy="0" r="3.5"/>
                <g id="zoomPlus">
                        <use xlink:href="#rim" fill="#404040">
                                <set attributeName="fill" to="#808080" begin="zoomplus.mouseover" end="zoomplus.mouseout"/>
                        </use>
                        <path d="M-4,0h8M0,-4v8" fill="none" stroke="white" stroke-width="1.5" pointer-events="none"/>
                </g>
                <g id="zoomMin">
                        <use xlink:href="#rim" fill="#404040">
                                <set attributeName="fill" to="#808080" begin="zoomminus.mouseover" end="zoomminus.mouseout"/>
                        </use>
                        <path d="M-4,0h8" fill="none" stroke="white" stroke-width="1.5" pointer-events="none"/>
                </g>
                <g id="dirArrow">
                        <path fill="none" stroke="white" stroke-width="1.5" d="M0,-3.0v7 M-2.5,-0.5L0,-3.0L2.5,-0.5"/>
                </g>
               <g id="resetDef">
                       <use xlink:href="#rim2" fill="#404040">
                               <set attributeName="fill" to="#808080" begin="reset.mouseover" end="reset.mouseout"/>
                       </use>
               </g>
        </defs>

<script type="text/javascript">
var viewWidth = 1160;
var viewHeight = 482;
var sectionId = 'dynsection-1';
</script>
<script xlink:href="svgpan.js"/>
<svg id="graph" class="graph">
<g id="viewport">
<title>SeeSawN::ApplicationN::InterfaceVisionGraphPipelineC::MakeParameterObject</title>
<polygon fill="white" stroke="none" points="-4,4 -4,-478.406 1156,-478.406 1156,4 -4,4"/>
<!-- Node0 -->
<g id="node1" class="node"><title>Node0</title>
<polygon fill="#bfbfbf" stroke="black" points="0,-315.906 0,-356.906 147,-356.906 147,-315.906 0,-315.906"/>
<text text-anchor="start" x="8" y="-344.906" font-family="FreeSans" font-size="10.00">SeeSawN::ApplicationN</text>
<text text-anchor="start" x="8" y="-333.906" font-family="FreeSans" font-size="10.00">::InterfaceVisionGraphPipeline</text>
<text text-anchor="middle" x="73.5" y="-322.906" font-family="FreeSans" font-size="10.00">C::MakeParameterObject</text>
</g>
<!-- Node1 -->
<g id="node2" class="node"><title>Node1</title>
<g id="a_node2"><a xlink:href="classSeeSawN_1_1ApplicationN_1_1InterfaceTwoStageRANSACC.html#a14b9e6b6db39d18b349dff59fddfa413" target="_top" xlink:title="Extracts the parameters for RANSACGeometryEstimationProblemC. ">
<polygon fill="white" stroke="black" points="183,-432.906 183,-473.906 362,-473.906 362,-432.906 183,-432.906"/>
<text text-anchor="start" x="191" y="-461.906" font-family="FreeSans" font-size="10.00">SeeSawN::ApplicationN</text>
<text text-anchor="start" x="191" y="-450.906" font-family="FreeSans" font-size="10.00">::InterfaceTwoStageRANSACC</text>
<text text-anchor="middle" x="272.5" y="-439.906" font-family="FreeSans" font-size="10.00">::ExtractGeometryProblemParameters</text>
</a>
</g>
</g>
<!-- Node0&#45;&gt;Node1 -->
<g id="edge1" class="edge"><title>Node0&#45;&gt;Node1</title>
<path fill="none" stroke="midnightblue" d="M97.7634,-356.954C118.901,-374.877 151.505,-400.711 183,-418.406 189.437,-422.023 196.324,-425.443 203.306,-428.626"/>
<polygon fill="midnightblue" stroke="midnightblue" points="202.291,-432.002 212.855,-432.814 205.103,-425.592 202.291,-432.002"/>
</g>
<!-- Node3 -->
<g id="node4" class="node"><title>Node3</title>
<g id="a_node4"><a xlink:href="group__Utility.html#ga48dc86b390790f70172782dc63ab5e8f" target="_top" xlink:title="Reads and validates a parameter from a property tree. ">
<polygon fill="white" stroke="black" points="1031,-277.406 1031,-307.406 1152,-307.406 1152,-277.406 1031,-277.406"/>
<text text-anchor="start" x="1039" y="-295.406" font-family="FreeSans" font-size="10.00">SeeSawN::ApplicationN</text>
<text text-anchor="middle" x="1091.5" y="-284.406" font-family="FreeSans" font-size="10.00">::ReadParameter</text>
</a>
</g>
</g>
<!-- Node0&#45;&gt;Node3 -->
<g id="edge24" class="edge"><title>Node0&#45;&gt;Node3</title>
<path fill="none" stroke="midnightblue" d="M147.226,-355.983C228.362,-376.072 363.833,-404.406 482.5,-404.406 482.5,-404.406 482.5,-404.406 682,-404.406 821.554,-404.406 866.972,-434.941 995,-379.406 1027.01,-365.521 1055.38,-336.384 1072.72,-315.66"/>
<polygon fill="midnightblue" stroke="midnightblue" points="1075.65,-317.603 1079.23,-307.634 1070.21,-313.191 1075.65,-317.603"/>
</g>
<!-- Node4 -->
<g id="node5" class="node"><title>Node4</title>
<g id="a_node5"><a xlink:href="classSeeSawN_1_1ApplicationN_1_1InterfaceGeometryEstimationPipelineC.html#a32894c85b4610b3d8da17e9ce002655f" target="_top" xlink:title="Makes a parameter object from a property tree. ">
<polygon fill="white" stroke="black" points="192.5,-247.906 192.5,-288.906 352.5,-288.906 352.5,-247.906 192.5,-247.906"/>
<text text-anchor="start" x="200.5" y="-276.906" font-family="FreeSans" font-size="10.00">SeeSawN::ApplicationN</text>
<text text-anchor="start" x="200.5" y="-265.906" font-family="FreeSans" font-size="10.00">::InterfaceGeometryEstimation</text>
<text text-anchor="middle" x="272.5" y="-254.906" font-family="FreeSans" font-size="10.00">PipelineC::MakeParameterObject</text>
</a>
</g>
</g>
<!-- Node0&#45;&gt;Node4 -->
<g id="edge4" class="edge"><title>Node0&#45;&gt;Node4</title>
<path fill="none" stroke="midnightblue" d="M134.141,-315.819C155.646,-308.396 180.095,-299.957 202.345,-292.277"/>
<polygon fill="midnightblue" stroke="midnightblue" points="203.751,-295.494 212.062,-288.923 201.467,-288.877 203.751,-295.494"/>
</g>
<!-- Node17 -->
<g id="node18" class="node"><title>Node17</title>
<g id="a_node18"><a xlink:href="classSeeSawN_1_1ApplicationN_1_1InterfaceVisionGraphPipelineC.html#a6b40014b0a963b158dfb7cb1f6774be1" target="_top" xlink:title="Removes the redundant geometry estimation pipeline parameters. ">
<polygon fill="white" stroke="black" points="184.5,-187.906 184.5,-228.906 360.5,-228.906 360.5,-187.906 184.5,-187.906"/>
<text text-anchor="start" x="192.5" y="-216.906" font-family="FreeSans" font-size="10.00">SeeSawN::ApplicationN</text>
<text text-anchor="start" x="192.5" y="-205.906" font-family="FreeSans" font-size="10.00">::InterfaceVisionGraphPipeline</text>
<text text-anchor="middle" x="272.5" y="-194.906" font-family="FreeSans" font-size="10.00">C::PruneGeometryEstimationPipeline</text>
</a>
</g>
</g>
<!-- Node0&#45;&gt;Node17 -->
<g id="edge23" class="edge"><title>Node0&#45;&gt;Node17</title>
<path fill="none" stroke="midnightblue" d="M92.5564,-315.696C112.667,-293.769 147.098,-259.476 183,-238.406 186.03,-236.628 189.181,-234.936 192.41,-233.328"/>
<polygon fill="midnightblue" stroke="midnightblue" points="194.09,-236.407 201.684,-229.019 191.14,-230.058 194.09,-236.407"/>
</g>
<!-- Node2 -->
<g id="node3" class="node"><title>Node2</title>
<g id="a_node3"><a xlink:href="classSeeSawN_1_1ApplicationN_1_1InterfaceRANSACC.html#a210cc166da4e686db34b5da58a82aedb" target="_top" xlink:title="Extracts the parameters for RANSACGeometryEstimationProblemC. ">
<polygon fill="white" stroke="black" points="608.5,-432.906 608.5,-473.906 753.5,-473.906 753.5,-432.906 608.5,-432.906"/>
<text text-anchor="start" x="616.5" y="-461.906" font-family="FreeSans" font-size="10.00">SeeSawN::ApplicationN</text>
<text text-anchor="start" x="616.5" y="-450.906" font-family="FreeSans" font-size="10.00">::InterfaceRANSACC::Extract</text>
<text text-anchor="middle" x="681" y="-439.906" font-family="FreeSans" font-size="10.00">GeometryProblemParameters</text>
</a>
</g>
</g>
<!-- Node1&#45;&gt;Node2 -->
<g id="edge2" class="edge"><title>Node1&#45;&gt;Node2</title>
<path fill="none" stroke="midnightblue" d="M362.206,-453.406C432.422,-453.406 529.718,-453.406 598.101,-453.406"/>
<polygon fill="midnightblue" stroke="midnightblue" points="598.397,-456.906 608.397,-453.406 598.397,-449.906 598.397,-456.906"/>
</g>
<!-- Node2&#45;&gt;Node3 -->
<g id="edge3" class="edge"><title>Node2&#45;&gt;Node3</title>
<path fill="none" stroke="midnightblue" d="M753.699,-460.833C820.513,-464.341 920.722,-460.62 995,-418.406 1035.95,-395.133 1064.91,-346.446 1079.56,-316.872"/>
<polygon fill="midnightblue" stroke="midnightblue" points="1082.82,-318.172 1083.97,-307.64 1076.5,-315.152 1082.82,-318.172"/>
</g>
<!-- Node4&#45;&gt;Node3 -->
<g id="edge22" class="edge"><title>Node4&#45;&gt;Node3</title>
<path fill="none" stroke="midnightblue" d="M314.196,-288.928C338.006,-299.946 369.002,-312.623 398,-319.406 656.644,-379.905 738.389,-416.017 995,-347.406 1019.78,-340.781 1044.8,-326.011 1063.01,-313.444"/>
<polygon fill="midnightblue" stroke="midnightblue" points="1065.25,-316.145 1071.37,-307.497 1061.19,-310.441 1065.25,-316.145"/>
</g>
<!-- Node5 -->
<g id="node6" class="node"><title>Node5</title>
<g id="a_node6"><a xlink:href="classSeeSawN_1_1ApplicationN_1_1InterfaceScaledUnscentedTransformationC.html#a797770ea7d2fefc7fa5c07ff3a67f52a" target="_top" xlink:title="Makes a parameter object from a property tree. ">
<polygon fill="white" stroke="black" points="793,-296.906 793,-337.906 995,-337.906 995,-296.906 793,-296.906"/>
<text text-anchor="start" x="801" y="-325.906" font-family="FreeSans" font-size="10.00">SeeSawN::ApplicationN</text>
<text text-anchor="start" x="801" y="-314.906" font-family="FreeSans" font-size="10.00">::InterfaceScaledUnscentedTransformation</text>
<text text-anchor="middle" x="894" y="-303.906" font-family="FreeSans" font-size="10.00">C::MakeParameterObject</text>
</a>
</g>
</g>
<!-- Node4&#45;&gt;Node5 -->
<g id="edge5" class="edge"><title>Node4&#45;&gt;Node5</title>
<path fill="none" stroke="midnightblue" d="M348.094,-288.918C364.424,-292.695 381.702,-296.152 398,-298.406 529.367,-316.572 682.078,-319.747 782.755,-319.399"/>
<polygon fill="midnightblue" stroke="midnightblue" points="782.957,-322.899 792.94,-319.352 782.924,-315.899 782.957,-322.899"/>
</g>
<!-- Node6 -->
<g id="node7" class="node"><title>Node6</title>
<g id="a_node7"><a xlink:href="classSeeSawN_1_1ApplicationN_1_1InterfaceGeometryEstimatorC.html#af08aa9e88b51acdfe94f0e2cfdf3223e" target="_top" xlink:title="Makes a parameter object from a property tree. ">
<polygon fill="white" stroke="black" points="412,-247.906 412,-288.906 555,-288.906 555,-247.906 412,-247.906"/>
<text text-anchor="start" x="420" y="-276.906" font-family="FreeSans" font-size="10.00">SeeSawN::ApplicationN</text>
<text text-anchor="start" x="420" y="-265.906" font-family="FreeSans" font-size="10.00">::InterfaceGeometryEstimator</text>
<text text-anchor="middle" x="483.5" y="-254.906" font-family="FreeSans" font-size="10.00">C::MakeParameterObject</text>
</a>
</g>
</g>
<!-- Node4&#45;&gt;Node6 -->
<g id="edge7" class="edge"><title>Node4&#45;&gt;Node6</title>
<path fill="none" stroke="midnightblue" d="M352.514,-268.406C368.539,-268.406 385.416,-268.406 401.509,-268.406"/>
<polygon fill="midnightblue" stroke="midnightblue" points="401.954,-271.906 411.954,-268.406 401.954,-264.906 401.954,-271.906"/>
</g>
<!-- Node13 -->
<g id="node14" class="node"><title>Node13</title>
<g id="a_node14"><a xlink:href="classSeeSawN_1_1ApplicationN_1_1InterfaceFeatureMatcherC.html#af7d4e6a1ebf6147dc4385a4a6df3b4e5" target="_top" xlink:title="Makes a parameter object from a property tree. ">
<polygon fill="white" stroke="black" points="614,-29.906 614,-70.906 748,-70.906 748,-29.906 614,-29.906"/>
<text text-anchor="start" x="622" y="-58.906" font-family="FreeSans" font-size="10.00">SeeSawN::ApplicationN</text>
<text text-anchor="start" x="622" y="-47.906" font-family="FreeSans" font-size="10.00">::InterfaceFeatureMatcherC</text>
<text text-anchor="middle" x="681" y="-36.906" font-family="FreeSans" font-size="10.00">::MakeParameterObject</text>
</a>
</g>
</g>
<!-- Node4&#45;&gt;Node13 -->
<g id="edge17" class="edge"><title>Node4&#45;&gt;Node13</title>
<path fill="none" stroke="midnightblue" d="M352.817,-249.07C367.813,-245.478 383.379,-241.792 398,-238.406 473.847,-220.842 510.231,-251.469 569,-200.406 603.398,-170.519 577.322,-140.605 605,-104.406 612.92,-94.0469 623.371,-84.8227 633.947,-77.0568"/>
<polygon fill="midnightblue" stroke="midnightblue" points="636.214,-79.7423 642.41,-71.1475 632.207,-74.003 636.214,-79.7423"/>
</g>
<!-- Node14 -->
<g id="node15" class="node"><title>Node14</title>
<g id="a_node15"><a xlink:href="classSeeSawN_1_1ApplicationN_1_1InterfaceGeometryEstimationPipelineC.html#a8de326e5a379da5e9ceeed191efaf741" target="_top" xlink:title="Removes the redundant geometry estimator parameters. ">
<polygon fill="white" stroke="black" points="398,-149.906 398,-190.906 569,-190.906 569,-149.906 398,-149.906"/>
<text text-anchor="start" x="406" y="-178.906" font-family="FreeSans" font-size="10.00">SeeSawN::ApplicationN</text>
<text text-anchor="start" x="406" y="-167.906" font-family="FreeSans" font-size="10.00">::InterfaceGeometryEstimation</text>
<text text-anchor="middle" x="483.5" y="-156.906" font-family="FreeSans" font-size="10.00">PipelineC::PruneGeometryEstimator</text>
</a>
</g>
</g>
<!-- Node4&#45;&gt;Node14 -->
<g id="edge19" class="edge"><title>Node4&#45;&gt;Node14</title>
<path fill="none" stroke="midnightblue" d="M343.343,-247.839C349.814,-245.016 356.136,-241.876 362,-238.406 380.679,-227.351 379.695,-217.07 398,-205.406 403.668,-201.794 409.772,-198.42 416.013,-195.303"/>
<polygon fill="midnightblue" stroke="midnightblue" points="417.692,-198.38 425.219,-190.924 414.685,-192.059 417.692,-198.38"/>
</g>
<!-- Node15 -->
<g id="node16" class="node"><title>Node15</title>
<g id="a_node16"><a xlink:href="classSeeSawN_1_1ApplicationN_1_1InterfaceGeometryEstimationPipelineC.html#a0bf4271cfcf3f3ea9930f9ef1013ff60" target="_top" xlink:title="Removes the redundant matcher parameters. ">
<polygon fill="white" stroke="black" points="410,-89.906 410,-130.906 557,-130.906 557,-89.906 410,-89.906"/>
<text text-anchor="start" x="418" y="-118.906" font-family="FreeSans" font-size="10.00">SeeSawN::ApplicationN</text>
<text text-anchor="start" x="418" y="-107.906" font-family="FreeSans" font-size="10.00">::InterfaceGeometryEstimation</text>
<text text-anchor="middle" x="483.5" y="-96.906" font-family="FreeSans" font-size="10.00">PipelineC::PruneMatcher</text>
</a>
</g>
</g>
<!-- Node4&#45;&gt;Node15 -->
<g id="edge20" class="edge"><title>Node4&#45;&gt;Node15</title>
<path fill="none" stroke="midnightblue" d="M350.077,-247.756C354.373,-245.018 358.399,-241.917 362,-238.406 395.222,-206.012 365.011,-173.037 398,-140.406 399.107,-139.311 400.256,-138.256 401.443,-137.24"/>
<polygon fill="midnightblue" stroke="midnightblue" points="403.816,-139.837 409.765,-131.07 399.648,-134.213 403.816,-139.837"/>
</g>
<!-- Node16 -->
<g id="node17" class="node"><title>Node16</title>
<g id="a_node17"><a xlink:href="classSeeSawN_1_1ApplicationN_1_1InterfaceGeometryEstimationPipelineC.html#a385b2067ced635ddf4941aafb05279c6" target="_top" xlink:title="Removes the redundant SUT parameters. ">
<polygon fill="white" stroke="black" points="410,-29.906 410,-70.906 557,-70.906 557,-29.906 410,-29.906"/>
<text text-anchor="start" x="418" y="-58.906" font-family="FreeSans" font-size="10.00">SeeSawN::ApplicationN</text>
<text text-anchor="start" x="418" y="-47.906" font-family="FreeSans" font-size="10.00">::InterfaceGeometryEstimation</text>
<text text-anchor="middle" x="483.5" y="-36.906" font-family="FreeSans" font-size="10.00">PipelineC::PruneSUT</text>
</a>
</g>
</g>
<!-- Node4&#45;&gt;Node16 -->
<g id="edge21" class="edge"><title>Node4&#45;&gt;Node16</title>
<path fill="none" stroke="midnightblue" d="M351.417,-247.714C355.275,-244.986 358.849,-241.899 362,-238.406 410.243,-184.929 350.141,-134.227 398,-80.406 399.173,-79.0864 400.409,-77.8248 401.698,-76.6187"/>
<polygon fill="midnightblue" stroke="midnightblue" points="403.985,-79.2715 409.621,-70.3 399.621,-73.7987 403.985,-79.2715"/>
</g>
<!-- Node5&#45;&gt;Node3 -->
<g id="edge6" class="edge"><title>Node5&#45;&gt;Node3</title>
<path fill="none" stroke="midnightblue" d="M995.041,-304.613C1003.72,-303.503 1012.38,-302.396 1020.74,-301.326"/>
<polygon fill="midnightblue" stroke="midnightblue" points="1021.3,-304.784 1030.77,-300.044 1020.41,-297.841 1021.3,-304.784"/>
</g>
<!-- Node7 -->
<g id="node8" class="node"><title>Node7</title>
<g id="a_node8"><a xlink:href="classSeeSawN_1_1ApplicationN_1_1InterfacePowellDogLegC.html#a5bcff0c4f36ea54d92c337ec666523f7" target="_top" xlink:title="Makes a parameter object from a property tree. ">
<polygon fill="white" stroke="black" points="616.5,-247.906 616.5,-288.906 745.5,-288.906 745.5,-247.906 616.5,-247.906"/>
<text text-anchor="start" x="624.5" y="-276.906" font-family="FreeSans" font-size="10.00">SeeSawN::ApplicationN</text>
<text text-anchor="start" x="624.5" y="-265.906" font-family="FreeSans" font-size="10.00">::InterfacePowellDogLegC</text>
<text text-anchor="middle" x="681" y="-254.906" font-family="FreeSans" font-size="10.00">::MakeParameterObject</text>
</a>
</g>
</g>
<!-- Node6&#45;&gt;Node7 -->
<g id="edge8" class="edge"><title>Node6&#45;&gt;Node7</title>
<path fill="none" stroke="midnightblue" d="M555.08,-268.406C571.655,-268.406 589.362,-268.406 606.079,-268.406"/>
<polygon fill="midnightblue" stroke="midnightblue" points="606.341,-271.906 616.341,-268.406 606.341,-264.906 606.341,-271.906"/>
</g>
<!-- Node8 -->
<g id="node9" class="node"><title>Node8</title>
<g id="a_node9"><a xlink:href="classSeeSawN_1_1ApplicationN_1_1InterfaceTwoStageRANSACC.html#a589cffaf215a4227a87b027bf092540b" target="_top" xlink:title="Makes a parameter object from a property tree. ">
<polygon fill="white" stroke="black" points="605,-173.906 605,-214.906 757,-214.906 757,-173.906 605,-173.906"/>
<text text-anchor="start" x="613" y="-202.906" font-family="FreeSans" font-size="10.00">SeeSawN::ApplicationN</text>
<text text-anchor="start" x="613" y="-191.906" font-family="FreeSans" font-size="10.00">::InterfaceTwoStageRANSACC</text>
<text text-anchor="middle" x="681" y="-180.906" font-family="FreeSans" font-size="10.00">::MakeParameterObject</text>
</a>
</g>
</g>
<!-- Node6&#45;&gt;Node8 -->
<g id="edge10" class="edge"><title>Node6&#45;&gt;Node8</title>
<path fill="none" stroke="midnightblue" d="M538.698,-247.891C562.746,-238.788 591.215,-228.012 616.275,-218.527"/>
<polygon fill="midnightblue" stroke="midnightblue" points="617.583,-221.774 625.697,-214.961 615.105,-215.228 617.583,-221.774"/>
</g>
<!-- Node12 -->
<g id="node13" class="node"><title>Node12</title>
<g id="a_node13"><a xlink:href="classSeeSawN_1_1ApplicationN_1_1InterfaceGeometryEstimatorC.html#a28da5d10fb234fa4838da7b3f4ecf2db" target="_top" xlink:title="Removes the redundant refinement parameters. ">
<polygon fill="white" stroke="black" points="609.5,-113.906 609.5,-154.906 752.5,-154.906 752.5,-113.906 609.5,-113.906"/>
<text text-anchor="start" x="617.5" y="-142.906" font-family="FreeSans" font-size="10.00">SeeSawN::ApplicationN</text>
<text text-anchor="start" x="617.5" y="-131.906" font-family="FreeSans" font-size="10.00">::InterfaceGeometryEstimator</text>
<text text-anchor="middle" x="681" y="-120.906" font-family="FreeSans" font-size="10.00">C::PruneRefinement</text>
</a>
</g>
</g>
<!-- Node6&#45;&gt;Node12 -->
<g id="edge16" class="edge"><title>Node6&#45;&gt;Node12</title>
<path fill="none" stroke="midnightblue" d="M548.355,-247.773C555.807,-243.736 562.91,-238.981 569,-233.406 594.513,-210.049 579.345,-187.607 605,-164.406 606.323,-163.21 607.7,-162.058 609.121,-160.95"/>
<polygon fill="midnightblue" stroke="midnightblue" points="611.431,-163.61 617.697,-155.066 607.471,-157.838 611.431,-163.61"/>
</g>
<!-- Node7&#45;&gt;Node3 -->
<g id="edge9" class="edge"><title>Node7&#45;&gt;Node3</title>
<path fill="none" stroke="midnightblue" d="M745.828,-272.156C820.455,-276.54 943.556,-283.773 1020.67,-288.304"/>
<polygon fill="midnightblue" stroke="midnightblue" points="1020.58,-291.804 1030.77,-288.897 1021,-284.816 1020.58,-291.804"/>
</g>
<!-- Node8&#45;&gt;Node3 -->
<g id="edge15" class="edge"><title>Node8&#45;&gt;Node3</title>
<path fill="none" stroke="midnightblue" d="M757.401,-212.495C832.702,-230.56 947.495,-258.099 1020.74,-275.671"/>
<polygon fill="midnightblue" stroke="midnightblue" points="1020.25,-279.153 1030.79,-278.083 1021.89,-272.346 1020.25,-279.153"/>
</g>
<!-- Node9 -->
<g id="node10" class="node"><title>Node9</title>
<g id="a_node10"><a xlink:href="classSeeSawN_1_1ApplicationN_1_1InterfaceRANSACC.html#a1f3fbf218841630d8012f027dd1c8d00" target="_top" xlink:title="Makes a parameter object from a property tree. ">
<polygon fill="white" stroke="black" points="803.5,-160.906 803.5,-201.906 984.5,-201.906 984.5,-160.906 803.5,-160.906"/>
<text text-anchor="start" x="811.5" y="-189.906" font-family="FreeSans" font-size="10.00">SeeSawN::ApplicationN</text>
<text text-anchor="start" x="811.5" y="-178.906" font-family="FreeSans" font-size="10.00">::InterfaceRANSACC::MakeParameter</text>
<text text-anchor="middle" x="894" y="-167.906" font-family="FreeSans" font-size="10.00">Object</text>
</a>
</g>
</g>
<!-- Node8&#45;&gt;Node9 -->
<g id="edge11" class="edge"><title>Node8&#45;&gt;Node9</title>
<path fill="none" stroke="midnightblue" d="M757.282,-189.768C768.932,-189.05 781.12,-188.299 793.207,-187.554"/>
<polygon fill="midnightblue" stroke="midnightblue" points="793.556,-191.04 803.322,-186.931 793.126,-184.053 793.556,-191.04"/>
</g>
<!-- Node10 -->
<g id="node11" class="node"><title>Node10</title>
<g id="a_node11"><a xlink:href="classSeeSawN_1_1ApplicationN_1_1InterfaceTwoStageRANSACC.html#a5e4db2b73abfd256c621e2853efb31c9" target="_top" xlink:title="Prune any redundant parameters from Stage 1 RANSAC configuration. ">
<polygon fill="white" stroke="black" points="818,-100.906 818,-141.906 970,-141.906 970,-100.906 818,-100.906"/>
<text text-anchor="start" x="826" y="-129.906" font-family="FreeSans" font-size="10.00">SeeSawN::ApplicationN</text>
<text text-anchor="start" x="826" y="-118.906" font-family="FreeSans" font-size="10.00">::InterfaceTwoStageRANSACC</text>
<text text-anchor="middle" x="894" y="-107.906" font-family="FreeSans" font-size="10.00">::PruneStage1</text>
</a>
</g>
</g>
<!-- Node8&#45;&gt;Node10 -->
<g id="edge13" class="edge"><title>Node8&#45;&gt;Node10</title>
<path fill="none" stroke="midnightblue" d="M732.532,-173.872C751.39,-166.463 773.061,-158.247 793,-151.406 799.278,-149.252 805.806,-147.1 812.384,-144.995"/>
<polygon fill="midnightblue" stroke="midnightblue" points="813.552,-148.296 822.033,-141.947 811.444,-141.621 813.552,-148.296"/>
</g>
<!-- Node11 -->
<g id="node12" class="node"><title>Node11</title>
<g id="a_node12"><a xlink:href="classSeeSawN_1_1ApplicationN_1_1InterfaceTwoStageRANSACC.html#af9cc401ab63f8343edb68ccbb76de645" target="_top" xlink:title="Prune any redundant parameters from Stage 2 RANSAC configuration. ">
<polygon fill="white" stroke="black" points="818,-40.906 818,-81.906 970,-81.906 970,-40.906 818,-40.906"/>
<text text-anchor="start" x="826" y="-69.906" font-family="FreeSans" font-size="10.00">SeeSawN::ApplicationN</text>
<text text-anchor="start" x="826" y="-58.906" font-family="FreeSans" font-size="10.00">::InterfaceTwoStageRANSACC</text>
<text text-anchor="middle" x="894" y="-47.906" font-family="FreeSans" font-size="10.00">::PruneStage2</text>
</a>
</g>
</g>
<!-- Node8&#45;&gt;Node11 -->
<g id="edge14" class="edge"><title>Node8&#45;&gt;Node11</title>
<path fill="none" stroke="midnightblue" d="M744.391,-173.841C748.917,-171.062 753.191,-167.93 757,-164.406 783.553,-139.838 765.38,-114.767 793,-91.406 797.813,-87.3348 803.165,-83.8161 808.819,-80.7749"/>
<polygon fill="midnightblue" stroke="midnightblue" points="810.438,-83.8797 817.92,-76.3781 807.393,-77.5767 810.438,-83.8797"/>
</g>
<!-- Node9&#45;&gt;Node3 -->
<g id="edge12" class="edge"><title>Node9&#45;&gt;Node3</title>
<path fill="none" stroke="midnightblue" d="M963.575,-201.952C974.358,-206.157 985.177,-210.983 995,-216.406 1021.7,-231.148 1048.57,-253.342 1066.98,-269.946"/>
<polygon fill="midnightblue" stroke="midnightblue" points="1065.07,-272.949 1074.81,-277.134 1069.81,-267.793 1065.07,-272.949"/>
</g>
<!-- Node13&#45;&gt;Node3 -->
<g id="edge18" class="edge"><title>Node13&#45;&gt;Node3</title>
<path fill="none" stroke="midnightblue" d="M731.87,-29.8165C798.312,-5.99619 916.578,23.4064 995,-31.406 1073.44,-86.2294 1087.66,-212.766 1090.09,-266.989"/>
<polygon fill="midnightblue" stroke="midnightblue" points="1086.59,-267.246 1090.44,-277.119 1093.59,-267.004 1086.59,-267.246"/>
</g>
</g>
</svg>
        <g id="navigator" transform="translate(0 0)" fill="#404254">
                <rect fill="#f2f5e9" fill-opacity="0.5" stroke="#606060" stroke-width=".5" x="0" y="0" width="60" height="60"/>
                <use id="zoomplus" xlink:href="#zoomPlus" x="17" y="9" onmousedown="handleZoom(evt,'in')"/>
                <use id="zoomminus" xlink:href="#zoomMin" x="42" y="9" onmousedown="handleZoom(evt,'out')"/>
                <use id="reset" xlink:href="#resetDef" x="30" y="36" onmousedown="handleReset()"/>
                <g id="arrowUp" xlink:href="#dirArrow" transform="translate(30 24)" onmousedown="handlePan(0,-1)">
                  <use xlink:href="#rim" fill="#404040">
                        <set attributeName="fill" to="#808080" begin="arrowUp.mouseover" end="arrowUp.mouseout"/>
                  </use>
                  <path fill="none" stroke="white" stroke-width="1.5" d="M0,-3.0v7 M-2.5,-0.5L0,-3.0L2.5,-0.5"/>
                </g>
                <g id="arrowRight" xlink:href="#dirArrow" transform="rotate(90) translate(36 -43)" onmousedown="handlePan(1,0)">
                  <use xlink:href="#rim" fill="#404040">
                        <set attributeName="fill" to="#808080" begin="arrowRight.mouseover" end="arrowRight.mouseout"/>
                  </use>
                  <path fill="none" stroke="white" stroke-width="1.5" d="M0,-3.0v7 M-2.5,-0.5L0,-3.0L2.5,-0.5"/>
                </g>
                <g id="arrowDown" xlink:href="#dirArrow" transform="rotate(180) translate(-30 -48)" onmousedown="handlePan(0,1)">
                  <use xlink:href="#rim" fill="#404040">
                        <set attributeName="fill" to="#808080" begin="arrowDown.mouseover" end="arrowDown.mouseout"/>
                  </use>
                  <path fill="none" stroke="white" stroke-width="1.5" d="M0,-3.0v7 M-2.5,-0.5L0,-3.0L2.5,-0.5"/>
                </g>
                <g id="arrowLeft" xlink:href="#dirArrow" transform="rotate(270) translate(-36 17)" onmousedown="handlePan(-1,0)">
                  <use xlink:href="#rim" fill="#404040">
                        <set attributeName="fill" to="#808080" begin="arrowLeft.mouseover" end="arrowLeft.mouseout"/>
                  </use>
                  <path fill="none" stroke="white" stroke-width="1.5" d="M0,-3.0v7 M-2.5,-0.5L0,-3.0L2.5,-0.5"/>
                </g>
        </g>
        <svg viewBox="0 0 15 15" width="100%" height="30px" preserveAspectRatio="xMaxYMin meet">
         <g id="arrow_out" transform="scale(0.3 0.3)">
          <a xlink:href="classSeeSawN_1_1ApplicationN_1_1InterfaceVisionGraphPipelineC_a6cc54cb46531eefd52ca842ad62570b7_cgraph_org.svg" target="_base">
           <rect id="button" ry="5" rx="5" y="6" x="6" height="38" width="38"
                fill="#f2f5e9" fill-opacity="0.5" stroke="#606060" stroke-width="1.0"/>
           <path id="arrow"
             d="M 11.500037,31.436501 C 11.940474,20.09759 22.043105,11.32322 32.158766,21.979434 L 37.068811,17.246167 C 37.068811,17.246167 37.088388,32 37.088388,32 L 22.160133,31.978069 C 22.160133,31.978069 26.997745,27.140456 26.997745,27.140456 C 18.528582,18.264221 13.291696,25.230495 11.500037,31.436501 z"
             style="fill:#404040;"/>
          </a>
         </g>
        </svg>
</svg>
