<?xml version="1.0" encoding="UTF-8" standalone="no"?>
<!DOCTYPE svg PUBLIC "-//W3C//DTD SVG 1.1//EN"
 "http://www.w3.org/Graphics/SVG/1.1/DTD/svg11.dtd">
<!-- Generated by graphviz version 2.38.0 (20140413.2041)
 -->
<!-- Title: SeeSawN::OptimisationN::PDLP2PProblemC::Update Pages: 1 -->
<svg width="363pt" height="50pt"
 viewBox="0.00 0.00 363.00 50.00" xmlns="http://www.w3.org/2000/svg" xmlns:xlink="http://www.w3.org/1999/xlink">
<g id="graph0" class="graph" transform="scale(1 1) rotate(0) translate(4 46)">
<title>SeeSawN::OptimisationN::PDLP2PProblemC::Update</title>
<polygon fill="white" stroke="none" points="-4,4 -4,-46 359,-46 359,4 -4,4"/>
<!-- Node25 -->
<g id="node1" class="node"><title>Node25</title>
<polygon fill="#bfbfbf" stroke="black" points="0,-6 0,-36 138,-36 138,-6 0,-6"/>
<text text-anchor="start" x="8" y="-24" font-family="FreeSans" font-size="10.00">SeeSawN::OptimisationN</text>
<text text-anchor="middle" x="69" y="-13" font-family="FreeSans" font-size="10.00">::PDLP2PProblemC::Update</text>
</g>
<!-- Node26 -->
<g id="node2" class="node"><title>Node26</title>
<g id="a_node2"><a xlink:href="classSeeSawN_1_1OptimisationN_1_1PDLP2PProblemC.html#a13c101da62ec18db8a3f3eaabedcb869" target="_top" xlink:title="Computes the distance in the model space as a result of the update vU. ">
<polygon fill="white" stroke="black" points="174,-0.5 174,-41.5 355,-41.5 355,-0.5 174,-0.5"/>
<text text-anchor="start" x="182" y="-29.5" font-family="FreeSans" font-size="10.00">SeeSawN::OptimisationN</text>
<text text-anchor="start" x="182" y="-18.5" font-family="FreeSans" font-size="10.00">::PDLP2PProblemC::ComputeRelative</text>
<text text-anchor="middle" x="264.5" y="-7.5" font-family="FreeSans" font-size="10.00">ModelDistance</text>
</a>
</g>
</g>
<!-- Node25&#45;&gt;Node26 -->
<g id="edge1" class="edge"><title>Node25&#45;&gt;Node26</title>
<path fill="none" stroke="midnightblue" d="M148.354,-21C156.754,-21 165.346,-21 173.864,-21"/>
<polygon fill="midnightblue" stroke="midnightblue" points="148.221,-17.5001 138.221,-21 148.221,-24.5001 148.221,-17.5001"/>
</g>
</g>
</svg>
