<?xml version="1.0" encoding="UTF-8" standalone="no"?>
<!DOCTYPE svg PUBLIC "-//W3C//DTD SVG 1.1//EN"
 "http://www.w3.org/Graphics/SVG/1.1/DTD/svg11.dtd">
<!-- Generated by graphviz version 2.38.0 (20140413.2041)
 -->
<!-- Title: SeeSawN::MetricsN::EpipolarSampsonErrorC::ComputeJacobiandx1x2 Pages: 1 -->
<svg width="538pt" height="110pt"
 viewBox="0.00 0.00 538.00 110.00" xmlns="http://www.w3.org/2000/svg" xmlns:xlink="http://www.w3.org/1999/xlink">
<g id="graph0" class="graph" transform="scale(1 1) rotate(0) translate(4 106)">
<title>SeeSawN::MetricsN::EpipolarSampsonErrorC::ComputeJacobiandx1x2</title>
<polygon fill="white" stroke="none" points="-4,4 -4,-106 534,-106 534,4 -4,4"/>
<!-- Node16 -->
<g id="node1" class="node"><title>Node16</title>
<polygon fill="#bfbfbf" stroke="black" points="0,-30.5 0,-71.5 124,-71.5 124,-30.5 0,-30.5"/>
<text text-anchor="start" x="8" y="-59.5" font-family="FreeSans" font-size="10.00">SeeSawN::MetricsN::</text>
<text text-anchor="start" x="8" y="-48.5" font-family="FreeSans" font-size="10.00">EpipolarSampsonErrorC</text>
<text text-anchor="middle" x="62" y="-37.5" font-family="FreeSans" font-size="10.00">::ComputeJacobiandx1x2</text>
</g>
<!-- Node17 -->
<g id="node2" class="node"><title>Node17</title>
<g id="a_node2"><a xlink:href="namespaceSeeSawN_1_1UnitTestsN_1_1TestMetricsN.html#a4194ebc805cf87c63bc851d9b3116799" target="_top" xlink:title="SeeSawN::UnitTestsN\l::TestMetricsN::BOOST\l_AUTO_TEST_CASE">
<polygon fill="white" stroke="black" points="178,-60.5 178,-101.5 297,-101.5 297,-60.5 178,-60.5"/>
<text text-anchor="start" x="186" y="-89.5" font-family="FreeSans" font-size="10.00">SeeSawN::UnitTestsN</text>
<text text-anchor="start" x="186" y="-78.5" font-family="FreeSans" font-size="10.00">::TestMetricsN::BOOST</text>
<text text-anchor="middle" x="237.5" y="-67.5" font-family="FreeSans" font-size="10.00">_AUTO_TEST_CASE</text>
</a>
</g>
</g>
<!-- Node16&#45;&gt;Node17 -->
<g id="edge1" class="edge"><title>Node16&#45;&gt;Node17</title>
<path fill="none" stroke="midnightblue" d="M134.132,-63.2995C148.693,-65.8172 163.86,-68.4398 177.921,-70.871"/>
<polygon fill="midnightblue" stroke="midnightblue" points="134.62,-59.832 124.17,-61.5769 133.427,-66.7296 134.62,-59.832"/>
</g>
<!-- Node18 -->
<g id="node3" class="node"><title>Node18</title>
<g id="a_node3"><a xlink:href="classSeeSawN_1_1OptimisationN_1_1PDLFrameAlignmentProblemC.html#ac42852350901ed48aa3ff1e4d5fec1a9" target="_top" xlink:title="Computes the Jacobian. ">
<polygon fill="white" stroke="black" points="160,-0.5 160,-41.5 315,-41.5 315,-0.5 160,-0.5"/>
<text text-anchor="start" x="168" y="-29.5" font-family="FreeSans" font-size="10.00">SeeSawN::OptimisationN</text>
<text text-anchor="start" x="168" y="-18.5" font-family="FreeSans" font-size="10.00">::PDLFrameAlignmentProblemC</text>
<text text-anchor="middle" x="237.5" y="-7.5" font-family="FreeSans" font-size="10.00">::ComputeJacobian</text>
</a>
</g>
</g>
<!-- Node16&#45;&gt;Node18 -->
<g id="edge2" class="edge"><title>Node16&#45;&gt;Node18</title>
<path fill="none" stroke="midnightblue" d="M134.296,-38.6721C142.698,-37.2194 151.299,-35.7322 159.771,-34.2673"/>
<polygon fill="midnightblue" stroke="midnightblue" points="133.427,-35.2704 124.17,-40.4231 134.62,-42.168 133.427,-35.2704"/>
</g>
<!-- Node19 -->
<g id="node4" class="node"><title>Node19</title>
<g id="a_node4"><a xlink:href="namespaceSeeSawN_1_1UnitTestsN_1_1TestOptimisationN.html#a991c1d6380a282369cb56a6048d1a483" target="_top" xlink:title="SeeSawN::UnitTestsN\l::TestOptimisationN\l::BOOST_AUTO_TEST_SUITE_END">
<polygon fill="white" stroke="black" points="351,-0.5 351,-41.5 530,-41.5 530,-0.5 351,-0.5"/>
<text text-anchor="start" x="359" y="-29.5" font-family="FreeSans" font-size="10.00">SeeSawN::UnitTestsN</text>
<text text-anchor="start" x="359" y="-18.5" font-family="FreeSans" font-size="10.00">::TestOptimisationN</text>
<text text-anchor="middle" x="440.5" y="-7.5" font-family="FreeSans" font-size="10.00">::BOOST_AUTO_TEST_SUITE_END</text>
</a>
</g>
</g>
<!-- Node18&#45;&gt;Node19 -->
<g id="edge3" class="edge"><title>Node18&#45;&gt;Node19</title>
<path fill="none" stroke="midnightblue" d="M325.263,-21C333.691,-21 342.251,-21 350.7,-21"/>
<polygon fill="midnightblue" stroke="midnightblue" points="325.063,-17.5001 315.063,-21 325.063,-24.5001 325.063,-17.5001"/>
</g>
</g>
</svg>
