<?xml version="1.0" encoding="UTF-8" standalone="no"?>
<!DOCTYPE svg PUBLIC "-//W3C//DTD SVG 1.1//EN"
 "http://www.w3.org/Graphics/SVG/1.1/DTD/svg11.dtd">
<!-- Generated by graphviz version 2.38.0 (20140413.2041)
 -->
<!-- Title: boost::dynamic_bitset::dynamic_bitset Pages: 1 -->
<!--zoomable 113 -->
<svg id="main" version="1.1" xmlns="http://www.w3.org/2000/svg" xmlns:xlink="http://www.w3.org/1999/xlink" xml:space="preserve" onload="init(evt)">
<style type="text/css"><![CDATA[
.edge:hover path { stroke: red; }
.edge:hover polygon { stroke: red; fill: red; }
]]></style>
<script type="text/javascript"><![CDATA[
var edges = document.getElementsByTagName('g');
if (edges && edges.length) {
  for (var i=0;i<edges.length;i++) {
    if (edges[i].id.substr(0,4)=='edge') {
      edges[i].setAttribute('class','edge');
    }
  }
}
]]></script>
        <defs>
                <circle id="rim" cx="0" cy="0" r="7"/>
                <circle id="rim2" cx="0" cy="0" r="3.5"/>
                <g id="zoomPlus">
                        <use xlink:href="#rim" fill="#404040">
                                <set attributeName="fill" to="#808080" begin="zoomplus.mouseover" end="zoomplus.mouseout"/>
                        </use>
                        <path d="M-4,0h8M0,-4v8" fill="none" stroke="white" stroke-width="1.5" pointer-events="none"/>
                </g>
                <g id="zoomMin">
                        <use xlink:href="#rim" fill="#404040">
                                <set attributeName="fill" to="#808080" begin="zoomminus.mouseover" end="zoomminus.mouseout"/>
                        </use>
                        <path d="M-4,0h8" fill="none" stroke="white" stroke-width="1.5" pointer-events="none"/>
                </g>
                <g id="dirArrow">
                        <path fill="none" stroke="white" stroke-width="1.5" d="M0,-3.0v7 M-2.5,-0.5L0,-3.0L2.5,-0.5"/>
                </g>
               <g id="resetDef">
                       <use xlink:href="#rim2" fill="#404040">
                               <set attributeName="fill" to="#808080" begin="reset.mouseover" end="reset.mouseout"/>
                       </use>
               </g>
        </defs>

<script type="text/javascript">
var viewWidth = 702;
var viewHeight = 113;
var sectionId = 'dynsection-9';
</script>
<script xlink:href="svgpan.js"/>
<svg id="graph" class="graph">
<g id="viewport">
<title>boost::dynamic_bitset::dynamic_bitset</title>
<polygon fill="white" stroke="none" points="-4,4 -4,-109 698,-109 698,4 -4,4"/>
<!-- Node85 -->
<g id="node1" class="node"><title>Node85</title>
<polygon fill="#bfbfbf" stroke="black" points="0,-24.5 0,-54.5 110,-54.5 110,-24.5 0,-24.5"/>
<text text-anchor="start" x="8" y="-42.5" font-family="FreeSans" font-size="10.00">boost::dynamic_bitset</text>
<text text-anchor="middle" x="55" y="-31.5" font-family="FreeSans" font-size="10.00">::dynamic_bitset</text>
</g>
<!-- Node86 -->
<g id="node2" class="node"><title>Node86</title>
<g id="a_node2"><a xlink:href="classboost_1_1dynamic__bitset.html#ac88286a8c4edfb58f3e0f946891ba1dd" target="_top" xlink:title="boost::dynamic_bitset\l::empty">
<polygon fill="white" stroke="black" points="146,-49.5 146,-79.5 256,-79.5 256,-49.5 146,-49.5"/>
<text text-anchor="start" x="154" y="-67.5" font-family="FreeSans" font-size="10.00">boost::dynamic_bitset</text>
<text text-anchor="middle" x="201" y="-56.5" font-family="FreeSans" font-size="10.00">::empty</text>
</a>
</g>
</g>
<!-- Node85&#45;&gt;Node86 -->
<g id="edge1" class="edge"><title>Node85&#45;&gt;Node86</title>
<path fill="none" stroke="midnightblue" d="M110.03,-48.8802C118.405,-50.3341 127.126,-51.8482 135.7,-53.3367"/>
<polygon fill="midnightblue" stroke="midnightblue" points="135.216,-56.805 145.667,-55.0672 136.413,-49.9082 135.216,-56.805"/>
</g>
<!-- Node91 -->
<g id="node7" class="node"><title>Node91</title>
<g id="a_node7"><a xlink:href="classboost_1_1dynamic__bitset.html#a8e3c3db2aa0fd4f45aaae2b6b7d96ef1" target="_top" xlink:title="boost::dynamic_bitset\l::operator=">
<polygon fill="white" stroke="black" points="146,-0.5 146,-30.5 256,-30.5 256,-0.5 146,-0.5"/>
<text text-anchor="start" x="154" y="-18.5" font-family="FreeSans" font-size="10.00">boost::dynamic_bitset</text>
<text text-anchor="middle" x="201" y="-7.5" font-family="FreeSans" font-size="10.00">::operator=</text>
</a>
</g>
</g>
<!-- Node85&#45;&gt;Node91 -->
<g id="edge9" class="edge"><title>Node85&#45;&gt;Node91</title>
<path fill="none" stroke="midnightblue" d="M110.03,-30.495C118.405,-29.0992 127.126,-27.6457 135.7,-26.2167"/>
<polygon fill="midnightblue" stroke="midnightblue" points="136.379,-29.6519 145.667,-24.5555 135.228,-22.7472 136.379,-29.6519"/>
</g>
<!-- Node87 -->
<g id="node3" class="node"><title>Node87</title>
<g id="a_node3"><a xlink:href="classboost_1_1dynamic__bitset.html#a20ecab6a6b9c1e154e5def4aebc4247d" target="_top" xlink:title="boost::dynamic_bitset\l::size">
<polygon fill="white" stroke="black" points="584,-74.5 584,-104.5 694,-104.5 694,-74.5 584,-74.5"/>
<text text-anchor="start" x="592" y="-92.5" font-family="FreeSans" font-size="10.00">boost::dynamic_bitset</text>
<text text-anchor="middle" x="639" y="-81.5" font-family="FreeSans" font-size="10.00">::size</text>
</a>
</g>
</g>
<!-- Node86&#45;&gt;Node87 -->
<g id="edge2" class="edge"><title>Node86&#45;&gt;Node87</title>
<path fill="none" stroke="midnightblue" d="M250.137,-79.6165C263.555,-83.2036 278.23,-86.5515 292,-88.5 389.306,-102.269 503.551,-98.848 573.344,-94.5845"/>
<polygon fill="midnightblue" stroke="midnightblue" points="573.975,-98.0515 583.733,-93.9235 573.53,-91.0656 573.975,-98.0515"/>
</g>
<!-- Node88 -->
<g id="node4" class="node"><title>Node88</title>
<g id="a_node4"><a xlink:href="classboost_1_1dynamic__bitset.html#ab60240993da612a33a9fe920d3270eeb" target="_top" xlink:title="boost::dynamic_bitset\l::is_subset_of">
<polygon fill="white" stroke="black" points="292,-49.5 292,-79.5 402,-79.5 402,-49.5 292,-49.5"/>
<text text-anchor="start" x="300" y="-67.5" font-family="FreeSans" font-size="10.00">boost::dynamic_bitset</text>
<text text-anchor="middle" x="347" y="-56.5" font-family="FreeSans" font-size="10.00">::is_subset_of</text>
</a>
</g>
</g>
<!-- Node86&#45;&gt;Node88 -->
<g id="edge3" class="edge"><title>Node86&#45;&gt;Node88</title>
<path fill="none" stroke="midnightblue" d="M256.03,-64.5C264.314,-64.5 272.936,-64.5 281.42,-64.5"/>
<polygon fill="midnightblue" stroke="midnightblue" points="281.667,-68.0001 291.667,-64.5 281.667,-61.0001 281.667,-68.0001"/>
</g>
<!-- Node88&#45;&gt;Node87 -->
<g id="edge4" class="edge"><title>Node88&#45;&gt;Node87</title>
<path fill="none" stroke="midnightblue" d="M402.207,-69.173C450.773,-73.3598 522.079,-79.5068 573.55,-83.944"/>
<polygon fill="midnightblue" stroke="midnightblue" points="573.304,-87.4356 583.568,-84.8076 573.905,-80.4615 573.304,-87.4356"/>
</g>
<!-- Node89 -->
<g id="node5" class="node"><title>Node89</title>
<g id="a_node5"><a xlink:href="classboost_1_1dynamic__bitset.html#adfa9723501c60abf84b9e801d3cf4d1f" target="_top" xlink:title="boost::dynamic_bitset\l::num_blocks">
<polygon fill="white" stroke="black" points="584,-6.5 584,-36.5 694,-36.5 694,-6.5 584,-6.5"/>
<text text-anchor="start" x="592" y="-24.5" font-family="FreeSans" font-size="10.00">boost::dynamic_bitset</text>
<text text-anchor="middle" x="639" y="-13.5" font-family="FreeSans" font-size="10.00">::num_blocks</text>
</a>
</g>
</g>
<!-- Node88&#45;&gt;Node89 -->
<g id="edge5" class="edge"><title>Node88&#45;&gt;Node89</title>
<path fill="none" stroke="midnightblue" d="M381.257,-49.4339C388.146,-46.2207 395.334,-42.7996 402,-39.5 418.214,-31.4747 420.439,-24.8498 438,-20.5 482.337,-9.51772 533.919,-10.0863 573.592,-13.2345"/>
<polygon fill="midnightblue" stroke="midnightblue" points="573.404,-16.7312 583.67,-14.1093 574.01,-9.75746 573.404,-16.7312"/>
</g>
<!-- Node90 -->
<g id="node6" class="node"><title>Node90</title>
<g id="a_node6"><a xlink:href="classboost_1_1dynamic__bitset.html#af616fbdc0b2dc593e8259416b7d19231" target="_top" xlink:title="boost::dynamic_bitset\l::is_proper_subset_of">
<polygon fill="white" stroke="black" points="438,-30.5 438,-60.5 548,-60.5 548,-30.5 438,-30.5"/>
<text text-anchor="start" x="446" y="-48.5" font-family="FreeSans" font-size="10.00">boost::dynamic_bitset</text>
<text text-anchor="middle" x="493" y="-37.5" font-family="FreeSans" font-size="10.00">::is_proper_subset_of</text>
</a>
</g>
</g>
<!-- Node88&#45;&gt;Node90 -->
<g id="edge6" class="edge"><title>Node88&#45;&gt;Node90</title>
<path fill="none" stroke="midnightblue" d="M402.03,-57.371C410.405,-56.2661 419.126,-55.1154 427.7,-53.9841"/>
<polygon fill="midnightblue" stroke="midnightblue" points="428.211,-57.447 437.667,-52.6689 427.295,-50.5072 428.211,-57.447"/>
</g>
<!-- Node90&#45;&gt;Node87 -->
<g id="edge7" class="edge"><title>Node90&#45;&gt;Node87</title>
<path fill="none" stroke="midnightblue" d="M543.154,-60.5192C554.611,-64.0202 566.93,-67.7842 578.772,-71.4027"/>
<polygon fill="midnightblue" stroke="midnightblue" points="577.992,-74.824 588.579,-74.3991 580.038,-68.1296 577.992,-74.824"/>
</g>
<!-- Node90&#45;&gt;Node89 -->
<g id="edge8" class="edge"><title>Node90&#45;&gt;Node89</title>
<path fill="none" stroke="midnightblue" d="M548.03,-36.495C556.405,-35.0992 565.126,-33.6457 573.7,-32.2167"/>
<polygon fill="midnightblue" stroke="midnightblue" points="574.379,-35.6519 583.667,-30.5555 573.228,-28.7472 574.379,-35.6519"/>
</g>
<!-- Node92 -->
<g id="node8" class="node"><title>Node92</title>
<g id="a_node8"><a xlink:href="classboost_1_1dynamic__bitset.html#a54b534f528507c51a4b4270825956ec0" target="_top" xlink:title="boost::dynamic_bitset\l::dynamic_bitset">
<polygon fill="white" stroke="black" points="292,-0.5 292,-30.5 402,-30.5 402,-0.5 292,-0.5"/>
<text text-anchor="start" x="300" y="-18.5" font-family="FreeSans" font-size="10.00">boost::dynamic_bitset</text>
<text text-anchor="middle" x="347" y="-7.5" font-family="FreeSans" font-size="10.00">::dynamic_bitset</text>
</a>
</g>
</g>
<!-- Node91&#45;&gt;Node92 -->
<g id="edge10" class="edge"><title>Node91&#45;&gt;Node92</title>
<path fill="none" stroke="midnightblue" d="M256.03,-15.5C264.314,-15.5 272.936,-15.5 281.42,-15.5"/>
<polygon fill="midnightblue" stroke="midnightblue" points="281.667,-19.0001 291.667,-15.5 281.667,-12.0001 281.667,-19.0001"/>
</g>
</g>
</svg>
        <g id="navigator" transform="translate(0 0)" fill="#404254">
                <rect fill="#f2f5e9" fill-opacity="0.5" stroke="#606060" stroke-width=".5" x="0" y="0" width="60" height="60"/>
                <use id="zoomplus" xlink:href="#zoomPlus" x="17" y="9" onmousedown="handleZoom(evt,'in')"/>
                <use id="zoomminus" xlink:href="#zoomMin" x="42" y="9" onmousedown="handleZoom(evt,'out')"/>
                <use id="reset" xlink:href="#resetDef" x="30" y="36" onmousedown="handleReset()"/>
                <g id="arrowUp" xlink:href="#dirArrow" transform="translate(30 24)" onmousedown="handlePan(0,-1)">
                  <use xlink:href="#rim" fill="#404040">
                        <set attributeName="fill" to="#808080" begin="arrowUp.mouseover" end="arrowUp.mouseout"/>
                  </use>
                  <path fill="none" stroke="white" stroke-width="1.5" d="M0,-3.0v7 M-2.5,-0.5L0,-3.0L2.5,-0.5"/>
                </g>
                <g id="arrowRight" xlink:href="#dirArrow" transform="rotate(90) translate(36 -43)" onmousedown="handlePan(1,0)">
                  <use xlink:href="#rim" fill="#404040">
                        <set attributeName="fill" to="#808080" begin="arrowRight.mouseover" end="arrowRight.mouseout"/>
                  </use>
                  <path fill="none" stroke="white" stroke-width="1.5" d="M0,-3.0v7 M-2.5,-0.5L0,-3.0L2.5,-0.5"/>
                </g>
                <g id="arrowDown" xlink:href="#dirArrow" transform="rotate(180) translate(-30 -48)" onmousedown="handlePan(0,1)">
                  <use xlink:href="#rim" fill="#404040">
                        <set attributeName="fill" to="#808080" begin="arrowDown.mouseover" end="arrowDown.mouseout"/>
                  </use>
                  <path fill="none" stroke="white" stroke-width="1.5" d="M0,-3.0v7 M-2.5,-0.5L0,-3.0L2.5,-0.5"/>
                </g>
                <g id="arrowLeft" xlink:href="#dirArrow" transform="rotate(270) translate(-36 17)" onmousedown="handlePan(-1,0)">
                  <use xlink:href="#rim" fill="#404040">
                        <set attributeName="fill" to="#808080" begin="arrowLeft.mouseover" end="arrowLeft.mouseout"/>
                  </use>
                  <path fill="none" stroke="white" stroke-width="1.5" d="M0,-3.0v7 M-2.5,-0.5L0,-3.0L2.5,-0.5"/>
                </g>
        </g>
        <svg viewBox="0 0 15 15" width="100%" height="30px" preserveAspectRatio="xMaxYMin meet">
         <g id="arrow_out" transform="scale(0.3 0.3)">
          <a xlink:href="classboost_1_1dynamic__bitset_a068f147d773a3dddbc06a1568f40aa03_cgraph_org.svg" target="_base">
           <rect id="button" ry="5" rx="5" y="6" x="6" height="38" width="38"
                fill="#f2f5e9" fill-opacity="0.5" stroke="#606060" stroke-width="1.0"/>
           <path id="arrow"
             d="M 11.500037,31.436501 C 11.940474,20.09759 22.043105,11.32322 32.158766,21.979434 L 37.068811,17.246167 C 37.068811,17.246167 37.088388,32 37.088388,32 L 22.160133,31.978069 C 22.160133,31.978069 26.997745,27.140456 26.997745,27.140456 C 18.528582,18.264221 13.291696,25.230495 11.500037,31.436501 z"
             style="fill:#404040;"/>
          </a>
         </g>
        </svg>
</svg>
