<?xml version="1.0" encoding="UTF-8" standalone="no"?>
<!DOCTYPE svg PUBLIC "-//W3C//DTD SVG 1.1//EN"
 "http://www.w3.org/Graphics/SVG/1.1/DTD/svg11.dtd">
<!-- Generated by graphviz version 2.38.0 (20140413.2041)
 -->
<!-- Title: SeeSawN::OptimisationN::PDLOneSidedFundamentalMatrixEstimationProblemC::MakeResult Pages: 1 -->
<svg width="699pt" height="50pt"
 viewBox="0.00 0.00 699.00 50.00" xmlns="http://www.w3.org/2000/svg" xmlns:xlink="http://www.w3.org/1999/xlink">
<g id="graph0" class="graph" transform="scale(1 1) rotate(0) translate(4 46)">
<title>SeeSawN::OptimisationN::PDLOneSidedFundamentalMatrixEstimationProblemC::MakeResult</title>
<polygon fill="white" stroke="none" points="-4,4 -4,-46 695,-46 695,4 -4,4"/>
<!-- Node44 -->
<g id="node1" class="node"><title>Node44</title>
<polygon fill="#bfbfbf" stroke="black" points="0,-0.5 0,-41.5 166,-41.5 166,-0.5 0,-0.5"/>
<text text-anchor="start" x="8" y="-29.5" font-family="FreeSans" font-size="10.00">SeeSawN::OptimisationN</text>
<text text-anchor="start" x="8" y="-18.5" font-family="FreeSans" font-size="10.00">::PDLOneSidedFundamentalMatrix</text>
<text text-anchor="middle" x="83" y="-7.5" font-family="FreeSans" font-size="10.00">EstimationProblemC::MakeResult</text>
</g>
<!-- Node45 -->
<g id="node2" class="node"><title>Node45</title>
<g id="a_node2"><a xlink:href="classSeeSawN_1_1OptimisationN_1_1PDLOneSidedFundamentalMatrixEstimationProblemC.html#abbd7765df04adb7159c414098b22e064" target="_top" xlink:title="Computes the essential matrix corresponding to the parameter vector. ">
<polygon fill="white" stroke="black" points="202,-0.5 202,-41.5 375,-41.5 375,-0.5 202,-0.5"/>
<text text-anchor="start" x="210" y="-29.5" font-family="FreeSans" font-size="10.00">SeeSawN::OptimisationN</text>
<text text-anchor="start" x="210" y="-18.5" font-family="FreeSans" font-size="10.00">::PDLOneSidedFundamentalMatrix</text>
<text text-anchor="middle" x="288.5" y="-7.5" font-family="FreeSans" font-size="10.00">EstimationProblemC::MakeEssential</text>
</a>
</g>
</g>
<!-- Node44&#45;&gt;Node45 -->
<g id="edge1" class="edge"><title>Node44&#45;&gt;Node45</title>
<path fill="none" stroke="midnightblue" d="M166.185,-21C174.498,-21 182.992,-21 191.433,-21"/>
<polygon fill="midnightblue" stroke="midnightblue" points="191.688,-24.5001 201.688,-21 191.688,-17.5001 191.688,-24.5001"/>
</g>
<!-- Node46 -->
<g id="node3" class="node"><title>Node46</title>
<g id="a_node3"><a xlink:href="group__Utility.html#gac3b857ffaf1804a2ae1802cb86192903" target="_top" xlink:title="Essential matrix from relative calibration. ">
<polygon fill="white" stroke="black" points="411,-6 411,-36 524,-36 524,-6 411,-6"/>
<text text-anchor="start" x="419" y="-24" font-family="FreeSans" font-size="10.00">SeeSawN::ElementsN</text>
<text text-anchor="middle" x="467.5" y="-13" font-family="FreeSans" font-size="10.00">::ComposeEssential</text>
</a>
</g>
</g>
<!-- Node45&#45;&gt;Node46 -->
<g id="edge2" class="edge"><title>Node45&#45;&gt;Node46</title>
<path fill="none" stroke="midnightblue" d="M375.148,-21C383.806,-21 392.5,-21 400.898,-21"/>
<polygon fill="midnightblue" stroke="midnightblue" points="400.973,-24.5001 410.973,-21 400.973,-17.5001 400.973,-24.5001"/>
</g>
<!-- Node47 -->
<g id="node4" class="node"><title>Node47</title>
<g id="a_node4"><a xlink:href="namespaceSeeSawN_1_1WrappersN.html#a7a58341e8f21a5c2a3a8d55453ec473d" target="_top" xlink:title="SeeSawN::WrappersN\l::MakeCrossProductMatrix">
<polygon fill="white" stroke="black" points="560,-6 560,-36 691,-36 691,-6 560,-6"/>
<text text-anchor="start" x="568" y="-24" font-family="FreeSans" font-size="10.00">SeeSawN::WrappersN</text>
<text text-anchor="middle" x="625.5" y="-13" font-family="FreeSans" font-size="10.00">::MakeCrossProductMatrix</text>
</a>
</g>
</g>
<!-- Node46&#45;&gt;Node47 -->
<g id="edge3" class="edge"><title>Node46&#45;&gt;Node47</title>
<path fill="none" stroke="midnightblue" d="M524.379,-21C532.674,-21 541.332,-21 549.935,-21"/>
<polygon fill="midnightblue" stroke="midnightblue" points="549.983,-24.5001 559.983,-21 549.983,-17.5001 549.983,-24.5001"/>
</g>
</g>
</svg>
