<?xml version="1.0" encoding="UTF-8" standalone="no"?>
<!DOCTYPE svg PUBLIC "-//W3C//DTD SVG 1.1//EN"
 "http://www.w3.org/Graphics/SVG/1.1/DTD/svg11.dtd">
<!-- Generated by graphviz version 2.38.0 (20140413.2041)
 -->
<!-- Title: SeeSawN::OptimisationN::PDLP4PProblemC Pages: 1 -->
<!--zoomable 1604 -->
<svg id="main" version="1.1" xmlns="http://www.w3.org/2000/svg" xmlns:xlink="http://www.w3.org/1999/xlink" xml:space="preserve" onload="init(evt)">
<style type="text/css"><![CDATA[
.edge:hover path { stroke: red; }
.edge:hover polygon { stroke: red; fill: red; }
]]></style>
<script type="text/javascript"><![CDATA[
var edges = document.getElementsByTagName('g');
if (edges && edges.length) {
  for (var i=0;i<edges.length;i++) {
    if (edges[i].id.substr(0,4)=='edge') {
      edges[i].setAttribute('class','edge');
    }
  }
}
]]></script>
        <defs>
                <circle id="rim" cx="0" cy="0" r="7"/>
                <circle id="rim2" cx="0" cy="0" r="3.5"/>
                <g id="zoomPlus">
                        <use xlink:href="#rim" fill="#404040">
                                <set attributeName="fill" to="#808080" begin="zoomplus.mouseover" end="zoomplus.mouseout"/>
                        </use>
                        <path d="M-4,0h8M0,-4v8" fill="none" stroke="white" stroke-width="1.5" pointer-events="none"/>
                </g>
                <g id="zoomMin">
                        <use xlink:href="#rim" fill="#404040">
                                <set attributeName="fill" to="#808080" begin="zoomminus.mouseover" end="zoomminus.mouseout"/>
                        </use>
                        <path d="M-4,0h8" fill="none" stroke="white" stroke-width="1.5" pointer-events="none"/>
                </g>
                <g id="dirArrow">
                        <path fill="none" stroke="white" stroke-width="1.5" d="M0,-3.0v7 M-2.5,-0.5L0,-3.0L2.5,-0.5"/>
                </g>
               <g id="resetDef">
                       <use xlink:href="#rim2" fill="#404040">
                               <set attributeName="fill" to="#808080" begin="reset.mouseover" end="reset.mouseout"/>
                       </use>
               </g>
        </defs>

<script type="text/javascript">
var viewWidth = 1016;
var viewHeight = 1604;
var sectionId = 'dynsection-1';
</script>
<script xlink:href="svgpan.js"/>
<svg id="graph" class="graph">
<g id="viewport">
<title>SeeSawN::OptimisationN::PDLP4PProblemC</title>
<polygon fill="white" stroke="none" points="-4,4 -4,-1600 1012,-1600 1012,4 -4,4"/>
<!-- Node3 -->
<g id="node1" class="node"><title>Node3</title>
<polygon fill="#bfbfbf" stroke="black" points="452,-0.5 452,-145.5 619,-145.5 619,-0.5 452,-0.5"/>
<text text-anchor="start" x="460" y="-133.5" font-family="FreeSans" font-size="10.00">SeeSawN::OptimisationN</text>
<text text-anchor="middle" x="535.5" y="-122.5" font-family="FreeSans" font-size="10.00">::PDLP4PProblemC</text>
<polyline fill="none" stroke="black" points="452,-115.5 619,-115.5 "/>
<text text-anchor="middle" x="535.5" y="-103.5" font-family="FreeSans" font-size="10.00"> </text>
<polyline fill="none" stroke="black" points="452,-96.5 619,-96.5 "/>
<text text-anchor="start" x="460" y="-84.5" font-family="FreeSans" font-size="10.00">* PDLP4PProblemC()</text>
<text text-anchor="start" x="460" y="-73.5" font-family="FreeSans" font-size="10.00">* PDLP4PProblemC()</text>
<text text-anchor="start" x="460" y="-62.5" font-family="FreeSans" font-size="10.00">* ComputeJacobian()</text>
<text text-anchor="start" x="460" y="-51.5" font-family="FreeSans" font-size="10.00">* InitialEstimate()</text>
<text text-anchor="start" x="460" y="-40.5" font-family="FreeSans" font-size="10.00">* ComputeError()</text>
<text text-anchor="start" x="460" y="-29.5" font-family="FreeSans" font-size="10.00">* Update()</text>
<text text-anchor="start" x="460" y="-18.5" font-family="FreeSans" font-size="10.00">* MakeResult()</text>
<text text-anchor="start" x="460" y="-7.5" font-family="FreeSans" font-size="10.00">* ComputeRelativeModelDistance()</text>
</g>
<!-- Node4 -->
<g id="node2" class="node"><title>Node4</title>
<g id="a_node2"><a xlink:href="classSeeSawN_1_1OptimisationN_1_1PDLGeometryEstimationProblemBaseC.html" target="_top" xlink:title="{SeeSawN::OptimisationN\l::PDLGeometryEstimationProblem\lBaseC\&lt; PDLP4PProblemC, P4PSolverC \&gt;\n||+ PDLGeometryEstimationProblem\lBaseC()\l+ PDLGeometryEstimationProblem\lBaseC()\l# ComputeError()\l# ComputeJacobian()\l* result_type\l* has_normal_solver\l* has_covariance_estimator\l* has_nontrivial_update\l* observation_set_type\l* ComputeError()\l* Configure()\l* IsValid()\l* InitialEstimate()\l* Update()\land 7 more...\l* ComputeError()\l* ComputeJacobian()\l* PDLGeometryEstimationProblem\lBaseC()\l* PDLGeometryEstimationProblem\lBaseC()\l}">
<polygon fill="white" stroke="black" points="434.5,-183.5 434.5,-504.5 636.5,-504.5 636.5,-183.5 434.5,-183.5"/>
<text text-anchor="start" x="442.5" y="-492.5" font-family="FreeSans" font-size="10.00">SeeSawN::OptimisationN</text>
<text text-anchor="start" x="442.5" y="-481.5" font-family="FreeSans" font-size="10.00">::PDLGeometryEstimationProblem</text>
<text text-anchor="middle" x="535.5" y="-470.5" font-family="FreeSans" font-size="10.00">BaseC&lt; PDLP4PProblemC, P4PSolverC &gt;</text>
<polyline fill="none" stroke="black" points="434.5,-463.5 636.5,-463.5 "/>
<text text-anchor="middle" x="535.5" y="-451.5" font-family="FreeSans" font-size="10.00"> </text>
<polyline fill="none" stroke="black" points="434.5,-444.5 636.5,-444.5 "/>
<text text-anchor="start" x="442.5" y="-432.5" font-family="FreeSans" font-size="10.00">+ PDLGeometryEstimationProblem</text>
<text text-anchor="start" x="442.5" y="-421.5" font-family="FreeSans" font-size="10.00">BaseC()</text>
<text text-anchor="start" x="442.5" y="-410.5" font-family="FreeSans" font-size="10.00">+ PDLGeometryEstimationProblem</text>
<text text-anchor="start" x="442.5" y="-399.5" font-family="FreeSans" font-size="10.00">BaseC()</text>
<text text-anchor="start" x="442.5" y="-388.5" font-family="FreeSans" font-size="10.00"># ComputeError()</text>
<text text-anchor="start" x="442.5" y="-377.5" font-family="FreeSans" font-size="10.00"># ComputeJacobian()</text>
<text text-anchor="start" x="442.5" y="-366.5" font-family="FreeSans" font-size="10.00">* result_type</text>
<text text-anchor="start" x="442.5" y="-355.5" font-family="FreeSans" font-size="10.00">* has_normal_solver</text>
<text text-anchor="start" x="442.5" y="-344.5" font-family="FreeSans" font-size="10.00">* has_covariance_estimator</text>
<text text-anchor="start" x="442.5" y="-333.5" font-family="FreeSans" font-size="10.00">* has_nontrivial_update</text>
<text text-anchor="start" x="442.5" y="-322.5" font-family="FreeSans" font-size="10.00">* observation_set_type</text>
<text text-anchor="start" x="442.5" y="-311.5" font-family="FreeSans" font-size="10.00">* ComputeError()</text>
<text text-anchor="start" x="442.5" y="-300.5" font-family="FreeSans" font-size="10.00">* Configure()</text>
<text text-anchor="start" x="442.5" y="-289.5" font-family="FreeSans" font-size="10.00">* IsValid()</text>
<text text-anchor="start" x="442.5" y="-278.5" font-family="FreeSans" font-size="10.00">* InitialEstimate()</text>
<text text-anchor="start" x="442.5" y="-267.5" font-family="FreeSans" font-size="10.00">* Update()</text>
<text text-anchor="start" x="442.5" y="-256.5" font-family="FreeSans" font-size="10.00">and 7 more...</text>
<text text-anchor="start" x="442.5" y="-245.5" font-family="FreeSans" font-size="10.00">* ComputeError()</text>
<text text-anchor="start" x="442.5" y="-234.5" font-family="FreeSans" font-size="10.00">* ComputeJacobian()</text>
<text text-anchor="start" x="442.5" y="-223.5" font-family="FreeSans" font-size="10.00">* PDLGeometryEstimationProblem</text>
<text text-anchor="start" x="442.5" y="-212.5" font-family="FreeSans" font-size="10.00">BaseC()</text>
<text text-anchor="start" x="442.5" y="-201.5" font-family="FreeSans" font-size="10.00">* PDLGeometryEstimationProblem</text>
<text text-anchor="start" x="442.5" y="-190.5" font-family="FreeSans" font-size="10.00">BaseC()</text>
</a>
</g>
</g>
<!-- Node4&#45;&gt;Node3 -->
<g id="edge1" class="edge"><title>Node4&#45;&gt;Node3</title>
<path fill="none" stroke="midnightblue" d="M535.5,-173.337C535.5,-163.749 535.5,-154.418 535.5,-145.557"/>
<polygon fill="none" stroke="midnightblue" points="532,-173.413 535.5,-183.413 539,-173.413 532,-173.413"/>
</g>
<!-- Node5 -->
<g id="node3" class="node"><title>Node5</title>
<polygon fill="white" stroke="#bfbfbf" points="561,-976.5 561,-1055.5 698,-1055.5 698,-976.5 561,-976.5"/>
<text text-anchor="start" x="569" y="-1043.5" font-family="FreeSans" font-size="10.00">bimap&lt; list_of&lt; Coordinate1</text>
<text text-anchor="start" x="569" y="-1032.5" font-family="FreeSans" font-size="10.00">T &gt;, list_of&lt; Coordinate2T</text>
<text text-anchor="middle" x="629.5" y="-1021.5" font-family="FreeSans" font-size="10.00"> &gt;, left_based &gt;</text>
<polyline fill="none" stroke="#bfbfbf" points="561,-1014.5 698,-1014.5 "/>
<text text-anchor="middle" x="629.5" y="-1002.5" font-family="FreeSans" font-size="10.00"> </text>
<polyline fill="none" stroke="#bfbfbf" points="561,-995.5 698,-995.5 "/>
<text text-anchor="middle" x="629.5" y="-983.5" font-family="FreeSans" font-size="10.00"> </text>
</g>
<!-- Node5&#45;&gt;Node4 -->
<g id="edge2" class="edge"><title>Node5&#45;&gt;Node4</title>
<path fill="none" stroke="#404040" d="M624.04,-976.082C611.762,-888.571 581.352,-671.814 559.6,-516.78"/>
<polygon fill="none" stroke="#404040" points="559.586,-516.675 554.791,-511.289 557.919,-504.792 562.713,-510.178 559.586,-516.675"/>
<text text-anchor="middle" x="648.5" y="-710.5" font-family="FreeSans" font-size="10.00"> #correspondences</text>
</g>
<!-- Node13 -->
<g id="node11" class="node"><title>Node13</title>
<g id="a_node11"><a xlink:href="classSeeSawN_1_1OptimisationN_1_1PDLGeometryEstimationProblemBaseC.html" target="_top" xlink:title="Base problem class for Powell&#39;s dog leg geometry estimation problems. ">
<polygon fill="white" stroke="black" points="706.5,-585.5 706.5,-840.5 888.5,-840.5 888.5,-585.5 706.5,-585.5"/>
<text text-anchor="start" x="714.5" y="-828.5" font-family="FreeSans" font-size="10.00">SeeSawN::OptimisationN</text>
<text text-anchor="start" x="714.5" y="-817.5" font-family="FreeSans" font-size="10.00">::PDLGeometryEstimationProblem</text>
<text text-anchor="middle" x="797.5" y="-806.5" font-family="FreeSans" font-size="10.00">BaseC&lt; DerivedT, GeometrySolverT &gt;</text>
<polyline fill="none" stroke="black" points="706.5,-799.5 888.5,-799.5 "/>
<text text-anchor="middle" x="797.5" y="-787.5" font-family="FreeSans" font-size="10.00"> </text>
<polyline fill="none" stroke="black" points="706.5,-780.5 888.5,-780.5 "/>
<text text-anchor="start" x="714.5" y="-768.5" font-family="FreeSans" font-size="10.00">* ComputeError()</text>
<text text-anchor="start" x="714.5" y="-757.5" font-family="FreeSans" font-size="10.00">* ComputeJacobian()</text>
<text text-anchor="start" x="714.5" y="-746.5" font-family="FreeSans" font-size="10.00">* PDLGeometryEstimationProblem</text>
<text text-anchor="start" x="714.5" y="-735.5" font-family="FreeSans" font-size="10.00">BaseC()</text>
<text text-anchor="start" x="714.5" y="-724.5" font-family="FreeSans" font-size="10.00">* PDLGeometryEstimationProblem</text>
<text text-anchor="start" x="714.5" y="-713.5" font-family="FreeSans" font-size="10.00">BaseC()</text>
<text text-anchor="start" x="714.5" y="-702.5" font-family="FreeSans" font-size="10.00">* result_type</text>
<text text-anchor="start" x="714.5" y="-691.5" font-family="FreeSans" font-size="10.00">* has_normal_solver</text>
<text text-anchor="start" x="714.5" y="-680.5" font-family="FreeSans" font-size="10.00">* has_covariance_estimator</text>
<text text-anchor="start" x="714.5" y="-669.5" font-family="FreeSans" font-size="10.00">* has_nontrivial_update</text>
<text text-anchor="start" x="714.5" y="-658.5" font-family="FreeSans" font-size="10.00">* observation_set_type</text>
<text text-anchor="start" x="714.5" y="-647.5" font-family="FreeSans" font-size="10.00">* Configure()</text>
<text text-anchor="start" x="714.5" y="-636.5" font-family="FreeSans" font-size="10.00">* IsValid()</text>
<text text-anchor="start" x="714.5" y="-625.5" font-family="FreeSans" font-size="10.00">* InitialEstimate()</text>
<text text-anchor="start" x="714.5" y="-614.5" font-family="FreeSans" font-size="10.00">* ComputeError()</text>
<text text-anchor="start" x="714.5" y="-603.5" font-family="FreeSans" font-size="10.00">* Update()</text>
<text text-anchor="start" x="714.5" y="-592.5" font-family="FreeSans" font-size="10.00">and 7 more...</text>
</a>
</g>
</g>
<!-- Node5&#45;&gt;Node13 -->
<g id="edge14" class="edge"><title>Node5&#45;&gt;Node13</title>
<path fill="none" stroke="#404040" d="M635.238,-976.422C640.803,-946.221 651.031,-903.814 668.5,-870 677.116,-853.322 687.752,-836.813 699.191,-821.127"/>
<polygon fill="none" stroke="#404040" points="699.222,-821.086 699.61,-813.885 706.406,-811.473 706.018,-818.674 699.222,-821.086"/>
<text text-anchor="middle" x="709.5" y="-873" font-family="FreeSans" font-size="10.00"> #correspondences</text>
</g>
<!-- Node6 -->
<g id="node4" class="node"><title>Node6</title>
<polygon fill="white" stroke="#bfbfbf" points="608,-1307 608,-1364 651,-1364 651,-1307 608,-1307"/>
<text text-anchor="middle" x="629.5" y="-1352" font-family="FreeSans" font-size="10.00">bimap</text>
<polyline fill="none" stroke="#bfbfbf" points="608,-1345 651,-1345 "/>
<text text-anchor="middle" x="629.5" y="-1333" font-family="FreeSans" font-size="10.00"> </text>
<polyline fill="none" stroke="#bfbfbf" points="608,-1326 651,-1326 "/>
<text text-anchor="middle" x="629.5" y="-1314" font-family="FreeSans" font-size="10.00"> </text>
</g>
<!-- Node6&#45;&gt;Node5 -->
<g id="edge3" class="edge"><title>Node6&#45;&gt;Node5</title>
<path fill="none" stroke="orange" d="M629.5,-1296.58C629.5,-1235.77 629.5,-1117.07 629.5,-1055.75"/>
<polygon fill="orange" stroke="orange" points="626,-1296.88 629.5,-1306.88 633,-1296.88 626,-1296.88"/>
<text text-anchor="start" x="629.5" y="-1181.5" font-family="FreeSans" font-size="10.00"> &lt; list_of&lt; Coordinate1T</text>
<text text-anchor="start" x="629.5" y="-1170.5" font-family="FreeSans" font-size="10.00"> &gt;, list_of&lt; Coordinate2T</text>
<text text-anchor="middle" x="682.5" y="-1159.5" font-family="FreeSans" font-size="10.00"> &gt;, left_based &gt;</text>
</g>
<!-- Node7 -->
<g id="node5" class="node"><title>Node7</title>
<g id="a_node5"><a xlink:href="classSeeSawN_1_1GeometryN_1_1P4PSolverC.html" target="_top" xlink:title="4&#45;point pose and focal length solver ">
<polygon fill="white" stroke="black" points="325.5,-574.5 325.5,-851.5 469.5,-851.5 469.5,-574.5 325.5,-574.5"/>
<text text-anchor="start" x="333.5" y="-839.5" font-family="FreeSans" font-size="10.00">SeeSawN::GeometryN</text>
<text text-anchor="middle" x="397.5" y="-828.5" font-family="FreeSans" font-size="10.00">::P4PSolverC</text>
<polyline fill="none" stroke="black" points="325.5,-821.5 469.5,-821.5 "/>
<text text-anchor="middle" x="397.5" y="-809.5" font-family="FreeSans" font-size="10.00"> </text>
<polyline fill="none" stroke="black" points="325.5,-802.5 469.5,-802.5 "/>
<text text-anchor="start" x="333.5" y="-790.5" font-family="FreeSans" font-size="10.00">+ MakeMinimal()</text>
<text text-anchor="start" x="333.5" y="-779.5" font-family="FreeSans" font-size="10.00">+ ComputeSampleStatistics()</text>
<text text-anchor="start" x="333.5" y="-768.5" font-family="FreeSans" font-size="10.00">+ operator()()</text>
<text text-anchor="start" x="333.5" y="-757.5" font-family="FreeSans" font-size="10.00">+ ComputeDistance()</text>
<text text-anchor="start" x="333.5" y="-746.5" font-family="FreeSans" font-size="10.00">+ MakeVector()</text>
<text text-anchor="start" x="333.5" y="-735.5" font-family="FreeSans" font-size="10.00">+ MakeModel()</text>
<text text-anchor="start" x="333.5" y="-724.5" font-family="FreeSans" font-size="10.00">* ActionMatrixT</text>
<text text-anchor="start" x="333.5" y="-713.5" font-family="FreeSans" font-size="10.00">* BuildActionMatrix()</text>
<text text-anchor="start" x="333.5" y="-702.5" font-family="FreeSans" font-size="10.00">* RunP4PCore()</text>
<text text-anchor="start" x="333.5" y="-691.5" font-family="FreeSans" font-size="10.00">* ComputeLocalCoordinates()</text>
<text text-anchor="start" x="333.5" y="-680.5" font-family="FreeSans" font-size="10.00">* minimal_model_type</text>
<text text-anchor="start" x="333.5" y="-669.5" font-family="FreeSans" font-size="10.00">* uncertainty_type</text>
<text text-anchor="start" x="333.5" y="-658.5" font-family="FreeSans" font-size="10.00">* operator()()</text>
<text text-anchor="start" x="333.5" y="-647.5" font-family="FreeSans" font-size="10.00">* Cost()</text>
<text text-anchor="start" x="333.5" y="-636.5" font-family="FreeSans" font-size="10.00">* MakeMinimal()</text>
<text text-anchor="start" x="333.5" y="-625.5" font-family="FreeSans" font-size="10.00">* MakeModelFromMinimal()</text>
<text text-anchor="start" x="333.5" y="-614.5" font-family="FreeSans" font-size="10.00">* ComputeSampleStatistics()</text>
<text text-anchor="start" x="333.5" y="-603.5" font-family="FreeSans" font-size="10.00">* ComputeDistance()</text>
<text text-anchor="start" x="333.5" y="-592.5" font-family="FreeSans" font-size="10.00">* MakeVector()</text>
<text text-anchor="start" x="333.5" y="-581.5" font-family="FreeSans" font-size="10.00">* MakeModel()</text>
</a>
</g>
</g>
<!-- Node7&#45;&gt;Node4 -->
<g id="edge4" class="edge"><title>Node7&#45;&gt;Node4</title>
<path fill="none" stroke="#404040" d="M403.338,-574.476C406.398,-556.855 410.649,-539.295 416.5,-523 420.037,-513.15 424.235,-503.314 428.907,-493.607"/>
<polygon fill="none" stroke="#404040" points="428.992,-493.436 428.106,-486.28 434.372,-482.71 435.258,-489.866 428.992,-493.436"/>
<text text-anchor="middle" x="450" y="-548" font-family="FreeSans" font-size="10.00"> #solver</text>
<text text-anchor="middle" x="450" y="-537" font-family="FreeSans" font-size="10.00">#errorMetric</text>
<text text-anchor="middle" x="450" y="-526" font-family="FreeSans" font-size="10.00">#initialEstimate</text>
</g>
<!-- Node8 -->
<g id="node6" class="node"><title>Node8</title>
<g id="a_node6"><a xlink:href="classSeeSawN_1_1GeometryN_1_1GeometrySolverBaseC.html" target="_top" xlink:title="{SeeSawN::GeometryN\l::GeometrySolverBaseC\l\&lt; P4PSolverC, CameraMatrixT,\l TransferErrorH32DT, 3, 2,\l 4, false, 10, 12, 7 \&gt;\n||+ EvaluateModel()\l+ EvaluateModel()\l* coordinate_type1\l* coordinate_type2\l* model_type\l* real_type\l* error_type\l* constraint_type\l* loss_type\l* distance_type\l* GeneratorSize()\l* IsNonminimal()\land 8 more...\l}">
<polygon fill="white" stroke="black" points="185.5,-899.5 185.5,-1132.5 337.5,-1132.5 337.5,-899.5 185.5,-899.5"/>
<text text-anchor="start" x="193.5" y="-1120.5" font-family="FreeSans" font-size="10.00">SeeSawN::GeometryN</text>
<text text-anchor="start" x="193.5" y="-1109.5" font-family="FreeSans" font-size="10.00">::GeometrySolverBaseC</text>
<text text-anchor="start" x="193.5" y="-1098.5" font-family="FreeSans" font-size="10.00">&lt; P4PSolverC, CameraMatrixT,</text>
<text text-anchor="start" x="193.5" y="-1087.5" font-family="FreeSans" font-size="10.00"> TransferErrorH32DT, 3, 2,</text>
<text text-anchor="middle" x="261.5" y="-1076.5" font-family="FreeSans" font-size="10.00"> 4, false, 10, 12, 7 &gt;</text>
<polyline fill="none" stroke="black" points="185.5,-1069.5 337.5,-1069.5 "/>
<text text-anchor="middle" x="261.5" y="-1057.5" font-family="FreeSans" font-size="10.00"> </text>
<polyline fill="none" stroke="black" points="185.5,-1050.5 337.5,-1050.5 "/>
<text text-anchor="start" x="193.5" y="-1038.5" font-family="FreeSans" font-size="10.00">+ EvaluateModel()</text>
<text text-anchor="start" x="193.5" y="-1027.5" font-family="FreeSans" font-size="10.00">+ EvaluateModel()</text>
<text text-anchor="start" x="193.5" y="-1016.5" font-family="FreeSans" font-size="10.00">* coordinate_type1</text>
<text text-anchor="start" x="193.5" y="-1005.5" font-family="FreeSans" font-size="10.00">* coordinate_type2</text>
<text text-anchor="start" x="193.5" y="-994.5" font-family="FreeSans" font-size="10.00">* model_type</text>
<text text-anchor="start" x="193.5" y="-983.5" font-family="FreeSans" font-size="10.00">* real_type</text>
<text text-anchor="start" x="193.5" y="-972.5" font-family="FreeSans" font-size="10.00">* error_type</text>
<text text-anchor="start" x="193.5" y="-961.5" font-family="FreeSans" font-size="10.00">* constraint_type</text>
<text text-anchor="start" x="193.5" y="-950.5" font-family="FreeSans" font-size="10.00">* loss_type</text>
<text text-anchor="start" x="193.5" y="-939.5" font-family="FreeSans" font-size="10.00">* distance_type</text>
<text text-anchor="start" x="193.5" y="-928.5" font-family="FreeSans" font-size="10.00">* GeneratorSize()</text>
<text text-anchor="start" x="193.5" y="-917.5" font-family="FreeSans" font-size="10.00">* IsNonminimal()</text>
<text text-anchor="start" x="193.5" y="-906.5" font-family="FreeSans" font-size="10.00">and 8 more...</text>
</a>
</g>
</g>
<!-- Node8&#45;&gt;Node7 -->
<g id="edge5" class="edge"><title>Node8&#45;&gt;Node7</title>
<path fill="none" stroke="midnightblue" d="M317.865,-890.251C323.627,-877.498 329.504,-864.491 335.324,-851.61"/>
<polygon fill="none" stroke="midnightblue" points="314.62,-888.932 313.692,-899.486 320.999,-891.815 314.62,-888.932"/>
</g>
<!-- Node9 -->
<g id="node7" class="node"><title>Node9</title>
<polygon fill="white" stroke="#bfbfbf" points="330,-1307 330,-1364 469,-1364 469,-1307 330,-1307"/>
<text text-anchor="middle" x="399.5" y="-1352" font-family="FreeSans" font-size="10.00">static constexpr unsigned int</text>
<polyline fill="none" stroke="#bfbfbf" points="330,-1345 469,-1345 "/>
<text text-anchor="middle" x="399.5" y="-1333" font-family="FreeSans" font-size="10.00"> </text>
<polyline fill="none" stroke="#bfbfbf" points="330,-1326 469,-1326 "/>
<text text-anchor="middle" x="399.5" y="-1314" font-family="FreeSans" font-size="10.00"> </text>
</g>
<!-- Node9&#45;&gt;Node7 -->
<g id="edge11" class="edge"><title>Node9&#45;&gt;Node7</title>
<path fill="none" stroke="#404040" d="M399.41,-1306.63C399.164,-1230.2 398.464,-1013.02 397.983,-863.935"/>
<polygon fill="none" stroke="#404040" points="397.982,-863.528 393.963,-857.541 397.943,-851.528 401.963,-857.515 397.982,-863.528"/>
<text text-anchor="middle" x="431" y="-1024.5" font-family="FreeSans" font-size="10.00"> +iPosition</text>
<text text-anchor="middle" x="431" y="-1013.5" font-family="FreeSans" font-size="10.00">+iFocalLength</text>
<text text-anchor="middle" x="431" y="-1002.5" font-family="FreeSans" font-size="10.00">+iOrientation</text>
</g>
<!-- Node9&#45;&gt;Node8 -->
<g id="edge6" class="edge"><title>Node9&#45;&gt;Node8</title>
<path fill="none" stroke="#404040" d="M384.296,-1306.88C369.248,-1279.05 345.992,-1234.66 328.5,-1195 321.286,-1178.64 314.126,-1161.24 307.321,-1143.97"/>
<polygon fill="none" stroke="#404040" points="307.267,-1143.83 301.359,-1139.7 302.903,-1132.66 308.811,-1136.79 307.267,-1143.83"/>
<text text-anchor="middle" x="356.5" y="-1187" font-family="FreeSans" font-size="10.00"> #nDOF</text>
<text text-anchor="middle" x="356.5" y="-1176" font-family="FreeSans" font-size="10.00">#nParameter</text>
<text text-anchor="middle" x="356.5" y="-1165" font-family="FreeSans" font-size="10.00">#sGenerator</text>
<text text-anchor="middle" x="356.5" y="-1154" font-family="FreeSans" font-size="10.00">#nSolution</text>
</g>
<!-- Node10 -->
<g id="node8" class="node"><title>Node10</title>
<g id="a_node8"><a xlink:href="classbool.html" target="_top" xlink:title="{bool\n||}">
<polygon fill="white" stroke="black" points="349,-1538.5 349,-1595.5 384,-1595.5 384,-1538.5 349,-1538.5"/>
<text text-anchor="middle" x="366.5" y="-1583.5" font-family="FreeSans" font-size="10.00">bool</text>
<polyline fill="none" stroke="black" points="349,-1576.5 384,-1576.5 "/>
<text text-anchor="middle" x="366.5" y="-1564.5" font-family="FreeSans" font-size="10.00"> </text>
<polyline fill="none" stroke="black" points="349,-1557.5 384,-1557.5 "/>
<text text-anchor="middle" x="366.5" y="-1545.5" font-family="FreeSans" font-size="10.00"> </text>
</a>
</g>
</g>
<!-- Node10&#45;&gt;Node4 -->
<g id="edge12" class="edge"><title>Node10&#45;&gt;Node4</title>
<path fill="none" stroke="#404040" d="M384.118,-1554.44C409.325,-1536.87 455.103,-1500.9 477.5,-1458 502.826,-1409.49 497.5,-1391.23 497.5,-1336.5 497.5,-1336.5 497.5,-1336.5 497.5,-712 497.5,-648.044 503.28,-578.151 510.332,-516.68"/>
<polygon fill="none" stroke="#404040" points="510.362,-516.421 507.087,-509.996 511.758,-504.502 515.033,-510.927 510.362,-516.421"/>
<text text-anchor="middle" x="520" y="-1013.5" font-family="FreeSans" font-size="10.00"> #flagValid</text>
</g>
<!-- Node10&#45;&gt;Node8 -->
<g id="edge7" class="edge"><title>Node10&#45;&gt;Node8</title>
<path fill="none" stroke="#404040" d="M348.654,-1556.66C320.5,-1540.77 266.791,-1505.54 245.5,-1458 221.336,-1404.04 232.124,-1254.85 244.502,-1144.87"/>
<polygon fill="none" stroke="#404040" points="244.534,-1144.6 241.243,-1138.18 245.899,-1132.68 249.191,-1139.09 244.534,-1144.6"/>
<text text-anchor="middle" x="283" y="-1333" font-family="FreeSans" font-size="10.00"> #flagNonminimal</text>
</g>
<!-- Node11 -->
<g id="node9" class="node"><title>Node11</title>
<g id="a_node9"><a xlink:href="classSeeSawN_1_1GeometryN_1_1GeometrySolverBaseC.html" target="_top" xlink:title="Base class for geometry solvers. ">
<polygon fill="white" stroke="black" points="0,-1213.5 0,-1457.5 183,-1457.5 183,-1213.5 0,-1213.5"/>
<text text-anchor="start" x="8" y="-1445.5" font-family="FreeSans" font-size="10.00">SeeSawN::GeometryN</text>
<text text-anchor="start" x="8" y="-1434.5" font-family="FreeSans" font-size="10.00">::GeometrySolverBaseC</text>
<text text-anchor="start" x="8" y="-1423.5" font-family="FreeSans" font-size="10.00">&lt; DerivedT, ModelT, ErrorT,</text>
<text text-anchor="start" x="8" y="-1412.5" font-family="FreeSans" font-size="10.00"> DIM1, DIM2, GENERATOR_SIZE,</text>
<text text-anchor="start" x="8" y="-1401.5" font-family="FreeSans" font-size="10.00"> FLAG_NONMINIMAL, NSOLUTION,</text>
<text text-anchor="middle" x="91.5" y="-1390.5" font-family="FreeSans" font-size="10.00"> NPARAMETER, NDOF &gt;</text>
<polyline fill="none" stroke="black" points="0,-1383.5 183,-1383.5 "/>
<text text-anchor="middle" x="91.5" y="-1371.5" font-family="FreeSans" font-size="10.00"> </text>
<polyline fill="none" stroke="black" points="0,-1364.5 183,-1364.5 "/>
<text text-anchor="start" x="8" y="-1352.5" font-family="FreeSans" font-size="10.00">+ EvaluateModel()</text>
<text text-anchor="start" x="8" y="-1341.5" font-family="FreeSans" font-size="10.00">+ EvaluateModel()</text>
<text text-anchor="start" x="8" y="-1330.5" font-family="FreeSans" font-size="10.00">* coordinate_type1</text>
<text text-anchor="start" x="8" y="-1319.5" font-family="FreeSans" font-size="10.00">* coordinate_type2</text>
<text text-anchor="start" x="8" y="-1308.5" font-family="FreeSans" font-size="10.00">* model_type</text>
<text text-anchor="start" x="8" y="-1297.5" font-family="FreeSans" font-size="10.00">* real_type</text>
<text text-anchor="start" x="8" y="-1286.5" font-family="FreeSans" font-size="10.00">* error_type</text>
<text text-anchor="start" x="8" y="-1275.5" font-family="FreeSans" font-size="10.00">* constraint_type</text>
<text text-anchor="start" x="8" y="-1264.5" font-family="FreeSans" font-size="10.00">* loss_type</text>
<text text-anchor="start" x="8" y="-1253.5" font-family="FreeSans" font-size="10.00">* distance_type</text>
<text text-anchor="start" x="8" y="-1242.5" font-family="FreeSans" font-size="10.00">* GeneratorSize()</text>
<text text-anchor="start" x="8" y="-1231.5" font-family="FreeSans" font-size="10.00">* IsNonminimal()</text>
<text text-anchor="start" x="8" y="-1220.5" font-family="FreeSans" font-size="10.00">and 8 more...</text>
</a>
</g>
</g>
<!-- Node10&#45;&gt;Node11 -->
<g id="edge10" class="edge"><title>Node10&#45;&gt;Node11</title>
<path fill="none" stroke="#404040" d="M348.763,-1564.57C302.046,-1560.46 177.172,-1547.14 147.5,-1520 142.469,-1515.4 134.927,-1494.97 126.995,-1469.3"/>
<polygon fill="none" stroke="#404040" points="126.929,-1469.09 121.363,-1464.5 123.455,-1457.6 129.021,-1462.19 126.929,-1469.09"/>
<text text-anchor="middle" x="185" y="-1495.5" font-family="FreeSans" font-size="10.00"> #flagNonminimal</text>
</g>
<!-- Node10&#45;&gt;Node13 -->
<g id="edge17" class="edge"><title>Node10&#45;&gt;Node13</title>
<path fill="none" stroke="#404040" d="M384.171,-1563.36C432.765,-1555.35 570.675,-1527.47 659.5,-1458 801.357,-1347.05 844.846,-1303.95 901.5,-1133 934.217,-1034.28 927.841,-999.609 901.5,-899 897.351,-883.153 891.506,-867.231 884.68,-851.737"/>
<polygon fill="none" stroke="#404040" points="884.547,-851.447 878.411,-847.659 879.547,-840.538 885.683,-844.325 884.547,-851.447"/>
<text text-anchor="middle" x="917" y="-1170.5" font-family="FreeSans" font-size="10.00"> #flagValid</text>
</g>
<!-- Node11&#45;&gt;Node8 -->
<g id="edge8" class="edge"><title>Node11&#45;&gt;Node8</title>
<path fill="none" stroke="orange" d="M78.0697,-1202.98C80.2364,-1184.92 84.6778,-1167.07 92.5,-1151 112.081,-1110.77 150.206,-1078.9 185.296,-1056.35"/>
<polygon fill="orange" stroke="orange" points="74.5769,-1202.74 77.0929,-1213.03 81.5441,-1203.41 74.5769,-1202.74"/>
<text text-anchor="start" x="92.5" y="-1181.5" font-family="FreeSans" font-size="10.00"> &lt; P4PSolverC, CameraMatrix</text>
<text text-anchor="start" x="92.5" y="-1170.5" font-family="FreeSans" font-size="10.00">T, TransferErrorH32DT,</text>
<text text-anchor="middle" x="157.5" y="-1159.5" font-family="FreeSans" font-size="10.00"> 3, 2, 4, false, 10, 12, 7 &gt;</text>
</g>
<!-- Node12 -->
<g id="node10" class="node"><title>Node12</title>
<polygon fill="white" stroke="#bfbfbf" points="53,-1538.5 53,-1595.5 82,-1595.5 82,-1538.5 53,-1538.5"/>
<text text-anchor="middle" x="67.5" y="-1583.5" font-family="FreeSans" font-size="10.00">int</text>
<polyline fill="none" stroke="#bfbfbf" points="53,-1576.5 82,-1576.5 "/>
<text text-anchor="middle" x="67.5" y="-1564.5" font-family="FreeSans" font-size="10.00"> </text>
<polyline fill="none" stroke="#bfbfbf" points="53,-1557.5 82,-1557.5 "/>
<text text-anchor="middle" x="67.5" y="-1545.5" font-family="FreeSans" font-size="10.00"> </text>
</g>
<!-- Node12&#45;&gt;Node11 -->
<g id="edge9" class="edge"><title>Node12&#45;&gt;Node11</title>
<path fill="none" stroke="#404040" d="M66.7216,-1538.37C66.4868,-1520.54 66.6752,-1496.86 68.5,-1476 68.6802,-1473.94 68.8733,-1471.87 69.0785,-1469.78"/>
<polygon fill="none" stroke="#404040" points="69.0928,-1469.65 65.758,-1463.25 70.3773,-1457.71 73.7121,-1464.11 69.0928,-1469.65"/>
<text text-anchor="middle" x="96.5" y="-1512" font-family="FreeSans" font-size="10.00"> #nDOF</text>
<text text-anchor="middle" x="96.5" y="-1501" font-family="FreeSans" font-size="10.00">#nParameter</text>
<text text-anchor="middle" x="96.5" y="-1490" font-family="FreeSans" font-size="10.00">#sGenerator</text>
<text text-anchor="middle" x="96.5" y="-1479" font-family="FreeSans" font-size="10.00">#nSolution</text>
</g>
<!-- Node13&#45;&gt;Node4 -->
<g id="edge13" class="edge"><title>Node13&#45;&gt;Node4</title>
<path fill="none" stroke="orange" d="M701.257,-577.187C680.233,-547.737 657.922,-516.484 636.71,-486.772"/>
<polygon fill="orange" stroke="orange" points="698.492,-579.337 707.151,-585.443 704.189,-575.27 698.492,-579.337"/>
<text text-anchor="middle" x="762" y="-537" font-family="FreeSans" font-size="10.00"> &lt; PDLP4PProblemC, P4PSolverC &gt;</text>
</g>
<!-- Node14 -->
<g id="node12" class="node"><title>Node14</title>
<polygon fill="white" stroke="#bfbfbf" points="949,-987.5 949,-1044.5 1008,-1044.5 1008,-987.5 949,-987.5"/>
<text text-anchor="middle" x="978.5" y="-1032.5" font-family="FreeSans" font-size="10.00">error_type</text>
<polyline fill="none" stroke="#bfbfbf" points="949,-1025.5 1008,-1025.5 "/>
<text text-anchor="middle" x="978.5" y="-1013.5" font-family="FreeSans" font-size="10.00"> </text>
<polyline fill="none" stroke="#bfbfbf" points="949,-1006.5 1008,-1006.5 "/>
<text text-anchor="middle" x="978.5" y="-994.5" font-family="FreeSans" font-size="10.00"> </text>
</g>
<!-- Node14&#45;&gt;Node13 -->
<g id="edge15" class="edge"><title>Node14&#45;&gt;Node13</title>
<path fill="none" stroke="#404040" d="M973.772,-987.439C967.78,-957.204 955.6,-907.933 934.5,-870 923.856,-850.864 910.548,-832.025 896.441,-814.42"/>
<polygon fill="none" stroke="#404040" points="896.14,-814.054 889.243,-811.949 888.533,-804.773 895.431,-806.877 896.14,-814.054"/>
<text text-anchor="middle" x="967" y="-873" font-family="FreeSans" font-size="10.00"> #errorMetric</text>
</g>
<!-- Node15 -->
<g id="node13" class="node"><title>Node15</title>
<polygon fill="white" stroke="#bfbfbf" points="716.5,-987.5 716.5,-1044.5 782.5,-1044.5 782.5,-987.5 716.5,-987.5"/>
<text text-anchor="middle" x="749.5" y="-1032.5" font-family="FreeSans" font-size="10.00">model_type</text>
<polyline fill="none" stroke="#bfbfbf" points="716.5,-1025.5 782.5,-1025.5 "/>
<text text-anchor="middle" x="749.5" y="-1013.5" font-family="FreeSans" font-size="10.00"> </text>
<polyline fill="none" stroke="#bfbfbf" points="716.5,-1006.5 782.5,-1006.5 "/>
<text text-anchor="middle" x="749.5" y="-994.5" font-family="FreeSans" font-size="10.00"> </text>
</g>
<!-- Node15&#45;&gt;Node13 -->
<g id="edge16" class="edge"><title>Node15&#45;&gt;Node13</title>
<path fill="none" stroke="#404040" d="M748.833,-987.297C748.549,-957.986 749.294,-910.469 755.5,-870 756.371,-864.321 757.371,-858.552 758.475,-852.744"/>
<polygon fill="none" stroke="#404040" points="758.514,-852.548 755.774,-845.878 760.877,-840.783 763.617,-847.453 758.514,-852.548"/>
<text text-anchor="middle" x="790" y="-873" font-family="FreeSans" font-size="10.00"> #initialEstimate</text>
</g>
<!-- Node16 -->
<g id="node14" class="node"><title>Node16</title>
<polygon fill="white" stroke="#bfbfbf" points="800.5,-987.5 800.5,-1044.5 892.5,-1044.5 892.5,-987.5 800.5,-987.5"/>
<text text-anchor="middle" x="846.5" y="-1032.5" font-family="FreeSans" font-size="10.00">GeometrySolverT</text>
<polyline fill="none" stroke="#bfbfbf" points="800.5,-1025.5 892.5,-1025.5 "/>
<text text-anchor="middle" x="846.5" y="-1013.5" font-family="FreeSans" font-size="10.00"> </text>
<polyline fill="none" stroke="#bfbfbf" points="800.5,-1006.5 892.5,-1006.5 "/>
<text text-anchor="middle" x="846.5" y="-994.5" font-family="FreeSans" font-size="10.00"> </text>
</g>
<!-- Node16&#45;&gt;Node13 -->
<g id="edge18" class="edge"><title>Node16&#45;&gt;Node13</title>
<path fill="none" stroke="#404040" d="M842.494,-987.446C838.209,-958.257 831.132,-910.84 824.5,-870 823.584,-864.362 822.64,-858.611 821.676,-852.803"/>
<polygon fill="none" stroke="#404040" points="821.652,-852.656 816.719,-847.396 819.677,-840.819 824.61,-846.079 821.652,-852.656"/>
<text text-anchor="middle" x="842.5" y="-873" font-family="FreeSans" font-size="10.00"> #solver</text>
</g>
</g>
</svg>
        <g id="navigator" transform="translate(0 0)" fill="#404254">
                <rect fill="#f2f5e9" fill-opacity="0.5" stroke="#606060" stroke-width=".5" x="0" y="0" width="60" height="60"/>
                <use id="zoomplus" xlink:href="#zoomPlus" x="17" y="9" onmousedown="handleZoom(evt,'in')"/>
                <use id="zoomminus" xlink:href="#zoomMin" x="42" y="9" onmousedown="handleZoom(evt,'out')"/>
                <use id="reset" xlink:href="#resetDef" x="30" y="36" onmousedown="handleReset()"/>
                <g id="arrowUp" xlink:href="#dirArrow" transform="translate(30 24)" onmousedown="handlePan(0,-1)">
                  <use xlink:href="#rim" fill="#404040">
                        <set attributeName="fill" to="#808080" begin="arrowUp.mouseover" end="arrowUp.mouseout"/>
                  </use>
                  <path fill="none" stroke="white" stroke-width="1.5" d="M0,-3.0v7 M-2.5,-0.5L0,-3.0L2.5,-0.5"/>
                </g>
                <g id="arrowRight" xlink:href="#dirArrow" transform="rotate(90) translate(36 -43)" onmousedown="handlePan(1,0)">
                  <use xlink:href="#rim" fill="#404040">
                        <set attributeName="fill" to="#808080" begin="arrowRight.mouseover" end="arrowRight.mouseout"/>
                  </use>
                  <path fill="none" stroke="white" stroke-width="1.5" d="M0,-3.0v7 M-2.5,-0.5L0,-3.0L2.5,-0.5"/>
                </g>
                <g id="arrowDown" xlink:href="#dirArrow" transform="rotate(180) translate(-30 -48)" onmousedown="handlePan(0,1)">
                  <use xlink:href="#rim" fill="#404040">
                        <set attributeName="fill" to="#808080" begin="arrowDown.mouseover" end="arrowDown.mouseout"/>
                  </use>
                  <path fill="none" stroke="white" stroke-width="1.5" d="M0,-3.0v7 M-2.5,-0.5L0,-3.0L2.5,-0.5"/>
                </g>
                <g id="arrowLeft" xlink:href="#dirArrow" transform="rotate(270) translate(-36 17)" onmousedown="handlePan(-1,0)">
                  <use xlink:href="#rim" fill="#404040">
                        <set attributeName="fill" to="#808080" begin="arrowLeft.mouseover" end="arrowLeft.mouseout"/>
                  </use>
                  <path fill="none" stroke="white" stroke-width="1.5" d="M0,-3.0v7 M-2.5,-0.5L0,-3.0L2.5,-0.5"/>
                </g>
        </g>
        <svg viewBox="0 0 15 15" width="100%" height="30px" preserveAspectRatio="xMaxYMin meet">
         <g id="arrow_out" transform="scale(0.3 0.3)">
          <a xlink:href="classSeeSawN_1_1OptimisationN_1_1PDLP4PProblemC__coll__graph_org.svg" target="_base">
           <rect id="button" ry="5" rx="5" y="6" x="6" height="38" width="38"
                fill="#f2f5e9" fill-opacity="0.5" stroke="#606060" stroke-width="1.0"/>
           <path id="arrow"
             d="M 11.500037,31.436501 C 11.940474,20.09759 22.043105,11.32322 32.158766,21.979434 L 37.068811,17.246167 C 37.068811,17.246167 37.088388,32 37.088388,32 L 22.160133,31.978069 C 22.160133,31.978069 26.997745,27.140456 26.997745,27.140456 C 18.528582,18.264221 13.291696,25.230495 11.500037,31.436501 z"
             style="fill:#404040;"/>
          </a>
         </g>
        </svg>
</svg>
