<?xml version="1.0" encoding="UTF-8" standalone="no"?>
<!DOCTYPE svg PUBLIC "-//W3C//DTD SVG 1.1//EN"
 "http://www.w3.org/Graphics/SVG/1.1/DTD/svg11.dtd">
<!-- Generated by graphviz version 2.38.0 (20140413.2041)
 -->
<!-- Title: SeeSawN::ION::CameraIOC::WriteUniSFile Pages: 1 -->
<!--zoomable 117 -->
<svg id="main" version="1.1" xmlns="http://www.w3.org/2000/svg" xmlns:xlink="http://www.w3.org/1999/xlink" xml:space="preserve" onload="init(evt)">
<style type="text/css"><![CDATA[
.edge:hover path { stroke: red; }
.edge:hover polygon { stroke: red; fill: red; }
]]></style>
<script type="text/javascript"><![CDATA[
var edges = document.getElementsByTagName('g');
if (edges && edges.length) {
  for (var i=0;i<edges.length;i++) {
    if (edges[i].id.substr(0,4)=='edge') {
      edges[i].setAttribute('class','edge');
    }
  }
}
]]></script>
        <defs>
                <circle id="rim" cx="0" cy="0" r="7"/>
                <circle id="rim2" cx="0" cy="0" r="3.5"/>
                <g id="zoomPlus">
                        <use xlink:href="#rim" fill="#404040">
                                <set attributeName="fill" to="#808080" begin="zoomplus.mouseover" end="zoomplus.mouseout"/>
                        </use>
                        <path d="M-4,0h8M0,-4v8" fill="none" stroke="white" stroke-width="1.5" pointer-events="none"/>
                </g>
                <g id="zoomMin">
                        <use xlink:href="#rim" fill="#404040">
                                <set attributeName="fill" to="#808080" begin="zoomminus.mouseover" end="zoomminus.mouseout"/>
                        </use>
                        <path d="M-4,0h8" fill="none" stroke="white" stroke-width="1.5" pointer-events="none"/>
                </g>
                <g id="dirArrow">
                        <path fill="none" stroke="white" stroke-width="1.5" d="M0,-3.0v7 M-2.5,-0.5L0,-3.0L2.5,-0.5"/>
                </g>
               <g id="resetDef">
                       <use xlink:href="#rim2" fill="#404040">
                               <set attributeName="fill" to="#808080" begin="reset.mouseover" end="reset.mouseout"/>
                       </use>
               </g>
        </defs>

<script type="text/javascript">
var viewWidth = 544;
var viewHeight = 117;
var sectionId = 'dynsection-8';
</script>
<script xlink:href="svgpan.js"/>
<svg id="graph" class="graph">
<g id="viewport">
<title>SeeSawN::ION::CameraIOC::WriteUniSFile</title>
<polygon fill="white" stroke="none" points="-4,4 -4,-113 540,-113 540,4 -4,4"/>
<!-- Node40 -->
<g id="node1" class="node"><title>Node40</title>
<polygon fill="#bfbfbf" stroke="black" points="0,-36 0,-66 139,-66 139,-36 0,-36"/>
<text text-anchor="start" x="8" y="-54" font-family="FreeSans" font-size="10.00">SeeSawN::ION::CameraIOC</text>
<text text-anchor="middle" x="69.5" y="-43" font-family="FreeSans" font-size="10.00">::WriteUniSFile</text>
</g>
<!-- Node41 -->
<g id="node2" class="node"><title>Node41</title>
<g id="a_node2"><a xlink:href="namespaceSeeSawN_1_1UnitTestsN_1_1TestION.html#aa40e7feb823ba1974d3ba7eb85f46c60" target="_top" xlink:title="SeeSawN::UnitTestsN\l::TestION::BOOST_AUTO\l_TEST_CASE">
<polygon fill="white" stroke="black" points="377.5,-67.5 377.5,-108.5 508.5,-108.5 508.5,-67.5 377.5,-67.5"/>
<text text-anchor="start" x="385.5" y="-96.5" font-family="FreeSans" font-size="10.00">SeeSawN::UnitTestsN</text>
<text text-anchor="start" x="385.5" y="-85.5" font-family="FreeSans" font-size="10.00">::TestION::BOOST_AUTO</text>
<text text-anchor="middle" x="443" y="-74.5" font-family="FreeSans" font-size="10.00">_TEST_CASE</text>
</a>
</g>
</g>
<!-- Node40&#45;&gt;Node41 -->
<g id="edge1" class="edge"><title>Node40&#45;&gt;Node41</title>
<path fill="none" stroke="midnightblue" d="M137.474,-68.2262C149.88,-70.89 162.778,-73.3125 175,-75 243.615,-84.4735 322.976,-87.3194 377.232,-88.0456"/>
<polygon fill="midnightblue" stroke="midnightblue" points="138.174,-64.7965 127.654,-66.0476 136.658,-71.6304 138.174,-64.7965"/>
</g>
<!-- Node42 -->
<g id="node3" class="node"><title>Node42</title>
<g id="a_node3"><a xlink:href="classSeeSawN_1_1ION_1_1CameraIOC.html#a6e4493b5322019254901653e81ee0be1" target="_top" xlink:title="Reads a UniS calibration file. ">
<polygon fill="white" stroke="black" points="175,-36 175,-66 314,-66 314,-36 175,-36"/>
<text text-anchor="start" x="183" y="-54" font-family="FreeSans" font-size="10.00">SeeSawN::ION::CameraIOC</text>
<text text-anchor="middle" x="244.5" y="-43" font-family="FreeSans" font-size="10.00">::ReadUniSFile</text>
</a>
</g>
</g>
<!-- Node40&#45;&gt;Node42 -->
<g id="edge2" class="edge"><title>Node40&#45;&gt;Node42</title>
<path fill="none" stroke="midnightblue" d="M149.594,-51C158.031,-51 166.563,-51 174.866,-51"/>
<polygon fill="midnightblue" stroke="midnightblue" points="149.371,-47.5001 139.371,-51 149.371,-54.5001 149.371,-47.5001"/>
</g>
<!-- Node43 -->
<g id="node4" class="node"><title>Node43</title>
<g id="a_node4"><a xlink:href="classSeeSawN_1_1UtilCameraConverterN_1_1UtilCameraConverterImplementationC.html#a584dffd82ccb693f58c03f7cece7b9f0" target="_top" xlink:title="Runs the application. ">
<polygon fill="white" stroke="black" points="350,-0.5 350,-41.5 536,-41.5 536,-0.5 350,-0.5"/>
<text text-anchor="start" x="358" y="-29.5" font-family="FreeSans" font-size="10.00">SeeSawN::UtilCameraConverter</text>
<text text-anchor="start" x="358" y="-18.5" font-family="FreeSans" font-size="10.00">N::UtilCameraConverterImplementation</text>
<text text-anchor="middle" x="443" y="-7.5" font-family="FreeSans" font-size="10.00">C::Run</text>
</a>
</g>
</g>
<!-- Node40&#45;&gt;Node43 -->
<g id="edge5" class="edge"><title>Node40&#45;&gt;Node43</title>
<path fill="none" stroke="midnightblue" d="M133.296,-33.6584C146.943,-30.5422 161.375,-27.7366 175,-26 232.833,-18.6289 298.273,-17.2928 349.893,-17.8415"/>
<polygon fill="midnightblue" stroke="midnightblue" points="132.445,-30.263 123.52,-35.9715 134.057,-37.0749 132.445,-30.263"/>
</g>
<!-- Node42&#45;&gt;Node41 -->
<g id="edge3" class="edge"><title>Node42&#45;&gt;Node41</title>
<path fill="none" stroke="midnightblue" d="M324.438,-65.8636C341.98,-69.1667 360.377,-72.6308 377.271,-75.8119"/>
<polygon fill="midnightblue" stroke="midnightblue" points="324.701,-62.3518 314.226,-63.9408 323.406,-69.2309 324.701,-62.3518"/>
</g>
<!-- Node42&#45;&gt;Node43 -->
<g id="edge4" class="edge"><title>Node42&#45;&gt;Node43</title>
<path fill="none" stroke="midnightblue" d="M324.34,-38.9634C332.725,-37.6832 341.307,-36.373 349.827,-35.0722"/>
<polygon fill="midnightblue" stroke="midnightblue" points="323.583,-35.5382 314.226,-40.5075 324.64,-42.4581 323.583,-35.5382"/>
</g>
</g>
</svg>
        <g id="navigator" transform="translate(0 0)" fill="#404254">
                <rect fill="#f2f5e9" fill-opacity="0.5" stroke="#606060" stroke-width=".5" x="0" y="0" width="60" height="60"/>
                <use id="zoomplus" xlink:href="#zoomPlus" x="17" y="9" onmousedown="handleZoom(evt,'in')"/>
                <use id="zoomminus" xlink:href="#zoomMin" x="42" y="9" onmousedown="handleZoom(evt,'out')"/>
                <use id="reset" xlink:href="#resetDef" x="30" y="36" onmousedown="handleReset()"/>
                <g id="arrowUp" xlink:href="#dirArrow" transform="translate(30 24)" onmousedown="handlePan(0,-1)">
                  <use xlink:href="#rim" fill="#404040">
                        <set attributeName="fill" to="#808080" begin="arrowUp.mouseover" end="arrowUp.mouseout"/>
                  </use>
                  <path fill="none" stroke="white" stroke-width="1.5" d="M0,-3.0v7 M-2.5,-0.5L0,-3.0L2.5,-0.5"/>
                </g>
                <g id="arrowRight" xlink:href="#dirArrow" transform="rotate(90) translate(36 -43)" onmousedown="handlePan(1,0)">
                  <use xlink:href="#rim" fill="#404040">
                        <set attributeName="fill" to="#808080" begin="arrowRight.mouseover" end="arrowRight.mouseout"/>
                  </use>
                  <path fill="none" stroke="white" stroke-width="1.5" d="M0,-3.0v7 M-2.5,-0.5L0,-3.0L2.5,-0.5"/>
                </g>
                <g id="arrowDown" xlink:href="#dirArrow" transform="rotate(180) translate(-30 -48)" onmousedown="handlePan(0,1)">
                  <use xlink:href="#rim" fill="#404040">
                        <set attributeName="fill" to="#808080" begin="arrowDown.mouseover" end="arrowDown.mouseout"/>
                  </use>
                  <path fill="none" stroke="white" stroke-width="1.5" d="M0,-3.0v7 M-2.5,-0.5L0,-3.0L2.5,-0.5"/>
                </g>
                <g id="arrowLeft" xlink:href="#dirArrow" transform="rotate(270) translate(-36 17)" onmousedown="handlePan(-1,0)">
                  <use xlink:href="#rim" fill="#404040">
                        <set attributeName="fill" to="#808080" begin="arrowLeft.mouseover" end="arrowLeft.mouseout"/>
                  </use>
                  <path fill="none" stroke="white" stroke-width="1.5" d="M0,-3.0v7 M-2.5,-0.5L0,-3.0L2.5,-0.5"/>
                </g>
        </g>
        <svg viewBox="0 0 15 15" width="100%" height="30px" preserveAspectRatio="xMaxYMin meet">
         <g id="arrow_out" transform="scale(0.3 0.3)">
          <a xlink:href="classSeeSawN_1_1ION_1_1CameraIOC_a93013cfa209cc5989572d6cdf246d23c_icgraph_org.svg" target="_base">
           <rect id="button" ry="5" rx="5" y="6" x="6" height="38" width="38"
                fill="#f2f5e9" fill-opacity="0.5" stroke="#606060" stroke-width="1.0"/>
           <path id="arrow"
             d="M 11.500037,31.436501 C 11.940474,20.09759 22.043105,11.32322 32.158766,21.979434 L 37.068811,17.246167 C 37.068811,17.246167 37.088388,32 37.088388,32 L 22.160133,31.978069 C 22.160133,31.978069 26.997745,27.140456 26.997745,27.140456 C 18.528582,18.264221 13.291696,25.230495 11.500037,31.436501 z"
             style="fill:#404040;"/>
          </a>
         </g>
        </svg>
</svg>
