<?xml version="1.0" encoding="UTF-8" standalone="no"?>
<!DOCTYPE svg PUBLIC "-//W3C//DTD SVG 1.1//EN"
 "http://www.w3.org/Graphics/SVG/1.1/DTD/svg11.dtd">
<!-- Generated by graphviz version 2.38.0 (20140413.2041)
 -->
<!-- Title: SeeSawN::GeometryN::P2PfSolverC::Cost Pages: 1 -->
<!--zoomable 215 -->
<svg id="main" version="1.1" xmlns="http://www.w3.org/2000/svg" xmlns:xlink="http://www.w3.org/1999/xlink" xml:space="preserve" onload="init(evt)">
<style type="text/css"><![CDATA[
.edge:hover path { stroke: red; }
.edge:hover polygon { stroke: red; fill: red; }
]]></style>
<script type="text/javascript"><![CDATA[
var edges = document.getElementsByTagName('g');
if (edges && edges.length) {
  for (var i=0;i<edges.length;i++) {
    if (edges[i].id.substr(0,4)=='edge') {
      edges[i].setAttribute('class','edge');
    }
  }
}
]]></script>
        <defs>
                <circle id="rim" cx="0" cy="0" r="7"/>
                <circle id="rim2" cx="0" cy="0" r="3.5"/>
                <g id="zoomPlus">
                        <use xlink:href="#rim" fill="#404040">
                                <set attributeName="fill" to="#808080" begin="zoomplus.mouseover" end="zoomplus.mouseout"/>
                        </use>
                        <path d="M-4,0h8M0,-4v8" fill="none" stroke="white" stroke-width="1.5" pointer-events="none"/>
                </g>
                <g id="zoomMin">
                        <use xlink:href="#rim" fill="#404040">
                                <set attributeName="fill" to="#808080" begin="zoomminus.mouseover" end="zoomminus.mouseout"/>
                        </use>
                        <path d="M-4,0h8" fill="none" stroke="white" stroke-width="1.5" pointer-events="none"/>
                </g>
                <g id="dirArrow">
                        <path fill="none" stroke="white" stroke-width="1.5" d="M0,-3.0v7 M-2.5,-0.5L0,-3.0L2.5,-0.5"/>
                </g>
               <g id="resetDef">
                       <use xlink:href="#rim2" fill="#404040">
                               <set attributeName="fill" to="#808080" begin="reset.mouseover" end="reset.mouseout"/>
                       </use>
               </g>
        </defs>

<script type="text/javascript">
var viewWidth = 610;
var viewHeight = 215;
var sectionId = 'dynsection-5';
</script>
<script xlink:href="svgpan.js"/>
<svg id="graph" class="graph">
<g id="viewport">
<title>SeeSawN::GeometryN::P2PfSolverC::Cost</title>
<polygon fill="white" stroke="none" points="-4,4 -4,-210.5 606,-210.5 606,4 -4,4"/>
<!-- Node14 -->
<g id="node1" class="node"><title>Node14</title>
<polygon fill="#bfbfbf" stroke="black" points="0,-66 0,-96 115,-96 115,-66 0,-66"/>
<text text-anchor="start" x="8" y="-84" font-family="FreeSans" font-size="10.00">SeeSawN::GeometryN</text>
<text text-anchor="middle" x="57.5" y="-73" font-family="FreeSans" font-size="10.00">::P2PfSolverC::Cost</text>
</g>
<!-- Node15 -->
<g id="node2" class="node"><title>Node15</title>
<g id="a_node2"><a xlink:href="classSeeSawN_1_1GeometryN_1_1P2PSolverC.html#ab0a7b49c22b1bc35b59b92d0a3de7c1a" target="_top" xlink:title="Computational cost of the solver. ">
<polygon fill="white" stroke="black" points="151,-66 151,-96 266,-96 266,-66 151,-66"/>
<text text-anchor="start" x="159" y="-84" font-family="FreeSans" font-size="10.00">SeeSawN::GeometryN</text>
<text text-anchor="middle" x="208.5" y="-73" font-family="FreeSans" font-size="10.00">::P2PSolverC::Cost</text>
</a>
</g>
</g>
<!-- Node14&#45;&gt;Node15 -->
<g id="edge1" class="edge"><title>Node14&#45;&gt;Node15</title>
<path fill="none" stroke="midnightblue" d="M115.256,-81C123.558,-81 132.173,-81 140.654,-81"/>
<polygon fill="midnightblue" stroke="midnightblue" points="140.902,-84.5001 150.902,-81 140.902,-77.5001 140.902,-84.5001"/>
</g>
<!-- Node16 -->
<g id="node3" class="node"><title>Node16</title>
<g id="a_node3"><a xlink:href="classSeeSawN_1_1GeometryN_1_1Rotation3DSolverC.html#ae4e92f0a969e298989796c86b0742a6e" target="_top" xlink:title="Computational cost of the solver. ">
<polygon fill="white" stroke="black" points="302,-121 302,-151 430,-151 430,-121 302,-121"/>
<text text-anchor="start" x="310" y="-139" font-family="FreeSans" font-size="10.00">SeeSawN::GeometryN</text>
<text text-anchor="middle" x="366" y="-128" font-family="FreeSans" font-size="10.00">::Rotation3DSolverC::Cost</text>
</a>
</g>
</g>
<!-- Node15&#45;&gt;Node16 -->
<g id="edge2" class="edge"><title>Node15&#45;&gt;Node16</title>
<path fill="none" stroke="midnightblue" d="M251.991,-96.029C270.847,-102.698 293.213,-110.609 313.051,-117.626"/>
<polygon fill="midnightblue" stroke="midnightblue" points="311.966,-120.954 322.56,-120.989 314.3,-114.355 311.966,-120.954"/>
</g>
<!-- Node20 -->
<g id="node7" class="node"><title>Node20</title>
<g id="a_node7"><a xlink:href="classSeeSawN_1_1NumericN_1_1ComplexityEstimatorC.html#aef84e97a1c644a791d80e862a4866bd3" target="_top" xlink:title="Estimates the cost for . ">
<polygon fill="white" stroke="black" points="309,-60.5 309,-101.5 423,-101.5 423,-60.5 309,-60.5"/>
<text text-anchor="start" x="317" y="-89.5" font-family="FreeSans" font-size="10.00">SeeSawN::NumericN::</text>
<text text-anchor="start" x="317" y="-78.5" font-family="FreeSans" font-size="10.00">ComplexityEstimatorC</text>
<text text-anchor="middle" x="366" y="-67.5" font-family="FreeSans" font-size="10.00">::L2Norm</text>
</a>
</g>
</g>
<!-- Node15&#45;&gt;Node20 -->
<g id="edge6" class="edge"><title>Node15&#45;&gt;Node20</title>
<path fill="none" stroke="midnightblue" d="M266.079,-81C276.674,-81 287.837,-81 298.695,-81"/>
<polygon fill="midnightblue" stroke="midnightblue" points="298.984,-84.5001 308.984,-81 298.984,-77.5001 298.984,-84.5001"/>
</g>
<!-- Node21 -->
<g id="node8" class="node"><title>Node21</title>
<g id="a_node8"><a xlink:href="classSeeSawN_1_1NumericN_1_1ComplexityEstimatorC.html#a5837606cc6c79309f89a9e41034914ed" target="_top" xlink:title="Estimates the cost for . ">
<polygon fill="white" stroke="black" points="309,-0.5 309,-41.5 423,-41.5 423,-0.5 309,-0.5"/>
<text text-anchor="start" x="317" y="-29.5" font-family="FreeSans" font-size="10.00">SeeSawN::NumericN::</text>
<text text-anchor="start" x="317" y="-18.5" font-family="FreeSans" font-size="10.00">ComplexityEstimatorC</text>
<text text-anchor="middle" x="366" y="-7.5" font-family="FreeSans" font-size="10.00">::VectorScale</text>
</a>
</g>
</g>
<!-- Node15&#45;&gt;Node21 -->
<g id="edge7" class="edge"><title>Node15&#45;&gt;Node21</title>
<path fill="none" stroke="midnightblue" d="M248.739,-65.8595C264.982,-59.5922 284.225,-52.1673 302.332,-45.1805"/>
<polygon fill="midnightblue" stroke="midnightblue" points="303.606,-48.4404 311.676,-41.5751 301.087,-41.9097 303.606,-48.4404"/>
</g>
<!-- Node17 -->
<g id="node4" class="node"><title>Node17</title>
<g id="a_node4"><a xlink:href="classSeeSawN_1_1NumericN_1_1ComplexityEstimatorC.html#aed4f57d872fe256473e8a413cd8b8682" target="_top" xlink:title="Estimates the cost for eigenvalue decomposition. ">
<polygon fill="white" stroke="black" points="466,-176 466,-206 602,-206 602,-176 466,-176"/>
<text text-anchor="start" x="474" y="-194" font-family="FreeSans" font-size="10.00">SeeSawN::NumericN::</text>
<text text-anchor="middle" x="534" y="-183" font-family="FreeSans" font-size="10.00">ComplexityEstimatorC::EVD</text>
</a>
</g>
</g>
<!-- Node16&#45;&gt;Node17 -->
<g id="edge3" class="edge"><title>Node16&#45;&gt;Node17</title>
<path fill="none" stroke="midnightblue" d="M412.36,-151.029C432.672,-157.759 456.8,-165.753 478.12,-172.817"/>
<polygon fill="midnightblue" stroke="midnightblue" points="477.101,-176.166 487.695,-175.989 479.303,-169.522 477.101,-176.166"/>
</g>
<!-- Node18 -->
<g id="node5" class="node"><title>Node18</title>
<g id="a_node5"><a xlink:href="classSeeSawN_1_1NumericN_1_1ComplexityEstimatorC.html#a84eb6b555480e3d2866c59dc429d5885" target="_top" xlink:title="Estimates the cost for . ">
<polygon fill="white" stroke="black" points="477,-115.5 477,-156.5 591,-156.5 591,-115.5 477,-115.5"/>
<text text-anchor="start" x="485" y="-144.5" font-family="FreeSans" font-size="10.00">SeeSawN::NumericN::</text>
<text text-anchor="start" x="485" y="-133.5" font-family="FreeSans" font-size="10.00">ComplexityEstimatorC</text>
<text text-anchor="middle" x="534" y="-122.5" font-family="FreeSans" font-size="10.00">::MatrixAdd</text>
</a>
</g>
</g>
<!-- Node16&#45;&gt;Node18 -->
<g id="edge4" class="edge"><title>Node16&#45;&gt;Node18</title>
<path fill="none" stroke="midnightblue" d="M430.231,-136C442.066,-136 454.469,-136 466.402,-136"/>
<polygon fill="midnightblue" stroke="midnightblue" points="466.741,-139.5 476.741,-136 466.741,-132.5 466.741,-139.5"/>
</g>
<!-- Node19 -->
<g id="node6" class="node"><title>Node19</title>
<g id="a_node6"><a xlink:href="classSeeSawN_1_1NumericN_1_1ComplexityEstimatorC.html#a81a6ecfb1bc469c8b6f13cb8629edeec" target="_top" xlink:title="Estimates the cost for . ">
<polygon fill="white" stroke="black" points="477,-55.5 477,-96.5 591,-96.5 591,-55.5 477,-55.5"/>
<text text-anchor="start" x="485" y="-84.5" font-family="FreeSans" font-size="10.00">SeeSawN::NumericN::</text>
<text text-anchor="start" x="485" y="-73.5" font-family="FreeSans" font-size="10.00">ComplexityEstimatorC</text>
<text text-anchor="middle" x="534" y="-62.5" font-family="FreeSans" font-size="10.00">::OuterProduct</text>
</a>
</g>
</g>
<!-- Node16&#45;&gt;Node19 -->
<g id="edge5" class="edge"><title>Node16&#45;&gt;Node19</title>
<path fill="none" stroke="midnightblue" d="M408.889,-120.859C426.552,-114.475 447.54,-106.889 467.184,-99.7891"/>
<polygon fill="midnightblue" stroke="midnightblue" points="468.484,-103.041 476.699,-96.3499 466.104,-96.4576 468.484,-103.041"/>
</g>
</g>
</svg>
        <g id="navigator" transform="translate(0 0)" fill="#404254">
                <rect fill="#f2f5e9" fill-opacity="0.5" stroke="#606060" stroke-width=".5" x="0" y="0" width="60" height="60"/>
                <use id="zoomplus" xlink:href="#zoomPlus" x="17" y="9" onmousedown="handleZoom(evt,'in')"/>
                <use id="zoomminus" xlink:href="#zoomMin" x="42" y="9" onmousedown="handleZoom(evt,'out')"/>
                <use id="reset" xlink:href="#resetDef" x="30" y="36" onmousedown="handleReset()"/>
                <g id="arrowUp" xlink:href="#dirArrow" transform="translate(30 24)" onmousedown="handlePan(0,-1)">
                  <use xlink:href="#rim" fill="#404040">
                        <set attributeName="fill" to="#808080" begin="arrowUp.mouseover" end="arrowUp.mouseout"/>
                  </use>
                  <path fill="none" stroke="white" stroke-width="1.5" d="M0,-3.0v7 M-2.5,-0.5L0,-3.0L2.5,-0.5"/>
                </g>
                <g id="arrowRight" xlink:href="#dirArrow" transform="rotate(90) translate(36 -43)" onmousedown="handlePan(1,0)">
                  <use xlink:href="#rim" fill="#404040">
                        <set attributeName="fill" to="#808080" begin="arrowRight.mouseover" end="arrowRight.mouseout"/>
                  </use>
                  <path fill="none" stroke="white" stroke-width="1.5" d="M0,-3.0v7 M-2.5,-0.5L0,-3.0L2.5,-0.5"/>
                </g>
                <g id="arrowDown" xlink:href="#dirArrow" transform="rotate(180) translate(-30 -48)" onmousedown="handlePan(0,1)">
                  <use xlink:href="#rim" fill="#404040">
                        <set attributeName="fill" to="#808080" begin="arrowDown.mouseover" end="arrowDown.mouseout"/>
                  </use>
                  <path fill="none" stroke="white" stroke-width="1.5" d="M0,-3.0v7 M-2.5,-0.5L0,-3.0L2.5,-0.5"/>
                </g>
                <g id="arrowLeft" xlink:href="#dirArrow" transform="rotate(270) translate(-36 17)" onmousedown="handlePan(-1,0)">
                  <use xlink:href="#rim" fill="#404040">
                        <set attributeName="fill" to="#808080" begin="arrowLeft.mouseover" end="arrowLeft.mouseout"/>
                  </use>
                  <path fill="none" stroke="white" stroke-width="1.5" d="M0,-3.0v7 M-2.5,-0.5L0,-3.0L2.5,-0.5"/>
                </g>
        </g>
        <svg viewBox="0 0 15 15" width="100%" height="30px" preserveAspectRatio="xMaxYMin meet">
         <g id="arrow_out" transform="scale(0.3 0.3)">
          <a xlink:href="classSeeSawN_1_1GeometryN_1_1P2PfSolverC_ad718fb83fbccb5561459b3b97188832f_cgraph_org.svg" target="_base">
           <rect id="button" ry="5" rx="5" y="6" x="6" height="38" width="38"
                fill="#f2f5e9" fill-opacity="0.5" stroke="#606060" stroke-width="1.0"/>
           <path id="arrow"
             d="M 11.500037,31.436501 C 11.940474,20.09759 22.043105,11.32322 32.158766,21.979434 L 37.068811,17.246167 C 37.068811,17.246167 37.088388,32 37.088388,32 L 22.160133,31.978069 C 22.160133,31.978069 26.997745,27.140456 26.997745,27.140456 C 18.528582,18.264221 13.291696,25.230495 11.500037,31.436501 z"
             style="fill:#404040;"/>
          </a>
         </g>
        </svg>
</svg>
