<?xml version="1.0" encoding="UTF-8" standalone="no"?>
<!DOCTYPE svg PUBLIC "-//W3C//DTD SVG 1.1//EN"
 "http://www.w3.org/Graphics/SVG/1.1/DTD/svg11.dtd">
<!-- Generated by graphviz version 2.38.0 (20140413.2041)
 -->
<!-- Title: SeeSawN::SynchronisationN::RelativeSynchronisationC::FitOffset Pages: 1 -->
<svg width="297pt" height="50pt"
 viewBox="0.00 0.00 297.00 50.00" xmlns="http://www.w3.org/2000/svg" xmlns:xlink="http://www.w3.org/1999/xlink">
<g id="graph0" class="graph" transform="scale(1 1) rotate(0) translate(4 46)">
<title>SeeSawN::SynchronisationN::RelativeSynchronisationC::FitOffset</title>
<polygon fill="white" stroke="none" points="-4,4 -4,-46 293,-46 293,4 -4,4"/>
<!-- Node92 -->
<g id="node1" class="node"><title>Node92</title>
<polygon fill="#bfbfbf" stroke="black" points="0,-0.5 0,-41.5 140,-41.5 140,-0.5 0,-0.5"/>
<text text-anchor="start" x="8" y="-29.5" font-family="FreeSans" font-size="10.00">SeeSawN::Synchronisation</text>
<text text-anchor="start" x="8" y="-18.5" font-family="FreeSans" font-size="10.00">N::RelativeSynchronisationC</text>
<text text-anchor="middle" x="70" y="-7.5" font-family="FreeSans" font-size="10.00">::FitOffset</text>
</g>
<!-- Node93 -->
<g id="node2" class="node"><title>Node93</title>
<g id="a_node2"><a xlink:href="namespaceSeeSawN_1_1ElementsN.html#a61c91c6da3bdc67a2a7ea9a2b723eae1" target="_top" xlink:title="Makes the line ax+by+c from the coefficients. ">
<polygon fill="white" stroke="black" points="176,-6 176,-36 289,-36 289,-6 176,-6"/>
<text text-anchor="start" x="184" y="-24" font-family="FreeSans" font-size="10.00">SeeSawN::ElementsN</text>
<text text-anchor="middle" x="232.5" y="-13" font-family="FreeSans" font-size="10.00">::MakeLine2D</text>
</a>
</g>
</g>
<!-- Node92&#45;&gt;Node93 -->
<g id="edge1" class="edge"><title>Node92&#45;&gt;Node93</title>
<path fill="none" stroke="midnightblue" d="M140.464,-21C148.897,-21 157.491,-21 165.865,-21"/>
<polygon fill="midnightblue" stroke="midnightblue" points="165.945,-24.5001 175.945,-21 165.945,-17.5001 165.945,-24.5001"/>
</g>
</g>
</svg>
