<?xml version="1.0" encoding="UTF-8" standalone="no"?>
<!DOCTYPE svg PUBLIC "-//W3C//DTD SVG 1.1//EN"
 "http://www.w3.org/Graphics/SVG/1.1/DTD/svg11.dtd">
<!-- Generated by graphviz version 2.38.0 (20140413.2041)
 -->
<!-- Title: SeeSawN::MetricsN::EpipolarSampsonErrorC::ComputeOutlierThreshold Pages: 1 -->
<svg width="672pt" height="751pt"
 viewBox="0.00 0.00 672.00 751.00" xmlns="http://www.w3.org/2000/svg" xmlns:xlink="http://www.w3.org/1999/xlink">
<g id="graph0" class="graph" transform="scale(1 1) rotate(0) translate(4 747)">
<title>SeeSawN::MetricsN::EpipolarSampsonErrorC::ComputeOutlierThreshold</title>
<polygon fill="white" stroke="none" points="-4,4 -4,-747 668,-747 668,4 -4,4"/>
<!-- Node21 -->
<g id="node1" class="node"><title>Node21</title>
<polygon fill="#bfbfbf" stroke="black" points="0,-401.5 0,-442.5 131,-442.5 131,-401.5 0,-401.5"/>
<text text-anchor="start" x="8" y="-430.5" font-family="FreeSans" font-size="10.00">SeeSawN::MetricsN::</text>
<text text-anchor="start" x="8" y="-419.5" font-family="FreeSans" font-size="10.00">EpipolarSampsonErrorC</text>
<text text-anchor="middle" x="65.5" y="-408.5" font-family="FreeSans" font-size="10.00">::ComputeOutlierThreshold</text>
</g>
<!-- Node22 -->
<g id="node2" class="node"><title>Node22</title>
<g id="a_node2"><a xlink:href="namespaceSeeSawN_1_1UnitTestsN_1_1TestMetricsN.html#a4194ebc805cf87c63bc851d9b3116799" target="_top" xlink:title="SeeSawN::UnitTestsN\l::TestMetricsN::BOOST\l_AUTO_TEST_CASE">
<polygon fill="white" stroke="black" points="204,-701.5 204,-742.5 323,-742.5 323,-701.5 204,-701.5"/>
<text text-anchor="start" x="212" y="-730.5" font-family="FreeSans" font-size="10.00">SeeSawN::UnitTestsN</text>
<text text-anchor="start" x="212" y="-719.5" font-family="FreeSans" font-size="10.00">::TestMetricsN::BOOST</text>
<text text-anchor="middle" x="263.5" y="-708.5" font-family="FreeSans" font-size="10.00">_AUTO_TEST_CASE</text>
</a>
</g>
</g>
<!-- Node21&#45;&gt;Node22 -->
<g id="edge1" class="edge"><title>Node21&#45;&gt;Node22</title>
<path fill="none" stroke="midnightblue" d="M69.2701,-452.851C75.9231,-508.572 97.7958,-626.301 167,-692 177.209,-701.692 190.518,-708.254 203.944,-712.697"/>
<polygon fill="midnightblue" stroke="midnightblue" points="72.7109,-452.122 68.1329,-442.567 65.7533,-452.891 72.7109,-452.122"/>
</g>
<!-- Node23 -->
<g id="node3" class="node"><title>Node23</title>
<g id="a_node3"><a xlink:href="group__Essential.html#ga4cd16b4e2456cc61854df1f6e486cbc9" target="_top" xlink:title="Makes a geometry estimation pipeline problem for 5&#45;point essential matrix estimation. ">
<polygon fill="white" stroke="black" points="180,-641.5 180,-682.5 347,-682.5 347,-641.5 180,-641.5"/>
<text text-anchor="start" x="188" y="-670.5" font-family="FreeSans" font-size="10.00">SeeSawN::GeometryN</text>
<text text-anchor="start" x="188" y="-659.5" font-family="FreeSans" font-size="10.00">::MakeGeometryEstimationPipeline</text>
<text text-anchor="middle" x="263.5" y="-648.5" font-family="FreeSans" font-size="10.00">EssentialProblem</text>
</a>
</g>
</g>
<!-- Node21&#45;&gt;Node23 -->
<g id="edge2" class="edge"><title>Node21&#45;&gt;Node23</title>
<path fill="none" stroke="midnightblue" d="M72.937,-452.539C84.1245,-498.151 111.476,-583.848 167,-632 171.07,-635.53 175.555,-638.644 180.294,-641.393"/>
<polygon fill="midnightblue" stroke="midnightblue" points="76.3071,-451.58 70.6112,-442.646 69.4929,-453.182 76.3071,-451.58"/>
</g>
<!-- Node24 -->
<g id="node4" class="node"><title>Node24</title>
<g id="a_node4"><a xlink:href="group__Fundamental7.html#ga8433453ec3af864820a2fbf703646f2b" target="_top" xlink:title="Makes a geometry estimation pipeline problem for 7&#45;point fundamental matrix estimation. ">
<polygon fill="white" stroke="black" points="180,-581.5 180,-622.5 347,-622.5 347,-581.5 180,-581.5"/>
<text text-anchor="start" x="188" y="-610.5" font-family="FreeSans" font-size="10.00">SeeSawN::GeometryN</text>
<text text-anchor="start" x="188" y="-599.5" font-family="FreeSans" font-size="10.00">::MakeGeometryEstimationPipeline</text>
<text text-anchor="middle" x="263.5" y="-588.5" font-family="FreeSans" font-size="10.00">Fundamental7Problem</text>
</a>
</g>
</g>
<!-- Node21&#45;&gt;Node24 -->
<g id="edge3" class="edge"><title>Node21&#45;&gt;Node24</title>
<path fill="none" stroke="midnightblue" d="M79.165,-452.125C94.9215,-486.054 124.97,-540.548 167,-572 171.731,-575.54 176.89,-578.669 182.279,-581.434"/>
<polygon fill="midnightblue" stroke="midnightblue" points="82.2239,-450.395 74.9189,-442.721 75.844,-453.275 82.2239,-450.395"/>
</g>
<!-- Node25 -->
<g id="node5" class="node"><title>Node25</title>
<g id="a_node5"><a xlink:href="group__Fundamental8.html#gab62d6db4495d2b4ef5ea10f363416d67" target="_top" xlink:title="Makes a geometry estimation pipeline problem for 7&#45;point fundamental matrix estimation. ">
<polygon fill="white" stroke="black" points="180,-521.5 180,-562.5 347,-562.5 347,-521.5 180,-521.5"/>
<text text-anchor="start" x="188" y="-550.5" font-family="FreeSans" font-size="10.00">SeeSawN::GeometryN</text>
<text text-anchor="start" x="188" y="-539.5" font-family="FreeSans" font-size="10.00">::MakeGeometryEstimationPipeline</text>
<text text-anchor="middle" x="263.5" y="-528.5" font-family="FreeSans" font-size="10.00">Fundamental8Problem</text>
</a>
</g>
</g>
<!-- Node21&#45;&gt;Node25 -->
<g id="edge4" class="edge"><title>Node21&#45;&gt;Node25</title>
<path fill="none" stroke="midnightblue" d="M91.6439,-450.175C110.627,-469.932 138.247,-495.638 167,-512 173.042,-515.438 179.527,-518.534 186.17,-521.311"/>
<polygon fill="midnightblue" stroke="midnightblue" points="93.9641,-447.534 84.5583,-442.657 88.8702,-452.335 93.9641,-447.534"/>
</g>
<!-- Node26 -->
<g id="node6" class="node"><title>Node26</title>
<g id="a_node6"><a xlink:href="group__OneSidedFundamental.html#ga820f58fb69cc12102a380c4eddc5cbe9" target="_top" xlink:title="Makes a geometry estimation pipeline problem for 6&#45;point one&#45;sided fundamental matrix estimation...">
<polygon fill="white" stroke="black" points="180,-461.5 180,-502.5 347,-502.5 347,-461.5 180,-461.5"/>
<text text-anchor="start" x="188" y="-490.5" font-family="FreeSans" font-size="10.00">SeeSawN::GeometryN</text>
<text text-anchor="start" x="188" y="-479.5" font-family="FreeSans" font-size="10.00">::MakeGeometryEstimationPipeline</text>
<text text-anchor="middle" x="263.5" y="-468.5" font-family="FreeSans" font-size="10.00">OSFundamentalProblem</text>
</a>
</g>
</g>
<!-- Node21&#45;&gt;Node26 -->
<g id="edge5" class="edge"><title>Node21&#45;&gt;Node26</title>
<path fill="none" stroke="midnightblue" d="M141.038,-444.818C158.943,-450.299 177.958,-456.12 195.497,-461.489"/>
<polygon fill="midnightblue" stroke="midnightblue" points="141.807,-441.393 131.221,-441.813 139.758,-448.086 141.807,-441.393"/>
</g>
<!-- Node27 -->
<g id="node7" class="node"><title>Node27</title>
<g id="a_node7"><a xlink:href="classSeeSawN_1_1GeometryN_1_1Sparse3DReconstructionPipelineC.html#a71a2520ad2b6651d9a32a56b36516247" target="_top" xlink:title="Initialises the pairwise epipolar constraints. ">
<polygon fill="white" stroke="black" points="181.5,-401.5 181.5,-442.5 345.5,-442.5 345.5,-401.5 181.5,-401.5"/>
<text text-anchor="start" x="189.5" y="-430.5" font-family="FreeSans" font-size="10.00">SeeSawN::GeometryN</text>
<text text-anchor="start" x="189.5" y="-419.5" font-family="FreeSans" font-size="10.00">::Sparse3DReconstructionPipeline</text>
<text text-anchor="middle" x="263.5" y="-408.5" font-family="FreeSans" font-size="10.00">C::MakePairwiseConstraints</text>
</a>
</g>
</g>
<!-- Node21&#45;&gt;Node27 -->
<g id="edge6" class="edge"><title>Node21&#45;&gt;Node27</title>
<path fill="none" stroke="midnightblue" d="M141.543,-422C154.592,-422 168.216,-422 181.418,-422"/>
<polygon fill="midnightblue" stroke="midnightblue" points="141.221,-418.5 131.221,-422 141.221,-425.5 141.221,-418.5"/>
</g>
<!-- Node28 -->
<g id="node8" class="node"><title>Node28</title>
<g id="a_node8"><a xlink:href="group__Essential.html#ga28e346c03192bb8e6e8afb2e767fd26a" target="_top" xlink:title="Makes a RANSAC problem for 5&#45;point essential matrix estimation. ">
<polygon fill="white" stroke="black" points="182.5,-352 182.5,-382 344.5,-382 344.5,-352 182.5,-352"/>
<text text-anchor="start" x="190.5" y="-370" font-family="FreeSans" font-size="10.00">SeeSawN::GeometryN</text>
<text text-anchor="middle" x="263.5" y="-359" font-family="FreeSans" font-size="10.00">::MakeRANSACEssentialProblem</text>
</a>
</g>
</g>
<!-- Node21&#45;&gt;Node28 -->
<g id="edge7" class="edge"><title>Node21&#45;&gt;Node28</title>
<path fill="none" stroke="midnightblue" d="M140.884,-399.487C149.674,-396.918 158.528,-394.373 167,-392 178.883,-388.672 191.635,-385.239 203.829,-382.022"/>
<polygon fill="midnightblue" stroke="midnightblue" points="139.618,-396.211 131.011,-402.389 141.592,-402.927 139.618,-396.211"/>
</g>
<!-- Node32 -->
<g id="node12" class="node"><title>Node32</title>
<g id="a_node12"><a xlink:href="group__Fundamental7.html#ga22d1b1db3759c1f8f0bbbf0d70329028" target="_top" xlink:title="Makes a RANSAC problem for 7&#45;point fundamental matrix estimation. ">
<polygon fill="white" stroke="black" points="171.5,-156 171.5,-186 355.5,-186 355.5,-156 171.5,-156"/>
<text text-anchor="start" x="179.5" y="-174" font-family="FreeSans" font-size="10.00">SeeSawN::GeometryN</text>
<text text-anchor="middle" x="263.5" y="-163" font-family="FreeSans" font-size="10.00">::MakeRANSACFundamental7Problem</text>
</a>
</g>
</g>
<!-- Node21&#45;&gt;Node32 -->
<g id="edge11" class="edge"><title>Node21&#45;&gt;Node32</title>
<path fill="none" stroke="midnightblue" d="M78.2767,-391.777C94.2447,-353.456 125.591,-286.756 167,-240 186.664,-217.797 214.69,-198.609 235.298,-186.144"/>
<polygon fill="midnightblue" stroke="midnightblue" points="74.9133,-390.756 74.3681,-401.336 81.3926,-393.405 74.9133,-390.756"/>
</g>
<!-- Node37 -->
<g id="node17" class="node"><title>Node37</title>
<g id="a_node17"><a xlink:href="group__Fundamental7.html#gab208648dd6b26ce5aa35335d212f90c3" target="_top" xlink:title="Makes a RANSAC problem for 8&#45;point fundamental matrix estimation. ">
<polygon fill="white" stroke="black" points="171.5,-303 171.5,-333 355.5,-333 355.5,-303 171.5,-303"/>
<text text-anchor="start" x="179.5" y="-321" font-family="FreeSans" font-size="10.00">SeeSawN::GeometryN</text>
<text text-anchor="middle" x="263.5" y="-310" font-family="FreeSans" font-size="10.00">::MakeRANSACFundamental8Problem</text>
</a>
</g>
</g>
<!-- Node21&#45;&gt;Node37 -->
<g id="edge16" class="edge"><title>Node21&#45;&gt;Node37</title>
<path fill="none" stroke="midnightblue" d="M94.8726,-394.471C113.894,-377.405 140.273,-356.279 167,-343 174.751,-339.149 183.16,-335.845 191.666,-333.021"/>
<polygon fill="midnightblue" stroke="midnightblue" points="92.4642,-391.93 87.4475,-401.262 97.1887,-397.096 92.4642,-391.93"/>
</g>
<!-- Node39 -->
<g id="node19" class="node"><title>Node39</title>
<g id="a_node19"><a xlink:href="group__OneSidedFundamental.html#ga71a89d126702261603e40b121b4fbab1" target="_top" xlink:title="Makes a RANSAC problem for 6&#45;point one&#45;sided fundamental matrix estimation. ">
<polygon fill="white" stroke="black" points="167,-249 167,-279 360,-279 360,-249 167,-249"/>
<text text-anchor="start" x="175" y="-267" font-family="FreeSans" font-size="10.00">SeeSawN::GeometryN</text>
<text text-anchor="middle" x="263.5" y="-256" font-family="FreeSans" font-size="10.00">::MakeRANSACOSFundamentalProblem</text>
</a>
</g>
</g>
<!-- Node21&#45;&gt;Node39 -->
<g id="edge21" class="edge"><title>Node21&#45;&gt;Node39</title>
<path fill="none" stroke="midnightblue" d="M82.7027,-392.188C99.9584,-363.122 129.879,-319.657 167,-294 175.864,-287.874 186.036,-282.955 196.362,-279.019"/>
<polygon fill="midnightblue" stroke="midnightblue" points="79.5367,-390.671 77.5521,-401.078 85.5936,-394.18 79.5367,-390.671"/>
</g>
<!-- Node40 -->
<g id="node20" class="node"><title>Node40</title>
<g id="a_node20"><a xlink:href="classSeeSawN_1_1AppMatchmakerN_1_1MatchmakerImplementationC.html#a8b390d6f89906000ae3ca51b5786562b" target="_top" xlink:title="Sets and validates the application parameters. ">
<polygon fill="white" stroke="black" points="189,-95.5 189,-136.5 338,-136.5 338,-95.5 189,-95.5"/>
<text text-anchor="start" x="197" y="-124.5" font-family="FreeSans" font-size="10.00">SeeSawN::AppMatchmakerN</text>
<text text-anchor="start" x="197" y="-113.5" font-family="FreeSans" font-size="10.00">::MatchmakerImplementationC</text>
<text text-anchor="middle" x="263.5" y="-102.5" font-family="FreeSans" font-size="10.00">::SetParameters</text>
</a>
</g>
</g>
<!-- Node21&#45;&gt;Node40 -->
<g id="edge23" class="edge"><title>Node21&#45;&gt;Node40</title>
<path fill="none" stroke="midnightblue" d="M68.9683,-391.251C75.163,-334.637 96.3628,-213.539 167,-146 173.28,-139.995 180.751,-135.191 188.706,-131.349"/>
<polygon fill="midnightblue" stroke="midnightblue" points="65.4698,-391.061 67.9483,-401.362 72.4344,-391.764 65.4698,-391.061"/>
</g>
<!-- Node29 -->
<g id="node9" class="node"><title>Node29</title>
<g id="a_node9"><a xlink:href="classSeeSawN_1_1AppMultimodelGeometryEstimator22N_1_1AppMultimodelGeometryEstimator22ImplementationC.html#ab03ab92c9a3d864079fb9b9474f7be91" target="_top" xlink:title="Runs the essential matrix estimation pipeline. ">
<polygon fill="white" stroke="black" points="404.5,-420.5 404.5,-461.5 655.5,-461.5 655.5,-420.5 404.5,-420.5"/>
<text text-anchor="start" x="412.5" y="-449.5" font-family="FreeSans" font-size="10.00">SeeSawN::AppMultimodelGeometry</text>
<text text-anchor="start" x="412.5" y="-438.5" font-family="FreeSans" font-size="10.00">Estimator22N::AppMultimodelGeometry</text>
<text text-anchor="middle" x="530" y="-427.5" font-family="FreeSans" font-size="10.00">Estimator22ImplementationC::ComputeEssentialMatrix</text>
</a>
</g>
</g>
<!-- Node28&#45;&gt;Node29 -->
<g id="edge8" class="edge"><title>Node28&#45;&gt;Node29</title>
<path fill="none" stroke="midnightblue" d="M340.1,-385.058C346.894,-387.2 353.614,-389.517 360,-392 376.862,-398.556 379.028,-404.733 396,-411 405.437,-414.485 415.406,-417.639 425.471,-420.477"/>
<polygon fill="midnightblue" stroke="midnightblue" points="340.707,-381.585 330.122,-382.045 338.683,-388.286 340.707,-381.585"/>
</g>
<!-- Node30 -->
<g id="node10" class="node"><title>Node30</title>
<g id="a_node10"><a xlink:href="classSeeSawN_1_1AppGeometryEstimator22N_1_1GeometryEstimator22ImplementationC.html#a6985afd1f2ed1f609e05d8ef61510aef" target="_top" xlink:title="Runs the essential matrix estimation pipeline. ">
<polygon fill="white" stroke="black" points="435.5,-360.5 435.5,-401.5 624.5,-401.5 624.5,-360.5 435.5,-360.5"/>
<text text-anchor="start" x="443.5" y="-389.5" font-family="FreeSans" font-size="10.00">SeeSawN::AppGeometryEstimator22</text>
<text text-anchor="start" x="443.5" y="-378.5" font-family="FreeSans" font-size="10.00">N::GeometryEstimator22Implementation</text>
<text text-anchor="middle" x="530" y="-367.5" font-family="FreeSans" font-size="10.00">C::ComputeEssentialMatrix</text>
</a>
</g>
</g>
<!-- Node28&#45;&gt;Node30 -->
<g id="edge9" class="edge"><title>Node28&#45;&gt;Node30</title>
<path fill="none" stroke="midnightblue" d="M354.775,-371.778C380.73,-373.152 409.093,-374.653 435.253,-376.038"/>
<polygon fill="midnightblue" stroke="midnightblue" points="354.748,-368.272 344.577,-371.238 354.378,-375.262 354.748,-368.272"/>
</g>
<!-- Node31 -->
<g id="node11" class="node"><title>Node31</title>
<g id="a_node11"><a xlink:href="classSeeSawN_1_1GeometryN_1_1VisionGraphPipelineC.html#a813ab5581d53eef94b2244e1591223a5" target="_top" xlink:title="Essential matrix estimation. ">
<polygon fill="white" stroke="black" points="472,-300.5 472,-341.5 588,-341.5 588,-300.5 472,-300.5"/>
<text text-anchor="start" x="480" y="-329.5" font-family="FreeSans" font-size="10.00">SeeSawN::GeometryN</text>
<text text-anchor="start" x="480" y="-318.5" font-family="FreeSans" font-size="10.00">::VisionGraphPipelineC</text>
<text text-anchor="middle" x="530" y="-307.5" font-family="FreeSans" font-size="10.00">::EstimateGeometry</text>
</a>
</g>
</g>
<!-- Node28&#45;&gt;Node31 -->
<g id="edge10" class="edge"><title>Node28&#45;&gt;Node31</title>
<path fill="none" stroke="midnightblue" d="M354.83,-351.29C393.596,-344.549 437.722,-336.874 471.859,-330.938"/>
<polygon fill="midnightblue" stroke="midnightblue" points="353.829,-347.912 344.577,-353.074 355.028,-354.808 353.829,-347.912"/>
</g>
<!-- Node33 -->
<g id="node13" class="node"><title>Node33</title>
<g id="a_node13"><a xlink:href="classSeeSawN_1_1AppMultimodelGeometryEstimator22N_1_1AppMultimodelGeometryEstimator22ImplementationC.html#abf58701e5825c6ccff01b8244b671aa5" target="_top" xlink:title="Runs the fundamental matrix estimation pipeline. ">
<polygon fill="white" stroke="black" points="396,-180.5 396,-221.5 664,-221.5 664,-180.5 396,-180.5"/>
<text text-anchor="start" x="404" y="-209.5" font-family="FreeSans" font-size="10.00">SeeSawN::AppMultimodelGeometry</text>
<text text-anchor="start" x="404" y="-198.5" font-family="FreeSans" font-size="10.00">Estimator22N::AppMultimodelGeometry</text>
<text text-anchor="middle" x="530" y="-187.5" font-family="FreeSans" font-size="10.00">Estimator22ImplementationC::ComputeFundamentalMatrix</text>
</a>
</g>
</g>
<!-- Node32&#45;&gt;Node33 -->
<g id="edge12" class="edge"><title>Node32&#45;&gt;Node33</title>
<path fill="none" stroke="midnightblue" d="M365.689,-182.477C375.536,-183.594 385.626,-184.738 395.724,-185.884"/>
<polygon fill="midnightblue" stroke="midnightblue" points="365.857,-178.974 355.526,-181.324 365.068,-185.929 365.857,-178.974"/>
</g>
<!-- Node34 -->
<g id="node14" class="node"><title>Node34</title>
<g id="a_node14"><a xlink:href="classSeeSawN_1_1GeometryN_1_1CalibrationVerificationPipelineC.html#af7b384f2e146a668ba8cc7a26d8d1e19" target="_top" xlink:title="Computes the fundamental matrix from the image features. ">
<polygon fill="white" stroke="black" points="455.5,-120.5 455.5,-161.5 604.5,-161.5 604.5,-120.5 455.5,-120.5"/>
<text text-anchor="start" x="463.5" y="-149.5" font-family="FreeSans" font-size="10.00">SeeSawN::GeometryN</text>
<text text-anchor="start" x="463.5" y="-138.5" font-family="FreeSans" font-size="10.00">::CalibrationVerificationPipeline</text>
<text text-anchor="middle" x="530" y="-127.5" font-family="FreeSans" font-size="10.00">C::ComputeFundamentalMatrix</text>
</a>
</g>
</g>
<!-- Node32&#45;&gt;Node34 -->
<g id="edge13" class="edge"><title>Node32&#45;&gt;Node34</title>
<path fill="none" stroke="midnightblue" d="M365.557,-159.538C395.418,-156.151 427.529,-152.509 455.317,-149.357"/>
<polygon fill="midnightblue" stroke="midnightblue" points="365.068,-156.071 355.526,-160.676 365.857,-163.026 365.068,-156.071"/>
</g>
<!-- Node35 -->
<g id="node15" class="node"><title>Node35</title>
<g id="a_node15"><a xlink:href="classSeeSawN_1_1AppGeometryEstimator22N_1_1GeometryEstimator22ImplementationC.html#acc4a371657a371bc1524fe2f790d57f8" target="_top" xlink:title="Runs the fundamental matrix estimation pipeline. ">
<polygon fill="white" stroke="black" points="435.5,-60.5 435.5,-101.5 624.5,-101.5 624.5,-60.5 435.5,-60.5"/>
<text text-anchor="start" x="443.5" y="-89.5" font-family="FreeSans" font-size="10.00">SeeSawN::AppGeometryEstimator22</text>
<text text-anchor="start" x="443.5" y="-78.5" font-family="FreeSans" font-size="10.00">N::GeometryEstimator22Implementation</text>
<text text-anchor="middle" x="530" y="-67.5" font-family="FreeSans" font-size="10.00">C::ComputeFundamentalMatrix</text>
</a>
</g>
</g>
<!-- Node32&#45;&gt;Node35 -->
<g id="edge14" class="edge"><title>Node32&#45;&gt;Node35</title>
<path fill="none" stroke="midnightblue" d="M347.559,-152.149C351.855,-150.284 356.03,-148.24 360,-146 379.435,-135.035 376.38,-121.632 396,-111 408.175,-104.403 421.73,-99.2543 435.4,-95.2366"/>
<polygon fill="midnightblue" stroke="midnightblue" points="345.995,-149.004 337.996,-155.952 348.582,-155.509 345.995,-149.004"/>
</g>
<!-- Node36 -->
<g id="node16" class="node"><title>Node36</title>
<g id="a_node16"><a xlink:href="classSeeSawN_1_1GeometryN_1_1VisionGraphPipelineC.html#afaeaede48cf2e3540e7b341fd0f4bc77" target="_top" xlink:title="Fundamental matrix estimation. ">
<polygon fill="white" stroke="black" points="472,-0.5 472,-41.5 588,-41.5 588,-0.5 472,-0.5"/>
<text text-anchor="start" x="480" y="-29.5" font-family="FreeSans" font-size="10.00">SeeSawN::GeometryN</text>
<text text-anchor="start" x="480" y="-18.5" font-family="FreeSans" font-size="10.00">::VisionGraphPipelineC</text>
<text text-anchor="middle" x="530" y="-7.5" font-family="FreeSans" font-size="10.00">::EstimateGeometry</text>
</a>
</g>
</g>
<!-- Node32&#45;&gt;Node36 -->
<g id="edge15" class="edge"><title>Node32&#45;&gt;Node36</title>
<path fill="none" stroke="midnightblue" d="M354.469,-150.46C356.391,-149.067 358.24,-147.583 360,-146 393.577,-115.812 361.912,-80.6097 396,-51 416.729,-32.9939 445.981,-25.1462 471.775,-21.9478"/>
<polygon fill="midnightblue" stroke="midnightblue" points="352.241,-147.726 345.618,-155.995 355.952,-153.661 352.241,-147.726"/>
</g>
<!-- Node37&#45;&gt;Node29 -->
<g id="edge17" class="edge"><title>Node37&#45;&gt;Node29</title>
<path fill="none" stroke="midnightblue" d="M353.37,-338.299C355.667,-339.759 357.884,-341.324 360,-343 386.804,-364.234 368.837,-390.227 396,-411 400.607,-414.523 405.55,-417.646 410.722,-420.414"/>
<polygon fill="midnightblue" stroke="midnightblue" points="354.59,-334.973 344.151,-333.167 351.186,-341.089 354.59,-334.973"/>
</g>
<!-- Node37&#45;&gt;Node30 -->
<g id="edge18" class="edge"><title>Node37&#45;&gt;Node30</title>
<path fill="none" stroke="midnightblue" d="M332.807,-335.473C353.119,-340.579 375.437,-346.102 396,-351 409.125,-354.127 422.999,-357.348 436.637,-360.467"/>
<polygon fill="midnightblue" stroke="midnightblue" points="333.566,-332.055 323.014,-333.004 331.855,-338.842 333.566,-332.055"/>
</g>
<!-- Node37&#45;&gt;Node31 -->
<g id="edge20" class="edge"><title>Node37&#45;&gt;Node31</title>
<path fill="none" stroke="midnightblue" d="M365.571,-319.146C401.526,-319.554 440.742,-319.999 471.745,-320.351"/>
<polygon fill="midnightblue" stroke="midnightblue" points="365.565,-315.646 355.526,-319.032 365.486,-322.646 365.565,-315.646"/>
</g>
<!-- Node38 -->
<g id="node18" class="node"><title>Node38</title>
<g id="a_node18"><a xlink:href="classSeeSawN_1_1AppGeometryEstimator22N_1_1GeometryEstimator22ImplementationC.html#a99becb13b443e05aba08a38af830ee97" target="_top" xlink:title="Runs the one&#45;sided fundamental matrix estimation pipeline, with known first camera. ">
<polygon fill="white" stroke="black" points="434,-240.5 434,-281.5 626,-281.5 626,-240.5 434,-240.5"/>
<text text-anchor="start" x="442" y="-269.5" font-family="FreeSans" font-size="10.00">SeeSawN::AppGeometryEstimator22</text>
<text text-anchor="start" x="442" y="-258.5" font-family="FreeSans" font-size="10.00">N::GeometryEstimator22Implementation</text>
<text text-anchor="middle" x="530" y="-247.5" font-family="FreeSans" font-size="10.00">C::ComputeOneSidedFundamentalMatrix</text>
</a>
</g>
</g>
<!-- Node37&#45;&gt;Node38 -->
<g id="edge19" class="edge"><title>Node37&#45;&gt;Node38</title>
<path fill="none" stroke="midnightblue" d="M344.158,-300.834C372.394,-294.749 404.452,-287.84 433.849,-281.505"/>
<polygon fill="midnightblue" stroke="midnightblue" points="343.378,-297.421 334.34,-302.949 344.853,-304.264 343.378,-297.421"/>
</g>
<!-- Node39&#45;&gt;Node38 -->
<g id="edge22" class="edge"><title>Node39&#45;&gt;Node38</title>
<path fill="none" stroke="midnightblue" d="M370.561,-262.797C391.502,-262.56 413.355,-262.312 433.905,-262.079"/>
<polygon fill="midnightblue" stroke="midnightblue" points="370.324,-259.299 360.365,-262.913 370.404,-266.299 370.324,-259.299"/>
</g>
</g>
</svg>
