<?xml version="1.0" encoding="UTF-8" standalone="no"?>
<!DOCTYPE svg PUBLIC "-//W3C//DTD SVG 1.1//EN"
 "http://www.w3.org/Graphics/SVG/1.1/DTD/svg11.dtd">
<!-- Generated by graphviz version 2.38.0 (20140413.2041)
 -->
<!-- Title: SeeSawN::StateEstimationN::UKFCameraTrackingProblemBaseC&lt; UKFProblemT, GeometrySolverT, StateDifferenceFunctorT, MeasurementDifferenceFunctorT, DIMS &gt; Pages: 1 -->
<!--zoomable 728 -->
<svg id="main" version="1.1" xmlns="http://www.w3.org/2000/svg" xmlns:xlink="http://www.w3.org/1999/xlink" xml:space="preserve" onload="init(evt)">
<style type="text/css"><![CDATA[
.edge:hover path { stroke: red; }
.edge:hover polygon { stroke: red; fill: red; }
]]></style>
<script type="text/javascript"><![CDATA[
var edges = document.getElementsByTagName('g');
if (edges && edges.length) {
  for (var i=0;i<edges.length;i++) {
    if (edges[i].id.substr(0,4)=='edge') {
      edges[i].setAttribute('class','edge');
    }
  }
}
]]></script>
        <defs>
                <circle id="rim" cx="0" cy="0" r="7"/>
                <circle id="rim2" cx="0" cy="0" r="3.5"/>
                <g id="zoomPlus">
                        <use xlink:href="#rim" fill="#404040">
                                <set attributeName="fill" to="#808080" begin="zoomplus.mouseover" end="zoomplus.mouseout"/>
                        </use>
                        <path d="M-4,0h8M0,-4v8" fill="none" stroke="white" stroke-width="1.5" pointer-events="none"/>
                </g>
                <g id="zoomMin">
                        <use xlink:href="#rim" fill="#404040">
                                <set attributeName="fill" to="#808080" begin="zoomminus.mouseover" end="zoomminus.mouseout"/>
                        </use>
                        <path d="M-4,0h8" fill="none" stroke="white" stroke-width="1.5" pointer-events="none"/>
                </g>
                <g id="dirArrow">
                        <path fill="none" stroke="white" stroke-width="1.5" d="M0,-3.0v7 M-2.5,-0.5L0,-3.0L2.5,-0.5"/>
                </g>
               <g id="resetDef">
                       <use xlink:href="#rim2" fill="#404040">
                               <set attributeName="fill" to="#808080" begin="reset.mouseover" end="reset.mouseout"/>
                       </use>
               </g>
        </defs>

<script type="text/javascript">
var viewWidth = 356;
var viewHeight = 728;
var sectionId = 'dynsection-0';
</script>
<script xlink:href="svgpan.js"/>
<svg id="graph" class="graph">
<g id="viewport">
<title>SeeSawN::StateEstimationN::UKFCameraTrackingProblemBaseC&lt; UKFProblemT, GeometrySolverT, StateDifferenceFunctorT, MeasurementDifferenceFunctorT, DIMS &gt;</title>
<polygon fill="white" stroke="none" points="-4,4 -4,-724 352,-724 352,4 -4,4"/>
<!-- Node0 -->
<g id="node1" class="node"><title>Node0</title>
<polygon fill="#bfbfbf" stroke="black" points="24.5,-497.5 24.5,-719.5 257.5,-719.5 257.5,-497.5 24.5,-497.5"/>
<text text-anchor="start" x="32.5" y="-707.5" font-family="FreeSans" font-size="10.00">SeeSawN::StateEstimation</text>
<text text-anchor="start" x="32.5" y="-696.5" font-family="FreeSans" font-size="10.00">N::UKFCameraTrackingProblemBase</text>
<text text-anchor="start" x="32.5" y="-685.5" font-family="FreeSans" font-size="10.00">C&lt; UKFProblemT, GeometrySolverT,</text>
<text text-anchor="start" x="32.5" y="-674.5" font-family="FreeSans" font-size="10.00"> StateDifferenceFunctorT, MeasurementDifference</text>
<text text-anchor="middle" x="141" y="-663.5" font-family="FreeSans" font-size="10.00">FunctorT, DIMS &gt;</text>
<polyline fill="none" stroke="black" points="24.5,-656.5 257.5,-656.5 "/>
<text text-anchor="start" x="32.5" y="-644.5" font-family="FreeSans" font-size="10.00">&#45; sMeasurement</text>
<polyline fill="none" stroke="black" points="24.5,-637.5 257.5,-637.5 "/>
<text text-anchor="start" x="32.5" y="-625.5" font-family="FreeSans" font-size="10.00">* state_type</text>
<text text-anchor="start" x="32.5" y="-614.5" font-family="FreeSans" font-size="10.00">* state_vector_type</text>
<text text-anchor="start" x="32.5" y="-603.5" font-family="FreeSans" font-size="10.00">* state_covariance_type</text>
<text text-anchor="start" x="32.5" y="-592.5" font-family="FreeSans" font-size="10.00">* state_sample_type</text>
<text text-anchor="start" x="32.5" y="-581.5" font-family="FreeSans" font-size="10.00">* measurement_type</text>
<text text-anchor="start" x="32.5" y="-570.5" font-family="FreeSans" font-size="10.00">* measurement_vector_type</text>
<text text-anchor="start" x="32.5" y="-559.5" font-family="FreeSans" font-size="10.00">* measurement_covariance_type</text>
<text text-anchor="start" x="32.5" y="-548.5" font-family="FreeSans" font-size="10.00">* measurement_sample_type</text>
<text text-anchor="start" x="32.5" y="-537.5" font-family="FreeSans" font-size="10.00">* cross_covariance_type</text>
<text text-anchor="start" x="32.5" y="-526.5" font-family="FreeSans" font-size="10.00">* can_decompose_state</text>
<text text-anchor="start" x="32.5" y="-515.5" font-family="FreeSans" font-size="10.00">_covariance</text>
<text text-anchor="start" x="32.5" y="-504.5" font-family="FreeSans" font-size="10.00">and 8 more...</text>
</g>
<!-- Node1 -->
<g id="node2" class="node"><title>Node1</title>
<g id="a_node2"><a xlink:href="classSeeSawN_1_1StateEstimationN_1_1UKFCameraTrackingProblemBaseC.html" target="_top" xlink:title="{SeeSawN::StateEstimation\lN::UKFCameraTrackingProblemBase\lC\&lt; UKFOrientationTrackingProblemC,\l Rotation3DSolverC, UKFOrientationTracking\lProblemStateDifferenceC, Rotation3DMinimalDifferenceC, 6 \&gt;\n|&#45; sMeasurement\l|* state_type\l* state_vector_type\l* state_covariance_type\l* state_sample_type\l* measurement_type\l* measurement_vector_type\l* measurement_covariance_type\l* measurement_sample_type\l* cross_covariance_type\l* can_decompose_state\l_covariance\land 8 more...\l}">
<polygon fill="white" stroke="black" points="0,-194.5 0,-416.5 282,-416.5 282,-194.5 0,-194.5"/>
<text text-anchor="start" x="8" y="-404.5" font-family="FreeSans" font-size="10.00">SeeSawN::StateEstimation</text>
<text text-anchor="start" x="8" y="-393.5" font-family="FreeSans" font-size="10.00">N::UKFCameraTrackingProblemBase</text>
<text text-anchor="start" x="8" y="-382.5" font-family="FreeSans" font-size="10.00">C&lt; UKFOrientationTrackingProblemC,</text>
<text text-anchor="start" x="8" y="-371.5" font-family="FreeSans" font-size="10.00"> Rotation3DSolverC, UKFOrientationTracking</text>
<text text-anchor="middle" x="141" y="-360.5" font-family="FreeSans" font-size="10.00">ProblemStateDifferenceC, Rotation3DMinimalDifferenceC, 6 &gt;</text>
<polyline fill="none" stroke="black" points="0,-353.5 282,-353.5 "/>
<text text-anchor="start" x="8" y="-341.5" font-family="FreeSans" font-size="10.00">&#45; sMeasurement</text>
<polyline fill="none" stroke="black" points="0,-334.5 282,-334.5 "/>
<text text-anchor="start" x="8" y="-322.5" font-family="FreeSans" font-size="10.00">* state_type</text>
<text text-anchor="start" x="8" y="-311.5" font-family="FreeSans" font-size="10.00">* state_vector_type</text>
<text text-anchor="start" x="8" y="-300.5" font-family="FreeSans" font-size="10.00">* state_covariance_type</text>
<text text-anchor="start" x="8" y="-289.5" font-family="FreeSans" font-size="10.00">* state_sample_type</text>
<text text-anchor="start" x="8" y="-278.5" font-family="FreeSans" font-size="10.00">* measurement_type</text>
<text text-anchor="start" x="8" y="-267.5" font-family="FreeSans" font-size="10.00">* measurement_vector_type</text>
<text text-anchor="start" x="8" y="-256.5" font-family="FreeSans" font-size="10.00">* measurement_covariance_type</text>
<text text-anchor="start" x="8" y="-245.5" font-family="FreeSans" font-size="10.00">* measurement_sample_type</text>
<text text-anchor="start" x="8" y="-234.5" font-family="FreeSans" font-size="10.00">* cross_covariance_type</text>
<text text-anchor="start" x="8" y="-223.5" font-family="FreeSans" font-size="10.00">* can_decompose_state</text>
<text text-anchor="start" x="8" y="-212.5" font-family="FreeSans" font-size="10.00">_covariance</text>
<text text-anchor="start" x="8" y="-201.5" font-family="FreeSans" font-size="10.00">and 8 more...</text>
</a>
</g>
</g>
<!-- Node0&#45;&gt;Node1 -->
<g id="edge1" class="edge"><title>Node0&#45;&gt;Node1</title>
<path fill="none" stroke="orange" d="M141,-486.893C141,-463.676 141,-439.47 141,-416.607"/>
<polygon fill="orange" stroke="orange" points="137.5,-487.128 141,-497.128 144.5,-487.128 137.5,-487.128"/>
<text text-anchor="start" x="141" y="-471" font-family="FreeSans" font-size="10.00"> &lt; UKFOrientationTracking</text>
<text text-anchor="start" x="141" y="-460" font-family="FreeSans" font-size="10.00">ProblemC, Rotation3DSolverC,</text>
<text text-anchor="start" x="141" y="-449" font-family="FreeSans" font-size="10.00"> UKFOrientationTrackingProblemState</text>
<text text-anchor="middle" x="244.5" y="-438" font-family="FreeSans" font-size="10.00">DifferenceC, Rotation3DMinimalDifferenceC, 6 &gt;</text>
</g>
<!-- Node2 -->
<g id="node3" class="node"><title>Node2</title>
<g id="a_node3"><a xlink:href="classSeeSawN_1_1StateEstimationN_1_1UKFOrientationTrackingProblemC.html" target="_top" xlink:title="Orientation tracking problem for UKF. ">
<polygon fill="white" stroke="black" points="53,-0.5 53,-156.5 229,-156.5 229,-0.5 53,-0.5"/>
<text text-anchor="start" x="61" y="-144.5" font-family="FreeSans" font-size="10.00">SeeSawN::StateEstimation</text>
<text text-anchor="middle" x="141" y="-133.5" font-family="FreeSans" font-size="10.00">N::UKFOrientationTrackingProblemC</text>
<polyline fill="none" stroke="black" points="53,-126.5 229,-126.5 "/>
<text text-anchor="middle" x="141" y="-114.5" font-family="FreeSans" font-size="10.00"> </text>
<polyline fill="none" stroke="black" points="53,-107.5 229,-107.5 "/>
<text text-anchor="start" x="61" y="-95.5" font-family="FreeSans" font-size="10.00">&#45; PerturbState()</text>
<text text-anchor="start" x="61" y="-84.5" font-family="FreeSans" font-size="10.00">* iOrientation</text>
<text text-anchor="start" x="61" y="-73.5" font-family="FreeSans" font-size="10.00">* iRotation</text>
<text text-anchor="start" x="61" y="-62.5" font-family="FreeSans" font-size="10.00">* IsValid()</text>
<text text-anchor="start" x="61" y="-51.5" font-family="FreeSans" font-size="10.00">* ApplyPropagationFunction()</text>
<text text-anchor="start" x="61" y="-40.5" font-family="FreeSans" font-size="10.00">* ApplyMeasurementFunction()</text>
<text text-anchor="start" x="61" y="-29.5" font-family="FreeSans" font-size="10.00">* ComputeState()</text>
<text text-anchor="start" x="61" y="-18.5" font-family="FreeSans" font-size="10.00">* ComputeMeasurement()</text>
<text text-anchor="start" x="61" y="-7.5" font-family="FreeSans" font-size="10.00">* Update()</text>
</a>
</g>
</g>
<!-- Node1&#45;&gt;Node2 -->
<g id="edge2" class="edge"><title>Node1&#45;&gt;Node2</title>
<path fill="none" stroke="midnightblue" d="M141,-184.196C141,-174.892 141,-165.661 141,-156.756"/>
<polygon fill="none" stroke="midnightblue" points="137.5,-184.307 141,-194.307 144.5,-184.307 137.5,-184.307"/>
</g>
</g>
</svg>
        <g id="navigator" transform="translate(0 0)" fill="#404254">
                <rect fill="#f2f5e9" fill-opacity="0.5" stroke="#606060" stroke-width=".5" x="0" y="0" width="60" height="60"/>
                <use id="zoomplus" xlink:href="#zoomPlus" x="17" y="9" onmousedown="handleZoom(evt,'in')"/>
                <use id="zoomminus" xlink:href="#zoomMin" x="42" y="9" onmousedown="handleZoom(evt,'out')"/>
                <use id="reset" xlink:href="#resetDef" x="30" y="36" onmousedown="handleReset()"/>
                <g id="arrowUp" xlink:href="#dirArrow" transform="translate(30 24)" onmousedown="handlePan(0,-1)">
                  <use xlink:href="#rim" fill="#404040">
                        <set attributeName="fill" to="#808080" begin="arrowUp.mouseover" end="arrowUp.mouseout"/>
                  </use>
                  <path fill="none" stroke="white" stroke-width="1.5" d="M0,-3.0v7 M-2.5,-0.5L0,-3.0L2.5,-0.5"/>
                </g>
                <g id="arrowRight" xlink:href="#dirArrow" transform="rotate(90) translate(36 -43)" onmousedown="handlePan(1,0)">
                  <use xlink:href="#rim" fill="#404040">
                        <set attributeName="fill" to="#808080" begin="arrowRight.mouseover" end="arrowRight.mouseout"/>
                  </use>
                  <path fill="none" stroke="white" stroke-width="1.5" d="M0,-3.0v7 M-2.5,-0.5L0,-3.0L2.5,-0.5"/>
                </g>
                <g id="arrowDown" xlink:href="#dirArrow" transform="rotate(180) translate(-30 -48)" onmousedown="handlePan(0,1)">
                  <use xlink:href="#rim" fill="#404040">
                        <set attributeName="fill" to="#808080" begin="arrowDown.mouseover" end="arrowDown.mouseout"/>
                  </use>
                  <path fill="none" stroke="white" stroke-width="1.5" d="M0,-3.0v7 M-2.5,-0.5L0,-3.0L2.5,-0.5"/>
                </g>
                <g id="arrowLeft" xlink:href="#dirArrow" transform="rotate(270) translate(-36 17)" onmousedown="handlePan(-1,0)">
                  <use xlink:href="#rim" fill="#404040">
                        <set attributeName="fill" to="#808080" begin="arrowLeft.mouseover" end="arrowLeft.mouseout"/>
                  </use>
                  <path fill="none" stroke="white" stroke-width="1.5" d="M0,-3.0v7 M-2.5,-0.5L0,-3.0L2.5,-0.5"/>
                </g>
        </g>
        <svg viewBox="0 0 15 15" width="100%" height="30px" preserveAspectRatio="xMaxYMin meet">
         <g id="arrow_out" transform="scale(0.3 0.3)">
          <a xlink:href="classSeeSawN_1_1StateEstimationN_1_1UKFCameraTrackingProblemBaseC__inherit__graph_org.svg" target="_base">
           <rect id="button" ry="5" rx="5" y="6" x="6" height="38" width="38"
                fill="#f2f5e9" fill-opacity="0.5" stroke="#606060" stroke-width="1.0"/>
           <path id="arrow"
             d="M 11.500037,31.436501 C 11.940474,20.09759 22.043105,11.32322 32.158766,21.979434 L 37.068811,17.246167 C 37.068811,17.246167 37.088388,32 37.088388,32 L 22.160133,31.978069 C 22.160133,31.978069 26.997745,27.140456 26.997745,27.140456 C 18.528582,18.264221 13.291696,25.230495 11.500037,31.436501 z"
             style="fill:#404040;"/>
          </a>
         </g>
        </svg>
</svg>
