<?xml version="1.0" encoding="UTF-8" standalone="no"?>
<!DOCTYPE svg PUBLIC "-//W3C//DTD SVG 1.1//EN"
 "http://www.w3.org/Graphics/SVG/1.1/DTD/svg11.dtd">
<!-- Generated by graphviz version 2.38.0 (20140413.2041)
 -->
<!-- Title: SeeSawN::GeometryN::RotationRegistrationPipelineC::Run Pages: 1 -->
<!--zoomable 400 -->
<svg id="main" version="1.1" xmlns="http://www.w3.org/2000/svg" xmlns:xlink="http://www.w3.org/1999/xlink" xml:space="preserve" onload="init(evt)">
<style type="text/css"><![CDATA[
.edge:hover path { stroke: red; }
.edge:hover polygon { stroke: red; fill: red; }
]]></style>
<script type="text/javascript"><![CDATA[
var edges = document.getElementsByTagName('g');
if (edges && edges.length) {
  for (var i=0;i<edges.length;i++) {
    if (edges[i].id.substr(0,4)=='edge') {
      edges[i].setAttribute('class','edge');
    }
  }
}
]]></script>
        <defs>
                <circle id="rim" cx="0" cy="0" r="7"/>
                <circle id="rim2" cx="0" cy="0" r="3.5"/>
                <g id="zoomPlus">
                        <use xlink:href="#rim" fill="#404040">
                                <set attributeName="fill" to="#808080" begin="zoomplus.mouseover" end="zoomplus.mouseout"/>
                        </use>
                        <path d="M-4,0h8M0,-4v8" fill="none" stroke="white" stroke-width="1.5" pointer-events="none"/>
                </g>
                <g id="zoomMin">
                        <use xlink:href="#rim" fill="#404040">
                                <set attributeName="fill" to="#808080" begin="zoomminus.mouseover" end="zoomminus.mouseout"/>
                        </use>
                        <path d="M-4,0h8" fill="none" stroke="white" stroke-width="1.5" pointer-events="none"/>
                </g>
                <g id="dirArrow">
                        <path fill="none" stroke="white" stroke-width="1.5" d="M0,-3.0v7 M-2.5,-0.5L0,-3.0L2.5,-0.5"/>
                </g>
               <g id="resetDef">
                       <use xlink:href="#rim2" fill="#404040">
                               <set attributeName="fill" to="#808080" begin="reset.mouseover" end="reset.mouseout"/>
                       </use>
               </g>
        </defs>

<script type="text/javascript">
var viewWidth = 1054;
var viewHeight = 400;
var sectionId = 'dynsection-1';
</script>
<script xlink:href="svgpan.js"/>
<svg id="graph" class="graph">
<g id="viewport">
<title>SeeSawN::GeometryN::RotationRegistrationPipelineC::Run</title>
<polygon fill="white" stroke="none" points="-4,4 -4,-396 1050,-396 1050,4 -4,4"/>
<!-- Node0 -->
<g id="node1" class="node"><title>Node0</title>
<polygon fill="#bfbfbf" stroke="black" points="0,-200.5 0,-241.5 143,-241.5 143,-200.5 0,-200.5"/>
<text text-anchor="start" x="8" y="-229.5" font-family="FreeSans" font-size="10.00">SeeSawN::GeometryN</text>
<text text-anchor="start" x="8" y="-218.5" font-family="FreeSans" font-size="10.00">::RotationRegistrationPipeline</text>
<text text-anchor="middle" x="71.5" y="-207.5" font-family="FreeSans" font-size="10.00">C::Run</text>
</g>
<!-- Node1 -->
<g id="node2" class="node"><title>Node1</title>
<g id="a_node2"><a xlink:href="classSeeSawN_1_1RandomSpanningTreeSamplerN_1_1RandomSpanningTreeSamplerC.html#aa6bf615fbabd7fa0edaba19556dfc3fc" target="_top" xlink:title="Computes the minimum spanning tree solution. ">
<polygon fill="white" stroke="black" points="179,-350.5 179,-391.5 376,-391.5 376,-350.5 179,-350.5"/>
<text text-anchor="start" x="187" y="-379.5" font-family="FreeSans" font-size="10.00">SeeSawN::RandomSpanningTree</text>
<text text-anchor="start" x="187" y="-368.5" font-family="FreeSans" font-size="10.00">SamplerN::RandomSpanningTreeSampler</text>
<text text-anchor="middle" x="277.5" y="-357.5" font-family="FreeSans" font-size="10.00">C::ComputeMSTSolution</text>
</a>
</g>
</g>
<!-- Node0&#45;&gt;Node1 -->
<g id="edge1" class="edge"><title>Node0&#45;&gt;Node1</title>
<path fill="none" stroke="midnightblue" d="M85.4269,-241.517C103.291,-268.233 138.006,-314.625 179,-341 181.755,-342.773 184.622,-344.446 187.568,-346.025"/>
<polygon fill="midnightblue" stroke="midnightblue" points="186.103,-349.204 196.62,-350.483 189.196,-342.925 186.103,-349.204"/>
</g>
<!-- Node3 -->
<g id="node4" class="node"><title>Node3</title>
<g id="a_node4"><a xlink:href="classSeeSawN_1_1RandomSpanningTreeSamplerN_1_1RSTSRotationRegistrationProblemC.html#a19f7a54671a100d384562676c169a25a" target="_top" xlink:title="Evaluates the total fitness a model against the observations. ">
<polygon fill="white" stroke="black" points="188,-290.5 188,-331.5 367,-331.5 367,-290.5 188,-290.5"/>
<text text-anchor="start" x="196" y="-319.5" font-family="FreeSans" font-size="10.00">SeeSawN::RandomSpanningTree</text>
<text text-anchor="start" x="196" y="-308.5" font-family="FreeSans" font-size="10.00">SamplerN::RSTSRotationRegistration</text>
<text text-anchor="middle" x="277.5" y="-297.5" font-family="FreeSans" font-size="10.00">ProblemC::EvaluateModel</text>
</a>
</g>
</g>
<!-- Node0&#45;&gt;Node3 -->
<g id="edge3" class="edge"><title>Node0&#45;&gt;Node3</title>
<path fill="none" stroke="midnightblue" d="M104.671,-241.527C125.334,-254.099 153.067,-269.859 179,-281 183.76,-283.045 188.704,-285.014 193.73,-286.898"/>
<polygon fill="midnightblue" stroke="midnightblue" points="192.872,-290.31 203.466,-290.414 195.25,-283.726 192.872,-290.31"/>
</g>
<!-- Node5 -->
<g id="node6" class="node"><title>Node5</title>
<g id="a_node6"><a xlink:href="classSeeSawN_1_1RandomSpanningTreeSamplerN_1_1RSTSRotationRegistrationProblemC.html#aa80cf56bb1ee69ce298e51d3d020fd76" target="_top" xlink:title="Retrieves the observation indices corresponding to an edge list. ">
<polygon fill="white" stroke="black" points="181.5,-230.5 181.5,-271.5 373.5,-271.5 373.5,-230.5 181.5,-230.5"/>
<text text-anchor="start" x="189.5" y="-259.5" font-family="FreeSans" font-size="10.00">SeeSawN::RandomSpanningTree</text>
<text text-anchor="start" x="189.5" y="-248.5" font-family="FreeSans" font-size="10.00">SamplerN::RSTSRotationRegistration</text>
<text text-anchor="middle" x="277.5" y="-237.5" font-family="FreeSans" font-size="10.00">ProblemC::RetrieveObservationIndexList</text>
</a>
</g>
</g>
<!-- Node0&#45;&gt;Node5 -->
<g id="edge5" class="edge"><title>Node0&#45;&gt;Node5</title>
<path fill="none" stroke="midnightblue" d="M143.277,-231.408C152.416,-232.752 161.925,-234.151 171.469,-235.554"/>
<polygon fill="midnightblue" stroke="midnightblue" points="171.011,-239.024 181.414,-237.017 172.03,-232.099 171.011,-239.024"/>
</g>
<!-- Node7 -->
<g id="node8" class="node"><title>Node7</title>
<g id="a_node8"><a xlink:href="classSeeSawN_1_1GeometryN_1_1RelativeRotationRegistrationC.html#a420348223a6e35fb846c1167b29a92c9" target="_top" xlink:title="Runs the algorithm. ">
<polygon fill="white" stroke="black" points="205.5,-170.5 205.5,-211.5 349.5,-211.5 349.5,-170.5 205.5,-170.5"/>
<text text-anchor="start" x="213.5" y="-199.5" font-family="FreeSans" font-size="10.00">SeeSawN::GeometryN</text>
<text text-anchor="start" x="213.5" y="-188.5" font-family="FreeSans" font-size="10.00">::RelativeRotationRegistration</text>
<text text-anchor="middle" x="277.5" y="-177.5" font-family="FreeSans" font-size="10.00">C::Run</text>
</a>
</g>
</g>
<!-- Node0&#45;&gt;Node7 -->
<g id="edge7" class="edge"><title>Node0&#45;&gt;Node7</title>
<path fill="none" stroke="midnightblue" d="M143.277,-210.592C160.015,-208.13 177.995,-205.486 195.16,-202.962"/>
<polygon fill="midnightblue" stroke="midnightblue" points="195.773,-206.409 205.157,-201.492 194.755,-199.484 195.773,-206.409"/>
</g>
<!-- Node13 -->
<g id="node14" class="node"><title>Node13</title>
<g id="a_node14"><a xlink:href="classSeeSawN_1_1RandomSpanningTreeSamplerN_1_1RandomSpanningTreeSamplerC.html#a9107d1bab9ba61ed2145295428cf1bce" target="_top" xlink:title="Runs the algorithm. ">
<polygon fill="white" stroke="black" points="179,-98.5 179,-139.5 376,-139.5 376,-98.5 179,-98.5"/>
<text text-anchor="start" x="187" y="-127.5" font-family="FreeSans" font-size="10.00">SeeSawN::RandomSpanningTree</text>
<text text-anchor="start" x="187" y="-116.5" font-family="FreeSans" font-size="10.00">SamplerN::RandomSpanningTreeSampler</text>
<text text-anchor="middle" x="277.5" y="-105.5" font-family="FreeSans" font-size="10.00">C::Run</text>
</a>
</g>
</g>
<!-- Node0&#45;&gt;Node13 -->
<g id="edge13" class="edge"><title>Node0&#45;&gt;Node13</title>
<path fill="none" stroke="midnightblue" d="M107.013,-200.323C127.617,-188.292 154.468,-173.151 179,-161 190.977,-155.068 203.991,-149.126 216.495,-143.657"/>
<polygon fill="midnightblue" stroke="midnightblue" points="218.143,-146.757 225.932,-139.574 215.364,-140.333 218.143,-146.757"/>
</g>
<!-- Node16 -->
<g id="node17" class="node"><title>Node16</title>
<g id="a_node17"><a xlink:href="classSeeSawN_1_1GeometryN_1_1RotationRegistrationPipelineC.html#a989cde3d3703ff64c219520b392b2df6" target="_top" xlink:title="Validates the input. ">
<polygon fill="white" stroke="black" points="206,-13.5 206,-54.5 349,-54.5 349,-13.5 206,-13.5"/>
<text text-anchor="start" x="214" y="-42.5" font-family="FreeSans" font-size="10.00">SeeSawN::GeometryN</text>
<text text-anchor="start" x="214" y="-31.5" font-family="FreeSans" font-size="10.00">::RotationRegistrationPipeline</text>
<text text-anchor="middle" x="277.5" y="-20.5" font-family="FreeSans" font-size="10.00">C::ValidateInput</text>
</a>
</g>
</g>
<!-- Node0&#45;&gt;Node16 -->
<g id="edge16" class="edge"><title>Node0&#45;&gt;Node16</title>
<path fill="none" stroke="midnightblue" d="M85.6155,-200.198C103.946,-172.325 139.455,-122.495 179,-89 192.141,-77.8697 207.866,-67.8552 222.812,-59.5174"/>
<polygon fill="midnightblue" stroke="midnightblue" points="224.861,-62.388 231.987,-54.5477 221.527,-56.2329 224.861,-62.388"/>
</g>
<!-- Node2 -->
<g id="node3" class="node"><title>Node2</title>
<g id="a_node3"><a xlink:href="structSeeSawN_1_1RandomSpanningTreeSamplerN_1_1RandomSpanningTreeSamplerParametersC.html#a9bcf1199f5134d4bafa75b694d57b886" target="_top" xlink:title="SeeSawN::RandomSpanningTree\lSamplerN::RandomSpanningTreeSampler\lParametersC::RandomSpanningTreeSamplerParametersC">
<polygon fill="white" stroke="black" points="412,-350.5 412,-391.5 679,-391.5 679,-350.5 412,-350.5"/>
<text text-anchor="start" x="420" y="-379.5" font-family="FreeSans" font-size="10.00">SeeSawN::RandomSpanningTree</text>
<text text-anchor="start" x="420" y="-368.5" font-family="FreeSans" font-size="10.00">SamplerN::RandomSpanningTreeSampler</text>
<text text-anchor="middle" x="545.5" y="-357.5" font-family="FreeSans" font-size="10.00">ParametersC::RandomSpanningTreeSamplerParametersC</text>
</a>
</g>
</g>
<!-- Node1&#45;&gt;Node2 -->
<g id="edge2" class="edge"><title>Node1&#45;&gt;Node2</title>
<path fill="none" stroke="midnightblue" d="M376.038,-371C384.457,-371 393.081,-371 401.76,-371"/>
<polygon fill="midnightblue" stroke="midnightblue" points="401.966,-374.5 411.966,-371 401.966,-367.5 401.966,-374.5"/>
</g>
<!-- Node4 -->
<g id="node5" class="node"><title>Node4</title>
<g id="a_node5"><a xlink:href="classSeeSawN_1_1GeometryN_1_1RelativeRotationRegistrationC.html#a1dde879297e402bcb7c6dc180c654af2" target="_top" xlink:title="Computes the angular deviation between two rotations. ">
<polygon fill="white" stroke="black" points="473.5,-290.5 473.5,-331.5 617.5,-331.5 617.5,-290.5 473.5,-290.5"/>
<text text-anchor="start" x="481.5" y="-319.5" font-family="FreeSans" font-size="10.00">SeeSawN::GeometryN</text>
<text text-anchor="start" x="481.5" y="-308.5" font-family="FreeSans" font-size="10.00">::RelativeRotationRegistration</text>
<text text-anchor="middle" x="545.5" y="-297.5" font-family="FreeSans" font-size="10.00">C::ComputeAngularDeviation</text>
</a>
</g>
</g>
<!-- Node3&#45;&gt;Node4 -->
<g id="edge4" class="edge"><title>Node3&#45;&gt;Node4</title>
<path fill="none" stroke="midnightblue" d="M367.074,-311C398.033,-311 432.619,-311 462.975,-311"/>
<polygon fill="midnightblue" stroke="midnightblue" points="463.097,-314.5 473.097,-311 463.097,-307.5 463.097,-314.5"/>
</g>
<!-- Node6 -->
<g id="node7" class="node"><title>Node6</title>
<g id="a_node7"><a xlink:href="classSeeSawN_1_1RandomSpanningTreeSamplerN_1_1RSTSRotationRegistrationProblemC.html#a229e768728ccbdc39e42e61cb10fa5b8" target="_top" xlink:title="Finds the observation corresponding to an edge. ">
<polygon fill="white" stroke="black" points="456,-230.5 456,-271.5 635,-271.5 635,-230.5 456,-230.5"/>
<text text-anchor="start" x="464" y="-259.5" font-family="FreeSans" font-size="10.00">SeeSawN::RandomSpanningTree</text>
<text text-anchor="start" x="464" y="-248.5" font-family="FreeSans" font-size="10.00">SamplerN::RSTSRotationRegistration</text>
<text text-anchor="middle" x="545.5" y="-237.5" font-family="FreeSans" font-size="10.00">ProblemC::RetrieveObservationIndex</text>
</a>
</g>
</g>
<!-- Node5&#45;&gt;Node6 -->
<g id="edge6" class="edge"><title>Node5&#45;&gt;Node6</title>
<path fill="none" stroke="midnightblue" d="M373.781,-251C397.025,-251 421.945,-251 445.365,-251"/>
<polygon fill="midnightblue" stroke="midnightblue" points="445.653,-254.5 455.653,-251 445.653,-247.5 445.653,-254.5"/>
</g>
<!-- Node8 -->
<g id="node9" class="node"><title>Node8</title>
<g id="a_node9"><a xlink:href="classSeeSawN_1_1GeometryN_1_1RelativeRotationRegistrationC.html#a38b1e77617d92ac4b8d05a24edc20959" target="_top" xlink:title="LS solver. ">
<polygon fill="white" stroke="black" points="473.5,-170.5 473.5,-211.5 617.5,-211.5 617.5,-170.5 473.5,-170.5"/>
<text text-anchor="start" x="481.5" y="-199.5" font-family="FreeSans" font-size="10.00">SeeSawN::GeometryN</text>
<text text-anchor="start" x="481.5" y="-188.5" font-family="FreeSans" font-size="10.00">::RelativeRotationRegistration</text>
<text text-anchor="middle" x="545.5" y="-177.5" font-family="FreeSans" font-size="10.00">C::SolveLS</text>
</a>
</g>
</g>
<!-- Node7&#45;&gt;Node8 -->
<g id="edge8" class="edge"><title>Node7&#45;&gt;Node8</title>
<path fill="none" stroke="midnightblue" d="M349.783,-191C384.809,-191 427.173,-191 463.429,-191"/>
<polygon fill="midnightblue" stroke="midnightblue" points="463.482,-194.5 473.482,-191 463.482,-187.5 463.482,-194.5"/>
</g>
<!-- Node12 -->
<g id="node13" class="node"><title>Node12</title>
<g id="a_node13"><a xlink:href="classSeeSawN_1_1GeometryN_1_1RelativeRotationRegistrationC.html#a122afefe0cdded816f06b3df8227dba2" target="_top" xlink:title="Minimal solver. ">
<polygon fill="white" stroke="black" points="473.5,-110.5 473.5,-151.5 617.5,-151.5 617.5,-110.5 473.5,-110.5"/>
<text text-anchor="start" x="481.5" y="-139.5" font-family="FreeSans" font-size="10.00">SeeSawN::GeometryN</text>
<text text-anchor="start" x="481.5" y="-128.5" font-family="FreeSans" font-size="10.00">::RelativeRotationRegistration</text>
<text text-anchor="middle" x="545.5" y="-117.5" font-family="FreeSans" font-size="10.00">C::SolveMinimal</text>
</a>
</g>
</g>
<!-- Node7&#45;&gt;Node12 -->
<g id="edge12" class="edge"><title>Node7&#45;&gt;Node12</title>
<path fill="none" stroke="midnightblue" d="M349.783,-174.921C384.809,-167.021 427.173,-157.465 463.429,-149.287"/>
<polygon fill="midnightblue" stroke="midnightblue" points="464.497,-152.634 473.482,-147.019 462.957,-145.805 464.497,-152.634"/>
</g>
<!-- Node9 -->
<g id="node10" class="node"><title>Node9</title>
<g id="a_node10"><a xlink:href="classSeeSawN_1_1GeometryN_1_1RelativeRotationRegistrationC.html#a87271344dd6de5f174a2a0644c1fc754" target="_top" xlink:title="Constructs the equation system. ">
<polygon fill="white" stroke="black" points="715,-200.5 715,-241.5 859,-241.5 859,-200.5 715,-200.5"/>
<text text-anchor="start" x="723" y="-229.5" font-family="FreeSans" font-size="10.00">SeeSawN::GeometryN</text>
<text text-anchor="start" x="723" y="-218.5" font-family="FreeSans" font-size="10.00">::RelativeRotationRegistration</text>
<text text-anchor="middle" x="787" y="-207.5" font-family="FreeSans" font-size="10.00">C::MakeCoefficientMatrix</text>
</a>
</g>
</g>
<!-- Node8&#45;&gt;Node9 -->
<g id="edge9" class="edge"><title>Node8&#45;&gt;Node9</title>
<path fill="none" stroke="midnightblue" d="M617.709,-199.92C644.972,-203.335 676.276,-207.256 704.433,-210.783"/>
<polygon fill="midnightblue" stroke="midnightblue" points="704.294,-214.293 714.651,-212.063 705.164,-207.347 704.294,-214.293"/>
</g>
<!-- Node10 -->
<g id="node11" class="node"><title>Node10</title>
<g id="a_node11"><a xlink:href="classSeeSawN_1_1GeometryN_1_1RelativeRotationRegistrationC.html#a0019633e1a14fe7cbfef73e2254eab53" target="_top" xlink:title="Converts the solution vector to rotation matrices. ">
<polygon fill="white" stroke="black" points="715,-140.5 715,-181.5 859,-181.5 859,-140.5 715,-140.5"/>
<text text-anchor="start" x="723" y="-169.5" font-family="FreeSans" font-size="10.00">SeeSawN::GeometryN</text>
<text text-anchor="start" x="723" y="-158.5" font-family="FreeSans" font-size="10.00">::RelativeRotationRegistration</text>
<text text-anchor="middle" x="787" y="-147.5" font-family="FreeSans" font-size="10.00">C::MakeSolution</text>
</a>
</g>
</g>
<!-- Node8&#45;&gt;Node10 -->
<g id="edge10" class="edge"><title>Node8&#45;&gt;Node10</title>
<path fill="none" stroke="midnightblue" d="M617.709,-182.08C644.972,-178.665 676.276,-174.744 704.433,-171.217"/>
<polygon fill="midnightblue" stroke="midnightblue" points="705.164,-174.653 714.651,-169.937 704.294,-167.707 705.164,-174.653"/>
</g>
<!-- Node11 -->
<g id="node12" class="node"><title>Node11</title>
<g id="a_node12"><a xlink:href="namespaceSeeSawN_1_1NumericN.html#a4212174cae82d3ad9bee75e2c1046e81" target="_top" xlink:title="SeeSawN::NumericN::\lComputeClosestRotationMatrix">
<polygon fill="white" stroke="black" points="895,-146 895,-176 1046,-176 1046,-146 895,-146"/>
<text text-anchor="start" x="903" y="-164" font-family="FreeSans" font-size="10.00">SeeSawN::NumericN::</text>
<text text-anchor="middle" x="970.5" y="-153" font-family="FreeSans" font-size="10.00">ComputeClosestRotationMatrix</text>
</a>
</g>
</g>
<!-- Node10&#45;&gt;Node11 -->
<g id="edge11" class="edge"><title>Node10&#45;&gt;Node11</title>
<path fill="none" stroke="midnightblue" d="M859.213,-161C867.636,-161 876.294,-161 884.88,-161"/>
<polygon fill="midnightblue" stroke="midnightblue" points="884.906,-164.5 894.906,-161 884.906,-157.5 884.906,-164.5"/>
</g>
<!-- Node14 -->
<g id="node15" class="node"><title>Node14</title>
<g id="a_node15"><a xlink:href="namespaceSeeSawN_1_1NumericN.html#a5066e10101a6d932217edd2b1b87ecf6" target="_top" xlink:title="Returns the number of spanning trees. ">
<polygon fill="white" stroke="black" points="488.5,-61 488.5,-91 602.5,-91 602.5,-61 488.5,-61"/>
<text text-anchor="start" x="496.5" y="-79" font-family="FreeSans" font-size="10.00">SeeSawN::NumericN::</text>
<text text-anchor="middle" x="545.5" y="-68" font-family="FreeSans" font-size="10.00">CountSpanningTrees</text>
</a>
</g>
</g>
<!-- Node13&#45;&gt;Node14 -->
<g id="edge14" class="edge"><title>Node13&#45;&gt;Node14</title>
<path fill="none" stroke="midnightblue" d="M376.038,-103.233C410.008,-97.7412 447.307,-91.7116 478.155,-86.7249"/>
<polygon fill="midnightblue" stroke="midnightblue" points="479.042,-90.1271 488.355,-85.0761 477.925,-83.2168 479.042,-90.1271"/>
</g>
<!-- Node15 -->
<g id="node16" class="node"><title>Node15</title>
<g id="a_node16"><a xlink:href="group__Numerical.html#gaf75f0cdc87835db1925d24a694b012f3" target="_top" xlink:title="Returns the Laplacian of a graph. ">
<polygon fill="white" stroke="black" points="723.5,-61 723.5,-91 850.5,-91 850.5,-61 723.5,-61"/>
<text text-anchor="start" x="731.5" y="-79" font-family="FreeSans" font-size="10.00">SeeSawN::NumericN::</text>
<text text-anchor="middle" x="787" y="-68" font-family="FreeSans" font-size="10.00">ConstructGraphLaplacian</text>
</a>
</g>
</g>
<!-- Node14&#45;&gt;Node15 -->
<g id="edge15" class="edge"><title>Node14&#45;&gt;Node15</title>
<path fill="none" stroke="midnightblue" d="M602.652,-76C635.622,-76 677.652,-76 713.151,-76"/>
<polygon fill="midnightblue" stroke="midnightblue" points="713.458,-79.5001 723.458,-76 713.458,-72.5001 713.458,-79.5001"/>
</g>
<!-- Node17 -->
<g id="node18" class="node"><title>Node17</title>
<g id="a_node18"><a xlink:href="classSeeSawN_1_1GeometryN_1_1RelativeRotationRegistrationC.html#a6deee6621515c4de72d0f96e2f7ce185" target="_top" xlink:title="Checks whether an observation set satisfies the preconditions. ">
<polygon fill="white" stroke="black" points="473.5,-0.5 473.5,-41.5 617.5,-41.5 617.5,-0.5 473.5,-0.5"/>
<text text-anchor="start" x="481.5" y="-29.5" font-family="FreeSans" font-size="10.00">SeeSawN::GeometryN</text>
<text text-anchor="start" x="481.5" y="-18.5" font-family="FreeSans" font-size="10.00">::RelativeRotationRegistration</text>
<text text-anchor="middle" x="545.5" y="-7.5" font-family="FreeSans" font-size="10.00">C::ValidateObservations</text>
</a>
</g>
</g>
<!-- Node16&#45;&gt;Node17 -->
<g id="edge17" class="edge"><title>Node16&#45;&gt;Node17</title>
<path fill="none" stroke="midnightblue" d="M349.085,-30.5504C384.116,-28.8383 426.618,-26.7612 463.026,-24.9818"/>
<polygon fill="midnightblue" stroke="midnightblue" points="463.305,-28.4724 473.123,-24.4884 462.964,-21.4808 463.305,-28.4724"/>
</g>
<!-- Node18 -->
<g id="node19" class="node"><title>Node18</title>
<g id="a_node19"><a xlink:href="namespaceSeeSawN_1_1WrappersN.html#a87f9553a54fadfe82a39b254cc15f6ef" target="_top" xlink:title="SeeSawN::WrappersN\l::FindConnectedComponents">
<polygon fill="white" stroke="black" points="716.5,-6 716.5,-36 857.5,-36 857.5,-6 716.5,-6"/>
<text text-anchor="start" x="724.5" y="-24" font-family="FreeSans" font-size="10.00">SeeSawN::WrappersN</text>
<text text-anchor="middle" x="787" y="-13" font-family="FreeSans" font-size="10.00">::FindConnectedComponents</text>
</a>
</g>
</g>
<!-- Node17&#45;&gt;Node18 -->
<g id="edge18" class="edge"><title>Node17&#45;&gt;Node18</title>
<path fill="none" stroke="midnightblue" d="M617.709,-21C645.463,-21 677.405,-21 705.952,-21"/>
<polygon fill="midnightblue" stroke="midnightblue" points="706.302,-24.5001 716.302,-21 706.302,-17.5001 706.302,-24.5001"/>
</g>
</g>
</svg>
        <g id="navigator" transform="translate(0 0)" fill="#404254">
                <rect fill="#f2f5e9" fill-opacity="0.5" stroke="#606060" stroke-width=".5" x="0" y="0" width="60" height="60"/>
                <use id="zoomplus" xlink:href="#zoomPlus" x="17" y="9" onmousedown="handleZoom(evt,'in')"/>
                <use id="zoomminus" xlink:href="#zoomMin" x="42" y="9" onmousedown="handleZoom(evt,'out')"/>
                <use id="reset" xlink:href="#resetDef" x="30" y="36" onmousedown="handleReset()"/>
                <g id="arrowUp" xlink:href="#dirArrow" transform="translate(30 24)" onmousedown="handlePan(0,-1)">
                  <use xlink:href="#rim" fill="#404040">
                        <set attributeName="fill" to="#808080" begin="arrowUp.mouseover" end="arrowUp.mouseout"/>
                  </use>
                  <path fill="none" stroke="white" stroke-width="1.5" d="M0,-3.0v7 M-2.5,-0.5L0,-3.0L2.5,-0.5"/>
                </g>
                <g id="arrowRight" xlink:href="#dirArrow" transform="rotate(90) translate(36 -43)" onmousedown="handlePan(1,0)">
                  <use xlink:href="#rim" fill="#404040">
                        <set attributeName="fill" to="#808080" begin="arrowRight.mouseover" end="arrowRight.mouseout"/>
                  </use>
                  <path fill="none" stroke="white" stroke-width="1.5" d="M0,-3.0v7 M-2.5,-0.5L0,-3.0L2.5,-0.5"/>
                </g>
                <g id="arrowDown" xlink:href="#dirArrow" transform="rotate(180) translate(-30 -48)" onmousedown="handlePan(0,1)">
                  <use xlink:href="#rim" fill="#404040">
                        <set attributeName="fill" to="#808080" begin="arrowDown.mouseover" end="arrowDown.mouseout"/>
                  </use>
                  <path fill="none" stroke="white" stroke-width="1.5" d="M0,-3.0v7 M-2.5,-0.5L0,-3.0L2.5,-0.5"/>
                </g>
                <g id="arrowLeft" xlink:href="#dirArrow" transform="rotate(270) translate(-36 17)" onmousedown="handlePan(-1,0)">
                  <use xlink:href="#rim" fill="#404040">
                        <set attributeName="fill" to="#808080" begin="arrowLeft.mouseover" end="arrowLeft.mouseout"/>
                  </use>
                  <path fill="none" stroke="white" stroke-width="1.5" d="M0,-3.0v7 M-2.5,-0.5L0,-3.0L2.5,-0.5"/>
                </g>
        </g>
        <svg viewBox="0 0 15 15" width="100%" height="30px" preserveAspectRatio="xMaxYMin meet">
         <g id="arrow_out" transform="scale(0.3 0.3)">
          <a xlink:href="classSeeSawN_1_1GeometryN_1_1RotationRegistrationPipelineC_a22a6c27b89defbebeaa221583b2a1c5c_cgraph_org.svg" target="_base">
           <rect id="button" ry="5" rx="5" y="6" x="6" height="38" width="38"
                fill="#f2f5e9" fill-opacity="0.5" stroke="#606060" stroke-width="1.0"/>
           <path id="arrow"
             d="M 11.500037,31.436501 C 11.940474,20.09759 22.043105,11.32322 32.158766,21.979434 L 37.068811,17.246167 C 37.068811,17.246167 37.088388,32 37.088388,32 L 22.160133,31.978069 C 22.160133,31.978069 26.997745,27.140456 26.997745,27.140456 C 18.528582,18.264221 13.291696,25.230495 11.500037,31.436501 z"
             style="fill:#404040;"/>
          </a>
         </g>
        </svg>
</svg>
