<?xml version="1.0" encoding="UTF-8" standalone="no"?>
<!DOCTYPE svg PUBLIC "-//W3C//DTD SVG 1.1//EN"
 "http://www.w3.org/Graphics/SVG/1.1/DTD/svg11.dtd">
<!-- Generated by graphviz version 2.38.0 (20140413.2041)
 -->
<!-- Title: SeeSawN::ION::CameraIOC::WriteCameraFile Pages: 1 -->
<!--zoomable 368 -->
<svg id="main" version="1.1" xmlns="http://www.w3.org/2000/svg" xmlns:xlink="http://www.w3.org/1999/xlink" xml:space="preserve" onload="init(evt)">
<style type="text/css"><![CDATA[
.edge:hover path { stroke: red; }
.edge:hover polygon { stroke: red; fill: red; }
]]></style>
<script type="text/javascript"><![CDATA[
var edges = document.getElementsByTagName('g');
if (edges && edges.length) {
  for (var i=0;i<edges.length;i++) {
    if (edges[i].id.substr(0,4)=='edge') {
      edges[i].setAttribute('class','edge');
    }
  }
}
]]></script>
        <defs>
                <circle id="rim" cx="0" cy="0" r="7"/>
                <circle id="rim2" cx="0" cy="0" r="3.5"/>
                <g id="zoomPlus">
                        <use xlink:href="#rim" fill="#404040">
                                <set attributeName="fill" to="#808080" begin="zoomplus.mouseover" end="zoomplus.mouseout"/>
                        </use>
                        <path d="M-4,0h8M0,-4v8" fill="none" stroke="white" stroke-width="1.5" pointer-events="none"/>
                </g>
                <g id="zoomMin">
                        <use xlink:href="#rim" fill="#404040">
                                <set attributeName="fill" to="#808080" begin="zoomminus.mouseover" end="zoomminus.mouseout"/>
                        </use>
                        <path d="M-4,0h8" fill="none" stroke="white" stroke-width="1.5" pointer-events="none"/>
                </g>
                <g id="dirArrow">
                        <path fill="none" stroke="white" stroke-width="1.5" d="M0,-3.0v7 M-2.5,-0.5L0,-3.0L2.5,-0.5"/>
                </g>
               <g id="resetDef">
                       <use xlink:href="#rim2" fill="#404040">
                               <set attributeName="fill" to="#808080" begin="reset.mouseover" end="reset.mouseout"/>
                       </use>
               </g>
        </defs>

<script type="text/javascript">
var viewWidth = 620;
var viewHeight = 368;
var sectionId = 'dynsection-5';
</script>
<script xlink:href="svgpan.js"/>
<svg id="graph" class="graph">
<g id="viewport">
<title>SeeSawN::ION::CameraIOC::WriteCameraFile</title>
<polygon fill="white" stroke="none" points="-4,4 -4,-364 616,-364 616,4 -4,4"/>
<!-- Node26 -->
<g id="node1" class="node"><title>Node26</title>
<polygon fill="#bfbfbf" stroke="black" points="0,-176 0,-206 139,-206 139,-176 0,-176"/>
<text text-anchor="start" x="8" y="-194" font-family="FreeSans" font-size="10.00">SeeSawN::ION::CameraIOC</text>
<text text-anchor="middle" x="69.5" y="-183" font-family="FreeSans" font-size="10.00">::WriteCameraFile</text>
</g>
<!-- Node27 -->
<g id="node2" class="node"><title>Node27</title>
<g id="a_node2"><a xlink:href="namespaceSeeSawN_1_1UnitTestsN_1_1TestION.html#afb727e43f59f1e398de236bcfc53f70e" target="_top" xlink:title="SeeSawN::UnitTestsN\l::TestION::BOOST_AUTO\l_TEST_CASE">
<polygon fill="white" stroke="black" points="217,-318.5 217,-359.5 348,-359.5 348,-318.5 217,-318.5"/>
<text text-anchor="start" x="225" y="-347.5" font-family="FreeSans" font-size="10.00">SeeSawN::UnitTestsN</text>
<text text-anchor="start" x="225" y="-336.5" font-family="FreeSans" font-size="10.00">::TestION::BOOST_AUTO</text>
<text text-anchor="middle" x="282.5" y="-325.5" font-family="FreeSans" font-size="10.00">_TEST_CASE</text>
</a>
</g>
</g>
<!-- Node26&#45;&gt;Node27 -->
<g id="edge1" class="edge"><title>Node26&#45;&gt;Node27</title>
<path fill="none" stroke="midnightblue" d="M85.2474,-214.58C103.219,-241.381 136.055,-284.568 175,-309 187.611,-316.911 202.347,-322.782 216.765,-327.123"/>
<polygon fill="midnightblue" stroke="midnightblue" points="88.1442,-212.614 79.7352,-206.169 82.2896,-216.452 88.1442,-212.614"/>
</g>
<!-- Node28 -->
<g id="node3" class="node"><title>Node28</title>
<g id="a_node3"><a xlink:href="classSeeSawN_1_1ION_1_1CameraIOC.html#a6e4493b5322019254901653e81ee0be1" target="_top" xlink:title="Reads a UniS calibration file. ">
<polygon fill="white" stroke="black" points="213,-269 213,-299 352,-299 352,-269 213,-269"/>
<text text-anchor="start" x="221" y="-287" font-family="FreeSans" font-size="10.00">SeeSawN::ION::CameraIOC</text>
<text text-anchor="middle" x="282.5" y="-276" font-family="FreeSans" font-size="10.00">::ReadUniSFile</text>
</a>
</g>
</g>
<!-- Node26&#45;&gt;Node28 -->
<g id="edge2" class="edge"><title>Node26&#45;&gt;Node28</title>
<path fill="none" stroke="midnightblue" d="M100.089,-211.78C120.408,-225.298 148.412,-242.49 175,-254 188.397,-259.8 203.226,-264.8 217.456,-268.964"/>
<polygon fill="midnightblue" stroke="midnightblue" points="101.85,-208.745 91.6032,-206.05 97.9325,-214.546 101.85,-208.745"/>
</g>
<!-- Node30 -->
<g id="node5" class="node"><title>Node30</title>
<g id="a_node5"><a xlink:href="classSeeSawN_1_1UtilCameraConverterN_1_1UtilCameraConverterImplementationC.html#a584dffd82ccb693f58c03f7cece7b9f0" target="_top" xlink:title="Runs the application. ">
<polygon fill="white" stroke="black" points="426,-219.5 426,-260.5 612,-260.5 612,-219.5 426,-219.5"/>
<text text-anchor="start" x="434" y="-248.5" font-family="FreeSans" font-size="10.00">SeeSawN::UtilCameraConverter</text>
<text text-anchor="start" x="434" y="-237.5" font-family="FreeSans" font-size="10.00">N::UtilCameraConverterImplementation</text>
<text text-anchor="middle" x="519" y="-226.5" font-family="FreeSans" font-size="10.00">C::Run</text>
</a>
</g>
</g>
<!-- Node26&#45;&gt;Node30 -->
<g id="edge5" class="edge"><title>Node26&#45;&gt;Node30</title>
<path fill="none" stroke="midnightblue" d="M124.285,-208.935C140.42,-213.635 158.278,-218.173 175,-221 259.092,-235.214 356.263,-239.477 425.662,-240.471"/>
<polygon fill="midnightblue" stroke="midnightblue" points="125.071,-205.517 114.487,-206.002 123.063,-212.223 125.071,-205.517"/>
</g>
<!-- Node31 -->
<g id="node6" class="node"><title>Node31</title>
<g id="a_node6"><a xlink:href="classSeeSawN_1_1AppIntrinsicsEstimatorN_1_1AppIntrinsicsEstimatorImplementationC.html#a35bc8204b42ab904498ff9f53582ee95" target="_top" xlink:title="Saves the output. ">
<polygon fill="white" stroke="black" points="185.5,-170.5 185.5,-211.5 379.5,-211.5 379.5,-170.5 185.5,-170.5"/>
<text text-anchor="start" x="193.5" y="-199.5" font-family="FreeSans" font-size="10.00">SeeSawN::AppIntrinsicsEstimator</text>
<text text-anchor="start" x="193.5" y="-188.5" font-family="FreeSans" font-size="10.00">N::AppIntrinsicsEstimatorImplementation</text>
<text text-anchor="middle" x="282.5" y="-177.5" font-family="FreeSans" font-size="10.00">C::SaveOutput</text>
</a>
</g>
</g>
<!-- Node26&#45;&gt;Node31 -->
<g id="edge6" class="edge"><title>Node26&#45;&gt;Node31</title>
<path fill="none" stroke="midnightblue" d="M149.221,-191C161.003,-191 173.263,-191 185.357,-191"/>
<polygon fill="midnightblue" stroke="midnightblue" points="149.006,-187.5 139.006,-191 149.006,-194.5 149.006,-187.5"/>
</g>
<!-- Node32 -->
<g id="node7" class="node"><title>Node32</title>
<g id="a_node7"><a xlink:href="classSeeSawN_1_1AppPfMN_1_1AppPfMImplementationC.html#a4f9dc5050ec5a80c1b3eb743005b44fc" target="_top" xlink:title="Saves the output. ">
<polygon fill="white" stroke="black" points="175,-121 175,-151 390,-151 390,-121 175,-121"/>
<text text-anchor="start" x="183" y="-139" font-family="FreeSans" font-size="10.00">SeeSawN::AppPfMN::AppPfMImplementation</text>
<text text-anchor="middle" x="282.5" y="-128" font-family="FreeSans" font-size="10.00">C::SaveOutput</text>
</a>
</g>
</g>
<!-- Node26&#45;&gt;Node32 -->
<g id="edge7" class="edge"><title>Node26&#45;&gt;Node32</title>
<path fill="none" stroke="midnightblue" d="M130.922,-173.11C145.328,-168.995 160.679,-164.734 175,-161 187.956,-157.622 201.853,-154.208 215.191,-151.035"/>
<polygon fill="midnightblue" stroke="midnightblue" points="129.766,-169.8 121.123,-175.927 131.7,-176.527 129.766,-169.8"/>
</g>
<!-- Node33 -->
<g id="node8" class="node"><title>Node33</title>
<g id="a_node8"><a xlink:href="classSeeSawN_1_1AppNodalCameraTrackerN_1_1AppNodalCameraTrackerImplementationC.html#a4e2a342e77c5fc25f6529df3cbb024a2" target="_top" xlink:title="Saves the output. ">
<polygon fill="white" stroke="black" points="180,-60.5 180,-101.5 385,-101.5 385,-60.5 180,-60.5"/>
<text text-anchor="start" x="188" y="-89.5" font-family="FreeSans" font-size="10.00">SeeSawN::AppNodalCameraTracker</text>
<text text-anchor="start" x="188" y="-78.5" font-family="FreeSans" font-size="10.00">N::AppNodalCameraTrackerImplementation</text>
<text text-anchor="middle" x="282.5" y="-67.5" font-family="FreeSans" font-size="10.00">C::SaveOutput</text>
</a>
</g>
</g>
<!-- Node26&#45;&gt;Node33 -->
<g id="edge8" class="edge"><title>Node26&#45;&gt;Node33</title>
<path fill="none" stroke="midnightblue" d="M94.3237,-168.937C114.473,-151.321 144.81,-127.157 175,-112 182.744,-108.112 191.057,-104.633 199.499,-101.539"/>
<polygon fill="midnightblue" stroke="midnightblue" points="91.7483,-166.543 86.6024,-175.805 96.4005,-171.774 91.7483,-166.543"/>
</g>
<!-- Node34 -->
<g id="node9" class="node"><title>Node34</title>
<g id="a_node9"><a xlink:href="classSeeSawN_1_1AppGeometryEstimator32N_1_1GeometryEstimator32ImplementationC.html#a31305d664e38ab836f9660881e4212a2" target="_top" xlink:title="Saves the output. ">
<polygon fill="white" stroke="black" points="188,-0.5 188,-41.5 377,-41.5 377,-0.5 188,-0.5"/>
<text text-anchor="start" x="196" y="-29.5" font-family="FreeSans" font-size="10.00">SeeSawN::AppGeometryEstimator32</text>
<text text-anchor="start" x="196" y="-18.5" font-family="FreeSans" font-size="10.00">N::GeometryEstimator32Implementation</text>
<text text-anchor="middle" x="282.5" y="-7.5" font-family="FreeSans" font-size="10.00">C::SaveOutput</text>
</a>
</g>
</g>
<!-- Node26&#45;&gt;Node34 -->
<g id="edge9" class="edge"><title>Node26&#45;&gt;Node34</title>
<path fill="none" stroke="midnightblue" d="M82.1533,-166.8C98.5203,-135.387 131.279,-81.0447 175,-51 180.145,-47.4642 185.7,-44.3427 191.479,-41.5872"/>
<polygon fill="midnightblue" stroke="midnightblue" points="79.0103,-165.259 77.6061,-175.76 85.2526,-168.427 79.0103,-165.259"/>
</g>
<!-- Node29 -->
<g id="node4" class="node"><title>Node29</title>
<g id="a_node4"><a xlink:href="namespaceSeeSawN_1_1UnitTestsN_1_1TestION.html#aa40e7feb823ba1974d3ba7eb85f46c60" target="_top" xlink:title="SeeSawN::UnitTestsN\l::TestION::BOOST_AUTO\l_TEST_CASE">
<polygon fill="white" stroke="black" points="453.5,-279.5 453.5,-320.5 584.5,-320.5 584.5,-279.5 453.5,-279.5"/>
<text text-anchor="start" x="461.5" y="-308.5" font-family="FreeSans" font-size="10.00">SeeSawN::UnitTestsN</text>
<text text-anchor="start" x="461.5" y="-297.5" font-family="FreeSans" font-size="10.00">::TestION::BOOST_AUTO</text>
<text text-anchor="middle" x="519" y="-286.5" font-family="FreeSans" font-size="10.00">_TEST_CASE</text>
</a>
</g>
</g>
<!-- Node28&#45;&gt;Node29 -->
<g id="edge3" class="edge"><title>Node28&#45;&gt;Node29</title>
<path fill="none" stroke="midnightblue" d="M362.544,-289.393C392.05,-291.406 425.18,-293.667 453.25,-295.582"/>
<polygon fill="midnightblue" stroke="midnightblue" points="362.488,-285.881 352.273,-288.692 362.012,-292.865 362.488,-285.881"/>
</g>
<!-- Node28&#45;&gt;Node30 -->
<g id="edge4" class="edge"><title>Node28&#45;&gt;Node30</title>
<path fill="none" stroke="midnightblue" d="M362.132,-269.246C382.527,-265.419 404.677,-261.263 425.705,-257.318"/>
<polygon fill="midnightblue" stroke="midnightblue" points="361.456,-265.812 352.273,-271.096 362.747,-272.692 361.456,-265.812"/>
</g>
</g>
</svg>
        <g id="navigator" transform="translate(0 0)" fill="#404254">
                <rect fill="#f2f5e9" fill-opacity="0.5" stroke="#606060" stroke-width=".5" x="0" y="0" width="60" height="60"/>
                <use id="zoomplus" xlink:href="#zoomPlus" x="17" y="9" onmousedown="handleZoom(evt,'in')"/>
                <use id="zoomminus" xlink:href="#zoomMin" x="42" y="9" onmousedown="handleZoom(evt,'out')"/>
                <use id="reset" xlink:href="#resetDef" x="30" y="36" onmousedown="handleReset()"/>
                <g id="arrowUp" xlink:href="#dirArrow" transform="translate(30 24)" onmousedown="handlePan(0,-1)">
                  <use xlink:href="#rim" fill="#404040">
                        <set attributeName="fill" to="#808080" begin="arrowUp.mouseover" end="arrowUp.mouseout"/>
                  </use>
                  <path fill="none" stroke="white" stroke-width="1.5" d="M0,-3.0v7 M-2.5,-0.5L0,-3.0L2.5,-0.5"/>
                </g>
                <g id="arrowRight" xlink:href="#dirArrow" transform="rotate(90) translate(36 -43)" onmousedown="handlePan(1,0)">
                  <use xlink:href="#rim" fill="#404040">
                        <set attributeName="fill" to="#808080" begin="arrowRight.mouseover" end="arrowRight.mouseout"/>
                  </use>
                  <path fill="none" stroke="white" stroke-width="1.5" d="M0,-3.0v7 M-2.5,-0.5L0,-3.0L2.5,-0.5"/>
                </g>
                <g id="arrowDown" xlink:href="#dirArrow" transform="rotate(180) translate(-30 -48)" onmousedown="handlePan(0,1)">
                  <use xlink:href="#rim" fill="#404040">
                        <set attributeName="fill" to="#808080" begin="arrowDown.mouseover" end="arrowDown.mouseout"/>
                  </use>
                  <path fill="none" stroke="white" stroke-width="1.5" d="M0,-3.0v7 M-2.5,-0.5L0,-3.0L2.5,-0.5"/>
                </g>
                <g id="arrowLeft" xlink:href="#dirArrow" transform="rotate(270) translate(-36 17)" onmousedown="handlePan(-1,0)">
                  <use xlink:href="#rim" fill="#404040">
                        <set attributeName="fill" to="#808080" begin="arrowLeft.mouseover" end="arrowLeft.mouseout"/>
                  </use>
                  <path fill="none" stroke="white" stroke-width="1.5" d="M0,-3.0v7 M-2.5,-0.5L0,-3.0L2.5,-0.5"/>
                </g>
        </g>
        <svg viewBox="0 0 15 15" width="100%" height="30px" preserveAspectRatio="xMaxYMin meet">
         <g id="arrow_out" transform="scale(0.3 0.3)">
          <a xlink:href="classSeeSawN_1_1ION_1_1CameraIOC_a4759dcf917cf4b01f8a6e0855f8b1089_icgraph_org.svg" target="_base">
           <rect id="button" ry="5" rx="5" y="6" x="6" height="38" width="38"
                fill="#f2f5e9" fill-opacity="0.5" stroke="#606060" stroke-width="1.0"/>
           <path id="arrow"
             d="M 11.500037,31.436501 C 11.940474,20.09759 22.043105,11.32322 32.158766,21.979434 L 37.068811,17.246167 C 37.068811,17.246167 37.088388,32 37.088388,32 L 22.160133,31.978069 C 22.160133,31.978069 26.997745,27.140456 26.997745,27.140456 C 18.528582,18.264221 13.291696,25.230495 11.500037,31.436501 z"
             style="fill:#404040;"/>
          </a>
         </g>
        </svg>
</svg>
