<?xml version="1.0" encoding="UTF-8" standalone="no"?>
<!DOCTYPE svg PUBLIC "-//W3C//DTD SVG 1.1//EN"
 "http://www.w3.org/Graphics/SVG/1.1/DTD/svg11.dtd">
<!-- Generated by graphviz version 2.38.0 (20140413.2041)
 -->
<!-- Title: SeeSawN::SynchronisationN::MulticameraSynchonisationC::ProcessDropList Pages: 1 -->
<svg width="823pt" height="50pt"
 viewBox="0.00 0.00 823.00 50.00" xmlns="http://www.w3.org/2000/svg" xmlns:xlink="http://www.w3.org/1999/xlink">
<g id="graph0" class="graph" transform="scale(1 1) rotate(0) translate(4 46)">
<title>SeeSawN::SynchronisationN::MulticameraSynchonisationC::ProcessDropList</title>
<polygon fill="white" stroke="none" points="-4,4 -4,-46 819,-46 819,4 -4,4"/>
<!-- Node52 -->
<g id="node1" class="node"><title>Node52</title>
<polygon fill="#bfbfbf" stroke="black" points="0,-0.5 0,-41.5 148,-41.5 148,-0.5 0,-0.5"/>
<text text-anchor="start" x="8" y="-29.5" font-family="FreeSans" font-size="10.00">SeeSawN::Synchronisation</text>
<text text-anchor="start" x="8" y="-18.5" font-family="FreeSans" font-size="10.00">N::MulticameraSynchonisation</text>
<text text-anchor="middle" x="74" y="-7.5" font-family="FreeSans" font-size="10.00">C::ProcessDropList</text>
</g>
<!-- Node53 -->
<g id="node2" class="node"><title>Node53</title>
<g id="a_node2"><a xlink:href="classSeeSawN_1_1SynchronisationN_1_1MulticameraSynchonisationC.html#a1da813d09b03f570f8257e5cc833dab0" target="_top" xlink:title="Fuses the pairwise frame drop measurements. ">
<polygon fill="white" stroke="black" points="184,-0.5 184,-41.5 332,-41.5 332,-0.5 184,-0.5"/>
<text text-anchor="start" x="192" y="-29.5" font-family="FreeSans" font-size="10.00">SeeSawN::Synchronisation</text>
<text text-anchor="start" x="192" y="-18.5" font-family="FreeSans" font-size="10.00">N::MulticameraSynchonisation</text>
<text text-anchor="middle" x="258" y="-7.5" font-family="FreeSans" font-size="10.00">C::IdentifyFrameDrops</text>
</a>
</g>
</g>
<!-- Node52&#45;&gt;Node53 -->
<g id="edge1" class="edge"><title>Node52&#45;&gt;Node53</title>
<path fill="none" stroke="midnightblue" d="M158.516,-21C166.992,-21 175.556,-21 183.91,-21"/>
<polygon fill="midnightblue" stroke="midnightblue" points="158.24,-17.5001 148.24,-21 158.24,-24.5001 158.24,-17.5001"/>
</g>
<!-- Node54 -->
<g id="node3" class="node"><title>Node54</title>
<g id="a_node3"><a xlink:href="classSeeSawN_1_1SynchronisationN_1_1MulticameraSynchonisationC.html#a75a116defe53be4d2d177a2188f909bf" target="_top" xlink:title="Runs the synchronisation algorithm. ">
<polygon fill="white" stroke="black" points="368,-0.5 368,-41.5 516,-41.5 516,-0.5 368,-0.5"/>
<text text-anchor="start" x="376" y="-29.5" font-family="FreeSans" font-size="10.00">SeeSawN::Synchronisation</text>
<text text-anchor="start" x="376" y="-18.5" font-family="FreeSans" font-size="10.00">N::MulticameraSynchonisation</text>
<text text-anchor="middle" x="442" y="-7.5" font-family="FreeSans" font-size="10.00">C::Run</text>
</a>
</g>
</g>
<!-- Node53&#45;&gt;Node54 -->
<g id="edge2" class="edge"><title>Node53&#45;&gt;Node54</title>
<path fill="none" stroke="midnightblue" d="M342.516,-21C350.992,-21 359.556,-21 367.91,-21"/>
<polygon fill="midnightblue" stroke="midnightblue" points="342.24,-17.5001 332.24,-21 342.24,-24.5001 342.24,-17.5001"/>
</g>
<!-- Node55 -->
<g id="node4" class="node"><title>Node55</title>
<g id="a_node4"><a xlink:href="classSeeSawN_1_1AppMulticameraSynchronisationN_1_1AppMulticameraSynchronisationImplementationC.html#a74cf8f1a5ba9bb9ddb48089b2d43bd58" target="_top" xlink:title="Runs the application. ">
<polygon fill="white" stroke="black" points="552,-6 552,-36 815,-36 815,-6 552,-6"/>
<text text-anchor="start" x="560" y="-24" font-family="FreeSans" font-size="10.00">SeeSawN::AppMulticameraSynchronisation</text>
<text text-anchor="middle" x="683.5" y="-13" font-family="FreeSans" font-size="10.00">N::AppMulticameraSynchronisationImplementationC::Run</text>
</a>
</g>
</g>
<!-- Node54&#45;&gt;Node55 -->
<g id="edge3" class="edge"><title>Node54&#45;&gt;Node55</title>
<path fill="none" stroke="midnightblue" d="M526.216,-21C534.578,-21 543.202,-21 551.904,-21"/>
<polygon fill="midnightblue" stroke="midnightblue" points="526.159,-17.5001 516.159,-21 526.159,-24.5001 526.159,-17.5001"/>
</g>
</g>
</svg>
