<?xml version="1.0" encoding="UTF-8" standalone="no"?>
<!DOCTYPE svg PUBLIC "-//W3C//DTD SVG 1.1//EN"
 "http://www.w3.org/Graphics/SVG/1.1/DTD/svg11.dtd">
<!-- Generated by graphviz version 2.38.0 (20140413.2041)
 -->
<!-- Title: SeeSawN::AppGeometryEstimator32N::GeometryEstimator32ImplementationC::Run Pages: 1 -->
<svg width="401pt" height="39pt"
 viewBox="0.00 0.00 401.00 39.00" xmlns="http://www.w3.org/2000/svg" xmlns:xlink="http://www.w3.org/1999/xlink">
<g id="graph0" class="graph" transform="scale(1 1) rotate(0) translate(4 35)">
<title>SeeSawN::AppGeometryEstimator32N::GeometryEstimator32ImplementationC::Run</title>
<polygon fill="white" stroke="none" points="-4,4 -4,-35 397,-35 397,4 -4,4"/>
<!-- Node69 -->
<g id="node1" class="node"><title>Node69</title>
<polygon fill="#bfbfbf" stroke="black" points="0,-0.5 0,-30.5 218,-30.5 218,-0.5 0,-0.5"/>
<text text-anchor="start" x="8" y="-18.5" font-family="FreeSans" font-size="10.00">SeeSawN::AppGeometryEstimator32</text>
<text text-anchor="middle" x="109" y="-7.5" font-family="FreeSans" font-size="10.00">N::GeometryEstimator32ImplementationC::Run</text>
</g>
<!-- Node70 -->
<g id="node2" class="node"><title>Node70</title>
<g id="a_node2"><a xlink:href="classSeeSawN_1_1ION_1_1CameraIOC.html#a99c01490552c2b2cf3a0b82f4cef87ad" target="_top" xlink:title="Reads a camera file. ">
<polygon fill="white" stroke="black" points="254,-0.5 254,-30.5 393,-30.5 393,-0.5 254,-0.5"/>
<text text-anchor="start" x="262" y="-18.5" font-family="FreeSans" font-size="10.00">SeeSawN::ION::CameraIOC</text>
<text text-anchor="middle" x="323.5" y="-7.5" font-family="FreeSans" font-size="10.00">::ReadCameraFile</text>
</a>
</g>
</g>
<!-- Node69&#45;&gt;Node70 -->
<g id="edge1" class="edge"><title>Node69&#45;&gt;Node70</title>
<path fill="none" stroke="midnightblue" d="M218.118,-15.5C226.792,-15.5 235.449,-15.5 243.859,-15.5"/>
<polygon fill="midnightblue" stroke="midnightblue" points="243.978,-19.0001 253.978,-15.5 243.978,-12.0001 243.978,-19.0001"/>
</g>
</g>
</svg>
