<?xml version="1.0" encoding="UTF-8" standalone="no"?>
<!DOCTYPE svg PUBLIC "-//W3C//DTD SVG 1.1//EN"
 "http://www.w3.org/Graphics/SVG/1.1/DTD/svg11.dtd">
<!-- Generated by graphviz version 2.38.0 (20140413.2041)
 -->
<!-- Title: SeeSawN::AppCalibrationVerificationN::AppCalibrationVerificationImplementationC::Run Pages: 1 -->
<svg width="428pt" height="50pt"
 viewBox="0.00 0.00 428.00 50.00" xmlns="http://www.w3.org/2000/svg" xmlns:xlink="http://www.w3.org/1999/xlink">
<g id="graph0" class="graph" transform="scale(1 1) rotate(0) translate(4 46)">
<title>SeeSawN::AppCalibrationVerificationN::AppCalibrationVerificationImplementationC::Run</title>
<polygon fill="white" stroke="none" points="-4,4 -4,-46 424,-46 424,4 -4,4"/>
<!-- Node39 -->
<g id="node1" class="node"><title>Node39</title>
<polygon fill="#bfbfbf" stroke="black" points="0,-6 0,-36 235,-36 235,-6 0,-6"/>
<text text-anchor="start" x="8" y="-24" font-family="FreeSans" font-size="10.00">SeeSawN::AppCalibrationVerification</text>
<text text-anchor="middle" x="117.5" y="-13" font-family="FreeSans" font-size="10.00">N::AppCalibrationVerificationImplementationC::Run</text>
</g>
<!-- Node40 -->
<g id="node2" class="node"><title>Node40</title>
<g id="a_node2"><a xlink:href="classSeeSawN_1_1GeometryN_1_1CalibrationVerificationPipelineC.html#a0c7b454906987c911ced4e3eee427260" target="_top" xlink:title="Runs the algorithm. ">
<polygon fill="white" stroke="black" points="271,-0.5 271,-41.5 420,-41.5 420,-0.5 271,-0.5"/>
<text text-anchor="start" x="279" y="-29.5" font-family="FreeSans" font-size="10.00">SeeSawN::GeometryN</text>
<text text-anchor="start" x="279" y="-18.5" font-family="FreeSans" font-size="10.00">::CalibrationVerificationPipeline</text>
<text text-anchor="middle" x="345.5" y="-7.5" font-family="FreeSans" font-size="10.00">C::Run</text>
</a>
</g>
</g>
<!-- Node39&#45;&gt;Node40 -->
<g id="edge1" class="edge"><title>Node39&#45;&gt;Node40</title>
<path fill="none" stroke="midnightblue" d="M235.141,-21C243.812,-21 252.454,-21 260.863,-21"/>
<polygon fill="midnightblue" stroke="midnightblue" points="260.991,-24.5001 270.991,-21 260.991,-17.5001 260.991,-24.5001"/>
</g>
</g>
</svg>
