<?xml version="1.0" encoding="UTF-8" standalone="no"?>
<!DOCTYPE svg PUBLIC "-//W3C//DTD SVG 1.1//EN"
 "http://www.w3.org/Graphics/SVG/1.1/DTD/svg11.dtd">
<!-- Generated by graphviz version 2.38.0 (20140413.2041)
 -->
<!-- Title: SeeSawN::OptimisationN::PDLP3PProblemC::InitialEstimate Pages: 1 -->
<svg width="476pt" height="88pt"
 viewBox="0.00 0.00 476.00 88.00" xmlns="http://www.w3.org/2000/svg" xmlns:xlink="http://www.w3.org/1999/xlink">
<g id="graph0" class="graph" transform="scale(1 1) rotate(0) translate(4 84)">
<title>SeeSawN::OptimisationN::PDLP3PProblemC::InitialEstimate</title>
<polygon fill="white" stroke="none" points="-4,4 -4,-84 472,-84 472,4 -4,4"/>
<!-- Node23 -->
<g id="node1" class="node"><title>Node23</title>
<polygon fill="#bfbfbf" stroke="black" points="0,-24.5 0,-54.5 168,-54.5 168,-24.5 0,-24.5"/>
<text text-anchor="start" x="8" y="-42.5" font-family="FreeSans" font-size="10.00">SeeSawN::OptimisationN</text>
<text text-anchor="middle" x="84" y="-31.5" font-family="FreeSans" font-size="10.00">::PDLP3PProblemC::InitialEstimate</text>
</g>
<!-- Node24 -->
<g id="node2" class="node"><title>Node24</title>
<g id="a_node2"><a xlink:href="group__Elements.html#ga55a635a974118036dd0778de74a63a82" target="_top" xlink:title="Decomposes a camera into its constituent elements. ">
<polygon fill="white" stroke="black" points="204.5,-49.5 204.5,-79.5 317.5,-79.5 317.5,-49.5 204.5,-49.5"/>
<text text-anchor="start" x="212.5" y="-67.5" font-family="FreeSans" font-size="10.00">SeeSawN::ElementsN</text>
<text text-anchor="middle" x="261" y="-56.5" font-family="FreeSans" font-size="10.00">::DecomposeCamera</text>
</a>
</g>
</g>
<!-- Node23&#45;&gt;Node24 -->
<g id="edge1" class="edge"><title>Node23&#45;&gt;Node24</title>
<path fill="none" stroke="midnightblue" d="M168.144,-51.3777C176.796,-52.6137 185.505,-53.8579 193.932,-55.0616"/>
<polygon fill="midnightblue" stroke="midnightblue" points="193.653,-58.5573 204.047,-56.5067 194.643,-51.6276 193.653,-58.5573"/>
</g>
<!-- Node26 -->
<g id="node4" class="node"><title>Node26</title>
<g id="a_node4"><a xlink:href="namespaceSeeSawN_1_1WrappersN.html#a54a51c45d116657bc4879fb4e29f59c9" target="_top" xlink:title="SeeSawN::WrappersN\l::QuaternionToVector">
<polygon fill="white" stroke="black" points="204,-0.5 204,-30.5 318,-30.5 318,-0.5 204,-0.5"/>
<text text-anchor="start" x="212" y="-18.5" font-family="FreeSans" font-size="10.00">SeeSawN::WrappersN</text>
<text text-anchor="middle" x="261" y="-7.5" font-family="FreeSans" font-size="10.00">::QuaternionToVector</text>
</a>
</g>
</g>
<!-- Node23&#45;&gt;Node26 -->
<g id="edge3" class="edge"><title>Node23&#45;&gt;Node26</title>
<path fill="none" stroke="midnightblue" d="M168.144,-28.0974C176.67,-26.928 185.253,-25.7511 193.565,-24.6111"/>
<polygon fill="midnightblue" stroke="midnightblue" points="194.117,-28.0682 203.549,-23.2419 193.166,-21.1331 194.117,-28.0682"/>
</g>
<!-- Node25 -->
<g id="node3" class="node"><title>Node25</title>
<g id="a_node3"><a xlink:href="namespaceSeeSawN_1_1NumericN.html#a1de61a43a6f9cc9d3040f3850008e202" target="_top" xlink:title="SeeSawN::NumericN::\lRQDecomposition33">
<polygon fill="white" stroke="black" points="354,-49.5 354,-79.5 468,-79.5 468,-49.5 354,-49.5"/>
<text text-anchor="start" x="362" y="-67.5" font-family="FreeSans" font-size="10.00">SeeSawN::NumericN::</text>
<text text-anchor="middle" x="411" y="-56.5" font-family="FreeSans" font-size="10.00">RQDecomposition33</text>
</a>
</g>
</g>
<!-- Node24&#45;&gt;Node25 -->
<g id="edge2" class="edge"><title>Node24&#45;&gt;Node25</title>
<path fill="none" stroke="midnightblue" d="M317.531,-64.5C326.02,-64.5 334.856,-64.5 343.551,-64.5"/>
<polygon fill="midnightblue" stroke="midnightblue" points="343.665,-68.0001 353.665,-64.5 343.665,-61.0001 343.665,-68.0001"/>
</g>
</g>
</svg>
