<?xml version="1.0" encoding="UTF-8" standalone="no"?>
<!DOCTYPE svg PUBLIC "-//W3C//DTD SVG 1.1//EN"
 "http://www.w3.org/Graphics/SVG/1.1/DTD/svg11.dtd">
<!-- Generated by graphviz version 2.38.0 (20140413.2041)
 -->
<!-- Title: SeeSawN::AppGeometryEstimator22N::GeometryEstimator22ImplementationC::ComputeInitialEstimate Pages: 1 -->
<svg width="612pt" height="312pt"
 viewBox="0.00 0.00 612.00 311.67" xmlns="http://www.w3.org/2000/svg" xmlns:xlink="http://www.w3.org/1999/xlink">
<g id="graph0" class="graph" transform="scale(1 1) rotate(0) translate(4 307.671)">
<title>SeeSawN::AppGeometryEstimator22N::GeometryEstimator22ImplementationC::ComputeInitialEstimate</title>
<polygon fill="white" stroke="none" points="-4,4 -4,-307.671 608,-307.671 608,4 -4,4"/>
<!-- Node21 -->
<g id="node1" class="node"><title>Node21</title>
<polygon fill="#bfbfbf" stroke="black" points="0,-125.671 0,-166.671 189,-166.671 189,-125.671 0,-125.671"/>
<text text-anchor="start" x="8" y="-154.671" font-family="FreeSans" font-size="10.00">SeeSawN::AppGeometryEstimator22</text>
<text text-anchor="start" x="8" y="-143.671" font-family="FreeSans" font-size="10.00">N::GeometryEstimator22Implementation</text>
<text text-anchor="middle" x="94.5" y="-132.671" font-family="FreeSans" font-size="10.00">C::ComputeInitialEstimate</text>
</g>
<!-- Node22 -->
<g id="node2" class="node"><title>Node22</title>
<g id="a_node2"><a xlink:href="group__Elements.html#gad85aaab9f5c68f68c91a98c5da0364fe" target="_top" xlink:title="Computes the fundamental matrix corresponding to a camera pair. ">
<polygon fill="white" stroke="black" points="250.5,-273.171 250.5,-303.171 372.5,-303.171 372.5,-273.171 250.5,-273.171"/>
<text text-anchor="start" x="258.5" y="-291.171" font-family="FreeSans" font-size="10.00">SeeSawN::ElementsN</text>
<text text-anchor="middle" x="311.5" y="-280.171" font-family="FreeSans" font-size="10.00">::CameraToFundamental</text>
</a>
</g>
</g>
<!-- Node21&#45;&gt;Node22 -->
<g id="edge1" class="edge"><title>Node21&#45;&gt;Node22</title>
<path fill="none" stroke="midnightblue" d="M112.602,-166.835C135.523,-193.215 178.716,-238.505 225,-264.171 229.888,-266.881 235.105,-269.305 240.462,-271.469"/>
<polygon fill="midnightblue" stroke="midnightblue" points="239.619,-274.89 250.212,-275.091 242.056,-268.328 239.619,-274.89"/>
</g>
<!-- Node24 -->
<g id="node4" class="node"><title>Node24</title>
<g id="a_node4"><a xlink:href="group__Utility.html#ga2f519087424cafea424595a5babba108" target="_top" xlink:title="2D homography between the images acquired by two cameras with coincident camera centres ...">
<polygon fill="white" stroke="black" points="251,-224.171 251,-254.171 372,-254.171 372,-224.171 251,-224.171"/>
<text text-anchor="start" x="259" y="-242.171" font-family="FreeSans" font-size="10.00">SeeSawN::ElementsN</text>
<text text-anchor="middle" x="311.5" y="-231.171" font-family="FreeSans" font-size="10.00">::CameraToHomography</text>
</a>
</g>
</g>
<!-- Node21&#45;&gt;Node24 -->
<g id="edge3" class="edge"><title>Node21&#45;&gt;Node24</title>
<path fill="none" stroke="midnightblue" d="M129.159,-166.704C154.746,-181.664 191.191,-201.604 225,-215.171 230.097,-217.216 235.432,-219.157 240.839,-220.983"/>
<polygon fill="midnightblue" stroke="midnightblue" points="240.022,-224.397 250.613,-224.143 242.175,-217.736 240.022,-224.397"/>
</g>
<!-- Node25 -->
<g id="node5" class="node"><title>Node25</title>
<g id="a_node5"><a xlink:href="classSeeSawN_1_1ElementsN_1_1CameraC.html#a1022fc3bcf3a5e280332ca357d1fe394" target="_top" xlink:title="Returns a constant reference to extrinsics. ">
<polygon fill="white" stroke="black" points="255,-175.171 255,-205.171 368,-205.171 368,-175.171 255,-175.171"/>
<text text-anchor="start" x="263" y="-193.171" font-family="FreeSans" font-size="10.00">SeeSawN::ElementsN</text>
<text text-anchor="middle" x="311.5" y="-182.171" font-family="FreeSans" font-size="10.00">::CameraC::Extrinsics</text>
</a>
</g>
</g>
<!-- Node21&#45;&gt;Node25 -->
<g id="edge4" class="edge"><title>Node21&#45;&gt;Node25</title>
<path fill="none" stroke="midnightblue" d="M189.177,-165.342C207.906,-169.175 227.206,-173.124 244.748,-176.714"/>
<polygon fill="midnightblue" stroke="midnightblue" points="244.358,-180.207 254.857,-178.783 245.762,-173.349 244.358,-180.207"/>
</g>
<!-- Node26 -->
<g id="node6" class="node"><title>Node26</title>
<g id="a_node6"><a xlink:href="classSeeSawN_1_1ElementsN_1_1CameraC.html#ad63af5eb85128f566ecff5ef9d52be71" target="_top" xlink:title="Returns the camera matrix for the camera. ">
<polygon fill="white" stroke="black" points="236.5,-87.1706 236.5,-117.171 386.5,-117.171 386.5,-87.1706 236.5,-87.1706"/>
<text text-anchor="start" x="244.5" y="-105.171" font-family="FreeSans" font-size="10.00">SeeSawN::ElementsN</text>
<text text-anchor="middle" x="311.5" y="-94.1706" font-family="FreeSans" font-size="10.00">::CameraC::MakeCameraMatrix</text>
</a>
</g>
</g>
<!-- Node21&#45;&gt;Node26 -->
<g id="edge5" class="edge"><title>Node21&#45;&gt;Node26</title>
<path fill="none" stroke="midnightblue" d="M189.177,-127C201.856,-124.405 214.796,-121.757 227.276,-119.203"/>
<polygon fill="midnightblue" stroke="midnightblue" points="228.076,-122.611 237.172,-117.177 226.673,-115.753 228.076,-122.611"/>
</g>
<!-- Node27 -->
<g id="node7" class="node"><title>Node27</title>
<g id="a_node7"><a xlink:href="classSeeSawN_1_1ElementsN_1_1CameraC.html#a607bbf63f9f79cded692587792940604" target="_top" xlink:title="Returns the intrinsic calibration matrix for the camera. ">
<polygon fill="white" stroke="black" points="434,-125.671 434,-166.671 604,-166.671 604,-125.671 434,-125.671"/>
<text text-anchor="start" x="442" y="-154.671" font-family="FreeSans" font-size="10.00">SeeSawN::ElementsN</text>
<text text-anchor="start" x="442" y="-143.671" font-family="FreeSans" font-size="10.00">::CameraC::MakeIntrinsicCalibration</text>
<text text-anchor="middle" x="519" y="-132.671" font-family="FreeSans" font-size="10.00">Matrix</text>
</a>
</g>
</g>
<!-- Node21&#45;&gt;Node27 -->
<g id="edge9" class="edge"><title>Node21&#45;&gt;Node27</title>
<path fill="none" stroke="midnightblue" d="M189.004,-146.171C258.736,-146.171 353.618,-146.171 423.571,-146.171"/>
<polygon fill="midnightblue" stroke="midnightblue" points="423.705,-149.671 433.705,-146.171 423.705,-142.671 423.705,-149.671"/>
</g>
<!-- Node28 -->
<g id="node8" class="node"><title>Node28</title>
<g id="a_node8"><a xlink:href="classSeeSawN_1_1ElementsN_1_1CameraC.html#ab635f42103fb4359b8b5120c22f688fb" target="_top" xlink:title="Returns the rotation matrix corresponding to the orientation of the camera. ">
<polygon fill="white" stroke="black" points="443,-27.1706 443,-57.1706 595,-57.1706 595,-27.1706 443,-27.1706"/>
<text text-anchor="start" x="451" y="-45.1706" font-family="FreeSans" font-size="10.00">SeeSawN::ElementsN</text>
<text text-anchor="middle" x="519" y="-34.1706" font-family="FreeSans" font-size="10.00">::CameraC::MakeRotationMatrix</text>
</a>
</g>
</g>
<!-- Node21&#45;&gt;Node28 -->
<g id="edge13" class="edge"><title>Node21&#45;&gt;Node28</title>
<path fill="none" stroke="midnightblue" d="M108.325,-125.593C128.686,-95.1193 171.619,-39.2211 225,-17.1706 304.785,15.7869 406.997,-5.69851 467.204,-24.0861"/>
<polygon fill="midnightblue" stroke="midnightblue" points="466.268,-27.4607 476.857,-27.1183 468.366,-20.7824 466.268,-27.4607"/>
</g>
<!-- Node30 -->
<g id="node10" class="node"><title>Node30</title>
<g id="a_node10"><a xlink:href="classSeeSawN_1_1ElementsN_1_1CameraC.html#a5dea4204e093d7311a639f4d241d9173" target="_top" xlink:title="Returns the normalised camera matrix for the camera. ">
<polygon fill="white" stroke="black" points="225,-26.6706 225,-67.6706 398,-67.6706 398,-26.6706 225,-26.6706"/>
<text text-anchor="start" x="233" y="-55.6706" font-family="FreeSans" font-size="10.00">SeeSawN::ElementsN</text>
<text text-anchor="start" x="233" y="-44.6706" font-family="FreeSans" font-size="10.00">::CameraC::MakeNormalisedCamera</text>
<text text-anchor="middle" x="311.5" y="-33.6706" font-family="FreeSans" font-size="10.00">Matrix</text>
</a>
</g>
</g>
<!-- Node21&#45;&gt;Node30 -->
<g id="edge10" class="edge"><title>Node21&#45;&gt;Node30</title>
<path fill="none" stroke="midnightblue" d="M130.507,-125.646C156.163,-111.07 192.108,-91.6039 225,-77.1706 229.448,-75.219 234.066,-73.3017 238.749,-71.4389"/>
<polygon fill="midnightblue" stroke="midnightblue" points="240.356,-74.5703 248.42,-67.6983 237.831,-68.0417 240.356,-74.5703"/>
</g>
<!-- Node23 -->
<g id="node3" class="node"><title>Node23</title>
<g id="a_node3"><a xlink:href="namespaceSeeSawN_1_1WrappersN.html#a7a58341e8f21a5c2a3a8d55453ec473d" target="_top" xlink:title="SeeSawN::WrappersN\l::MakeCrossProductMatrix">
<polygon fill="white" stroke="black" points="453.5,-273.171 453.5,-303.171 584.5,-303.171 584.5,-273.171 453.5,-273.171"/>
<text text-anchor="start" x="461.5" y="-291.171" font-family="FreeSans" font-size="10.00">SeeSawN::WrappersN</text>
<text text-anchor="middle" x="519" y="-280.171" font-family="FreeSans" font-size="10.00">::MakeCrossProductMatrix</text>
</a>
</g>
</g>
<!-- Node22&#45;&gt;Node23 -->
<g id="edge2" class="edge"><title>Node22&#45;&gt;Node23</title>
<path fill="none" stroke="midnightblue" d="M372.768,-288.171C394.846,-288.171 420.099,-288.171 443.289,-288.171"/>
<polygon fill="midnightblue" stroke="midnightblue" points="443.431,-291.671 453.431,-288.171 443.431,-284.671 443.431,-291.671"/>
</g>
<!-- Node26&#45;&gt;Node27 -->
<g id="edge6" class="edge"><title>Node26&#45;&gt;Node27</title>
<path fill="none" stroke="midnightblue" d="M382.647,-117.19C395.933,-120.035 410.03,-123.053 423.915,-126.026"/>
<polygon fill="midnightblue" stroke="midnightblue" points="423.462,-129.508 433.973,-128.179 424.927,-122.663 423.462,-129.508"/>
</g>
<!-- Node26&#45;&gt;Node28 -->
<g id="edge7" class="edge"><title>Node26&#45;&gt;Node28</title>
<path fill="none" stroke="midnightblue" d="M364.526,-87.0672C375.583,-83.8267 387.183,-80.4044 398,-77.1706 414.029,-72.3784 417.956,-70.9133 434,-66.1706 440.8,-64.1606 447.917,-62.0843 455.01,-60.033"/>
<polygon fill="midnightblue" stroke="midnightblue" points="455.994,-63.3919 464.634,-57.2598 454.055,-56.6656 455.994,-63.3919"/>
</g>
<!-- Node29 -->
<g id="node9" class="node"><title>Node29</title>
<g id="a_node9"><a xlink:href="group__Elements.html#gaed97416c6eb370835de21c7c7d9942dd" target="_top" xlink:title="Composes a camera matrix. ">
<polygon fill="white" stroke="black" points="458,-76.1706 458,-106.171 580,-106.171 580,-76.1706 458,-76.1706"/>
<text text-anchor="start" x="466" y="-94.1706" font-family="FreeSans" font-size="10.00">SeeSawN::ElementsN</text>
<text text-anchor="middle" x="519" y="-83.1706" font-family="FreeSans" font-size="10.00">::ComposeCameraMatrix</text>
</a>
</g>
</g>
<!-- Node26&#45;&gt;Node29 -->
<g id="edge8" class="edge"><title>Node26&#45;&gt;Node29</title>
<path fill="none" stroke="midnightblue" d="M386.69,-98.1993C406.564,-97.1355 427.987,-95.9888 447.646,-94.9365"/>
<polygon fill="midnightblue" stroke="midnightblue" points="447.95,-98.4253 457.749,-94.3957 447.576,-91.4353 447.95,-98.4253"/>
</g>
<!-- Node30&#45;&gt;Node28 -->
<g id="edge11" class="edge"><title>Node30&#45;&gt;Node28</title>
<path fill="none" stroke="midnightblue" d="M398.162,-45.0863C409.662,-44.8066 421.455,-44.5196 432.943,-44.2401"/>
<polygon fill="midnightblue" stroke="midnightblue" points="433.034,-47.739 442.946,-43.9967 432.864,-40.7411 433.034,-47.739"/>
</g>
<!-- Node30&#45;&gt;Node29 -->
<g id="edge12" class="edge"><title>Node30&#45;&gt;Node29</title>
<path fill="none" stroke="midnightblue" d="M398.162,-65.5119C414.761,-69.0659 431.972,-72.751 447.996,-76.182"/>
<polygon fill="midnightblue" stroke="midnightblue" points="447.293,-79.6106 457.804,-78.2819 448.759,-72.7658 447.293,-79.6106"/>
</g>
</g>
</svg>
