<?xml version="1.0" encoding="UTF-8" standalone="no"?>
<!DOCTYPE svg PUBLIC "-//W3C//DTD SVG 1.1//EN"
 "http://www.w3.org/Graphics/SVG/1.1/DTD/svg11.dtd">
<!-- Generated by graphviz version 2.38.0 (20140413.2041)
 -->
<!-- Title: SeeSawN::GeometryN::LensDistortionNoDC::Correct Pages: 1 -->
<svg width="464pt" height="50pt"
 viewBox="0.00 0.00 464.00 50.00" xmlns="http://www.w3.org/2000/svg" xmlns:xlink="http://www.w3.org/1999/xlink">
<g id="graph0" class="graph" transform="scale(1 1) rotate(0) translate(4 46)">
<title>SeeSawN::GeometryN::LensDistortionNoDC::Correct</title>
<polygon fill="white" stroke="none" points="-4,4 -4,-46 460,-46 460,4 -4,4"/>
<!-- Node9 -->
<g id="node1" class="node"><title>Node9</title>
<polygon fill="#bfbfbf" stroke="black" points="0,-0.5 0,-41.5 115,-41.5 115,-0.5 0,-0.5"/>
<text text-anchor="start" x="8" y="-29.5" font-family="FreeSans" font-size="10.00">SeeSawN::GeometryN</text>
<text text-anchor="start" x="8" y="-18.5" font-family="FreeSans" font-size="10.00">::LensDistortionNoDC</text>
<text text-anchor="middle" x="57.5" y="-7.5" font-family="FreeSans" font-size="10.00">::Correct</text>
</g>
<!-- Node10 -->
<g id="node2" class="node"><title>Node10</title>
<g id="a_node2"><a xlink:href="namespaceSeeSawN_1_1UnitTestsN_1_1TestGeometryN.html#afdcb94f2361f1220f461ba0c07e499c9" target="_top" xlink:title="SeeSawN::UnitTestsN\l::TestGeometryN::BOOST\l_AUTO_TEST_SUITE_END">
<polygon fill="white" stroke="black" points="151,-0.5 151,-41.5 291,-41.5 291,-0.5 151,-0.5"/>
<text text-anchor="start" x="159" y="-29.5" font-family="FreeSans" font-size="10.00">SeeSawN::UnitTestsN</text>
<text text-anchor="start" x="159" y="-18.5" font-family="FreeSans" font-size="10.00">::TestGeometryN::BOOST</text>
<text text-anchor="middle" x="221" y="-7.5" font-family="FreeSans" font-size="10.00">_AUTO_TEST_SUITE_END</text>
</a>
</g>
</g>
<!-- Node9&#45;&gt;Node10 -->
<g id="edge1" class="edge"><title>Node9&#45;&gt;Node10</title>
<path fill="none" stroke="midnightblue" d="M125.512,-21C133.874,-21 142.437,-21 150.83,-21"/>
<polygon fill="midnightblue" stroke="midnightblue" points="125.439,-17.5001 115.439,-21 125.439,-24.5001 125.439,-17.5001"/>
</g>
<!-- Node11 -->
<g id="node3" class="node"><title>Node11</title>
<g id="a_node3"><a xlink:href="namespaceSeeSawN_1_1UnitTestsN_1_1TestGeometryN.html#a56e7b3fa3e4e5806ed6ca6e583f133a2" target="_top" xlink:title="SeeSawN::UnitTestsN\l::TestGeometryN::BOOST\l_AUTO_TEST_CASE">
<polygon fill="white" stroke="black" points="327,-0.5 327,-41.5 456,-41.5 456,-0.5 327,-0.5"/>
<text text-anchor="start" x="335" y="-29.5" font-family="FreeSans" font-size="10.00">SeeSawN::UnitTestsN</text>
<text text-anchor="start" x="335" y="-18.5" font-family="FreeSans" font-size="10.00">::TestGeometryN::BOOST</text>
<text text-anchor="middle" x="391.5" y="-7.5" font-family="FreeSans" font-size="10.00">_AUTO_TEST_CASE</text>
</a>
</g>
</g>
<!-- Node10&#45;&gt;Node11 -->
<g id="edge2" class="edge"><title>Node10&#45;&gt;Node11</title>
<path fill="none" stroke="midnightblue" d="M301.067,-21C309.671,-21 318.347,-21 326.735,-21"/>
<polygon fill="midnightblue" stroke="midnightblue" points="301.022,-17.5001 291.022,-21 301.022,-24.5001 301.022,-17.5001"/>
</g>
</g>
</svg>
