<?xml version="1.0" encoding="UTF-8" standalone="no"?>
<!DOCTYPE svg PUBLIC "-//W3C//DTD SVG 1.1//EN"
 "http://www.w3.org/Graphics/SVG/1.1/DTD/svg11.dtd">
<!-- Generated by graphviz version 2.38.0 (20140413.2041)
 -->
<!-- Title: SeeSawN::OptimisationN::PDLSimilarity3DEstimationProblemC Pages: 1 -->
<!--zoomable 1626 -->
<svg id="main" version="1.1" xmlns="http://www.w3.org/2000/svg" xmlns:xlink="http://www.w3.org/1999/xlink" xml:space="preserve" onload="init(evt)">
<style type="text/css"><![CDATA[
.edge:hover path { stroke: red; }
.edge:hover polygon { stroke: red; fill: red; }
]]></style>
<script type="text/javascript"><![CDATA[
var edges = document.getElementsByTagName('g');
if (edges && edges.length) {
  for (var i=0;i<edges.length;i++) {
    if (edges[i].id.substr(0,4)=='edge') {
      edges[i].setAttribute('class','edge');
    }
  }
}
]]></script>
        <defs>
                <circle id="rim" cx="0" cy="0" r="7"/>
                <circle id="rim2" cx="0" cy="0" r="3.5"/>
                <g id="zoomPlus">
                        <use xlink:href="#rim" fill="#404040">
                                <set attributeName="fill" to="#808080" begin="zoomplus.mouseover" end="zoomplus.mouseout"/>
                        </use>
                        <path d="M-4,0h8M0,-4v8" fill="none" stroke="white" stroke-width="1.5" pointer-events="none"/>
                </g>
                <g id="zoomMin">
                        <use xlink:href="#rim" fill="#404040">
                                <set attributeName="fill" to="#808080" begin="zoomminus.mouseover" end="zoomminus.mouseout"/>
                        </use>
                        <path d="M-4,0h8" fill="none" stroke="white" stroke-width="1.5" pointer-events="none"/>
                </g>
                <g id="dirArrow">
                        <path fill="none" stroke="white" stroke-width="1.5" d="M0,-3.0v7 M-2.5,-0.5L0,-3.0L2.5,-0.5"/>
                </g>
               <g id="resetDef">
                       <use xlink:href="#rim2" fill="#404040">
                               <set attributeName="fill" to="#808080" begin="reset.mouseover" end="reset.mouseout"/>
                       </use>
               </g>
        </defs>

<script type="text/javascript">
var viewWidth = 1104;
var viewHeight = 1626;
var sectionId = 'dynsection-1';
</script>
<script xlink:href="svgpan.js"/>
<svg id="graph" class="graph">
<g id="viewport">
<title>SeeSawN::OptimisationN::PDLSimilarity3DEstimationProblemC</title>
<polygon fill="white" stroke="none" points="-4,4 -4,-1622 1099.91,-1622 1099.91,4 -4,4"/>
<!-- Node3 -->
<g id="node1" class="node"><title>Node3</title>
<polygon fill="#bfbfbf" stroke="black" points="753.412,-0.5 753.412,-167.5 934.412,-167.5 934.412,-0.5 753.412,-0.5"/>
<text text-anchor="start" x="761.412" y="-155.5" font-family="FreeSans" font-size="10.00">SeeSawN::OptimisationN</text>
<text text-anchor="middle" x="843.912" y="-144.5" font-family="FreeSans" font-size="10.00">::PDLSimilarity3DEstimationProblemC</text>
<polyline fill="none" stroke="black" points="753.412,-137.5 934.412,-137.5 "/>
<text text-anchor="middle" x="843.912" y="-125.5" font-family="FreeSans" font-size="10.00"> </text>
<polyline fill="none" stroke="black" points="753.412,-118.5 934.412,-118.5 "/>
<text text-anchor="start" x="761.412" y="-106.5" font-family="FreeSans" font-size="10.00">* PDLSimilarity3DEstimation</text>
<text text-anchor="start" x="761.412" y="-95.5" font-family="FreeSans" font-size="10.00">ProblemC()</text>
<text text-anchor="start" x="761.412" y="-84.5" font-family="FreeSans" font-size="10.00">* PDLSimilarity3DEstimation</text>
<text text-anchor="start" x="761.412" y="-73.5" font-family="FreeSans" font-size="10.00">ProblemC()</text>
<text text-anchor="start" x="761.412" y="-62.5" font-family="FreeSans" font-size="10.00">* ComputeJacobian()</text>
<text text-anchor="start" x="761.412" y="-51.5" font-family="FreeSans" font-size="10.00">* InitialEstimate()</text>
<text text-anchor="start" x="761.412" y="-40.5" font-family="FreeSans" font-size="10.00">* ComputeError()</text>
<text text-anchor="start" x="761.412" y="-29.5" font-family="FreeSans" font-size="10.00">* Update()</text>
<text text-anchor="start" x="761.412" y="-18.5" font-family="FreeSans" font-size="10.00">* MakeResult()</text>
<text text-anchor="start" x="761.412" y="-7.5" font-family="FreeSans" font-size="10.00">* ComputeRelativeModelDistance()</text>
</g>
<!-- Node4 -->
<g id="node2" class="node"><title>Node4</title>
<g id="a_node2"><a xlink:href="classSeeSawN_1_1OptimisationN_1_1PDLGeometryEstimationProblemBaseC.html" target="_top" xlink:title="{SeeSawN::OptimisationN\l::PDLGeometryEstimationProblem\lBaseC\&lt; PDLSimilarity3DEstimationProblem\lC, Similarity3DSolverC \&gt;\n||+ PDLGeometryEstimationProblem\lBaseC()\l+ PDLGeometryEstimationProblem\lBaseC()\l# ComputeError()\l# ComputeJacobian()\l* result_type\l* has_normal_solver\l* has_covariance_estimator\l* has_nontrivial_update\l* observation_set_type\l* ComputeError()\l* Configure()\l* IsValid()\l* InitialEstimate()\l* Update()\land 7 more...\l* ComputeError()\l* ComputeJacobian()\l* PDLGeometryEstimationProblem\lBaseC()\l* PDLGeometryEstimationProblem\lBaseC()\l}">
<polygon fill="white" stroke="black" points="740.412,-205.5 740.412,-537.5 947.412,-537.5 947.412,-205.5 740.412,-205.5"/>
<text text-anchor="start" x="748.412" y="-525.5" font-family="FreeSans" font-size="10.00">SeeSawN::OptimisationN</text>
<text text-anchor="start" x="748.412" y="-514.5" font-family="FreeSans" font-size="10.00">::PDLGeometryEstimationProblem</text>
<text text-anchor="start" x="748.412" y="-503.5" font-family="FreeSans" font-size="10.00">BaseC&lt; PDLSimilarity3DEstimationProblem</text>
<text text-anchor="middle" x="843.912" y="-492.5" font-family="FreeSans" font-size="10.00">C, Similarity3DSolverC &gt;</text>
<polyline fill="none" stroke="black" points="740.412,-485.5 947.412,-485.5 "/>
<text text-anchor="middle" x="843.912" y="-473.5" font-family="FreeSans" font-size="10.00"> </text>
<polyline fill="none" stroke="black" points="740.412,-466.5 947.412,-466.5 "/>
<text text-anchor="start" x="748.412" y="-454.5" font-family="FreeSans" font-size="10.00">+ PDLGeometryEstimationProblem</text>
<text text-anchor="start" x="748.412" y="-443.5" font-family="FreeSans" font-size="10.00">BaseC()</text>
<text text-anchor="start" x="748.412" y="-432.5" font-family="FreeSans" font-size="10.00">+ PDLGeometryEstimationProblem</text>
<text text-anchor="start" x="748.412" y="-421.5" font-family="FreeSans" font-size="10.00">BaseC()</text>
<text text-anchor="start" x="748.412" y="-410.5" font-family="FreeSans" font-size="10.00"># ComputeError()</text>
<text text-anchor="start" x="748.412" y="-399.5" font-family="FreeSans" font-size="10.00"># ComputeJacobian()</text>
<text text-anchor="start" x="748.412" y="-388.5" font-family="FreeSans" font-size="10.00">* result_type</text>
<text text-anchor="start" x="748.412" y="-377.5" font-family="FreeSans" font-size="10.00">* has_normal_solver</text>
<text text-anchor="start" x="748.412" y="-366.5" font-family="FreeSans" font-size="10.00">* has_covariance_estimator</text>
<text text-anchor="start" x="748.412" y="-355.5" font-family="FreeSans" font-size="10.00">* has_nontrivial_update</text>
<text text-anchor="start" x="748.412" y="-344.5" font-family="FreeSans" font-size="10.00">* observation_set_type</text>
<text text-anchor="start" x="748.412" y="-333.5" font-family="FreeSans" font-size="10.00">* ComputeError()</text>
<text text-anchor="start" x="748.412" y="-322.5" font-family="FreeSans" font-size="10.00">* Configure()</text>
<text text-anchor="start" x="748.412" y="-311.5" font-family="FreeSans" font-size="10.00">* IsValid()</text>
<text text-anchor="start" x="748.412" y="-300.5" font-family="FreeSans" font-size="10.00">* InitialEstimate()</text>
<text text-anchor="start" x="748.412" y="-289.5" font-family="FreeSans" font-size="10.00">* Update()</text>
<text text-anchor="start" x="748.412" y="-278.5" font-family="FreeSans" font-size="10.00">and 7 more...</text>
<text text-anchor="start" x="748.412" y="-267.5" font-family="FreeSans" font-size="10.00">* ComputeError()</text>
<text text-anchor="start" x="748.412" y="-256.5" font-family="FreeSans" font-size="10.00">* ComputeJacobian()</text>
<text text-anchor="start" x="748.412" y="-245.5" font-family="FreeSans" font-size="10.00">* PDLGeometryEstimationProblem</text>
<text text-anchor="start" x="748.412" y="-234.5" font-family="FreeSans" font-size="10.00">BaseC()</text>
<text text-anchor="start" x="748.412" y="-223.5" font-family="FreeSans" font-size="10.00">* PDLGeometryEstimationProblem</text>
<text text-anchor="start" x="748.412" y="-212.5" font-family="FreeSans" font-size="10.00">BaseC()</text>
</a>
</g>
</g>
<!-- Node4&#45;&gt;Node3 -->
<g id="edge1" class="edge"><title>Node4&#45;&gt;Node3</title>
<path fill="none" stroke="midnightblue" d="M843.912,-194.994C843.912,-185.607 843.912,-176.42 843.912,-167.607"/>
<polygon fill="none" stroke="midnightblue" points="840.412,-195.25 843.912,-205.25 847.412,-195.25 840.412,-195.25"/>
</g>
<!-- Node5 -->
<g id="node3" class="node"><title>Node5</title>
<polygon fill="white" stroke="#bfbfbf" points="834.412,-993 834.412,-1072 971.412,-1072 971.412,-993 834.412,-993"/>
<text text-anchor="start" x="842.412" y="-1060" font-family="FreeSans" font-size="10.00">bimap&lt; list_of&lt; Coordinate1</text>
<text text-anchor="start" x="842.412" y="-1049" font-family="FreeSans" font-size="10.00">T &gt;, list_of&lt; Coordinate2T</text>
<text text-anchor="middle" x="902.912" y="-1038" font-family="FreeSans" font-size="10.00"> &gt;, left_based &gt;</text>
<polyline fill="none" stroke="#bfbfbf" points="834.412,-1031 971.412,-1031 "/>
<text text-anchor="middle" x="902.912" y="-1019" font-family="FreeSans" font-size="10.00"> </text>
<polyline fill="none" stroke="#bfbfbf" points="834.412,-1012 971.412,-1012 "/>
<text text-anchor="middle" x="902.912" y="-1000" font-family="FreeSans" font-size="10.00"> </text>
</g>
<!-- Node5&#45;&gt;Node4 -->
<g id="edge2" class="edge"><title>Node5&#45;&gt;Node4</title>
<path fill="none" stroke="#404040" d="M910.652,-992.785C925.636,-911.092 954.401,-715.482 921.912,-556 921.465,-553.806 920.991,-551.605 920.491,-549.4"/>
<polygon fill="none" stroke="#404040" points="920.449,-549.228 915.132,-544.356 917.584,-537.575 922.901,-542.446 920.449,-549.228"/>
<text text-anchor="middle" x="977.912" y="-732.5" font-family="FreeSans" font-size="10.00"> #correspondences</text>
</g>
<!-- Node13 -->
<g id="node11" class="node"><title>Node13</title>
<g id="a_node11"><a xlink:href="classSeeSawN_1_1OptimisationN_1_1PDLGeometryEstimationProblemBaseC.html" target="_top" xlink:title="Base problem class for Powell&#39;s dog leg geometry estimation problems. ">
<polygon fill="white" stroke="black" points="621.912,-607.5 621.912,-862.5 803.912,-862.5 803.912,-607.5 621.912,-607.5"/>
<text text-anchor="start" x="629.912" y="-850.5" font-family="FreeSans" font-size="10.00">SeeSawN::OptimisationN</text>
<text text-anchor="start" x="629.912" y="-839.5" font-family="FreeSans" font-size="10.00">::PDLGeometryEstimationProblem</text>
<text text-anchor="middle" x="712.912" y="-828.5" font-family="FreeSans" font-size="10.00">BaseC&lt; DerivedT, GeometrySolverT &gt;</text>
<polyline fill="none" stroke="black" points="621.912,-821.5 803.912,-821.5 "/>
<text text-anchor="middle" x="712.912" y="-809.5" font-family="FreeSans" font-size="10.00"> </text>
<polyline fill="none" stroke="black" points="621.912,-802.5 803.912,-802.5 "/>
<text text-anchor="start" x="629.912" y="-790.5" font-family="FreeSans" font-size="10.00">* ComputeError()</text>
<text text-anchor="start" x="629.912" y="-779.5" font-family="FreeSans" font-size="10.00">* ComputeJacobian()</text>
<text text-anchor="start" x="629.912" y="-768.5" font-family="FreeSans" font-size="10.00">* PDLGeometryEstimationProblem</text>
<text text-anchor="start" x="629.912" y="-757.5" font-family="FreeSans" font-size="10.00">BaseC()</text>
<text text-anchor="start" x="629.912" y="-746.5" font-family="FreeSans" font-size="10.00">* PDLGeometryEstimationProblem</text>
<text text-anchor="start" x="629.912" y="-735.5" font-family="FreeSans" font-size="10.00">BaseC()</text>
<text text-anchor="start" x="629.912" y="-724.5" font-family="FreeSans" font-size="10.00">* result_type</text>
<text text-anchor="start" x="629.912" y="-713.5" font-family="FreeSans" font-size="10.00">* has_normal_solver</text>
<text text-anchor="start" x="629.912" y="-702.5" font-family="FreeSans" font-size="10.00">* has_covariance_estimator</text>
<text text-anchor="start" x="629.912" y="-691.5" font-family="FreeSans" font-size="10.00">* has_nontrivial_update</text>
<text text-anchor="start" x="629.912" y="-680.5" font-family="FreeSans" font-size="10.00">* observation_set_type</text>
<text text-anchor="start" x="629.912" y="-669.5" font-family="FreeSans" font-size="10.00">* Configure()</text>
<text text-anchor="start" x="629.912" y="-658.5" font-family="FreeSans" font-size="10.00">* IsValid()</text>
<text text-anchor="start" x="629.912" y="-647.5" font-family="FreeSans" font-size="10.00">* InitialEstimate()</text>
<text text-anchor="start" x="629.912" y="-636.5" font-family="FreeSans" font-size="10.00">* ComputeError()</text>
<text text-anchor="start" x="629.912" y="-625.5" font-family="FreeSans" font-size="10.00">* Update()</text>
<text text-anchor="start" x="629.912" y="-614.5" font-family="FreeSans" font-size="10.00">and 7 more...</text>
</a>
</g>
</g>
<!-- Node5&#45;&gt;Node13 -->
<g id="edge14" class="edge"><title>Node5&#45;&gt;Node13</title>
<path fill="none" stroke="#404040" d="M882.241,-992.814C865.45,-962.026 840.728,-918.101 816.912,-881 814.926,-877.906 812.901,-874.788 810.844,-871.653"/>
<polygon fill="none" stroke="#404040" points="810.81,-871.602 804.16,-868.812 804.178,-861.601 810.828,-864.391 810.81,-871.602"/>
<text text-anchor="middle" x="863.912" y="-884" font-family="FreeSans" font-size="10.00"> #correspondences</text>
</g>
<!-- Node6 -->
<g id="node4" class="node"><title>Node6</title>
<polygon fill="white" stroke="#bfbfbf" points="881.412,-1329 881.412,-1386 924.412,-1386 924.412,-1329 881.412,-1329"/>
<text text-anchor="middle" x="902.912" y="-1374" font-family="FreeSans" font-size="10.00">bimap</text>
<polyline fill="none" stroke="#bfbfbf" points="881.412,-1367 924.412,-1367 "/>
<text text-anchor="middle" x="902.912" y="-1355" font-family="FreeSans" font-size="10.00"> </text>
<polyline fill="none" stroke="#bfbfbf" points="881.412,-1348 924.412,-1348 "/>
<text text-anchor="middle" x="902.912" y="-1336" font-family="FreeSans" font-size="10.00"> </text>
</g>
<!-- Node6&#45;&gt;Node5 -->
<g id="edge3" class="edge"><title>Node6&#45;&gt;Node5</title>
<path fill="none" stroke="orange" d="M902.912,-1318.86C902.912,-1256.99 902.912,-1134.47 902.912,-1072.03"/>
<polygon fill="orange" stroke="orange" points="899.412,-1318.96 902.912,-1328.96 906.412,-1318.96 899.412,-1318.96"/>
<text text-anchor="start" x="902.912" y="-1203.5" font-family="FreeSans" font-size="10.00"> &lt; list_of&lt; Coordinate1T</text>
<text text-anchor="start" x="902.912" y="-1192.5" font-family="FreeSans" font-size="10.00"> &gt;, list_of&lt; Coordinate2T</text>
<text text-anchor="middle" x="955.912" y="-1181.5" font-family="FreeSans" font-size="10.00"> &gt;, left_based &gt;</text>
</g>
<!-- Node7 -->
<g id="node5" class="node"><title>Node7</title>
<g id="a_node5"><a xlink:href="classbool.html" target="_top" xlink:title="{bool\n||}">
<polygon fill="white" stroke="black" points="376.412,-1560.5 376.412,-1617.5 411.412,-1617.5 411.412,-1560.5 376.412,-1560.5"/>
<text text-anchor="middle" x="393.912" y="-1605.5" font-family="FreeSans" font-size="10.00">bool</text>
<polyline fill="none" stroke="black" points="376.412,-1598.5 411.412,-1598.5 "/>
<text text-anchor="middle" x="393.912" y="-1586.5" font-family="FreeSans" font-size="10.00"> </text>
<polyline fill="none" stroke="black" points="376.412,-1579.5 411.412,-1579.5 "/>
<text text-anchor="middle" x="393.912" y="-1567.5" font-family="FreeSans" font-size="10.00"> </text>
</a>
</g>
</g>
<!-- Node7&#45;&gt;Node4 -->
<g id="edge4" class="edge"><title>Node7&#45;&gt;Node4</title>
<path fill="none" stroke="#404040" d="M411.472,-1588.15C481.785,-1588.05 748.123,-1580.68 932.912,-1480 999.013,-1443.98 1050.91,-1433.78 1050.91,-1358.5 1050.91,-1358.5 1050.91,-1358.5 1050.91,-734 1050.91,-676.2 1047.24,-659.43 1022.91,-607 1005.25,-568.944 980.566,-531.233 955.16,-497.542"/>
<polygon fill="none" stroke="#404040" points="954.911,-497.218 948.089,-494.882 947.621,-487.686 954.443,-490.022 954.911,-497.218"/>
<text text-anchor="middle" x="1073.41" y="-1030" font-family="FreeSans" font-size="10.00"> #flagValid</text>
</g>
<!-- Node9 -->
<g id="node7" class="node"><title>Node9</title>
<g id="a_node7"><a xlink:href="classSeeSawN_1_1GeometryN_1_1GeometrySolverBaseC.html" target="_top" xlink:title="{SeeSawN::GeometryN\l::GeometrySolverBaseC\l\&lt; Similarity3DSolverC,\l Homography3DT, SymmetricTransfer\lErrorC\&lt; Homography3DT \&gt;, 3, 3,\l 3, true, 1, 16, 7 \&gt;\n||+ EvaluateModel()\l+ EvaluateModel()\l* coordinate_type1\l* coordinate_type2\l* model_type\l* real_type\l* error_type\l* constraint_type\l* loss_type\l* distance_type\l* GeneratorSize()\l* IsNonminimal()\land 8 more...\l}">
<polygon fill="white" stroke="black" points="174.412,-910.5 174.412,-1154.5 353.412,-1154.5 353.412,-910.5 174.412,-910.5"/>
<text text-anchor="start" x="182.412" y="-1142.5" font-family="FreeSans" font-size="10.00">SeeSawN::GeometryN</text>
<text text-anchor="start" x="182.412" y="-1131.5" font-family="FreeSans" font-size="10.00">::GeometrySolverBaseC</text>
<text text-anchor="start" x="182.412" y="-1120.5" font-family="FreeSans" font-size="10.00">&lt; Similarity3DSolverC,</text>
<text text-anchor="start" x="182.412" y="-1109.5" font-family="FreeSans" font-size="10.00"> Homography3DT, SymmetricTransfer</text>
<text text-anchor="start" x="182.412" y="-1098.5" font-family="FreeSans" font-size="10.00">ErrorC&lt; Homography3DT &gt;, 3, 3,</text>
<text text-anchor="middle" x="263.912" y="-1087.5" font-family="FreeSans" font-size="10.00"> 3, true, 1, 16, 7 &gt;</text>
<polyline fill="none" stroke="black" points="174.412,-1080.5 353.412,-1080.5 "/>
<text text-anchor="middle" x="263.912" y="-1068.5" font-family="FreeSans" font-size="10.00"> </text>
<polyline fill="none" stroke="black" points="174.412,-1061.5 353.412,-1061.5 "/>
<text text-anchor="start" x="182.412" y="-1049.5" font-family="FreeSans" font-size="10.00">+ EvaluateModel()</text>
<text text-anchor="start" x="182.412" y="-1038.5" font-family="FreeSans" font-size="10.00">+ EvaluateModel()</text>
<text text-anchor="start" x="182.412" y="-1027.5" font-family="FreeSans" font-size="10.00">* coordinate_type1</text>
<text text-anchor="start" x="182.412" y="-1016.5" font-family="FreeSans" font-size="10.00">* coordinate_type2</text>
<text text-anchor="start" x="182.412" y="-1005.5" font-family="FreeSans" font-size="10.00">* model_type</text>
<text text-anchor="start" x="182.412" y="-994.5" font-family="FreeSans" font-size="10.00">* real_type</text>
<text text-anchor="start" x="182.412" y="-983.5" font-family="FreeSans" font-size="10.00">* error_type</text>
<text text-anchor="start" x="182.412" y="-972.5" font-family="FreeSans" font-size="10.00">* constraint_type</text>
<text text-anchor="start" x="182.412" y="-961.5" font-family="FreeSans" font-size="10.00">* loss_type</text>
<text text-anchor="start" x="182.412" y="-950.5" font-family="FreeSans" font-size="10.00">* distance_type</text>
<text text-anchor="start" x="182.412" y="-939.5" font-family="FreeSans" font-size="10.00">* GeneratorSize()</text>
<text text-anchor="start" x="182.412" y="-928.5" font-family="FreeSans" font-size="10.00">* IsNonminimal()</text>
<text text-anchor="start" x="182.412" y="-917.5" font-family="FreeSans" font-size="10.00">and 8 more...</text>
</a>
</g>
</g>
<!-- Node7&#45;&gt;Node9 -->
<g id="edge8" class="edge"><title>Node7&#45;&gt;Node9</title>
<path fill="none" stroke="#404040" d="M376.176,-1578.61C348.177,-1562.65 294.681,-1527.32 272.912,-1480 248.176,-1426.23 249.745,-1277.76 255.04,-1166.69"/>
<polygon fill="none" stroke="#404040" points="255.04,-1166.69 251.342,-1160.5 255.633,-1154.7 259.332,-1160.9 255.04,-1166.69"/>
<text text-anchor="middle" x="310.412" y="-1355" font-family="FreeSans" font-size="10.00"> #flagNonminimal</text>
</g>
<!-- Node11 -->
<g id="node9" class="node"><title>Node11</title>
<g id="a_node9"><a xlink:href="classSeeSawN_1_1GeometryN_1_1GeometrySolverBaseC.html" target="_top" xlink:title="Base class for geometry solvers. ">
<polygon fill="white" stroke="black" points="35.4121,-1235.5 35.4121,-1479.5 218.412,-1479.5 218.412,-1235.5 35.4121,-1235.5"/>
<text text-anchor="start" x="43.4121" y="-1467.5" font-family="FreeSans" font-size="10.00">SeeSawN::GeometryN</text>
<text text-anchor="start" x="43.4121" y="-1456.5" font-family="FreeSans" font-size="10.00">::GeometrySolverBaseC</text>
<text text-anchor="start" x="43.4121" y="-1445.5" font-family="FreeSans" font-size="10.00">&lt; DerivedT, ModelT, ErrorT,</text>
<text text-anchor="start" x="43.4121" y="-1434.5" font-family="FreeSans" font-size="10.00"> DIM1, DIM2, GENERATOR_SIZE,</text>
<text text-anchor="start" x="43.4121" y="-1423.5" font-family="FreeSans" font-size="10.00"> FLAG_NONMINIMAL, NSOLUTION,</text>
<text text-anchor="middle" x="126.912" y="-1412.5" font-family="FreeSans" font-size="10.00"> NPARAMETER, NDOF &gt;</text>
<polyline fill="none" stroke="black" points="35.4121,-1405.5 218.412,-1405.5 "/>
<text text-anchor="middle" x="126.912" y="-1393.5" font-family="FreeSans" font-size="10.00"> </text>
<polyline fill="none" stroke="black" points="35.4121,-1386.5 218.412,-1386.5 "/>
<text text-anchor="start" x="43.4121" y="-1374.5" font-family="FreeSans" font-size="10.00">+ EvaluateModel()</text>
<text text-anchor="start" x="43.4121" y="-1363.5" font-family="FreeSans" font-size="10.00">+ EvaluateModel()</text>
<text text-anchor="start" x="43.4121" y="-1352.5" font-family="FreeSans" font-size="10.00">* coordinate_type1</text>
<text text-anchor="start" x="43.4121" y="-1341.5" font-family="FreeSans" font-size="10.00">* coordinate_type2</text>
<text text-anchor="start" x="43.4121" y="-1330.5" font-family="FreeSans" font-size="10.00">* model_type</text>
<text text-anchor="start" x="43.4121" y="-1319.5" font-family="FreeSans" font-size="10.00">* real_type</text>
<text text-anchor="start" x="43.4121" y="-1308.5" font-family="FreeSans" font-size="10.00">* error_type</text>
<text text-anchor="start" x="43.4121" y="-1297.5" font-family="FreeSans" font-size="10.00">* constraint_type</text>
<text text-anchor="start" x="43.4121" y="-1286.5" font-family="FreeSans" font-size="10.00">* loss_type</text>
<text text-anchor="start" x="43.4121" y="-1275.5" font-family="FreeSans" font-size="10.00">* distance_type</text>
<text text-anchor="start" x="43.4121" y="-1264.5" font-family="FreeSans" font-size="10.00">* GeneratorSize()</text>
<text text-anchor="start" x="43.4121" y="-1253.5" font-family="FreeSans" font-size="10.00">* IsNonminimal()</text>
<text text-anchor="start" x="43.4121" y="-1242.5" font-family="FreeSans" font-size="10.00">and 8 more...</text>
</a>
</g>
</g>
<!-- Node7&#45;&gt;Node11 -->
<g id="edge11" class="edge"><title>Node7&#45;&gt;Node11</title>
<path fill="none" stroke="#404040" d="M376.114,-1586.64C329.246,-1582.69 204.03,-1569.73 174.912,-1542 160.261,-1528.05 149.877,-1510.22 142.557,-1491.19"/>
<polygon fill="none" stroke="#404040" points="142.557,-1491.18 136.799,-1486.84 138.592,-1479.86 144.35,-1484.2 142.557,-1491.18"/>
<text text-anchor="middle" x="212.412" y="-1517.5" font-family="FreeSans" font-size="10.00"> #flagNonminimal</text>
</g>
<!-- Node7&#45;&gt;Node13 -->
<g id="edge17" class="edge"><title>Node7&#45;&gt;Node13</title>
<path fill="none" stroke="#404040" d="M411.645,-1576.99C437.441,-1559.86 484.461,-1524.16 504.912,-1480 611.621,-1249.58 440.471,-1141.9 543.912,-910 559.624,-874.776 585.725,-842.485 612.77,-815.536"/>
<polygon fill="none" stroke="#404040" points="612.969,-815.343 614.482,-808.292 621.572,-806.977 620.059,-814.028 612.969,-815.343"/>
<text text-anchor="middle" x="552.412" y="-1192.5" font-family="FreeSans" font-size="10.00"> #flagValid</text>
</g>
<!-- Node8 -->
<g id="node6" class="node"><title>Node8</title>
<g id="a_node6"><a xlink:href="classSeeSawN_1_1GeometryN_1_1Similarity3DSolverC.html" target="_top" xlink:title="3&#45;point 3D similarity transformation estimator ">
<polygon fill="white" stroke="black" points="191.912,-635 191.912,-835 335.912,-835 335.912,-635 191.912,-635"/>
<text text-anchor="start" x="199.912" y="-823" font-family="FreeSans" font-size="10.00">SeeSawN::GeometryN</text>
<text text-anchor="middle" x="263.912" y="-812" font-family="FreeSans" font-size="10.00">::Similarity3DSolverC</text>
<polyline fill="none" stroke="black" points="191.912,-805 335.912,-805 "/>
<text text-anchor="middle" x="263.912" y="-793" font-family="FreeSans" font-size="10.00"> </text>
<polyline fill="none" stroke="black" points="191.912,-786 335.912,-786 "/>
<text text-anchor="start" x="199.912" y="-774" font-family="FreeSans" font-size="10.00">+ MakeMinimal()</text>
<text text-anchor="start" x="199.912" y="-763" font-family="FreeSans" font-size="10.00">+ ComputeSampleStatistics()</text>
<text text-anchor="start" x="199.912" y="-752" font-family="FreeSans" font-size="10.00">+ operator()()</text>
<text text-anchor="start" x="199.912" y="-741" font-family="FreeSans" font-size="10.00">* minimal_model_type</text>
<text text-anchor="start" x="199.912" y="-730" font-family="FreeSans" font-size="10.00">* uncertainty_type</text>
<text text-anchor="start" x="199.912" y="-719" font-family="FreeSans" font-size="10.00">* operator()()</text>
<text text-anchor="start" x="199.912" y="-708" font-family="FreeSans" font-size="10.00">* Cost()</text>
<text text-anchor="start" x="199.912" y="-697" font-family="FreeSans" font-size="10.00">* MakeMinimal()</text>
<text text-anchor="start" x="199.912" y="-686" font-family="FreeSans" font-size="10.00">* MakeModelFromMinimal()</text>
<text text-anchor="start" x="199.912" y="-675" font-family="FreeSans" font-size="10.00">* ComputeSampleStatistics()</text>
<text text-anchor="start" x="199.912" y="-664" font-family="FreeSans" font-size="10.00">* ComputeDistance()</text>
<text text-anchor="start" x="199.912" y="-653" font-family="FreeSans" font-size="10.00">* MakeVector()</text>
<text text-anchor="start" x="199.912" y="-642" font-family="FreeSans" font-size="10.00">* MakeModel()</text>
</a>
</g>
</g>
<!-- Node8&#45;&gt;Node4 -->
<g id="edge5" class="edge"><title>Node8&#45;&gt;Node4</title>
<path fill="none" stroke="#404040" d="M336.197,-688.947C434.946,-627.399 613.064,-516.382 729.899,-443.562"/>
<polygon fill="none" stroke="#404040" points="730.122,-443.423 733.098,-436.854 740.306,-437.075 737.33,-443.644 730.122,-443.423"/>
<text text-anchor="middle" x="570.412" y="-581" font-family="FreeSans" font-size="10.00"> #solver</text>
<text text-anchor="middle" x="570.412" y="-570" font-family="FreeSans" font-size="10.00">#errorMetric</text>
<text text-anchor="middle" x="570.412" y="-559" font-family="FreeSans" font-size="10.00">#initialEstimate</text>
</g>
<!-- Node9&#45;&gt;Node8 -->
<g id="edge6" class="edge"><title>Node9&#45;&gt;Node8</title>
<path fill="none" stroke="midnightblue" d="M263.912,-900.437C263.912,-878.539 263.912,-856.146 263.912,-835.214"/>
<polygon fill="none" stroke="midnightblue" points="260.412,-900.456 263.912,-910.456 267.412,-900.456 260.412,-900.456"/>
</g>
<!-- Node10 -->
<g id="node8" class="node"><title>Node10</title>
<polygon fill="white" stroke="#bfbfbf" points="357.412,-1329 357.412,-1386 496.412,-1386 496.412,-1329 357.412,-1329"/>
<text text-anchor="middle" x="426.912" y="-1374" font-family="FreeSans" font-size="10.00">static constexpr unsigned int</text>
<polyline fill="none" stroke="#bfbfbf" points="357.412,-1367 496.412,-1367 "/>
<text text-anchor="middle" x="426.912" y="-1355" font-family="FreeSans" font-size="10.00"> </text>
<polyline fill="none" stroke="#bfbfbf" points="357.412,-1348 496.412,-1348 "/>
<text text-anchor="middle" x="426.912" y="-1336" font-family="FreeSans" font-size="10.00"> </text>
</g>
<!-- Node10&#45;&gt;Node9 -->
<g id="edge7" class="edge"><title>Node10&#45;&gt;Node9</title>
<path fill="none" stroke="#404040" d="M413.015,-1328.96C394.676,-1292.62 361.129,-1226.15 330.494,-1165.44"/>
<polygon fill="none" stroke="#404040" points="330.418,-1165.29 324.143,-1161.73 325.011,-1154.57 331.285,-1158.13 330.418,-1165.29"/>
<text text-anchor="middle" x="383.912" y="-1209" font-family="FreeSans" font-size="10.00"> #nDOF</text>
<text text-anchor="middle" x="383.912" y="-1198" font-family="FreeSans" font-size="10.00">#nParameter</text>
<text text-anchor="middle" x="383.912" y="-1187" font-family="FreeSans" font-size="10.00">#sGenerator</text>
<text text-anchor="middle" x="383.912" y="-1176" font-family="FreeSans" font-size="10.00">#nSolution</text>
</g>
<!-- Node11&#45;&gt;Node9 -->
<g id="edge9" class="edge"><title>Node11&#45;&gt;Node9</title>
<path fill="none" stroke="orange" d="M77.2104,-1225.28C76.4027,-1207.25 78.9871,-1189.34 86.9121,-1173 105.526,-1134.63 140.377,-1103.64 174.264,-1080.71"/>
<polygon fill="orange" stroke="orange" points="73.7249,-1225.6 77.9957,-1235.3 80.7035,-1225.05 73.7249,-1225.6"/>
<text text-anchor="start" x="86.9121" y="-1209" font-family="FreeSans" font-size="10.00"> &lt; Similarity3DSolverC,</text>
<text text-anchor="start" x="86.9121" y="-1198" font-family="FreeSans" font-size="10.00"> Homography3DT, SymmetricTransfer</text>
<text text-anchor="start" x="86.9121" y="-1187" font-family="FreeSans" font-size="10.00">ErrorC&lt; Homography3DT &gt;, 3,</text>
<text text-anchor="middle" x="168.412" y="-1176" font-family="FreeSans" font-size="10.00"> 3, 3, true, 1, 16, 7 &gt;</text>
</g>
<!-- Node12 -->
<g id="node10" class="node"><title>Node12</title>
<polygon fill="white" stroke="#bfbfbf" points="16.4121,-1560.5 16.4121,-1617.5 45.4121,-1617.5 45.4121,-1560.5 16.4121,-1560.5"/>
<text text-anchor="middle" x="30.9121" y="-1605.5" font-family="FreeSans" font-size="10.00">int</text>
<polyline fill="none" stroke="#bfbfbf" points="16.4121,-1598.5 45.4121,-1598.5 "/>
<text text-anchor="middle" x="30.9121" y="-1586.5" font-family="FreeSans" font-size="10.00"> </text>
<polyline fill="none" stroke="#bfbfbf" points="16.4121,-1579.5 45.4121,-1579.5 "/>
<text text-anchor="middle" x="30.9121" y="-1567.5" font-family="FreeSans" font-size="10.00"> </text>
</g>
<!-- Node12&#45;&gt;Node8 -->
<g id="edge12" class="edge"><title>Node12&#45;&gt;Node8</title>
<path fill="none" stroke="#404040" d="M24.7279,-1560.21C10.8124,-1492.58 -18.9762,-1314.6 17.9121,-1173 50.002,-1049.82 125.681,-924.793 184.691,-840.215"/>
<polygon fill="none" stroke="#404040" points="184.716,-840.178 184.895,-832.969 191.618,-830.361 191.439,-837.57 184.716,-840.178"/>
<text text-anchor="middle" x="45.9121" y="-1203.5" font-family="FreeSans" font-size="10.00"> +iCenter</text>
<text text-anchor="middle" x="45.9121" y="-1192.5" font-family="FreeSans" font-size="10.00">+iOrientation</text>
<text text-anchor="middle" x="45.9121" y="-1181.5" font-family="FreeSans" font-size="10.00">+iScale</text>
</g>
<!-- Node12&#45;&gt;Node11 -->
<g id="edge10" class="edge"><title>Node12&#45;&gt;Node11</title>
<path fill="none" stroke="#404040" d="M42.492,-1560.32C50.0409,-1542.27 60.5054,-1517.25 71.5016,-1490.97"/>
<polygon fill="none" stroke="#404040" points="71.609,-1490.71 70.2342,-1483.63 76.2398,-1479.64 77.6146,-1486.72 71.609,-1490.71"/>
<text text-anchor="middle" x="95.9121" y="-1534" font-family="FreeSans" font-size="10.00"> #nDOF</text>
<text text-anchor="middle" x="95.9121" y="-1523" font-family="FreeSans" font-size="10.00">#nParameter</text>
<text text-anchor="middle" x="95.9121" y="-1512" font-family="FreeSans" font-size="10.00">#sGenerator</text>
<text text-anchor="middle" x="95.9121" y="-1501" font-family="FreeSans" font-size="10.00">#nSolution</text>
</g>
<!-- Node13&#45;&gt;Node4 -->
<g id="edge13" class="edge"><title>Node13&#45;&gt;Node4</title>
<path fill="none" stroke="orange" d="M762.285,-597.755C769.386,-578.157 776.758,-557.816 784.036,-537.732"/>
<polygon fill="orange" stroke="orange" points="758.938,-596.717 758.822,-607.311 765.519,-599.102 758.938,-596.717"/>
<text text-anchor="start" x="774.912" y="-575.5" font-family="FreeSans" font-size="10.00"> &lt; PDLSimilarity3DEstimation</text>
<text text-anchor="middle" x="846.412" y="-564.5" font-family="FreeSans" font-size="10.00">ProblemC, Similarity3DSolverC &gt;</text>
</g>
<!-- Node14 -->
<g id="node12" class="node"><title>Node14</title>
<polygon fill="white" stroke="#bfbfbf" points="663.412,-1004 663.412,-1061 722.412,-1061 722.412,-1004 663.412,-1004"/>
<text text-anchor="middle" x="692.912" y="-1049" font-family="FreeSans" font-size="10.00">error_type</text>
<polyline fill="none" stroke="#bfbfbf" points="663.412,-1042 722.412,-1042 "/>
<text text-anchor="middle" x="692.912" y="-1030" font-family="FreeSans" font-size="10.00"> </text>
<polyline fill="none" stroke="#bfbfbf" points="663.412,-1023 722.412,-1023 "/>
<text text-anchor="middle" x="692.912" y="-1011" font-family="FreeSans" font-size="10.00"> </text>
</g>
<!-- Node14&#45;&gt;Node13 -->
<g id="edge15" class="edge"><title>Node14&#45;&gt;Node13</title>
<path fill="none" stroke="#404040" d="M685.472,-1003.74C678.335,-973.529 669.397,-923.802 674.912,-881 675.193,-878.82 675.497,-876.626 675.821,-874.422"/>
<polygon fill="none" stroke="#404040" points="675.826,-874.395 672.839,-867.832 677.748,-862.55 680.735,-869.113 675.826,-874.395"/>
<text text-anchor="middle" x="702.412" y="-884" font-family="FreeSans" font-size="10.00"> #errorMetric</text>
</g>
<!-- Node15 -->
<g id="node13" class="node"><title>Node15</title>
<polygon fill="white" stroke="#bfbfbf" points="740.912,-1004 740.912,-1061 806.912,-1061 806.912,-1004 740.912,-1004"/>
<text text-anchor="middle" x="773.912" y="-1049" font-family="FreeSans" font-size="10.00">model_type</text>
<polyline fill="none" stroke="#bfbfbf" points="740.912,-1042 806.912,-1042 "/>
<text text-anchor="middle" x="773.912" y="-1030" font-family="FreeSans" font-size="10.00"> </text>
<polyline fill="none" stroke="#bfbfbf" points="740.912,-1023 806.912,-1023 "/>
<text text-anchor="middle" x="773.912" y="-1011" font-family="FreeSans" font-size="10.00"> </text>
</g>
<!-- Node15&#45;&gt;Node13 -->
<g id="edge16" class="edge"><title>Node15&#45;&gt;Node13</title>
<path fill="none" stroke="#404040" d="M768.228,-1003.97C762.026,-973.922 751.626,-923.541 741.507,-874.52"/>
<polygon fill="none" stroke="#404040" points="741.507,-874.52 736.376,-869.452 739.081,-862.767 744.211,-867.835 741.507,-874.52"/>
<text text-anchor="middle" x="778.412" y="-884" font-family="FreeSans" font-size="10.00"> #initialEstimate</text>
</g>
<!-- Node16 -->
<g id="node14" class="node"><title>Node16</title>
<polygon fill="white" stroke="#bfbfbf" points="552.912,-1004 552.912,-1061 644.912,-1061 644.912,-1004 552.912,-1004"/>
<text text-anchor="middle" x="598.912" y="-1049" font-family="FreeSans" font-size="10.00">GeometrySolverT</text>
<polyline fill="none" stroke="#bfbfbf" points="552.912,-1042 644.912,-1042 "/>
<text text-anchor="middle" x="598.912" y="-1030" font-family="FreeSans" font-size="10.00"> </text>
<polyline fill="none" stroke="#bfbfbf" points="552.912,-1023 644.912,-1023 "/>
<text text-anchor="middle" x="598.912" y="-1011" font-family="FreeSans" font-size="10.00"> </text>
</g>
<!-- Node16&#45;&gt;Node13 -->
<g id="edge18" class="edge"><title>Node16&#45;&gt;Node13</title>
<path fill="none" stroke="#404040" d="M603.832,-1003.99C609.773,-973.356 620.99,-922.661 636.912,-881 637.824,-878.615 638.765,-876.218 639.733,-873.814"/>
<polygon fill="none" stroke="#404040" points="639.822,-873.599 638.44,-866.522 644.442,-862.524 645.824,-869.601 639.822,-873.599"/>
<text text-anchor="middle" x="653.912" y="-884" font-family="FreeSans" font-size="10.00"> #solver</text>
</g>
</g>
</svg>
        <g id="navigator" transform="translate(0 0)" fill="#404254">
                <rect fill="#f2f5e9" fill-opacity="0.5" stroke="#606060" stroke-width=".5" x="0" y="0" width="60" height="60"/>
                <use id="zoomplus" xlink:href="#zoomPlus" x="17" y="9" onmousedown="handleZoom(evt,'in')"/>
                <use id="zoomminus" xlink:href="#zoomMin" x="42" y="9" onmousedown="handleZoom(evt,'out')"/>
                <use id="reset" xlink:href="#resetDef" x="30" y="36" onmousedown="handleReset()"/>
                <g id="arrowUp" xlink:href="#dirArrow" transform="translate(30 24)" onmousedown="handlePan(0,-1)">
                  <use xlink:href="#rim" fill="#404040">
                        <set attributeName="fill" to="#808080" begin="arrowUp.mouseover" end="arrowUp.mouseout"/>
                  </use>
                  <path fill="none" stroke="white" stroke-width="1.5" d="M0,-3.0v7 M-2.5,-0.5L0,-3.0L2.5,-0.5"/>
                </g>
                <g id="arrowRight" xlink:href="#dirArrow" transform="rotate(90) translate(36 -43)" onmousedown="handlePan(1,0)">
                  <use xlink:href="#rim" fill="#404040">
                        <set attributeName="fill" to="#808080" begin="arrowRight.mouseover" end="arrowRight.mouseout"/>
                  </use>
                  <path fill="none" stroke="white" stroke-width="1.5" d="M0,-3.0v7 M-2.5,-0.5L0,-3.0L2.5,-0.5"/>
                </g>
                <g id="arrowDown" xlink:href="#dirArrow" transform="rotate(180) translate(-30 -48)" onmousedown="handlePan(0,1)">
                  <use xlink:href="#rim" fill="#404040">
                        <set attributeName="fill" to="#808080" begin="arrowDown.mouseover" end="arrowDown.mouseout"/>
                  </use>
                  <path fill="none" stroke="white" stroke-width="1.5" d="M0,-3.0v7 M-2.5,-0.5L0,-3.0L2.5,-0.5"/>
                </g>
                <g id="arrowLeft" xlink:href="#dirArrow" transform="rotate(270) translate(-36 17)" onmousedown="handlePan(-1,0)">
                  <use xlink:href="#rim" fill="#404040">
                        <set attributeName="fill" to="#808080" begin="arrowLeft.mouseover" end="arrowLeft.mouseout"/>
                  </use>
                  <path fill="none" stroke="white" stroke-width="1.5" d="M0,-3.0v7 M-2.5,-0.5L0,-3.0L2.5,-0.5"/>
                </g>
        </g>
        <svg viewBox="0 0 15 15" width="100%" height="30px" preserveAspectRatio="xMaxYMin meet">
         <g id="arrow_out" transform="scale(0.3 0.3)">
          <a xlink:href="classSeeSawN_1_1OptimisationN_1_1PDLSimilarity3DEstimationProblemC__coll__graph_org.svg" target="_base">
           <rect id="button" ry="5" rx="5" y="6" x="6" height="38" width="38"
                fill="#f2f5e9" fill-opacity="0.5" stroke="#606060" stroke-width="1.0"/>
           <path id="arrow"
             d="M 11.500037,31.436501 C 11.940474,20.09759 22.043105,11.32322 32.158766,21.979434 L 37.068811,17.246167 C 37.068811,17.246167 37.088388,32 37.088388,32 L 22.160133,31.978069 C 22.160133,31.978069 26.997745,27.140456 26.997745,27.140456 C 18.528582,18.264221 13.291696,25.230495 11.500037,31.436501 z"
             style="fill:#404040;"/>
          </a>
         </g>
        </svg>
</svg>
