<?xml version="1.0" encoding="UTF-8" standalone="no"?>
<!DOCTYPE svg PUBLIC "-//W3C//DTD SVG 1.1//EN"
 "http://www.w3.org/Graphics/SVG/1.1/DTD/svg11.dtd">
<!-- Generated by graphviz version 2.38.0 (20140413.2041)
 -->
<!-- Title: SeeSawN::StateEstimationN::ViterbiFeatureSequenceMatchingProblemC&lt; FeatureT, DistanceT &gt; Pages: 1 -->
<!--zoomable 546 -->
<svg id="main" version="1.1" xmlns="http://www.w3.org/2000/svg" xmlns:xlink="http://www.w3.org/1999/xlink" xml:space="preserve" onload="init(evt)">
<style type="text/css"><![CDATA[
.edge:hover path { stroke: red; }
.edge:hover polygon { stroke: red; fill: red; }
]]></style>
<script type="text/javascript"><![CDATA[
var edges = document.getElementsByTagName('g');
if (edges && edges.length) {
  for (var i=0;i<edges.length;i++) {
    if (edges[i].id.substr(0,4)=='edge') {
      edges[i].setAttribute('class','edge');
    }
  }
}
]]></script>
        <defs>
                <circle id="rim" cx="0" cy="0" r="7"/>
                <circle id="rim2" cx="0" cy="0" r="3.5"/>
                <g id="zoomPlus">
                        <use xlink:href="#rim" fill="#404040">
                                <set attributeName="fill" to="#808080" begin="zoomplus.mouseover" end="zoomplus.mouseout"/>
                        </use>
                        <path d="M-4,0h8M0,-4v8" fill="none" stroke="white" stroke-width="1.5" pointer-events="none"/>
                </g>
                <g id="zoomMin">
                        <use xlink:href="#rim" fill="#404040">
                                <set attributeName="fill" to="#808080" begin="zoomminus.mouseover" end="zoomminus.mouseout"/>
                        </use>
                        <path d="M-4,0h8" fill="none" stroke="white" stroke-width="1.5" pointer-events="none"/>
                </g>
                <g id="dirArrow">
                        <path fill="none" stroke="white" stroke-width="1.5" d="M0,-3.0v7 M-2.5,-0.5L0,-3.0L2.5,-0.5"/>
                </g>
               <g id="resetDef">
                       <use xlink:href="#rim2" fill="#404040">
                               <set attributeName="fill" to="#808080" begin="reset.mouseover" end="reset.mouseout"/>
                       </use>
               </g>
        </defs>

<script type="text/javascript">
var viewWidth = 429;
var viewHeight = 546;
var sectionId = 'dynsection-0';
</script>
<script xlink:href="svgpan.js"/>
<svg id="graph" class="graph">
<g id="viewport">
<title>SeeSawN::StateEstimationN::ViterbiFeatureSequenceMatchingProblemC&lt; FeatureT, DistanceT &gt;</title>
<polygon fill="white" stroke="none" points="-4,4 -4,-542 424.5,-542 424.5,4 -4,4"/>
<!-- Node1 -->
<g id="node1" class="node"><title>Node1</title>
<polygon fill="#bfbfbf" stroke="black" points="96,-0.5 96,-211.5 269,-211.5 269,-0.5 96,-0.5"/>
<text text-anchor="start" x="104" y="-199.5" font-family="FreeSans" font-size="10.00">SeeSawN::StateEstimation</text>
<text text-anchor="start" x="104" y="-188.5" font-family="FreeSans" font-size="10.00">N::ViterbiFeatureSequenceMatching</text>
<text text-anchor="middle" x="182.5" y="-177.5" font-family="FreeSans" font-size="10.00">ProblemC&lt; FeatureT, DistanceT &gt;</text>
<polyline fill="none" stroke="black" points="96,-170.5 269,-170.5 "/>
<text text-anchor="middle" x="182.5" y="-158.5" font-family="FreeSans" font-size="10.00"> </text>
<polyline fill="none" stroke="black" points="96,-151.5 269,-151.5 "/>
<text text-anchor="start" x="104" y="-139.5" font-family="FreeSans" font-size="10.00">+ ViterbiFeatureSequenceMatching</text>
<text text-anchor="start" x="104" y="-128.5" font-family="FreeSans" font-size="10.00">ProblemC()</text>
<text text-anchor="start" x="104" y="-117.5" font-family="FreeSans" font-size="10.00">* measurement_type</text>
<text text-anchor="start" x="104" y="-106.5" font-family="FreeSans" font-size="10.00">* ViterbiFeatureSequenceMatching</text>
<text text-anchor="start" x="104" y="-95.5" font-family="FreeSans" font-size="10.00">ProblemC()</text>
<text text-anchor="start" x="104" y="-84.5" font-family="FreeSans" font-size="10.00">* ComputeMeasurementProbability()</text>
<text text-anchor="start" x="104" y="-73.5" font-family="FreeSans" font-size="10.00">* ComputeTransitionProbability()</text>
<text text-anchor="start" x="104" y="-62.5" font-family="FreeSans" font-size="10.00">* GetStateCardinality()</text>
<text text-anchor="start" x="104" y="-51.5" font-family="FreeSans" font-size="10.00">* IsValid()</text>
<text text-anchor="start" x="104" y="-40.5" font-family="FreeSans" font-size="10.00">* InitialiseUpdate()</text>
<text text-anchor="start" x="104" y="-29.5" font-family="FreeSans" font-size="10.00">* FinaliseUpdate()</text>
<text text-anchor="start" x="104" y="-18.5" font-family="FreeSans" font-size="10.00">* ViterbiFeatureSequenceMatching</text>
<text text-anchor="start" x="104" y="-7.5" font-family="FreeSans" font-size="10.00">ProblemC()</text>
</g>
<!-- Node2 -->
<g id="node2" class="node"><title>Node2</title>
<polygon fill="white" stroke="#bfbfbf" points="0,-270.5 0,-327.5 45,-327.5 45,-270.5 0,-270.5"/>
<text text-anchor="middle" x="22.5" y="-315.5" font-family="FreeSans" font-size="10.00">double</text>
<polyline fill="none" stroke="#bfbfbf" points="0,-308.5 45,-308.5 "/>
<text text-anchor="middle" x="22.5" y="-296.5" font-family="FreeSans" font-size="10.00"> </text>
<polyline fill="none" stroke="#bfbfbf" points="0,-289.5 45,-289.5 "/>
<text text-anchor="middle" x="22.5" y="-277.5" font-family="FreeSans" font-size="10.00"> </text>
</g>
<!-- Node2&#45;&gt;Node1 -->
<g id="edge1" class="edge"><title>Node2&#45;&gt;Node1</title>
<path fill="none" stroke="#404040" d="M25.482,-270.345C27.832,-257.363 32.0253,-242.118 39.5,-230 51.944,-209.826 68.7832,-191.227 86.5373,-174.926"/>
<polygon fill="none" stroke="#404040" points="86.9181,-174.587 88.7446,-167.611 95.8865,-166.614 94.06,-173.59 86.9181,-174.587"/>
<text text-anchor="middle" x="85" y="-244" font-family="FreeSans" font-size="10.00"> &#45;transitionProbability</text>
<text text-anchor="middle" x="85" y="-233" font-family="FreeSans" font-size="10.00">&#45;maxDistance</text>
</g>
<!-- Node3 -->
<g id="node3" class="node"><title>Node3</title>
<polygon fill="white" stroke="#bfbfbf" points="106,-270.5 106,-327.5 167,-327.5 167,-270.5 106,-270.5"/>
<text text-anchor="middle" x="136.5" y="-315.5" font-family="FreeSans" font-size="10.00">DistanceT</text>
<polyline fill="none" stroke="#bfbfbf" points="106,-308.5 167,-308.5 "/>
<text text-anchor="middle" x="136.5" y="-296.5" font-family="FreeSans" font-size="10.00"> </text>
<polyline fill="none" stroke="#bfbfbf" points="106,-289.5 167,-289.5 "/>
<text text-anchor="middle" x="136.5" y="-277.5" font-family="FreeSans" font-size="10.00"> </text>
</g>
<!-- Node3&#45;&gt;Node1 -->
<g id="edge2" class="edge"><title>Node3&#45;&gt;Node1</title>
<path fill="none" stroke="#404040" d="M134.818,-270.332C134.597,-257.906 135.076,-243.12 137.5,-230 137.901,-227.83 138.336,-225.649 138.802,-223.459"/>
<polygon fill="none" stroke="#404040" points="138.823,-223.372 136.305,-216.614 141.574,-211.691 144.092,-218.449 138.823,-223.372"/>
<text text-anchor="middle" x="172.5" y="-238.5" font-family="FreeSans" font-size="10.00"> &#45;distanceMetric</text>
</g>
<!-- Node4 -->
<g id="node4" class="node"><title>Node4</title>
<g id="a_node4"><a xlink:href="classbool.html" target="_top" xlink:title="{bool\n||}">
<polygon fill="white" stroke="black" points="212,-270.5 212,-327.5 247,-327.5 247,-270.5 212,-270.5"/>
<text text-anchor="middle" x="229.5" y="-315.5" font-family="FreeSans" font-size="10.00">bool</text>
<polyline fill="none" stroke="black" points="212,-308.5 247,-308.5 "/>
<text text-anchor="middle" x="229.5" y="-296.5" font-family="FreeSans" font-size="10.00"> </text>
<polyline fill="none" stroke="black" points="212,-289.5 247,-289.5 "/>
<text text-anchor="middle" x="229.5" y="-277.5" font-family="FreeSans" font-size="10.00"> </text>
</a>
</g>
</g>
<!-- Node4&#45;&gt;Node1 -->
<g id="edge3" class="edge"><title>Node4&#45;&gt;Node1</title>
<path fill="none" stroke="#404040" d="M222.666,-270.227C219.501,-257.365 215.505,-241.127 211.268,-223.909"/>
<polygon fill="none" stroke="#404040" points="211.171,-223.515 205.853,-218.645 208.304,-211.863 213.622,-216.733 211.171,-223.515"/>
<text text-anchor="middle" x="239" y="-238.5" font-family="FreeSans" font-size="10.00"> &#45;flagValid</text>
</g>
<!-- Node5 -->
<g id="node5" class="node"><title>Node5</title>
<polygon fill="white" stroke="#bfbfbf" points="265,-270.5 265,-327.5 382,-327.5 382,-270.5 265,-270.5"/>
<text text-anchor="middle" x="323.5" y="-315.5" font-family="FreeSans" font-size="10.00">std::vector&lt; FeatureT &gt;</text>
<polyline fill="none" stroke="#bfbfbf" points="265,-308.5 382,-308.5 "/>
<text text-anchor="middle" x="323.5" y="-296.5" font-family="FreeSans" font-size="10.00"> </text>
<polyline fill="none" stroke="#bfbfbf" points="265,-289.5 382,-289.5 "/>
<text text-anchor="middle" x="323.5" y="-277.5" font-family="FreeSans" font-size="10.00"> </text>
</g>
<!-- Node5&#45;&gt;Node1 -->
<g id="edge4" class="edge"><title>Node5&#45;&gt;Node1</title>
<path fill="none" stroke="#404040" d="M302.997,-270.227C293.137,-256.87 280.589,-239.872 267.335,-221.918"/>
<polygon fill="none" stroke="#404040" points="267.039,-221.517 260.257,-219.066 259.912,-211.863 266.693,-214.314 267.039,-221.517"/>
<text text-anchor="middle" x="311.5" y="-238.5" font-family="FreeSans" font-size="10.00"> &#45;reference</text>
</g>
<!-- Node6 -->
<g id="node6" class="node"><title>Node6</title>
<polygon fill="white" stroke="#bfbfbf" points="255.5,-375.5 255.5,-432.5 311.5,-432.5 311.5,-375.5 255.5,-375.5"/>
<text text-anchor="middle" x="283.5" y="-420.5" font-family="FreeSans" font-size="10.00">FeatureT</text>
<polyline fill="none" stroke="#bfbfbf" points="255.5,-413.5 311.5,-413.5 "/>
<text text-anchor="middle" x="283.5" y="-401.5" font-family="FreeSans" font-size="10.00"> </text>
<polyline fill="none" stroke="#bfbfbf" points="255.5,-394.5 311.5,-394.5 "/>
<text text-anchor="middle" x="283.5" y="-382.5" font-family="FreeSans" font-size="10.00"> </text>
</g>
<!-- Node6&#45;&gt;Node5 -->
<g id="edge5" class="edge"><title>Node6&#45;&gt;Node5</title>
<path fill="none" stroke="#404040" d="M285.406,-375.394C286.7,-365.845 288.869,-355.23 292.5,-346 293.541,-343.353 294.755,-340.705 296.087,-338.091"/>
<polygon fill="none" stroke="#404040" points="296.119,-338.035 295.638,-330.84 302.094,-327.628 302.576,-334.823 296.119,-338.035"/>
<text text-anchor="middle" x="317" y="-349" font-family="FreeSans" font-size="10.00"> +elements</text>
</g>
<!-- Node7 -->
<g id="node7" class="node"><title>Node7</title>
<g id="a_node7"><a xlink:title="STL class. ">
<polygon fill="white" stroke="#bfbfbf" points="329.5,-375.5 329.5,-432.5 413.5,-432.5 413.5,-375.5 329.5,-375.5"/>
<text text-anchor="middle" x="371.5" y="-420.5" font-family="FreeSans" font-size="10.00">std::vector&lt; T &gt;</text>
<polyline fill="none" stroke="#bfbfbf" points="329.5,-413.5 413.5,-413.5 "/>
<text text-anchor="middle" x="371.5" y="-401.5" font-family="FreeSans" font-size="10.00"> </text>
<polyline fill="none" stroke="#bfbfbf" points="329.5,-394.5 413.5,-394.5 "/>
<text text-anchor="middle" x="371.5" y="-382.5" font-family="FreeSans" font-size="10.00"> </text>
</a>
</g>
</g>
<!-- Node7&#45;&gt;Node5 -->
<g id="edge6" class="edge"><title>Node7&#45;&gt;Node5</title>
<path fill="none" stroke="orange" d="M354.272,-366.031C348.378,-353.384 341.891,-339.464 336.399,-327.678"/>
<polygon fill="orange" stroke="orange" points="351.24,-367.812 358.637,-375.398 357.585,-364.855 351.24,-367.812"/>
<text text-anchor="middle" x="377.5" y="-349" font-family="FreeSans" font-size="10.00"> &lt; FeatureT &gt;</text>
</g>
<!-- Node8 -->
<g id="node8" class="node"><title>Node8</title>
<polygon fill="white" stroke="#bfbfbf" points="357,-480.5 357,-537.5 386,-537.5 386,-480.5 357,-480.5"/>
<text text-anchor="middle" x="371.5" y="-525.5" font-family="FreeSans" font-size="10.00">T</text>
<polyline fill="none" stroke="#bfbfbf" points="357,-518.5 386,-518.5 "/>
<text text-anchor="middle" x="371.5" y="-506.5" font-family="FreeSans" font-size="10.00"> </text>
<polyline fill="none" stroke="#bfbfbf" points="357,-499.5 386,-499.5 "/>
<text text-anchor="middle" x="371.5" y="-487.5" font-family="FreeSans" font-size="10.00"> </text>
</g>
<!-- Node8&#45;&gt;Node7 -->
<g id="edge7" class="edge"><title>Node8&#45;&gt;Node7</title>
<path fill="none" stroke="#404040" d="M371.5,-480.398C371.5,-469.545 371.5,-456.873 371.5,-445.049"/>
<polygon fill="none" stroke="#404040" points="371.5,-444.678 367.5,-438.678 371.5,-432.678 375.5,-438.678 371.5,-444.678"/>
<text text-anchor="middle" x="396" y="-454" font-family="FreeSans" font-size="10.00"> +elements</text>
</g>
</g>
</svg>
        <g id="navigator" transform="translate(0 0)" fill="#404254">
                <rect fill="#f2f5e9" fill-opacity="0.5" stroke="#606060" stroke-width=".5" x="0" y="0" width="60" height="60"/>
                <use id="zoomplus" xlink:href="#zoomPlus" x="17" y="9" onmousedown="handleZoom(evt,'in')"/>
                <use id="zoomminus" xlink:href="#zoomMin" x="42" y="9" onmousedown="handleZoom(evt,'out')"/>
                <use id="reset" xlink:href="#resetDef" x="30" y="36" onmousedown="handleReset()"/>
                <g id="arrowUp" xlink:href="#dirArrow" transform="translate(30 24)" onmousedown="handlePan(0,-1)">
                  <use xlink:href="#rim" fill="#404040">
                        <set attributeName="fill" to="#808080" begin="arrowUp.mouseover" end="arrowUp.mouseout"/>
                  </use>
                  <path fill="none" stroke="white" stroke-width="1.5" d="M0,-3.0v7 M-2.5,-0.5L0,-3.0L2.5,-0.5"/>
                </g>
                <g id="arrowRight" xlink:href="#dirArrow" transform="rotate(90) translate(36 -43)" onmousedown="handlePan(1,0)">
                  <use xlink:href="#rim" fill="#404040">
                        <set attributeName="fill" to="#808080" begin="arrowRight.mouseover" end="arrowRight.mouseout"/>
                  </use>
                  <path fill="none" stroke="white" stroke-width="1.5" d="M0,-3.0v7 M-2.5,-0.5L0,-3.0L2.5,-0.5"/>
                </g>
                <g id="arrowDown" xlink:href="#dirArrow" transform="rotate(180) translate(-30 -48)" onmousedown="handlePan(0,1)">
                  <use xlink:href="#rim" fill="#404040">
                        <set attributeName="fill" to="#808080" begin="arrowDown.mouseover" end="arrowDown.mouseout"/>
                  </use>
                  <path fill="none" stroke="white" stroke-width="1.5" d="M0,-3.0v7 M-2.5,-0.5L0,-3.0L2.5,-0.5"/>
                </g>
                <g id="arrowLeft" xlink:href="#dirArrow" transform="rotate(270) translate(-36 17)" onmousedown="handlePan(-1,0)">
                  <use xlink:href="#rim" fill="#404040">
                        <set attributeName="fill" to="#808080" begin="arrowLeft.mouseover" end="arrowLeft.mouseout"/>
                  </use>
                  <path fill="none" stroke="white" stroke-width="1.5" d="M0,-3.0v7 M-2.5,-0.5L0,-3.0L2.5,-0.5"/>
                </g>
        </g>
        <svg viewBox="0 0 15 15" width="100%" height="30px" preserveAspectRatio="xMaxYMin meet">
         <g id="arrow_out" transform="scale(0.3 0.3)">
          <a xlink:href="classSeeSawN_1_1StateEstimationN_1_1ViterbiFeatureSequenceMatchingProblemC__coll__graph_org.svg" target="_base">
           <rect id="button" ry="5" rx="5" y="6" x="6" height="38" width="38"
                fill="#f2f5e9" fill-opacity="0.5" stroke="#606060" stroke-width="1.0"/>
           <path id="arrow"
             d="M 11.500037,31.436501 C 11.940474,20.09759 22.043105,11.32322 32.158766,21.979434 L 37.068811,17.246167 C 37.068811,17.246167 37.088388,32 37.088388,32 L 22.160133,31.978069 C 22.160133,31.978069 26.997745,27.140456 26.997745,27.140456 C 18.528582,18.264221 13.291696,25.230495 11.500037,31.436501 z"
             style="fill:#404040;"/>
          </a>
         </g>
        </svg>
</svg>
