<?xml version="1.0" encoding="UTF-8" standalone="no"?>
<!DOCTYPE svg PUBLIC "-//W3C//DTD SVG 1.1//EN"
 "http://www.w3.org/Graphics/SVG/1.1/DTD/svg11.dtd">
<!-- Generated by graphviz version 2.38.0 (20140413.2041)
 -->
<!-- Title: SeeSawN::ElementsN::SceneFeatureC Pages: 1 -->
<!--zoomable 861 -->
<svg id="main" version="1.1" xmlns="http://www.w3.org/2000/svg" xmlns:xlink="http://www.w3.org/1999/xlink" xml:space="preserve" onload="init(evt)">
<style type="text/css"><![CDATA[
.edge:hover path { stroke: red; }
.edge:hover polygon { stroke: red; fill: red; }
]]></style>
<script type="text/javascript"><![CDATA[
var edges = document.getElementsByTagName('g');
if (edges && edges.length) {
  for (var i=0;i<edges.length;i++) {
    if (edges[i].id.substr(0,4)=='edge') {
      edges[i].setAttribute('class','edge');
    }
  }
}
]]></script>
        <defs>
                <circle id="rim" cx="0" cy="0" r="7"/>
                <circle id="rim2" cx="0" cy="0" r="3.5"/>
                <g id="zoomPlus">
                        <use xlink:href="#rim" fill="#404040">
                                <set attributeName="fill" to="#808080" begin="zoomplus.mouseover" end="zoomplus.mouseout"/>
                        </use>
                        <path d="M-4,0h8M0,-4v8" fill="none" stroke="white" stroke-width="1.5" pointer-events="none"/>
                </g>
                <g id="zoomMin">
                        <use xlink:href="#rim" fill="#404040">
                                <set attributeName="fill" to="#808080" begin="zoomminus.mouseover" end="zoomminus.mouseout"/>
                        </use>
                        <path d="M-4,0h8" fill="none" stroke="white" stroke-width="1.5" pointer-events="none"/>
                </g>
                <g id="dirArrow">
                        <path fill="none" stroke="white" stroke-width="1.5" d="M0,-3.0v7 M-2.5,-0.5L0,-3.0L2.5,-0.5"/>
                </g>
               <g id="resetDef">
                       <use xlink:href="#rim2" fill="#404040">
                               <set attributeName="fill" to="#808080" begin="reset.mouseover" end="reset.mouseout"/>
                       </use>
               </g>
        </defs>

<script type="text/javascript">
var viewWidth = 567;
var viewHeight = 861;
var sectionId = 'dynsection-1';
</script>
<script xlink:href="svgpan.js"/>
<svg id="graph" class="graph">
<g id="viewport">
<title>SeeSawN::ElementsN::SceneFeatureC</title>
<polygon fill="white" stroke="none" points="-4,4 -4,-857 563,-857 563,4 -4,4"/>
<!-- Node3 -->
<g id="node1" class="node"><title>Node3</title>
<polygon fill="#bfbfbf" stroke="black" points="186,-0.5 186,-112.5 303,-112.5 303,-0.5 186,-0.5"/>
<text text-anchor="start" x="194" y="-100.5" font-family="FreeSans" font-size="10.00">SeeSawN::ElementsN</text>
<text text-anchor="middle" x="244.5" y="-89.5" font-family="FreeSans" font-size="10.00">::SceneFeatureC</text>
<polyline fill="none" stroke="black" points="186,-82.5 303,-82.5 "/>
<text text-anchor="middle" x="244.5" y="-70.5" font-family="FreeSans" font-size="10.00"> </text>
<polyline fill="none" stroke="black" points="186,-63.5 303,-63.5 "/>
<text text-anchor="start" x="194" y="-51.5" font-family="FreeSans" font-size="10.00">* SceneFeatureC()</text>
<text text-anchor="start" x="194" y="-40.5" font-family="FreeSans" font-size="10.00">* SceneFeatureC()</text>
<text text-anchor="start" x="194" y="-29.5" font-family="FreeSans" font-size="10.00">* Swap()</text>
<text text-anchor="start" x="194" y="-18.5" font-family="FreeSans" font-size="10.00">* NormaliseDescriptor()</text>
<text text-anchor="start" x="194" y="-7.5" font-family="FreeSans" font-size="10.00">* MakeCompact()</text>
</g>
<!-- Node4 -->
<g id="node2" class="node"><title>Node4</title>
<g id="a_node2"><a xlink:href="classSeeSawN_1_1ElementsN_1_1FeatureC.html" target="_top" xlink:title="{SeeSawN::ElementsN\l::FeatureC\&lt; SceneFeatureC,\l Coordinate3DT, FeatureTrajectory\lT\&lt; unsigned int, ImageFeatureC\l \&gt;, set\&lt; unsigned int \&gt; \&gt;\n||* coordinate_type\l* roi_type\l* descriptor_type\l* FeatureC()\l* FeatureC()\l* Coordinate()\l* Coordinate()\l* Descriptor()\l* Descriptor()\l* RoI()\l* RoI()\l}">
<polygon fill="white" stroke="black" points="162.5,-150.5 162.5,-361.5 326.5,-361.5 326.5,-150.5 162.5,-150.5"/>
<text text-anchor="start" x="170.5" y="-349.5" font-family="FreeSans" font-size="10.00">SeeSawN::ElementsN</text>
<text text-anchor="start" x="170.5" y="-338.5" font-family="FreeSans" font-size="10.00">::FeatureC&lt; SceneFeatureC,</text>
<text text-anchor="start" x="170.5" y="-327.5" font-family="FreeSans" font-size="10.00"> Coordinate3DT, FeatureTrajectory</text>
<text text-anchor="start" x="170.5" y="-316.5" font-family="FreeSans" font-size="10.00">T&lt; unsigned int, ImageFeatureC</text>
<text text-anchor="middle" x="244.5" y="-305.5" font-family="FreeSans" font-size="10.00"> &gt;, set&lt; unsigned int &gt; &gt;</text>
<polyline fill="none" stroke="black" points="162.5,-298.5 326.5,-298.5 "/>
<text text-anchor="middle" x="244.5" y="-286.5" font-family="FreeSans" font-size="10.00"> </text>
<polyline fill="none" stroke="black" points="162.5,-279.5 326.5,-279.5 "/>
<text text-anchor="start" x="170.5" y="-267.5" font-family="FreeSans" font-size="10.00">* coordinate_type</text>
<text text-anchor="start" x="170.5" y="-256.5" font-family="FreeSans" font-size="10.00">* roi_type</text>
<text text-anchor="start" x="170.5" y="-245.5" font-family="FreeSans" font-size="10.00">* descriptor_type</text>
<text text-anchor="start" x="170.5" y="-234.5" font-family="FreeSans" font-size="10.00">* FeatureC()</text>
<text text-anchor="start" x="170.5" y="-223.5" font-family="FreeSans" font-size="10.00">* FeatureC()</text>
<text text-anchor="start" x="170.5" y="-212.5" font-family="FreeSans" font-size="10.00">* Coordinate()</text>
<text text-anchor="start" x="170.5" y="-201.5" font-family="FreeSans" font-size="10.00">* Coordinate()</text>
<text text-anchor="start" x="170.5" y="-190.5" font-family="FreeSans" font-size="10.00">* Descriptor()</text>
<text text-anchor="start" x="170.5" y="-179.5" font-family="FreeSans" font-size="10.00">* Descriptor()</text>
<text text-anchor="start" x="170.5" y="-168.5" font-family="FreeSans" font-size="10.00">* RoI()</text>
<text text-anchor="start" x="170.5" y="-157.5" font-family="FreeSans" font-size="10.00">* RoI()</text>
</a>
</g>
</g>
<!-- Node4&#45;&gt;Node3 -->
<g id="edge1" class="edge"><title>Node4&#45;&gt;Node3</title>
<path fill="none" stroke="midnightblue" d="M244.5,-140.419C244.5,-130.833 244.5,-121.451 244.5,-112.648"/>
<polygon fill="none" stroke="midnightblue" points="241,-140.467 244.5,-150.467 248,-140.467 241,-140.467"/>
</g>
<!-- Node5 -->
<g id="node3" class="node"><title>Node5</title>
<g id="a_node3"><a xlink:href="classCoordinate3DT.html" target="_top" xlink:title="{Coordinate3DT\n||}">
<polygon fill="white" stroke="black" points="0,-514 0,-571 81,-571 81,-514 0,-514"/>
<text text-anchor="middle" x="40.5" y="-559" font-family="FreeSans" font-size="10.00">Coordinate3DT</text>
<polyline fill="none" stroke="black" points="0,-552 81,-552 "/>
<text text-anchor="middle" x="40.5" y="-540" font-family="FreeSans" font-size="10.00"> </text>
<polyline fill="none" stroke="black" points="0,-533 81,-533 "/>
<text text-anchor="middle" x="40.5" y="-521" font-family="FreeSans" font-size="10.00"> </text>
</a>
</g>
</g>
<!-- Node5&#45;&gt;Node4 -->
<g id="edge2" class="edge"><title>Node5&#45;&gt;Node4</title>
<path fill="none" stroke="#404040" d="M52.5226,-513.764C61.7377,-493.401 75.2559,-465.339 89.5,-442 108.131,-411.473 131.568,-380.737 154.536,-353.325"/>
<polygon fill="none" stroke="#404040" points="154.542,-353.318 155.369,-346.154 162.299,-344.162 161.473,-351.325 154.542,-353.318"/>
<text text-anchor="middle" x="157" y="-399.5" font-family="FreeSans" font-size="10.00"> &#45;coordinate</text>
</g>
<!-- Node6 -->
<g id="node4" class="node"><title>Node6</title>
<polygon fill="white" stroke="#bfbfbf" points="99,-508.5 99,-576.5 194,-576.5 194,-508.5 99,-508.5"/>
<text text-anchor="start" x="107" y="-564.5" font-family="FreeSans" font-size="10.00">std::set&lt; unsigned</text>
<text text-anchor="middle" x="146.5" y="-553.5" font-family="FreeSans" font-size="10.00"> int &gt;</text>
<polyline fill="none" stroke="#bfbfbf" points="99,-546.5 194,-546.5 "/>
<text text-anchor="middle" x="146.5" y="-534.5" font-family="FreeSans" font-size="10.00"> </text>
<polyline fill="none" stroke="#bfbfbf" points="99,-527.5 194,-527.5 "/>
<text text-anchor="middle" x="146.5" y="-515.5" font-family="FreeSans" font-size="10.00"> </text>
</g>
<!-- Node6&#45;&gt;Node4 -->
<g id="edge3" class="edge"><title>Node6&#45;&gt;Node4</title>
<path fill="none" stroke="#404040" d="M157.934,-508.307C169.362,-475.129 187.605,-422.169 204.404,-373.402"/>
<polygon fill="none" stroke="#404040" points="204.503,-373.113 202.675,-366.137 208.412,-361.767 210.239,-368.743 204.503,-373.113"/>
<text text-anchor="middle" x="209.5" y="-399.5" font-family="FreeSans" font-size="10.00"> &#45;roi</text>
</g>
<!-- Node7 -->
<g id="node5" class="node"><title>Node7</title>
<polygon fill="white" stroke="#bfbfbf" points="77.5,-690.5 77.5,-747.5 145.5,-747.5 145.5,-690.5 77.5,-690.5"/>
<text text-anchor="middle" x="111.5" y="-735.5" font-family="FreeSans" font-size="10.00">unsigned int</text>
<polyline fill="none" stroke="#bfbfbf" points="77.5,-728.5 145.5,-728.5 "/>
<text text-anchor="middle" x="111.5" y="-716.5" font-family="FreeSans" font-size="10.00"> </text>
<polyline fill="none" stroke="#bfbfbf" points="77.5,-709.5 145.5,-709.5 "/>
<text text-anchor="middle" x="111.5" y="-697.5" font-family="FreeSans" font-size="10.00"> </text>
</g>
<!-- Node7&#45;&gt;Node6 -->
<g id="edge4" class="edge"><title>Node7&#45;&gt;Node6</title>
<path fill="none" stroke="#404040" d="M117.046,-690.35C122.532,-662.996 131.022,-620.67 137.479,-588.474"/>
<polygon fill="none" stroke="#404040" points="137.485,-588.448 134.743,-581.778 139.845,-576.682 142.586,-583.352 137.485,-588.448"/>
<text text-anchor="middle" x="138" y="-664" font-family="FreeSans" font-size="10.00"> +keys</text>
</g>
<!-- Node8 -->
<g id="node6" class="node"><title>Node8</title>
<g id="a_node6"><a xlink:title="STL class. ">
<polygon fill="white" stroke="#bfbfbf" points="164,-690.5 164,-747.5 235,-747.5 235,-690.5 164,-690.5"/>
<text text-anchor="middle" x="199.5" y="-735.5" font-family="FreeSans" font-size="10.00">std::set&lt; K &gt;</text>
<polyline fill="none" stroke="#bfbfbf" points="164,-728.5 235,-728.5 "/>
<text text-anchor="middle" x="199.5" y="-716.5" font-family="FreeSans" font-size="10.00"> </text>
<polyline fill="none" stroke="#bfbfbf" points="164,-709.5 235,-709.5 "/>
<text text-anchor="middle" x="199.5" y="-697.5" font-family="FreeSans" font-size="10.00"> </text>
</a>
</g>
</g>
<!-- Node8&#45;&gt;Node6 -->
<g id="edge5" class="edge"><title>Node8&#45;&gt;Node6</title>
<path fill="none" stroke="orange" d="M188.08,-680.399C178.708,-649.542 165.564,-606.267 156.578,-576.682"/>
<polygon fill="orange" stroke="orange" points="184.847,-681.799 191.102,-690.35 191.545,-679.764 184.847,-681.799"/>
<text text-anchor="middle" x="221" y="-664" font-family="FreeSans" font-size="10.00"> &lt; unsigned int &gt;</text>
</g>
<!-- Node9 -->
<g id="node7" class="node"><title>Node9</title>
<polygon fill="white" stroke="#bfbfbf" points="185,-795.5 185,-852.5 214,-852.5 214,-795.5 185,-795.5"/>
<text text-anchor="middle" x="199.5" y="-840.5" font-family="FreeSans" font-size="10.00">K</text>
<polyline fill="none" stroke="#bfbfbf" points="185,-833.5 214,-833.5 "/>
<text text-anchor="middle" x="199.5" y="-821.5" font-family="FreeSans" font-size="10.00"> </text>
<polyline fill="none" stroke="#bfbfbf" points="185,-814.5 214,-814.5 "/>
<text text-anchor="middle" x="199.5" y="-802.5" font-family="FreeSans" font-size="10.00"> </text>
</g>
<!-- Node9&#45;&gt;Node8 -->
<g id="edge6" class="edge"><title>Node9&#45;&gt;Node8</title>
<path fill="none" stroke="#404040" d="M199.5,-795.398C199.5,-784.545 199.5,-771.873 199.5,-760.049"/>
<polygon fill="none" stroke="#404040" points="199.5,-759.678 195.5,-753.678 199.5,-747.678 203.5,-753.678 199.5,-759.678"/>
<text text-anchor="middle" x="214" y="-769" font-family="FreeSans" font-size="10.00"> +keys</text>
</g>
<!-- Node10 -->
<g id="node8" class="node"><title>Node10</title>
<g id="a_node8"><a xlink:href="classFeatureTrajectoryT_3_01unsigned_01int_00_01ImageFeatureC_01_4.html" target="_top" xlink:title="{FeatureTrajectoryT\l\&lt; unsigned int, ImageFeatureC \&gt;\n||}">
<polygon fill="white" stroke="black" points="212,-508.5 212,-576.5 369,-576.5 369,-508.5 212,-508.5"/>
<text text-anchor="start" x="220" y="-564.5" font-family="FreeSans" font-size="10.00">FeatureTrajectoryT</text>
<text text-anchor="middle" x="290.5" y="-553.5" font-family="FreeSans" font-size="10.00">&lt; unsigned int, ImageFeatureC &gt;</text>
<polyline fill="none" stroke="black" points="212,-546.5 369,-546.5 "/>
<text text-anchor="middle" x="290.5" y="-534.5" font-family="FreeSans" font-size="10.00"> </text>
<polyline fill="none" stroke="black" points="212,-527.5 369,-527.5 "/>
<text text-anchor="middle" x="290.5" y="-515.5" font-family="FreeSans" font-size="10.00"> </text>
</a>
</g>
</g>
<!-- Node10&#45;&gt;Node4 -->
<g id="edge7" class="edge"><title>Node10&#45;&gt;Node4</title>
<path fill="none" stroke="#404040" d="M285.133,-508.307C279.78,-475.199 271.242,-422.392 263.371,-373.711"/>
<polygon fill="none" stroke="#404040" points="263.355,-373.613 258.448,-368.329 261.439,-361.767 266.346,-367.052 263.355,-373.613"/>
<text text-anchor="middle" x="295" y="-399.5" font-family="FreeSans" font-size="10.00"> &#45;descriptor</text>
</g>
<!-- Node11 -->
<g id="node9" class="node"><title>Node11</title>
<g id="a_node9"><a xlink:href="classSeeSawN_1_1ElementsN_1_1FeatureC.html" target="_top" xlink:title="Base class for geometric features. ">
<polygon fill="white" stroke="black" points="387.5,-442.5 387.5,-642.5 517.5,-642.5 517.5,-442.5 387.5,-442.5"/>
<text text-anchor="start" x="395.5" y="-630.5" font-family="FreeSans" font-size="10.00">SeeSawN::ElementsN</text>
<text text-anchor="start" x="395.5" y="-619.5" font-family="FreeSans" font-size="10.00">::FeatureC&lt; DerivedT,</text>
<text text-anchor="start" x="395.5" y="-608.5" font-family="FreeSans" font-size="10.00"> CoordinateT, DescriptorT,</text>
<text text-anchor="middle" x="452.5" y="-597.5" font-family="FreeSans" font-size="10.00"> RoIT &gt;</text>
<polyline fill="none" stroke="black" points="387.5,-590.5 517.5,-590.5 "/>
<text text-anchor="middle" x="452.5" y="-578.5" font-family="FreeSans" font-size="10.00"> </text>
<polyline fill="none" stroke="black" points="387.5,-571.5 517.5,-571.5 "/>
<text text-anchor="start" x="395.5" y="-559.5" font-family="FreeSans" font-size="10.00">* coordinate_type</text>
<text text-anchor="start" x="395.5" y="-548.5" font-family="FreeSans" font-size="10.00">* roi_type</text>
<text text-anchor="start" x="395.5" y="-537.5" font-family="FreeSans" font-size="10.00">* descriptor_type</text>
<text text-anchor="start" x="395.5" y="-526.5" font-family="FreeSans" font-size="10.00">* FeatureC()</text>
<text text-anchor="start" x="395.5" y="-515.5" font-family="FreeSans" font-size="10.00">* FeatureC()</text>
<text text-anchor="start" x="395.5" y="-504.5" font-family="FreeSans" font-size="10.00">* Coordinate()</text>
<text text-anchor="start" x="395.5" y="-493.5" font-family="FreeSans" font-size="10.00">* Coordinate()</text>
<text text-anchor="start" x="395.5" y="-482.5" font-family="FreeSans" font-size="10.00">* Descriptor()</text>
<text text-anchor="start" x="395.5" y="-471.5" font-family="FreeSans" font-size="10.00">* Descriptor()</text>
<text text-anchor="start" x="395.5" y="-460.5" font-family="FreeSans" font-size="10.00">* RoI()</text>
<text text-anchor="start" x="395.5" y="-449.5" font-family="FreeSans" font-size="10.00">* RoI()</text>
</a>
</g>
</g>
<!-- Node11&#45;&gt;Node4 -->
<g id="edge8" class="edge"><title>Node11&#45;&gt;Node4</title>
<path fill="none" stroke="orange" d="M381.282,-444.089C361.84,-417.496 340.695,-388.574 320.973,-361.598"/>
<polygon fill="orange" stroke="orange" points="378.531,-446.256 387.258,-452.263 384.182,-442.125 378.531,-446.256"/>
<text text-anchor="start" x="361.5" y="-416" font-family="FreeSans" font-size="10.00"> &lt; SceneFeatureC, Coordinate3</text>
<text text-anchor="start" x="361.5" y="-405" font-family="FreeSans" font-size="10.00">DT, FeatureTrajectoryT&lt;</text>
<text text-anchor="start" x="361.5" y="-394" font-family="FreeSans" font-size="10.00"> unsigned int, ImageFeatureC</text>
<text text-anchor="middle" x="429.5" y="-383" font-family="FreeSans" font-size="10.00"> &gt;, set&lt; unsigned int &gt; &gt;</text>
</g>
<!-- Node12 -->
<g id="node10" class="node"><title>Node12</title>
<polygon fill="white" stroke="#bfbfbf" points="347,-690.5 347,-747.5 414,-747.5 414,-690.5 347,-690.5"/>
<text text-anchor="middle" x="380.5" y="-735.5" font-family="FreeSans" font-size="10.00">DescriptorT</text>
<polyline fill="none" stroke="#bfbfbf" points="347,-728.5 414,-728.5 "/>
<text text-anchor="middle" x="380.5" y="-716.5" font-family="FreeSans" font-size="10.00"> </text>
<polyline fill="none" stroke="#bfbfbf" points="347,-709.5 414,-709.5 "/>
<text text-anchor="middle" x="380.5" y="-697.5" font-family="FreeSans" font-size="10.00"> </text>
</g>
<!-- Node12&#45;&gt;Node11 -->
<g id="edge9" class="edge"><title>Node12&#45;&gt;Node11</title>
<path fill="none" stroke="#404040" d="M389.119,-690.254C392.195,-680.889 395.815,-670.423 399.5,-661 400.423,-658.639 401.368,-656.257 402.332,-653.86"/>
<polygon fill="none" stroke="#404040" points="402.412,-653.665 400.985,-646.597 406.961,-642.561 408.388,-649.63 402.412,-653.665"/>
<text text-anchor="middle" x="424" y="-664" font-family="FreeSans" font-size="10.00"> &#45;descriptor</text>
</g>
<!-- Node13 -->
<g id="node11" class="node"><title>Node13</title>
<polygon fill="white" stroke="#bfbfbf" points="433.5,-690.5 433.5,-747.5 471.5,-747.5 471.5,-690.5 433.5,-690.5"/>
<text text-anchor="middle" x="452.5" y="-735.5" font-family="FreeSans" font-size="10.00">RoIT</text>
<polyline fill="none" stroke="#bfbfbf" points="433.5,-728.5 471.5,-728.5 "/>
<text text-anchor="middle" x="452.5" y="-716.5" font-family="FreeSans" font-size="10.00"> </text>
<polyline fill="none" stroke="#bfbfbf" points="433.5,-709.5 471.5,-709.5 "/>
<text text-anchor="middle" x="452.5" y="-697.5" font-family="FreeSans" font-size="10.00"> </text>
</g>
<!-- Node13&#45;&gt;Node11 -->
<g id="edge10" class="edge"><title>Node13&#45;&gt;Node11</title>
<path fill="none" stroke="#404040" d="M452.5,-690.35C452.5,-680.196 452.5,-667.98 452.5,-654.984"/>
<polygon fill="none" stroke="#404040" points="452.5,-654.867 448.5,-648.867 452.5,-642.867 456.5,-648.867 452.5,-654.867"/>
<text text-anchor="middle" x="460.5" y="-664" font-family="FreeSans" font-size="10.00"> &#45;roi</text>
</g>
<!-- Node14 -->
<g id="node12" class="node"><title>Node14</title>
<polygon fill="white" stroke="#bfbfbf" points="490,-690.5 490,-747.5 559,-747.5 559,-690.5 490,-690.5"/>
<text text-anchor="middle" x="524.5" y="-735.5" font-family="FreeSans" font-size="10.00">CoordinateT</text>
<polyline fill="none" stroke="#bfbfbf" points="490,-728.5 559,-728.5 "/>
<text text-anchor="middle" x="524.5" y="-716.5" font-family="FreeSans" font-size="10.00"> </text>
<polyline fill="none" stroke="#bfbfbf" points="490,-709.5 559,-709.5 "/>
<text text-anchor="middle" x="524.5" y="-697.5" font-family="FreeSans" font-size="10.00"> </text>
</g>
<!-- Node14&#45;&gt;Node11 -->
<g id="edge11" class="edge"><title>Node14&#45;&gt;Node11</title>
<path fill="none" stroke="#404040" d="M513.091,-690.35C508.816,-679.989 503.655,-667.48 498.17,-654.187"/>
<polygon fill="none" stroke="#404040" points="498.077,-653.96 492.09,-649.939 493.499,-642.867 499.486,-646.888 498.077,-653.96"/>
<text text-anchor="middle" x="531" y="-664" font-family="FreeSans" font-size="10.00"> &#45;coordinate</text>
</g>
</g>
</svg>
        <g id="navigator" transform="translate(0 0)" fill="#404254">
                <rect fill="#f2f5e9" fill-opacity="0.5" stroke="#606060" stroke-width=".5" x="0" y="0" width="60" height="60"/>
                <use id="zoomplus" xlink:href="#zoomPlus" x="17" y="9" onmousedown="handleZoom(evt,'in')"/>
                <use id="zoomminus" xlink:href="#zoomMin" x="42" y="9" onmousedown="handleZoom(evt,'out')"/>
                <use id="reset" xlink:href="#resetDef" x="30" y="36" onmousedown="handleReset()"/>
                <g id="arrowUp" xlink:href="#dirArrow" transform="translate(30 24)" onmousedown="handlePan(0,-1)">
                  <use xlink:href="#rim" fill="#404040">
                        <set attributeName="fill" to="#808080" begin="arrowUp.mouseover" end="arrowUp.mouseout"/>
                  </use>
                  <path fill="none" stroke="white" stroke-width="1.5" d="M0,-3.0v7 M-2.5,-0.5L0,-3.0L2.5,-0.5"/>
                </g>
                <g id="arrowRight" xlink:href="#dirArrow" transform="rotate(90) translate(36 -43)" onmousedown="handlePan(1,0)">
                  <use xlink:href="#rim" fill="#404040">
                        <set attributeName="fill" to="#808080" begin="arrowRight.mouseover" end="arrowRight.mouseout"/>
                  </use>
                  <path fill="none" stroke="white" stroke-width="1.5" d="M0,-3.0v7 M-2.5,-0.5L0,-3.0L2.5,-0.5"/>
                </g>
                <g id="arrowDown" xlink:href="#dirArrow" transform="rotate(180) translate(-30 -48)" onmousedown="handlePan(0,1)">
                  <use xlink:href="#rim" fill="#404040">
                        <set attributeName="fill" to="#808080" begin="arrowDown.mouseover" end="arrowDown.mouseout"/>
                  </use>
                  <path fill="none" stroke="white" stroke-width="1.5" d="M0,-3.0v7 M-2.5,-0.5L0,-3.0L2.5,-0.5"/>
                </g>
                <g id="arrowLeft" xlink:href="#dirArrow" transform="rotate(270) translate(-36 17)" onmousedown="handlePan(-1,0)">
                  <use xlink:href="#rim" fill="#404040">
                        <set attributeName="fill" to="#808080" begin="arrowLeft.mouseover" end="arrowLeft.mouseout"/>
                  </use>
                  <path fill="none" stroke="white" stroke-width="1.5" d="M0,-3.0v7 M-2.5,-0.5L0,-3.0L2.5,-0.5"/>
                </g>
        </g>
        <svg viewBox="0 0 15 15" width="100%" height="30px" preserveAspectRatio="xMaxYMin meet">
         <g id="arrow_out" transform="scale(0.3 0.3)">
          <a xlink:href="classSeeSawN_1_1ElementsN_1_1SceneFeatureC__coll__graph_org.svg" target="_base">
           <rect id="button" ry="5" rx="5" y="6" x="6" height="38" width="38"
                fill="#f2f5e9" fill-opacity="0.5" stroke="#606060" stroke-width="1.0"/>
           <path id="arrow"
             d="M 11.500037,31.436501 C 11.940474,20.09759 22.043105,11.32322 32.158766,21.979434 L 37.068811,17.246167 C 37.068811,17.246167 37.088388,32 37.088388,32 L 22.160133,31.978069 C 22.160133,31.978069 26.997745,27.140456 26.997745,27.140456 C 18.528582,18.264221 13.291696,25.230495 11.500037,31.436501 z"
             style="fill:#404040;"/>
          </a>
         </g>
        </svg>
</svg>
