<?xml version="1.0" encoding="UTF-8" standalone="no"?>
<!DOCTYPE svg PUBLIC "-//W3C//DTD SVG 1.1//EN"
 "http://www.w3.org/Graphics/SVG/1.1/DTD/svg11.dtd">
<!-- Generated by graphviz version 2.38.0 (20140413.2041)
 -->
<!-- Title: src/Matcher/ClosestPointAssignmentProblem.ipp Pages: 1 -->
<svg width="590pt" height="95pt"
 viewBox="0.00 0.00 590.00 95.00" xmlns="http://www.w3.org/2000/svg" xmlns:xlink="http://www.w3.org/1999/xlink">
<g id="graph0" class="graph" transform="scale(1 1) rotate(0) translate(4 91)">
<title>src/Matcher/ClosestPointAssignmentProblem.ipp</title>
<polygon fill="white" stroke="none" points="-4,4 -4,-91 586,-91 586,4 -4,4"/>
<!-- Node0 -->
<g id="node1" class="node"><title>Node0</title>
<polygon fill="#bfbfbf" stroke="black" points="284.5,-56.5 284.5,-86.5 411.5,-86.5 411.5,-56.5 284.5,-56.5"/>
<text text-anchor="start" x="292.5" y="-74.5" font-family="FreeSans" font-size="10.00">src/Matcher/ClosestPoint</text>
<text text-anchor="middle" x="348" y="-63.5" font-family="FreeSans" font-size="10.00">AssignmentProblem.ipp</text>
</g>
<!-- Node1 -->
<g id="node2" class="node"><title>Node1</title>
<polygon fill="white" stroke="#bfbfbf" points="0,-0.5 0,-19.5 128,-19.5 128,-0.5 0,-0.5"/>
<text text-anchor="middle" x="64" y="-7.5" font-family="FreeSans" font-size="10.00">boost/concept_check.hpp</text>
</g>
<!-- Node0&#45;&gt;Node1 -->
<g id="edge1" class="edge"><title>Node0&#45;&gt;Node1</title>
<path fill="none" stroke="midnightblue" d="M284.265,-57.147C233.072,-46.4217 162.142,-31.5615 114.745,-21.6315"/>
<polygon fill="midnightblue" stroke="midnightblue" points="115.214,-18.1539 104.709,-19.5289 113.779,-25.0051 115.214,-18.1539"/>
</g>
<!-- Node2 -->
<g id="node3" class="node"><title>Node2</title>
<polygon fill="white" stroke="#bfbfbf" points="146,-0.5 146,-19.5 232,-19.5 232,-0.5 146,-0.5"/>
<text text-anchor="middle" x="189" y="-7.5" font-family="FreeSans" font-size="10.00">boost/range.hpp</text>
</g>
<!-- Node0&#45;&gt;Node2 -->
<g id="edge2" class="edge"><title>Node0&#45;&gt;Node2</title>
<path fill="none" stroke="midnightblue" d="M310.319,-56.3993C283.404,-46.3271 247.548,-32.9093 221.807,-23.2769"/>
<polygon fill="midnightblue" stroke="midnightblue" points="222.728,-19.8846 212.136,-19.6578 220.275,-26.4406 222.728,-19.8846"/>
</g>
<!-- Node3 -->
<g id="node4" class="node"><title>Node3</title>
<polygon fill="white" stroke="#bfbfbf" points="250.5,-0.5 250.5,-19.5 345.5,-19.5 345.5,-0.5 250.5,-0.5"/>
<text text-anchor="middle" x="298" y="-7.5" font-family="FreeSans" font-size="10.00">boost/optional.hpp</text>
</g>
<!-- Node0&#45;&gt;Node3 -->
<g id="edge3" class="edge"><title>Node0&#45;&gt;Node3</title>
<path fill="none" stroke="midnightblue" d="M336.151,-56.3993C328.885,-47.7533 319.548,-36.642 311.929,-27.576"/>
<polygon fill="midnightblue" stroke="midnightblue" points="314.388,-25.0619 305.275,-19.6578 309.029,-29.5653 314.388,-25.0619"/>
</g>
<!-- Node4 -->
<g id="node5" class="node"><title>Node4</title>
<polygon fill="white" stroke="#bfbfbf" points="363.5,-0.5 363.5,-19.5 434.5,-19.5 434.5,-0.5 363.5,-0.5"/>
<text text-anchor="middle" x="399" y="-7.5" font-family="FreeSans" font-size="10.00">Eigen/Dense</text>
</g>
<!-- Node0&#45;&gt;Node4 -->
<g id="edge4" class="edge"><title>Node0&#45;&gt;Node4</title>
<path fill="none" stroke="midnightblue" d="M360.086,-56.3993C367.574,-47.6641 377.218,-36.4126 385.032,-27.2962"/>
<polygon fill="midnightblue" stroke="midnightblue" points="387.729,-29.5281 391.579,-19.6578 382.414,-24.9726 387.729,-29.5281"/>
</g>
<!-- Node5 -->
<g id="node6" class="node"><title>Node5</title>
<polygon fill="white" stroke="#bfbfbf" points="452.5,-0.5 452.5,-19.5 501.5,-19.5 501.5,-0.5 452.5,-0.5"/>
<text text-anchor="middle" x="477" y="-7.5" font-family="FreeSans" font-size="10.00">cstddef</text>
</g>
<!-- Node0&#45;&gt;Node5 -->
<g id="edge5" class="edge"><title>Node0&#45;&gt;Node5</title>
<path fill="none" stroke="midnightblue" d="M378.571,-56.3993C399.925,-46.55 428.215,-33.5014 448.985,-23.9217"/>
<polygon fill="midnightblue" stroke="midnightblue" points="450.615,-27.0244 458.229,-19.6578 447.683,-20.668 450.615,-27.0244"/>
</g>
<!-- Node6 -->
<g id="node7" class="node"><title>Node6</title>
<polygon fill="white" stroke="#bfbfbf" points="520,-0.5 520,-19.5 582,-19.5 582,-0.5 520,-0.5"/>
<text text-anchor="middle" x="551" y="-7.5" font-family="FreeSans" font-size="10.00">type_traits</text>
</g>
<!-- Node0&#45;&gt;Node6 -->
<g id="edge6" class="edge"><title>Node0&#45;&gt;Node6</title>
<path fill="none" stroke="midnightblue" d="M395.851,-56.4747C431.332,-46.0752 479.086,-32.0783 512.201,-22.3722"/>
<polygon fill="midnightblue" stroke="midnightblue" points="513.366,-25.6778 521.978,-19.5064 511.398,-18.9604 513.366,-25.6778"/>
</g>
</g>
</svg>
