<?xml version="1.0" encoding="UTF-8" standalone="no"?>
<!DOCTYPE svg PUBLIC "-//W3C//DTD SVG 1.1//EN"
 "http://www.w3.org/Graphics/SVG/1.1/DTD/svg11.dtd">
<!-- Generated by graphviz version 2.38.0 (20140413.2041)
 -->
<!-- Title: src/Matcher/ClosestPointAssignmentProblem.h Pages: 1 -->
<svg width="298pt" height="106pt"
 viewBox="0.00 0.00 297.50 106.00" xmlns="http://www.w3.org/2000/svg" xmlns:xlink="http://www.w3.org/1999/xlink">
<g id="graph0" class="graph" transform="scale(1 1) rotate(0) translate(4 102)">
<title>src/Matcher/ClosestPointAssignmentProblem.h</title>
<polygon fill="white" stroke="none" points="-4,4 -4,-102 293.5,-102 293.5,4 -4,4"/>
<!-- Node71 -->
<g id="node1" class="node"><title>Node71</title>
<polygon fill="#bfbfbf" stroke="black" points="77,-67.5 77,-97.5 204,-97.5 204,-67.5 77,-67.5"/>
<text text-anchor="start" x="85" y="-85.5" font-family="FreeSans" font-size="10.00">src/Matcher/ClosestPoint</text>
<text text-anchor="middle" x="140.5" y="-74.5" font-family="FreeSans" font-size="10.00">AssignmentProblem.h</text>
</g>
<!-- Node72 -->
<g id="node2" class="node"><title>Node72</title>
<g id="a_node2"><a xlink:href="ClosestPointAssignmentProblem_8cpp.html" target="_top" xlink:title="src/Matcher/ClosestPoint\lAssignmentProblem.cpp">
<polygon fill="white" stroke="black" points="0,-0.5 0,-30.5 127,-30.5 127,-0.5 0,-0.5"/>
<text text-anchor="start" x="8" y="-18.5" font-family="FreeSans" font-size="10.00">src/Matcher/ClosestPoint</text>
<text text-anchor="middle" x="63.5" y="-7.5" font-family="FreeSans" font-size="10.00">AssignmentProblem.cpp</text>
</a>
</g>
</g>
<!-- Node71&#45;&gt;Node72 -->
<g id="edge1" class="edge"><title>Node71&#45;&gt;Node72</title>
<path fill="none" stroke="midnightblue" d="M116.077,-60.8832C104.376,-51.0054 90.6624,-39.4293 80.1752,-30.5765"/>
<polygon fill="midnightblue" stroke="midnightblue" points="113.893,-63.6199 123.792,-67.396 118.408,-58.2709 113.893,-63.6199"/>
</g>
<!-- Node73 -->
<g id="node3" class="node"><title>Node73</title>
<g id="a_node3"><a xlink:href="TestMatcher_8cpp.html" target="_top" xlink:title="src/Matcher/TestMatcher.cpp">
<polygon fill="white" stroke="black" points="145.5,-6 145.5,-25 289.5,-25 289.5,-6 145.5,-6"/>
<text text-anchor="middle" x="217.5" y="-13" font-family="FreeSans" font-size="10.00">src/Matcher/TestMatcher.cpp</text>
</a>
</g>
</g>
<!-- Node71&#45;&gt;Node73 -->
<g id="edge2" class="edge"><title>Node71&#45;&gt;Node73</title>
<path fill="none" stroke="midnightblue" d="M165.173,-60.6722C179.39,-48.6707 196.508,-34.2203 207.2,-25.1945"/>
<polygon fill="midnightblue" stroke="midnightblue" points="162.592,-58.2709 157.208,-67.396 167.107,-63.6199 162.592,-58.2709"/>
</g>
</g>
</svg>
