<?xml version="1.0" encoding="UTF-8" standalone="no"?>
<!DOCTYPE svg PUBLIC "-//W3C//DTD SVG 1.1//EN"
 "http://www.w3.org/Graphics/SVG/1.1/DTD/svg11.dtd">
<!-- Generated by graphviz version 2.38.0 (20140413.2041)
 -->
<!-- Title: src/Matcher/ClosestPointAssignmentProblem.cpp Pages: 1 -->
<!--zoomable 598 -->
<svg id="main" version="1.1" xmlns="http://www.w3.org/2000/svg" xmlns:xlink="http://www.w3.org/1999/xlink" xml:space="preserve" onload="init(evt)">
<style type="text/css"><![CDATA[
.edge:hover path { stroke: red; }
.edge:hover polygon { stroke: red; fill: red; }
]]></style>
<script type="text/javascript"><![CDATA[
var edges = document.getElementsByTagName('g');
if (edges && edges.length) {
  for (var i=0;i<edges.length;i++) {
    if (edges[i].id.substr(0,4)=='edge') {
      edges[i].setAttribute('class','edge');
    }
  }
}
]]></script>
        <defs>
                <circle id="rim" cx="0" cy="0" r="7"/>
                <circle id="rim2" cx="0" cy="0" r="3.5"/>
                <g id="zoomPlus">
                        <use xlink:href="#rim" fill="#404040">
                                <set attributeName="fill" to="#808080" begin="zoomplus.mouseover" end="zoomplus.mouseout"/>
                        </use>
                        <path d="M-4,0h8M0,-4v8" fill="none" stroke="white" stroke-width="1.5" pointer-events="none"/>
                </g>
                <g id="zoomMin">
                        <use xlink:href="#rim" fill="#404040">
                                <set attributeName="fill" to="#808080" begin="zoomminus.mouseover" end="zoomminus.mouseout"/>
                        </use>
                        <path d="M-4,0h8" fill="none" stroke="white" stroke-width="1.5" pointer-events="none"/>
                </g>
                <g id="dirArrow">
                        <path fill="none" stroke="white" stroke-width="1.5" d="M0,-3.0v7 M-2.5,-0.5L0,-3.0L2.5,-0.5"/>
                </g>
               <g id="resetDef">
                       <use xlink:href="#rim2" fill="#404040">
                               <set attributeName="fill" to="#808080" begin="reset.mouseover" end="reset.mouseout"/>
                       </use>
               </g>
        </defs>

<script type="text/javascript">
var viewWidth = 3571;
var viewHeight = 598;
var sectionId = 'dynsection-0';
</script>
<script xlink:href="svgpan.js"/>
<svg id="graph" class="graph">
<g id="viewport">
<title>src/Matcher/ClosestPointAssignmentProblem.cpp</title>
<polygon fill="white" stroke="none" points="-4,4 -4,-594 3567,-594 3567,4 -4,4"/>
<!-- Node0 -->
<g id="node1" class="node"><title>Node0</title>
<polygon fill="#bfbfbf" stroke="black" points="1131,-559.5 1131,-589.5 1258,-589.5 1258,-559.5 1131,-559.5"/>
<text text-anchor="start" x="1139" y="-577.5" font-family="FreeSans" font-size="10.00">src/Matcher/ClosestPoint</text>
<text text-anchor="middle" x="1194.5" y="-566.5" font-family="FreeSans" font-size="10.00">AssignmentProblem.cpp</text>
</g>
<!-- Node1 -->
<g id="node2" class="node"><title>Node1</title>
<g id="a_node2"><a xlink:href="ClosestPointAssignmentProblem_8h.html" target="_top" xlink:title="ClosestPointAssignmentProblem.h">
<polygon fill="white" stroke="black" points="1111,-503.5 1111,-522.5 1278,-522.5 1278,-503.5 1111,-503.5"/>
<text text-anchor="middle" x="1194.5" y="-510.5" font-family="FreeSans" font-size="10.00">ClosestPointAssignmentProblem.h</text>
</a>
</g>
</g>
<!-- Node0&#45;&gt;Node1 -->
<g id="edge1" class="edge"><title>Node0&#45;&gt;Node1</title>
<path fill="none" stroke="midnightblue" d="M1194.5,-559.399C1194.5,-551.466 1194.5,-541.458 1194.5,-532.858"/>
<polygon fill="midnightblue" stroke="midnightblue" points="1198,-532.658 1194.5,-522.658 1191,-532.658 1198,-532.658"/>
</g>
<!-- Node2 -->
<g id="node3" class="node"><title>Node2</title>
<g id="a_node3"><a xlink:href="ClosestPointAssignmentProblem_8ipp.html" target="_top" xlink:title="ClosestPointAssignmentProblem.ipp">
<polygon fill="white" stroke="black" points="227,-73 227,-92 402,-92 402,-73 227,-73"/>
<text text-anchor="middle" x="314.5" y="-80" font-family="FreeSans" font-size="10.00">ClosestPointAssignmentProblem.ipp</text>
</a>
</g>
</g>
<!-- Node1&#45;&gt;Node2 -->
<g id="edge2" class="edge"><title>Node1&#45;&gt;Node2</title>
<path fill="none" stroke="midnightblue" d="M1110.7,-510.407C866.141,-504.655 170.5,-479.991 170.5,-385.5 170.5,-385.5 170.5,-385.5 170.5,-210 170.5,-151.653 238.054,-113.888 280.623,-95.8834"/>
<polygon fill="midnightblue" stroke="midnightblue" points="282.131,-99.0485 290.072,-92.0352 279.491,-92.5655 282.131,-99.0485"/>
</g>
<!-- Node9 -->
<g id="node10" class="node"><title>Node9</title>
<polygon fill="white" stroke="#bfbfbf" points="1591.5,-6 1591.5,-25 1635.5,-25 1635.5,-6 1591.5,-6"/>
<text text-anchor="middle" x="1613.5" y="-13" font-family="FreeSans" font-size="10.00">vector</text>
</g>
<!-- Node1&#45;&gt;Node9 -->
<g id="edge9" class="edge"><title>Node1&#45;&gt;Node9</title>
<path fill="none" stroke="midnightblue" d="M1278.25,-510.621C1526.22,-505.437 2239.5,-482.128 2239.5,-385.5 2239.5,-385.5 2239.5,-385.5 2239.5,-148.5 2239.5,-13.7242 1772.59,-72.9146 1644.5,-31 1642.83,-30.4537 1641.13,-29.8403 1639.44,-29.1824"/>
<polygon fill="midnightblue" stroke="midnightblue" points="1640.5,-25.8292 1629.93,-25.088 1637.73,-32.2582 1640.5,-25.8292"/>
</g>
<!-- Node10 -->
<g id="node11" class="node"><title>Node10</title>
<g id="a_node11"><a xlink:href="Similarity_8h.html" target="_top" xlink:title="../Metrics/Similarity.h">
<polygon fill="white" stroke="black" points="734,-442 734,-461 841,-461 841,-442 734,-442"/>
<text text-anchor="middle" x="787.5" y="-449" font-family="FreeSans" font-size="10.00">../Metrics/Similarity.h</text>
</a>
</g>
</g>
<!-- Node1&#45;&gt;Node10 -->
<g id="edge10" class="edge"><title>Node1&#45;&gt;Node10</title>
<path fill="none" stroke="midnightblue" d="M1136.19,-503.475C1060.67,-492.435 929.489,-473.258 851.356,-461.835"/>
<polygon fill="midnightblue" stroke="midnightblue" points="851.564,-458.328 841.163,-460.345 850.551,-465.255 851.564,-458.328"/>
</g>
<!-- Node21 -->
<g id="node22" class="node"><title>Node21</title>
<g id="a_node22"><a xlink:href="Coordinate_8h.html" target="_top" xlink:title="../Elements/Coordinate.h">
<polygon fill="white" stroke="black" points="874.5,-140 874.5,-159 996.5,-159 996.5,-140 874.5,-140"/>
<text text-anchor="middle" x="935.5" y="-147" font-family="FreeSans" font-size="10.00">../Elements/Coordinate.h</text>
</a>
</g>
</g>
<!-- Node1&#45;&gt;Node21 -->
<g id="edge109" class="edge"><title>Node1&#45;&gt;Node21</title>
<path fill="none" stroke="midnightblue" d="M1194.5,-503.411C1194.5,-482.977 1194.5,-429.863 1194.5,-385.5 1194.5,-385.5 1194.5,-385.5 1194.5,-322 1194.5,-287.844 1178.92,-279.809 1153.5,-257 1100.19,-209.174 1021.53,-177.898 974.711,-162.285"/>
<polygon fill="midnightblue" stroke="midnightblue" points="975.534,-158.872 964.941,-159.101 973.365,-165.527 975.534,-158.872"/>
</g>
<!-- Node69 -->
<g id="node70" class="node"><title>Node69</title>
<g id="a_node70"><a xlink:href="BoostStatisticalDistributions_8h.html" target="_top" xlink:title="../Wrappers/BoostStatistical\lDistributions.h">
<polygon fill="white" stroke="black" points="2714,-436.5 2714,-466.5 2851,-466.5 2851,-436.5 2714,-436.5"/>
<text text-anchor="start" x="2722" y="-454.5" font-family="FreeSans" font-size="10.00">../Wrappers/BoostStatistical</text>
<text text-anchor="middle" x="2782.5" y="-443.5" font-family="FreeSans" font-size="10.00">Distributions.h</text>
</a>
</g>
</g>
<!-- Node1&#45;&gt;Node69 -->
<g id="edge110" class="edge"><title>Node1&#45;&gt;Node69</title>
<path fill="none" stroke="midnightblue" d="M1278.2,-508.864C1554.51,-498.511 2435.27,-465.51 2703.94,-455.444"/>
<polygon fill="midnightblue" stroke="midnightblue" points="2704.13,-458.939 2714,-455.067 2703.87,-451.944 2704.13,-458.939"/>
</g>
<!-- Node3 -->
<g id="node4" class="node"><title>Node3</title>
<polygon fill="white" stroke="#bfbfbf" points="638.5,-6 638.5,-25 766.5,-25 766.5,-6 638.5,-6"/>
<text text-anchor="middle" x="702.5" y="-13" font-family="FreeSans" font-size="10.00">boost/concept_check.hpp</text>
</g>
<!-- Node2&#45;&gt;Node3 -->
<g id="edge3" class="edge"><title>Node2&#45;&gt;Node3</title>
<path fill="none" stroke="midnightblue" d="M365.623,-72.9355C436.816,-61.0089 565.612,-39.4323 641.658,-26.6926"/>
<polygon fill="midnightblue" stroke="midnightblue" points="642.288,-30.1359 651.572,-25.0317 641.131,-23.2321 642.288,-30.1359"/>
</g>
<!-- Node4 -->
<g id="node5" class="node"><title>Node4</title>
<polygon fill="white" stroke="#bfbfbf" points="208.5,-6 208.5,-25 294.5,-25 294.5,-6 208.5,-6"/>
<text text-anchor="middle" x="251.5" y="-13" font-family="FreeSans" font-size="10.00">boost/range.hpp</text>
</g>
<!-- Node2&#45;&gt;Node4 -->
<g id="edge4" class="edge"><title>Node2&#45;&gt;Node4</title>
<path fill="none" stroke="midnightblue" d="M306.004,-72.7338C295.991,-62.403 279.159,-45.0371 266.844,-32.3315"/>
<polygon fill="midnightblue" stroke="midnightblue" points="269.335,-29.8721 259.862,-25.1273 264.308,-34.7439 269.335,-29.8721"/>
</g>
<!-- Node5 -->
<g id="node6" class="node"><title>Node5</title>
<polygon fill="white" stroke="#bfbfbf" points="313,-6 313,-25 408,-25 408,-6 313,-6"/>
<text text-anchor="middle" x="360.5" y="-13" font-family="FreeSans" font-size="10.00">boost/optional.hpp</text>
</g>
<!-- Node2&#45;&gt;Node5 -->
<g id="edge5" class="edge"><title>Node2&#45;&gt;Node5</title>
<path fill="none" stroke="midnightblue" d="M320.704,-72.7338C327.808,-62.6953 339.613,-46.0145 348.525,-33.4213"/>
<polygon fill="midnightblue" stroke="midnightblue" points="351.475,-35.3119 354.395,-25.1273 345.761,-31.2682 351.475,-35.3119"/>
</g>
<!-- Node6 -->
<g id="node7" class="node"><title>Node6</title>
<polygon fill="white" stroke="#bfbfbf" points="847,-6 847,-25 918,-25 918,-6 847,-6"/>
<text text-anchor="middle" x="882.5" y="-13" font-family="FreeSans" font-size="10.00">Eigen/Dense</text>
</g>
<!-- Node2&#45;&gt;Node6 -->
<g id="edge6" class="edge"><title>Node2&#45;&gt;Node6</title>
<path fill="none" stroke="midnightblue" d="M402.221,-74.0695C540.077,-62.2355 796.073,-39.5698 837.5,-31 841.368,-30.1998 845.372,-29.188 849.325,-28.0725"/>
<polygon fill="midnightblue" stroke="midnightblue" points="850.388,-31.4076 858.935,-25.1473 848.349,-24.7109 850.388,-31.4076"/>
</g>
<!-- Node7 -->
<g id="node8" class="node"><title>Node7</title>
<polygon fill="white" stroke="#bfbfbf" points="438,-6 438,-25 487,-25 487,-6 438,-6"/>
<text text-anchor="middle" x="462.5" y="-13" font-family="FreeSans" font-size="10.00">cstddef</text>
</g>
<!-- Node2&#45;&gt;Node7 -->
<g id="edge7" class="edge"><title>Node2&#45;&gt;Node7</title>
<path fill="none" stroke="midnightblue" d="M334.153,-72.8685C359.585,-61.699 404.104,-42.1468 433.446,-29.2602"/>
<polygon fill="midnightblue" stroke="midnightblue" points="435.017,-32.393 442.765,-25.1672 432.202,-25.9839 435.017,-32.393"/>
</g>
<!-- Node8 -->
<g id="node9" class="node"><title>Node8</title>
<polygon fill="white" stroke="#bfbfbf" points="124.5,-6 124.5,-25 186.5,-25 186.5,-6 124.5,-6"/>
<text text-anchor="middle" x="155.5" y="-13" font-family="FreeSans" font-size="10.00">type_traits</text>
</g>
<!-- Node2&#45;&gt;Node8 -->
<g id="edge8" class="edge"><title>Node2&#45;&gt;Node8</title>
<path fill="none" stroke="midnightblue" d="M293.386,-72.8685C265.869,-61.6193 217.552,-41.8673 186.041,-28.9853"/>
<polygon fill="midnightblue" stroke="midnightblue" points="187.029,-25.6081 176.448,-25.0637 184.38,-32.0875 187.029,-25.6081"/>
</g>
<!-- Node11 -->
<g id="node12" class="node"><title>Node11</title>
<g id="a_node12"><a xlink:href="Similarity_8ipp.html" target="_top" xlink:title="Similarity.ipp">
<polygon fill="white" stroke="black" points="621,-201.5 621,-220.5 692,-220.5 692,-201.5 621,-201.5"/>
<text text-anchor="middle" x="656.5" y="-208.5" font-family="FreeSans" font-size="10.00">Similarity.ipp</text>
</a>
</g>
</g>
<!-- Node10&#45;&gt;Node11 -->
<g id="edge11" class="edge"><title>Node10&#45;&gt;Node11</title>
<path fill="none" stroke="midnightblue" d="M780.029,-441.954C771.726,-432.213 758.211,-415.615 748.5,-400 711.618,-340.693 678.259,-264.469 663.922,-230.16"/>
<polygon fill="midnightblue" stroke="midnightblue" points="667.011,-228.471 659.955,-220.567 660.543,-231.146 667.011,-228.471"/>
</g>
<!-- Node14 -->
<g id="node15" class="node"><title>Node14</title>
<g id="a_node15"><a xlink:href="Distance_8h.html" target="_top" xlink:title="Distance.h">
<polygon fill="white" stroke="black" points="744.5,-313.5 744.5,-332.5 806.5,-332.5 806.5,-313.5 744.5,-313.5"/>
<text text-anchor="middle" x="775.5" y="-320.5" font-family="FreeSans" font-size="10.00">Distance.h</text>
</a>
</g>
</g>
<!-- Node10&#45;&gt;Node14 -->
<g id="edge16" class="edge"><title>Node10&#45;&gt;Node14</title>
<path fill="none" stroke="midnightblue" d="M779.677,-442C771.566,-432.557 759.402,-416.462 754.5,-400 750.568,-386.795 751.516,-382.451 754.5,-369 756.624,-359.426 761.007,-349.476 765.221,-341.374"/>
<polygon fill="midnightblue" stroke="midnightblue" points="768.322,-342.999 770.116,-332.557 762.202,-339.601 768.322,-342.999"/>
</g>
<!-- Node49 -->
<g id="node50" class="node"><title>Node49</title>
<g id="a_node50"><a xlink:href="SceneFeatureDistance_8h.html" target="_top" xlink:title="SceneFeatureDistance.h">
<polygon fill="white" stroke="black" points="932,-375 932,-394 1055,-394 1055,-375 932,-375"/>
<text text-anchor="middle" x="993.5" y="-382" font-family="FreeSans" font-size="10.00">SceneFeatureDistance.h</text>
</a>
</g>
</g>
<!-- Node10&#45;&gt;Node49 -->
<g id="edge64" class="edge"><title>Node10&#45;&gt;Node49</title>
<path fill="none" stroke="midnightblue" d="M814.855,-441.869C851.355,-430.351 916.101,-409.922 956.81,-397.077"/>
<polygon fill="midnightblue" stroke="midnightblue" points="957.876,-400.411 966.36,-394.064 955.77,-393.735 957.876,-400.411"/>
</g>
<!-- Node64 -->
<g id="node65" class="node"><title>Node64</title>
<g id="a_node65"><a xlink:href="BinarySceneFeatureDistance_8h.html" target="_top" xlink:title="BinarySceneFeatureDistance.h">
<polygon fill="white" stroke="black" points="763.5,-375 763.5,-394 913.5,-394 913.5,-375 763.5,-375"/>
<text text-anchor="middle" x="838.5" y="-382" font-family="FreeSans" font-size="10.00">BinarySceneFeatureDistance.h</text>
</a>
</g>
</g>
<!-- Node10&#45;&gt;Node64 -->
<g id="edge98" class="edge"><title>Node10&#45;&gt;Node64</title>
<path fill="none" stroke="midnightblue" d="M794.378,-441.734C802.331,-431.598 815.597,-414.69 825.51,-402.056"/>
<polygon fill="midnightblue" stroke="midnightblue" points="828.312,-404.155 831.731,-394.127 822.804,-399.834 828.312,-404.155"/>
</g>
<!-- Node67 -->
<g id="node68" class="node"><title>Node67</title>
<g id="a_node68"><a xlink:href="NumericFunctor_8h.html" target="_top" xlink:title="../Numeric/NumericFunctor.h">
<polygon fill="white" stroke="black" points="0,-313.5 0,-332.5 141,-332.5 141,-313.5 0,-313.5"/>
<text text-anchor="middle" x="70.5" y="-320.5" font-family="FreeSans" font-size="10.00">../Numeric/NumericFunctor.h</text>
</a>
</g>
</g>
<!-- Node10&#45;&gt;Node67 -->
<g id="edge106" class="edge"><title>Node10&#45;&gt;Node67</title>
<path fill="none" stroke="midnightblue" d="M739.062,-441.954C611.542,-419.456 266.881,-358.647 128.835,-334.292"/>
<polygon fill="midnightblue" stroke="midnightblue" points="129.322,-330.824 118.866,-332.533 128.106,-337.718 129.322,-330.824"/>
</g>
<!-- Node11&#45;&gt;Node3 -->
<g id="edge12" class="edge"><title>Node11&#45;&gt;Node3</title>
<path fill="none" stroke="midnightblue" d="M660.607,-201.215C664.645,-192.272 670.735,-177.926 674.5,-165 687.848,-119.173 696.366,-63.4807 700.177,-35.0906"/>
<polygon fill="midnightblue" stroke="midnightblue" points="703.669,-35.3752 701.484,-25.0081 696.727,-34.4748 703.669,-35.3752"/>
</g>
<!-- Node12 -->
<g id="node13" class="node"><title>Node12</title>
<g id="a_node13"><a xlink:href="InvertibleUnaryFunctionConcept_8h.html" target="_top" xlink:title="../Numeric/InvertibleUnary\lFunctionConcept.h">
<polygon fill="white" stroke="black" points="537,-134.5 537,-164.5 666,-164.5 666,-134.5 537,-134.5"/>
<text text-anchor="start" x="545" y="-152.5" font-family="FreeSans" font-size="10.00">../Numeric/InvertibleUnary</text>
<text text-anchor="middle" x="601.5" y="-141.5" font-family="FreeSans" font-size="10.00">FunctionConcept.h</text>
</a>
</g>
</g>
<!-- Node11&#45;&gt;Node12 -->
<g id="edge13" class="edge"><title>Node11&#45;&gt;Node12</title>
<path fill="none" stroke="midnightblue" d="M648.62,-201.475C641.519,-193.793 630.776,-182.172 621.341,-171.964"/>
<polygon fill="midnightblue" stroke="midnightblue" points="623.821,-169.491 614.462,-164.523 618.68,-174.242 623.821,-169.491"/>
</g>
<!-- Node13 -->
<g id="node14" class="node"><title>Node13</title>
<g id="a_node14"><a xlink:href="InvertibleUnaryFunctionConcept_8ipp.html" target="_top" xlink:title="InvertibleUnaryFunctionConcept.ipp">
<polygon fill="white" stroke="black" points="496.5,-73 496.5,-92 666.5,-92 666.5,-73 496.5,-73"/>
<text text-anchor="middle" x="581.5" y="-80" font-family="FreeSans" font-size="10.00">InvertibleUnaryFunctionConcept.ipp</text>
</a>
</g>
</g>
<!-- Node12&#45;&gt;Node13 -->
<g id="edge14" class="edge"><title>Node12&#45;&gt;Node13</title>
<path fill="none" stroke="midnightblue" d="M597.16,-134.396C594.227,-124.863 590.325,-112.182 587.15,-101.862"/>
<polygon fill="midnightblue" stroke="midnightblue" points="590.461,-100.723 584.175,-92.1945 583.771,-102.782 590.461,-100.723"/>
</g>
<!-- Node13&#45;&gt;Node3 -->
<g id="edge15" class="edge"><title>Node13&#45;&gt;Node3</title>
<path fill="none" stroke="midnightblue" d="M597.819,-72.7338C618.32,-61.7207 653.704,-42.7129 677.595,-29.8787"/>
<polygon fill="midnightblue" stroke="midnightblue" points="679.287,-32.943 686.44,-25.1273 675.974,-26.7764 679.287,-32.943"/>
</g>
<!-- Node15 -->
<g id="node16" class="node"><title>Node15</title>
<g id="a_node16"><a xlink:href="Distance_8ipp.html" target="_top" xlink:title="Distance.ipp">
<polygon fill="white" stroke="black" points="347.5,-201.5 347.5,-220.5 417.5,-220.5 417.5,-201.5 347.5,-201.5"/>
<text text-anchor="middle" x="382.5" y="-208.5" font-family="FreeSans" font-size="10.00">Distance.ipp</text>
</a>
</g>
</g>
<!-- Node14&#45;&gt;Node15 -->
<g id="edge17" class="edge"><title>Node14&#45;&gt;Node15</title>
<path fill="none" stroke="midnightblue" d="M744.989,-313.46C674.828,-293.822 502.008,-245.45 423.042,-223.348"/>
<polygon fill="midnightblue" stroke="midnightblue" points="423.565,-219.86 412.992,-220.535 421.678,-226.6 423.565,-219.86"/>
</g>
<!-- Node14&#45;&gt;Node21 -->
<g id="edge25" class="edge"><title>Node14&#45;&gt;Node21</title>
<path fill="none" stroke="midnightblue" d="M782.749,-313.469C793.453,-300.934 814.197,-276.872 832.5,-257 862.652,-224.262 899.099,-187.126 919.557,-166.493"/>
<polygon fill="midnightblue" stroke="midnightblue" points="922.241,-168.758 926.807,-159.197 917.275,-163.823 922.241,-168.758"/>
</g>
<!-- Node30 -->
<g id="node31" class="node"><title>Node30</title>
<g id="a_node31"><a xlink:href="Descriptor_8h.html" target="_top" xlink:title="../Elements/Descriptor.h">
<polygon fill="white" stroke="black" points="1346,-140 1346,-159 1465,-159 1465,-140 1346,-140"/>
<text text-anchor="middle" x="1405.5" y="-147" font-family="FreeSans" font-size="10.00">../Elements/Descriptor.h</text>
</a>
</g>
</g>
<!-- Node14&#45;&gt;Node30 -->
<g id="edge40" class="edge"><title>Node14&#45;&gt;Node30</title>
<path fill="none" stroke="midnightblue" d="M786.07,-313.475C805.951,-297.594 848.443,-264.416 865.5,-257 949.435,-220.509 1210.12,-178.996 1336.04,-160.41"/>
<polygon fill="midnightblue" stroke="midnightblue" points="1336.58,-163.868 1345.96,-158.951 1335.56,-156.942 1336.58,-163.868"/>
</g>
<!-- Node15&#45;&gt;Node7 -->
<g id="edge21" class="edge"><title>Node15&#45;&gt;Node7</title>
<path fill="none" stroke="midnightblue" d="M347.479,-205.91C291.546,-197.996 191.805,-177.401 227.5,-134 280.154,-69.979 342.019,-144.706 410.5,-98 433.208,-82.5123 448.143,-53.4866 455.957,-34.5825"/>
<polygon fill="midnightblue" stroke="midnightblue" points="459.307,-35.6249 459.655,-25.0358 452.78,-33.0965 459.307,-35.6249"/>
</g>
<!-- Node16 -->
<g id="node17" class="node"><title>Node16</title>
<polygon fill="white" stroke="#bfbfbf" points="237,-140 237,-159 286,-159 286,-140 237,-140"/>
<text text-anchor="middle" x="261.5" y="-147" font-family="FreeSans" font-size="10.00">cassert</text>
</g>
<!-- Node15&#45;&gt;Node16 -->
<g id="edge18" class="edge"><title>Node15&#45;&gt;Node16</title>
<path fill="none" stroke="midnightblue" d="M365.164,-201.475C344.947,-191.534 311.313,-174.995 287.858,-163.461"/>
<polygon fill="midnightblue" stroke="midnightblue" points="289.322,-160.281 278.804,-159.009 286.233,-166.563 289.322,-160.281"/>
</g>
<!-- Node17 -->
<g id="node18" class="node"><title>Node17</title>
<polygon fill="white" stroke="#bfbfbf" points="304.5,-140 304.5,-159 344.5,-159 344.5,-140 304.5,-140"/>
<text text-anchor="middle" x="324.5" y="-147" font-family="FreeSans" font-size="10.00">limits</text>
</g>
<!-- Node15&#45;&gt;Node17 -->
<g id="edge19" class="edge"><title>Node15&#45;&gt;Node17</title>
<path fill="none" stroke="midnightblue" d="M374.19,-201.475C365.318,-192.373 351.054,-177.741 340.08,-166.483"/>
<polygon fill="midnightblue" stroke="midnightblue" points="342.281,-163.727 332.795,-159.009 337.269,-168.613 342.281,-163.727"/>
</g>
<!-- Node18 -->
<g id="node19" class="node"><title>Node18</title>
<polygon fill="white" stroke="#bfbfbf" points="784.5,-6 784.5,-25 828.5,-25 828.5,-6 784.5,-6"/>
<text text-anchor="middle" x="806.5" y="-13" font-family="FreeSans" font-size="10.00">cmath</text>
</g>
<!-- Node15&#45;&gt;Node18 -->
<g id="edge20" class="edge"><title>Node15&#45;&gt;Node18</title>
<path fill="none" stroke="midnightblue" d="M417.641,-205.093C472.571,-197.308 582.065,-181.33 674.5,-165 675.671,-164.793 1009.75,-98.9198 1010.5,-98 1019.24,-87.3476 1019.19,-77.6888 1010.5,-67 960.945,-6.07186 912.016,-55.8045 837.5,-31 835.833,-30.4452 834.138,-29.8252 832.444,-29.1625"/>
<polygon fill="midnightblue" stroke="midnightblue" points="833.509,-25.8101 822.941,-25.0553 830.732,-32.2356 833.509,-25.8101"/>
</g>
<!-- Node19 -->
<g id="node20" class="node"><title>Node19</title>
<g id="a_node20"><a xlink:href="EigenMetafunction_8h.html" target="_top" xlink:title="../Wrappers/EigenMetafunction.h">
<polygon fill="white" stroke="black" points="362.5,-140 362.5,-159 518.5,-159 518.5,-140 362.5,-140"/>
<text text-anchor="middle" x="440.5" y="-147" font-family="FreeSans" font-size="10.00">../Wrappers/EigenMetafunction.h</text>
</a>
</g>
</g>
<!-- Node15&#45;&gt;Node19 -->
<g id="edge22" class="edge"><title>Node15&#45;&gt;Node19</title>
<path fill="none" stroke="midnightblue" d="M390.81,-201.475C399.682,-192.373 413.946,-177.741 424.92,-166.483"/>
<polygon fill="midnightblue" stroke="midnightblue" points="427.731,-168.613 432.205,-159.009 422.719,-163.727 427.731,-168.613"/>
</g>
<!-- Node20 -->
<g id="node21" class="node"><title>Node20</title>
<g id="a_node21"><a xlink:href="EigenMetafunction_8ipp.html" target="_top" xlink:title="EigenMetafunction.ipp">
<polygon fill="white" stroke="black" points="96.5,-73 96.5,-92 208.5,-92 208.5,-73 96.5,-73"/>
<text text-anchor="middle" x="152.5" y="-80" font-family="FreeSans" font-size="10.00">EigenMetafunction.ipp</text>
</a>
</g>
</g>
<!-- Node19&#45;&gt;Node20 -->
<g id="edge23" class="edge"><title>Node19&#45;&gt;Node20</title>
<path fill="none" stroke="midnightblue" d="M402.553,-139.936C350.536,-128.196 257.089,-107.105 200.339,-94.2971"/>
<polygon fill="midnightblue" stroke="midnightblue" points="201.056,-90.8709 190.531,-92.0834 199.515,-97.6992 201.056,-90.8709"/>
</g>
<!-- Node20&#45;&gt;Node8 -->
<g id="edge24" class="edge"><title>Node20&#45;&gt;Node8</title>
<path fill="none" stroke="midnightblue" d="M152.905,-72.7338C153.345,-63.1826 154.064,-47.6183 154.633,-35.2829"/>
<polygon fill="midnightblue" stroke="midnightblue" points="158.137,-35.2781 155.102,-25.1273 151.144,-34.9553 158.137,-35.2781"/>
</g>
<!-- Node22 -->
<g id="node23" class="node"><title>Node22</title>
<g id="a_node23"><a xlink:href="Coordinate_8ipp.html" target="_top" xlink:title="Coordinate.ipp">
<polygon fill="white" stroke="black" points="1172.5,-73 1172.5,-92 1250.5,-92 1250.5,-73 1172.5,-73"/>
<text text-anchor="middle" x="1211.5" y="-80" font-family="FreeSans" font-size="10.00">Coordinate.ipp</text>
</a>
</g>
</g>
<!-- Node21&#45;&gt;Node22 -->
<g id="edge26" class="edge"><title>Node21&#45;&gt;Node22</title>
<path fill="none" stroke="midnightblue" d="M971.866,-139.936C1021.61,-128.22 1110.9,-107.193 1165.32,-94.3768"/>
<polygon fill="midnightblue" stroke="midnightblue" points="1166.12,-97.7827 1175.05,-92.0834 1164.52,-90.9691 1166.12,-97.7827"/>
</g>
<!-- Node22&#45;&gt;Node3 -->
<g id="edge27" class="edge"><title>Node22&#45;&gt;Node3</title>
<path fill="none" stroke="midnightblue" d="M1172.15,-74.7541C1156.15,-72.1358 1137.47,-69.2359 1120.5,-67 967.655,-46.8632 927.934,-54.042 775.5,-31 767.949,-29.8586 759.994,-28.4714 752.224,-27.0127"/>
<polygon fill="midnightblue" stroke="midnightblue" points="752.647,-23.5299 742.165,-25.0686 751.319,-30.4027 752.647,-23.5299"/>
</g>
<!-- Node22&#45;&gt;Node6 -->
<g id="edge31" class="edge"><title>Node22&#45;&gt;Node6</title>
<path fill="none" stroke="midnightblue" d="M1182.49,-72.9299C1174.74,-70.8145 1166.34,-68.6769 1158.5,-67 1056.89,-45.2559 1028.59,-55.0077 927.5,-31 923.851,-30.1335 920.072,-29.1145 916.324,-28.025"/>
<polygon fill="midnightblue" stroke="midnightblue" points="917.178,-24.6258 906.591,-25.0326 915.121,-31.3168 917.178,-24.6258"/>
</g>
<!-- Node22&#45;&gt;Node7 -->
<g id="edge34" class="edge"><title>Node22&#45;&gt;Node7</title>
<path fill="none" stroke="midnightblue" d="M1172.33,-78.102C1078.58,-69.9686 833.856,-48.7377 629.5,-31 583.848,-27.0375 531.176,-22.4639 497.39,-19.53"/>
<polygon fill="midnightblue" stroke="midnightblue" points="497.383,-16.0162 487.117,-18.6379 496.777,-22.99 497.383,-16.0162"/>
</g>
<!-- Node22&#45;&gt;Node8 -->
<g id="edge33" class="edge"><title>Node22&#45;&gt;Node8</title>
<path fill="none" stroke="midnightblue" d="M1172.24,-78.3449C1131.74,-75.1663 1066.73,-70.2758 1010.5,-67 650.311,-46.0178 554.383,-96.0726 199.5,-31 195.52,-30.2702 191.404,-29.2671 187.361,-28.1265"/>
<polygon fill="midnightblue" stroke="midnightblue" points="188.164,-24.7109 177.576,-25.0848 186.086,-31.3954 188.164,-24.7109"/>
</g>
<!-- Node22&#45;&gt;Node9 -->
<g id="edge32" class="edge"><title>Node22&#45;&gt;Node9</title>
<path fill="none" stroke="midnightblue" d="M1250.76,-80.0384C1319.37,-76.6341 1464.96,-65.6152 1582.5,-31 1584.38,-30.4461 1586.29,-29.7941 1588.19,-29.0784"/>
<polygon fill="midnightblue" stroke="midnightblue" points="1589.63,-32.2726 1597.45,-25.1294 1586.88,-25.834 1589.63,-32.2726"/>
</g>
<!-- Node22&#45;&gt;Node18 -->
<g id="edge35" class="edge"><title>Node22&#45;&gt;Node18</title>
<path fill="none" stroke="midnightblue" d="M1172.12,-74.9485C1156.12,-72.3585 1137.44,-69.4271 1120.5,-67 994.99,-49.0221 959.283,-66.2855 837.5,-31 835.574,-30.4419 833.617,-29.779 831.671,-29.0485"/>
<polygon fill="midnightblue" stroke="midnightblue" points="832.791,-25.7213 822.221,-25.0065 830.038,-32.1572 832.791,-25.7213"/>
</g>
<!-- Node23 -->
<g id="node24" class="node"><title>Node23</title>
<polygon fill="white" stroke="#bfbfbf" points="1138.5,-6 1138.5,-25 1266.5,-25 1266.5,-6 1138.5,-6"/>
<text text-anchor="middle" x="1202.5" y="-13" font-family="FreeSans" font-size="10.00">boost/range/concepts.hpp</text>
</g>
<!-- Node22&#45;&gt;Node23 -->
<g id="edge28" class="edge"><title>Node22&#45;&gt;Node23</title>
<path fill="none" stroke="midnightblue" d="M1210.29,-72.7338C1208.96,-63.1826 1206.81,-47.6183 1205.1,-35.2829"/>
<polygon fill="midnightblue" stroke="midnightblue" points="1208.53,-34.5527 1203.69,-25.1273 1201.6,-35.5129 1208.53,-34.5527"/>
</g>
<!-- Node24 -->
<g id="node25" class="node"><title>Node24</title>
<polygon fill="white" stroke="#bfbfbf" points="1284.5,-6 1284.5,-25 1434.5,-25 1434.5,-6 1284.5,-6"/>
<text text-anchor="middle" x="1359.5" y="-13" font-family="FreeSans" font-size="10.00">boost/range/metafunctions.hpp</text>
</g>
<!-- Node22&#45;&gt;Node24 -->
<g id="edge29" class="edge"><title>Node22&#45;&gt;Node24</title>
<path fill="none" stroke="midnightblue" d="M1231.15,-72.8685C1256.59,-61.699 1301.1,-42.1468 1330.45,-29.2602"/>
<polygon fill="midnightblue" stroke="midnightblue" points="1332.02,-32.393 1339.77,-25.1672 1329.2,-25.9839 1332.02,-32.393"/>
</g>
<!-- Node25 -->
<g id="node26" class="node"><title>Node25</title>
<polygon fill="white" stroke="#bfbfbf" points="992.5,-6 992.5,-25 1120.5,-25 1120.5,-6 992.5,-6"/>
<text text-anchor="middle" x="1056.5" y="-13" font-family="FreeSans" font-size="10.00">boost/range/functions.hpp</text>
</g>
<!-- Node22&#45;&gt;Node25 -->
<g id="edge30" class="edge"><title>Node22&#45;&gt;Node25</title>
<path fill="none" stroke="midnightblue" d="M1190.92,-72.8685C1164.17,-61.6504 1117.25,-41.9766 1086.53,-29.0925"/>
<polygon fill="midnightblue" stroke="midnightblue" points="1087.74,-25.8068 1077.17,-25.1672 1085.04,-32.2622 1087.74,-25.8068"/>
</g>
<!-- Node26 -->
<g id="node27" class="node"><title>Node26</title>
<polygon fill="white" stroke="#bfbfbf" points="936.5,-6 936.5,-25 974.5,-25 974.5,-6 936.5,-6"/>
<text text-anchor="middle" x="955.5" y="-13" font-family="FreeSans" font-size="10.00">array</text>
</g>
<!-- Node22&#45;&gt;Node26 -->
<g id="edge36" class="edge"><title>Node22&#45;&gt;Node26</title>
<path fill="none" stroke="midnightblue" d="M1181.6,-72.9582C1174.08,-70.9111 1166.01,-68.7989 1158.5,-67 1081.28,-48.5133 1058.35,-57.5078 983.5,-31 982.252,-30.558 980.99,-30.0701 979.727,-29.5488"/>
<polygon fill="midnightblue" stroke="midnightblue" points="980.812,-26.1917 970.272,-25.1112 977.838,-32.5285 980.812,-26.1917"/>
</g>
<!-- Node27 -->
<g id="node28" class="node"><title>Node27</title>
<polygon fill="white" stroke="#bfbfbf" points="1517.5,-6 1517.5,-25 1573.5,-25 1573.5,-6 1517.5,-6"/>
<text text-anchor="middle" x="1545.5" y="-13" font-family="FreeSans" font-size="10.00">algorithm</text>
</g>
<!-- Node22&#45;&gt;Node27 -->
<g id="edge37" class="edge"><title>Node22&#45;&gt;Node27</title>
<path fill="none" stroke="midnightblue" d="M1250.82,-77.2746C1308.03,-70.5701 1417.23,-55.6667 1507.5,-31 1510.15,-30.2747 1512.88,-29.4342 1515.6,-28.5304"/>
<polygon fill="midnightblue" stroke="midnightblue" points="1517,-31.7443 1525.23,-25.0726 1514.64,-25.1555 1517,-31.7443"/>
</g>
<!-- Node28 -->
<g id="node29" class="node"><title>Node28</title>
<polygon fill="white" stroke="#bfbfbf" points="3441,-6 3441,-25 3486,-25 3486,-6 3441,-6"/>
<text text-anchor="middle" x="3463.5" y="-13" font-family="FreeSans" font-size="10.00">climits</text>
</g>
<!-- Node22&#45;&gt;Node28 -->
<g id="edge38" class="edge"><title>Node22&#45;&gt;Node28</title>
<path fill="none" stroke="midnightblue" d="M1250.92,-78.7641C1300.67,-75.421 1388.88,-69.8578 1464.5,-67 1682.94,-58.7447 3218.27,-79.1031 3431.5,-31 3433.86,-30.4677 3436.26,-29.7524 3438.62,-28.9236"/>
<polygon fill="midnightblue" stroke="midnightblue" points="3440.09,-32.1055 3447.99,-25.055 3437.41,-25.635 3440.09,-32.1055"/>
</g>
<!-- Node29 -->
<g id="node30" class="node"><title>Node29</title>
<polygon fill="white" stroke="#bfbfbf" points="1452,-6 1452,-25 1499,-25 1499,-6 1452,-6"/>
<text text-anchor="middle" x="1475.5" y="-13" font-family="FreeSans" font-size="10.00">iterator</text>
</g>
<!-- Node22&#45;&gt;Node29 -->
<g id="edge39" class="edge"><title>Node22&#45;&gt;Node29</title>
<path fill="none" stroke="midnightblue" d="M1250.76,-75.5571C1297.45,-67.8978 1377.37,-52.9065 1443.5,-31 1445.37,-30.3814 1447.27,-29.6886 1449.17,-28.9501"/>
<polygon fill="midnightblue" stroke="midnightblue" points="1450.65,-32.1271 1458.49,-25.0081 1447.92,-25.6801 1450.65,-32.1271"/>
</g>
<!-- Node30&#45;&gt;Node6 -->
<g id="edge62" class="edge"><title>Node30&#45;&gt;Node6</title>
<path fill="none" stroke="midnightblue" d="M1362.35,-139.979C1295.25,-126.66 1172.59,-102.009 1163.5,-98 1141.94,-88.4971 1142.16,-76.2726 1120.5,-67 1040.29,-32.6573 1012.09,-52.424 927.5,-31 924.054,-30.1271 920.485,-29.1345 916.935,-28.0878"/>
<polygon fill="midnightblue" stroke="midnightblue" points="917.681,-24.655 907.093,-25.0485 915.615,-31.3433 917.681,-24.655"/>
</g>
<!-- Node30&#45;&gt;Node9 -->
<g id="edge63" class="edge"><title>Node30&#45;&gt;Node9</title>
<path fill="none" stroke="midnightblue" d="M1431.55,-139.838C1455.86,-131.148 1492.61,-116.426 1521.5,-98 1551.45,-78.8945 1581.36,-50.166 1598.61,-32.4136"/>
<polygon fill="midnightblue" stroke="midnightblue" points="1601.22,-34.7499 1605.6,-25.1035 1596.16,-29.9121 1601.22,-34.7499"/>
</g>
<!-- Node31 -->
<g id="node32" class="node"><title>Node31</title>
<g id="a_node32"><a xlink:href="boost__dynamic__bitset_8hpp.html" target="_top" xlink:title="../Modified/boost_dynamic\l_bitset.hpp">
<polygon fill="white" stroke="black" points="2267.5,-67.5 2267.5,-97.5 2395.5,-97.5 2395.5,-67.5 2267.5,-67.5"/>
<text text-anchor="start" x="2275.5" y="-85.5" font-family="FreeSans" font-size="10.00">../Modified/boost_dynamic</text>
<text text-anchor="middle" x="2331.5" y="-74.5" font-family="FreeSans" font-size="10.00">_bitset.hpp</text>
</a>
</g>
</g>
<!-- Node30&#45;&gt;Node31 -->
<g id="edge41" class="edge"><title>Node30&#45;&gt;Node31</title>
<path fill="none" stroke="midnightblue" d="M1462.61,-139.975C1478.71,-137.784 1496.27,-135.598 1512.5,-134 1786.46,-107.028 2113.47,-92.0011 2257.36,-86.2542"/>
<polygon fill="midnightblue" stroke="midnightblue" points="2257.54,-89.7497 2267.4,-85.8564 2257.26,-82.7551 2257.54,-89.7497"/>
</g>
<!-- Node31&#45;&gt;Node9 -->
<g id="edge46" class="edge"><title>Node31&#45;&gt;Node9</title>
<path fill="none" stroke="midnightblue" d="M2267.33,-68.914C2262.66,-68.2001 2258.01,-67.5505 2253.5,-67 1984.36,-34.1586 1907.33,-97.6282 1644.5,-31 1642.51,-30.4963 1640.5,-29.865 1638.5,-29.1496"/>
<polygon fill="midnightblue" stroke="midnightblue" points="1639.42,-25.7377 1628.84,-25.0741 1636.7,-32.1869 1639.42,-25.7377"/>
</g>
<!-- Node31&#45;&gt;Node27 -->
<g id="edge45" class="edge"><title>Node31&#45;&gt;Node27</title>
<path fill="none" stroke="midnightblue" d="M2267.4,-79.6931C2110.82,-74.8752 1712.22,-60.0638 1582.5,-31 1579.5,-30.3278 1576.42,-29.4503 1573.39,-28.4593"/>
<polygon fill="midnightblue" stroke="midnightblue" points="1574.57,-25.1641 1563.97,-25.0194 1572.16,-31.7389 1574.57,-25.1641"/>
</g>
<!-- Node31&#45;&gt;Node28 -->
<g id="edge47" class="edge"><title>Node31&#45;&gt;Node28</title>
<path fill="none" stroke="midnightblue" d="M2395.52,-72.4769C2412.39,-70.3783 2430.61,-68.3621 2447.5,-67 2665.61,-49.4129 3218.5,-81.0995 3431.5,-31 3433.72,-30.4781 3435.97,-29.7995 3438.2,-29.0211"/>
<polygon fill="midnightblue" stroke="midnightblue" points="3439.73,-32.1782 3447.65,-25.1461 3437.07,-25.7014 3439.73,-32.1782"/>
</g>
<!-- Node32 -->
<g id="node33" class="node"><title>Node32</title>
<polygon fill="white" stroke="#bfbfbf" points="2102,-6 2102,-25 2153,-25 2153,-6 2102,-6"/>
<text text-anchor="middle" x="2127.5" y="-13" font-family="FreeSans" font-size="10.00">assert.h</text>
</g>
<!-- Node31&#45;&gt;Node32 -->
<g id="edge42" class="edge"><title>Node31&#45;&gt;Node32</title>
<path fill="none" stroke="midnightblue" d="M2278.54,-67.4502C2244.74,-58.0714 2200.17,-44.937 2161.5,-31 2159.64,-30.3309 2157.74,-29.6133 2155.83,-28.8686"/>
<polygon fill="midnightblue" stroke="midnightblue" points="2156.99,-25.5597 2146.41,-25.0171 2154.34,-32.0397 2156.99,-25.5597"/>
</g>
<!-- Node33 -->
<g id="node34" class="node"><title>Node33</title>
<polygon fill="white" stroke="#bfbfbf" points="2171,-6 2171,-25 2212,-25 2212,-6 2171,-6"/>
<text text-anchor="middle" x="2191.5" y="-13" font-family="FreeSans" font-size="10.00">string</text>
</g>
<!-- Node31&#45;&gt;Node33 -->
<g id="edge43" class="edge"><title>Node31&#45;&gt;Node33</title>
<path fill="none" stroke="midnightblue" d="M2299.78,-67.44C2277.5,-57.4747 2247.06,-43.6758 2220.5,-31 2219.51,-30.5272 2218.5,-30.0423 2217.48,-29.5499"/>
<polygon fill="midnightblue" stroke="midnightblue" points="2218.83,-26.3136 2208.32,-25.039 2215.74,-32.5945 2218.83,-26.3136"/>
</g>
<!-- Node34 -->
<g id="node35" class="node"><title>Node34</title>
<polygon fill="white" stroke="#bfbfbf" points="3504,-6 3504,-25 3563,-25 3563,-6 3504,-6"/>
<text text-anchor="middle" x="3533.5" y="-13" font-family="FreeSans" font-size="10.00">stdexcept</text>
</g>
<!-- Node31&#45;&gt;Node34 -->
<g id="edge44" class="edge"><title>Node31&#45;&gt;Node34</title>
<path fill="none" stroke="midnightblue" d="M2395.86,-81.4153C2607.85,-80.7126 3282.81,-74.9879 3495.5,-31 3498.58,-30.3627 3501.74,-29.5079 3504.86,-28.5307"/>
<polygon fill="midnightblue" stroke="midnightblue" points="3506.27,-31.7445 3514.53,-25.1081 3503.93,-25.1457 3506.27,-31.7445"/>
</g>
<!-- Node35 -->
<g id="node36" class="node"><title>Node35</title>
<polygon fill="white" stroke="#bfbfbf" points="2230,-0.5 2230,-30.5 2339,-30.5 2339,-0.5 2230,-0.5"/>
<text text-anchor="start" x="2238" y="-18.5" font-family="FreeSans" font-size="10.00">boost/dynamic_bitset</text>
<text text-anchor="middle" x="2284.5" y="-7.5" font-family="FreeSans" font-size="10.00">/config.hpp</text>
</g>
<!-- Node31&#45;&gt;Node35 -->
<g id="edge48" class="edge"><title>Node31&#45;&gt;Node35</title>
<path fill="none" stroke="midnightblue" d="M2321.3,-67.396C2315.27,-59.0486 2307.48,-48.2871 2300.63,-38.8113"/>
<polygon fill="midnightblue" stroke="midnightblue" points="2303.37,-36.6292 2294.68,-30.5765 2297.7,-40.7309 2303.37,-36.6292"/>
</g>
<!-- Node36 -->
<g id="node37" class="node"><title>Node36</title>
<polygon fill="white" stroke="#bfbfbf" points="2357.5,-6 2357.5,-25 2399.5,-25 2399.5,-6 2357.5,-6"/>
<text text-anchor="middle" x="2378.5" y="-13" font-family="FreeSans" font-size="10.00">locale</text>
</g>
<!-- Node31&#45;&gt;Node36 -->
<g id="edge49" class="edge"><title>Node31&#45;&gt;Node36</title>
<path fill="none" stroke="midnightblue" d="M2341.7,-67.396C2348.88,-57.4617 2358.54,-44.1083 2366.16,-33.5719"/>
<polygon fill="midnightblue" stroke="midnightblue" points="2369.19,-35.3489 2372.21,-25.1945 2363.52,-31.2472 2369.19,-35.3489"/>
</g>
<!-- Node37 -->
<g id="node38" class="node"><title>Node37</title>
<polygon fill="white" stroke="#bfbfbf" points="2418,-6 2418,-25 2467,-25 2467,-6 2418,-6"/>
<text text-anchor="middle" x="2442.5" y="-13" font-family="FreeSans" font-size="10.00">istream</text>
</g>
<!-- Node31&#45;&gt;Node37 -->
<g id="edge50" class="edge"><title>Node31&#45;&gt;Node37</title>
<path fill="none" stroke="midnightblue" d="M2355.59,-67.396C2374.46,-56.3442 2400.56,-41.0607 2419.22,-30.1319"/>
<polygon fill="midnightblue" stroke="midnightblue" points="2421.11,-33.0805 2427.97,-25.007 2417.57,-27.04 2421.11,-33.0805"/>
</g>
<!-- Node38 -->
<g id="node39" class="node"><title>Node38</title>
<polygon fill="white" stroke="#bfbfbf" points="3370.5,-6 3370.5,-25 3422.5,-25 3422.5,-6 3370.5,-6"/>
<text text-anchor="middle" x="3396.5" y="-13" font-family="FreeSans" font-size="10.00">ostream</text>
</g>
<!-- Node31&#45;&gt;Node38 -->
<g id="edge51" class="edge"><title>Node31&#45;&gt;Node38</title>
<path fill="none" stroke="midnightblue" d="M2395.66,-68.8048C2400.33,-68.1165 2404.98,-67.5026 2409.5,-67 2619.91,-43.5912 3154.68,-76.2248 3361.5,-31 3364.18,-30.4143 3366.91,-29.6348 3369.61,-28.7402"/>
<polygon fill="midnightblue" stroke="midnightblue" points="3370.99,-31.9626 3379.09,-25.1365 3368.5,-25.4197 3370.99,-31.9626"/>
</g>
<!-- Node39 -->
<g id="node40" class="node"><title>Node39</title>
<polygon fill="white" stroke="#bfbfbf" points="2485,-0.5 2485,-30.5 2594,-30.5 2594,-0.5 2485,-0.5"/>
<text text-anchor="start" x="2493" y="-18.5" font-family="FreeSans" font-size="10.00">boost/dynamic_bitset</text>
<text text-anchor="middle" x="2539.5" y="-7.5" font-family="FreeSans" font-size="10.00">_fwd.hpp</text>
</g>
<!-- Node31&#45;&gt;Node39 -->
<g id="edge52" class="edge"><title>Node31&#45;&gt;Node39</title>
<path fill="none" stroke="midnightblue" d="M2376.38,-67.476C2408.12,-57.5574 2450.86,-44.201 2484.63,-33.6481"/>
<polygon fill="midnightblue" stroke="midnightblue" points="2485.84,-36.9344 2494.35,-30.6109 2483.76,-30.2531 2485.84,-36.9344"/>
</g>
<!-- Node40 -->
<g id="node41" class="node"><title>Node40</title>
<polygon fill="white" stroke="#bfbfbf" points="2612.5,-0.5 2612.5,-30.5 2718.5,-30.5 2718.5,-0.5 2612.5,-0.5"/>
<text text-anchor="start" x="2620.5" y="-18.5" font-family="FreeSans" font-size="10.00">boost/detail/dynamic</text>
<text text-anchor="middle" x="2665.5" y="-7.5" font-family="FreeSans" font-size="10.00">_bitset.hpp</text>
</g>
<!-- Node31&#45;&gt;Node40 -->
<g id="edge53" class="edge"><title>Node31&#45;&gt;Node40</title>
<path fill="none" stroke="midnightblue" d="M2395.77,-69.5502C2400.42,-68.687 2405.03,-67.83 2409.5,-67 2492.6,-51.5649 2516,-49.1525 2602.44,-31.1698"/>
<polygon fill="midnightblue" stroke="midnightblue" points="2603.36,-34.5529 2612.44,-29.0803 2601.93,-27.7011 2603.36,-34.5529"/>
</g>
<!-- Node41 -->
<g id="node42" class="node"><title>Node41</title>
<polygon fill="white" stroke="#bfbfbf" points="2736.5,-6 2736.5,-25 2854.5,-25 2854.5,-6 2736.5,-6"/>
<text text-anchor="middle" x="2795.5" y="-13" font-family="FreeSans" font-size="10.00">boost/detail/iterator.hpp</text>
</g>
<!-- Node31&#45;&gt;Node41 -->
<g id="edge54" class="edge"><title>Node31&#45;&gt;Node41</title>
<path fill="none" stroke="midnightblue" d="M2395.71,-69.1892C2400.37,-68.4107 2405,-67.6714 2409.5,-67 2550.18,-45.9888 2587.11,-53.8585 2727.5,-31 2734.3,-29.8921 2741.46,-28.5569 2748.46,-27.151"/>
<polygon fill="midnightblue" stroke="midnightblue" points="2749.48,-30.5138 2758.57,-25.0587 2748.07,-23.6593 2749.48,-30.5138"/>
</g>
<!-- Node42 -->
<g id="node43" class="node"><title>Node42</title>
<polygon fill="white" stroke="#bfbfbf" points="2873,-6 2873,-25 2986,-25 2986,-6 2873,-6"/>
<text text-anchor="middle" x="2929.5" y="-13" font-family="FreeSans" font-size="10.00">boost/move/move.hpp</text>
</g>
<!-- Node31&#45;&gt;Node42 -->
<g id="edge55" class="edge"><title>Node31&#45;&gt;Node42</title>
<path fill="none" stroke="midnightblue" d="M2395.69,-69.0171C2400.35,-68.279 2404.99,-67.5958 2409.5,-67 2610.16,-40.4667 2663.29,-60.7866 2863.5,-31 2870.36,-29.9793 2877.57,-28.6566 2884.61,-27.2258"/>
<polygon fill="midnightblue" stroke="midnightblue" points="2885.67,-30.5776 2894.73,-25.075 2884.22,-23.7306 2885.67,-30.5776"/>
</g>
<!-- Node43 -->
<g id="node44" class="node"><title>Node43</title>
<polygon fill="white" stroke="#bfbfbf" points="3004,-6 3004,-25 3089,-25 3089,-6 3004,-6"/>
<text text-anchor="middle" x="3046.5" y="-13" font-family="FreeSans" font-size="10.00">boost/limits.hpp</text>
</g>
<!-- Node31&#45;&gt;Node43 -->
<g id="edge56" class="edge"><title>Node31&#45;&gt;Node43</title>
<path fill="none" stroke="midnightblue" d="M2395.68,-68.9259C2400.34,-68.2092 2404.99,-67.5558 2409.5,-67 2668.48,-35.0951 2738.29,-74.9349 2995.5,-31 3000.4,-30.1626 3005.51,-29.0327 3010.51,-27.7712"/>
<polygon fill="midnightblue" stroke="midnightblue" points="3011.81,-31.0459 3020.54,-25.0483 3009.97,-24.2904 3011.81,-31.0459"/>
</g>
<!-- Node44 -->
<g id="node45" class="node"><title>Node44</title>
<polygon fill="white" stroke="#bfbfbf" points="3107,-0.5 3107,-30.5 3216,-30.5 3216,-0.5 3107,-0.5"/>
<text text-anchor="start" x="3115" y="-18.5" font-family="FreeSans" font-size="10.00">boost/pending/lowest</text>
<text text-anchor="middle" x="3161.5" y="-7.5" font-family="FreeSans" font-size="10.00">_bit.hpp</text>
</g>
<!-- Node31&#45;&gt;Node44 -->
<g id="edge57" class="edge"><title>Node31&#45;&gt;Node44</title>
<path fill="none" stroke="midnightblue" d="M2395.67,-68.8788C2400.34,-68.1732 2404.99,-67.5351 2409.5,-67 2710.74,-31.288 2793.06,-72.6426 3096.99,-31.0457"/>
<polygon fill="midnightblue" stroke="midnightblue" points="3097.55,-34.5023 3106.97,-29.6611 3096.59,-27.5687 3097.55,-34.5023"/>
</g>
<!-- Node45 -->
<g id="node46" class="node"><title>Node45</title>
<polygon fill="white" stroke="#bfbfbf" points="3234.5,-6 3234.5,-25 3352.5,-25 3352.5,-6 3234.5,-6"/>
<text text-anchor="middle" x="3293.5" y="-13" font-family="FreeSans" font-size="10.00">boost/static_assert.hpp</text>
</g>
<!-- Node31&#45;&gt;Node45 -->
<g id="edge58" class="edge"><title>Node31&#45;&gt;Node45</title>
<path fill="none" stroke="midnightblue" d="M2395.67,-68.8371C2400.34,-68.1413 2404.98,-67.5168 2409.5,-67 2770.17,-25.7255 2865.41,-77.0117 3225.5,-31 3233.08,-30.0319 3241.06,-28.6566 3248.79,-27.1345"/>
<polygon fill="midnightblue" stroke="midnightblue" points="3249.67,-30.5275 3258.75,-25.0709 3248.25,-23.6731 3249.67,-30.5275"/>
</g>
<!-- Node46 -->
<g id="node47" class="node"><title>Node46</title>
<polygon fill="white" stroke="#bfbfbf" points="1653.5,-6 1653.5,-25 1783.5,-25 1783.5,-6 1653.5,-6"/>
<text text-anchor="middle" x="1718.5" y="-13" font-family="FreeSans" font-size="10.00">boost/utility/addressof.hpp</text>
</g>
<!-- Node31&#45;&gt;Node46 -->
<g id="edge59" class="edge"><title>Node31&#45;&gt;Node46</title>
<path fill="none" stroke="midnightblue" d="M2267.31,-69.0109C2262.65,-68.2743 2258.01,-67.5931 2253.5,-67 2049.74,-40.182 1996.12,-58.8053 1792.5,-31 1784.38,-29.8919 1775.82,-28.4593 1767.5,-26.9272"/>
<polygon fill="midnightblue" stroke="midnightblue" points="1768.01,-23.4612 1757.53,-25.024 1766.7,-30.3371 1768.01,-23.4612"/>
</g>
<!-- Node47 -->
<g id="node48" class="node"><title>Node47</title>
<polygon fill="white" stroke="#bfbfbf" points="1801.5,-0.5 1801.5,-30.5 1933.5,-30.5 1933.5,-0.5 1801.5,-0.5"/>
<text text-anchor="start" x="1809.5" y="-18.5" font-family="FreeSans" font-size="10.00">boost/detail/no_exceptions</text>
<text text-anchor="middle" x="1867.5" y="-7.5" font-family="FreeSans" font-size="10.00">_support.hpp</text>
</g>
<!-- Node31&#45;&gt;Node47 -->
<g id="edge60" class="edge"><title>Node31&#45;&gt;Node47</title>
<path fill="none" stroke="midnightblue" d="M2267.29,-69.202C2262.63,-68.4206 2257.99,-67.6771 2253.5,-67 2119.13,-46.7581 2081.76,-51.9572 1943.81,-31.1272"/>
<polygon fill="midnightblue" stroke="midnightblue" points="1944.12,-27.6334 1933.71,-29.5818 1943.06,-34.553 1944.12,-27.6334"/>
</g>
<!-- Node48 -->
<g id="node49" class="node"><title>Node48</title>
<polygon fill="white" stroke="#bfbfbf" points="1951.5,-6 1951.5,-25 2083.5,-25 2083.5,-6 1951.5,-6"/>
<text text-anchor="middle" x="2017.5" y="-13" font-family="FreeSans" font-size="10.00">boost/throw_exception.hpp</text>
</g>
<!-- Node31&#45;&gt;Node48 -->
<g id="edge61" class="edge"><title>Node31&#45;&gt;Node48</title>
<path fill="none" stroke="midnightblue" d="M2267.2,-68.1894C2208.54,-56.0467 2122.98,-38.3359 2068.8,-27.1188"/>
<polygon fill="midnightblue" stroke="midnightblue" points="2069.23,-23.634 2058.73,-25.0341 2067.81,-30.4886 2069.23,-23.634"/>
</g>
<!-- Node49&#45;&gt;Node14 -->
<g id="edge97" class="edge"><title>Node49&#45;&gt;Node14</title>
<path fill="none" stroke="midnightblue" d="M962.266,-374.975C923.9,-364.504 858.713,-346.712 816.389,-335.16"/>
<polygon fill="midnightblue" stroke="midnightblue" points="817.245,-331.766 806.676,-332.509 815.402,-338.519 817.245,-331.766"/>
</g>
<!-- Node50 -->
<g id="node51" class="node"><title>Node50</title>
<g id="a_node51"><a xlink:href="SceneFeatureDistance_8ipp.html" target="_top" xlink:title="SceneFeatureDistance.ipp">
<polygon fill="white" stroke="black" points="1025,-313.5 1025,-332.5 1156,-332.5 1156,-313.5 1025,-313.5"/>
<text text-anchor="middle" x="1090.5" y="-320.5" font-family="FreeSans" font-size="10.00">SceneFeatureDistance.ipp</text>
</a>
</g>
</g>
<!-- Node49&#45;&gt;Node50 -->
<g id="edge65" class="edge"><title>Node49&#45;&gt;Node50</title>
<path fill="none" stroke="midnightblue" d="M1007.4,-374.975C1023.17,-365.299 1049.14,-349.372 1067.85,-337.894"/>
<polygon fill="midnightblue" stroke="midnightblue" points="1069.93,-340.721 1076.63,-332.509 1066.27,-334.754 1069.93,-340.721"/>
</g>
<!-- Node50&#45;&gt;Node3 -->
<g id="edge66" class="edge"><title>Node50&#45;&gt;Node3</title>
<path fill="none" stroke="midnightblue" d="M1104.64,-313.393C1123.26,-300.963 1152.03,-277.254 1137.5,-257 1128.2,-244.038 879.309,-172.986 865.5,-165 802.161,-128.368 742.54,-63.6574 716.393,-33.2157"/>
<polygon fill="midnightblue" stroke="midnightblue" points="718.79,-30.6312 709.657,-25.2625 713.449,-35.1554 718.79,-30.6312"/>
</g>
<!-- Node50&#45;&gt;Node28 -->
<g id="edge67" class="edge"><title>Node50&#45;&gt;Node28</title>
<path fill="none" stroke="midnightblue" d="M1156.21,-320.874C1453.05,-315.363 2654.5,-288.343 2654.5,-212 2654.5,-212 2654.5,-212 2654.5,-148.5 2654.5,26.1298 3264.05,-80.5621 3431.5,-31 3433.43,-30.4288 3435.39,-29.7638 3437.35,-29.0389"/>
<polygon fill="midnightblue" stroke="midnightblue" points="3439,-32.142 3446.89,-25.0697 3436.32,-25.6789 3439,-32.142"/>
</g>
<!-- Node51 -->
<g id="node52" class="node"><title>Node51</title>
<g id="a_node52"><a xlink:href="Feature_8h.html" target="_top" xlink:title="../Elements/Feature.h">
<polygon fill="white" stroke="black" points="1020.5,-257.5 1020.5,-276.5 1128.5,-276.5 1128.5,-257.5 1020.5,-257.5"/>
<text text-anchor="middle" x="1074.5" y="-264.5" font-family="FreeSans" font-size="10.00">../Elements/Feature.h</text>
</a>
</g>
</g>
<!-- Node50&#45;&gt;Node51 -->
<g id="edge68" class="edge"><title>Node50&#45;&gt;Node51</title>
<path fill="none" stroke="midnightblue" d="M1087.86,-313.083C1085.71,-305.849 1082.62,-295.409 1079.95,-286.397"/>
<polygon fill="midnightblue" stroke="midnightblue" points="1083.29,-285.345 1077.09,-276.751 1076.58,-287.333 1083.29,-285.345"/>
</g>
<!-- Node52 -->
<g id="node53" class="node"><title>Node52</title>
<g id="a_node53"><a xlink:href="Feature_8ipp.html" target="_top" xlink:title="Feature.ipp">
<polygon fill="white" stroke="black" points="1590,-201.5 1590,-220.5 1655,-220.5 1655,-201.5 1590,-201.5"/>
<text text-anchor="middle" x="1622.5" y="-208.5" font-family="FreeSans" font-size="10.00">Feature.ipp</text>
</a>
</g>
</g>
<!-- Node51&#45;&gt;Node52 -->
<g id="edge69" class="edge"><title>Node51&#45;&gt;Node52</title>
<path fill="none" stroke="midnightblue" d="M1128.54,-260.674C1237.32,-249.956 1480.69,-225.974 1579.54,-216.234"/>
<polygon fill="midnightblue" stroke="midnightblue" points="1580.14,-219.691 1589.75,-215.227 1579.46,-212.725 1580.14,-219.691"/>
</g>
<!-- Node52&#45;&gt;Node3 -->
<g id="edge70" class="edge"><title>Node52&#45;&gt;Node3</title>
<path fill="none" stroke="midnightblue" d="M1589.69,-210.186C1534.89,-209.351 1422.33,-202.696 1336.5,-165 1316.23,-156.096 1317.57,-143.354 1297.5,-134 1224.74,-100.088 1198.52,-116.901 1120.5,-98 1071.13,-86.0411 1060.14,-77.7548 1010.5,-67 907.233,-44.6273 879.567,-49.2973 775.5,-31 768.413,-29.754 760.955,-28.3639 753.623,-26.9515"/>
<polygon fill="midnightblue" stroke="midnightblue" points="754.235,-23.5049 743.749,-25.0229 752.893,-30.375 754.235,-23.5049"/>
</g>
<!-- Node52&#45;&gt;Node7 -->
<g id="edge76" class="edge"><title>Node52&#45;&gt;Node7</title>
<path fill="none" stroke="midnightblue" d="M1589.7,-210.005C1482.54,-209.627 1143.88,-205.202 1043.5,-165 1023.27,-156.897 1025.77,-142.021 1005.5,-134 898.208,-91.5387 577.853,-169.77 487.5,-98 468.698,-83.0646 463.686,-54.3245 462.538,-35.2769"/>
<polygon fill="midnightblue" stroke="midnightblue" points="466.031,-35.0098 462.233,-25.1194 459.035,-35.22 466.031,-35.0098"/>
</g>
<!-- Node52&#45;&gt;Node9 -->
<g id="edge74" class="edge"><title>Node52&#45;&gt;Node9</title>
<path fill="none" stroke="midnightblue" d="M1631.52,-201.34C1639.57,-192.932 1650.8,-179.363 1655.5,-165 1669.05,-123.606 1670.31,-107.961 1655.5,-67 1650.7,-53.729 1640.73,-41.4878 1631.7,-32.3819"/>
<polygon fill="midnightblue" stroke="midnightblue" points="1633.84,-29.5807 1624.17,-25.2398 1629.02,-34.6602 1633.84,-29.5807"/>
</g>
<!-- Node52&#45;&gt;Node19 -->
<g id="edge95" class="edge"><title>Node52&#45;&gt;Node19</title>
<path fill="none" stroke="midnightblue" d="M1589.7,-210.134C1456.76,-210.366 945.278,-208.231 527.5,-165 516.996,-163.913 505.839,-162.36 495.141,-160.67"/>
<polygon fill="midnightblue" stroke="midnightblue" points="495.497,-157.181 485.062,-159.019 494.365,-164.089 495.497,-157.181"/>
</g>
<!-- Node52&#45;&gt;Node21 -->
<g id="edge84" class="edge"><title>Node52&#45;&gt;Node21</title>
<path fill="none" stroke="midnightblue" d="M1589.85,-208.951C1498.17,-205.715 1230.69,-194.277 1010.5,-165 1002.28,-163.906 993.591,-162.481 985.164,-160.952"/>
<polygon fill="midnightblue" stroke="midnightblue" points="985.534,-157.46 975.059,-159.05 984.239,-164.34 985.534,-157.46"/>
</g>
<!-- Node52&#45;&gt;Node23 -->
<g id="edge71" class="edge"><title>Node52&#45;&gt;Node23</title>
<path fill="none" stroke="midnightblue" d="M1619.64,-201.42C1610.4,-175.311 1578.63,-96.7971 1521.5,-67 1423.53,-15.9025 1384.39,-49.7699 1275.5,-31 1268.41,-29.7777 1260.95,-28.4011 1253.62,-26.9951"/>
<polygon fill="midnightblue" stroke="midnightblue" points="1254.23,-23.5482 1243.74,-25.0713 1252.89,-30.419 1254.23,-23.5482"/>
</g>
<!-- Node52&#45;&gt;Node24 -->
<g id="edge72" class="edge"><title>Node52&#45;&gt;Node24</title>
<path fill="none" stroke="midnightblue" d="M1623.05,-201.327C1624.13,-175.634 1623.37,-99.6781 1579.5,-67 1566.35,-57.2009 1476.29,-38.6184 1415.56,-26.9331"/>
<polygon fill="midnightblue" stroke="midnightblue" points="1416.18,-23.4896 1405.7,-25.0483 1414.87,-30.3649 1416.18,-23.4896"/>
</g>
<!-- Node52&#45;&gt;Node28 -->
<g id="edge81" class="edge"><title>Node52&#45;&gt;Node28</title>
<path fill="none" stroke="midnightblue" d="M1655.14,-209.818C1744.35,-208.82 1999.51,-202.624 2207.5,-165 2313.11,-145.896 2342.26,-143.429 2439.5,-98 2461.84,-87.5644 2462.06,-74.6503 2485.5,-67 2685.49,-1.71863 3226.75,-79.3176 3431.5,-31 3433.72,-30.4764 3435.97,-29.7967 3438.2,-29.0175"/>
<polygon fill="midnightblue" stroke="midnightblue" points="3439.73,-32.1743 3447.65,-25.1412 3437.07,-25.6979 3439.73,-32.1743"/>
</g>
<!-- Node52&#45;&gt;Node29 -->
<g id="edge80" class="edge"><title>Node52&#45;&gt;Node29</title>
<path fill="none" stroke="midnightblue" d="M1655.2,-208.127C1736.96,-203.111 1945.18,-188.165 1965.5,-165 1974.59,-154.643 1974.1,-144.76 1965.5,-134 1835.46,28.6053 1706.28,-96.0674 1508.5,-31 1506.63,-30.384 1504.72,-29.7 1502.8,-28.9741"/>
<polygon fill="midnightblue" stroke="midnightblue" points="1503.99,-25.6778 1493.41,-25.1163 1501.33,-32.153 1503.99,-25.6778"/>
</g>
<!-- Node52&#45;&gt;Node30 -->
<g id="edge85" class="edge"><title>Node52&#45;&gt;Node30</title>
<path fill="none" stroke="midnightblue" d="M1591.41,-201.475C1553.22,-191.004 1488.33,-173.212 1446.2,-161.66"/>
<polygon fill="midnightblue" stroke="midnightblue" points="1447.1,-158.278 1436.53,-159.009 1445.25,-165.029 1447.1,-158.278"/>
</g>
<!-- Node52&#45;&gt;Node31 -->
<g id="edge73" class="edge"><title>Node52&#45;&gt;Node31</title>
<path fill="none" stroke="midnightblue" d="M1655.23,-207.446C1720.88,-202.026 1873.2,-187.952 1999.5,-165 2096.14,-147.438 2206.59,-118.519 2272.6,-100.269"/>
<polygon fill="midnightblue" stroke="midnightblue" points="2273.71,-103.594 2282.41,-97.5456 2271.83,-96.8491 2273.71,-103.594"/>
</g>
<!-- Node52&#45;&gt;Node38 -->
<g id="edge75" class="edge"><title>Node52&#45;&gt;Node38</title>
<path fill="none" stroke="midnightblue" d="M1655.28,-208.01C1730.89,-203.154 1923.25,-189.285 2082.5,-165 2227.01,-142.963 2270.73,-156.922 2404.5,-98 2426.06,-88.5033 2425.23,-74.679 2447.5,-67 2639.67,-0.747529 3162.96,-74.5781 3361.5,-31 3364.18,-30.4122 3366.91,-29.6313 3369.61,-28.7358"/>
<polygon fill="midnightblue" stroke="midnightblue" points="3370.99,-31.9579 3379.09,-25.1308 3368.5,-25.4154 3370.99,-31.9579"/>
</g>
<!-- Node53 -->
<g id="node54" class="node"><title>Node53</title>
<polygon fill="white" stroke="#bfbfbf" points="1708,-140 1708,-159 1743,-159 1743,-140 1708,-140"/>
<text text-anchor="middle" x="1725.5" y="-147" font-family="FreeSans" font-size="10.00">map</text>
</g>
<!-- Node52&#45;&gt;Node53 -->
<g id="edge77" class="edge"><title>Node52&#45;&gt;Node53</title>
<path fill="none" stroke="midnightblue" d="M1637.26,-201.475C1654.16,-191.711 1682.08,-175.581 1701.99,-164.081"/>
<polygon fill="midnightblue" stroke="midnightblue" points="1703.86,-167.042 1710.77,-159.009 1700.36,-160.981 1703.86,-167.042"/>
</g>
<!-- Node54 -->
<g id="node55" class="node"><title>Node54</title>
<polygon fill="white" stroke="#bfbfbf" points="1761.5,-140 1761.5,-159 1791.5,-159 1791.5,-140 1761.5,-140"/>
<text text-anchor="middle" x="1776.5" y="-147" font-family="FreeSans" font-size="10.00">set</text>
</g>
<!-- Node52&#45;&gt;Node54 -->
<g id="edge78" class="edge"><title>Node52&#45;&gt;Node54</title>
<path fill="none" stroke="midnightblue" d="M1652.07,-201.444C1678.63,-193.349 1718.41,-180.198 1751.5,-165 1752.2,-164.678 1752.91,-164.342 1753.62,-163.996"/>
<polygon fill="midnightblue" stroke="midnightblue" points="1755.57,-166.919 1762.73,-159.11 1752.27,-160.749 1755.57,-166.919"/>
</g>
<!-- Node55 -->
<g id="node56" class="node"><title>Node55</title>
<polygon fill="white" stroke="#bfbfbf" points="1810,-140 1810,-159 1839,-159 1839,-140 1810,-140"/>
<text text-anchor="middle" x="1824.5" y="-147" font-family="FreeSans" font-size="10.00">list</text>
</g>
<!-- Node52&#45;&gt;Node55 -->
<g id="edge79" class="edge"><title>Node52&#45;&gt;Node55</title>
<path fill="none" stroke="midnightblue" d="M1655.26,-204.726C1691.69,-198.179 1751.82,-185.327 1800.5,-165 1801.21,-164.705 1801.92,-164.391 1802.63,-164.062"/>
<polygon fill="midnightblue" stroke="midnightblue" points="1804.51,-167.023 1811.67,-159.207 1801.2,-160.857 1804.51,-167.023"/>
</g>
<!-- Node56 -->
<g id="node57" class="node"><title>Node56</title>
<polygon fill="white" stroke="#bfbfbf" points="1857,-140 1857,-159 1900,-159 1900,-140 1857,-140"/>
<text text-anchor="middle" x="1878.5" y="-147" font-family="FreeSans" font-size="10.00">queue</text>
</g>
<!-- Node52&#45;&gt;Node56 -->
<g id="edge82" class="edge"><title>Node52&#45;&gt;Node56</title>
<path fill="none" stroke="midnightblue" d="M1655.17,-205.975C1699.52,-199.948 1780.89,-186.885 1847.5,-165 1849.17,-164.452 1850.87,-163.837 1852.56,-163.178"/>
<polygon fill="midnightblue" stroke="midnightblue" points="1854.27,-166.253 1862.07,-159.08 1851.5,-159.825 1854.27,-166.253"/>
</g>
<!-- Node57 -->
<g id="node58" class="node"><title>Node57</title>
<polygon fill="white" stroke="#bfbfbf" points="1918,-140 1918,-159 1957,-159 1957,-140 1918,-140"/>
<text text-anchor="middle" x="1937.5" y="-147" font-family="FreeSans" font-size="10.00">utility</text>
</g>
<!-- Node52&#45;&gt;Node57 -->
<g id="edge83" class="edge"><title>Node52&#45;&gt;Node57</title>
<path fill="none" stroke="midnightblue" d="M1655.42,-208.11C1709.42,-204.287 1819.7,-193.431 1908.5,-165 1910.12,-164.481 1911.77,-163.882 1913.4,-163.229"/>
<polygon fill="midnightblue" stroke="midnightblue" points="1914.86,-166.41 1922.52,-159.086 1911.97,-160.037 1914.86,-166.41"/>
</g>
<!-- Node58 -->
<g id="node59" class="node"><title>Node58</title>
<g id="a_node59"><a xlink:href="RoI_8h.html" target="_top" xlink:title="RoI.h">
<polygon fill="white" stroke="black" points="1474,-73 1474,-92 1513,-92 1513,-73 1474,-73"/>
<text text-anchor="middle" x="1493.5" y="-80" font-family="FreeSans" font-size="10.00">RoI.h</text>
</a>
</g>
</g>
<!-- Node52&#45;&gt;Node58 -->
<g id="edge86" class="edge"><title>Node52&#45;&gt;Node58</title>
<path fill="none" stroke="midnightblue" d="M1589.85,-204.915C1565.07,-199.341 1532.04,-187.929 1512.5,-165 1497.59,-147.501 1493.85,-120.493 1493.17,-102.419"/>
<polygon fill="midnightblue" stroke="midnightblue" points="1496.67,-102.22 1493.08,-92.2535 1489.67,-102.286 1496.67,-102.22"/>
</g>
<!-- Node59 -->
<g id="node60" class="node"><title>Node59</title>
<g id="a_node60"><a xlink:href="FeatureConcept_8h.html" target="_top" xlink:title="FeatureConcept.h">
<polygon fill="white" stroke="black" points="1196,-140 1196,-159 1289,-159 1289,-140 1196,-140"/>
<text text-anchor="middle" x="1242.5" y="-147" font-family="FreeSans" font-size="10.00">FeatureConcept.h</text>
</a>
</g>
</g>
<!-- Node52&#45;&gt;Node59 -->
<g id="edge89" class="edge"><title>Node52&#45;&gt;Node59</title>
<path fill="none" stroke="midnightblue" d="M1589.73,-206.4C1531.74,-199.801 1407.37,-184.627 1303.5,-165 1297.74,-163.912 1291.71,-162.641 1285.78,-161.312"/>
<polygon fill="midnightblue" stroke="midnightblue" points="1286.47,-157.88 1275.94,-159.042 1284.9,-164.701 1286.47,-157.88"/>
</g>
<!-- Node61 -->
<g id="node62" class="node"><title>Node61</title>
<g id="a_node62"><a xlink:href="TaggedData_8h.html" target="_top" xlink:title="../DataStructures/Tagged\lData.h">
<polygon fill="white" stroke="black" points="1053,-134.5 1053,-164.5 1178,-164.5 1178,-134.5 1053,-134.5"/>
<text text-anchor="start" x="1061" y="-152.5" font-family="FreeSans" font-size="10.00">../DataStructures/Tagged</text>
<text text-anchor="middle" x="1115.5" y="-141.5" font-family="FreeSans" font-size="10.00">Data.h</text>
</a>
</g>
</g>
<!-- Node52&#45;&gt;Node61 -->
<g id="edge92" class="edge"><title>Node52&#45;&gt;Node61</title>
<path fill="none" stroke="midnightblue" d="M1589.82,-207.734C1518.63,-202.562 1344.09,-188.598 1188.39,-165.2"/>
<polygon fill="midnightblue" stroke="midnightblue" points="1188.57,-161.689 1178.16,-163.646 1187.52,-168.609 1188.57,-161.689"/>
</g>
<!-- Node63 -->
<g id="node64" class="node"><title>Node63</title>
<polygon fill="white" stroke="#bfbfbf" points="1521.5,-140 1521.5,-159 1575.5,-159 1575.5,-140 1521.5,-140"/>
<text text-anchor="middle" x="1548.5" y="-147" font-family="FreeSans" font-size="10.00">iostream</text>
</g>
<!-- Node52&#45;&gt;Node63 -->
<g id="edge96" class="edge"><title>Node52&#45;&gt;Node63</title>
<path fill="none" stroke="midnightblue" d="M1611.9,-201.475C1600.25,-192.108 1581.31,-176.884 1567.17,-165.508"/>
<polygon fill="midnightblue" stroke="midnightblue" points="1569.07,-162.548 1559.08,-159.009 1564.68,-168.003 1569.07,-162.548"/>
</g>
<!-- Node58&#45;&gt;Node6 -->
<g id="edge87" class="edge"><title>Node58&#45;&gt;Node6</title>
<path fill="none" stroke="midnightblue" d="M1473.97,-80.3434C1387.13,-75.112 1035.66,-52.9651 927.5,-31 923.541,-30.196 919.441,-29.1652 915.4,-28.0245"/>
<polygon fill="midnightblue" stroke="midnightblue" points="916.179,-24.6029 905.593,-25.0292 914.135,-31.2976 916.179,-24.6029"/>
</g>
<!-- Node58&#45;&gt;Node9 -->
<g id="edge88" class="edge"><title>Node58&#45;&gt;Node9</title>
<path fill="none" stroke="midnightblue" d="M1509.68,-72.7338C1529.93,-61.7695 1564.8,-42.8809 1588.49,-30.0495"/>
<polygon fill="midnightblue" stroke="midnightblue" points="1590.45,-32.9677 1597.57,-25.1273 1587.11,-26.8127 1590.45,-32.9677"/>
</g>
<!-- Node60 -->
<g id="node61" class="node"><title>Node60</title>
<g id="a_node61"><a xlink:href="FeatureConcept_8ipp.html" target="_top" xlink:title="FeatureConcept.ipp">
<polygon fill="white" stroke="black" points="901,-73 901,-92 1002,-92 1002,-73 901,-73"/>
<text text-anchor="middle" x="951.5" y="-80" font-family="FreeSans" font-size="10.00">FeatureConcept.ipp</text>
</a>
</g>
</g>
<!-- Node59&#45;&gt;Node60 -->
<g id="edge90" class="edge"><title>Node59&#45;&gt;Node60</title>
<path fill="none" stroke="midnightblue" d="M1210.57,-139.988C1202.72,-137.962 1194.32,-135.851 1186.5,-134 1123.89,-119.174 1051.45,-103.888 1003.74,-94.0742"/>
<polygon fill="midnightblue" stroke="midnightblue" points="1004.14,-90.5853 993.645,-92.0047 1002.74,-97.4425 1004.14,-90.5853"/>
</g>
<!-- Node60&#45;&gt;Node3 -->
<g id="edge91" class="edge"><title>Node60&#45;&gt;Node3</title>
<path fill="none" stroke="midnightblue" d="M918.692,-72.9355C874.091,-61.2928 794.262,-40.4539 745.087,-27.617"/>
<polygon fill="midnightblue" stroke="midnightblue" points="745.941,-24.2228 735.381,-25.0834 744.173,-30.9958 745.941,-24.2228"/>
</g>
<!-- Node62 -->
<g id="node63" class="node"><title>Node62</title>
<g id="a_node63"><a xlink:href="TaggedData_8ipp.html" target="_top" xlink:title="TaggedData.ipp">
<polygon fill="white" stroke="black" points="798.5,-73 798.5,-92 882.5,-92 882.5,-73 798.5,-73"/>
<text text-anchor="middle" x="840.5" y="-80" font-family="FreeSans" font-size="10.00">TaggedData.ipp</text>
</a>
</g>
</g>
<!-- Node61&#45;&gt;Node62 -->
<g id="edge93" class="edge"><title>Node61&#45;&gt;Node62</title>
<path fill="none" stroke="midnightblue" d="M1053,-135.378C1007.95,-125.684 945.778,-111.823 891.5,-98 887.597,-97.0061 883.539,-95.9284 879.492,-94.8246"/>
<polygon fill="midnightblue" stroke="midnightblue" points="880.125,-91.3677 869.552,-92.0599 878.249,-98.1117 880.125,-91.3677"/>
</g>
<!-- Node62&#45;&gt;Node3 -->
<g id="edge94" class="edge"><title>Node62&#45;&gt;Node3</title>
<path fill="none" stroke="midnightblue" d="M822.175,-72.8685C798.564,-61.7476 757.311,-42.3167 729.948,-29.4286"/>
<polygon fill="midnightblue" stroke="midnightblue" points="731.439,-26.262 720.901,-25.1672 728.456,-32.5947 731.439,-26.262"/>
</g>
<!-- Node64&#45;&gt;Node14 -->
<g id="edge105" class="edge"><title>Node64&#45;&gt;Node14</title>
<path fill="none" stroke="midnightblue" d="M829.474,-374.975C819.743,-365.785 804.042,-350.956 792.077,-339.656"/>
<polygon fill="midnightblue" stroke="midnightblue" points="794.183,-336.831 784.51,-332.509 789.377,-341.92 794.183,-336.831"/>
</g>
<!-- Node65 -->
<g id="node66" class="node"><title>Node65</title>
<g id="a_node66"><a xlink:href="BinarySceneFeatureDistance_8ipp.html" target="_top" xlink:title="BinarySceneFeatureDistance.ipp">
<polygon fill="white" stroke="black" points="829.5,-313.5 829.5,-332.5 987.5,-332.5 987.5,-313.5 829.5,-313.5"/>
<text text-anchor="middle" x="908.5" y="-320.5" font-family="FreeSans" font-size="10.00">BinarySceneFeatureDistance.ipp</text>
</a>
</g>
</g>
<!-- Node64&#45;&gt;Node65 -->
<g id="edge99" class="edge"><title>Node64&#45;&gt;Node65</title>
<path fill="none" stroke="midnightblue" d="M848.529,-374.975C859.549,-365.608 877.46,-350.384 890.843,-339.008"/>
<polygon fill="midnightblue" stroke="midnightblue" points="893.137,-341.652 898.489,-332.509 888.603,-336.319 893.137,-341.652"/>
</g>
<!-- Node65&#45;&gt;Node3 -->
<g id="edge100" class="edge"><title>Node65&#45;&gt;Node3</title>
<path fill="none" stroke="midnightblue" d="M860.407,-313.401C808.297,-300.991 732.5,-272.535 732.5,-212 732.5,-212 732.5,-212 732.5,-148.5 732.5,-107.147 718.327,-60.279 709.464,-35.0143"/>
<polygon fill="midnightblue" stroke="midnightblue" points="712.642,-33.512 705.941,-25.3053 706.062,-35.8995 712.642,-33.512"/>
</g>
<!-- Node65&#45;&gt;Node18 -->
<g id="edge103" class="edge"><title>Node65&#45;&gt;Node18</title>
<path fill="none" stroke="midnightblue" d="M896.003,-313.302C885.626,-305.251 871.613,-292.245 865.5,-277 841.847,-218.01 825.699,-183.55 865.5,-134 911.96,-76.1587 982.04,-155.841 1028.5,-98 1037.13,-87.2584 1037.29,-77.6063 1028.5,-67 973.364,-0.500899 919.716,-57.5086 837.5,-31 835.828,-30.461 834.129,-29.8531 832.432,-29.1994"/>
<polygon fill="midnightblue" stroke="midnightblue" points="833.491,-25.8454 822.921,-25.1159 830.729,-32.2775 833.491,-25.8454"/>
</g>
<!-- Node65&#45;&gt;Node28 -->
<g id="edge102" class="edge"><title>Node65&#45;&gt;Node28</title>
<path fill="none" stroke="midnightblue" d="M987.932,-314.449C1242.8,-289.989 2038.18,-211.816 2292.5,-165 2464.88,-133.268 2501.17,-93.0758 2674.5,-67 3007.58,-16.8905 3104.05,-109.914 3431.5,-31 3433.72,-30.4659 3435.97,-29.7787 3438.2,-28.9945"/>
<polygon fill="midnightblue" stroke="midnightblue" points="3439.73,-32.1494 3447.64,-25.1093 3437.06,-25.6754 3439.73,-32.1494"/>
</g>
<!-- Node65&#45;&gt;Node51 -->
<g id="edge104" class="edge"><title>Node65&#45;&gt;Node51</title>
<path fill="none" stroke="midnightblue" d="M934.803,-313.444C962.851,-304.32 1007.44,-289.813 1038.68,-279.651"/>
<polygon fill="midnightblue" stroke="midnightblue" points="1039.89,-282.938 1048.32,-276.516 1037.73,-276.282 1039.89,-282.938"/>
</g>
<!-- Node66 -->
<g id="node67" class="node"><title>Node66</title>
<polygon fill="white" stroke="#bfbfbf" points="874.5,-257.5 874.5,-276.5 1002.5,-276.5 1002.5,-257.5 874.5,-257.5"/>
<text text-anchor="middle" x="938.5" y="-264.5" font-family="FreeSans" font-size="10.00">boost/range/algorithm.hpp</text>
</g>
<!-- Node65&#45;&gt;Node66 -->
<g id="edge101" class="edge"><title>Node65&#45;&gt;Node66</title>
<path fill="none" stroke="midnightblue" d="M913.454,-313.083C917.604,-305.613 923.653,-294.724 928.767,-285.52"/>
<polygon fill="midnightblue" stroke="midnightblue" points="931.841,-287.192 933.638,-276.751 925.722,-283.793 931.841,-287.192"/>
</g>
<!-- Node68 -->
<g id="node69" class="node"><title>Node68</title>
<g id="a_node69"><a xlink:href="NumericFunctor_8ipp.html" target="_top" xlink:title="NumericFunctor.ipp">
<polygon fill="white" stroke="black" points="19,-257.5 19,-276.5 120,-276.5 120,-257.5 19,-257.5"/>
<text text-anchor="middle" x="69.5" y="-264.5" font-family="FreeSans" font-size="10.00">NumericFunctor.ipp</text>
</a>
</g>
</g>
<!-- Node67&#45;&gt;Node68 -->
<g id="edge107" class="edge"><title>Node67&#45;&gt;Node68</title>
<path fill="none" stroke="midnightblue" d="M70.3349,-313.083C70.2038,-306.006 70.0159,-295.861 69.8516,-286.986"/>
<polygon fill="midnightblue" stroke="midnightblue" points="73.3467,-286.685 69.6621,-276.751 66.3479,-286.814 73.3467,-286.685"/>
</g>
<!-- Node68&#45;&gt;Node8 -->
<g id="edge108" class="edge"><title>Node68&#45;&gt;Node8</title>
<path fill="none" stroke="midnightblue" d="M67.9299,-257.328C63.1183,-228.199 51.018,-132.051 87.5,-67 96.4687,-51.0079 112.832,-38.614 127.26,-30.1071"/>
<polygon fill="midnightblue" stroke="midnightblue" points="129.302,-32.9775 136.364,-25.0793 125.918,-26.8498 129.302,-32.9775"/>
</g>
<!-- Node70 -->
<g id="node71" class="node"><title>Node70</title>
<g id="a_node71"><a xlink:href="BoostStatisticalDistributions_8ipp.html" target="_top" xlink:title="BoostStatisticalDistributions.ipp">
<polygon fill="white" stroke="black" points="3151,-257.5 3151,-276.5 3306,-276.5 3306,-257.5 3151,-257.5"/>
<text text-anchor="middle" x="3228.5" y="-264.5" font-family="FreeSans" font-size="10.00">BoostStatisticalDistributions.ipp</text>
</a>
</g>
</g>
<!-- Node69&#45;&gt;Node70 -->
<g id="edge111" class="edge"><title>Node69&#45;&gt;Node70</title>
<path fill="none" stroke="midnightblue" d="M2781.8,-436.267C2781.73,-418.089 2784.5,-386.855 2802.5,-369 2849.79,-322.083 3032.02,-292.065 3142.25,-277.799"/>
<polygon fill="midnightblue" stroke="midnightblue" points="3142.88,-281.247 3152.36,-276.509 3141.99,-274.303 3142.88,-281.247"/>
</g>
<!-- Node71 -->
<g id="node72" class="node"><title>Node71</title>
<polygon fill="white" stroke="#bfbfbf" points="2811,-369.5 2811,-399.5 2932,-399.5 2932,-369.5 2811,-369.5"/>
<text text-anchor="start" x="2819" y="-387.5" font-family="FreeSans" font-size="10.00">boost/math/distributions</text>
<text text-anchor="middle" x="2871.5" y="-376.5" font-family="FreeSans" font-size="10.00">/cauchy.hpp</text>
</g>
<!-- Node69&#45;&gt;Node71 -->
<g id="edge113" class="edge"><title>Node69&#45;&gt;Node71</title>
<path fill="none" stroke="midnightblue" d="M2801.81,-436.396C2814.17,-427.367 2830.4,-415.514 2844.09,-405.518"/>
<polygon fill="midnightblue" stroke="midnightblue" points="2846.21,-408.301 2852.23,-399.577 2842.09,-402.648 2846.21,-408.301"/>
</g>
<!-- Node70&#45;&gt;Node34 -->
<g id="edge112" class="edge"><title>Node70&#45;&gt;Node34</title>
<path fill="none" stroke="midnightblue" d="M3239,-257.412C3283.63,-220.898 3457.97,-78.2879 3515.19,-31.4767"/>
<polygon fill="midnightblue" stroke="midnightblue" points="3517.52,-34.093 3523.05,-25.0522 3513.09,-28.6749 3517.52,-34.093"/>
</g>
</g>
</svg>
        <g id="navigator" transform="translate(0 0)" fill="#404254">
                <rect fill="#f2f5e9" fill-opacity="0.5" stroke="#606060" stroke-width=".5" x="0" y="0" width="60" height="60"/>
                <use id="zoomplus" xlink:href="#zoomPlus" x="17" y="9" onmousedown="handleZoom(evt,'in')"/>
                <use id="zoomminus" xlink:href="#zoomMin" x="42" y="9" onmousedown="handleZoom(evt,'out')"/>
                <use id="reset" xlink:href="#resetDef" x="30" y="36" onmousedown="handleReset()"/>
                <g id="arrowUp" xlink:href="#dirArrow" transform="translate(30 24)" onmousedown="handlePan(0,-1)">
                  <use xlink:href="#rim" fill="#404040">
                        <set attributeName="fill" to="#808080" begin="arrowUp.mouseover" end="arrowUp.mouseout"/>
                  </use>
                  <path fill="none" stroke="white" stroke-width="1.5" d="M0,-3.0v7 M-2.5,-0.5L0,-3.0L2.5,-0.5"/>
                </g>
                <g id="arrowRight" xlink:href="#dirArrow" transform="rotate(90) translate(36 -43)" onmousedown="handlePan(1,0)">
                  <use xlink:href="#rim" fill="#404040">
                        <set attributeName="fill" to="#808080" begin="arrowRight.mouseover" end="arrowRight.mouseout"/>
                  </use>
                  <path fill="none" stroke="white" stroke-width="1.5" d="M0,-3.0v7 M-2.5,-0.5L0,-3.0L2.5,-0.5"/>
                </g>
                <g id="arrowDown" xlink:href="#dirArrow" transform="rotate(180) translate(-30 -48)" onmousedown="handlePan(0,1)">
                  <use xlink:href="#rim" fill="#404040">
                        <set attributeName="fill" to="#808080" begin="arrowDown.mouseover" end="arrowDown.mouseout"/>
                  </use>
                  <path fill="none" stroke="white" stroke-width="1.5" d="M0,-3.0v7 M-2.5,-0.5L0,-3.0L2.5,-0.5"/>
                </g>
                <g id="arrowLeft" xlink:href="#dirArrow" transform="rotate(270) translate(-36 17)" onmousedown="handlePan(-1,0)">
                  <use xlink:href="#rim" fill="#404040">
                        <set attributeName="fill" to="#808080" begin="arrowLeft.mouseover" end="arrowLeft.mouseout"/>
                  </use>
                  <path fill="none" stroke="white" stroke-width="1.5" d="M0,-3.0v7 M-2.5,-0.5L0,-3.0L2.5,-0.5"/>
                </g>
        </g>
        <svg viewBox="0 0 15 15" width="100%" height="30px" preserveAspectRatio="xMaxYMin meet">
         <g id="arrow_out" transform="scale(0.3 0.3)">
          <a xlink:href="ClosestPointAssignmentProblem_8cpp__incl_org.svg" target="_base">
           <rect id="button" ry="5" rx="5" y="6" x="6" height="38" width="38"
                fill="#f2f5e9" fill-opacity="0.5" stroke="#606060" stroke-width="1.0"/>
           <path id="arrow"
             d="M 11.500037,31.436501 C 11.940474,20.09759 22.043105,11.32322 32.158766,21.979434 L 37.068811,17.246167 C 37.068811,17.246167 37.088388,32 37.088388,32 L 22.160133,31.978069 C 22.160133,31.978069 26.997745,27.140456 26.997745,27.140456 C 18.528582,18.264221 13.291696,25.230495 11.500037,31.436501 z"
             style="fill:#404040;"/>
          </a>
         </g>
        </svg>
</svg>
