<?xml version="1.0" encoding="UTF-8" standalone="no"?>
<!DOCTYPE svg PUBLIC "-//W3C//DTD SVG 1.1//EN"
 "http://www.w3.org/Graphics/SVG/1.1/DTD/svg11.dtd">
<!-- Generated by graphviz version 2.38.0 (20140413.2041)
 -->
<!-- Title: src/Metrics/Constraint.cpp Pages: 1 -->
<!--zoomable 442 -->
<svg id="main" version="1.1" xmlns="http://www.w3.org/2000/svg" xmlns:xlink="http://www.w3.org/1999/xlink" xml:space="preserve" onload="init(evt)">
<style type="text/css"><![CDATA[
.edge:hover path { stroke: red; }
.edge:hover polygon { stroke: red; fill: red; }
]]></style>
<script type="text/javascript"><![CDATA[
var edges = document.getElementsByTagName('g');
if (edges && edges.length) {
  for (var i=0;i<edges.length;i++) {
    if (edges[i].id.substr(0,4)=='edge') {
      edges[i].setAttribute('class','edge');
    }
  }
}
]]></script>
        <defs>
                <circle id="rim" cx="0" cy="0" r="7"/>
                <circle id="rim2" cx="0" cy="0" r="3.5"/>
                <g id="zoomPlus">
                        <use xlink:href="#rim" fill="#404040">
                                <set attributeName="fill" to="#808080" begin="zoomplus.mouseover" end="zoomplus.mouseout"/>
                        </use>
                        <path d="M-4,0h8M0,-4v8" fill="none" stroke="white" stroke-width="1.5" pointer-events="none"/>
                </g>
                <g id="zoomMin">
                        <use xlink:href="#rim" fill="#404040">
                                <set attributeName="fill" to="#808080" begin="zoomminus.mouseover" end="zoomminus.mouseout"/>
                        </use>
                        <path d="M-4,0h8" fill="none" stroke="white" stroke-width="1.5" pointer-events="none"/>
                </g>
                <g id="dirArrow">
                        <path fill="none" stroke="white" stroke-width="1.5" d="M0,-3.0v7 M-2.5,-0.5L0,-3.0L2.5,-0.5"/>
                </g>
               <g id="resetDef">
                       <use xlink:href="#rim2" fill="#404040">
                               <set attributeName="fill" to="#808080" begin="reset.mouseover" end="reset.mouseout"/>
                       </use>
               </g>
        </defs>

<script type="text/javascript">
var viewWidth = 3207;
var viewHeight = 442;
var sectionId = 'dynsection-0';
</script>
<script xlink:href="svgpan.js"/>
<svg id="graph" class="graph">
<g id="viewport">
<title>src/Metrics/Constraint.cpp</title>
<polygon fill="white" stroke="none" points="-4,4 -4,-438 3203,-438 3203,4 -4,4"/>
<!-- Node0 -->
<g id="node1" class="node"><title>Node0</title>
<polygon fill="#bfbfbf" stroke="black" points="839.5,-414.5 839.5,-433.5 970.5,-433.5 970.5,-414.5 839.5,-414.5"/>
<text text-anchor="middle" x="905" y="-421.5" font-family="FreeSans" font-size="10.00">src/Metrics/Constraint.cpp</text>
</g>
<!-- Node1 -->
<g id="node2" class="node"><title>Node1</title>
<g id="a_node2"><a xlink:href="Constraint_8h.html" target="_top" xlink:title="Constraint.h">
<polygon fill="white" stroke="black" points="871,-358.5 871,-377.5 939,-377.5 939,-358.5 871,-358.5"/>
<text text-anchor="middle" x="905" y="-365.5" font-family="FreeSans" font-size="10.00">Constraint.h</text>
</a>
</g>
</g>
<!-- Node0&#45;&gt;Node1 -->
<g id="edge1" class="edge"><title>Node0&#45;&gt;Node1</title>
<path fill="none" stroke="midnightblue" d="M905,-414.083C905,-407.006 905,-396.861 905,-387.986"/>
<polygon fill="midnightblue" stroke="midnightblue" points="908.5,-387.751 905,-377.751 901.5,-387.751 908.5,-387.751"/>
</g>
<!-- Node2 -->
<g id="node3" class="node"><title>Node2</title>
<g id="a_node3"><a xlink:href="Constraint_8ipp.html" target="_top" xlink:title="Constraint.ipp">
<polygon fill="white" stroke="black" points="536,-302.5 536,-321.5 612,-321.5 612,-302.5 536,-302.5"/>
<text text-anchor="middle" x="574" y="-309.5" font-family="FreeSans" font-size="10.00">Constraint.ipp</text>
</a>
</g>
</g>
<!-- Node1&#45;&gt;Node2 -->
<g id="edge2" class="edge"><title>Node1&#45;&gt;Node2</title>
<path fill="none" stroke="midnightblue" d="M870.824,-361.424C811.593,-351.761 689.73,-331.88 622.022,-320.834"/>
<polygon fill="midnightblue" stroke="midnightblue" points="622.471,-317.361 612.038,-319.206 621.344,-324.27 622.471,-317.361"/>
</g>
<!-- Node22 -->
<g id="node23" class="node"><title>Node22</title>
<polygon fill="white" stroke="#bfbfbf" points="1153,-62 1153,-81 1197,-81 1197,-62 1153,-62"/>
<text text-anchor="middle" x="1175" y="-69" font-family="FreeSans" font-size="10.00">vector</text>
</g>
<!-- Node1&#45;&gt;Node22 -->
<g id="edge61" class="edge"><title>Node1&#45;&gt;Node22</title>
<path fill="none" stroke="midnightblue" d="M939.032,-362.604C1021.07,-351.058 1223,-316.586 1223,-257 1223,-257 1223,-257 1223,-199 1223,-157.71 1200.37,-113.48 1186.19,-89.816"/>
<polygon fill="midnightblue" stroke="midnightblue" points="1189.13,-87.9222 1180.89,-81.2673 1183.18,-91.6107 1189.13,-87.9222"/>
</g>
<!-- Node3 -->
<g id="node4" class="node"><title>Node3</title>
<polygon fill="white" stroke="#bfbfbf" points="0,-62 0,-81 128,-81 128,-62 0,-62"/>
<text text-anchor="middle" x="64" y="-69" font-family="FreeSans" font-size="10.00">boost/concept_check.hpp</text>
</g>
<!-- Node2&#45;&gt;Node3 -->
<g id="edge3" class="edge"><title>Node2&#45;&gt;Node3</title>
<path fill="none" stroke="midnightblue" d="M542.307,-302.491C513.563,-294.382 470.267,-281.181 434,-266 297.815,-208.994 144.139,-120.223 86.9952,-86.3084"/>
<polygon fill="midnightblue" stroke="midnightblue" points="88.7511,-83.2805 78.3687,-81.1693 85.1684,-89.2942 88.7511,-83.2805"/>
</g>
<!-- Node4 -->
<g id="node5" class="node"><title>Node4</title>
<polygon fill="white" stroke="#bfbfbf" points="146,-62 146,-81 274,-81 274,-62 146,-62"/>
<text text-anchor="middle" x="210" y="-69" font-family="FreeSans" font-size="10.00">boost/range/concepts.hpp</text>
</g>
<!-- Node2&#45;&gt;Node4 -->
<g id="edge4" class="edge"><title>Node2&#45;&gt;Node4</title>
<path fill="none" stroke="midnightblue" d="M548.956,-302.471C526.73,-294.439 493.731,-281.367 467,-266 369.81,-210.128 267.032,-122.914 227.178,-87.8545"/>
<polygon fill="midnightblue" stroke="midnightblue" points="229.462,-85.2015 219.654,-81.1949 224.823,-90.4434 229.462,-85.2015"/>
</g>
<!-- Node5 -->
<g id="node6" class="node"><title>Node5</title>
<polygon fill="white" stroke="#bfbfbf" points="292,-62 292,-81 442,-81 442,-62 292,-62"/>
<text text-anchor="middle" x="367" y="-69" font-family="FreeSans" font-size="10.00">boost/range/metafunctions.hpp</text>
</g>
<!-- Node2&#45;&gt;Node5 -->
<g id="edge5" class="edge"><title>Node2&#45;&gt;Node5</title>
<path fill="none" stroke="midnightblue" d="M550.977,-302.471C532.876,-294.927 507.825,-282.545 490,-266 432.909,-213.007 391.23,-127.969 374.759,-90.8381"/>
<polygon fill="midnightblue" stroke="midnightblue" points="377.82,-89.0994 370.628,-81.3197 371.399,-91.8865 377.82,-89.0994"/>
</g>
<!-- Node6 -->
<g id="node7" class="node"><title>Node6</title>
<polygon fill="white" stroke="#bfbfbf" points="460,-62 460,-81 588,-81 588,-62 460,-62"/>
<text text-anchor="middle" x="524" y="-69" font-family="FreeSans" font-size="10.00">boost/range/functions.hpp</text>
</g>
<!-- Node2&#45;&gt;Node6 -->
<g id="edge6" class="edge"><title>Node2&#45;&gt;Node6</title>
<path fill="none" stroke="midnightblue" d="M548.839,-302.378C532.581,-295.343 512.707,-283.645 503,-266 472.366,-210.315 490.558,-185.326 503,-123 505.266,-111.649 510.136,-99.6568 514.616,-90.2084"/>
<polygon fill="midnightblue" stroke="midnightblue" points="517.827,-91.6127 519.183,-81.1049 511.57,-88.474 517.827,-91.6127"/>
</g>
<!-- Node7 -->
<g id="node8" class="node"><title>Node7</title>
<polygon fill="white" stroke="#bfbfbf" points="839.5,-62 839.5,-81 910.5,-81 910.5,-62 839.5,-62"/>
<text text-anchor="middle" x="875" y="-69" font-family="FreeSans" font-size="10.00">Eigen/Dense</text>
</g>
<!-- Node2&#45;&gt;Node7 -->
<g id="edge7" class="edge"><title>Node2&#45;&gt;Node7</title>
<path fill="none" stroke="midnightblue" d="M564.021,-302.259C551.144,-289.862 531.465,-266.41 541,-246 577.055,-168.819 612.147,-161.771 688,-123 745.974,-93.3677 767.428,-104.993 830,-87 833.155,-86.0927 836.423,-85.1148 839.692,-84.1108"/>
<polygon fill="midnightblue" stroke="midnightblue" points="840.895,-87.4014 849.385,-81.0638 838.796,-80.7235 840.895,-87.4014"/>
</g>
<!-- Node8 -->
<g id="node9" class="node"><title>Node8</title>
<polygon fill="white" stroke="#bfbfbf" points="908,-0.5 908,-19.5 970,-19.5 970,-0.5 908,-0.5"/>
<text text-anchor="middle" x="939" y="-7.5" font-family="FreeSans" font-size="10.00">type_traits</text>
</g>
<!-- Node2&#45;&gt;Node8 -->
<g id="edge8" class="edge"><title>Node2&#45;&gt;Node8</title>
<path fill="none" stroke="midnightblue" d="M572.656,-302.313C567.386,-264.662 552.276,-114.83 635,-56 676.441,-26.5286 824.725,-15.9965 897.758,-12.5392"/>
<polygon fill="midnightblue" stroke="midnightblue" points="898.133,-16.026 907.965,-12.0791 897.818,-9.03305 898.133,-16.026"/>
</g>
<!-- Node9 -->
<g id="node10" class="node"><title>Node9</title>
<polygon fill="white" stroke="#bfbfbf" points="644.5,-62 644.5,-81 693.5,-81 693.5,-62 644.5,-62"/>
<text text-anchor="middle" x="669" y="-69" font-family="FreeSans" font-size="10.00">cstddef</text>
</g>
<!-- Node2&#45;&gt;Node9 -->
<g id="edge9" class="edge"><title>Node2&#45;&gt;Node9</title>
<path fill="none" stroke="midnightblue" d="M574.272,-302.13C575.485,-274.028 582.033,-185.156 617,-123 624.867,-109.016 637.796,-96.4347 648.794,-87.3278"/>
<polygon fill="midnightblue" stroke="midnightblue" points="651.033,-90.0195 656.712,-81.0752 646.695,-84.526 651.033,-90.0195"/>
</g>
<!-- Node10 -->
<g id="node11" class="node"><title>Node10</title>
<polygon fill="white" stroke="#bfbfbf" points="621.5,-246.5 621.5,-265.5 664.5,-265.5 664.5,-246.5 621.5,-246.5"/>
<text text-anchor="middle" x="643" y="-253.5" font-family="FreeSans" font-size="10.00">omp.h</text>
</g>
<!-- Node2&#45;&gt;Node10 -->
<g id="edge10" class="edge"><title>Node2&#45;&gt;Node10</title>
<path fill="none" stroke="midnightblue" d="M585.086,-302.324C595.486,-294.185 611.261,-281.839 623.722,-272.087"/>
<polygon fill="midnightblue" stroke="midnightblue" points="625.994,-274.753 631.712,-265.834 621.68,-269.241 625.994,-274.753"/>
</g>
<!-- Node11 -->
<g id="node12" class="node"><title>Node11</title>
<polygon fill="white" stroke="#bfbfbf" points="711.5,-62 711.5,-81 758.5,-81 758.5,-62 711.5,-62"/>
<text text-anchor="middle" x="735" y="-69" font-family="FreeSans" font-size="10.00">iterator</text>
</g>
<!-- Node2&#45;&gt;Node11 -->
<g id="edge11" class="edge"><title>Node2&#45;&gt;Node11</title>
<path fill="none" stroke="midnightblue" d="M612.408,-303.353C633.736,-297.032 658.763,-285.76 673,-266 710.356,-214.151 661.534,-181.166 688,-123 694.262,-109.237 705.779,-96.7665 715.844,-87.6612"/>
<polygon fill="midnightblue" stroke="midnightblue" points="718.161,-90.2848 723.477,-81.12 713.606,-84.9696 718.161,-90.2848"/>
</g>
<!-- Node12 -->
<g id="node13" class="node"><title>Node12</title>
<polygon fill="white" stroke="#bfbfbf" points="721,-246.5 721,-265.5 759,-265.5 759,-246.5 721,-246.5"/>
<text text-anchor="middle" x="740" y="-253.5" font-family="FreeSans" font-size="10.00">tuple</text>
</g>
<!-- Node2&#45;&gt;Node12 -->
<g id="edge12" class="edge"><title>Node2&#45;&gt;Node12</title>
<path fill="none" stroke="midnightblue" d="M600.303,-302.444C630.365,-292.664 679.434,-276.702 710.697,-266.532"/>
<polygon fill="midnightblue" stroke="midnightblue" points="712.136,-269.745 720.563,-263.323 709.97,-263.088 712.136,-269.745"/>
</g>
<!-- Node13 -->
<g id="node14" class="node"><title>Node13</title>
<g id="a_node14"><a xlink:href="Distance_8h.html" target="_top" xlink:title="Distance.h">
<polygon fill="white" stroke="black" points="823,-246.5 823,-265.5 885,-265.5 885,-246.5 823,-246.5"/>
<text text-anchor="middle" x="854" y="-253.5" font-family="FreeSans" font-size="10.00">Distance.h</text>
</a>
</g>
</g>
<!-- Node2&#45;&gt;Node13 -->
<g id="edge13" class="edge"><title>Node2&#45;&gt;Node13</title>
<path fill="none" stroke="midnightblue" d="M612.053,-303.661C664.59,-293.529 758.96,-275.329 813.007,-264.906"/>
<polygon fill="midnightblue" stroke="midnightblue" points="813.776,-268.322 822.933,-262.992 812.451,-261.449 813.776,-268.322"/>
</g>
<!-- Node14 -->
<g id="node15" class="node"><title>Node14</title>
<g id="a_node15"><a xlink:href="Distance_8ipp.html" target="_top" xlink:title="Distance.ipp">
<polygon fill="white" stroke="black" points="751,-190.5 751,-209.5 821,-209.5 821,-190.5 751,-190.5"/>
<text text-anchor="middle" x="786" y="-197.5" font-family="FreeSans" font-size="10.00">Distance.ipp</text>
</a>
</g>
</g>
<!-- Node13&#45;&gt;Node14 -->
<g id="edge14" class="edge"><title>Node13&#45;&gt;Node14</title>
<path fill="none" stroke="midnightblue" d="M843.075,-246.324C832.825,-238.185 817.279,-225.839 804.999,-216.087"/>
<polygon fill="midnightblue" stroke="midnightblue" points="807.132,-213.312 797.124,-209.834 802.779,-218.794 807.132,-213.312"/>
</g>
<!-- Node20 -->
<g id="node21" class="node"><title>Node20</title>
<g id="a_node21"><a xlink:href="Coordinate_8h.html" target="_top" xlink:title="../Elements/Coordinate.h">
<polygon fill="white" stroke="black" points="839,-190.5 839,-209.5 961,-209.5 961,-190.5 839,-190.5"/>
<text text-anchor="middle" x="900" y="-197.5" font-family="FreeSans" font-size="10.00">../Elements/Coordinate.h</text>
</a>
</g>
</g>
<!-- Node13&#45;&gt;Node20 -->
<g id="edge22" class="edge"><title>Node13&#45;&gt;Node20</title>
<path fill="none" stroke="midnightblue" d="M861.596,-246.083C868.227,-238.298 878.021,-226.801 886.058,-217.367"/>
<polygon fill="midnightblue" stroke="midnightblue" points="888.725,-219.633 892.545,-209.751 883.396,-215.094 888.725,-219.633"/>
</g>
<!-- Node26 -->
<g id="node27" class="node"><title>Node26</title>
<g id="a_node27"><a xlink:href="Descriptor_8h.html" target="_top" xlink:title="../Elements/Descriptor.h">
<polygon fill="white" stroke="black" points="1075.5,-190.5 1075.5,-209.5 1194.5,-209.5 1194.5,-190.5 1075.5,-190.5"/>
<text text-anchor="middle" x="1135" y="-197.5" font-family="FreeSans" font-size="10.00">../Elements/Descriptor.h</text>
</a>
</g>
</g>
<!-- Node13&#45;&gt;Node26 -->
<g id="edge37" class="edge"><title>Node13&#45;&gt;Node26</title>
<path fill="none" stroke="midnightblue" d="M885.146,-249.015C932.191,-239.974 1022.05,-222.707 1080.2,-211.531"/>
<polygon fill="midnightblue" stroke="midnightblue" points="1081.16,-214.911 1090.32,-209.587 1079.84,-208.037 1081.16,-214.911"/>
</g>
<!-- Node14&#45;&gt;Node9 -->
<g id="edge18" class="edge"><title>Node14&#45;&gt;Node9</title>
<path fill="none" stroke="midnightblue" d="M750.776,-191.176C729.584,-184.681 703.748,-173.288 688,-154 673.459,-136.19 669.635,-109.256 668.835,-91.2834"/>
<polygon fill="midnightblue" stroke="midnightblue" points="672.333,-91.121 668.661,-81.1829 665.334,-91.2417 672.333,-91.121"/>
</g>
<!-- Node15 -->
<g id="node16" class="node"><title>Node15</title>
<polygon fill="white" stroke="#bfbfbf" points="697.5,-129 697.5,-148 746.5,-148 746.5,-129 697.5,-129"/>
<text text-anchor="middle" x="722" y="-136" font-family="FreeSans" font-size="10.00">cassert</text>
</g>
<!-- Node14&#45;&gt;Node15 -->
<g id="edge15" class="edge"><title>Node14&#45;&gt;Node15</title>
<path fill="none" stroke="midnightblue" d="M776.83,-190.475C766.85,-181.197 750.688,-166.171 738.491,-154.831"/>
<polygon fill="midnightblue" stroke="midnightblue" points="740.86,-152.255 731.153,-148.009 736.093,-157.381 740.86,-152.255"/>
</g>
<!-- Node16 -->
<g id="node17" class="node"><title>Node16</title>
<polygon fill="white" stroke="#bfbfbf" points="765,-129 765,-148 805,-148 805,-129 765,-129"/>
<text text-anchor="middle" x="785" y="-136" font-family="FreeSans" font-size="10.00">limits</text>
</g>
<!-- Node14&#45;&gt;Node16 -->
<g id="edge16" class="edge"><title>Node14&#45;&gt;Node16</title>
<path fill="none" stroke="midnightblue" d="M785.857,-190.475C785.716,-182.08 785.495,-168.981 785.314,-158.163"/>
<polygon fill="midnightblue" stroke="midnightblue" points="788.811,-157.949 785.143,-148.009 781.812,-158.067 788.811,-157.949"/>
</g>
<!-- Node17 -->
<g id="node18" class="node"><title>Node17</title>
<polygon fill="white" stroke="#bfbfbf" points="777,-62 777,-81 821,-81 821,-62 777,-62"/>
<text text-anchor="middle" x="799" y="-69" font-family="FreeSans" font-size="10.00">cmath</text>
</g>
<!-- Node14&#45;&gt;Node17 -->
<g id="edge17" class="edge"><title>Node14&#45;&gt;Node17</title>
<path fill="none" stroke="midnightblue" d="M793.412,-190.411C800.276,-181.844 810.006,-167.979 814,-154 820.095,-132.666 813.403,-107.459 807.118,-90.7878"/>
<polygon fill="midnightblue" stroke="midnightblue" points="810.216,-89.1173 803.186,-81.1914 803.739,-91.7717 810.216,-89.1173"/>
</g>
<!-- Node18 -->
<g id="node19" class="node"><title>Node18</title>
<g id="a_node19"><a xlink:href="EigenMetafunction_8h.html" target="_top" xlink:title="../Wrappers/EigenMetafunction.h">
<polygon fill="white" stroke="black" points="957,-129 957,-148 1113,-148 1113,-129 957,-129"/>
<text text-anchor="middle" x="1035" y="-136" font-family="FreeSans" font-size="10.00">../Wrappers/EigenMetafunction.h</text>
</a>
</g>
</g>
<!-- Node14&#45;&gt;Node18 -->
<g id="edge19" class="edge"><title>Node14&#45;&gt;Node18</title>
<path fill="none" stroke="midnightblue" d="M821.148,-190.601C865.202,-180.074 940.804,-162.009 989.307,-150.419"/>
<polygon fill="midnightblue" stroke="midnightblue" points="990.312,-153.777 999.225,-148.049 988.685,-146.969 990.312,-153.777"/>
</g>
<!-- Node19 -->
<g id="node20" class="node"><title>Node19</title>
<g id="a_node20"><a xlink:href="EigenMetafunction_8ipp.html" target="_top" xlink:title="EigenMetafunction.ipp">
<polygon fill="white" stroke="black" points="1023,-62 1023,-81 1135,-81 1135,-62 1023,-62"/>
<text text-anchor="middle" x="1079" y="-69" font-family="FreeSans" font-size="10.00">EigenMetafunction.ipp</text>
</a>
</g>
</g>
<!-- Node18&#45;&gt;Node19 -->
<g id="edge20" class="edge"><title>Node18&#45;&gt;Node19</title>
<path fill="none" stroke="midnightblue" d="M1040.93,-128.734C1047.73,-118.695 1059.02,-102.014 1067.55,-89.4213"/>
<polygon fill="midnightblue" stroke="midnightblue" points="1070.45,-91.3704 1073.16,-81.1273 1064.66,-87.4464 1070.45,-91.3704"/>
</g>
<!-- Node19&#45;&gt;Node8 -->
<g id="edge21" class="edge"><title>Node19&#45;&gt;Node8</title>
<path fill="none" stroke="midnightblue" d="M1058.94,-61.9751C1035.24,-51.9013 995.594,-35.0525 968.417,-23.5023"/>
<polygon fill="midnightblue" stroke="midnightblue" points="969.594,-20.1994 959.021,-19.5091 966.856,-26.6417 969.594,-20.1994"/>
</g>
<!-- Node21 -->
<g id="node22" class="node"><title>Node21</title>
<g id="a_node22"><a xlink:href="Coordinate_8ipp.html" target="_top" xlink:title="Coordinate.ipp">
<polygon fill="white" stroke="black" points="861,-129 861,-148 939,-148 939,-129 861,-129"/>
<text text-anchor="middle" x="900" y="-136" font-family="FreeSans" font-size="10.00">Coordinate.ipp</text>
</a>
</g>
</g>
<!-- Node20&#45;&gt;Node21 -->
<g id="edge23" class="edge"><title>Node20&#45;&gt;Node21</title>
<path fill="none" stroke="midnightblue" d="M900,-190.475C900,-182.08 900,-168.981 900,-158.163"/>
<polygon fill="midnightblue" stroke="midnightblue" points="903.5,-158.009 900,-148.009 896.5,-158.009 903.5,-158.009"/>
</g>
<!-- Node21&#45;&gt;Node3 -->
<g id="edge24" class="edge"><title>Node21&#45;&gt;Node3</title>
<path fill="none" stroke="midnightblue" d="M860.744,-129.913C846.121,-127.343 829.351,-124.697 814,-123 514.51,-89.8984 435.978,-124.447 137,-87 128.797,-85.9725 120.134,-84.5528 111.753,-83.0012"/>
<polygon fill="midnightblue" stroke="midnightblue" points="112.204,-79.5236 101.721,-81.0606 110.874,-86.3962 112.204,-79.5236"/>
</g>
<!-- Node21&#45;&gt;Node4 -->
<g id="edge25" class="edge"><title>Node21&#45;&gt;Node4</title>
<path fill="none" stroke="midnightblue" d="M860.73,-130.035C846.106,-127.478 829.338,-124.808 814,-123 579.085,-95.3024 517.488,-118.106 283,-87 274.895,-85.9249 266.337,-84.4954 258.046,-82.9525"/>
<polygon fill="midnightblue" stroke="midnightblue" points="258.594,-79.4938 248.112,-81.0303 257.265,-86.3663 258.594,-79.4938"/>
</g>
<!-- Node21&#45;&gt;Node5 -->
<g id="edge26" class="edge"><title>Node21&#45;&gt;Node5</title>
<path fill="none" stroke="midnightblue" d="M860.697,-130.294C846.07,-127.765 829.308,-125.047 814,-123 653.306,-101.51 611.652,-108.803 451,-87 441.846,-85.7577 432.162,-84.2591 422.751,-82.7031"/>
<polygon fill="midnightblue" stroke="midnightblue" points="423.127,-79.217 412.683,-81.0015 421.96,-86.1192 423.127,-79.217"/>
</g>
<!-- Node21&#45;&gt;Node6 -->
<g id="edge27" class="edge"><title>Node21&#45;&gt;Node6</title>
<path fill="none" stroke="midnightblue" d="M860.825,-130.728C794.852,-119.323 661.195,-96.2172 583.551,-82.7947"/>
<polygon fill="midnightblue" stroke="midnightblue" points="583.893,-79.302 573.443,-81.0473 582.7,-86.1997 583.893,-79.302"/>
</g>
<!-- Node21&#45;&gt;Node7 -->
<g id="edge28" class="edge"><title>Node21&#45;&gt;Node7</title>
<path fill="none" stroke="midnightblue" d="M896.628,-128.734C892.88,-118.988 886.723,-102.981 881.935,-90.5318"/>
<polygon fill="midnightblue" stroke="midnightblue" points="885.175,-89.2043 878.318,-81.1273 878.641,-91.7172 885.175,-89.2043"/>
</g>
<!-- Node21&#45;&gt;Node8 -->
<g id="edge30" class="edge"><title>Node21&#45;&gt;Node8</title>
<path fill="none" stroke="midnightblue" d="M903.643,-128.657C907.69,-118.651 914.277,-101.815 919,-87 925.202,-67.5439 930.988,-44.8595 934.725,-29.3723"/>
<polygon fill="midnightblue" stroke="midnightblue" points="938.161,-30.0538 937.061,-19.5162 931.349,-28.4398 938.161,-30.0538"/>
</g>
<!-- Node21&#45;&gt;Node9 -->
<g id="edge31" class="edge"><title>Node21&#45;&gt;Node9</title>
<path fill="none" stroke="midnightblue" d="M860.746,-129.486C820.391,-120.785 755.999,-105.608 702,-87 700.136,-86.3578 698.232,-85.654 696.324,-84.9137"/>
<polygon fill="midnightblue" stroke="midnightblue" points="697.52,-81.6207 686.942,-81.0217 694.838,-88.0864 697.52,-81.6207"/>
</g>
<!-- Node21&#45;&gt;Node11 -->
<g id="edge36" class="edge"><title>Node21&#45;&gt;Node11</title>
<path fill="none" stroke="midnightblue" d="M876.497,-128.901C849.994,-119.114 805.677,-102.474 768,-87 766.589,-86.4205 765.148,-85.8199 763.694,-85.2075"/>
<polygon fill="midnightblue" stroke="midnightblue" points="764.697,-81.8287 754.128,-81.0924 761.931,-88.2591 764.697,-81.8287"/>
</g>
<!-- Node21&#45;&gt;Node17 -->
<g id="edge32" class="edge"><title>Node21&#45;&gt;Node17</title>
<path fill="none" stroke="midnightblue" d="M886.379,-128.734C869.569,-117.916 840.772,-99.3832 820.856,-86.5659"/>
<polygon fill="midnightblue" stroke="midnightblue" points="822.709,-83.5959 812.406,-81.1273 818.92,-89.4823 822.709,-83.5959"/>
</g>
<!-- Node21&#45;&gt;Node22 -->
<g id="edge29" class="edge"><title>Node21&#45;&gt;Node22</title>
<path fill="none" stroke="midnightblue" d="M926.263,-128.989C933.282,-126.873 940.893,-124.72 948,-123 1034.08,-102.162 1059.64,-113.983 1144,-87 1145.67,-86.4649 1147.37,-85.86 1149.07,-85.2086"/>
<polygon fill="midnightblue" stroke="midnightblue" points="1150.77,-88.2879 1158.58,-81.1308 1148.01,-81.8542 1150.77,-88.2879"/>
</g>
<!-- Node23 -->
<g id="node24" class="node"><title>Node23</title>
<polygon fill="white" stroke="#bfbfbf" points="967,-62 967,-81 1005,-81 1005,-62 967,-62"/>
<text text-anchor="middle" x="986" y="-69" font-family="FreeSans" font-size="10.00">array</text>
</g>
<!-- Node21&#45;&gt;Node23 -->
<g id="edge33" class="edge"><title>Node21&#45;&gt;Node23</title>
<path fill="none" stroke="midnightblue" d="M911.598,-128.734C925.654,-118.111 949.551,-100.049 966.466,-87.2642"/>
<polygon fill="midnightblue" stroke="midnightblue" points="968.718,-89.9492 974.585,-81.1273 964.497,-84.3648 968.718,-89.9492"/>
</g>
<!-- Node24 -->
<g id="node25" class="node"><title>Node24</title>
<polygon fill="white" stroke="#bfbfbf" points="1215,-62 1215,-81 1271,-81 1271,-62 1215,-62"/>
<text text-anchor="middle" x="1243" y="-69" font-family="FreeSans" font-size="10.00">algorithm</text>
</g>
<!-- Node21&#45;&gt;Node24 -->
<g id="edge34" class="edge"><title>Node21&#45;&gt;Node24</title>
<path fill="none" stroke="midnightblue" d="M925.715,-128.932C932.871,-126.767 940.687,-124.605 948,-123 1061.09,-98.1857 1094,-116.324 1206,-87 1208.66,-86.3032 1211.39,-85.4717 1214.1,-84.5643"/>
<polygon fill="midnightblue" stroke="midnightblue" points="1215.51,-87.7761 1223.7,-81.0511 1213.11,-81.2029 1215.51,-87.7761"/>
</g>
<!-- Node25 -->
<g id="node26" class="node"><title>Node25</title>
<polygon fill="white" stroke="#bfbfbf" points="1289.5,-62 1289.5,-81 1334.5,-81 1334.5,-62 1289.5,-62"/>
<text text-anchor="middle" x="1312" y="-69" font-family="FreeSans" font-size="10.00">climits</text>
</g>
<!-- Node21&#45;&gt;Node25 -->
<g id="edge35" class="edge"><title>Node21&#45;&gt;Node25</title>
<path fill="none" stroke="midnightblue" d="M925.185,-128.935C932.475,-126.718 940.493,-124.527 948,-123 1093.44,-93.4131 1136.83,-126.121 1280,-87 1282.15,-86.4122 1284.34,-85.6965 1286.51,-84.9015"/>
<polygon fill="midnightblue" stroke="midnightblue" points="1287.87,-88.1273 1295.76,-81.0586 1285.19,-81.663 1287.87,-88.1273"/>
</g>
<!-- Node26&#45;&gt;Node7 -->
<g id="edge59" class="edge"><title>Node26&#45;&gt;Node7</title>
<path fill="none" stroke="midnightblue" d="M1136.35,-190.342C1138.27,-174.633 1139.78,-141.368 1122,-123 1115,-115.766 990.39,-92.8306 920.904,-80.5103"/>
<polygon fill="midnightblue" stroke="midnightblue" points="921.118,-76.994 910.662,-78.7004 919.9,-83.8872 921.118,-76.994"/>
</g>
<!-- Node26&#45;&gt;Node22 -->
<g id="edge60" class="edge"><title>Node26&#45;&gt;Node22</title>
<path fill="none" stroke="midnightblue" d="M1139.46,-190.222C1143.87,-181.286 1150.57,-166.943 1155,-154 1162.2,-132.942 1167.93,-107.998 1171.38,-91.3021"/>
<polygon fill="midnightblue" stroke="midnightblue" points="1174.87,-91.702 1173.39,-81.2104 1168,-90.3318 1174.87,-91.702"/>
</g>
<!-- Node27 -->
<g id="node28" class="node"><title>Node27</title>
<g id="a_node28"><a xlink:href="boost__dynamic__bitset_8hpp.html" target="_top" xlink:title="../Modified/boost_dynamic\l_bitset.hpp">
<polygon fill="white" stroke="black" points="1775,-123.5 1775,-153.5 1903,-153.5 1903,-123.5 1775,-123.5"/>
<text text-anchor="start" x="1783" y="-141.5" font-family="FreeSans" font-size="10.00">../Modified/boost_dynamic</text>
<text text-anchor="middle" x="1839" y="-130.5" font-family="FreeSans" font-size="10.00">_bitset.hpp</text>
</a>
</g>
</g>
<!-- Node26&#45;&gt;Node27 -->
<g id="edge38" class="edge"><title>Node26&#45;&gt;Node27</title>
<path fill="none" stroke="midnightblue" d="M1194.72,-193.953C1322.9,-183.119 1624.13,-157.661 1764.53,-145.794"/>
<polygon fill="midnightblue" stroke="midnightblue" points="1765.09,-149.259 1774.76,-144.929 1764.5,-142.284 1765.09,-149.259"/>
</g>
<!-- Node27&#45;&gt;Node22 -->
<g id="edge43" class="edge"><title>Node27&#45;&gt;Node22</title>
<path fill="none" stroke="midnightblue" d="M1774.86,-135.285C1636.13,-130.024 1312.11,-115.065 1206,-87 1204.02,-86.4759 1202.01,-85.8297 1200.01,-85.1038"/>
<polygon fill="midnightblue" stroke="midnightblue" points="1200.93,-81.6925 1190.36,-81.0071 1198.2,-88.1361 1200.93,-81.6925"/>
</g>
<!-- Node27&#45;&gt;Node24 -->
<g id="edge42" class="edge"><title>Node27&#45;&gt;Node24</title>
<path fill="none" stroke="midnightblue" d="M1774.77,-137.563C1669.83,-136.365 1455.69,-128.469 1280,-87 1277.17,-86.3314 1274.26,-85.4893 1271.39,-84.5492"/>
<polygon fill="midnightblue" stroke="midnightblue" points="1272.47,-81.2172 1261.87,-81.0843 1270.07,-87.7947 1272.47,-81.2172"/>
</g>
<!-- Node27&#45;&gt;Node25 -->
<g id="edge44" class="edge"><title>Node27&#45;&gt;Node25</title>
<path fill="none" stroke="midnightblue" d="M1774.91,-137.519C1679.39,-136.088 1494.75,-127.677 1344,-87 1341.85,-86.419 1339.66,-85.7082 1337.48,-84.9166"/>
<polygon fill="midnightblue" stroke="midnightblue" points="1338.81,-81.6775 1328.23,-81.0797 1336.13,-88.1435 1338.81,-81.6775"/>
</g>
<!-- Node28 -->
<g id="node29" class="node"><title>Node28</title>
<polygon fill="white" stroke="#bfbfbf" points="1352.5,-62 1352.5,-81 1403.5,-81 1403.5,-62 1352.5,-62"/>
<text text-anchor="middle" x="1378" y="-69" font-family="FreeSans" font-size="10.00">assert.h</text>
</g>
<!-- Node27&#45;&gt;Node28 -->
<g id="edge39" class="edge"><title>Node27&#45;&gt;Node28</title>
<path fill="none" stroke="midnightblue" d="M1774.83,-135.369C1690.56,-131.334 1538.57,-119.782 1413,-87 1410.55,-86.3603 1408.05,-85.5851 1405.56,-84.7296"/>
<polygon fill="midnightblue" stroke="midnightblue" points="1406.79,-81.4542 1396.2,-81.1488 1404.29,-87.9918 1406.79,-81.4542"/>
</g>
<!-- Node29 -->
<g id="node30" class="node"><title>Node29</title>
<polygon fill="white" stroke="#bfbfbf" points="1421.5,-62 1421.5,-81 1462.5,-81 1462.5,-62 1421.5,-62"/>
<text text-anchor="middle" x="1442" y="-69" font-family="FreeSans" font-size="10.00">string</text>
</g>
<!-- Node27&#45;&gt;Node29 -->
<g id="edge40" class="edge"><title>Node27&#45;&gt;Node29</title>
<path fill="none" stroke="midnightblue" d="M1774.72,-134.741C1700.41,-130.167 1575.12,-118.165 1472,-87 1470.32,-86.4938 1468.63,-85.9047 1466.93,-85.2595"/>
<polygon fill="midnightblue" stroke="midnightblue" points="1468.07,-81.9365 1457.51,-81.1351 1465.27,-88.3497 1468.07,-81.9365"/>
</g>
<!-- Node30 -->
<g id="node31" class="node"><title>Node30</title>
<polygon fill="white" stroke="#bfbfbf" points="1480.5,-62 1480.5,-81 1539.5,-81 1539.5,-62 1480.5,-62"/>
<text text-anchor="middle" x="1510" y="-69" font-family="FreeSans" font-size="10.00">stdexcept</text>
</g>
<!-- Node27&#45;&gt;Node30 -->
<g id="edge41" class="edge"><title>Node27&#45;&gt;Node30</title>
<path fill="none" stroke="midnightblue" d="M1774.9,-129.779C1715.65,-121.834 1625.46,-107.684 1549,-87 1546.19,-86.2396 1543.3,-85.3591 1540.42,-84.4153"/>
<polygon fill="midnightblue" stroke="midnightblue" points="1541.41,-81.0561 1530.82,-81.0443 1539.09,-87.6605 1541.41,-81.0561"/>
</g>
<!-- Node31 -->
<g id="node32" class="node"><title>Node31</title>
<polygon fill="white" stroke="#bfbfbf" points="1557.5,-56.5 1557.5,-86.5 1666.5,-86.5 1666.5,-56.5 1557.5,-56.5"/>
<text text-anchor="start" x="1565.5" y="-74.5" font-family="FreeSans" font-size="10.00">boost/dynamic_bitset</text>
<text text-anchor="middle" x="1612" y="-63.5" font-family="FreeSans" font-size="10.00">/config.hpp</text>
</g>
<!-- Node27&#45;&gt;Node31 -->
<g id="edge45" class="edge"><title>Node27&#45;&gt;Node31</title>
<path fill="none" stroke="midnightblue" d="M1790.02,-123.476C1755.09,-113.472 1707.94,-99.9714 1670.94,-89.3769"/>
<polygon fill="midnightblue" stroke="midnightblue" points="1671.86,-85.999 1661.28,-86.6109 1669.93,-92.7286 1671.86,-85.999"/>
</g>
<!-- Node32 -->
<g id="node33" class="node"><title>Node32</title>
<polygon fill="white" stroke="#bfbfbf" points="1685,-62 1685,-81 1727,-81 1727,-62 1685,-62"/>
<text text-anchor="middle" x="1706" y="-69" font-family="FreeSans" font-size="10.00">locale</text>
</g>
<!-- Node27&#45;&gt;Node32 -->
<g id="edge46" class="edge"><title>Node27&#45;&gt;Node32</title>
<path fill="none" stroke="midnightblue" d="M1810.14,-123.396C1787.11,-112.142 1755.11,-96.501 1732.68,-85.5375"/>
<polygon fill="midnightblue" stroke="midnightblue" points="1733.93,-82.2534 1723.41,-81.007 1730.85,-88.5425 1733.93,-82.2534"/>
</g>
<!-- Node33 -->
<g id="node34" class="node"><title>Node33</title>
<polygon fill="white" stroke="#bfbfbf" points="1745.5,-62 1745.5,-81 1794.5,-81 1794.5,-62 1745.5,-62"/>
<text text-anchor="middle" x="1770" y="-69" font-family="FreeSans" font-size="10.00">istream</text>
</g>
<!-- Node27&#45;&gt;Node33 -->
<g id="edge47" class="edge"><title>Node27&#45;&gt;Node33</title>
<path fill="none" stroke="midnightblue" d="M1824.03,-123.396C1813.06,-113.06 1798.16,-99.0237 1786.78,-88.309"/>
<polygon fill="midnightblue" stroke="midnightblue" points="1788.91,-85.5039 1779.23,-81.1945 1784.11,-90.5991 1788.91,-85.5039"/>
</g>
<!-- Node34 -->
<g id="node35" class="node"><title>Node34</title>
<polygon fill="white" stroke="#bfbfbf" points="1813,-62 1813,-81 1865,-81 1865,-62 1813,-62"/>
<text text-anchor="middle" x="1839" y="-69" font-family="FreeSans" font-size="10.00">ostream</text>
</g>
<!-- Node27&#45;&gt;Node34 -->
<g id="edge48" class="edge"><title>Node27&#45;&gt;Node34</title>
<path fill="none" stroke="midnightblue" d="M1839,-123.396C1839,-114.064 1839,-101.714 1839,-91.5173"/>
<polygon fill="midnightblue" stroke="midnightblue" points="1842.5,-91.1945 1839,-81.1945 1835.5,-91.1946 1842.5,-91.1945"/>
</g>
<!-- Node35 -->
<g id="node36" class="node"><title>Node35</title>
<polygon fill="white" stroke="#bfbfbf" points="1883.5,-56.5 1883.5,-86.5 1992.5,-86.5 1992.5,-56.5 1883.5,-56.5"/>
<text text-anchor="start" x="1891.5" y="-74.5" font-family="FreeSans" font-size="10.00">boost/dynamic_bitset</text>
<text text-anchor="middle" x="1938" y="-63.5" font-family="FreeSans" font-size="10.00">_fwd.hpp</text>
</g>
<!-- Node27&#45;&gt;Node35 -->
<g id="edge49" class="edge"><title>Node27&#45;&gt;Node35</title>
<path fill="none" stroke="midnightblue" d="M1860.48,-123.396C1874.36,-114.282 1892.63,-102.29 1907.94,-92.236"/>
<polygon fill="midnightblue" stroke="midnightblue" points="1910.12,-94.9907 1916.56,-86.5765 1906.28,-89.1392 1910.12,-94.9907"/>
</g>
<!-- Node36 -->
<g id="node37" class="node"><title>Node36</title>
<polygon fill="white" stroke="#bfbfbf" points="2011,-56.5 2011,-86.5 2117,-86.5 2117,-56.5 2011,-56.5"/>
<text text-anchor="start" x="2019" y="-74.5" font-family="FreeSans" font-size="10.00">boost/detail/dynamic</text>
<text text-anchor="middle" x="2064" y="-63.5" font-family="FreeSans" font-size="10.00">_bitset.hpp</text>
</g>
<!-- Node27&#45;&gt;Node36 -->
<g id="edge50" class="edge"><title>Node27&#45;&gt;Node36</title>
<path fill="none" stroke="midnightblue" d="M1887.54,-123.476C1922.03,-113.515 1968.51,-100.086 2005.11,-89.5123"/>
<polygon fill="midnightblue" stroke="midnightblue" points="2006.52,-92.7489 2015.15,-86.6109 2004.58,-86.0239 2006.52,-92.7489"/>
</g>
<!-- Node37 -->
<g id="node38" class="node"><title>Node37</title>
<polygon fill="white" stroke="#bfbfbf" points="2135,-62 2135,-81 2253,-81 2253,-62 2135,-62"/>
<text text-anchor="middle" x="2194" y="-69" font-family="FreeSans" font-size="10.00">boost/detail/iterator.hpp</text>
</g>
<!-- Node27&#45;&gt;Node37 -->
<g id="edge51" class="edge"><title>Node27&#45;&gt;Node37</title>
<path fill="none" stroke="midnightblue" d="M1903.24,-126.875C1961.48,-117.081 2049.65,-101.853 2126,-87 2132.22,-85.7899 2138.75,-84.4663 2145.2,-83.1266"/>
<polygon fill="midnightblue" stroke="midnightblue" points="2146.15,-86.5041 2155.21,-81.0223 2144.71,-79.6538 2146.15,-86.5041"/>
</g>
<!-- Node38 -->
<g id="node39" class="node"><title>Node38</title>
<polygon fill="white" stroke="#bfbfbf" points="2271.5,-62 2271.5,-81 2384.5,-81 2384.5,-62 2271.5,-62"/>
<text text-anchor="middle" x="2328" y="-69" font-family="FreeSans" font-size="10.00">boost/move/move.hpp</text>
</g>
<!-- Node27&#45;&gt;Node38 -->
<g id="edge52" class="edge"><title>Node27&#45;&gt;Node38</title>
<path fill="none" stroke="midnightblue" d="M1903.06,-131.813C1986.16,-123.988 2135.48,-108.398 2262,-87 2268.61,-85.8827 2275.55,-84.5424 2282.35,-83.134"/>
<polygon fill="midnightblue" stroke="midnightblue" points="2283.11,-86.551 2292.16,-81.04 2281.65,-79.7053 2283.11,-86.551"/>
</g>
<!-- Node39 -->
<g id="node40" class="node"><title>Node39</title>
<polygon fill="white" stroke="#bfbfbf" points="2402.5,-62 2402.5,-81 2487.5,-81 2487.5,-62 2402.5,-62"/>
<text text-anchor="middle" x="2445" y="-69" font-family="FreeSans" font-size="10.00">boost/limits.hpp</text>
</g>
<!-- Node27&#45;&gt;Node39 -->
<g id="edge53" class="edge"><title>Node27&#45;&gt;Node39</title>
<path fill="none" stroke="midnightblue" d="M1903.2,-135.537C2007.12,-131.494 2218.26,-119.682 2394,-87 2398.78,-86.1106 2403.76,-84.9706 2408.66,-83.7212"/>
<polygon fill="midnightblue" stroke="midnightblue" points="2409.76,-87.0493 2418.49,-81.0486 2407.92,-80.2944 2409.76,-87.0493"/>
</g>
<!-- Node40 -->
<g id="node41" class="node"><title>Node40</title>
<polygon fill="white" stroke="#bfbfbf" points="2505.5,-56.5 2505.5,-86.5 2614.5,-86.5 2614.5,-56.5 2505.5,-56.5"/>
<text text-anchor="start" x="2513.5" y="-74.5" font-family="FreeSans" font-size="10.00">boost/pending/lowest</text>
<text text-anchor="middle" x="2560" y="-63.5" font-family="FreeSans" font-size="10.00">_bit.hpp</text>
</g>
<!-- Node27&#45;&gt;Node40 -->
<g id="edge54" class="edge"><title>Node27&#45;&gt;Node40</title>
<path fill="none" stroke="midnightblue" d="M1903.34,-135.755C2019.81,-131.899 2273.38,-120.31 2495.57,-87.075"/>
<polygon fill="midnightblue" stroke="midnightblue" points="2496.1,-90.5356 2505.46,-85.5784 2495.05,-83.6144 2496.1,-90.5356"/>
</g>
<!-- Node41 -->
<g id="node42" class="node"><title>Node41</title>
<polygon fill="white" stroke="#bfbfbf" points="2633,-62 2633,-81 2751,-81 2751,-62 2633,-62"/>
<text text-anchor="middle" x="2692" y="-69" font-family="FreeSans" font-size="10.00">boost/static_assert.hpp</text>
</g>
<!-- Node27&#45;&gt;Node41 -->
<g id="edge55" class="edge"><title>Node27&#45;&gt;Node41</title>
<path fill="none" stroke="midnightblue" d="M1903.17,-136.536C2037.52,-133.823 2358,-123.717 2624,-87 2631.48,-85.9671 2639.37,-84.5728 2647.02,-83.0554"/>
<polygon fill="midnightblue" stroke="midnightblue" points="2647.8,-86.4681 2656.88,-81.0099 2646.38,-79.614 2647.8,-86.4681"/>
</g>
<!-- Node42 -->
<g id="node43" class="node"><title>Node42</title>
<polygon fill="white" stroke="#bfbfbf" points="2769,-62 2769,-81 2899,-81 2899,-62 2769,-62"/>
<text text-anchor="middle" x="2834" y="-69" font-family="FreeSans" font-size="10.00">boost/utility/addressof.hpp</text>
</g>
<!-- Node27&#45;&gt;Node42 -->
<g id="edge56" class="edge"><title>Node27&#45;&gt;Node42</title>
<path fill="none" stroke="midnightblue" d="M1903.2,-137.037C2053.55,-135.288 2440.01,-126.928 2760,-87 2768.4,-85.9514 2777.28,-84.507 2785.87,-82.9336"/>
<polygon fill="midnightblue" stroke="midnightblue" points="2786.59,-86.3586 2795.76,-81.0434 2785.28,-79.4831 2786.59,-86.3586"/>
</g>
<!-- Node43 -->
<g id="node44" class="node"><title>Node43</title>
<polygon fill="white" stroke="#bfbfbf" points="2917,-56.5 2917,-86.5 3049,-86.5 3049,-56.5 2917,-56.5"/>
<text text-anchor="start" x="2925" y="-74.5" font-family="FreeSans" font-size="10.00">boost/detail/no_exceptions</text>
<text text-anchor="middle" x="2983" y="-63.5" font-family="FreeSans" font-size="10.00">_support.hpp</text>
</g>
<!-- Node27&#45;&gt;Node43 -->
<g id="edge57" class="edge"><title>Node27&#45;&gt;Node43</title>
<path fill="none" stroke="midnightblue" d="M1903.13,-137.676C2068.16,-137.441 2521.06,-132.45 2906.87,-87.0121"/>
<polygon fill="midnightblue" stroke="midnightblue" points="2907.31,-90.4842 2916.83,-85.8283 2906.48,-83.5331 2907.31,-90.4842"/>
</g>
<!-- Node44 -->
<g id="node45" class="node"><title>Node44</title>
<polygon fill="white" stroke="#bfbfbf" points="3067,-62 3067,-81 3199,-81 3199,-62 3067,-62"/>
<text text-anchor="middle" x="3133" y="-69" font-family="FreeSans" font-size="10.00">boost/throw_exception.hpp</text>
</g>
<!-- Node27&#45;&gt;Node44 -->
<g id="edge58" class="edge"><title>Node27&#45;&gt;Node44</title>
<path fill="none" stroke="midnightblue" d="M1903.04,-138.21C2084.7,-139.502 2618.56,-138.29 3058,-87 3066.71,-85.9835 3075.92,-84.5248 3084.8,-82.9202"/>
<polygon fill="midnightblue" stroke="midnightblue" points="3085.46,-86.3581 3094.63,-81.0624 3084.16,-79.4798 3085.46,-86.3581"/>
</g>
</g>
</svg>
        <g id="navigator" transform="translate(0 0)" fill="#404254">
                <rect fill="#f2f5e9" fill-opacity="0.5" stroke="#606060" stroke-width=".5" x="0" y="0" width="60" height="60"/>
                <use id="zoomplus" xlink:href="#zoomPlus" x="17" y="9" onmousedown="handleZoom(evt,'in')"/>
                <use id="zoomminus" xlink:href="#zoomMin" x="42" y="9" onmousedown="handleZoom(evt,'out')"/>
                <use id="reset" xlink:href="#resetDef" x="30" y="36" onmousedown="handleReset()"/>
                <g id="arrowUp" xlink:href="#dirArrow" transform="translate(30 24)" onmousedown="handlePan(0,-1)">
                  <use xlink:href="#rim" fill="#404040">
                        <set attributeName="fill" to="#808080" begin="arrowUp.mouseover" end="arrowUp.mouseout"/>
                  </use>
                  <path fill="none" stroke="white" stroke-width="1.5" d="M0,-3.0v7 M-2.5,-0.5L0,-3.0L2.5,-0.5"/>
                </g>
                <g id="arrowRight" xlink:href="#dirArrow" transform="rotate(90) translate(36 -43)" onmousedown="handlePan(1,0)">
                  <use xlink:href="#rim" fill="#404040">
                        <set attributeName="fill" to="#808080" begin="arrowRight.mouseover" end="arrowRight.mouseout"/>
                  </use>
                  <path fill="none" stroke="white" stroke-width="1.5" d="M0,-3.0v7 M-2.5,-0.5L0,-3.0L2.5,-0.5"/>
                </g>
                <g id="arrowDown" xlink:href="#dirArrow" transform="rotate(180) translate(-30 -48)" onmousedown="handlePan(0,1)">
                  <use xlink:href="#rim" fill="#404040">
                        <set attributeName="fill" to="#808080" begin="arrowDown.mouseover" end="arrowDown.mouseout"/>
                  </use>
                  <path fill="none" stroke="white" stroke-width="1.5" d="M0,-3.0v7 M-2.5,-0.5L0,-3.0L2.5,-0.5"/>
                </g>
                <g id="arrowLeft" xlink:href="#dirArrow" transform="rotate(270) translate(-36 17)" onmousedown="handlePan(-1,0)">
                  <use xlink:href="#rim" fill="#404040">
                        <set attributeName="fill" to="#808080" begin="arrowLeft.mouseover" end="arrowLeft.mouseout"/>
                  </use>
                  <path fill="none" stroke="white" stroke-width="1.5" d="M0,-3.0v7 M-2.5,-0.5L0,-3.0L2.5,-0.5"/>
                </g>
        </g>
        <svg viewBox="0 0 15 15" width="100%" height="30px" preserveAspectRatio="xMaxYMin meet">
         <g id="arrow_out" transform="scale(0.3 0.3)">
          <a xlink:href="Constraint_8cpp__incl_org.svg" target="_base">
           <rect id="button" ry="5" rx="5" y="6" x="6" height="38" width="38"
                fill="#f2f5e9" fill-opacity="0.5" stroke="#606060" stroke-width="1.0"/>
           <path id="arrow"
             d="M 11.500037,31.436501 C 11.940474,20.09759 22.043105,11.32322 32.158766,21.979434 L 37.068811,17.246167 C 37.068811,17.246167 37.088388,32 37.088388,32 L 22.160133,31.978069 C 22.160133,31.978069 26.997745,27.140456 26.997745,27.140456 C 18.528582,18.264221 13.291696,25.230495 11.500037,31.436501 z"
             style="fill:#404040;"/>
          </a>
         </g>
        </svg>
</svg>
