<?xml version="1.0" encoding="UTF-8" standalone="no"?>
<!DOCTYPE svg PUBLIC "-//W3C//DTD SVG 1.1//EN"
 "http://www.w3.org/Graphics/SVG/1.1/DTD/svg11.dtd">
<!-- Generated by graphviz version 2.38.0 (20140413.2041)
 -->
<!-- Title: src/Geometry/CoordinateTransformation.ipp Pages: 1 -->
<svg width="1736pt" height="319pt"
 viewBox="0.00 0.00 1736.00 319.00" xmlns="http://www.w3.org/2000/svg" xmlns:xlink="http://www.w3.org/1999/xlink">
<g id="graph0" class="graph" transform="scale(1 1) rotate(0) translate(4 315)">
<title>src/Geometry/CoordinateTransformation.ipp</title>
<polygon fill="white" stroke="none" points="-4,4 -4,-315 1732,-315 1732,4 -4,4"/>
<!-- Node0 -->
<g id="node1" class="node"><title>Node0</title>
<polygon fill="#bfbfbf" stroke="black" points="847.5,-291.5 847.5,-310.5 1052.5,-310.5 1052.5,-291.5 847.5,-291.5"/>
<text text-anchor="middle" x="950" y="-298.5" font-family="FreeSans" font-size="10.00">src/Geometry/CoordinateTransformation.ipp</text>
</g>
<!-- Node1 -->
<g id="node2" class="node"><title>Node1</title>
<polygon fill="white" stroke="#bfbfbf" points="707,-0.5 707,-19.5 835,-19.5 835,-0.5 707,-0.5"/>
<text text-anchor="middle" x="771" y="-7.5" font-family="FreeSans" font-size="10.00">boost/concept_check.hpp</text>
</g>
<!-- Node0&#45;&gt;Node1 -->
<g id="edge1" class="edge"><title>Node0&#45;&gt;Node1</title>
<path fill="none" stroke="midnightblue" d="M946.477,-291.381C935.125,-264.024 897.741,-177.119 855,-112 833.866,-79.8015 804.062,-46.1323 786.222,-26.9443"/>
<polygon fill="midnightblue" stroke="midnightblue" points="788.769,-24.5432 779.37,-19.654 783.668,-29.3375 788.769,-24.5432"/>
</g>
<!-- Node2 -->
<g id="node3" class="node"><title>Node2</title>
<polygon fill="white" stroke="#bfbfbf" points="62,-0.5 62,-19.5 190,-19.5 190,-0.5 62,-0.5"/>
<text text-anchor="middle" x="126" y="-7.5" font-family="FreeSans" font-size="10.00">boost/range/concepts.hpp</text>
</g>
<!-- Node0&#45;&gt;Node2 -->
<g id="edge2" class="edge"><title>Node0&#45;&gt;Node2</title>
<path fill="none" stroke="midnightblue" d="M847.467,-298.235C659.979,-294.339 276.073,-283.02 222,-255 183.544,-235.073 161,-222.312 161,-179 161,-179 161,-179 161,-121 161,-87.0719 145.693,-49.9109 135.325,-28.631"/>
<polygon fill="midnightblue" stroke="midnightblue" points="138.362,-26.8822 130.72,-19.544 132.118,-30.0463 138.362,-26.8822"/>
</g>
<!-- Node3 -->
<g id="node4" class="node"><title>Node3</title>
<polygon fill="white" stroke="#bfbfbf" points="208,-0.5 208,-19.5 336,-19.5 336,-0.5 208,-0.5"/>
<text text-anchor="middle" x="272" y="-7.5" font-family="FreeSans" font-size="10.00">boost/range/functions.hpp</text>
</g>
<!-- Node0&#45;&gt;Node3 -->
<g id="edge3" class="edge"><title>Node0&#45;&gt;Node3</title>
<path fill="none" stroke="midnightblue" d="M847.34,-300.236C663.017,-299.677 290.988,-293.7 247,-255 181.174,-197.087 237.403,-74.4986 261.936,-28.7282"/>
<polygon fill="midnightblue" stroke="midnightblue" points="265.012,-30.3986 266.764,-19.9496 258.878,-27.0254 265.012,-30.3986"/>
</g>
<!-- Node4 -->
<g id="node5" class="node"><title>Node4</title>
<polygon fill="white" stroke="#bfbfbf" points="354,-0.5 354,-19.5 504,-19.5 504,-0.5 354,-0.5"/>
<text text-anchor="middle" x="429" y="-7.5" font-family="FreeSans" font-size="10.00">boost/range/metafunctions.hpp</text>
</g>
<!-- Node0&#45;&gt;Node4 -->
<g id="edge4" class="edge"><title>Node0&#45;&gt;Node4</title>
<path fill="none" stroke="midnightblue" d="M847.182,-300.143C668.746,-299.376 316.783,-292.998 276,-255 229.172,-211.37 227.345,-167.627 259,-112 286.215,-64.1759 345.993,-36.6447 386.889,-22.7429"/>
<polygon fill="midnightblue" stroke="midnightblue" points="388.17,-26.0069 396.592,-19.5785 385.999,-19.3519 388.17,-26.0069"/>
</g>
<!-- Node5 -->
<g id="node6" class="node"><title>Node5</title>
<polygon fill="white" stroke="#bfbfbf" points="1266,-224.5 1266,-254.5 1376,-254.5 1376,-224.5 1266,-224.5"/>
<text text-anchor="start" x="1274" y="-242.5" font-family="FreeSans" font-size="10.00">boost/range/algorithm</text>
<text text-anchor="middle" x="1321" y="-231.5" font-family="FreeSans" font-size="10.00">/transform.hpp</text>
</g>
<!-- Node0&#45;&gt;Node5 -->
<g id="edge5" class="edge"><title>Node0&#45;&gt;Node5</title>
<path fill="none" stroke="midnightblue" d="M1014.69,-291.49C1075.96,-283.162 1170.47,-269.627 1252,-255 1253.25,-254.775 1254.52,-254.544 1255.79,-254.309"/>
<polygon fill="midnightblue" stroke="midnightblue" points="1256.53,-257.733 1265.69,-252.423 1255.22,-250.856 1256.53,-257.733"/>
</g>
<!-- Node6 -->
<g id="node7" class="node"><title>Node6</title>
<polygon fill="white" stroke="#bfbfbf" points="1394,-224.5 1394,-254.5 1504,-254.5 1504,-224.5 1394,-224.5"/>
<text text-anchor="start" x="1402" y="-242.5" font-family="FreeSans" font-size="10.00">boost/range/algorithm</text>
<text text-anchor="middle" x="1449" y="-231.5" font-family="FreeSans" font-size="10.00">/for_each.hpp</text>
</g>
<!-- Node0&#45;&gt;Node6 -->
<g id="edge6" class="edge"><title>Node0&#45;&gt;Node6</title>
<path fill="none" stroke="midnightblue" d="M1052.85,-292.851C1138.87,-286.062 1264.94,-274.236 1383.91,-255.053"/>
<polygon fill="midnightblue" stroke="midnightblue" points="1384.62,-258.484 1393.92,-253.418 1383.49,-251.575 1384.62,-258.484"/>
</g>
<!-- Node7 -->
<g id="node8" class="node"><title>Node7</title>
<polygon fill="white" stroke="#bfbfbf" points="853.5,-0.5 853.5,-19.5 924.5,-19.5 924.5,-0.5 853.5,-0.5"/>
<text text-anchor="middle" x="889" y="-7.5" font-family="FreeSans" font-size="10.00">Eigen/Dense</text>
</g>
<!-- Node0&#45;&gt;Node7 -->
<g id="edge7" class="edge"><title>Node0&#45;&gt;Node7</title>
<path fill="none" stroke="midnightblue" d="M948.174,-291.351C939.773,-251.548 904.736,-85.5547 892.915,-29.5477"/>
<polygon fill="midnightblue" stroke="midnightblue" points="896.308,-28.677 890.818,-19.6155 889.459,-30.1227 896.308,-28.677"/>
</g>
<!-- Node8 -->
<g id="node9" class="node"><title>Node8</title>
<polygon fill="white" stroke="#bfbfbf" points="1522,-230 1522,-249 1608,-249 1608,-230 1522,-230"/>
<text text-anchor="middle" x="1565" y="-237" font-family="FreeSans" font-size="10.00">Eigen/Geometry</text>
</g>
<!-- Node0&#45;&gt;Node8 -->
<g id="edge8" class="edge"><title>Node0&#45;&gt;Node8</title>
<path fill="none" stroke="midnightblue" d="M1052.72,-297.705C1166.15,-293.801 1353.83,-283.283 1513,-255 1518.06,-254.101 1523.34,-252.921 1528.51,-251.623"/>
<polygon fill="midnightblue" stroke="midnightblue" points="1529.48,-254.987 1538.24,-249.022 1527.67,-248.224 1529.48,-254.987"/>
</g>
<!-- Node9 -->
<g id="node10" class="node"><title>Node9</title>
<polygon fill="white" stroke="#bfbfbf" points="0,-0.5 0,-19.5 44,-19.5 44,-0.5 0,-0.5"/>
<text text-anchor="middle" x="22" y="-7.5" font-family="FreeSans" font-size="10.00">vector</text>
</g>
<!-- Node0&#45;&gt;Node9 -->
<g id="edge9" class="edge"><title>Node0&#45;&gt;Node9</title>
<path fill="none" stroke="midnightblue" d="M847.186,-299.828C665.578,-298.567 295.522,-291.437 172,-255 106.33,-235.628 38,-247.468 38,-179 38,-179 38,-179 38,-121 38,-88.6258 31.1292,-51.4449 26.3926,-29.6593"/>
<polygon fill="midnightblue" stroke="midnightblue" points="29.7774,-28.7588 24.1578,-19.7771 22.9498,-30.3028 29.7774,-28.7588"/>
</g>
<!-- Node10 -->
<g id="node11" class="node"><title>Node10</title>
<polygon fill="white" stroke="#bfbfbf" points="1626,-230 1626,-249 1656,-249 1656,-230 1626,-230"/>
<text text-anchor="middle" x="1641" y="-237" font-family="FreeSans" font-size="10.00">set</text>
</g>
<!-- Node0&#45;&gt;Node10 -->
<g id="edge10" class="edge"><title>Node0&#45;&gt;Node10</title>
<path fill="none" stroke="midnightblue" d="M1052.81,-298.969C1213.1,-296.37 1514.82,-287.216 1617,-255 1618.07,-254.663 1619.14,-254.27 1620.2,-253.833"/>
<polygon fill="midnightblue" stroke="midnightblue" points="1622.08,-256.799 1629.33,-249.07 1618.85,-250.593 1622.08,-256.799"/>
</g>
<!-- Node11 -->
<g id="node12" class="node"><title>Node11</title>
<polygon fill="white" stroke="#bfbfbf" points="942.5,-0.5 942.5,-19.5 991.5,-19.5 991.5,-0.5 942.5,-0.5"/>
<text text-anchor="middle" x="967" y="-7.5" font-family="FreeSans" font-size="10.00">cstddef</text>
</g>
<!-- Node0&#45;&gt;Node11 -->
<g id="edge11" class="edge"><title>Node0&#45;&gt;Node11</title>
<path fill="none" stroke="midnightblue" d="M950,-291.491C950,-271.736 950,-221.224 950,-179 950,-179 950,-179 950,-121 950,-88.5826 957.3,-51.4151 962.333,-29.6439"/>
<polygon fill="midnightblue" stroke="midnightblue" points="965.772,-30.3102 964.707,-19.769 958.966,-28.6736 965.772,-30.3102"/>
</g>
<!-- Node12 -->
<g id="node13" class="node"><title>Node12</title>
<polygon fill="white" stroke="#bfbfbf" points="1010,-0.5 1010,-19.5 1054,-19.5 1054,-0.5 1010,-0.5"/>
<text text-anchor="middle" x="1032" y="-7.5" font-family="FreeSans" font-size="10.00">cmath</text>
</g>
<!-- Node0&#45;&gt;Node12 -->
<g id="edge12" class="edge"><title>Node0&#45;&gt;Node12</title>
<path fill="none" stroke="midnightblue" d="M967.474,-291.476C1007.64,-270.769 1105.91,-213.465 1143,-132 1170.11,-72.4568 1053.98,-79.2515 1051,-76 1039.48,-63.4073 1034.91,-44.1912 1033.12,-29.9149"/>
<polygon fill="midnightblue" stroke="midnightblue" points="1036.59,-29.3882 1032.2,-19.7455 1029.62,-30.0209 1036.59,-29.3882"/>
</g>
<!-- Node13 -->
<g id="node14" class="node"><title>Node13</title>
<polygon fill="white" stroke="#bfbfbf" points="1146,-0.5 1146,-19.5 1208,-19.5 1208,-0.5 1146,-0.5"/>
<text text-anchor="middle" x="1177" y="-7.5" font-family="FreeSans" font-size="10.00">type_traits</text>
</g>
<!-- Node0&#45;&gt;Node13 -->
<g id="edge13" class="edge"><title>Node0&#45;&gt;Node13</title>
<path fill="none" stroke="midnightblue" d="M1052.75,-297.256C1135.46,-288.903 1238,-261.842 1238,-179 1238,-179 1238,-179 1238,-121 1238,-83.5742 1210.66,-46.9577 1192.59,-26.8412"/>
<polygon fill="midnightblue" stroke="midnightblue" points="1195.12,-24.4285 1185.74,-19.5071 1190.01,-29.2053 1195.12,-24.4285"/>
</g>
<!-- Node14 -->
<g id="node15" class="node"><title>Node14</title>
<polygon fill="white" stroke="#bfbfbf" points="808,-112.5 808,-131.5 846,-131.5 846,-112.5 808,-112.5"/>
<text text-anchor="middle" x="827" y="-119.5" font-family="FreeSans" font-size="10.00">tuple</text>
</g>
<!-- Node0&#45;&gt;Node14 -->
<g id="edge14" class="edge"><title>Node0&#45;&gt;Node14</title>
<path fill="none" stroke="midnightblue" d="M917.704,-291.369C898.262,-284.562 874.538,-273.124 860,-255 833.357,-221.787 827.873,-169.904 826.96,-142.109"/>
<polygon fill="midnightblue" stroke="midnightblue" points="830.455,-141.74 826.8,-131.795 823.456,-141.848 830.455,-141.74"/>
</g>
<!-- Node15 -->
<g id="node16" class="node"><title>Node15</title>
<polygon fill="white" stroke="#bfbfbf" points="1072,-0.5 1072,-19.5 1128,-19.5 1128,-0.5 1072,-0.5"/>
<text text-anchor="middle" x="1100" y="-7.5" font-family="FreeSans" font-size="10.00">algorithm</text>
</g>
<!-- Node0&#45;&gt;Node15 -->
<g id="edge15" class="edge"><title>Node0&#45;&gt;Node15</title>
<path fill="none" stroke="midnightblue" d="M1047.01,-291.484C1117.29,-279.357 1200,-250.003 1200,-179 1200,-179 1200,-179 1200,-121 1200,-90.9022 1199.79,-79.5156 1181,-56 1169.36,-41.428 1151.65,-30.8253 1135.75,-23.5852"/>
<polygon fill="midnightblue" stroke="midnightblue" points="1136.73,-20.199 1126.16,-19.5065 1134,-26.6407 1136.73,-20.199"/>
</g>
<!-- Node16 -->
<g id="node17" class="node"><title>Node16</title>
<g id="a_node17"><a xlink:href="EigenMetafunction_8h.html" target="_top" xlink:title="../Wrappers/EigenMetafunction.h">
<polygon fill="white" stroke="black" points="978,-112.5 978,-131.5 1134,-131.5 1134,-112.5 978,-112.5"/>
<text text-anchor="middle" x="1056" y="-119.5" font-family="FreeSans" font-size="10.00">../Wrappers/EigenMetafunction.h</text>
</a>
</g>
</g>
<!-- Node0&#45;&gt;Node16 -->
<g id="edge16" class="edge"><title>Node0&#45;&gt;Node16</title>
<path fill="none" stroke="midnightblue" d="M955.113,-291.463C971.513,-264.078 1023.03,-178.052 1045.43,-140.653"/>
<polygon fill="midnightblue" stroke="midnightblue" points="1048.55,-142.246 1050.69,-131.868 1042.55,-138.649 1048.55,-142.246"/>
</g>
<!-- Node18 -->
<g id="node19" class="node"><title>Node18</title>
<g id="a_node19"><a xlink:href="Coordinate_8h.html" target="_top" xlink:title="../Elements/Coordinate.h">
<polygon fill="white" stroke="black" points="268,-112.5 268,-131.5 390,-131.5 390,-112.5 268,-112.5"/>
<text text-anchor="middle" x="329" y="-119.5" font-family="FreeSans" font-size="10.00">../Elements/Coordinate.h</text>
</a>
</g>
</g>
<!-- Node0&#45;&gt;Node18 -->
<g id="edge19" class="edge"><title>Node0&#45;&gt;Node18</title>
<path fill="none" stroke="midnightblue" d="M911.402,-291.483C834.425,-274.21 656.601,-232.87 510,-188 456.741,-171.699 396.036,-149.042 360.204,-135.235"/>
<polygon fill="midnightblue" stroke="midnightblue" points="361.373,-131.934 350.784,-131.587 358.846,-138.462 361.373,-131.934"/>
</g>
<!-- Node23 -->
<g id="node24" class="node"><title>Node23</title>
<g id="a_node24"><a xlink:href="CoordinateStatistics_8h.html" target="_top" xlink:title="CoordinateStatistics.h">
<polygon fill="white" stroke="black" points="285,-230 285,-249 397,-249 397,-230 285,-230"/>
<text text-anchor="middle" x="341" y="-237" font-family="FreeSans" font-size="10.00">CoordinateStatistics.h</text>
</a>
</g>
</g>
<!-- Node0&#45;&gt;Node23 -->
<g id="edge34" class="edge"><title>Node0&#45;&gt;Node23</title>
<path fill="none" stroke="midnightblue" d="M847.03,-291.722C746.831,-283.411 590.324,-269.752 455,-255 439.544,-253.315 422.934,-251.312 407.304,-249.341"/>
<polygon fill="midnightblue" stroke="midnightblue" points="407.559,-245.846 397.197,-248.054 406.675,-252.789 407.559,-245.846"/>
</g>
<!-- Node27 -->
<g id="node28" class="node"><title>Node27</title>
<polygon fill="white" stroke="#bfbfbf" points="1674,-230 1674,-249 1728,-249 1728,-230 1674,-230"/>
<text text-anchor="middle" x="1701" y="-237" font-family="FreeSans" font-size="10.00">iostream</text>
</g>
<!-- Node0&#45;&gt;Node27 -->
<g id="edge49" class="edge"><title>Node0&#45;&gt;Node27</title>
<path fill="none" stroke="midnightblue" d="M1052.77,-297.566C1221.91,-292.884 1551.51,-280.722 1665,-255 1667.83,-254.358 1670.73,-253.52 1673.6,-252.572"/>
<polygon fill="midnightblue" stroke="midnightblue" points="1674.91,-255.82 1683.05,-249.041 1672.46,-249.262 1674.91,-255.82"/>
</g>
<!-- Node17 -->
<g id="node18" class="node"><title>Node17</title>
<g id="a_node18"><a xlink:href="EigenMetafunction_8ipp.html" target="_top" xlink:title="EigenMetafunction.ipp">
<polygon fill="white" stroke="black" points="1060,-56.5 1060,-75.5 1172,-75.5 1172,-56.5 1060,-56.5"/>
<text text-anchor="middle" x="1116" y="-63.5" font-family="FreeSans" font-size="10.00">EigenMetafunction.ipp</text>
</a>
</g>
</g>
<!-- Node16&#45;&gt;Node17 -->
<g id="edge17" class="edge"><title>Node16&#45;&gt;Node17</title>
<path fill="none" stroke="midnightblue" d="M1065.64,-112.324C1074.51,-104.341 1087.87,-92.3128 1098.61,-82.6529"/>
<polygon fill="midnightblue" stroke="midnightblue" points="1101.09,-85.1251 1106.18,-75.8339 1096.41,-79.922 1101.09,-85.1251"/>
</g>
<!-- Node17&#45;&gt;Node13 -->
<g id="edge18" class="edge"><title>Node17&#45;&gt;Node13</title>
<path fill="none" stroke="midnightblue" d="M1125.8,-56.324C1134.82,-48.3414 1148.41,-36.3128 1159.32,-26.6529"/>
<polygon fill="midnightblue" stroke="midnightblue" points="1161.85,-29.083 1167.02,-19.8339 1157.21,-23.8416 1161.85,-29.083"/>
</g>
<!-- Node19 -->
<g id="node20" class="node"><title>Node19</title>
<g id="a_node20"><a xlink:href="Coordinate_8ipp.html" target="_top" xlink:title="Coordinate.ipp">
<polygon fill="white" stroke="black" points="571,-56.5 571,-75.5 649,-75.5 649,-56.5 571,-56.5"/>
<text text-anchor="middle" x="610" y="-63.5" font-family="FreeSans" font-size="10.00">Coordinate.ipp</text>
</a>
</g>
</g>
<!-- Node18&#45;&gt;Node19 -->
<g id="edge20" class="edge"><title>Node18&#45;&gt;Node19</title>
<path fill="none" stroke="midnightblue" d="M373.525,-112.444C424.555,-102.637 507.941,-86.6127 560.839,-76.4472"/>
<polygon fill="midnightblue" stroke="midnightblue" points="561.511,-79.8824 570.67,-74.558 560.19,-73.0081 561.511,-79.8824"/>
</g>
<!-- Node19&#45;&gt;Node1 -->
<g id="edge21" class="edge"><title>Node19&#45;&gt;Node1</title>
<path fill="none" stroke="midnightblue" d="M635.511,-56.4435C662.596,-47.3591 705.59,-32.9388 735.869,-22.7831"/>
<polygon fill="midnightblue" stroke="midnightblue" points="737.24,-26.0148 745.608,-19.5164 735.014,-19.3781 737.24,-26.0148"/>
</g>
<!-- Node19&#45;&gt;Node2 -->
<g id="edge22" class="edge"><title>Node19&#45;&gt;Node2</title>
<path fill="none" stroke="midnightblue" d="M570.878,-60.8959C499.5,-53.3689 343.095,-36.6963 200.341,-20.1429"/>
<polygon fill="midnightblue" stroke="midnightblue" points="200.425,-16.6291 190.088,-18.9513 199.617,-23.5823 200.425,-16.6291"/>
</g>
<!-- Node19&#45;&gt;Node3 -->
<g id="edge24" class="edge"><title>Node19&#45;&gt;Node3</title>
<path fill="none" stroke="midnightblue" d="M570.897,-58.7528C513.176,-49.531 404.547,-32.1761 335.358,-21.1223"/>
<polygon fill="midnightblue" stroke="midnightblue" points="335.874,-17.6604 325.447,-19.5388 334.769,-24.5727 335.874,-17.6604"/>
</g>
<!-- Node19&#45;&gt;Node4 -->
<g id="edge23" class="edge"><title>Node19&#45;&gt;Node4</title>
<path fill="none" stroke="midnightblue" d="M581.32,-56.4435C550.473,-47.2406 501.272,-32.5617 467.171,-22.3879"/>
<polygon fill="midnightblue" stroke="midnightblue" points="468.129,-19.0215 457.546,-19.5164 466.128,-25.7293 468.129,-19.0215"/>
</g>
<!-- Node19&#45;&gt;Node7 -->
<g id="edge25" class="edge"><title>Node19&#45;&gt;Node7</title>
<path fill="none" stroke="midnightblue" d="M649.35,-57.5249C693.865,-49.0481 768.805,-34.7162 843.138,-20.158"/>
<polygon fill="midnightblue" stroke="midnightblue" points="844.004,-23.5549 853.143,-18.1962 842.657,-16.6857 844.004,-23.5549"/>
</g>
<!-- Node19&#45;&gt;Node9 -->
<g id="edge26" class="edge"><title>Node19&#45;&gt;Node9</title>
<path fill="none" stroke="midnightblue" d="M570.818,-64.5438C480.887,-62.9192 252.777,-55.5109 54.2505,-19.8639"/>
<polygon fill="midnightblue" stroke="midnightblue" points="54.688,-16.386 44.2222,-18.0343 53.4316,-23.2723 54.688,-16.386"/>
</g>
<!-- Node19&#45;&gt;Node11 -->
<g id="edge28" class="edge"><title>Node19&#45;&gt;Node11</title>
<path fill="none" stroke="midnightblue" d="M649.036,-61.0961C708.171,-54.8485 824.13,-41.2954 932.111,-19.9554"/>
<polygon fill="midnightblue" stroke="midnightblue" points="933.081,-23.3307 942.199,-17.934 931.706,-16.4671 933.081,-23.3307"/>
</g>
<!-- Node19&#45;&gt;Node12 -->
<g id="edge29" class="edge"><title>Node19&#45;&gt;Node12</title>
<path fill="none" stroke="midnightblue" d="M649.065,-62.5606C717.934,-57.8138 865.508,-45.6456 999.683,-19.7245"/>
<polygon fill="midnightblue" stroke="midnightblue" points="1000.59,-23.1132 1009.73,-17.7526 999.243,-16.2442 1000.59,-23.1132"/>
</g>
<!-- Node19&#45;&gt;Node13 -->
<g id="edge27" class="edge"><title>Node19&#45;&gt;Node13</title>
<path fill="none" stroke="midnightblue" d="M649.223,-63.4781C735.493,-59.7392 948.298,-48.3734 1135.61,-20.0196"/>
<polygon fill="midnightblue" stroke="midnightblue" points="1136.28,-23.457 1145.63,-18.4812 1135.22,-16.538 1136.28,-23.457"/>
</g>
<!-- Node19&#45;&gt;Node15 -->
<g id="edge31" class="edge"><title>Node19&#45;&gt;Node15</title>
<path fill="none" stroke="midnightblue" d="M649.026,-62.963C726.147,-58.5418 903.602,-46.4044 1061.89,-19.9677"/>
<polygon fill="midnightblue" stroke="midnightblue" points="1062.53,-23.4091 1071.8,-18.2883 1061.36,-16.5074 1062.53,-23.4091"/>
</g>
<!-- Node20 -->
<g id="node21" class="node"><title>Node20</title>
<polygon fill="white" stroke="#bfbfbf" points="522,-0.5 522,-19.5 560,-19.5 560,-0.5 522,-0.5"/>
<text text-anchor="middle" x="541" y="-7.5" font-family="FreeSans" font-size="10.00">array</text>
</g>
<!-- Node19&#45;&gt;Node20 -->
<g id="edge30" class="edge"><title>Node19&#45;&gt;Node20</title>
<path fill="none" stroke="midnightblue" d="M598.914,-56.324C588.514,-48.1849 572.739,-35.8395 560.278,-26.0874"/>
<polygon fill="midnightblue" stroke="midnightblue" points="562.32,-23.2407 552.288,-19.8339 558.006,-28.7533 562.32,-23.2407"/>
</g>
<!-- Node21 -->
<g id="node22" class="node"><title>Node21</title>
<polygon fill="white" stroke="#bfbfbf" points="578.5,-0.5 578.5,-19.5 623.5,-19.5 623.5,-0.5 578.5,-0.5"/>
<text text-anchor="middle" x="601" y="-7.5" font-family="FreeSans" font-size="10.00">climits</text>
</g>
<!-- Node19&#45;&gt;Node21 -->
<g id="edge32" class="edge"><title>Node19&#45;&gt;Node21</title>
<path fill="none" stroke="midnightblue" d="M608.514,-56.083C607.321,-48.9272 605.606,-38.6353 604.115,-29.6911"/>
<polygon fill="midnightblue" stroke="midnightblue" points="607.555,-29.0396 602.459,-19.7511 600.65,-30.1904 607.555,-29.0396"/>
</g>
<!-- Node22 -->
<g id="node23" class="node"><title>Node22</title>
<polygon fill="white" stroke="#bfbfbf" points="641.5,-0.5 641.5,-19.5 688.5,-19.5 688.5,-0.5 641.5,-0.5"/>
<text text-anchor="middle" x="665" y="-7.5" font-family="FreeSans" font-size="10.00">iterator</text>
</g>
<!-- Node19&#45;&gt;Node22 -->
<g id="edge33" class="edge"><title>Node19&#45;&gt;Node22</title>
<path fill="none" stroke="midnightblue" d="M619.082,-56.083C627.171,-48.1409 639.195,-36.3354 648.91,-26.7973"/>
<polygon fill="midnightblue" stroke="midnightblue" points="651.403,-29.2545 656.087,-19.7511 646.499,-24.2595 651.403,-29.2545"/>
</g>
<!-- Node23&#45;&gt;Node9 -->
<g id="edge47" class="edge"><title>Node23&#45;&gt;Node9</title>
<path fill="none" stroke="midnightblue" d="M328.884,-229.86C280.821,-195.583 103.253,-68.9469 42.5233,-25.6365"/>
<polygon fill="midnightblue" stroke="midnightblue" points="44.3016,-22.6059 34.1277,-19.6491 40.2372,-28.3051 44.3016,-22.6059"/>
</g>
<!-- Node23&#45;&gt;Node18 -->
<g id="edge48" class="edge"><title>Node23&#45;&gt;Node18</title>
<path fill="none" stroke="midnightblue" d="M340.098,-229.819C338.17,-211.257 333.607,-167.339 330.971,-141.973"/>
<polygon fill="midnightblue" stroke="midnightblue" points="334.427,-141.367 329.912,-131.782 327.465,-142.09 334.427,-141.367"/>
</g>
<!-- Node24 -->
<g id="node25" class="node"><title>Node24</title>
<g id="a_node25"><a xlink:href="CoordinateStatistics_8ipp.html" target="_top" xlink:title="CoordinateStatistics.ipp">
<polygon fill="white" stroke="black" points="519.5,-168.5 519.5,-187.5 638.5,-187.5 638.5,-168.5 519.5,-168.5"/>
<text text-anchor="middle" x="579" y="-175.5" font-family="FreeSans" font-size="10.00">CoordinateStatistics.ipp</text>
</a>
</g>
</g>
<!-- Node23&#45;&gt;Node24 -->
<g id="edge35" class="edge"><title>Node23&#45;&gt;Node24</title>
<path fill="none" stroke="midnightblue" d="M375.1,-229.975C417.251,-219.437 489.055,-201.486 535.234,-189.941"/>
<polygon fill="midnightblue" stroke="midnightblue" points="536.111,-193.33 544.964,-187.509 534.413,-186.539 536.111,-193.33"/>
</g>
<!-- Node24&#45;&gt;Node1 -->
<g id="edge36" class="edge"><title>Node24&#45;&gt;Node1</title>
<path fill="none" stroke="midnightblue" d="M582.112,-168.138C587.152,-154.752 598.159,-129.123 614,-112 634.442,-89.9038 707.882,-46.6959 746.644,-24.6483"/>
<polygon fill="midnightblue" stroke="midnightblue" points="748.718,-27.4958 755.698,-19.5247 745.271,-21.4036 748.718,-27.4958"/>
</g>
<!-- Node24&#45;&gt;Node2 -->
<g id="edge39" class="edge"><title>Node24&#45;&gt;Node2</title>
<path fill="none" stroke="midnightblue" d="M544.837,-168.442C515.208,-160.524 471.471,-147.635 435,-132 418.177,-124.788 415.632,-119.642 399,-112 316.819,-74.2383 216.121,-39.9131 162.959,-22.6746"/>
<polygon fill="midnightblue" stroke="midnightblue" points="163.882,-19.2948 153.29,-19.5581 161.734,-25.9572 163.882,-19.2948"/>
</g>
<!-- Node24&#45;&gt;Node3 -->
<g id="edge38" class="edge"><title>Node24&#45;&gt;Node3</title>
<path fill="none" stroke="midnightblue" d="M557.112,-168.49C535.802,-159.982 502.672,-146.159 475,-132 406.936,-97.1736 330.399,-48.9348 293.789,-25.2634"/>
<polygon fill="midnightblue" stroke="midnightblue" points="295.259,-22.0444 284.966,-19.5331 291.446,-27.915 295.259,-22.0444"/>
</g>
<!-- Node24&#45;&gt;Node4 -->
<g id="edge37" class="edge"><title>Node24&#45;&gt;Node4</title>
<path fill="none" stroke="midnightblue" d="M573.523,-168.214C565.35,-155.36 549.182,-130.905 533,-112 505.114,-79.4217 468.279,-45.4692 446.76,-26.4028"/>
<polygon fill="midnightblue" stroke="midnightblue" points="448.879,-23.6059 439.056,-19.635 444.259,-28.8646 448.879,-23.6059"/>
</g>
<!-- Node24&#45;&gt;Node7 -->
<g id="edge41" class="edge"><title>Node24&#45;&gt;Node7</title>
<path fill="none" stroke="midnightblue" d="M586.143,-168.37C597.724,-154.83 621.85,-128.446 647,-112 712.591,-69.1101 799.393,-38.233 849.224,-22.6062"/>
<polygon fill="midnightblue" stroke="midnightblue" points="850.455,-25.8892 858.977,-19.5947 848.39,-19.2007 850.455,-25.8892"/>
</g>
<!-- Node24&#45;&gt;Node13 -->
<g id="edge44" class="edge"><title>Node24&#45;&gt;Node13</title>
<path fill="none" stroke="midnightblue" d="M625.637,-168.486C662.728,-160.986 715.583,-148.656 760,-132 778.239,-125.16 780.821,-118.998 799,-112 861.515,-87.9342 1052.07,-40.9997 1136.27,-20.7192"/>
<polygon fill="midnightblue" stroke="midnightblue" points="1137.09,-24.1219 1145.99,-18.3814 1135.45,-17.3158 1137.09,-24.1219"/>
</g>
<!-- Node24&#45;&gt;Node14 -->
<g id="edge42" class="edge"><title>Node24&#45;&gt;Node14</title>
<path fill="none" stroke="midnightblue" d="M623.645,-168.466C667.252,-159.941 735.421,-146.105 794,-132 795.267,-131.695 796.558,-131.376 797.862,-131.048"/>
<polygon fill="midnightblue" stroke="midnightblue" points="799.069,-134.35 807.855,-128.43 797.295,-127.579 799.069,-134.35"/>
</g>
<!-- Node24&#45;&gt;Node16 -->
<g id="edge46" class="edge"><title>Node24&#45;&gt;Node16</title>
<path fill="none" stroke="midnightblue" d="M638.929,-170.216C722.582,-160.745 874.814,-143.512 970.399,-132.691"/>
<polygon fill="midnightblue" stroke="midnightblue" points="971.073,-136.137 980.616,-131.534 970.286,-129.181 971.073,-136.137"/>
</g>
<!-- Node24&#45;&gt;Node18 -->
<g id="edge45" class="edge"><title>Node24&#45;&gt;Node18</title>
<path fill="none" stroke="midnightblue" d="M539.387,-168.444C495.775,-159.023 425.6,-143.866 378.422,-133.675"/>
<polygon fill="midnightblue" stroke="midnightblue" points="378.941,-130.207 368.428,-131.516 377.464,-137.049 378.941,-130.207"/>
</g>
<!-- Node25 -->
<g id="node26" class="node"><title>Node25</title>
<polygon fill="white" stroke="#bfbfbf" points="656.5,-112.5 656.5,-131.5 751.5,-131.5 751.5,-112.5 656.5,-112.5"/>
<text text-anchor="middle" x="704" y="-119.5" font-family="FreeSans" font-size="10.00">boost/optional.hpp</text>
</g>
<!-- Node24&#45;&gt;Node25 -->
<g id="edge40" class="edge"><title>Node24&#45;&gt;Node25</title>
<path fill="none" stroke="midnightblue" d="M598.807,-168.444C619.287,-159.596 651.483,-145.687 674.865,-135.586"/>
<polygon fill="midnightblue" stroke="midnightblue" points="676.494,-138.695 684.286,-131.516 673.718,-132.269 676.494,-138.695"/>
</g>
<!-- Node26 -->
<g id="node27" class="node"><title>Node26</title>
<polygon fill="white" stroke="#bfbfbf" points="484,-112.5 484,-131.5 524,-131.5 524,-112.5 484,-112.5"/>
<text text-anchor="middle" x="504" y="-119.5" font-family="FreeSans" font-size="10.00">limits</text>
</g>
<!-- Node24&#45;&gt;Node26 -->
<g id="edge43" class="edge"><title>Node24&#45;&gt;Node26</title>
<path fill="none" stroke="midnightblue" d="M566.95,-168.324C555.537,-160.107 538.169,-147.602 524.565,-137.807"/>
<polygon fill="midnightblue" stroke="midnightblue" points="526.43,-134.837 516.269,-131.834 522.34,-140.517 526.43,-134.837"/>
</g>
</g>
</svg>
