<?xml version="1.0" encoding="UTF-8" standalone="no"?>
<!DOCTYPE svg PUBLIC "-//W3C//DTD SVG 1.1//EN"
 "http://www.w3.org/Graphics/SVG/1.1/DTD/svg11.dtd">
<!-- Generated by graphviz version 2.38.0 (20140413.2041)
 -->
<!-- Title: src/IO/CoordinateCorrespondenceIO.h Pages: 1 -->
<svg width="1127pt" height="95pt"
 viewBox="0.00 0.00 1127.00 95.00" xmlns="http://www.w3.org/2000/svg" xmlns:xlink="http://www.w3.org/1999/xlink">
<g id="graph0" class="graph" transform="scale(1 1) rotate(0) translate(4 91)">
<title>src/IO/CoordinateCorrespondenceIO.h</title>
<polygon fill="white" stroke="none" points="-4,4 -4,-91 1123,-91 1123,4 -4,4"/>
<!-- Node59 -->
<g id="node1" class="node"><title>Node59</title>
<polygon fill="#bfbfbf" stroke="black" points="478.5,-67.5 478.5,-86.5 660.5,-86.5 660.5,-67.5 478.5,-67.5"/>
<text text-anchor="middle" x="569.5" y="-74.5" font-family="FreeSans" font-size="10.00">src/IO/CoordinateCorrespondenceIO.h</text>
</g>
<!-- Node60 -->
<g id="node2" class="node"><title>Node60</title>
<g id="a_node2"><a xlink:href="AppGeometryEstimator22_8cpp.html" target="_top" xlink:title="src/Application/AppGeometry\lEstimator22.cpp">
<polygon fill="white" stroke="black" points="0,-0.5 0,-30.5 143,-30.5 143,-0.5 0,-0.5"/>
<text text-anchor="start" x="8" y="-18.5" font-family="FreeSans" font-size="10.00">src/Application/AppGeometry</text>
<text text-anchor="middle" x="71.5" y="-7.5" font-family="FreeSans" font-size="10.00">Estimator22.cpp</text>
</a>
</g>
</g>
<!-- Node59&#45;&gt;Node60 -->
<g id="edge1" class="edge"><title>Node59&#45;&gt;Node60</title>
<path fill="none" stroke="midnightblue" d="M468.202,-67.1551C383.39,-59.2564 259.273,-46.5475 151.5,-31 148.846,-30.6171 146.145,-30.2111 143.418,-29.7876"/>
<polygon fill="midnightblue" stroke="midnightblue" points="468.066,-70.6574 478.346,-68.0944 468.711,-63.6872 468.066,-70.6574"/>
</g>
<!-- Node61 -->
<g id="node3" class="node"><title>Node61</title>
<g id="a_node3"><a xlink:href="AppGeometryEstimator32_8cpp.html" target="_top" xlink:title="src/Application/AppGeometry\lEstimator32.cpp">
<polygon fill="white" stroke="black" points="161,-0.5 161,-30.5 304,-30.5 304,-0.5 161,-0.5"/>
<text text-anchor="start" x="169" y="-18.5" font-family="FreeSans" font-size="10.00">src/Application/AppGeometry</text>
<text text-anchor="middle" x="232.5" y="-7.5" font-family="FreeSans" font-size="10.00">Estimator32.cpp</text>
</a>
</g>
</g>
<!-- Node59&#45;&gt;Node61 -->
<g id="edge2" class="edge"><title>Node59&#45;&gt;Node61</title>
<path fill="none" stroke="midnightblue" d="M510.149,-65.7112C458.049,-56.6546 380.228,-43.0672 312.5,-31 309.721,-30.5048 306.887,-29.9985 304.026,-29.4858"/>
<polygon fill="midnightblue" stroke="midnightblue" points="509.764,-69.1967 520.216,-67.4604 510.963,-62.3 509.764,-69.1967"/>
</g>
<!-- Node62 -->
<g id="node4" class="node"><title>Node62</title>
<g id="a_node4"><a xlink:href="AppGeometryEstimator33_8cpp.html" target="_top" xlink:title="src/Application/AppGeometry\lEstimator33.cpp">
<polygon fill="white" stroke="black" points="322,-0.5 322,-30.5 465,-30.5 465,-0.5 322,-0.5"/>
<text text-anchor="start" x="330" y="-18.5" font-family="FreeSans" font-size="10.00">src/Application/AppGeometry</text>
<text text-anchor="middle" x="393.5" y="-7.5" font-family="FreeSans" font-size="10.00">Estimator33.cpp</text>
</a>
</g>
</g>
<!-- Node59&#45;&gt;Node62 -->
<g id="edge3" class="edge"><title>Node59&#45;&gt;Node62</title>
<path fill="none" stroke="midnightblue" d="M534.685,-64.2303C506.027,-54.5417 465.324,-40.7815 434.98,-30.523"/>
<polygon fill="midnightblue" stroke="midnightblue" points="533.689,-67.5881 544.283,-67.4751 535.931,-60.9568 533.689,-67.5881"/>
</g>
<!-- Node63 -->
<g id="node5" class="node"><title>Node63</title>
<g id="a_node5"><a xlink:href="AppMatchmaker_8cpp.html" target="_top" xlink:title="src/Application/AppMatchmaker.cpp">
<polygon fill="white" stroke="black" points="483,-6 483,-25 656,-25 656,-6 483,-6"/>
<text text-anchor="middle" x="569.5" y="-13" font-family="FreeSans" font-size="10.00">src/Application/AppMatchmaker.cpp</text>
</a>
</g>
</g>
<!-- Node59&#45;&gt;Node63 -->
<g id="edge4" class="edge"><title>Node59&#45;&gt;Node63</title>
<path fill="none" stroke="midnightblue" d="M569.5,-57.3165C569.5,-46.4962 569.5,-33.398 569.5,-25.0091"/>
<polygon fill="midnightblue" stroke="midnightblue" points="566,-57.4751 569.5,-67.4751 573,-57.4751 566,-57.4751"/>
</g>
<!-- Node64 -->
<g id="node6" class="node"><title>Node64</title>
<g id="a_node6"><a xlink:href="AppMultimodelGeometryEstimator22_8cpp.html" target="_top" xlink:title="src/Application/AppMultimodel\lGeometryEstimator22.cpp">
<polygon fill="white" stroke="black" points="674,-0.5 674,-30.5 823,-30.5 823,-0.5 674,-0.5"/>
<text text-anchor="start" x="682" y="-18.5" font-family="FreeSans" font-size="10.00">src/Application/AppMultimodel</text>
<text text-anchor="middle" x="748.5" y="-7.5" font-family="FreeSans" font-size="10.00">GeometryEstimator22.cpp</text>
</a>
</g>
</g>
<!-- Node59&#45;&gt;Node64 -->
<g id="edge5" class="edge"><title>Node59&#45;&gt;Node64</title>
<path fill="none" stroke="midnightblue" d="M604.908,-64.2303C634.055,-54.5417 675.451,-40.7815 706.313,-30.523"/>
<polygon fill="midnightblue" stroke="midnightblue" points="603.532,-60.9994 595.146,-67.4751 605.74,-67.642 603.532,-60.9994"/>
</g>
<!-- Node65 -->
<g id="node7" class="node"><title>Node65</title>
<g id="a_node7"><a xlink:href="CoordinateCorrespondenceIO_8cpp.html" target="_top" xlink:title="src/IO/CoordinateCorrespondence\lIO.cpp">
<polygon fill="white" stroke="black" points="841.5,-0.5 841.5,-30.5 1005.5,-30.5 1005.5,-0.5 841.5,-0.5"/>
<text text-anchor="start" x="849.5" y="-18.5" font-family="FreeSans" font-size="10.00">src/IO/CoordinateCorrespondence</text>
<text text-anchor="middle" x="923.5" y="-7.5" font-family="FreeSans" font-size="10.00">IO.cpp</text>
</a>
</g>
</g>
<!-- Node59&#45;&gt;Node65 -->
<g id="edge6" class="edge"><title>Node59&#45;&gt;Node65</title>
<path fill="none" stroke="midnightblue" d="M630.379,-65.7676C688.648,-55.9738 776.968,-41.129 841.43,-30.2942"/>
<polygon fill="midnightblue" stroke="midnightblue" points="629.501,-62.3659 620.22,-67.4751 630.661,-69.2691 629.501,-62.3659"/>
</g>
<!-- Node66 -->
<g id="node8" class="node"><title>Node66</title>
<g id="a_node8"><a xlink:href="TestIO_8cpp.html" target="_top" xlink:title="src/IO/TestIO.cpp">
<polygon fill="white" stroke="black" points="1024,-6 1024,-25 1119,-25 1119,-6 1024,-6"/>
<text text-anchor="middle" x="1071.5" y="-13" font-family="FreeSans" font-size="10.00">src/IO/TestIO.cpp</text>
</a>
</g>
</g>
<!-- Node59&#45;&gt;Node66 -->
<g id="edge7" class="edge"><title>Node59&#45;&gt;Node66</title>
<path fill="none" stroke="midnightblue" d="M670.802,-70.0519C761.382,-63.7154 897.497,-51.6801 1014.5,-31 1023.35,-29.436 1032.85,-27.2339 1041.51,-25.0172"/>
<polygon fill="midnightblue" stroke="midnightblue" points="670.546,-66.5612 660.811,-70.7407 671.028,-73.5446 670.546,-66.5612"/>
</g>
</g>
</svg>
