<?xml version="1.0" encoding="UTF-8" standalone="no"?>
<!DOCTYPE svg PUBLIC "-//W3C//DTD SVG 1.1//EN"
 "http://www.w3.org/Graphics/SVG/1.1/DTD/svg11.dtd">
<!-- Generated by graphviz version 2.38.0 (20140413.2041)
 -->
<!-- Title: src/Matcher/CorrespondenceFusion.ipp Pages: 1 -->
<svg width="1693pt" height="106pt"
 viewBox="0.00 0.00 1692.50 106.00" xmlns="http://www.w3.org/2000/svg" xmlns:xlink="http://www.w3.org/1999/xlink">
<g id="graph0" class="graph" transform="scale(1 1) rotate(0) translate(4 102)">
<title>src/Matcher/CorrespondenceFusion.ipp</title>
<polygon fill="white" stroke="none" points="-4,4 -4,-102 1688.5,-102 1688.5,4 -4,4"/>
<!-- Node0 -->
<g id="node1" class="node"><title>Node0</title>
<polygon fill="#bfbfbf" stroke="black" points="1072,-67.5 1072,-97.5 1214,-97.5 1214,-67.5 1072,-67.5"/>
<text text-anchor="start" x="1080" y="-85.5" font-family="FreeSans" font-size="10.00">src/Matcher/Correspondence</text>
<text text-anchor="middle" x="1143" y="-74.5" font-family="FreeSans" font-size="10.00">Fusion.ipp</text>
</g>
<!-- Node1 -->
<g id="node2" class="node"><title>Node1</title>
<polygon fill="white" stroke="#bfbfbf" points="0,-6 0,-25 128,-25 128,-6 0,-6"/>
<text text-anchor="middle" x="64" y="-13" font-family="FreeSans" font-size="10.00">boost/range/concepts.hpp</text>
</g>
<!-- Node0&#45;&gt;Node1 -->
<g id="edge1" class="edge"><title>Node0&#45;&gt;Node1</title>
<path fill="none" stroke="midnightblue" d="M1071.95,-81.486C907.059,-80.6796 485.834,-74.1658 137,-31 128.613,-29.9621 119.746,-28.5081 111.192,-26.9183"/>
<polygon fill="midnightblue" stroke="midnightblue" points="111.826,-23.476 101.342,-25.0064 110.492,-30.3478 111.826,-23.476"/>
</g>
<!-- Node2 -->
<g id="node3" class="node"><title>Node2</title>
<polygon fill="white" stroke="#bfbfbf" points="146,-6 146,-25 274,-25 274,-6 146,-6"/>
<text text-anchor="middle" x="210" y="-13" font-family="FreeSans" font-size="10.00">boost/range/algorithm.hpp</text>
</g>
<!-- Node0&#45;&gt;Node2 -->
<g id="edge2" class="edge"><title>Node0&#45;&gt;Node2</title>
<path fill="none" stroke="midnightblue" d="M1071.9,-80.6242C924.306,-78.0813 574.139,-68.283 283,-31 274.799,-29.9498 266.138,-28.5188 257.758,-26.9629"/>
<polygon fill="midnightblue" stroke="midnightblue" points="258.209,-23.4854 247.726,-25.0204 256.878,-30.3577 258.209,-23.4854"/>
</g>
<!-- Node3 -->
<g id="node4" class="node"><title>Node3</title>
<polygon fill="white" stroke="#bfbfbf" points="292,-6 292,-25 380,-25 380,-6 292,-6"/>
<text text-anchor="middle" x="336" y="-13" font-family="FreeSans" font-size="10.00">boost/bimap.hpp</text>
</g>
<!-- Node0&#45;&gt;Node3 -->
<g id="edge3" class="edge"><title>Node0&#45;&gt;Node3</title>
<path fill="none" stroke="midnightblue" d="M1071.76,-81.4586C937.322,-80.3374 637.394,-72.8623 389,-31 383.784,-30.1209 378.34,-28.9422 373.013,-27.6351"/>
<polygon fill="midnightblue" stroke="midnightblue" points="373.563,-24.1609 363.002,-25.008 371.786,-30.9317 373.563,-24.1609"/>
</g>
<!-- Node4 -->
<g id="node5" class="node"><title>Node4</title>
<polygon fill="white" stroke="#bfbfbf" points="398.5,-6 398.5,-25 515.5,-25 515.5,-6 398.5,-6"/>
<text text-anchor="middle" x="457" y="-13" font-family="FreeSans" font-size="10.00">boost/bimap/list_of.hpp</text>
</g>
<!-- Node0&#45;&gt;Node4 -->
<g id="edge4" class="edge"><title>Node0&#45;&gt;Node4</title>
<path fill="none" stroke="midnightblue" d="M1071.76,-78.6572C956.399,-73.3865 721.772,-59.8966 525,-31 517.775,-29.9389 510.166,-28.5695 502.76,-27.0968"/>
<polygon fill="midnightblue" stroke="midnightblue" points="503.342,-23.6432 492.84,-25.0438 501.923,-30.4979 503.342,-23.6432"/>
</g>
<!-- Node5 -->
<g id="node6" class="node"><title>Node5</title>
<polygon fill="white" stroke="#bfbfbf" points="534,-0.5 534,-30.5 650,-30.5 650,-0.5 534,-0.5"/>
<text text-anchor="start" x="542" y="-18.5" font-family="FreeSans" font-size="10.00">boost/bimap/unordered</text>
<text text-anchor="middle" x="592" y="-7.5" font-family="FreeSans" font-size="10.00">_multiset_of.hpp</text>
</g>
<!-- Node0&#45;&gt;Node5 -->
<g id="edge5" class="edge"><title>Node0&#45;&gt;Node5</title>
<path fill="none" stroke="midnightblue" d="M1071.74,-76.5121C979.1,-69.4816 812.151,-54.9509 660.029,-31.0524"/>
<polygon fill="midnightblue" stroke="midnightblue" points="660.457,-27.5766 650.031,-29.4647 659.359,-34.4899 660.457,-27.5766"/>
</g>
<!-- Node6 -->
<g id="node7" class="node"><title>Node6</title>
<polygon fill="white" stroke="#bfbfbf" points="668,-0.5 668,-30.5 782,-30.5 782,-0.5 668,-0.5"/>
<text text-anchor="start" x="676" y="-18.5" font-family="FreeSans" font-size="10.00">boost/graph/adjacency</text>
<text text-anchor="middle" x="725" y="-7.5" font-family="FreeSans" font-size="10.00">_list.hpp</text>
</g>
<!-- Node0&#45;&gt;Node6 -->
<g id="edge6" class="edge"><title>Node0&#45;&gt;Node6</title>
<path fill="none" stroke="midnightblue" d="M1071.96,-72.8719C1002.92,-64.1306 894.9,-49.5176 792.115,-31.1256"/>
<polygon fill="midnightblue" stroke="midnightblue" points="792.648,-27.6654 782.185,-29.334 791.405,-34.5541 792.648,-27.6654"/>
</g>
<!-- Node7 -->
<g id="node8" class="node"><title>Node7</title>
<polygon fill="white" stroke="#bfbfbf" points="800,-6 800,-25 940,-25 940,-6 800,-6"/>
<text text-anchor="middle" x="870" y="-13" font-family="FreeSans" font-size="10.00">boost/graph/graph_traits.hpp</text>
</g>
<!-- Node0&#45;&gt;Node7 -->
<g id="edge7" class="edge"><title>Node0&#45;&gt;Node7</title>
<path fill="none" stroke="midnightblue" d="M1084.1,-67.476C1033.57,-55.4457 961.803,-38.3579 915.567,-27.3493"/>
<polygon fill="midnightblue" stroke="midnightblue" points="916.359,-23.9401 905.82,-25.0287 914.738,-30.7498 916.359,-23.9401"/>
</g>
<!-- Node8 -->
<g id="node9" class="node"><title>Node8</title>
<polygon fill="white" stroke="#bfbfbf" points="958,-0.5 958,-30.5 1074,-30.5 1074,-0.5 958,-0.5"/>
<text text-anchor="start" x="966" y="-18.5" font-family="FreeSans" font-size="10.00">boost/graph/connected</text>
<text text-anchor="middle" x="1016" y="-7.5" font-family="FreeSans" font-size="10.00">_components.hpp</text>
</g>
<!-- Node0&#45;&gt;Node8 -->
<g id="edge8" class="edge"><title>Node0&#45;&gt;Node8</title>
<path fill="none" stroke="midnightblue" d="M1115.44,-67.396C1097.05,-57.9839 1072.67,-45.5026 1052.65,-35.2557"/>
<polygon fill="midnightblue" stroke="midnightblue" points="1054,-32.017 1043.5,-30.5765 1050.81,-38.2483 1054,-32.017"/>
</g>
<!-- Node9 -->
<g id="node10" class="node"><title>Node9</title>
<polygon fill="white" stroke="#bfbfbf" points="1092,-0.5 1092,-30.5 1194,-30.5 1194,-0.5 1092,-0.5"/>
<text text-anchor="start" x="1100" y="-18.5" font-family="FreeSans" font-size="10.00">boost/property_map</text>
<text text-anchor="middle" x="1143" y="-7.5" font-family="FreeSans" font-size="10.00">/property_map.hpp</text>
</g>
<!-- Node0&#45;&gt;Node9 -->
<g id="edge9" class="edge"><title>Node0&#45;&gt;Node9</title>
<path fill="none" stroke="midnightblue" d="M1143,-67.396C1143,-59.6448 1143,-49.8122 1143,-40.8601"/>
<polygon fill="midnightblue" stroke="midnightblue" points="1146.5,-40.5765 1143,-30.5765 1139.5,-40.5765 1146.5,-40.5765"/>
</g>
<!-- Node10 -->
<g id="node11" class="node"><title>Node10</title>
<polygon fill="white" stroke="#bfbfbf" points="1212,-6 1212,-25 1256,-25 1256,-6 1212,-6"/>
<text text-anchor="middle" x="1234" y="-13" font-family="FreeSans" font-size="10.00">vector</text>
</g>
<!-- Node0&#45;&gt;Node10 -->
<g id="edge10" class="edge"><title>Node0&#45;&gt;Node10</title>
<path fill="none" stroke="midnightblue" d="M1162.75,-67.396C1177.86,-56.5966 1198.64,-41.7564 1213.86,-30.8872"/>
<polygon fill="midnightblue" stroke="midnightblue" points="1215.99,-33.6675 1222.09,-25.007 1211.92,-27.9714 1215.99,-33.6675"/>
</g>
<!-- Node11 -->
<g id="node12" class="node"><title>Node11</title>
<polygon fill="white" stroke="#bfbfbf" points="1274.5,-6 1274.5,-25 1309.5,-25 1309.5,-6 1274.5,-6"/>
<text text-anchor="middle" x="1292" y="-13" font-family="FreeSans" font-size="10.00">map</text>
</g>
<!-- Node0&#45;&gt;Node11 -->
<g id="edge11" class="edge"><title>Node0&#45;&gt;Node11</title>
<path fill="none" stroke="midnightblue" d="M1179.72,-67.4166C1204.16,-57.7715 1236.83,-44.3537 1265,-31 1265.84,-30.6012 1266.69,-30.1891 1267.55,-29.7675"/>
<polygon fill="midnightblue" stroke="midnightblue" points="1269.43,-32.7395 1276.72,-25.0517 1266.22,-26.5153 1269.43,-32.7395"/>
</g>
<!-- Node12 -->
<g id="node13" class="node"><title>Node12</title>
<polygon fill="white" stroke="#bfbfbf" points="1328,-6 1328,-25 1358,-25 1358,-6 1328,-6"/>
<text text-anchor="middle" x="1343" y="-13" font-family="FreeSans" font-size="10.00">set</text>
</g>
<!-- Node0&#45;&gt;Node12 -->
<g id="edge12" class="edge"><title>Node0&#45;&gt;Node12</title>
<path fill="none" stroke="midnightblue" d="M1207.14,-67.4336C1241.13,-58.9064 1283.16,-46.6376 1319,-31 1319.7,-30.6934 1320.41,-30.3696 1321.12,-30.0319"/>
<polygon fill="midnightblue" stroke="midnightblue" points="1323.02,-32.9808 1330.13,-25.1263 1319.68,-26.8324 1323.02,-32.9808"/>
</g>
<!-- Node13 -->
<g id="node14" class="node"><title>Node13</title>
<polygon fill="white" stroke="#bfbfbf" points="1376,-6 1376,-25 1414,-25 1414,-6 1376,-6"/>
<text text-anchor="middle" x="1395" y="-13" font-family="FreeSans" font-size="10.00">tuple</text>
</g>
<!-- Node0&#45;&gt;Node13 -->
<g id="edge13" class="edge"><title>Node0&#45;&gt;Node13</title>
<path fill="none" stroke="midnightblue" d="M1214.2,-70.2659C1258.9,-62.0421 1317.28,-49.1357 1367,-31 1368.24,-30.5462 1369.5,-30.0488 1370.76,-29.5199"/>
<polygon fill="midnightblue" stroke="midnightblue" points="1372.66,-32.4934 1380.21,-25.0559 1369.67,-26.1646 1372.66,-32.4934"/>
</g>
<!-- Node14 -->
<g id="node15" class="node"><title>Node14</title>
<polygon fill="white" stroke="#bfbfbf" points="1432.5,-6 1432.5,-25 1481.5,-25 1481.5,-6 1432.5,-6"/>
<text text-anchor="middle" x="1457" y="-13" font-family="FreeSans" font-size="10.00">cstddef</text>
</g>
<!-- Node0&#45;&gt;Node14 -->
<g id="edge14" class="edge"><title>Node0&#45;&gt;Node14</title>
<path fill="none" stroke="midnightblue" d="M1214.22,-73.1527C1271.44,-65.3786 1353.44,-51.8174 1423,-31 1425.15,-30.3572 1427.34,-29.6198 1429.53,-28.8256"/>
<polygon fill="midnightblue" stroke="midnightblue" points="1430.92,-32.0389 1438.93,-25.0971 1428.34,-25.5324 1430.92,-32.0389"/>
</g>
<!-- Node15 -->
<g id="node16" class="node"><title>Node15</title>
<polygon fill="white" stroke="#bfbfbf" points="1500,-6 1500,-25 1562,-25 1562,-6 1500,-6"/>
<text text-anchor="middle" x="1531" y="-13" font-family="FreeSans" font-size="10.00">type_traits</text>
</g>
<!-- Node0&#45;&gt;Node15 -->
<g id="edge15" class="edge"><title>Node0&#45;&gt;Node15</title>
<path fill="none" stroke="midnightblue" d="M1214.14,-75.4556C1285.06,-68.4333 1396.7,-54.6701 1491,-31 1493.98,-30.2509 1497.06,-29.3616 1500.11,-28.3976"/>
<polygon fill="midnightblue" stroke="midnightblue" points="1501.32,-31.6817 1509.66,-25.1442 1499.07,-25.0555 1501.32,-31.6817"/>
</g>
<!-- Node16 -->
<g id="node17" class="node"><title>Node16</title>
<polygon fill="white" stroke="#bfbfbf" points="1580.5,-6 1580.5,-25 1627.5,-25 1627.5,-6 1580.5,-6"/>
<text text-anchor="middle" x="1604" y="-13" font-family="FreeSans" font-size="10.00">iterator</text>
</g>
<!-- Node0&#45;&gt;Node16 -->
<g id="edge16" class="edge"><title>Node0&#45;&gt;Node16</title>
<path fill="none" stroke="midnightblue" d="M1214.28,-79.5236C1300.24,-75.6784 1448.45,-64.3534 1571,-31 1573.29,-30.376 1575.63,-29.6182 1577.95,-28.7799"/>
<polygon fill="midnightblue" stroke="midnightblue" points="1579.27,-32.021 1587.22,-25.018 1576.64,-25.5346 1579.27,-32.021"/>
</g>
<!-- Node17 -->
<g id="node18" class="node"><title>Node17</title>
<polygon fill="white" stroke="#bfbfbf" points="1645.5,-6 1645.5,-25 1684.5,-25 1684.5,-6 1645.5,-6"/>
<text text-anchor="middle" x="1665" y="-13" font-family="FreeSans" font-size="10.00">utility</text>
</g>
<!-- Node0&#45;&gt;Node17 -->
<g id="edge17" class="edge"><title>Node0&#45;&gt;Node17</title>
<path fill="none" stroke="midnightblue" d="M1214.01,-77.5212C1331.16,-70.4088 1559.65,-54.0692 1637,-31 1638.48,-30.56 1639.96,-30.0416 1641.45,-29.4674"/>
<polygon fill="midnightblue" stroke="midnightblue" points="1643.29,-32.4726 1650.9,-25.1074 1640.36,-26.1156 1643.29,-32.4726"/>
</g>
</g>
</svg>
