<?xml version="1.0" encoding="UTF-8" standalone="no"?>
<!DOCTYPE svg PUBLIC "-//W3C//DTD SVG 1.1//EN"
 "http://www.w3.org/Graphics/SVG/1.1/DTD/svg11.dtd">
<!-- Generated by graphviz version 2.38.0 (20140413.2041)
 -->
<!-- Title: src/Tracker Pages: 1 -->
<svg width="1116pt" height="871pt"
 viewBox="0.00 0.00 1116.00 871.00" xmlns="http://www.w3.org/2000/svg" xmlns:xlink="http://www.w3.org/1999/xlink">
<g id="graph0" class="graph" transform="scale(1 1) rotate(0) translate(4 867)">
<title>src/Tracker</title>
<polygon fill="white" stroke="none" points="-4,4 -4,-867 1112,-867 1112,4 -4,4"/>
<g id="clust1" class="cluster"><title>clusterdir_68267d1309a1af8e8297ef4c3efbcdba</title>
<g id="a_clust1"><a xlink:href="dir_68267d1309a1af8e8297ef4c3efbcdba.html" target="_top" xlink:title="src">
<polygon fill="#ddddee" stroke="black" points="507,-784 507,-855 577,-855 577,-784 507,-784"/>
<text text-anchor="middle" x="542" y="-843" font-family="FreeSans" font-size="10.00">src</text>
</a>
</g>
</g>
<!-- dir_ac45476375b1d428f8e24ecea133bb1a -->
<g id="node1" class="node"><title>dir_ac45476375b1d428f8e24ecea133bb1a</title>
<g id="a_node1"><a xlink:href="dir_ac45476375b1d428f8e24ecea133bb1a.html" target="_top" xlink:title="Tracker">
<polygon fill="#eeeeff" stroke="black" points="569,-828 515,-828 515,-792 569,-792 569,-828"/>
<text text-anchor="middle" x="542" y="-807.5" font-family="FreeSans" font-size="10.00">Tracker</text>
</a>
</g>
</g>
<!-- dir_e0d2bc97ae6ba2c0be7d7b3f5f0a6d76 -->
<g id="node2" class="node"><title>dir_e0d2bc97ae6ba2c0be7d7b3f5f0a6d76</title>
<g id="a_node2"><a xlink:href="dir_e0d2bc97ae6ba2c0be7d7b3f5f0a6d76.html" target="_top" xlink:title="Metrics">
<polygon fill="none" stroke="black" points="578,-540 524,-540 524,-504 578,-504 578,-540"/>
<text text-anchor="middle" x="551" y="-519.5" font-family="FreeSans" font-size="10.00">Metrics</text>
</a>
</g>
</g>
<!-- dir_ac45476375b1d428f8e24ecea133bb1a&#45;&gt;dir_e0d2bc97ae6ba2c0be7d7b3f5f0a6d76 -->
<g id="edge50" class="edge"><title>dir_ac45476375b1d428f8e24ecea133bb1a&#45;&gt;dir_e0d2bc97ae6ba2c0be7d7b3f5f0a6d76</title>
<path fill="none" stroke="black" d="M521.069,-791.836C489.081,-763.379 433.665,-704.001 453,-648 466.968,-607.545 500.02,-570.198 523.882,-547.061"/>
<polygon fill="black" stroke="black" points="526.417,-549.48 531.27,-540.062 521.603,-544.398 526.417,-549.48"/>
<g id="a_edge50&#45;headlabel"><a xlink:href="dir_000021_000012.html" target="_top" xlink:title="5">
<text text-anchor="middle" x="525.76" y="-551.513" font-family="FreeSans" font-size="10.00">5</text>
</a>
</g>
</g>
<!-- dir_cae27912e177176a90175eee3a6288a5 -->
<g id="node3" class="node"><title>dir_cae27912e177176a90175eee3a6288a5</title>
<g id="a_node3"><a xlink:href="dir_cae27912e177176a90175eee3a6288a5.html" target="_top" xlink:title="Geometry">
<polygon fill="none" stroke="black" points="638.5,-468 579.5,-468 579.5,-432 638.5,-432 638.5,-468"/>
<text text-anchor="middle" x="609" y="-447.5" font-family="FreeSans" font-size="10.00">Geometry</text>
</a>
</g>
</g>
<!-- dir_ac45476375b1d428f8e24ecea133bb1a&#45;&gt;dir_cae27912e177176a90175eee3a6288a5 -->
<g id="edge51" class="edge"><title>dir_ac45476375b1d428f8e24ecea133bb1a&#45;&gt;dir_cae27912e177176a90175eee3a6288a5</title>
<path fill="none" stroke="black" d="M569.108,-805.246C615.731,-798.175 707.946,-781.279 727,-756 795.239,-665.467 685.234,-530.604 633.529,-475.645"/>
<polygon fill="black" stroke="black" points="635.79,-472.945 626.352,-468.131 630.728,-477.78 635.79,-472.945"/>
<g id="a_edge51&#45;headlabel"><a xlink:href="dir_000021_000006.html" target="_top" xlink:title="1">
<text text-anchor="middle" x="640.326" y="-471.083" font-family="FreeSans" font-size="10.00">1</text>
</a>
</g>
</g>
<!-- dir_75f6482e763353de447ca2313cbb4777 -->
<g id="node4" class="node"><title>dir_75f6482e763353de447ca2313cbb4777</title>
<g id="a_node4"><a xlink:href="dir_75f6482e763353de447ca2313cbb4777.html" target="_top" xlink:title="GeometryEstimationPipeline">
<polygon fill="none" stroke="black" points="718.5,-756 579.5,-756 579.5,-720 718.5,-720 718.5,-756"/>
<text text-anchor="middle" x="649" y="-735.5" font-family="FreeSans" font-size="10.00">GeometryEstimationPipeline</text>
</a>
</g>
</g>
<!-- dir_ac45476375b1d428f8e24ecea133bb1a&#45;&gt;dir_75f6482e763353de447ca2313cbb4777 -->
<g id="edge52" class="edge"><title>dir_ac45476375b1d428f8e24ecea133bb1a&#45;&gt;dir_75f6482e763353de447ca2313cbb4777</title>
<path fill="none" stroke="black" d="M568.175,-791.876C582.036,-782.808 599.241,-771.552 614.211,-761.759"/>
<polygon fill="black" stroke="black" points="616.272,-764.593 622.724,-756.19 612.44,-758.735 616.272,-764.593"/>
<g id="a_edge52&#45;headlabel"><a xlink:href="dir_000021_000008.html" target="_top" xlink:title="1">
<text text-anchor="middle" x="614.818" y="-766.437" font-family="FreeSans" font-size="10.00">1</text>
</a>
</g>
</g>
<!-- dir_ddb59aa59671a931e79702d1ef7b5a63 -->
<g id="node5" class="node"><title>dir_ddb59aa59671a931e79702d1ef7b5a63</title>
<g id="a_node5"><a xlink:href="dir_ddb59aa59671a931e79702d1ef7b5a63.html" target="_top" xlink:title="RANSAC">
<polygon fill="none" stroke="black" points="209,-612 151,-612 151,-576 209,-576 209,-612"/>
<text text-anchor="middle" x="180" y="-591.5" font-family="FreeSans" font-size="10.00">RANSAC</text>
</a>
</g>
</g>
<!-- dir_ac45476375b1d428f8e24ecea133bb1a&#45;&gt;dir_ddb59aa59671a931e79702d1ef7b5a63 -->
<g id="edge53" class="edge"><title>dir_ac45476375b1d428f8e24ecea133bb1a&#45;&gt;dir_ddb59aa59671a931e79702d1ef7b5a63</title>
<path fill="none" stroke="black" d="M514.895,-808.163C445.844,-805.477 265.758,-794.825 223,-756 185.343,-721.807 179.128,-658.644 178.93,-622.429"/>
<polygon fill="black" stroke="black" points="182.433,-622.152 179.033,-612.117 175.433,-622.081 182.433,-622.152"/>
<g id="a_edge53&#45;headlabel"><a xlink:href="dir_000021_000017.html" target="_top" xlink:title="1">
<text text-anchor="middle" x="185.236" y="-623.274" font-family="FreeSans" font-size="10.00">1</text>
</a>
</g>
</g>
<!-- dir_83ea444455da359b712855cae452bf53 -->
<g id="node6" class="node"><title>dir_83ea444455da359b712855cae452bf53</title>
<g id="a_node6"><a xlink:href="dir_83ea444455da359b712855cae452bf53.html" target="_top" xlink:title="Modified">
<polygon fill="none" stroke="black" points="394,-36 340,-36 340,-0 394,-0 394,-36"/>
<text text-anchor="middle" x="367" y="-15.5" font-family="FreeSans" font-size="10.00">Modified</text>
</a>
</g>
</g>
<!-- dir_ac45476375b1d428f8e24ecea133bb1a&#45;&gt;dir_83ea444455da359b712855cae452bf53 -->
<g id="edge54" class="edge"><title>dir_ac45476375b1d428f8e24ecea133bb1a&#45;&gt;dir_83ea444455da359b712855cae452bf53</title>
<path fill="none" stroke="black" d="M514.836,-808.439C427.457,-806.243 154.853,-796.25 78,-756 31.4066,-731.598 0,-719.597 0,-667 0,-667 0,-667 0,-161 0,-115.188 14.3026,-98.0321 52,-72 96.4726,-41.2893 255.831,-26.6195 329.35,-21.3672"/>
<polygon fill="black" stroke="black" points="329.816,-24.8433 339.55,-20.6598 329.332,-17.8601 329.816,-24.8433"/>
<g id="a_edge54&#45;headlabel"><a xlink:href="dir_000021_000013.html" target="_top" xlink:title="1">
<text text-anchor="middle" x="326.426" y="-25.4244" font-family="FreeSans" font-size="10.00">1</text>
</a>
</g>
</g>
<!-- dir_5dca165297606754778d37949ebe52ac -->
<g id="node7" class="node"><title>dir_5dca165297606754778d37949ebe52ac</title>
<g id="a_node7"><a xlink:href="dir_5dca165297606754778d37949ebe52ac.html" target="_top" xlink:title="GeometryEstimationComponents">
<polygon fill="none" stroke="black" points="621.5,-684 462.5,-684 462.5,-648 621.5,-648 621.5,-684"/>
<text text-anchor="middle" x="542" y="-663.5" font-family="FreeSans" font-size="10.00">GeometryEstimationComponents</text>
</a>
</g>
</g>
<!-- dir_ac45476375b1d428f8e24ecea133bb1a&#45;&gt;dir_5dca165297606754778d37949ebe52ac -->
<g id="edge55" class="edge"><title>dir_ac45476375b1d428f8e24ecea133bb1a&#45;&gt;dir_5dca165297606754778d37949ebe52ac</title>
<path fill="none" stroke="black" d="M542,-791.871C542,-767.67 542,-723.211 542,-694.393"/>
<polygon fill="black" stroke="black" points="545.5,-694.189 542,-684.189 538.5,-694.189 545.5,-694.189"/>
<g id="a_edge55&#45;headlabel"><a xlink:href="dir_000021_000007.html" target="_top" xlink:title="1">
<text text-anchor="middle" x="548.339" y="-695.284" font-family="FreeSans" font-size="10.00">1</text>
</a>
</g>
</g>
<!-- dir_f2a5f3e0ee72e9f772347deaa8f421f3 -->
<g id="node8" class="node"><title>dir_f2a5f3e0ee72e9f772347deaa8f421f3</title>
<g id="a_node8"><a xlink:href="dir_f2a5f3e0ee72e9f772347deaa8f421f3.html" target="_top" xlink:title="StateEstimation">
<polygon fill="none" stroke="black" points="626,-396 540,-396 540,-360 626,-360 626,-396"/>
<text text-anchor="middle" x="583" y="-375.5" font-family="FreeSans" font-size="10.00">StateEstimation</text>
</a>
</g>
</g>
<!-- dir_ac45476375b1d428f8e24ecea133bb1a&#45;&gt;dir_f2a5f3e0ee72e9f772347deaa8f421f3 -->
<g id="edge56" class="edge"><title>dir_ac45476375b1d428f8e24ecea133bb1a&#45;&gt;dir_f2a5f3e0ee72e9f772347deaa8f421f3</title>
<path fill="none" stroke="black" d="M569.235,-805.821C619.979,-799.317 726.028,-782.805 750,-756 771.536,-731.918 757.772,-716.23 760,-684 768.463,-561.547 727.366,-524.777 647,-432 637.742,-421.312 626.191,-411.039 615.461,-402.43"/>
<polygon fill="black" stroke="black" points="617.503,-399.584 607.466,-396.192 613.197,-405.103 617.503,-399.584"/>
<g id="a_edge56&#45;headlabel"><a xlink:href="dir_000021_000019.html" target="_top" xlink:title="3">
<text text-anchor="middle" x="622.084" y="-397.057" font-family="FreeSans" font-size="10.00">3</text>
</a>
</g>
</g>
<!-- dir_99f3ff5adf40c6d046948cabb10e8620 -->
<g id="node9" class="node"><title>dir_99f3ff5adf40c6d046948cabb10e8620</title>
<g id="a_node9"><a xlink:href="dir_99f3ff5adf40c6d046948cabb10e8620.html" target="_top" xlink:title="Wrappers">
<polygon fill="none" stroke="black" points="781,-108 723,-108 723,-72 781,-72 781,-108"/>
<text text-anchor="middle" x="752" y="-87.5" font-family="FreeSans" font-size="10.00">Wrappers</text>
</a>
</g>
</g>
<!-- dir_ac45476375b1d428f8e24ecea133bb1a&#45;&gt;dir_99f3ff5adf40c6d046948cabb10e8620 -->
<g id="edge57" class="edge"><title>dir_ac45476375b1d428f8e24ecea133bb1a&#45;&gt;dir_99f3ff5adf40c6d046948cabb10e8620</title>
<path fill="none" stroke="black" d="M569.276,-807.624C677.395,-801.44 1070,-771.772 1070,-667 1070,-667 1070,-667 1070,-233 1070,-112.128 876.079,-93.4418 791.105,-91.0558"/>
<polygon fill="black" stroke="black" points="791.138,-87.5557 781.063,-90.8361 790.984,-94.5541 791.138,-87.5557"/>
<g id="a_edge57&#45;headlabel"><a xlink:href="dir_000021_000024.html" target="_top" xlink:title="10">
<text text-anchor="middle" x="794.793" y="-82.2957" font-family="FreeSans" font-size="10.00">10</text>
</a>
</g>
</g>
<!-- dir_9dc015ad45d84aaa4f662cfaebce3286 -->
<g id="node10" class="node"><title>dir_9dc015ad45d84aaa4f662cfaebce3286</title>
<g id="a_node10"><a xlink:href="dir_9dc015ad45d84aaa4f662cfaebce3286.html" target="_top" xlink:title="Numeric">
<polygon fill="none" stroke="black" points="473,-180 419,-180 419,-144 473,-144 473,-180"/>
<text text-anchor="middle" x="446" y="-159.5" font-family="FreeSans" font-size="10.00">Numeric</text>
</a>
</g>
</g>
<!-- dir_ac45476375b1d428f8e24ecea133bb1a&#45;&gt;dir_9dc015ad45d84aaa4f662cfaebce3286 -->
<g id="edge58" class="edge"><title>dir_ac45476375b1d428f8e24ecea133bb1a&#45;&gt;dir_9dc015ad45d84aaa4f662cfaebce3286</title>
<path fill="none" stroke="black" d="M514.903,-807.298C410.217,-799.995 38,-766.997 38,-667 38,-667 38,-667 38,-593 38,-418.207 19.7016,-332.512 150,-216 187.664,-182.321 337.595,-169.272 408.488,-164.91"/>
<polygon fill="black" stroke="black" points="408.979,-168.387 418.755,-164.305 408.567,-161.399 408.979,-168.387"/>
<g id="a_edge58&#45;headlabel"><a xlink:href="dir_000021_000014.html" target="_top" xlink:title="2">
<text text-anchor="middle" x="405.557" y="-168.933" font-family="FreeSans" font-size="10.00">2</text>
</a>
</g>
</g>
<!-- dir_b8f4473302bc85bc90141e5ae078c276 -->
<g id="node11" class="node"><title>dir_b8f4473302bc85bc90141e5ae078c276</title>
<g id="a_node11"><a xlink:href="dir_b8f4473302bc85bc90141e5ae078c276.html" target="_top" xlink:title="Matcher">
<polygon fill="none" stroke="black" points="779,-324 725,-324 725,-288 779,-288 779,-324"/>
<text text-anchor="middle" x="752" y="-303.5" font-family="FreeSans" font-size="10.00">Matcher</text>
</a>
</g>
</g>
<!-- dir_ac45476375b1d428f8e24ecea133bb1a&#45;&gt;dir_b8f4473302bc85bc90141e5ae078c276 -->
<g id="edge59" class="edge"><title>dir_ac45476375b1d428f8e24ecea133bb1a&#45;&gt;dir_b8f4473302bc85bc90141e5ae078c276</title>
<path fill="none" stroke="black" d="M569.257,-806.435C666.98,-796.498 994,-756.554 994,-667 994,-667 994,-667 994,-593 994,-466.948 855.312,-367.842 787.918,-327.123"/>
<polygon fill="black" stroke="black" points="789.674,-324.096 779.29,-321.995 786.098,-330.113 789.674,-324.096"/>
<g id="a_edge59&#45;headlabel"><a xlink:href="dir_000021_000011.html" target="_top" xlink:title="5">
<text text-anchor="middle" x="794.215" y="-320.992" font-family="FreeSans" font-size="10.00">5</text>
</a>
</g>
</g>
<!-- dir_90619d4fa850912973c72b599be770d2 -->
<g id="node12" class="node"><title>dir_90619d4fa850912973c72b599be770d2</title>
<g id="a_node12"><a xlink:href="dir_90619d4fa850912973c72b599be770d2.html" target="_top" xlink:title="Elements">
<polygon fill="none" stroke="black" points="474.5,-252 417.5,-252 417.5,-216 474.5,-216 474.5,-252"/>
<text text-anchor="middle" x="446" y="-231.5" font-family="FreeSans" font-size="10.00">Elements</text>
</a>
</g>
</g>
<!-- dir_ac45476375b1d428f8e24ecea133bb1a&#45;&gt;dir_90619d4fa850912973c72b599be770d2 -->
<g id="edge60" class="edge"><title>dir_ac45476375b1d428f8e24ecea133bb1a&#45;&gt;dir_90619d4fa850912973c72b599be770d2</title>
<path fill="none" stroke="black" d="M514.804,-796.773C497.019,-787.646 474.326,-773.713 459,-756 327.031,-603.472 340.677,-524.631 320,-324 318.36,-308.084 311.147,-301.328 320,-288 330.174,-272.683 374.202,-256.489 407.37,-246.092"/>
<polygon fill="black" stroke="black" points="408.73,-249.336 417.265,-243.059 406.678,-242.643 408.73,-249.336"/>
<g id="a_edge60&#45;headlabel"><a xlink:href="dir_000021_000005.html" target="_top" xlink:title="14">
<text text-anchor="middle" x="406.125" y="-250.604" font-family="FreeSans" font-size="10.00">14</text>
</a>
</g>
</g>
<!-- dir_e0d2bc97ae6ba2c0be7d7b3f5f0a6d76&#45;&gt;dir_cae27912e177176a90175eee3a6288a5 -->
<g id="edge1" class="edge"><title>dir_e0d2bc97ae6ba2c0be7d7b3f5f0a6d76&#45;&gt;dir_cae27912e177176a90175eee3a6288a5</title>
<path fill="none" stroke="black" d="M559.421,-503.697C565.571,-495.22 573.964,-484.864 582.155,-475.583"/>
<polygon fill="black" stroke="black" points="584.81,-477.864 588.933,-468.104 579.624,-473.163 584.81,-477.864"/>
<g id="a_edge1&#45;headlabel"><a xlink:href="dir_000012_000006.html" target="_top" xlink:title="1">
<text text-anchor="middle" x="584.5" y="-479.934" font-family="FreeSans" font-size="10.00">1</text>
</a>
</g>
</g>
<!-- dir_e0d2bc97ae6ba2c0be7d7b3f5f0a6d76&#45;&gt;dir_99f3ff5adf40c6d046948cabb10e8620 -->
<g id="edge2" class="edge"><title>dir_e0d2bc97ae6ba2c0be7d7b3f5f0a6d76&#45;&gt;dir_99f3ff5adf40c6d046948cabb10e8620</title>
<path fill="none" stroke="black" d="M578.202,-519.494C669.008,-512.869 956,-478.376 956,-307 956,-307 956,-307 956,-233 956,-153.455 850.228,-114.839 791.009,-99.4527"/>
<polygon fill="black" stroke="black" points="791.778,-96.0374 781.228,-97.0121 790.083,-102.829 791.778,-96.0374"/>
<g id="a_edge2&#45;headlabel"><a xlink:href="dir_000012_000024.html" target="_top" xlink:title="7">
<text text-anchor="middle" x="795.953" y="-91.6528" font-family="FreeSans" font-size="10.00">7</text>
</a>
</g>
</g>
<!-- dir_e0d2bc97ae6ba2c0be7d7b3f5f0a6d76&#45;&gt;dir_9dc015ad45d84aaa4f662cfaebce3286 -->
<g id="edge3" class="edge"><title>dir_e0d2bc97ae6ba2c0be7d7b3f5f0a6d76&#45;&gt;dir_9dc015ad45d84aaa4f662cfaebce3286</title>
<path fill="none" stroke="black" d="M523.905,-512.573C475.687,-495.697 380,-452.898 380,-379 380,-379 380,-379 380,-305 380,-263.533 389.464,-253.093 408,-216 412.783,-206.429 419.212,-196.702 425.422,-188.239"/>
<polygon fill="black" stroke="black" points="428.228,-190.33 431.488,-180.249 422.653,-186.097 428.228,-190.33"/>
<g id="a_edge3&#45;headlabel"><a xlink:href="dir_000012_000014.html" target="_top" xlink:title="4">
<text text-anchor="middle" x="428.316" y="-192.41" font-family="FreeSans" font-size="10.00">4</text>
</a>
</g>
</g>
<!-- dir_e0d2bc97ae6ba2c0be7d7b3f5f0a6d76&#45;&gt;dir_90619d4fa850912973c72b599be770d2 -->
<g id="edge4" class="edge"><title>dir_e0d2bc97ae6ba2c0be7d7b3f5f0a6d76&#45;&gt;dir_90619d4fa850912973c72b599be770d2</title>
<path fill="none" stroke="black" d="M537.722,-503.669C520.355,-480.313 489.916,-436.929 471,-396 456.962,-365.627 454.5,-357.005 449,-324 445.591,-303.541 444.931,-280.084 445.075,-262.389"/>
<polygon fill="black" stroke="black" points="448.578,-262.253 445.251,-252.194 441.579,-262.132 448.578,-262.253"/>
<g id="a_edge4&#45;headlabel"><a xlink:href="dir_000012_000005.html" target="_top" xlink:title="14">
<text text-anchor="middle" x="451.355" y="-263.396" font-family="FreeSans" font-size="10.00">14</text>
</a>
</g>
</g>
<!-- dir_cae27912e177176a90175eee3a6288a5&#45;&gt;dir_e0d2bc97ae6ba2c0be7d7b3f5f0a6d76 -->
<g id="edge5" class="edge"><title>dir_cae27912e177176a90175eee3a6288a5&#45;&gt;dir_e0d2bc97ae6ba2c0be7d7b3f5f0a6d76</title>
<path fill="none" stroke="black" d="M600.723,-468.104C594.609,-476.552 586.231,-486.901 578.038,-496.199"/>
<polygon fill="black" stroke="black" points="575.368,-493.934 571.253,-503.697 580.558,-498.631 575.368,-493.934"/>
<g id="a_edge5&#45;headlabel"><a xlink:href="dir_000006_000012.html" target="_top" xlink:title="20">
<text text-anchor="middle" x="575.674" y="-486.863" font-family="FreeSans" font-size="10.00">20</text>
</a>
</g>
</g>
<!-- dir_cae27912e177176a90175eee3a6288a5&#45;&gt;dir_f2a5f3e0ee72e9f772347deaa8f421f3 -->
<g id="edge6" class="edge"><title>dir_cae27912e177176a90175eee3a6288a5&#45;&gt;dir_f2a5f3e0ee72e9f772347deaa8f421f3</title>
<path fill="none" stroke="black" d="M596.657,-431.697C592.956,-423.898 589.246,-414.509 586.381,-405.829"/>
<polygon fill="black" stroke="black" points="589.689,-404.673 583.458,-396.104 582.985,-406.689 589.689,-404.673"/>
<g id="a_edge6&#45;headlabel"><a xlink:href="dir_000006_000019.html" target="_top" xlink:title="2">
<text text-anchor="middle" x="593.443" y="-404.799" font-family="FreeSans" font-size="10.00">2</text>
</a>
</g>
</g>
<!-- dir_cae27912e177176a90175eee3a6288a5&#45;&gt;dir_99f3ff5adf40c6d046948cabb10e8620 -->
<g id="edge7" class="edge"><title>dir_cae27912e177176a90175eee3a6288a5&#45;&gt;dir_99f3ff5adf40c6d046948cabb10e8620</title>
<path fill="none" stroke="black" d="M638.67,-438.235C705.666,-415.01 862,-358.155 862,-307 862,-307 862,-307 862,-233 862,-181.624 815.674,-139.079 783.017,-114.345"/>
<polygon fill="black" stroke="black" points="784.755,-111.277 774.633,-108.148 780.594,-116.906 784.755,-111.277"/>
<g id="a_edge7&#45;headlabel"><a xlink:href="dir_000006_000024.html" target="_top" xlink:title="24">
<text text-anchor="middle" x="789.333" y="-108.631" font-family="FreeSans" font-size="10.00">24</text>
</a>
</g>
</g>
<!-- dir_cae27912e177176a90175eee3a6288a5&#45;&gt;dir_9dc015ad45d84aaa4f662cfaebce3286 -->
<g id="edge8" class="edge"><title>dir_cae27912e177176a90175eee3a6288a5&#45;&gt;dir_9dc015ad45d84aaa4f662cfaebce3286</title>
<path fill="none" stroke="black" d="M579.483,-435.526C562.935,-426.546 543.225,-413.222 531,-396 483.076,-328.484 517.893,-291.084 483,-216 478.577,-206.483 472.449,-196.847 466.45,-188.449"/>
<polygon fill="black" stroke="black" points="469.097,-186.142 460.324,-180.201 463.477,-190.316 469.097,-186.142"/>
<g id="a_edge8&#45;headlabel"><a xlink:href="dir_000006_000014.html" target="_top" xlink:title="24">
<text text-anchor="middle" x="473.519" y="-184.834" font-family="FreeSans" font-size="10.00">24</text>
</a>
</g>
</g>
<!-- dir_cae27912e177176a90175eee3a6288a5&#45;&gt;dir_b8f4473302bc85bc90141e5ae078c276 -->
<g id="edge9" class="edge"><title>dir_cae27912e177176a90175eee3a6288a5&#45;&gt;dir_b8f4473302bc85bc90141e5ae078c276</title>
<path fill="none" stroke="black" d="M618.764,-431.744C633.838,-413.67 662.049,-384.551 687,-360 696.884,-350.274 707.939,-339.741 718.195,-330.646"/>
<polygon fill="black" stroke="black" points="720.587,-333.204 725.849,-324.009 716.001,-327.916 720.587,-333.204"/>
<g id="a_edge9&#45;headlabel"><a xlink:href="dir_000006_000011.html" target="_top" xlink:title="2">
<text text-anchor="middle" x="719.731" y="-335.204" font-family="FreeSans" font-size="10.00">2</text>
</a>
</g>
</g>
<!-- dir_cae27912e177176a90175eee3a6288a5&#45;&gt;dir_90619d4fa850912973c72b599be770d2 -->
<g id="edge10" class="edge"><title>dir_cae27912e177176a90175eee3a6288a5&#45;&gt;dir_90619d4fa850912973c72b599be770d2</title>
<path fill="none" stroke="black" d="M579.1,-443.722C551.608,-436.869 512.204,-422.517 489,-396 455.488,-357.703 443.519,-297.504 442.072,-262.587"/>
<polygon fill="black" stroke="black" points="445.568,-262.159 441.958,-252.199 438.568,-262.236 445.568,-262.159"/>
<g id="a_edge10&#45;headlabel"><a xlink:href="dir_000006_000005.html" target="_top" xlink:title="59">
<text text-anchor="middle" x="448.446" y="-263.223" font-family="FreeSans" font-size="10.00">59</text>
</a>
</g>
</g>
<!-- dir_75f6482e763353de447ca2313cbb4777&#45;&gt;dir_e0d2bc97ae6ba2c0be7d7b3f5f0a6d76 -->
<g id="edge11" class="edge"><title>dir_75f6482e763353de447ca2313cbb4777&#45;&gt;dir_e0d2bc97ae6ba2c0be7d7b3f5f0a6d76</title>
<path fill="none" stroke="black" d="M647.147,-719.739C644.764,-701.409 639.719,-671.849 630,-648 614.9,-610.946 588.904,-572.677 570.876,-548.408"/>
<polygon fill="black" stroke="black" points="573.446,-546.003 564.63,-540.128 567.858,-550.219 573.446,-546.003"/>
<g id="a_edge11&#45;headlabel"><a xlink:href="dir_000008_000012.html" target="_top" xlink:title="13">
<text text-anchor="middle" x="577.878" y="-544.663" font-family="FreeSans" font-size="10.00">13</text>
</a>
</g>
</g>
<!-- dir_75f6482e763353de447ca2313cbb4777&#45;&gt;dir_cae27912e177176a90175eee3a6288a5 -->
<g id="edge12" class="edge"><title>dir_75f6482e763353de447ca2313cbb4777&#45;&gt;dir_cae27912e177176a90175eee3a6288a5</title>
<path fill="none" stroke="black" d="M649.406,-719.815C649.631,-709.444 649.887,-695.963 650,-684 650.151,-668.001 651.639,-663.916 650,-648 643.655,-586.378 626.428,-515.601 616.439,-477.92"/>
<polygon fill="black" stroke="black" points="619.803,-476.954 613.828,-468.205 613.043,-478.771 619.803,-476.954"/>
<g id="a_edge12&#45;headlabel"><a xlink:href="dir_000008_000006.html" target="_top" xlink:title="27">
<text text-anchor="middle" x="623.478" y="-477.189" font-family="FreeSans" font-size="10.00">27</text>
</a>
</g>
</g>
<!-- dir_75f6482e763353de447ca2313cbb4777&#45;&gt;dir_ddb59aa59671a931e79702d1ef7b5a63 -->
<g id="edge13" class="edge"><title>dir_75f6482e763353de447ca2313cbb4777&#45;&gt;dir_ddb59aa59671a931e79702d1ef7b5a63</title>
<path fill="none" stroke="black" d="M579.312,-723.171C533.861,-713.571 473.457,-699.716 421,-684 348.403,-662.251 266.006,-630.165 218.8,-611.045"/>
<polygon fill="black" stroke="black" points="219.859,-607.698 209.277,-607.171 217.221,-614.182 219.859,-607.698"/>
<g id="a_edge13&#45;headlabel"><a xlink:href="dir_000008_000017.html" target="_top" xlink:title="20">
<text text-anchor="middle" x="224.259" y="-603.922" font-family="FreeSans" font-size="10.00">20</text>
</a>
</g>
</g>
<!-- dir_75f6482e763353de447ca2313cbb4777&#45;&gt;dir_83ea444455da359b712855cae452bf53 -->
<g id="edge14" class="edge"><title>dir_75f6482e763353de447ca2313cbb4777&#45;&gt;dir_83ea444455da359b712855cae452bf53</title>
<path fill="none" stroke="black" d="M718.712,-726.486C847.116,-702.744 1108,-632.209 1108,-451 1108,-451 1108,-451 1108,-161 1108,-88.5672 554.809,-35.2929 404.374,-22.1446"/>
<polygon fill="black" stroke="black" points="404.516,-18.6439 394.251,-21.2675 403.912,-25.6178 404.516,-18.6439"/>
<g id="a_edge14&#45;headlabel"><a xlink:href="dir_000008_000013.html" target="_top" xlink:title="1">
<text text-anchor="middle" x="408.342" y="-13.6254" font-family="FreeSans" font-size="10.00">1</text>
</a>
</g>
</g>
<!-- dir_75f6482e763353de447ca2313cbb4777&#45;&gt;dir_5dca165297606754778d37949ebe52ac -->
<g id="edge15" class="edge"><title>dir_75f6482e763353de447ca2313cbb4777&#45;&gt;dir_5dca165297606754778d37949ebe52ac</title>
<path fill="none" stroke="black" d="M616.928,-719.876C602.257,-710.893 585.08,-699.763 570.823,-690.034"/>
<polygon fill="black" stroke="black" points="572.587,-686.999 562.372,-684.19 568.606,-692.756 572.587,-686.999"/>
<g id="a_edge15&#45;headlabel"><a xlink:href="dir_000008_000007.html" target="_top" xlink:title="20">
<text text-anchor="middle" x="577.159" y="-684.208" font-family="FreeSans" font-size="10.00">20</text>
</a>
</g>
</g>
<!-- dir_75f6482e763353de447ca2313cbb4777&#45;&gt;dir_99f3ff5adf40c6d046948cabb10e8620 -->
<g id="edge16" class="edge"><title>dir_75f6482e763353de447ca2313cbb4777&#45;&gt;dir_99f3ff5adf40c6d046948cabb10e8620</title>
<path fill="none" stroke="black" d="M706.459,-719.952C732.069,-711.108 762.025,-698.992 787,-684 936.078,-594.513 1032,-552.874 1032,-379 1032,-379 1032,-379 1032,-233 1032,-126.414 868.618,-99.8071 791.461,-93.1846"/>
<polygon fill="black" stroke="black" points="791.416,-89.6704 781.173,-92.3766 790.868,-96.6489 791.416,-89.6704"/>
<g id="a_edge16&#45;headlabel"><a xlink:href="dir_000008_000024.html" target="_top" xlink:title="13">
<text text-anchor="middle" x="795.222" y="-84.6212" font-family="FreeSans" font-size="10.00">13</text>
</a>
</g>
</g>
<!-- dir_75f6482e763353de447ca2313cbb4777&#45;&gt;dir_9dc015ad45d84aaa4f662cfaebce3286 -->
<g id="edge17" class="edge"><title>dir_75f6482e763353de447ca2313cbb4777&#45;&gt;dir_9dc015ad45d84aaa4f662cfaebce3286</title>
<path fill="none" stroke="black" d="M684.999,-719.969C758.299,-682.506 918,-585.455 918,-451 918,-451 918,-451 918,-377 918,-186.334 594.569,-164.69 483.172,-162.89"/>
<polygon fill="black" stroke="black" points="483.112,-159.389 473.072,-162.773 483.031,-166.389 483.112,-159.389"/>
<g id="a_edge17&#45;headlabel"><a xlink:href="dir_000008_000014.html" target="_top" xlink:title="5">
<text text-anchor="middle" x="486.739" y="-154.092" font-family="FreeSans" font-size="10.00">5</text>
</a>
</g>
</g>
<!-- dir_75f6482e763353de447ca2313cbb4777&#45;&gt;dir_b8f4473302bc85bc90141e5ae078c276 -->
<g id="edge18" class="edge"><title>dir_75f6482e763353de447ca2313cbb4777&#45;&gt;dir_b8f4473302bc85bc90141e5ae078c276</title>
<path fill="none" stroke="black" d="M656.091,-719.65C675.895,-670.167 731.61,-523.684 751,-396 754.112,-375.505 754.237,-352.049 753.651,-334.364"/>
<polygon fill="black" stroke="black" points="757.14,-334.017 753.215,-324.176 750.146,-334.317 757.14,-334.017"/>
<g id="a_edge18&#45;headlabel"><a xlink:href="dir_000008_000011.html" target="_top" xlink:title="20">
<text text-anchor="middle" x="760.13" y="-334.987" font-family="FreeSans" font-size="10.00">20</text>
</a>
</g>
</g>
<!-- dir_75f6482e763353de447ca2313cbb4777&#45;&gt;dir_90619d4fa850912973c72b599be770d2 -->
<g id="edge19" class="edge"><title>dir_75f6482e763353de447ca2313cbb4777&#45;&gt;dir_90619d4fa850912973c72b599be770d2</title>
<path fill="none" stroke="black" d="M579.054,-735.125C537.135,-730.297 485.782,-717.269 453,-684 338.054,-567.345 407.039,-339.805 435.494,-261.91"/>
<polygon fill="black" stroke="black" points="438.846,-262.939 439.062,-252.346 432.287,-260.492 438.846,-262.939"/>
<g id="a_edge19&#45;headlabel"><a xlink:href="dir_000008_000005.html" target="_top" xlink:title="57">
<text text-anchor="middle" x="440.25" y="-264.799" font-family="FreeSans" font-size="10.00">57</text>
</a>
</g>
</g>
<!-- dir_ddb59aa59671a931e79702d1ef7b5a63&#45;&gt;dir_e0d2bc97ae6ba2c0be7d7b3f5f0a6d76 -->
<g id="edge20" class="edge"><title>dir_ddb59aa59671a931e79702d1ef7b5a63&#45;&gt;dir_e0d2bc97ae6ba2c0be7d7b3f5f0a6d76</title>
<path fill="none" stroke="black" d="M209.112,-587.507C275.702,-574.943 439.085,-544.116 513.265,-530.12"/>
<polygon fill="black" stroke="black" points="514.363,-533.475 523.541,-528.181 513.065,-526.596 514.363,-533.475"/>
<g id="a_edge20&#45;headlabel"><a xlink:href="dir_000017_000012.html" target="_top" xlink:title="4">
<text text-anchor="middle" x="511.357" y="-534.431" font-family="FreeSans" font-size="10.00">4</text>
</a>
</g>
</g>
<!-- dir_ddb59aa59671a931e79702d1ef7b5a63&#45;&gt;dir_cae27912e177176a90175eee3a6288a5 -->
<g id="edge21" class="edge"><title>dir_ddb59aa59671a931e79702d1ef7b5a63&#45;&gt;dir_cae27912e177176a90175eee3a6288a5</title>
<path fill="none" stroke="black" d="M209.15,-583.351C284.251,-558.493 484.422,-492.236 569.671,-464.018"/>
<polygon fill="black" stroke="black" points="570.848,-467.315 579.242,-460.85 568.649,-460.67 570.848,-467.315"/>
<g id="a_edge21&#45;headlabel"><a xlink:href="dir_000017_000006.html" target="_top" xlink:title="6">
<text text-anchor="middle" x="568.328" y="-468.64" font-family="FreeSans" font-size="10.00">6</text>
</a>
</g>
</g>
<!-- dir_ddb59aa59671a931e79702d1ef7b5a63&#45;&gt;dir_83ea444455da359b712855cae452bf53 -->
<g id="edge22" class="edge"><title>dir_ddb59aa59671a931e79702d1ef7b5a63&#45;&gt;dir_83ea444455da359b712855cae452bf53</title>
<path fill="none" stroke="black" d="M158.124,-575.874C118.292,-542.583 38,-464.832 38,-379 38,-379 38,-379 38,-161 38,-35.1394 243.475,-19.524 329.659,-18.5099"/>
<polygon fill="black" stroke="black" points="329.817,-22.0092 339.797,-18.4523 329.777,-15.0093 329.817,-22.0092"/>
<g id="a_edge22&#45;headlabel"><a xlink:href="dir_000017_000013.html" target="_top" xlink:title="2">
<text text-anchor="middle" x="326.238" y="-22.3688" font-family="FreeSans" font-size="10.00">2</text>
</a>
</g>
</g>
<!-- dir_ddb59aa59671a931e79702d1ef7b5a63&#45;&gt;dir_99f3ff5adf40c6d046948cabb10e8620 -->
<g id="edge23" class="edge"><title>dir_ddb59aa59671a931e79702d1ef7b5a63&#45;&gt;dir_99f3ff5adf40c6d046948cabb10e8620</title>
<path fill="none" stroke="black" d="M166.003,-575.824C146.629,-550.257 114,-499.934 114,-451 114,-451 114,-451 114,-377 114,-303.677 99.4699,-269.131 150,-216 228.19,-133.785 591.645,-101.917 712.675,-93.4723"/>
<polygon fill="black" stroke="black" points="713.218,-96.9435 722.957,-92.771 712.742,-89.9597 713.218,-96.9435"/>
<g id="a_edge23&#45;headlabel"><a xlink:href="dir_000017_000024.html" target="_top" xlink:title="5">
<text text-anchor="middle" x="709.825" y="-97.5207" font-family="FreeSans" font-size="10.00">5</text>
</a>
</g>
</g>
<!-- dir_ddb59aa59671a931e79702d1ef7b5a63&#45;&gt;dir_9dc015ad45d84aaa4f662cfaebce3286 -->
<g id="edge24" class="edge"><title>dir_ddb59aa59671a931e79702d1ef7b5a63&#45;&gt;dir_9dc015ad45d84aaa4f662cfaebce3286</title>
<path fill="none" stroke="black" d="M174.334,-575.728C166.152,-549.21 152,-496.732 152,-451 152,-451 152,-451 152,-305 152,-264.031 146.041,-243.944 176,-216 209.256,-184.981 342.398,-170.785 408.45,-165.546"/>
<polygon fill="black" stroke="black" points="409.124,-169.005 418.829,-164.753 408.591,-162.026 409.124,-169.005"/>
<g id="a_edge24&#45;headlabel"><a xlink:href="dir_000017_000014.html" target="_top" xlink:title="1">
<text text-anchor="middle" x="405.756" y="-169.61" font-family="FreeSans" font-size="10.00">1</text>
</a>
</g>
</g>
<!-- dir_ddb59aa59671a931e79702d1ef7b5a63&#45;&gt;dir_90619d4fa850912973c72b599be770d2 -->
<g id="edge25" class="edge"><title>dir_ddb59aa59671a931e79702d1ef7b5a63&#45;&gt;dir_90619d4fa850912973c72b599be770d2</title>
<path fill="none" stroke="black" d="M178.427,-575.964C174.691,-524.591 170.987,-369.719 252,-288 293.103,-246.539 363.279,-236.629 407.012,-234.742"/>
<polygon fill="black" stroke="black" points="407.372,-238.232 417.259,-234.425 407.156,-231.236 407.372,-238.232"/>
<g id="a_edge25&#45;headlabel"><a xlink:href="dir_000017_000005.html" target="_top" xlink:title="8">
<text text-anchor="middle" x="403.867" y="-238.681" font-family="FreeSans" font-size="10.00">8</text>
</a>
</g>
</g>
<!-- dir_5dca165297606754778d37949ebe52ac&#45;&gt;dir_e0d2bc97ae6ba2c0be7d7b3f5f0a6d76 -->
<g id="edge26" class="edge"><title>dir_5dca165297606754778d37949ebe52ac&#45;&gt;dir_e0d2bc97ae6ba2c0be7d7b3f5f0a6d76</title>
<path fill="none" stroke="black" d="M543.086,-647.871C544.619,-623.67 547.437,-579.211 549.264,-550.393"/>
<polygon fill="black" stroke="black" points="552.771,-550.391 549.911,-540.189 545.785,-549.948 552.771,-550.391"/>
<g id="a_edge26&#45;headlabel"><a xlink:href="dir_000007_000012.html" target="_top" xlink:title="52">
<text text-anchor="middle" x="555.377" y="-551.658" font-family="FreeSans" font-size="10.00">52</text>
</a>
</g>
</g>
<!-- dir_5dca165297606754778d37949ebe52ac&#45;&gt;dir_cae27912e177176a90175eee3a6288a5 -->
<g id="edge27" class="edge"><title>dir_5dca165297606754778d37949ebe52ac&#45;&gt;dir_cae27912e177176a90175eee3a6288a5</title>
<path fill="none" stroke="black" d="M548.832,-647.799C558.188,-623.871 575.172,-579.074 587,-540 593.187,-519.563 598.931,-496.104 602.997,-478.403"/>
<polygon fill="black" stroke="black" points="606.512,-478.73 605.301,-468.204 599.684,-477.187 606.512,-478.73"/>
<g id="a_edge27&#45;headlabel"><a xlink:href="dir_000007_000006.html" target="_top" xlink:title="26">
<text text-anchor="middle" x="608.489" y="-480.362" font-family="FreeSans" font-size="10.00">26</text>
</a>
</g>
</g>
<!-- dir_5dca165297606754778d37949ebe52ac&#45;&gt;dir_75f6482e763353de447ca2313cbb4777 -->
<g id="edge28" class="edge"><title>dir_5dca165297606754778d37949ebe52ac&#45;&gt;dir_75f6482e763353de447ca2313cbb4777</title>
<path fill="none" stroke="black" d="M574.18,-684.19C588.863,-693.183 606.039,-704.316 620.281,-714.037"/>
<polygon fill="black" stroke="black" points="618.507,-717.065 628.722,-719.876 622.489,-711.308 618.507,-717.065"/>
<g id="a_edge28&#45;headlabel"><a xlink:href="dir_000007_000008.html" target="_top" xlink:title="54">
<text text-anchor="middle" x="613.935" y="-714.855" font-family="FreeSans" font-size="10.00">54</text>
</a>
</g>
</g>
<!-- dir_5dca165297606754778d37949ebe52ac&#45;&gt;dir_ddb59aa59671a931e79702d1ef7b5a63 -->
<g id="edge29" class="edge"><title>dir_5dca165297606754778d37949ebe52ac&#45;&gt;dir_ddb59aa59671a931e79702d1ef7b5a63</title>
<path fill="none" stroke="black" d="M462.109,-649.552C386.684,-634.967 276.769,-613.712 218.925,-602.527"/>
<polygon fill="black" stroke="black" points="219.571,-599.087 209.088,-600.625 218.242,-605.96 219.571,-599.087"/>
<g id="a_edge29&#45;headlabel"><a xlink:href="dir_000007_000017.html" target="_top" xlink:title="27">
<text text-anchor="middle" x="223.639" y="-594.482" font-family="FreeSans" font-size="10.00">27</text>
</a>
</g>
</g>
<!-- dir_5dca165297606754778d37949ebe52ac&#45;&gt;dir_99f3ff5adf40c6d046948cabb10e8620 -->
<g id="edge30" class="edge"><title>dir_5dca165297606754778d37949ebe52ac&#45;&gt;dir_99f3ff5adf40c6d046948cabb10e8620</title>
<path fill="none" stroke="black" d="M585.75,-647.976C699.185,-602.478 994,-474.996 994,-379 994,-379 994,-379 994,-233 994,-140.1 859.698,-106.808 791.194,-95.8699"/>
<polygon fill="black" stroke="black" points="791.602,-92.3919 781.191,-94.3569 790.555,-99.3132 791.602,-92.3919"/>
<g id="a_edge30&#45;headlabel"><a xlink:href="dir_000007_000024.html" target="_top" xlink:title="8">
<text text-anchor="middle" x="795.581" y="-87.622" font-family="FreeSans" font-size="10.00">8</text>
</a>
</g>
</g>
<!-- dir_5dca165297606754778d37949ebe52ac&#45;&gt;dir_9dc015ad45d84aaa4f662cfaebce3286 -->
<g id="edge31" class="edge"><title>dir_5dca165297606754778d37949ebe52ac&#45;&gt;dir_9dc015ad45d84aaa4f662cfaebce3286</title>
<path fill="none" stroke="black" d="M509.65,-647.878C493.69,-638.528 474.75,-626.007 460,-612 356.796,-513.997 334.59,-465.572 320,-324 318.36,-308.084 314.144,-302.89 320,-288 335.999,-247.321 355.821,-246.636 387,-216 396.92,-206.253 408.196,-195.948 418.214,-187.041"/>
<polygon fill="black" stroke="black" points="420.745,-189.476 425.928,-180.236 416.114,-184.226 420.745,-189.476"/>
<g id="a_edge31&#45;headlabel"><a xlink:href="dir_000007_000014.html" target="_top" xlink:title="13">
<text text-anchor="middle" x="419.927" y="-191.483" font-family="FreeSans" font-size="10.00">13</text>
</a>
</g>
</g>
<!-- dir_5dca165297606754778d37949ebe52ac&#45;&gt;dir_b8f4473302bc85bc90141e5ae078c276 -->
<g id="edge32" class="edge"><title>dir_5dca165297606754778d37949ebe52ac&#45;&gt;dir_b8f4473302bc85bc90141e5ae078c276</title>
<path fill="none" stroke="black" d="M557.57,-647.87C593.596,-607.292 683.192,-500.832 730,-396 738.842,-376.197 744.504,-352.261 747.867,-334.202"/>
<polygon fill="black" stroke="black" points="751.319,-334.776 749.587,-324.324 744.423,-333.575 751.319,-334.776"/>
<g id="a_edge32&#45;headlabel"><a xlink:href="dir_000007_000011.html" target="_top" xlink:title="15">
<text text-anchor="middle" x="753.5" y="-336.305" font-family="FreeSans" font-size="10.00">15</text>
</a>
</g>
</g>
<!-- dir_5dca165297606754778d37949ebe52ac&#45;&gt;dir_90619d4fa850912973c72b599be770d2 -->
<g id="edge33" class="edge"><title>dir_5dca165297606754778d37949ebe52ac&#45;&gt;dir_90619d4fa850912973c72b599be770d2</title>
<path fill="none" stroke="black" d="M525.048,-647.8C480.342,-600.928 360.454,-464.993 328,-324 324.411,-308.408 319.308,-301.433 328,-288 345.418,-261.083 380.106,-247.705 407.385,-241.136"/>
<polygon fill="black" stroke="black" points="408.406,-244.496 417.426,-238.938 406.909,-237.658 408.406,-244.496"/>
<g id="a_edge33&#45;headlabel"><a xlink:href="dir_000007_000005.html" target="_top" xlink:title="41">
<text text-anchor="middle" x="405.501" y="-245.538" font-family="FreeSans" font-size="10.00">41</text>
</a>
</g>
</g>
<!-- dir_f2a5f3e0ee72e9f772347deaa8f421f3&#45;&gt;dir_e0d2bc97ae6ba2c0be7d7b3f5f0a6d76 -->
<g id="edge34" class="edge"><title>dir_f2a5f3e0ee72e9f772347deaa8f421f3&#45;&gt;dir_e0d2bc97ae6ba2c0be7d7b3f5f0a6d76</title>
<path fill="none" stroke="black" d="M578.653,-396.155C576.062,-406.516 572.753,-419.995 570,-432 565.262,-452.66 560.272,-476.108 556.595,-493.748"/>
<polygon fill="black" stroke="black" points="553.093,-493.402 554.49,-503.904 559.947,-494.823 553.093,-493.402"/>
<g id="a_edge34&#45;headlabel"><a xlink:href="dir_000019_000012.html" target="_top" xlink:title="4">
<text text-anchor="middle" x="551.042" y="-486.806" font-family="FreeSans" font-size="10.00">4</text>
</a>
</g>
</g>
<!-- dir_f2a5f3e0ee72e9f772347deaa8f421f3&#45;&gt;dir_cae27912e177176a90175eee3a6288a5 -->
<g id="edge35" class="edge"><title>dir_f2a5f3e0ee72e9f772347deaa8f421f3&#45;&gt;dir_cae27912e177176a90175eee3a6288a5</title>
<path fill="none" stroke="black" d="M595.248,-396.104C598.949,-403.876 602.666,-413.257 605.545,-421.949"/>
<polygon fill="black" stroke="black" points="602.247,-423.135 608.489,-431.697 608.949,-421.112 602.247,-423.135"/>
<g id="a_edge35&#45;headlabel"><a xlink:href="dir_000019_000006.html" target="_top" xlink:title="6">
<text text-anchor="middle" x="598.49" y="-418.015" font-family="FreeSans" font-size="10.00">6</text>
</a>
</g>
</g>
<!-- dir_f2a5f3e0ee72e9f772347deaa8f421f3&#45;&gt;dir_83ea444455da359b712855cae452bf53 -->
<g id="edge36" class="edge"><title>dir_f2a5f3e0ee72e9f772347deaa8f421f3&#45;&gt;dir_83ea444455da359b712855cae452bf53</title>
<path fill="none" stroke="black" d="M599.491,-359.772C621.843,-334.534 659,-285.051 659,-235 659,-235 659,-235 659,-161 659,-49.1501 483.587,-25.3791 404.675,-20.3443"/>
<polygon fill="black" stroke="black" points="404.391,-16.8227 394.208,-19.751 403.994,-23.8114 404.391,-16.8227"/>
<g id="a_edge36&#45;headlabel"><a xlink:href="dir_000019_000013.html" target="_top" xlink:title="1">
<text text-anchor="middle" x="408.14" y="-11.6913" font-family="FreeSans" font-size="10.00">1</text>
</a>
</g>
</g>
<!-- dir_f2a5f3e0ee72e9f772347deaa8f421f3&#45;&gt;dir_99f3ff5adf40c6d046948cabb10e8620 -->
<g id="edge37" class="edge"><title>dir_f2a5f3e0ee72e9f772347deaa8f421f3&#45;&gt;dir_99f3ff5adf40c6d046948cabb10e8620</title>
<path fill="none" stroke="black" d="M625.611,-359.812C642.363,-351.219 660.53,-339.335 673,-324 723.752,-261.589 742.586,-164.905 748.997,-118.152"/>
<polygon fill="black" stroke="black" points="752.476,-118.539 750.278,-108.175 745.533,-117.648 752.476,-118.539"/>
<g id="a_edge37&#45;headlabel"><a xlink:href="dir_000019_000024.html" target="_top" xlink:title="7">
<text text-anchor="middle" x="754.834" y="-119.966" font-family="FreeSans" font-size="10.00">7</text>
</a>
</g>
</g>
<!-- dir_f2a5f3e0ee72e9f772347deaa8f421f3&#45;&gt;dir_9dc015ad45d84aaa4f662cfaebce3286 -->
<g id="edge38" class="edge"><title>dir_f2a5f3e0ee72e9f772347deaa8f421f3&#45;&gt;dir_9dc015ad45d84aaa4f662cfaebce3286</title>
<path fill="none" stroke="black" d="M580.583,-359.766C575.43,-328.289 560.856,-260.637 526,-216 514.343,-201.072 497.262,-188.95 481.873,-180.086"/>
<polygon fill="black" stroke="black" points="483.512,-176.993 473.062,-175.247 480.143,-183.129 483.512,-176.993"/>
<g id="a_edge38&#45;headlabel"><a xlink:href="dir_000019_000014.html" target="_top" xlink:title="3">
<text text-anchor="middle" x="488.03" y="-173.735" font-family="FreeSans" font-size="10.00">3</text>
</a>
</g>
</g>
<!-- dir_f2a5f3e0ee72e9f772347deaa8f421f3&#45;&gt;dir_b8f4473302bc85bc90141e5ae078c276 -->
<g id="edge39" class="edge"><title>dir_f2a5f3e0ee72e9f772347deaa8f421f3&#45;&gt;dir_b8f4473302bc85bc90141e5ae078c276</title>
<path fill="none" stroke="black" d="M624.219,-359.939C649.307,-349.553 682.003,-336.015 711,-324 712.379,-323.429 713.785,-322.846 715.204,-322.258"/>
<polygon fill="black" stroke="black" points="716.756,-325.403 724.654,-318.341 714.076,-318.937 716.756,-325.403"/>
<g id="a_edge39&#45;headlabel"><a xlink:href="dir_000019_000011.html" target="_top" xlink:title="2">
<text text-anchor="middle" x="714.523" y="-326.903" font-family="FreeSans" font-size="10.00">2</text>
</a>
</g>
</g>
<!-- dir_f2a5f3e0ee72e9f772347deaa8f421f3&#45;&gt;dir_90619d4fa850912973c72b599be770d2 -->
<g id="edge40" class="edge"><title>dir_f2a5f3e0ee72e9f772347deaa8f421f3&#45;&gt;dir_90619d4fa850912973c72b599be770d2</title>
<path fill="none" stroke="black" d="M566.475,-359.871C542.303,-334.817 497.184,-288.052 469.547,-259.406"/>
<polygon fill="black" stroke="black" points="472.046,-256.956 462.584,-252.189 467.008,-261.816 472.046,-256.956"/>
<g id="a_edge40&#45;headlabel"><a xlink:href="dir_000019_000005.html" target="_top" xlink:title="12">
<text text-anchor="middle" x="476.585" y="-255.071" font-family="FreeSans" font-size="10.00">12</text>
</a>
</g>
</g>
<!-- dir_99f3ff5adf40c6d046948cabb10e8620&#45;&gt;dir_cae27912e177176a90175eee3a6288a5 -->
<g id="edge41" class="edge"><title>dir_99f3ff5adf40c6d046948cabb10e8620&#45;&gt;dir_cae27912e177176a90175eee3a6288a5</title>
<path fill="none" stroke="black" d="M781.223,-104.696C819.191,-126.868 880,-174.138 880,-233 880,-307 880,-307 880,-307 880,-358.185 723.482,-415.077 648.24,-438.276"/>
<polygon fill="black" stroke="black" points="647.173,-434.943 638.619,-441.194 649.204,-441.641 647.173,-434.943"/>
<g id="a_edge41&#45;headlabel"><a xlink:href="dir_000024_000006.html" target="_top" xlink:title="1">
<text text-anchor="middle" x="649.789" y="-428.683" font-family="FreeSans" font-size="10.00">1</text>
</a>
</g>
</g>
<!-- dir_99f3ff5adf40c6d046948cabb10e8620&#45;&gt;dir_83ea444455da359b712855cae452bf53 -->
<g id="edge42" class="edge"><title>dir_99f3ff5adf40c6d046948cabb10e8620&#45;&gt;dir_83ea444455da359b712855cae452bf53</title>
<path fill="none" stroke="black" d="M722.794,-82.4203C707.918,-79.1439 689.527,-75.208 673,-72 576.336,-53.2362 461.854,-34.2704 404.175,-24.9408"/>
<polygon fill="black" stroke="black" points="404.513,-21.4501 394.083,-23.3131 403.398,-28.3608 404.513,-21.4501"/>
<g id="a_edge42&#45;headlabel"><a xlink:href="dir_000024_000013.html" target="_top" xlink:title="2">
<text text-anchor="middle" x="408.514" y="-16.7193" font-family="FreeSans" font-size="10.00">2</text>
</a>
</g>
</g>
<!-- dir_99f3ff5adf40c6d046948cabb10e8620&#45;&gt;dir_90619d4fa850912973c72b599be770d2 -->
<g id="edge43" class="edge"><title>dir_99f3ff5adf40c6d046948cabb10e8620&#45;&gt;dir_90619d4fa850912973c72b599be770d2</title>
<path fill="none" stroke="black" d="M722.725,-106.637C666.961,-133.955 546.058,-190.06 484.096,-217.372"/>
<polygon fill="black" stroke="black" points="482.431,-214.281 474.677,-221.5 485.241,-220.692 482.431,-214.281"/>
<g id="a_edge43&#45;headlabel"><a xlink:href="dir_000024_000005.html" target="_top" xlink:title="2">
<text text-anchor="middle" x="484.584" y="-207.737" font-family="FreeSans" font-size="10.00">2</text>
</a>
</g>
</g>
<!-- dir_9dc015ad45d84aaa4f662cfaebce3286&#45;&gt;dir_99f3ff5adf40c6d046948cabb10e8620 -->
<g id="edge44" class="edge"><title>dir_9dc015ad45d84aaa4f662cfaebce3286&#45;&gt;dir_99f3ff5adf40c6d046948cabb10e8620</title>
<path fill="none" stroke="black" d="M473.155,-154.788C527.469,-142.363 649.67,-114.409 712.719,-99.9859"/>
<polygon fill="black" stroke="black" points="713.709,-103.35 722.677,-97.7079 712.148,-96.5261 713.709,-103.35"/>
<g id="a_edge44&#45;headlabel"><a xlink:href="dir_000014_000024.html" target="_top" xlink:title="5">
<text text-anchor="middle" x="710.838" y="-104.419" font-family="FreeSans" font-size="10.00">5</text>
</a>
</g>
</g>
<!-- dir_9dc015ad45d84aaa4f662cfaebce3286&#45;&gt;dir_90619d4fa850912973c72b599be770d2 -->
<g id="edge45" class="edge"><title>dir_9dc015ad45d84aaa4f662cfaebce3286&#45;&gt;dir_90619d4fa850912973c72b599be770d2</title>
<path fill="none" stroke="black" d="M451.895,-180.104C452.701,-187.791 452.937,-197.054 452.604,-205.665"/>
<polygon fill="black" stroke="black" points="449.109,-205.48 451.916,-215.697 456.092,-205.96 449.109,-205.48"/>
<g id="a_edge45&#45;headlabel"><a xlink:href="dir_000014_000005.html" target="_top" xlink:title="3">
<text text-anchor="middle" x="446.522" y="-199.2" font-family="FreeSans" font-size="10.00">3</text>
</a>
</g>
</g>
<!-- dir_b8f4473302bc85bc90141e5ae078c276&#45;&gt;dir_e0d2bc97ae6ba2c0be7d7b3f5f0a6d76 -->
<g id="edge46" class="edge"><title>dir_b8f4473302bc85bc90141e5ae078c276&#45;&gt;dir_e0d2bc97ae6ba2c0be7d7b3f5f0a6d76</title>
<path fill="none" stroke="black" d="M744.475,-324.066C729.745,-355.864 694.365,-424.852 647,-468 629.663,-483.794 606.782,-496.66 587.707,-505.759"/>
<polygon fill="black" stroke="black" points="586.026,-502.679 578.41,-510.044 588.956,-509.037 586.026,-502.679"/>
<g id="a_edge46&#45;headlabel"><a xlink:href="dir_000011_000012.html" target="_top" xlink:title="16">
<text text-anchor="middle" x="588.102" y="-496.096" font-family="FreeSans" font-size="10.00">16</text>
</a>
</g>
</g>
<!-- dir_b8f4473302bc85bc90141e5ae078c276&#45;&gt;dir_cae27912e177176a90175eee3a6288a5 -->
<g id="edge47" class="edge"><title>dir_b8f4473302bc85bc90141e5ae078c276&#45;&gt;dir_cae27912e177176a90175eee3a6288a5</title>
<path fill="none" stroke="black" d="M741.492,-324.009C731.651,-334.318 717.404,-347.795 705,-360 683.071,-381.578 658.622,-406.685 639.692,-424.72"/>
<polygon fill="black" stroke="black" points="637.102,-422.35 632.203,-431.744 641.891,-427.456 637.102,-422.35"/>
<g id="a_edge47&#45;headlabel"><a xlink:href="dir_000011_000006.html" target="_top" xlink:title="4">
<text text-anchor="middle" x="637.782" y="-415.32" font-family="FreeSans" font-size="10.00">4</text>
</a>
</g>
</g>
<!-- dir_b8f4473302bc85bc90141e5ae078c276&#45;&gt;dir_99f3ff5adf40c6d046948cabb10e8620 -->
<g id="edge48" class="edge"><title>dir_b8f4473302bc85bc90141e5ae078c276&#45;&gt;dir_99f3ff5adf40c6d046948cabb10e8620</title>
<path fill="none" stroke="black" d="M752,-287.849C752,-250.832 752,-163.181 752,-118.386"/>
<polygon fill="black" stroke="black" points="755.5,-118.232 752,-108.232 748.5,-118.232 755.5,-118.232"/>
<g id="a_edge48&#45;headlabel"><a xlink:href="dir_000011_000024.html" target="_top" xlink:title="6">
<text text-anchor="middle" x="758.339" y="-119.327" font-family="FreeSans" font-size="10.00">6</text>
</a>
</g>
</g>
<!-- dir_b8f4473302bc85bc90141e5ae078c276&#45;&gt;dir_90619d4fa850912973c72b599be770d2 -->
<g id="edge49" class="edge"><title>dir_b8f4473302bc85bc90141e5ae078c276&#45;&gt;dir_90619d4fa850912973c72b599be770d2</title>
<path fill="none" stroke="black" d="M724.845,-298.788C670.392,-286.332 547.706,-258.266 484.8,-243.876"/>
<polygon fill="black" stroke="black" points="485.4,-240.423 474.872,-241.605 483.839,-247.247 485.4,-240.423"/>
<g id="a_edge49&#45;headlabel"><a xlink:href="dir_000011_000005.html" target="_top" xlink:title="20">
<text text-anchor="middle" x="489.538" y="-235.957" font-family="FreeSans" font-size="10.00">20</text>
</a>
</g>
</g>
<!-- dir_90619d4fa850912973c72b599be770d2&#45;&gt;dir_cae27912e177176a90175eee3a6288a5 -->
<g id="edge61" class="edge"><title>dir_90619d4fa850912973c72b599be770d2&#45;&gt;dir_cae27912e177176a90175eee3a6288a5</title>
<path fill="none" stroke="black" d="M452.365,-252.199C459.181,-284.217 469.861,-353.559 507,-396 523.707,-415.093 548.814,-427.879 570.026,-436.1"/>
<polygon fill="black" stroke="black" points="568.86,-439.401 579.454,-439.562 571.273,-432.83 568.86,-439.401"/>
<g id="a_edge61&#45;headlabel"><a xlink:href="dir_000005_000006.html" target="_top" xlink:title="8">
<text text-anchor="middle" x="564.507" y="-438.327" font-family="FreeSans" font-size="10.00">8</text>
</a>
</g>
</g>
<!-- dir_90619d4fa850912973c72b599be770d2&#45;&gt;dir_83ea444455da359b712855cae452bf53 -->
<g id="edge62" class="edge"><title>dir_90619d4fa850912973c72b599be770d2&#45;&gt;dir_83ea444455da359b712855cae452bf53</title>
<path fill="none" stroke="black" d="M432.087,-215.74C424.64,-205.785 415.828,-192.746 410,-180 389.573,-135.322 377.326,-79.079 371.394,-46.2702"/>
<polygon fill="black" stroke="black" points="374.786,-45.344 369.622,-36.0927 367.89,-46.5449 374.786,-45.344"/>
<g id="a_edge62&#45;headlabel"><a xlink:href="dir_000005_000013.html" target="_top" xlink:title="2">
<text text-anchor="middle" x="378.2" y="-45.8983" font-family="FreeSans" font-size="10.00">2</text>
</a>
</g>
</g>
<!-- dir_90619d4fa850912973c72b599be770d2&#45;&gt;dir_99f3ff5adf40c6d046948cabb10e8620 -->
<g id="edge63" class="edge"><title>dir_90619d4fa850912973c72b599be770d2&#45;&gt;dir_99f3ff5adf40c6d046948cabb10e8620</title>
<path fill="none" stroke="black" d="M474.652,-217.669C529.908,-190.575 650.723,-134.5 713.143,-106.963"/>
<polygon fill="black" stroke="black" points="714.888,-110.02 722.64,-102.798 712.076,-103.609 714.888,-110.02"/>
<g id="a_edge63&#45;headlabel"><a xlink:href="dir_000005_000024.html" target="_top" xlink:title="8">
<text text-anchor="middle" x="712.737" y="-111.563" font-family="FreeSans" font-size="10.00">8</text>
</a>
</g>
</g>
<!-- dir_90619d4fa850912973c72b599be770d2&#45;&gt;dir_9dc015ad45d84aaa4f662cfaebce3286 -->
<g id="edge64" class="edge"><title>dir_90619d4fa850912973c72b599be770d2&#45;&gt;dir_9dc015ad45d84aaa4f662cfaebce3286</title>
<path fill="none" stroke="black" d="M440.084,-215.697C439.289,-207.983 439.062,-198.712 439.405,-190.112"/>
<polygon fill="black" stroke="black" points="442.898,-190.324 440.105,-180.104 435.915,-189.836 442.898,-190.324"/>
<g id="a_edge64&#45;headlabel"><a xlink:href="dir_000005_000014.html" target="_top" xlink:title="5">
<text text-anchor="middle" x="445.48" y="-191.608" font-family="FreeSans" font-size="10.00">5</text>
</a>
</g>
</g>
</g>
</svg>
