<?xml version="1.0" encoding="UTF-8" standalone="no"?>
<!DOCTYPE svg PUBLIC "-//W3C//DTD SVG 1.1//EN"
 "http://www.w3.org/Graphics/SVG/1.1/DTD/svg11.dtd">
<!-- Generated by graphviz version 2.38.0 (20140413.2041)
 -->
<!-- Title: src/Geometry/DLT.ipp Pages: 1 -->
<svg width="2811pt" height="442pt"
 viewBox="0.00 0.00 2810.50 442.00" xmlns="http://www.w3.org/2000/svg" xmlns:xlink="http://www.w3.org/1999/xlink">
<g id="graph0" class="graph" transform="scale(1 1) rotate(0) translate(4 438)">
<title>src/Geometry/DLT.ipp</title>
<polygon fill="white" stroke="none" points="-4,4 -4,-438 2806.5,-438 2806.5,4 -4,4"/>
<!-- Node0 -->
<g id="node1" class="node"><title>Node0</title>
<polygon fill="#bfbfbf" stroke="black" points="1559,-414.5 1559,-433.5 1671,-433.5 1671,-414.5 1559,-414.5"/>
<text text-anchor="middle" x="1615" y="-421.5" font-family="FreeSans" font-size="10.00">src/Geometry/DLT.ipp</text>
</g>
<!-- Node1 -->
<g id="node2" class="node"><title>Node1</title>
<polygon fill="white" stroke="#bfbfbf" points="278,-6 278,-25 406,-25 406,-6 278,-6"/>
<text text-anchor="middle" x="342" y="-13" font-family="FreeSans" font-size="10.00">boost/concept_check.hpp</text>
</g>
<!-- Node0&#45;&gt;Node1 -->
<g id="edge1" class="edge"><title>Node0&#45;&gt;Node1</title>
<path fill="none" stroke="midnightblue" d="M1558.87,-422.642C1343.85,-421.023 572.499,-412.858 330,-378 214.659,-361.42 76,-429.527 76,-313 76,-313 76,-313 76,-132 76,-85.3229 215.552,-45.6686 292.497,-27.352"/>
<polygon fill="midnightblue" stroke="midnightblue" points="293.527,-30.7055 302.464,-25.0152 291.929,-23.8903 293.527,-30.7055"/>
</g>
<!-- Node2 -->
<g id="node3" class="node"><title>Node2</title>
<polygon fill="white" stroke="#bfbfbf" points="132,-6 132,-25 260,-25 260,-6 132,-6"/>
<text text-anchor="middle" x="196" y="-13" font-family="FreeSans" font-size="10.00">boost/range/functions.hpp</text>
</g>
<!-- Node0&#45;&gt;Node2 -->
<g id="edge2" class="edge"><title>Node0&#45;&gt;Node2</title>
<path fill="none" stroke="midnightblue" d="M1558.92,-422.314C1291.48,-418.922 155.668,-403.087 85,-378 40.1827,-362.09 0,-360.558 0,-313 0,-313 0,-313 0,-249.5 0,-144.033 119.056,-61.4323 171.589,-30.1186"/>
<polygon fill="midnightblue" stroke="midnightblue" points="173.42,-33.1027 180.292,-25.039 169.891,-27.0571 173.42,-33.1027"/>
</g>
<!-- Node3 -->
<g id="node4" class="node"><title>Node3</title>
<polygon fill="white" stroke="#bfbfbf" points="493.5,-6 493.5,-25 564.5,-25 564.5,-6 493.5,-6"/>
<text text-anchor="middle" x="529" y="-13" font-family="FreeSans" font-size="10.00">Eigen/Dense</text>
</g>
<!-- Node0&#45;&gt;Node3 -->
<g id="edge3" class="edge"><title>Node0&#45;&gt;Node3</title>
<path fill="none" stroke="midnightblue" d="M1558.99,-421.776C1290.94,-415.56 152,-384.916 152,-313 152,-313 152,-313 152,-188 152,-94.5345 238.938,-105.733 324,-67 375.928,-43.3545 440.502,-29.7929 483.143,-22.7947"/>
<polygon fill="midnightblue" stroke="midnightblue" points="483.896,-26.2192 493.224,-21.1956 482.799,-19.3056 483.896,-26.2192"/>
</g>
<!-- Node4 -->
<g id="node5" class="node"><title>Node4</title>
<polygon fill="white" stroke="#bfbfbf" points="2193,-241 2193,-260 2257,-260 2257,-241 2193,-241"/>
<text text-anchor="middle" x="2225" y="-248" font-family="FreeSans" font-size="10.00">Eigen/SVD</text>
</g>
<!-- Node0&#45;&gt;Node4 -->
<g id="edge4" class="edge"><title>Node0&#45;&gt;Node4</title>
<path fill="none" stroke="midnightblue" d="M1647.22,-414.44C1733.62,-391.401 1977.54,-325.773 2179,-266 2182.13,-265.071 2185.38,-264.089 2188.63,-263.091"/>
<polygon fill="midnightblue" stroke="midnightblue" points="2189.78,-266.397 2198.29,-260.087 2187.7,-259.713 2189.78,-266.397"/>
</g>
<!-- Node5 -->
<g id="node6" class="node"><title>Node5</title>
<polygon fill="white" stroke="#bfbfbf" points="2377.5,-302.5 2377.5,-321.5 2406.5,-321.5 2406.5,-302.5 2377.5,-302.5"/>
<text text-anchor="middle" x="2392" y="-309.5" font-family="FreeSans" font-size="10.00">list</text>
</g>
<!-- Node0&#45;&gt;Node5 -->
<g id="edge5" class="edge"><title>Node0&#45;&gt;Node5</title>
<path fill="none" stroke="midnightblue" d="M1671.27,-422.938C1835.58,-422.298 2306.61,-417.043 2363,-378 2378.37,-367.358 2385.7,-346.595 2389.13,-331.389"/>
<polygon fill="midnightblue" stroke="midnightblue" points="2392.57,-331.999 2390.99,-321.523 2385.7,-330.699 2392.57,-331.999"/>
</g>
<!-- Node6 -->
<g id="node7" class="node"><title>Node6</title>
<polygon fill="white" stroke="#bfbfbf" points="1050,-6 1050,-25 1094,-25 1094,-6 1050,-6"/>
<text text-anchor="middle" x="1072" y="-13" font-family="FreeSans" font-size="10.00">vector</text>
</g>
<!-- Node0&#45;&gt;Node6 -->
<g id="edge6" class="edge"><title>Node0&#45;&gt;Node6</title>
<path fill="none" stroke="midnightblue" d="M1558.88,-421.683C1433.59,-417.22 1142,-397.731 1142,-313 1142,-313 1142,-313 1142,-249.5 1142,-166.107 1100.36,-72.7552 1081.31,-34.4087"/>
<polygon fill="midnightblue" stroke="midnightblue" points="1084.24,-32.4395 1076.59,-25.1057 1078,-35.6071 1084.24,-32.4395"/>
</g>
<!-- Node7 -->
<g id="node8" class="node"><title>Node7</title>
<polygon fill="white" stroke="#bfbfbf" points="1540,-6 1540,-25 1578,-25 1578,-6 1540,-6"/>
<text text-anchor="middle" x="1559" y="-13" font-family="FreeSans" font-size="10.00">tuple</text>
</g>
<!-- Node0&#45;&gt;Node7 -->
<g id="edge7" class="edge"><title>Node0&#45;&gt;Node7</title>
<path fill="none" stroke="midnightblue" d="M1671.23,-417.228C1842.48,-398.49 2341.45,-334.745 2266,-235 2192.49,-137.815 1852.04,-129.932 1738,-87 1719.03,-79.8568 1715.79,-74.6156 1697,-67 1649.33,-47.678 1634.44,-50.8924 1587,-31 1585.97,-30.566 1584.92,-30.1086 1583.86,-29.6342"/>
<polygon fill="midnightblue" stroke="midnightblue" points="1585.01,-26.3004 1574.48,-25.0841 1581.95,-32.5983 1585.01,-26.3004"/>
</g>
<!-- Node8 -->
<g id="node9" class="node"><title>Node8</title>
<polygon fill="white" stroke="#bfbfbf" points="2743.5,-358.5 2743.5,-377.5 2802.5,-377.5 2802.5,-358.5 2743.5,-358.5"/>
<text text-anchor="middle" x="2773" y="-365.5" font-family="FreeSans" font-size="10.00">stdexcept</text>
</g>
<!-- Node0&#45;&gt;Node8 -->
<g id="edge8" class="edge"><title>Node0&#45;&gt;Node8</title>
<path fill="none" stroke="midnightblue" d="M1671.18,-421.931C1867.31,-418.011 2520.88,-403.32 2729,-378 2730.45,-377.823 2731.93,-377.624 2733.41,-377.407"/>
<polygon fill="midnightblue" stroke="midnightblue" points="2734,-380.858 2743.28,-375.755 2732.84,-373.954 2734,-380.858"/>
</g>
<!-- Node9 -->
<g id="node10" class="node"><title>Node9</title>
<polygon fill="white" stroke="#bfbfbf" points="2064.5,-6 2064.5,-25 2113.5,-25 2113.5,-6 2064.5,-6"/>
<text text-anchor="middle" x="2089" y="-13" font-family="FreeSans" font-size="10.00">cstddef</text>
</g>
<!-- Node0&#45;&gt;Node9 -->
<g id="edge9" class="edge"><title>Node0&#45;&gt;Node9</title>
<path fill="none" stroke="midnightblue" d="M1671.23,-421.844C1760.35,-419.075 1939.1,-409.697 2087,-378 2162.72,-361.771 2187.63,-365.059 2252,-322 2307.38,-284.954 2321.68,-240.888 2297,-179 2265.65,-100.388 2171.28,-50.627 2121.13,-29.0035"/>
<polygon fill="midnightblue" stroke="midnightblue" points="2122.3,-25.6979 2111.72,-25.0538 2119.59,-32.1521 2122.3,-25.6979"/>
</g>
<!-- Node10 -->
<g id="node11" class="node"><title>Node10</title>
<polygon fill="white" stroke="#bfbfbf" points="1314,-6 1314,-25 1376,-25 1376,-6 1314,-6"/>
<text text-anchor="middle" x="1345" y="-13" font-family="FreeSans" font-size="10.00">type_traits</text>
</g>
<!-- Node0&#45;&gt;Node10 -->
<g id="edge10" class="edge"><title>Node0&#45;&gt;Node10</title>
<path fill="none" stroke="midnightblue" d="M1622.4,-414.424C1654.34,-376.354 1775.53,-220.243 1703,-123 1693.25,-109.927 1477.67,-51.6141 1385.84,-27.2513"/>
<polygon fill="midnightblue" stroke="midnightblue" points="1386.61,-23.8357 1376.05,-24.6587 1384.82,-30.6024 1386.61,-23.8357"/>
</g>
<!-- Node11 -->
<g id="node12" class="node"><title>Node11</title>
<polygon fill="white" stroke="#bfbfbf" points="1941,-6 1941,-25 1985,-25 1985,-6 1941,-6"/>
<text text-anchor="middle" x="1963" y="-13" font-family="FreeSans" font-size="10.00">cmath</text>
</g>
<!-- Node0&#45;&gt;Node11 -->
<g id="edge11" class="edge"><title>Node0&#45;&gt;Node11</title>
<path fill="none" stroke="midnightblue" d="M1671.06,-419.419C1748.8,-413.834 1893.5,-401.206 2015,-378 2108.19,-360.2 2137.74,-367.488 2221,-322 2253.59,-304.198 2267.92,-299.933 2283,-266 2343.32,-130.244 2087.14,-48.8479 1994.95,-24.37"/>
<polygon fill="midnightblue" stroke="midnightblue" points="1995.61,-20.9248 1985.05,-21.7936 1993.84,-27.6992 1995.61,-20.9248"/>
</g>
<!-- Node12 -->
<g id="node13" class="node"><title>Node12</title>
<g id="a_node13"><a xlink:href="CoordinateTransformation_8h.html" target="_top" xlink:title="CoordinateTransformation.h">
<polygon fill="white" stroke="black" points="896,-358.5 896,-377.5 1032,-377.5 1032,-358.5 896,-358.5"/>
<text text-anchor="middle" x="964" y="-365.5" font-family="FreeSans" font-size="10.00">CoordinateTransformation.h</text>
</a>
</g>
</g>
<!-- Node0&#45;&gt;Node12 -->
<g id="edge12" class="edge"><title>Node0&#45;&gt;Node12</title>
<path fill="none" stroke="midnightblue" d="M1558.93,-418.349C1442.76,-408.713 1175.5,-386.544 1042.35,-375.499"/>
<polygon fill="midnightblue" stroke="midnightblue" points="1042.48,-371.998 1032.23,-374.659 1041.9,-378.974 1042.48,-371.998"/>
</g>
<!-- Node21 -->
<g id="node22" class="node"><title>Node21</title>
<g id="a_node22"><a xlink:href="EigenMetafunction_8h.html" target="_top" xlink:title="../Wrappers/EigenMetafunction.h">
<polygon fill="white" stroke="black" points="1176,-123.5 1176,-142.5 1332,-142.5 1332,-123.5 1176,-123.5"/>
<text text-anchor="middle" x="1254" y="-130.5" font-family="FreeSans" font-size="10.00">../Wrappers/EigenMetafunction.h</text>
</a>
</g>
</g>
<!-- Node0&#45;&gt;Node21 -->
<g id="edge82" class="edge"><title>Node0&#45;&gt;Node21</title>
<path fill="none" stroke="midnightblue" d="M1558.79,-421.573C1486.46,-416.4 1370,-395.293 1370,-313 1370,-313 1370,-313 1370,-249.5 1370,-200.403 1317.17,-164.972 1282.82,-147.121"/>
<polygon fill="midnightblue" stroke="midnightblue" points="1284.19,-143.893 1273.68,-142.556 1281.06,-150.155 1284.19,-143.893"/>
</g>
<!-- Node23 -->
<g id="node24" class="node"><title>Node23</title>
<g id="a_node24"><a xlink:href="Coordinate_8h.html" target="_top" xlink:title="../Elements/Coordinate.h">
<polygon fill="white" stroke="black" points="408,-123.5 408,-142.5 530,-142.5 530,-123.5 408,-123.5"/>
<text text-anchor="middle" x="469" y="-130.5" font-family="FreeSans" font-size="10.00">../Elements/Coordinate.h</text>
</a>
</g>
</g>
<!-- Node0&#45;&gt;Node23 -->
<g id="edge93" class="edge"><title>Node0&#45;&gt;Node23</title>
<path fill="none" stroke="midnightblue" d="M1558.99,-422.242C1391.33,-419.638 895.319,-409.42 737,-378 605.128,-351.829 531.262,-377.403 456,-266 432.557,-231.299 448.981,-179.286 460.462,-152.07"/>
<polygon fill="midnightblue" stroke="midnightblue" points="463.79,-153.199 464.667,-142.641 457.397,-150.348 463.79,-153.199"/>
</g>
<!-- Node33 -->
<g id="node34" class="node"><title>Node33</title>
<g id="a_node34"><a xlink:href="BoostBimap_8h.html" target="_top" xlink:title="../Wrappers/BoostBimap.h">
<polygon fill="white" stroke="black" points="2415.5,-358.5 2415.5,-377.5 2544.5,-377.5 2544.5,-358.5 2415.5,-358.5"/>
<text text-anchor="middle" x="2480" y="-365.5" font-family="FreeSans" font-size="10.00">../Wrappers/BoostBimap.h</text>
</a>
</g>
</g>
<!-- Node0&#45;&gt;Node33 -->
<g id="edge64" class="edge"><title>Node0&#45;&gt;Node33</title>
<path fill="none" stroke="midnightblue" d="M1671.31,-420.865C1800.47,-415.728 2127.95,-401.351 2401,-378 2402.32,-377.888 2403.64,-377.771 2404.98,-377.651"/>
<polygon fill="midnightblue" stroke="midnightblue" points="2405.74,-381.094 2415.36,-376.664 2405.07,-374.126 2405.74,-381.094"/>
</g>
<!-- Node39 -->
<g id="node40" class="node"><title>Node39</title>
<g id="a_node40"><a xlink:href="EigenExtensions_8h.html" target="_top" xlink:title="../Wrappers/EigenExtensions.h">
<polygon fill="white" stroke="black" points="1474.5,-241 1474.5,-260 1621.5,-260 1621.5,-241 1474.5,-241"/>
<text text-anchor="middle" x="1548" y="-248" font-family="FreeSans" font-size="10.00">../Wrappers/EigenExtensions.h</text>
</a>
</g>
</g>
<!-- Node0&#45;&gt;Node39 -->
<g id="edge83" class="edge"><title>Node0&#45;&gt;Node39</title>
<path fill="none" stroke="midnightblue" d="M1611.59,-414.26C1601.1,-387.421 1569.22,-305.818 1554.99,-269.39"/>
<polygon fill="midnightblue" stroke="midnightblue" points="1558.23,-268.06 1551.33,-260.019 1551.71,-270.607 1558.23,-268.06"/>
</g>
<!-- Node42 -->
<g id="node43" class="node"><title>Node42</title>
<g id="a_node43"><a xlink:href="Complexity_8h.html" target="_top" xlink:title="../Numeric/Complexity.h">
<polygon fill="white" stroke="black" points="2348.5,-179.5 2348.5,-198.5 2467.5,-198.5 2467.5,-179.5 2348.5,-179.5"/>
<text text-anchor="middle" x="2408" y="-186.5" font-family="FreeSans" font-size="10.00">../Numeric/Complexity.h</text>
</a>
</g>
</g>
<!-- Node0&#45;&gt;Node42 -->
<g id="edge94" class="edge"><title>Node0&#45;&gt;Node42</title>
<path fill="none" stroke="midnightblue" d="M1671.19,-422.71C1846.87,-421.425 2384.07,-414.533 2554,-378 2620.33,-363.741 2657.83,-378.085 2696,-322 2752.83,-238.501 2579.94,-206.873 2477.65,-195.664"/>
<polygon fill="midnightblue" stroke="midnightblue" points="2477.99,-192.18 2467.68,-194.611 2477.26,-199.141 2477.99,-192.18"/>
</g>
<!-- Node46 -->
<g id="node47" class="node"><title>Node46</title>
<g id="a_node47"><a xlink:href="LinearAlgebra_8h.html" target="_top" xlink:title="../Numeric/LinearAlgebra.h">
<polygon fill="white" stroke="black" points="746.5,-358.5 746.5,-377.5 877.5,-377.5 877.5,-358.5 746.5,-358.5"/>
<text text-anchor="middle" x="812" y="-365.5" font-family="FreeSans" font-size="10.00">../Numeric/LinearAlgebra.h</text>
</a>
</g>
</g>
<!-- Node0&#45;&gt;Node46 -->
<g id="edge101" class="edge"><title>Node0&#45;&gt;Node46</title>
<path fill="none" stroke="midnightblue" d="M1558.74,-420.63C1438.01,-415.304 1144.88,-401.09 888.099,-378.045"/>
<polygon fill="midnightblue" stroke="midnightblue" points="888.102,-374.531 877.827,-377.117 887.472,-381.503 888.102,-374.531"/>
</g>
<!-- Node13 -->
<g id="node14" class="node"><title>Node13</title>
<g id="a_node14"><a xlink:href="CoordinateTransformation_8ipp.html" target="_top" xlink:title="CoordinateTransformation.ipp">
<polygon fill="white" stroke="black" points="811.5,-302.5 811.5,-321.5 954.5,-321.5 954.5,-302.5 811.5,-302.5"/>
<text text-anchor="middle" x="883" y="-309.5" font-family="FreeSans" font-size="10.00">CoordinateTransformation.ipp</text>
</a>
</g>
</g>
<!-- Node12&#45;&gt;Node13 -->
<g id="edge13" class="edge"><title>Node12&#45;&gt;Node13</title>
<path fill="none" stroke="midnightblue" d="M950.986,-358.324C938.468,-349.979 919.318,-337.212 904.529,-327.352"/>
<polygon fill="midnightblue" stroke="midnightblue" points="906.244,-324.289 895.982,-321.655 902.361,-330.114 906.244,-324.289"/>
</g>
<!-- Node12&#45;&gt;Node23 -->
<g id="edge63" class="edge"><title>Node12&#45;&gt;Node23</title>
<path fill="none" stroke="midnightblue" d="M901.989,-358.487C776.65,-340.674 502.673,-298.44 475,-266 447.793,-234.107 456.371,-180.484 463.509,-152.406"/>
<polygon fill="midnightblue" stroke="midnightblue" points="466.905,-153.257 466.188,-142.686 460.157,-151.397 466.905,-153.257"/>
</g>
<!-- Node13&#45;&gt;Node1 -->
<g id="edge14" class="edge"><title>Node13&#45;&gt;Node1</title>
<path fill="none" stroke="midnightblue" d="M811.387,-311.239C652.752,-309.971 280.49,-296.463 214,-199 179.595,-148.569 207.039,-108.298 252,-67 269.416,-51.0023 292.799,-38.0765 311.365,-29.3076"/>
<polygon fill="midnightblue" stroke="midnightblue" points="312.931,-32.4402 320.578,-25.1067 310.027,-26.0711 312.931,-32.4402"/>
</g>
<!-- Node13&#45;&gt;Node2 -->
<g id="edge16" class="edge"><title>Node13&#45;&gt;Node2</title>
<path fill="none" stroke="midnightblue" d="M811.273,-309.64C669.341,-306.33 357.534,-295.812 255,-266 186.641,-246.124 114,-261.19 114,-190 114,-190 114,-190 114,-132 114,-89.3238 151.682,-51.431 175.957,-31.4475"/>
<polygon fill="midnightblue" stroke="midnightblue" points="178.24,-34.1037 183.901,-25.1475 173.891,-28.6191 178.24,-34.1037"/>
</g>
<!-- Node13&#45;&gt;Node3 -->
<g id="edge20" class="edge"><title>Node13&#45;&gt;Node3</title>
<path fill="none" stroke="midnightblue" d="M811.491,-308.197C689.043,-302.795 449.403,-289.362 419,-266 367.116,-226.133 358.431,-183.229 384,-123 404.249,-75.3019 459.15,-44.6984 495.285,-29.065"/>
<polygon fill="midnightblue" stroke="midnightblue" points="497.047,-32.1232 504.936,-25.0508 494.358,-25.66 497.047,-32.1232"/>
</g>
<!-- Node13&#45;&gt;Node6 -->
<g id="edge22" class="edge"><title>Node13&#45;&gt;Node6</title>
<path fill="none" stroke="midnightblue" d="M941.467,-302.495C965.436,-296.176 991.583,-285.169 1009,-266 1040.35,-231.494 1062.46,-87.41 1069.55,-35.3603"/>
<polygon fill="midnightblue" stroke="midnightblue" points="1073.05,-35.5916 1070.9,-25.2172 1066.12,-34.668 1073.05,-35.5916"/>
</g>
<!-- Node13&#45;&gt;Node7 -->
<g id="edge27" class="edge"><title>Node13&#45;&gt;Node7</title>
<path fill="none" stroke="midnightblue" d="M929.364,-302.426C977.172,-293.531 1053.86,-279.113 1120,-266 1186.78,-252.761 1202.86,-246.268 1270,-235 1331.43,-224.689 1505.49,-244.532 1548,-199 1590.21,-153.794 1574.54,-71.6819 1564.64,-35.0297"/>
<polygon fill="midnightblue" stroke="midnightblue" points="1567.95,-33.8545 1561.83,-25.2055 1561.22,-35.7828 1567.95,-33.8545"/>
</g>
<!-- Node13&#45;&gt;Node9 -->
<g id="edge24" class="edge"><title>Node13&#45;&gt;Node9</title>
<path fill="none" stroke="midnightblue" d="M954.848,-308.891C1079.31,-304.574 1329.7,-292.787 1413,-266 1438.61,-257.763 1439.7,-244.153 1465,-235 1561.47,-200.103 1594.82,-228.75 1693,-199 1841.23,-154.083 2005.48,-64.3835 2065.45,-30.1803"/>
<polygon fill="midnightblue" stroke="midnightblue" points="2067.55,-33.0141 2074.48,-25.0013 2064.06,-26.9427 2067.55,-33.0141"/>
</g>
<!-- Node13&#45;&gt;Node10 -->
<g id="edge26" class="edge"><title>Node13&#45;&gt;Node10</title>
<path fill="none" stroke="midnightblue" d="M934.039,-302.452C964.164,-295.789 1002.12,-284.473 1032,-266 1137.32,-200.883 1123.26,-134.618 1227,-67 1252.43,-50.4234 1284.21,-37.1885 1308.38,-28.4329"/>
<polygon fill="midnightblue" stroke="midnightblue" points="1309.64,-31.7013 1317.9,-25.0721 1307.31,-25.1005 1309.64,-31.7013"/>
</g>
<!-- Node13&#45;&gt;Node11 -->
<g id="edge25" class="edge"><title>Node13&#45;&gt;Node11</title>
<path fill="none" stroke="midnightblue" d="M954.576,-311.829C1049.89,-311.245 1222.99,-304.269 1365,-266 1396.68,-257.463 1400.64,-244.638 1432,-235 1526.29,-206.025 1556.54,-227.401 1651,-199 1773.51,-162.166 1898.76,-68.2646 1944.69,-31.5432"/>
<polygon fill="midnightblue" stroke="midnightblue" points="1946.98,-34.1923 1952.56,-25.1863 1942.58,-28.7465 1946.98,-34.1923"/>
</g>
<!-- Node14 -->
<g id="node15" class="node"><title>Node14</title>
<polygon fill="white" stroke="#bfbfbf" points="614,-6 614,-25 742,-25 742,-6 614,-6"/>
<text text-anchor="middle" x="678" y="-13" font-family="FreeSans" font-size="10.00">boost/range/concepts.hpp</text>
</g>
<!-- Node13&#45;&gt;Node14 -->
<g id="edge15" class="edge"><title>Node13&#45;&gt;Node14</title>
<path fill="none" stroke="midnightblue" d="M811.046,-307.445C695.06,-301.142 476.781,-286.692 448,-266 420.29,-246.079 372.529,-151.028 392,-123 419.861,-82.8955 555.878,-45.329 629.854,-27.438"/>
<polygon fill="midnightblue" stroke="midnightblue" points="630.95,-30.7746 639.863,-25.0459 629.323,-23.9664 630.95,-30.7746"/>
</g>
<!-- Node15 -->
<g id="node16" class="node"><title>Node15</title>
<polygon fill="white" stroke="#bfbfbf" points="771,-6 771,-25 921,-25 921,-6 771,-6"/>
<text text-anchor="middle" x="846" y="-13" font-family="FreeSans" font-size="10.00">boost/range/metafunctions.hpp</text>
</g>
<!-- Node13&#45;&gt;Node15 -->
<g id="edge17" class="edge"><title>Node13&#45;&gt;Node15</title>
<path fill="none" stroke="midnightblue" d="M811.153,-306.813C701.42,-299.863 501.89,-284.826 475,-266 439.667,-241.263 456.372,-214.586 432,-179 419.736,-161.092 406.869,-163.229 399,-143 395.778,-134.716 393.491,-129.976 399,-123 423.021,-92.583 668.165,-46.9738 784.87,-26.7664"/>
<polygon fill="midnightblue" stroke="midnightblue" points="785.478,-30.2132 794.738,-25.0652 784.289,-23.315 785.478,-30.2132"/>
</g>
<!-- Node16 -->
<g id="node17" class="node"><title>Node16</title>
<polygon fill="white" stroke="#bfbfbf" points="484,-235.5 484,-265.5 594,-265.5 594,-235.5 484,-235.5"/>
<text text-anchor="start" x="492" y="-253.5" font-family="FreeSans" font-size="10.00">boost/range/algorithm</text>
<text text-anchor="middle" x="539" y="-242.5" font-family="FreeSans" font-size="10.00">/transform.hpp</text>
</g>
<!-- Node13&#45;&gt;Node16 -->
<g id="edge18" class="edge"><title>Node13&#45;&gt;Node16</title>
<path fill="none" stroke="midnightblue" d="M822.997,-302.482C768.388,-294.475 685.329,-281.66 604.017,-266.127"/>
<polygon fill="midnightblue" stroke="midnightblue" points="604.593,-262.674 594.111,-264.219 603.269,-269.547 604.593,-262.674"/>
</g>
<!-- Node17 -->
<g id="node18" class="node"><title>Node17</title>
<polygon fill="white" stroke="#bfbfbf" points="612,-235.5 612,-265.5 722,-265.5 722,-235.5 612,-235.5"/>
<text text-anchor="start" x="620" y="-253.5" font-family="FreeSans" font-size="10.00">boost/range/algorithm</text>
<text text-anchor="middle" x="667" y="-242.5" font-family="FreeSans" font-size="10.00">/for_each.hpp</text>
</g>
<!-- Node13&#45;&gt;Node17 -->
<g id="edge19" class="edge"><title>Node13&#45;&gt;Node17</title>
<path fill="none" stroke="midnightblue" d="M852.052,-302.475C819.722,-293.569 768.171,-279.369 727.68,-268.215"/>
<polygon fill="midnightblue" stroke="midnightblue" points="728.477,-264.804 717.907,-265.523 726.618,-271.553 728.477,-264.804"/>
</g>
<!-- Node18 -->
<g id="node19" class="node"><title>Node18</title>
<polygon fill="white" stroke="#bfbfbf" points="1608,-123.5 1608,-142.5 1694,-142.5 1694,-123.5 1608,-123.5"/>
<text text-anchor="middle" x="1651" y="-130.5" font-family="FreeSans" font-size="10.00">Eigen/Geometry</text>
</g>
<!-- Node13&#45;&gt;Node18 -->
<g id="edge21" class="edge"><title>Node13&#45;&gt;Node18</title>
<path fill="none" stroke="midnightblue" d="M954.72,-306.566C1050.22,-299.993 1213.66,-286.222 1270,-266 1293.9,-257.421 1294.18,-243.815 1318,-235 1429.06,-193.896 1475.14,-250.032 1582,-199 1605.09,-187.973 1625.59,-166.363 1638.12,-151.093"/>
<polygon fill="midnightblue" stroke="midnightblue" points="1641.09,-152.98 1644.54,-142.963 1635.6,-148.642 1641.09,-152.98"/>
</g>
<!-- Node19 -->
<g id="node20" class="node"><title>Node19</title>
<polygon fill="white" stroke="#bfbfbf" points="1893,-6 1893,-25 1923,-25 1923,-6 1893,-6"/>
<text text-anchor="middle" x="1908" y="-13" font-family="FreeSans" font-size="10.00">set</text>
</g>
<!-- Node13&#45;&gt;Node19 -->
<g id="edge23" class="edge"><title>Node13&#45;&gt;Node19</title>
<path fill="none" stroke="midnightblue" d="M954.548,-308.665C1039.72,-304.687 1185.79,-294.065 1308,-266 1347.6,-256.906 1354.69,-245.256 1394,-235 1488.6,-210.322 1517.86,-228.71 1611,-199 1665.16,-181.724 1795.13,-120.584 1841,-87 1862.18,-71.4902 1882.35,-48.814 1894.92,-33.3979"/>
<polygon fill="midnightblue" stroke="midnightblue" points="1897.9,-35.2719 1901.4,-25.2691 1892.43,-30.9108 1897.9,-35.2719"/>
</g>
<!-- Node20 -->
<g id="node21" class="node"><title>Node20</title>
<polygon fill="white" stroke="#bfbfbf" points="15,-6 15,-25 71,-25 71,-6 15,-6"/>
<text text-anchor="middle" x="43" y="-13" font-family="FreeSans" font-size="10.00">algorithm</text>
</g>
<!-- Node13&#45;&gt;Node20 -->
<g id="edge28" class="edge"><title>Node13&#45;&gt;Node20</title>
<path fill="none" stroke="midnightblue" d="M811.364,-310.612C634.387,-309.105 186.699,-301.764 130,-266 49.8974,-215.474 42.4107,-84.1787 42.5134,-35.245"/>
<polygon fill="midnightblue" stroke="midnightblue" points="46.0144,-35.195 42.651,-25.1482 39.015,-35.0995 46.0144,-35.195"/>
</g>
<!-- Node13&#45;&gt;Node21 -->
<g id="edge29" class="edge"><title>Node13&#45;&gt;Node21</title>
<path fill="none" stroke="midnightblue" d="M952.822,-302.439C991.597,-295.893 1039.95,-284.699 1080,-266 1145.04,-235.634 1209.04,-177.994 1237.97,-150.024"/>
<polygon fill="midnightblue" stroke="midnightblue" points="1240.79,-152.163 1245.48,-142.663 1235.89,-147.164 1240.79,-152.163"/>
</g>
<!-- Node13&#45;&gt;Node23 -->
<g id="edge32" class="edge"><title>Node13&#45;&gt;Node23</title>
<path fill="none" stroke="midnightblue" d="M876.302,-302.281C863.695,-286.473 834.827,-253.052 803,-235 751.225,-205.633 731.045,-215.998 674,-199 614.46,-181.259 545.71,-159.119 504.879,-145.794"/>
<polygon fill="midnightblue" stroke="midnightblue" points="505.714,-142.385 495.122,-142.604 503.539,-149.039 505.714,-142.385"/>
</g>
<!-- Node28 -->
<g id="node29" class="node"><title>Node28</title>
<g id="a_node29"><a xlink:href="CoordinateStatistics_8h.html" target="_top" xlink:title="CoordinateStatistics.h">
<polygon fill="white" stroke="black" points="888,-241 888,-260 1000,-260 1000,-241 888,-241"/>
<text text-anchor="middle" x="944" y="-248" font-family="FreeSans" font-size="10.00">CoordinateStatistics.h</text>
</a>
</g>
</g>
<!-- Node13&#45;&gt;Node28 -->
<g id="edge47" class="edge"><title>Node13&#45;&gt;Node28</title>
<path fill="none" stroke="midnightblue" d="M891.74,-302.475C901.162,-293.285 916.364,-278.456 927.949,-267.156"/>
<polygon fill="midnightblue" stroke="midnightblue" points="930.562,-269.497 935.276,-260.009 925.674,-264.486 930.562,-269.497"/>
</g>
<!-- Node32 -->
<g id="node33" class="node"><title>Node32</title>
<polygon fill="white" stroke="#bfbfbf" points="740,-241 740,-260 794,-260 794,-241 740,-241"/>
<text text-anchor="middle" x="767" y="-248" font-family="FreeSans" font-size="10.00">iostream</text>
</g>
<!-- Node13&#45;&gt;Node32 -->
<g id="edge62" class="edge"><title>Node13&#45;&gt;Node32</title>
<path fill="none" stroke="midnightblue" d="M866.38,-302.475C847.085,-292.578 815.041,-276.142 792.569,-264.615"/>
<polygon fill="midnightblue" stroke="midnightblue" points="794.084,-261.459 783.589,-260.009 790.89,-267.687 794.084,-261.459"/>
</g>
<!-- Node22 -->
<g id="node23" class="node"><title>Node22</title>
<g id="a_node23"><a xlink:href="EigenMetafunction_8ipp.html" target="_top" xlink:title="EigenMetafunction.ipp">
<polygon fill="white" stroke="black" points="1236,-67.5 1236,-86.5 1348,-86.5 1348,-67.5 1236,-67.5"/>
<text text-anchor="middle" x="1292" y="-74.5" font-family="FreeSans" font-size="10.00">EigenMetafunction.ipp</text>
</a>
</g>
</g>
<!-- Node21&#45;&gt;Node22 -->
<g id="edge30" class="edge"><title>Node21&#45;&gt;Node22</title>
<path fill="none" stroke="midnightblue" d="M1260.27,-123.083C1265.64,-115.455 1273.52,-104.264 1280.08,-94.9408"/>
<polygon fill="midnightblue" stroke="midnightblue" points="1282.95,-96.9434 1285.84,-86.7511 1277.22,-92.9149 1282.95,-96.9434"/>
</g>
<!-- Node22&#45;&gt;Node10 -->
<g id="edge31" class="edge"><title>Node22&#45;&gt;Node10</title>
<path fill="none" stroke="midnightblue" d="M1299.59,-67.4751C1307.7,-58.3733 1320.73,-43.741 1330.76,-32.483"/>
<polygon fill="midnightblue" stroke="midnightblue" points="1333.38,-34.8043 1337.42,-25.0091 1328.16,-30.1483 1333.38,-34.8043"/>
</g>
<!-- Node24 -->
<g id="node25" class="node"><title>Node24</title>
<g id="a_node25"><a xlink:href="Coordinate_8ipp.html" target="_top" xlink:title="Coordinate.ipp">
<polygon fill="white" stroke="black" points="840,-67.5 840,-86.5 918,-86.5 918,-67.5 840,-67.5"/>
<text text-anchor="middle" x="879" y="-74.5" font-family="FreeSans" font-size="10.00">Coordinate.ipp</text>
</a>
</g>
</g>
<!-- Node23&#45;&gt;Node24 -->
<g id="edge33" class="edge"><title>Node23&#45;&gt;Node24</title>
<path fill="none" stroke="midnightblue" d="M530.381,-123.916C611.99,-113.167 754.622,-94.3815 829.649,-84.4999"/>
<polygon fill="midnightblue" stroke="midnightblue" points="830.317,-87.9423 839.774,-83.1664 829.402,-81.0022 830.317,-87.9423"/>
</g>
<!-- Node24&#45;&gt;Node1 -->
<g id="edge34" class="edge"><title>Node24&#45;&gt;Node1</title>
<path fill="none" stroke="midnightblue" d="M839.948,-71.673C751.038,-61.8217 532.294,-37.5847 416.572,-24.7627"/>
<polygon fill="midnightblue" stroke="midnightblue" points="416.707,-21.2563 406.382,-23.6336 415.936,-28.2137 416.707,-21.2563"/>
</g>
<!-- Node24&#45;&gt;Node2 -->
<g id="edge37" class="edge"><title>Node24&#45;&gt;Node2</title>
<path fill="none" stroke="midnightblue" d="M839.934,-74.7769C742.925,-71.38 483.399,-60.0899 269,-31 260.99,-29.9131 252.535,-28.4915 244.331,-26.9636"/>
<polygon fill="midnightblue" stroke="midnightblue" points="244.978,-23.524 234.495,-25.0626 243.649,-30.3968 244.978,-23.524"/>
</g>
<!-- Node24&#45;&gt;Node3 -->
<g id="edge38" class="edge"><title>Node24&#45;&gt;Node3</title>
<path fill="none" stroke="midnightblue" d="M839.931,-69.3349C835.237,-68.5433 830.511,-67.7505 826,-67 727.832,-50.6696 702.997,-48.3268 605,-31 595.08,-29.246 584.449,-27.2751 574.375,-25.3651"/>
<polygon fill="midnightblue" stroke="midnightblue" points="575.014,-21.9238 564.534,-23.4856 573.7,-28.7996 575.014,-21.9238"/>
</g>
<!-- Node24&#45;&gt;Node6 -->
<g id="edge39" class="edge"><title>Node24&#45;&gt;Node6</title>
<path fill="none" stroke="midnightblue" d="M906.652,-67.4751C941.903,-56.6075 1002.73,-37.8552 1039.96,-26.3765"/>
<polygon fill="midnightblue" stroke="midnightblue" points="1041.27,-29.6353 1049.8,-23.3445 1039.21,-22.9459 1041.27,-29.6353"/>
</g>
<!-- Node24&#45;&gt;Node9 -->
<g id="edge41" class="edge"><title>Node24&#45;&gt;Node9</title>
<path fill="none" stroke="midnightblue" d="M918.217,-75.0032C1090.19,-70.542 1778.62,-51.7187 1994,-31 2014.13,-29.0636 2036.5,-25.7102 2054.47,-22.7158"/>
<polygon fill="midnightblue" stroke="midnightblue" points="2055.22,-26.138 2064.49,-21.0077 2054.04,-19.2375 2055.22,-26.138"/>
</g>
<!-- Node24&#45;&gt;Node10 -->
<g id="edge40" class="edge"><title>Node24&#45;&gt;Node10</title>
<path fill="none" stroke="midnightblue" d="M918.329,-70.9783C1005.61,-59.8346 1214.78,-33.1269 1303.78,-21.7626"/>
<polygon fill="midnightblue" stroke="midnightblue" points="1304.3,-25.2252 1313.78,-20.4868 1303.41,-18.2816 1304.3,-25.2252"/>
</g>
<!-- Node24&#45;&gt;Node11 -->
<g id="edge42" class="edge"><title>Node24&#45;&gt;Node11</title>
<path fill="none" stroke="midnightblue" d="M918.146,-74.7583C1103.03,-68.8387 1881.9,-43.2655 1932,-31 1933.99,-30.5125 1936.01,-29.8931 1938.01,-29.1861"/>
<polygon fill="midnightblue" stroke="midnightblue" points="1939.81,-32.2274 1947.67,-25.1275 1937.1,-25.7737 1939.81,-32.2274"/>
</g>
<!-- Node24&#45;&gt;Node14 -->
<g id="edge35" class="edge"><title>Node24&#45;&gt;Node14</title>
<path fill="none" stroke="midnightblue" d="M850.202,-67.4751C815.126,-57.092 755.737,-39.5116 716.693,-27.9538"/>
<polygon fill="midnightblue" stroke="midnightblue" points="717.327,-24.4916 706.745,-25.0091 715.34,-31.2036 717.327,-24.4916"/>
</g>
<!-- Node24&#45;&gt;Node15 -->
<g id="edge36" class="edge"><title>Node24&#45;&gt;Node15</title>
<path fill="none" stroke="midnightblue" d="M874.272,-67.4751C869.42,-58.7268 861.734,-44.8691 855.6,-33.8093"/>
<polygon fill="midnightblue" stroke="midnightblue" points="858.63,-32.0566 850.719,-25.0091 852.509,-35.4517 858.63,-32.0566"/>
</g>
<!-- Node24&#45;&gt;Node20 -->
<g id="edge44" class="edge"><title>Node24&#45;&gt;Node20</title>
<path fill="none" stroke="midnightblue" d="M839.902,-75.3242C727.865,-73.0325 396.169,-63.7663 123,-31 109.287,-29.3552 94.3706,-26.8496 81.1731,-24.3814"/>
<polygon fill="midnightblue" stroke="midnightblue" points="81.4945,-20.8791 71.0134,-22.4271 80.1722,-27.7531 81.4945,-20.8791"/>
</g>
<!-- Node25 -->
<g id="node26" class="node"><title>Node25</title>
<polygon fill="white" stroke="#bfbfbf" points="2223,-6 2223,-25 2261,-25 2261,-6 2223,-6"/>
<text text-anchor="middle" x="2242" y="-13" font-family="FreeSans" font-size="10.00">array</text>
</g>
<!-- Node24&#45;&gt;Node25 -->
<g id="edge43" class="edge"><title>Node24&#45;&gt;Node25</title>
<path fill="none" stroke="midnightblue" d="M918.031,-75.0365C1101.61,-70.436 1880.36,-50.1367 2123,-31 2153.73,-28.5768 2188.72,-24.1051 2212.77,-20.7657"/>
<polygon fill="midnightblue" stroke="midnightblue" points="2213.26,-24.2308 2222.68,-19.3679 2212.28,-17.2995 2213.26,-24.2308"/>
</g>
<!-- Node26 -->
<g id="node27" class="node"><title>Node26</title>
<polygon fill="white" stroke="#bfbfbf" points="944.5,-6 944.5,-25 989.5,-25 989.5,-6 944.5,-6"/>
<text text-anchor="middle" x="967" y="-13" font-family="FreeSans" font-size="10.00">climits</text>
</g>
<!-- Node24&#45;&gt;Node26 -->
<g id="edge45" class="edge"><title>Node24&#45;&gt;Node26</title>
<path fill="none" stroke="midnightblue" d="M891.608,-67.4751C905.723,-57.9315 928.831,-42.3073 945.749,-30.8683"/>
<polygon fill="midnightblue" stroke="midnightblue" points="948.091,-33.5098 954.415,-25.0091 944.171,-27.7109 948.091,-33.5098"/>
</g>
<!-- Node27 -->
<g id="node28" class="node"><title>Node27</title>
<polygon fill="white" stroke="#bfbfbf" points="1721.5,-6 1721.5,-25 1768.5,-25 1768.5,-6 1721.5,-6"/>
<text text-anchor="middle" x="1745" y="-13" font-family="FreeSans" font-size="10.00">iterator</text>
</g>
<!-- Node24&#45;&gt;Node27 -->
<g id="edge46" class="edge"><title>Node24&#45;&gt;Node27</title>
<path fill="none" stroke="midnightblue" d="M918.133,-74.7118C1072.47,-69.5187 1634.34,-49.5106 1712,-31 1714.36,-30.4369 1716.77,-29.7112 1719.15,-28.8852"/>
<polygon fill="midnightblue" stroke="midnightblue" points="1720.64,-32.0572 1728.62,-25.0845 1718.03,-25.5608 1720.64,-32.0572"/>
</g>
<!-- Node28&#45;&gt;Node6 -->
<g id="edge60" class="edge"><title>Node28&#45;&gt;Node6</title>
<path fill="none" stroke="midnightblue" d="M942.901,-240.95C940.572,-219.698 936.881,-163.295 957,-123 977.641,-81.6597 1021.5,-48.305 1048.69,-30.5305"/>
<polygon fill="midnightblue" stroke="midnightblue" points="1050.65,-33.4295 1057.21,-25.1109 1046.9,-27.5222 1050.65,-33.4295"/>
</g>
<!-- Node28&#45;&gt;Node23 -->
<g id="edge61" class="edge"><title>Node28&#45;&gt;Node23</title>
<path fill="none" stroke="midnightblue" d="M903.419,-240.971C842.973,-228.19 734.491,-204.935 717,-199 697.041,-192.227 693.969,-185.744 674,-179 627.756,-163.381 573.778,-151.787 532.821,-144.281"/>
<polygon fill="midnightblue" stroke="midnightblue" points="533.429,-140.835 522.968,-142.508 532.19,-147.724 533.429,-140.835"/>
</g>
<!-- Node29 -->
<g id="node30" class="node"><title>Node29</title>
<g id="a_node30"><a xlink:href="CoordinateStatistics_8ipp.html" target="_top" xlink:title="CoordinateStatistics.ipp">
<polygon fill="white" stroke="black" points="726.5,-179.5 726.5,-198.5 845.5,-198.5 845.5,-179.5 726.5,-179.5"/>
<text text-anchor="middle" x="786" y="-186.5" font-family="FreeSans" font-size="10.00">CoordinateStatistics.ipp</text>
</a>
</g>
</g>
<!-- Node28&#45;&gt;Node29 -->
<g id="edge48" class="edge"><title>Node28&#45;&gt;Node29</title>
<path fill="none" stroke="midnightblue" d="M921.362,-240.975C894.26,-230.769 848.69,-213.608 817.996,-202.049"/>
<polygon fill="midnightblue" stroke="midnightblue" points="819.187,-198.758 808.596,-198.509 816.72,-205.309 819.187,-198.758"/>
</g>
<!-- Node29&#45;&gt;Node1 -->
<g id="edge49" class="edge"><title>Node29&#45;&gt;Node1</title>
<path fill="none" stroke="midnightblue" d="M763.982,-179.495C691.269,-151.409 458.619,-61.5452 373.543,-28.6839"/>
<polygon fill="midnightblue" stroke="midnightblue" points="374.74,-25.3944 364.151,-25.056 372.218,-31.9242 374.74,-25.3944"/>
</g>
<!-- Node29&#45;&gt;Node2 -->
<g id="edge51" class="edge"><title>Node29&#45;&gt;Node2</title>
<path fill="none" stroke="midnightblue" d="M752.566,-179.431C718.411,-170.598 663.887,-156.283 617,-143 474.636,-102.669 306.435,-50.8698 233.188,-28.1062"/>
<polygon fill="midnightblue" stroke="midnightblue" points="234.084,-24.7195 223.496,-25.0911 232.005,-31.4035 234.084,-24.7195"/>
</g>
<!-- Node29&#45;&gt;Node3 -->
<g id="edge54" class="edge"><title>Node29&#45;&gt;Node3</title>
<path fill="none" stroke="midnightblue" d="M771.381,-179.452C756.341,-170.579 732.307,-156.177 712,-143 651.882,-103.99 582.771,-55.0714 549.288,-31.103"/>
<polygon fill="midnightblue" stroke="midnightblue" points="550.992,-28.0178 540.826,-25.0333 546.912,-33.7058 550.992,-28.0178"/>
</g>
<!-- Node29&#45;&gt;Node7 -->
<g id="edge55" class="edge"><title>Node29&#45;&gt;Node7</title>
<path fill="none" stroke="midnightblue" d="M785.776,-179.288C785.927,-165.139 788.464,-137.31 805,-123 819.067,-110.826 1391.63,-37.6858 1529.41,-20.2361"/>
<polygon fill="midnightblue" stroke="midnightblue" points="1530.14,-23.671 1539.63,-18.9433 1529.26,-16.7263 1530.14,-23.671"/>
</g>
<!-- Node29&#45;&gt;Node10 -->
<g id="edge57" class="edge"><title>Node29&#45;&gt;Node10</title>
<path fill="none" stroke="midnightblue" d="M780.079,-179.343C771.595,-165.767 758.422,-139.334 772,-123 780.639,-112.607 1174.19,-45.345 1303.97,-23.4072"/>
<polygon fill="midnightblue" stroke="midnightblue" points="1304.64,-26.8431 1313.92,-21.7266 1303.47,-19.9409 1304.64,-26.8431"/>
</g>
<!-- Node29&#45;&gt;Node14 -->
<g id="edge52" class="edge"><title>Node29&#45;&gt;Node14</title>
<path fill="none" stroke="midnightblue" d="M770.817,-179.426C757.893,-171.454 739.626,-158.496 728,-143 702.815,-109.433 688.502,-61.5133 682.103,-35.3412"/>
<polygon fill="midnightblue" stroke="midnightblue" points="685.436,-34.2216 679.772,-25.2679 678.616,-35.7995 685.436,-34.2216"/>
</g>
<!-- Node29&#45;&gt;Node15 -->
<g id="edge50" class="edge"><title>Node29&#45;&gt;Node15</title>
<path fill="none" stroke="midnightblue" d="M770.361,-179.378C751.671,-167.832 724.086,-146.109 734,-123 751.869,-81.3506 794.915,-48.299 822.135,-30.6307"/>
<polygon fill="midnightblue" stroke="midnightblue" points="824.103,-33.5279 830.701,-25.2384 820.374,-27.6041 824.103,-33.5279"/>
</g>
<!-- Node29&#45;&gt;Node21 -->
<g id="edge59" class="edge"><title>Node29&#45;&gt;Node21</title>
<path fill="none" stroke="midnightblue" d="M845.748,-181.106C928.012,-171.614 1076.56,-154.474 1169.98,-143.694"/>
<polygon fill="midnightblue" stroke="midnightblue" points="1170.44,-147.165 1179.97,-142.542 1169.64,-140.211 1170.44,-147.165"/>
</g>
<!-- Node29&#45;&gt;Node23 -->
<g id="edge58" class="edge"><title>Node29&#45;&gt;Node23</title>
<path fill="none" stroke="midnightblue" d="M735.77,-179.444C679.659,-169.885 588.87,-154.419 529.052,-144.23"/>
<polygon fill="midnightblue" stroke="midnightblue" points="529.44,-140.745 518.995,-142.516 528.265,-147.646 529.44,-140.745"/>
</g>
<!-- Node30 -->
<g id="node31" class="node"><title>Node30</title>
<polygon fill="white" stroke="#bfbfbf" points="814.5,-123.5 814.5,-142.5 909.5,-142.5 909.5,-123.5 814.5,-123.5"/>
<text text-anchor="middle" x="862" y="-130.5" font-family="FreeSans" font-size="10.00">boost/optional.hpp</text>
</g>
<!-- Node29&#45;&gt;Node30 -->
<g id="edge53" class="edge"><title>Node29&#45;&gt;Node30</title>
<path fill="none" stroke="midnightblue" d="M798.211,-179.324C809.776,-171.107 827.375,-158.602 841.161,-148.807"/>
<polygon fill="midnightblue" stroke="midnightblue" points="843.443,-151.479 849.567,-142.834 839.388,-145.773 843.443,-151.479"/>
</g>
<!-- Node31 -->
<g id="node32" class="node"><title>Node31</title>
<polygon fill="white" stroke="#bfbfbf" points="966,-123.5 966,-142.5 1006,-142.5 1006,-123.5 966,-123.5"/>
<text text-anchor="middle" x="986" y="-130.5" font-family="FreeSans" font-size="10.00">limits</text>
</g>
<!-- Node29&#45;&gt;Node31 -->
<g id="edge56" class="edge"><title>Node29&#45;&gt;Node31</title>
<path fill="none" stroke="midnightblue" d="M817.691,-179.444C855.647,-169.195 918.754,-152.156 955.962,-142.11"/>
<polygon fill="midnightblue" stroke="midnightblue" points="956.985,-145.459 965.727,-139.474 955.161,-138.701 956.985,-145.459"/>
</g>
<!-- Node33&#45;&gt;Node5 -->
<g id="edge81" class="edge"><title>Node33&#45;&gt;Node5</title>
<path fill="none" stroke="midnightblue" d="M2465.86,-358.324C2452.13,-349.9 2431.06,-336.971 2414.94,-327.074"/>
<polygon fill="midnightblue" stroke="midnightblue" points="2416.46,-323.902 2406.1,-321.655 2412.8,-329.868 2416.46,-323.902"/>
</g>
<!-- Node34 -->
<g id="node35" class="node"><title>Node34</title>
<g id="a_node35"><a xlink:href="BoostBimap_8ipp.html" target="_top" xlink:title="BoostBimap.ipp">
<polygon fill="white" stroke="black" points="1747.5,-67.5 1747.5,-86.5 1832.5,-86.5 1832.5,-67.5 1747.5,-67.5"/>
<text text-anchor="middle" x="1790" y="-74.5" font-family="FreeSans" font-size="10.00">BoostBimap.ipp</text>
</a>
</g>
</g>
<!-- Node33&#45;&gt;Node34 -->
<g id="edge65" class="edge"><title>Node33&#45;&gt;Node34</title>
<path fill="none" stroke="midnightblue" d="M2472.77,-358.257C2461.55,-345.025 2438.83,-319.594 2416,-302 2280.42,-197.514 2238,-175.236 2075,-123 1996.47,-97.8351 1901.09,-86.4268 1843,-81.4887"/>
<polygon fill="midnightblue" stroke="midnightblue" points="1843.21,-77.9938 1832.95,-80.6676 1842.64,-84.9705 1843.21,-77.9938"/>
</g>
<!-- Node37 -->
<g id="node38" class="node"><title>Node37</title>
<polygon fill="white" stroke="#bfbfbf" points="2463,-302.5 2463,-321.5 2551,-321.5 2551,-302.5 2463,-302.5"/>
<text text-anchor="middle" x="2507" y="-309.5" font-family="FreeSans" font-size="10.00">boost/bimap.hpp</text>
</g>
<!-- Node33&#45;&gt;Node37 -->
<g id="edge79" class="edge"><title>Node33&#45;&gt;Node37</title>
<path fill="none" stroke="midnightblue" d="M2484.46,-358.083C2488.15,-350.691 2493.52,-339.953 2498.09,-330.811"/>
<polygon fill="midnightblue" stroke="midnightblue" points="2501.28,-332.261 2502.62,-321.751 2495.02,-329.13 2501.28,-332.261"/>
</g>
<!-- Node38 -->
<g id="node39" class="node"><title>Node38</title>
<polygon fill="white" stroke="#bfbfbf" points="2569.5,-302.5 2569.5,-321.5 2686.5,-321.5 2686.5,-302.5 2569.5,-302.5"/>
<text text-anchor="middle" x="2628" y="-309.5" font-family="FreeSans" font-size="10.00">boost/bimap/list_of.hpp</text>
</g>
<!-- Node33&#45;&gt;Node38 -->
<g id="edge80" class="edge"><title>Node33&#45;&gt;Node38</title>
<path fill="none" stroke="midnightblue" d="M2503.45,-358.444C2528.13,-349.438 2567.19,-335.189 2594.98,-325.049"/>
<polygon fill="midnightblue" stroke="midnightblue" points="2596.46,-328.232 2604.66,-321.516 2594.06,-321.656 2596.46,-328.232"/>
</g>
<!-- Node34&#45;&gt;Node1 -->
<g id="edge66" class="edge"><title>Node34&#45;&gt;Node1</title>
<path fill="none" stroke="midnightblue" d="M1747.41,-74.9192C1551.81,-69.8958 738.213,-48.3391 484,-31 462.016,-29.5006 438.173,-27.2934 416.414,-25.0511"/>
<polygon fill="midnightblue" stroke="midnightblue" points="416.559,-21.5472 406.248,-23.9858 415.829,-28.5091 416.559,-21.5472"/>
</g>
<!-- Node34&#45;&gt;Node2 -->
<g id="edge69" class="edge"><title>Node34&#45;&gt;Node2</title>
<path fill="none" stroke="midnightblue" d="M1747.45,-75.1646C1516.58,-70.5756 419.198,-48.0188 269,-31 260.418,-30.0276 251.341,-28.5744 242.612,-26.9578"/>
<polygon fill="midnightblue" stroke="midnightblue" points="243.06,-23.4794 232.575,-25.004 241.722,-30.3505 243.06,-23.4794"/>
</g>
<!-- Node34&#45;&gt;Node6 -->
<g id="edge72" class="edge"><title>Node34&#45;&gt;Node6</title>
<path fill="none" stroke="midnightblue" d="M1747.24,-72.4562C1615.93,-61.5753 1220.47,-28.8033 1104.37,-19.1828"/>
<polygon fill="midnightblue" stroke="midnightblue" points="1104.59,-15.6888 1094.33,-18.3508 1104.01,-22.6648 1104.59,-15.6888"/>
</g>
<!-- Node34&#45;&gt;Node7 -->
<g id="edge74" class="edge"><title>Node34&#45;&gt;Node7</title>
<path fill="none" stroke="midnightblue" d="M1747.32,-67.8924C1696.84,-58.0674 1616.01,-41.525 1587,-31 1585.76,-30.5485 1584.5,-30.0528 1583.24,-29.5254"/>
<polygon fill="midnightblue" stroke="midnightblue" points="1584.33,-26.1698 1573.79,-25.0664 1581.34,-32.5 1584.33,-26.1698"/>
</g>
<!-- Node34&#45;&gt;Node9 -->
<g id="edge75" class="edge"><title>Node34&#45;&gt;Node9</title>
<path fill="none" stroke="midnightblue" d="M1832.52,-67.5383C1892.05,-55.6928 1999.09,-34.3915 2054.17,-23.4312"/>
<polygon fill="midnightblue" stroke="midnightblue" points="2055.02,-26.8307 2064.14,-21.4462 2053.65,-19.9653 2055.02,-26.8307"/>
</g>
<!-- Node34&#45;&gt;Node10 -->
<g id="edge76" class="edge"><title>Node34&#45;&gt;Node10</title>
<path fill="none" stroke="midnightblue" d="M1747.33,-70.2949C1661.82,-58.8608 1470.45,-33.273 1386.18,-22.0057"/>
<polygon fill="midnightblue" stroke="midnightblue" points="1386.58,-18.5289 1376.21,-20.6726 1385.66,-25.4671 1386.58,-18.5289"/>
</g>
<!-- Node34&#45;&gt;Node11 -->
<g id="edge78" class="edge"><title>Node34&#45;&gt;Node11</title>
<path fill="none" stroke="midnightblue" d="M1820.87,-67.4811C1849.91,-59.1723 1894.42,-45.6714 1932,-31 1933.42,-30.4463 1934.86,-29.8582 1936.32,-29.2481"/>
<polygon fill="midnightblue" stroke="midnightblue" points="1938.08,-32.2947 1945.79,-25.0344 1935.23,-25.8982 1938.08,-32.2947"/>
</g>
<!-- Node34&#45;&gt;Node14 -->
<g id="edge67" class="edge"><title>Node34&#45;&gt;Node14</title>
<path fill="none" stroke="midnightblue" d="M1747.47,-74.8612C1578.97,-70.237 957.82,-52.1006 762,-31 751.958,-29.9179 741.3,-28.3822 731.068,-26.7116"/>
<polygon fill="midnightblue" stroke="midnightblue" points="731.461,-23.2284 721.017,-25.0079 730.291,-30.13 731.461,-23.2284"/>
</g>
<!-- Node34&#45;&gt;Node15 -->
<g id="edge68" class="edge"><title>Node34&#45;&gt;Node15</title>
<path fill="none" stroke="midnightblue" d="M1747.17,-75.3937C1621.88,-73.2661 1245.36,-64.3496 935,-31 924.502,-29.8719 913.358,-28.3318 902.637,-26.6751"/>
<polygon fill="midnightblue" stroke="midnightblue" points="902.949,-23.1807 892.523,-25.0605 901.846,-30.0932 902.949,-23.1807"/>
</g>
<!-- Node34&#45;&gt;Node19 -->
<g id="edge73" class="edge"><title>Node34&#45;&gt;Node19</title>
<path fill="none" stroke="midnightblue" d="M1809.36,-67.3998C1828.55,-58.7147 1858.68,-44.6652 1884,-31 1884.54,-30.7109 1885.08,-30.4156 1885.62,-30.1151"/>
<polygon fill="midnightblue" stroke="midnightblue" points="1887.53,-33.0549 1894.43,-25.0138 1884.02,-26.9978 1887.53,-33.0549"/>
</g>
<!-- Node34&#45;&gt;Node27 -->
<g id="edge77" class="edge"><title>Node34&#45;&gt;Node27</title>
<path fill="none" stroke="midnightblue" d="M1783.55,-67.4751C1776.8,-58.5501 1766.03,-44.3071 1757.59,-33.1425"/>
<polygon fill="midnightblue" stroke="midnightblue" points="1760.26,-30.8737 1751.44,-25.0091 1754.68,-35.0962 1760.26,-30.8737"/>
</g>
<!-- Node35 -->
<g id="node36" class="node"><title>Node35</title>
<polygon fill="white" stroke="#bfbfbf" points="1786.5,-0.5 1786.5,-30.5 1875.5,-30.5 1875.5,-0.5 1786.5,-0.5"/>
<text text-anchor="start" x="1794.5" y="-18.5" font-family="FreeSans" font-size="10.00">boost/iterator/zip</text>
<text text-anchor="middle" x="1831" y="-7.5" font-family="FreeSans" font-size="10.00">_iterator.hpp</text>
</g>
<!-- Node34&#45;&gt;Node35 -->
<g id="edge70" class="edge"><title>Node34&#45;&gt;Node35</title>
<path fill="none" stroke="midnightblue" d="M1795.87,-67.4751C1801.01,-60.0192 1808.71,-48.8519 1815.59,-38.8685"/>
<polygon fill="midnightblue" stroke="midnightblue" points="1818.55,-40.7433 1821.34,-30.523 1812.78,-36.7714 1818.55,-40.7433"/>
</g>
<!-- Node36 -->
<g id="node37" class="node"><title>Node36</title>
<polygon fill="white" stroke="#bfbfbf" points="1596.5,-6 1596.5,-25 1703.5,-25 1703.5,-6 1596.5,-6"/>
<text text-anchor="middle" x="1650" y="-13" font-family="FreeSans" font-size="10.00">boost/tuple/tuple.hpp</text>
</g>
<!-- Node34&#45;&gt;Node36 -->
<g id="edge71" class="edge"><title>Node34&#45;&gt;Node36</title>
<path fill="none" stroke="midnightblue" d="M1769.94,-67.4751C1746.24,-57.4013 1706.59,-40.5525 1679.42,-29.0023"/>
<polygon fill="midnightblue" stroke="midnightblue" points="1680.59,-25.6994 1670.02,-25.0091 1677.86,-32.1417 1680.59,-25.6994"/>
</g>
<!-- Node40 -->
<g id="node41" class="node"><title>Node40</title>
<g id="a_node41"><a xlink:href="EigenExtensions_8ipp.html" target="_top" xlink:title="EigenExtensions.ipp">
<polygon fill="white" stroke="black" points="1436.5,-179.5 1436.5,-198.5 1539.5,-198.5 1539.5,-179.5 1436.5,-179.5"/>
<text text-anchor="middle" x="1488" y="-186.5" font-family="FreeSans" font-size="10.00">EigenExtensions.ipp</text>
</a>
</g>
</g>
<!-- Node39&#45;&gt;Node40 -->
<g id="edge84" class="edge"><title>Node39&#45;&gt;Node40</title>
<path fill="none" stroke="midnightblue" d="M1539.4,-240.975C1530.14,-231.785 1515.18,-216.956 1503.79,-205.656"/>
<polygon fill="midnightblue" stroke="midnightblue" points="1506.15,-203.065 1496.58,-198.509 1501.22,-208.036 1506.15,-203.065"/>
</g>
<!-- Node40&#45;&gt;Node3 -->
<g id="edge85" class="edge"><title>Node40&#45;&gt;Node3</title>
<path fill="none" stroke="midnightblue" d="M1470.68,-179.432C1437.78,-163.313 1367.2,-129.507 1341,-123 1120.47,-68.2365 1055.68,-120.935 831,-87 735.58,-72.588 625.733,-43.7974 568.437,-27.8274"/>
<polygon fill="midnightblue" stroke="midnightblue" points="569.274,-24.4269 558.7,-25.0953 567.383,-31.1666 569.274,-24.4269"/>
</g>
<!-- Node40&#45;&gt;Node9 -->
<g id="edge87" class="edge"><title>Node40&#45;&gt;Node9</title>
<path fill="none" stroke="midnightblue" d="M1499.23,-179.32C1518.47,-164.957 1559.48,-136.494 1599,-123 1717.32,-82.5993 1756.13,-114.942 1878,-87 1943.73,-71.9287 2017.95,-44.6205 2058.51,-28.7785"/>
<polygon fill="midnightblue" stroke="midnightblue" points="2059.81,-32.0285 2067.83,-25.107 2057.24,-25.5155 2059.81,-32.0285"/>
</g>
<!-- Node40&#45;&gt;Node10 -->
<g id="edge90" class="edge"><title>Node40&#45;&gt;Node10</title>
<path fill="none" stroke="midnightblue" d="M1469.33,-179.392C1453.89,-171.569 1432.11,-158.842 1417,-143 1385.58,-110.05 1362.72,-60.8195 1351.94,-34.5469"/>
<polygon fill="midnightblue" stroke="midnightblue" points="1355.13,-33.0948 1348.18,-25.0976 1348.62,-35.6831 1355.13,-33.0948"/>
</g>
<!-- Node40&#45;&gt;Node11 -->
<g id="edge89" class="edge"><title>Node40&#45;&gt;Node11</title>
<path fill="none" stroke="midnightblue" d="M1490.67,-179.046C1495.51,-164.55 1507.21,-136.234 1528,-123 1646.13,-47.8107 1708.05,-130.949 1841,-87 1879.96,-74.1218 1920.24,-47.8536 1943.39,-31.2707"/>
<polygon fill="midnightblue" stroke="midnightblue" points="1945.64,-33.9569 1951.65,-25.2328 1941.51,-28.3037 1945.64,-33.9569"/>
</g>
<!-- Node40&#45;&gt;Node18 -->
<g id="edge86" class="edge"><title>Node40&#45;&gt;Node18</title>
<path fill="none" stroke="midnightblue" d="M1513.83,-179.444C1541.25,-170.359 1584.78,-155.939 1615.43,-145.783"/>
<polygon fill="midnightblue" stroke="midnightblue" points="1616.9,-148.984 1625.29,-142.516 1614.7,-142.339 1616.9,-148.984"/>
</g>
<!-- Node40&#45;&gt;Node21 -->
<g id="edge92" class="edge"><title>Node40&#45;&gt;Node21</title>
<path fill="none" stroke="midnightblue" d="M1450.92,-179.444C1410.27,-170.063 1344.97,-154.993 1300.82,-144.804"/>
<polygon fill="midnightblue" stroke="midnightblue" points="1301.44,-141.355 1290.9,-142.516 1299.86,-148.175 1301.44,-141.355"/>
</g>
<!-- Node40&#45;&gt;Node31 -->
<g id="edge91" class="edge"><title>Node40&#45;&gt;Node31</title>
<path fill="none" stroke="midnightblue" d="M1436.17,-182.424C1331.77,-171.195 1099.09,-146.165 1016.11,-137.239"/>
<polygon fill="midnightblue" stroke="midnightblue" points="1016.41,-133.751 1006.09,-136.161 1015.66,-140.71 1016.41,-133.751"/>
</g>
<!-- Node41 -->
<g id="node42" class="node"><title>Node41</title>
<polygon fill="white" stroke="#bfbfbf" points="1426.5,-123.5 1426.5,-142.5 1475.5,-142.5 1475.5,-123.5 1426.5,-123.5"/>
<text text-anchor="middle" x="1451" y="-130.5" font-family="FreeSans" font-size="10.00">cassert</text>
</g>
<!-- Node40&#45;&gt;Node41 -->
<g id="edge88" class="edge"><title>Node40&#45;&gt;Node41</title>
<path fill="none" stroke="midnightblue" d="M1481.89,-179.083C1476.72,-171.534 1469.15,-160.495 1462.81,-151.23"/>
<polygon fill="midnightblue" stroke="midnightblue" points="1465.54,-149.022 1457,-142.751 1459.76,-152.979 1465.54,-149.022"/>
</g>
<!-- Node43 -->
<g id="node44" class="node"><title>Node43</title>
<g id="a_node44"><a xlink:href="Complexity_8ipp.html" target="_top" xlink:title="Complexity.ipp">
<polygon fill="white" stroke="black" points="2348.5,-67.5 2348.5,-86.5 2427.5,-86.5 2427.5,-67.5 2348.5,-67.5"/>
<text text-anchor="middle" x="2388" y="-74.5" font-family="FreeSans" font-size="10.00">Complexity.ipp</text>
</a>
</g>
</g>
<!-- Node42&#45;&gt;Node43 -->
<g id="edge95" class="edge"><title>Node42&#45;&gt;Node43</title>
<path fill="none" stroke="midnightblue" d="M2406.43,-179.368C2403.2,-161.617 2395.76,-120.666 2391.38,-96.5974"/>
<polygon fill="midnightblue" stroke="midnightblue" points="2394.79,-95.804 2389.56,-86.5914 2387.91,-97.0562 2394.79,-95.804"/>
</g>
<!-- Node43&#45;&gt;Node9 -->
<g id="edge99" class="edge"><title>Node43&#45;&gt;Node9</title>
<path fill="none" stroke="midnightblue" d="M2348.3,-68.0989C2289.35,-56.3683 2179.64,-34.537 2123.72,-23.4085"/>
<polygon fill="midnightblue" stroke="midnightblue" points="2124.09,-19.9149 2113.6,-21.3958 2122.73,-26.7803 2124.09,-19.9149"/>
</g>
<!-- Node43&#45;&gt;Node25 -->
<g id="edge98" class="edge"><title>Node43&#45;&gt;Node25</title>
<path fill="none" stroke="midnightblue" d="M2367.08,-67.4751C2341.69,-57.1272 2298.76,-39.6305 2270.39,-28.0714"/>
<polygon fill="midnightblue" stroke="midnightblue" points="2271.6,-24.7847 2261.02,-24.2519 2268.96,-31.2671 2271.6,-24.7847"/>
</g>
<!-- Node43&#45;&gt;Node27 -->
<g id="edge100" class="edge"><title>Node43&#45;&gt;Node27</title>
<path fill="none" stroke="midnightblue" d="M2348.5,-74.8984C2231.12,-71.3404 1885.87,-58.7388 1777,-31 1774.79,-30.4372 1772.54,-29.7296 1770.32,-28.9316"/>
<polygon fill="midnightblue" stroke="midnightblue" points="1771.46,-25.6138 1760.88,-25.0222 1768.78,-32.0814 1771.46,-25.6138"/>
</g>
<!-- Node44 -->
<g id="node45" class="node"><title>Node44</title>
<polygon fill="white" stroke="#bfbfbf" points="2434.5,-0.5 2434.5,-30.5 2535.5,-30.5 2535.5,-0.5 2434.5,-0.5"/>
<text text-anchor="start" x="2442.5" y="-18.5" font-family="FreeSans" font-size="10.00">boost/math/special</text>
<text text-anchor="middle" x="2485" y="-7.5" font-family="FreeSans" font-size="10.00">_functions/pow.hpp</text>
</g>
<!-- Node43&#45;&gt;Node44 -->
<g id="edge96" class="edge"><title>Node43&#45;&gt;Node44</title>
<path fill="none" stroke="midnightblue" d="M2401.9,-67.4751C2415.28,-59.266 2436,-46.5581 2453.4,-35.8845"/>
<polygon fill="midnightblue" stroke="midnightblue" points="2455.44,-38.7352 2462.14,-30.523 2451.78,-32.7683 2455.44,-38.7352"/>
</g>
<!-- Node45 -->
<g id="node46" class="node"><title>Node45</title>
<polygon fill="white" stroke="#bfbfbf" points="2370.5,-6 2370.5,-25 2405.5,-25 2405.5,-6 2370.5,-6"/>
<text text-anchor="middle" x="2388" y="-13" font-family="FreeSans" font-size="10.00">map</text>
</g>
<!-- Node43&#45;&gt;Node45 -->
<g id="edge97" class="edge"><title>Node43&#45;&gt;Node45</title>
<path fill="none" stroke="midnightblue" d="M2388,-67.4751C2388,-59.0803 2388,-45.9806 2388,-35.1631"/>
<polygon fill="midnightblue" stroke="midnightblue" points="2391.5,-35.0091 2388,-25.0091 2384.5,-35.0091 2391.5,-35.0091"/>
</g>
<!-- Node46&#45;&gt;Node3 -->
<g id="edge117" class="edge"><title>Node46&#45;&gt;Node3</title>
<path fill="none" stroke="midnightblue" d="M746.411,-359.947C601.338,-343.46 266,-300.096 266,-251.5 266,-251.5 266,-251.5 266,-188 266,-85.5697 407.704,-41.109 483.083,-24.7045"/>
<polygon fill="midnightblue" stroke="midnightblue" points="484.187,-28.0492 493.257,-22.5729 482.752,-21.1979 484.187,-28.0492"/>
</g>
<!-- Node47 -->
<g id="node48" class="node"><title>Node47</title>
<g id="a_node48"><a xlink:href="LinearAlgebra_8ipp.html" target="_top" xlink:title="LinearAlgebra.ipp">
<polygon fill="white" stroke="black" points="1718,-302.5 1718,-321.5 1810,-321.5 1810,-302.5 1718,-302.5"/>
<text text-anchor="middle" x="1764" y="-309.5" font-family="FreeSans" font-size="10.00">LinearAlgebra.ipp</text>
</a>
</g>
</g>
<!-- Node46&#45;&gt;Node47 -->
<g id="edge102" class="edge"><title>Node46&#45;&gt;Node47</title>
<path fill="none" stroke="midnightblue" d="M877.824,-358.844C880.924,-358.541 883.995,-358.257 887,-358 1196.35,-331.533 1568.53,-318.698 1707.79,-314.555"/>
<polygon fill="midnightblue" stroke="midnightblue" points="1707.91,-318.053 1717.81,-314.26 1707.71,-311.056 1707.91,-318.053"/>
</g>
<!-- Node47&#45;&gt;Node1 -->
<g id="edge103" class="edge"><title>Node47&#45;&gt;Node1</title>
<path fill="none" stroke="midnightblue" d="M1717.81,-310.692C1559.73,-309.319 1041.18,-302.105 879,-266 843.392,-258.073 837.789,-245.975 803,-235 627.38,-179.595 572.035,-206.016 399,-143 347.824,-124.363 318.379,-133.486 290,-87 277.561,-66.6249 299.924,-44.7321 319.088,-30.8422"/>
<polygon fill="midnightblue" stroke="midnightblue" points="321.26,-33.5968 327.532,-25.0577 317.304,-27.8219 321.26,-33.5968"/>
</g>
<!-- Node47&#45;&gt;Node4 -->
<g id="edge108" class="edge"><title>Node47&#45;&gt;Node4</title>
<path fill="none" stroke="midnightblue" d="M1810.21,-308.967C1887.35,-304.913 2046.9,-293.7 2179,-266 2182.94,-265.173 2187.03,-264.145 2191.07,-263.02"/>
<polygon fill="midnightblue" stroke="midnightblue" points="2192.31,-266.302 2200.89,-260.084 2190.3,-259.595 2192.31,-266.302"/>
</g>
<!-- Node47&#45;&gt;Node7 -->
<g id="edge110" class="edge"><title>Node47&#45;&gt;Node7</title>
<path fill="none" stroke="midnightblue" d="M1770.23,-302.493C1780.61,-288.365 1802.17,-259.219 1821,-235 1833.61,-218.779 1843.17,-218.376 1850,-199 1861.23,-167.145 1870.81,-149.607 1850,-123 1809.09,-70.6956 1767.53,-109.346 1705,-87 1677.67,-77.2321 1613,-43.8979 1587,-31 1586.16,-30.5849 1585.31,-30.1608 1584.46,-29.7306"/>
<polygon fill="midnightblue" stroke="midnightblue" points="1585.74,-26.4546 1575.24,-25.03 1582.56,-32.6907 1585.74,-26.4546"/>
</g>
<!-- Node47&#45;&gt;Node9 -->
<g id="edge112" class="edge"><title>Node47&#45;&gt;Node9</title>
<path fill="none" stroke="midnightblue" d="M1810.24,-309.598C1888.38,-306.411 2042.32,-296.366 2086,-266 2117.51,-244.094 2127,-228.38 2127,-190 2127,-190 2127,-190 2127,-132 2127,-95.7544 2109.91,-56.171 2098.65,-34.0327"/>
<polygon fill="midnightblue" stroke="midnightblue" points="2101.73,-32.3745 2093.97,-25.1633 2095.54,-35.641 2101.73,-32.3745"/>
</g>
<!-- Node47&#45;&gt;Node10 -->
<g id="edge114" class="edge"><title>Node47&#45;&gt;Node10</title>
<path fill="none" stroke="midnightblue" d="M1767.9,-302.428C1780.32,-273.71 1815.75,-179.527 1774,-123 1741.68,-79.2365 1707.29,-107.759 1657,-87 1639.36,-79.7177 1637.03,-73.2452 1619,-67 1539.13,-39.3419 1440.64,-25.9129 1386.16,-20.1743"/>
<polygon fill="midnightblue" stroke="midnightblue" points="1386.49,-16.6904 1376.19,-19.1588 1385.78,-23.6543 1386.49,-16.6904"/>
</g>
<!-- Node47&#45;&gt;Node11 -->
<g id="edge113" class="edge"><title>Node47&#45;&gt;Node11</title>
<path fill="none" stroke="midnightblue" d="M1810.01,-311.25C1887.05,-310.579 2036.96,-304.25 2070,-266 2079.01,-255.573 2073.11,-248.422 2070,-235 2067.5,-224.197 1997.08,-84.0464 1971.87,-34.0613"/>
<polygon fill="midnightblue" stroke="midnightblue" points="1974.97,-32.4366 1967.34,-25.086 1968.72,-35.5905 1974.97,-32.4366"/>
</g>
<!-- Node47&#45;&gt;Node18 -->
<g id="edge109" class="edge"><title>Node47&#45;&gt;Node18</title>
<path fill="none" stroke="midnightblue" d="M1758.55,-302.463C1741.07,-275.078 1686.15,-189.052 1662.27,-151.653"/>
<polygon fill="midnightblue" stroke="midnightblue" points="1664.99,-149.414 1656.66,-142.868 1659.09,-153.181 1664.99,-149.414"/>
</g>
<!-- Node47&#45;&gt;Node21 -->
<g id="edge115" class="edge"><title>Node47&#45;&gt;Node21</title>
<path fill="none" stroke="midnightblue" d="M1752.12,-302.388C1729.53,-286.451 1678.31,-252.401 1630,-235 1543.79,-203.949 1514.39,-226.554 1427,-199 1406.9,-192.662 1403.54,-186.902 1384,-179 1352.98,-166.455 1316.98,-154.163 1290.74,-145.605"/>
<polygon fill="midnightblue" stroke="midnightblue" points="1291.78,-142.264 1281.19,-142.515 1289.62,-148.924 1291.78,-142.264"/>
</g>
<!-- Node47&#45;&gt;Node26 -->
<g id="edge111" class="edge"><title>Node47&#45;&gt;Node26</title>
<path fill="none" stroke="midnightblue" d="M1717.95,-307.549C1658.6,-302.316 1552.64,-290.295 1465,-266 1326.92,-227.725 1294.24,-208.874 1167,-143 1098.68,-107.628 1023.29,-56.3154 987.735,-31.311"/>
<polygon fill="midnightblue" stroke="midnightblue" points="989.376,-28.1849 979.191,-25.2681 985.334,-33.9 989.376,-28.1849"/>
</g>
<!-- Node47&#45;&gt;Node30 -->
<g id="edge104" class="edge"><title>Node47&#45;&gt;Node30</title>
<path fill="none" stroke="midnightblue" d="M1717.96,-311.743C1621.38,-312.335 1391.1,-308.677 1204,-266 1081.37,-238.027 944.251,-174.573 888.102,-147.094"/>
<polygon fill="midnightblue" stroke="midnightblue" points="889.402,-143.832 878.885,-142.548 886.306,-150.11 889.402,-143.832"/>
</g>
<!-- Node47&#45;&gt;Node39 -->
<g id="edge116" class="edge"><title>Node47&#45;&gt;Node39</title>
<path fill="none" stroke="midnightblue" d="M1733.05,-302.475C1695.12,-292.026 1630.72,-274.287 1588.78,-262.733"/>
<polygon fill="midnightblue" stroke="midnightblue" points="1589.46,-259.291 1578.89,-260.009 1587.6,-266.039 1589.46,-259.291"/>
</g>
<!-- Node47&#45;&gt;Node44 -->
<g id="edge105" class="edge"><title>Node47&#45;&gt;Node44</title>
<path fill="none" stroke="midnightblue" d="M1810.01,-309.407C1877.91,-306.097 2008.42,-296.058 2115,-266 2147.36,-256.875 2151.62,-244.04 2184,-235 2247.18,-217.36 2432.47,-247.17 2477,-199 2516.95,-155.789 2503.19,-79.3388 2492.59,-40.5363"/>
<polygon fill="midnightblue" stroke="midnightblue" points="2495.87,-39.284 2489.73,-30.6492 2489.15,-41.2279 2495.87,-39.284"/>
</g>
<!-- Node48 -->
<g id="node49" class="node"><title>Node48</title>
<polygon fill="white" stroke="#bfbfbf" points="1830.5,-235.5 1830.5,-265.5 1931.5,-265.5 1931.5,-235.5 1830.5,-235.5"/>
<text text-anchor="start" x="1838.5" y="-253.5" font-family="FreeSans" font-size="10.00">boost/math/special</text>
<text text-anchor="middle" x="1881" y="-242.5" font-family="FreeSans" font-size="10.00">_functions/sign.hpp</text>
</g>
<!-- Node47&#45;&gt;Node48 -->
<g id="edge106" class="edge"><title>Node47&#45;&gt;Node48</title>
<path fill="none" stroke="midnightblue" d="M1780.76,-302.475C1797.28,-294.078 1823.05,-280.973 1844.32,-270.153"/>
<polygon fill="midnightblue" stroke="midnightblue" points="1846.1,-273.176 1853.43,-265.523 1842.93,-266.936 1846.1,-273.176"/>
</g>
<!-- Node49 -->
<g id="node50" class="node"><title>Node49</title>
<polygon fill="white" stroke="#bfbfbf" points="1949.5,-235.5 1949.5,-265.5 2060.5,-265.5 2060.5,-235.5 1949.5,-235.5"/>
<text text-anchor="start" x="1957.5" y="-253.5" font-family="FreeSans" font-size="10.00">boost/math/constants</text>
<text text-anchor="middle" x="2005" y="-242.5" font-family="FreeSans" font-size="10.00">/constants.hpp</text>
</g>
<!-- Node47&#45;&gt;Node49 -->
<g id="edge107" class="edge"><title>Node47&#45;&gt;Node49</title>
<path fill="none" stroke="midnightblue" d="M1798.53,-302.475C1835.15,-293.434 1893.87,-278.936 1939.35,-267.709"/>
<polygon fill="midnightblue" stroke="midnightblue" points="1940.26,-271.089 1949.13,-265.294 1938.58,-264.293 1940.26,-271.089"/>
</g>
</g>
</svg>
