<?xml version="1.0" encoding="UTF-8" standalone="no"?>
<!DOCTYPE svg PUBLIC "-//W3C//DTD SVG 1.1//EN"
 "http://www.w3.org/Graphics/SVG/1.1/DTD/svg11.dtd">
<!-- Generated by graphviz version 2.38.0 (20140413.2041)
 -->
<!-- Title: src/Wrappers/EigenExtensions.cpp Pages: 1 -->
<svg width="599pt" height="308pt"
 viewBox="0.00 0.00 598.50 308.00" xmlns="http://www.w3.org/2000/svg" xmlns:xlink="http://www.w3.org/1999/xlink">
<g id="graph0" class="graph" transform="scale(1 1) rotate(0) translate(4 304)">
<title>src/Wrappers/EigenExtensions.cpp</title>
<polygon fill="white" stroke="none" points="-4,4 -4,-304 594.5,-304 594.5,4 -4,4"/>
<!-- Node0 -->
<g id="node1" class="node"><title>Node0</title>
<polygon fill="#bfbfbf" stroke="black" points="234,-280.5 234,-299.5 401,-299.5 401,-280.5 234,-280.5"/>
<text text-anchor="middle" x="317.5" y="-287.5" font-family="FreeSans" font-size="10.00">src/Wrappers/EigenExtensions.cpp</text>
</g>
<!-- Node1 -->
<g id="node2" class="node"><title>Node1</title>
<g id="a_node2"><a xlink:href="EigenExtensions_8h.html" target="_top" xlink:title="EigenExtensions.h">
<polygon fill="white" stroke="black" points="270,-224.5 270,-243.5 365,-243.5 365,-224.5 270,-224.5"/>
<text text-anchor="middle" x="317.5" y="-231.5" font-family="FreeSans" font-size="10.00">EigenExtensions.h</text>
</a>
</g>
</g>
<!-- Node0&#45;&gt;Node1 -->
<g id="edge1" class="edge"><title>Node0&#45;&gt;Node1</title>
<path fill="none" stroke="midnightblue" d="M317.5,-280.083C317.5,-273.006 317.5,-262.861 317.5,-253.986"/>
<polygon fill="midnightblue" stroke="midnightblue" points="321,-253.751 317.5,-243.751 314,-253.751 321,-253.751"/>
</g>
<!-- Node2 -->
<g id="node3" class="node"><title>Node2</title>
<g id="a_node3"><a xlink:href="EigenExtensions_8ipp.html" target="_top" xlink:title="EigenExtensions.ipp">
<polygon fill="white" stroke="black" points="266,-168.5 266,-187.5 369,-187.5 369,-168.5 266,-168.5"/>
<text text-anchor="middle" x="317.5" y="-175.5" font-family="FreeSans" font-size="10.00">EigenExtensions.ipp</text>
</a>
</g>
</g>
<!-- Node1&#45;&gt;Node2 -->
<g id="edge2" class="edge"><title>Node1&#45;&gt;Node2</title>
<path fill="none" stroke="midnightblue" d="M317.5,-224.083C317.5,-217.006 317.5,-206.861 317.5,-197.986"/>
<polygon fill="midnightblue" stroke="midnightblue" points="321,-197.751 317.5,-187.751 314,-197.751 321,-197.751"/>
</g>
<!-- Node3 -->
<g id="node4" class="node"><title>Node3</title>
<polygon fill="white" stroke="#bfbfbf" points="0,-112.5 0,-131.5 71,-131.5 71,-112.5 0,-112.5"/>
<text text-anchor="middle" x="35.5" y="-119.5" font-family="FreeSans" font-size="10.00">Eigen/Dense</text>
</g>
<!-- Node2&#45;&gt;Node3 -->
<g id="edge3" class="edge"><title>Node2&#45;&gt;Node3</title>
<path fill="none" stroke="midnightblue" d="M271.597,-168.422C225.981,-159.866 153.743,-146.235 81.5402,-132.188"/>
<polygon fill="midnightblue" stroke="midnightblue" points="81.8399,-128.681 71.3551,-130.204 80.5013,-135.552 81.8399,-128.681"/>
</g>
<!-- Node4 -->
<g id="node5" class="node"><title>Node4</title>
<polygon fill="white" stroke="#bfbfbf" points="89.5,-112.5 89.5,-131.5 175.5,-131.5 175.5,-112.5 89.5,-112.5"/>
<text text-anchor="middle" x="132.5" y="-119.5" font-family="FreeSans" font-size="10.00">Eigen/Geometry</text>
</g>
<!-- Node2&#45;&gt;Node4 -->
<g id="edge4" class="edge"><title>Node2&#45;&gt;Node4</title>
<path fill="none" stroke="midnightblue" d="M288.186,-168.444C256.658,-159.241 206.369,-144.562 171.514,-134.388"/>
<polygon fill="midnightblue" stroke="midnightblue" points="172.257,-130.959 161.677,-131.516 170.295,-137.678 172.257,-130.959"/>
</g>
<!-- Node5 -->
<g id="node6" class="node"><title>Node5</title>
<polygon fill="white" stroke="#bfbfbf" points="194,-112.5 194,-131.5 243,-131.5 243,-112.5 194,-112.5"/>
<text text-anchor="middle" x="218.5" y="-119.5" font-family="FreeSans" font-size="10.00">cstddef</text>
</g>
<!-- Node2&#45;&gt;Node5 -->
<g id="edge5" class="edge"><title>Node2&#45;&gt;Node5</title>
<path fill="none" stroke="midnightblue" d="M301.594,-168.324C285.862,-159.743 261.558,-146.486 243.291,-136.522"/>
<polygon fill="midnightblue" stroke="midnightblue" points="244.822,-133.37 234.367,-131.655 241.47,-139.516 244.822,-133.37"/>
</g>
<!-- Node6 -->
<g id="node7" class="node"><title>Node6</title>
<polygon fill="white" stroke="#bfbfbf" points="261,-112.5 261,-131.5 310,-131.5 310,-112.5 261,-112.5"/>
<text text-anchor="middle" x="285.5" y="-119.5" font-family="FreeSans" font-size="10.00">cassert</text>
</g>
<!-- Node2&#45;&gt;Node6 -->
<g id="edge6" class="edge"><title>Node2&#45;&gt;Node6</title>
<path fill="none" stroke="midnightblue" d="M312.216,-168.083C307.789,-160.613 301.337,-149.724 295.882,-140.52"/>
<polygon fill="midnightblue" stroke="midnightblue" points="298.795,-138.57 290.686,-131.751 292.773,-142.138 298.795,-138.57"/>
</g>
<!-- Node7 -->
<g id="node8" class="node"><title>Node7</title>
<polygon fill="white" stroke="#bfbfbf" points="328.5,-112.5 328.5,-131.5 372.5,-131.5 372.5,-112.5 328.5,-112.5"/>
<text text-anchor="middle" x="350.5" y="-119.5" font-family="FreeSans" font-size="10.00">cmath</text>
</g>
<!-- Node2&#45;&gt;Node7 -->
<g id="edge7" class="edge"><title>Node2&#45;&gt;Node7</title>
<path fill="none" stroke="midnightblue" d="M322.949,-168.083C327.514,-160.613 334.168,-149.724 339.793,-140.52"/>
<polygon fill="midnightblue" stroke="midnightblue" points="342.924,-142.109 345.152,-131.751 336.951,-138.459 342.924,-142.109"/>
</g>
<!-- Node8 -->
<g id="node9" class="node"><title>Node8</title>
<polygon fill="white" stroke="#bfbfbf" points="424.5,-0.5 424.5,-19.5 486.5,-19.5 486.5,-0.5 424.5,-0.5"/>
<text text-anchor="middle" x="455.5" y="-7.5" font-family="FreeSans" font-size="10.00">type_traits</text>
</g>
<!-- Node2&#45;&gt;Node8 -->
<g id="edge8" class="edge"><title>Node2&#45;&gt;Node8</title>
<path fill="none" stroke="midnightblue" d="M333.34,-168.369C347.199,-160.27 367.282,-147.157 381.5,-132 411.423,-100.1 435.448,-54.2148 447.353,-29.1094"/>
<polygon fill="midnightblue" stroke="midnightblue" points="450.673,-30.2689 451.695,-19.7235 444.32,-27.3297 450.673,-30.2689"/>
</g>
<!-- Node9 -->
<g id="node10" class="node"><title>Node9</title>
<polygon fill="white" stroke="#bfbfbf" points="428.5,-112.5 428.5,-131.5 468.5,-131.5 468.5,-112.5 428.5,-112.5"/>
<text text-anchor="middle" x="448.5" y="-119.5" font-family="FreeSans" font-size="10.00">limits</text>
</g>
<!-- Node2&#45;&gt;Node9 -->
<g id="edge9" class="edge"><title>Node2&#45;&gt;Node9</title>
<path fill="none" stroke="midnightblue" d="M338.257,-168.444C359.943,-159.504 394.163,-145.398 418.726,-135.273"/>
<polygon fill="midnightblue" stroke="midnightblue" points="420.359,-138.386 428.27,-131.339 417.691,-131.914 420.359,-138.386"/>
</g>
<!-- Node10 -->
<g id="node11" class="node"><title>Node10</title>
<g id="a_node11"><a xlink:href="EigenMetafunction_8h.html" target="_top" xlink:title="EigenMetafunction.h">
<polygon fill="white" stroke="black" points="486.5,-112.5 486.5,-131.5 590.5,-131.5 590.5,-112.5 486.5,-112.5"/>
<text text-anchor="middle" x="538.5" y="-119.5" font-family="FreeSans" font-size="10.00">EigenMetafunction.h</text>
</a>
</g>
</g>
<!-- Node2&#45;&gt;Node10 -->
<g id="edge10" class="edge"><title>Node2&#45;&gt;Node10</title>
<path fill="none" stroke="midnightblue" d="M352.518,-168.444C390.748,-159.102 452.067,-144.119 493.757,-133.933"/>
<polygon fill="midnightblue" stroke="midnightblue" points="494.762,-137.29 503.646,-131.516 493.101,-130.49 494.762,-137.29"/>
</g>
<!-- Node11 -->
<g id="node12" class="node"><title>Node11</title>
<g id="a_node12"><a xlink:href="EigenMetafunction_8ipp.html" target="_top" xlink:title="EigenMetafunction.ipp">
<polygon fill="white" stroke="black" points="455.5,-56.5 455.5,-75.5 567.5,-75.5 567.5,-56.5 455.5,-56.5"/>
<text text-anchor="middle" x="511.5" y="-63.5" font-family="FreeSans" font-size="10.00">EigenMetafunction.ipp</text>
</a>
</g>
</g>
<!-- Node10&#45;&gt;Node11 -->
<g id="edge11" class="edge"><title>Node10&#45;&gt;Node11</title>
<path fill="none" stroke="midnightblue" d="M534.041,-112.083C530.346,-104.691 524.977,-93.9533 520.406,-84.8111"/>
<polygon fill="midnightblue" stroke="midnightblue" points="523.478,-83.1301 515.876,-75.7511 517.217,-86.2606 523.478,-83.1301"/>
</g>
<!-- Node11&#45;&gt;Node8 -->
<g id="edge12" class="edge"><title>Node11&#45;&gt;Node8</title>
<path fill="none" stroke="midnightblue" d="M502.503,-56.324C494.306,-48.4196 481.994,-36.5482 472.028,-26.9377"/>
<polygon fill="midnightblue" stroke="midnightblue" points="474.289,-24.2558 464.661,-19.8339 469.43,-29.2947 474.289,-24.2558"/>
</g>
</g>
</svg>
