<?xml version="1.0" encoding="UTF-8" standalone="no"?>
<!DOCTYPE svg PUBLIC "-//W3C//DTD SVG 1.1//EN"
 "http://www.w3.org/Graphics/SVG/1.1/DTD/svg11.dtd">
<!-- Generated by graphviz version 2.38.0 (20140413.2041)
 -->
<!-- Title: src/Tracker/FeatureTrackingProblemConcept.h Pages: 1 -->
<svg width="3194pt" height="609pt"
 viewBox="0.00 0.00 3193.50 609.00" xmlns="http://www.w3.org/2000/svg" xmlns:xlink="http://www.w3.org/1999/xlink">
<g id="graph0" class="graph" transform="scale(1 1) rotate(0) translate(4 605)">
<title>src/Tracker/FeatureTrackingProblemConcept.h</title>
<polygon fill="white" stroke="none" points="-4,4 -4,-605 3189.5,-605 3189.5,4 -4,4"/>
<!-- Node0 -->
<g id="node1" class="node"><title>Node0</title>
<polygon fill="#bfbfbf" stroke="black" points="2760,-570.5 2760,-600.5 2900,-600.5 2900,-570.5 2760,-570.5"/>
<text text-anchor="start" x="2768" y="-588.5" font-family="FreeSans" font-size="10.00">src/Tracker/FeatureTracking</text>
<text text-anchor="middle" x="2830" y="-577.5" font-family="FreeSans" font-size="10.00">ProblemConcept.h</text>
</g>
<!-- Node1 -->
<g id="node2" class="node"><title>Node1</title>
<g id="a_node2"><a xlink:href="FeatureTrackingProblemConcept_8ipp.html" target="_top" xlink:title="FeatureTrackingProblemConcept.ipp">
<polygon fill="white" stroke="black" points="2743,-514.5 2743,-533.5 2917,-533.5 2917,-514.5 2743,-514.5"/>
<text text-anchor="middle" x="2830" y="-521.5" font-family="FreeSans" font-size="10.00">FeatureTrackingProblemConcept.ipp</text>
</a>
</g>
</g>
<!-- Node0&#45;&gt;Node1 -->
<g id="edge1" class="edge"><title>Node0&#45;&gt;Node1</title>
<path fill="none" stroke="midnightblue" d="M2830,-570.399C2830,-562.466 2830,-552.458 2830,-543.858"/>
<polygon fill="midnightblue" stroke="midnightblue" points="2833.5,-543.658 2830,-533.658 2826.5,-543.658 2833.5,-543.658"/>
</g>
<!-- Node2 -->
<g id="node3" class="node"><title>Node2</title>
<polygon fill="white" stroke="#bfbfbf" points="2944,-6 2944,-25 3072,-25 3072,-6 2944,-6"/>
<text text-anchor="middle" x="3008" y="-13" font-family="FreeSans" font-size="10.00">boost/concept_check.hpp</text>
</g>
<!-- Node1&#45;&gt;Node2 -->
<g id="edge2" class="edge"><title>Node1&#45;&gt;Node2</title>
<path fill="none" stroke="midnightblue" d="M2878.12,-514.435C2964.75,-497.639 3138,-457.153 3138,-402 3138,-402 3138,-402 3138,-148.5 3138,-91.1241 3074.88,-49.6167 3036.6,-29.7216"/>
<polygon fill="midnightblue" stroke="midnightblue" points="3037.97,-26.4908 3027.46,-25.1327 3034.83,-32.7469 3037.97,-26.4908"/>
</g>
<!-- Node3 -->
<g id="node4" class="node"><title>Node3</title>
<polygon fill="white" stroke="#bfbfbf" points="3090.5,-6 3090.5,-25 3185.5,-25 3185.5,-6 3090.5,-6"/>
<text text-anchor="middle" x="3138" y="-13" font-family="FreeSans" font-size="10.00">boost/optional.hpp</text>
</g>
<!-- Node1&#45;&gt;Node3 -->
<g id="edge3" class="edge"><title>Node1&#45;&gt;Node3</title>
<path fill="none" stroke="midnightblue" d="M2917.05,-516.872C2965.21,-511.087 3025.2,-499.845 3075,-478 3126.45,-455.434 3176,-458.178 3176,-402 3176,-402 3176,-402 3176,-148.5 3176,-106.35 3157.89,-59.4796 3146.67,-34.4998"/>
<polygon fill="midnightblue" stroke="midnightblue" points="3149.74,-32.8087 3142.36,-25.2119 3143.39,-35.756 3149.74,-32.8087"/>
</g>
<!-- Node4 -->
<g id="node5" class="node"><title>Node4</title>
<polygon fill="white" stroke="#bfbfbf" points="232,-140 232,-159 270,-159 270,-140 232,-140"/>
<text text-anchor="middle" x="251" y="-147" font-family="FreeSans" font-size="10.00">tuple</text>
</g>
<!-- Node1&#45;&gt;Node4 -->
<g id="edge4" class="edge"><title>Node1&#45;&gt;Node4</title>
<path fill="none" stroke="midnightblue" d="M2742.91,-523.044C2324.07,-522.697 537,-514.617 537,-402 537,-402 537,-402 537,-271.5 537,-147.859 392.476,-216.346 280,-165 279.001,-164.544 277.987,-164.074 276.964,-163.593"/>
<polygon fill="midnightblue" stroke="midnightblue" points="278.296,-160.35 267.771,-159.137 275.243,-166.649 278.296,-160.35"/>
</g>
<!-- Node5 -->
<g id="node6" class="node"><title>Node5</title>
<g id="a_node6"><a xlink:href="Coordinate_8h.html" target="_top" xlink:title="../Elements/Coordinate.h">
<polygon fill="white" stroke="black" points="1328,-140 1328,-159 1450,-159 1450,-140 1328,-140"/>
<text text-anchor="middle" x="1389" y="-147" font-family="FreeSans" font-size="10.00">../Elements/Coordinate.h</text>
</a>
</g>
</g>
<!-- Node1&#45;&gt;Node5 -->
<g id="edge5" class="edge"><title>Node1&#45;&gt;Node5</title>
<path fill="none" stroke="midnightblue" d="M2742.79,-519.69C2445.93,-507.856 1493,-464.964 1493,-402 1493,-402 1493,-402 1493,-271.5 1493,-223.051 1444.45,-184.322 1413.7,-164.648"/>
<polygon fill="midnightblue" stroke="midnightblue" points="1415.15,-161.43 1404.8,-159.164 1411.47,-167.39 1415.15,-161.43"/>
</g>
<!-- Node19 -->
<g id="node20" class="node"><title>Node19</title>
<g id="a_node20"><a xlink:href="FeatureConcept_8h.html" target="_top" xlink:title="../Elements/FeatureConcept.h">
<polygon fill="white" stroke="black" points="2739,-140 2739,-159 2883,-159 2883,-140 2739,-140"/>
<text text-anchor="middle" x="2811" y="-147" font-family="FreeSans" font-size="10.00">../Elements/FeatureConcept.h</text>
</a>
</g>
</g>
<!-- Node1&#45;&gt;Node19 -->
<g id="edge20" class="edge"><title>Node1&#45;&gt;Node19</title>
<path fill="none" stroke="midnightblue" d="M2849.96,-514.367C2866.21,-506.61 2888.99,-493.989 2905,-478 2958.73,-424.337 3007.49,-394.388 2979,-324 2949.29,-250.6 2871.98,-191.072 2833.47,-164.896"/>
<polygon fill="midnightblue" stroke="midnightblue" points="2835.27,-161.886 2825.01,-159.254 2831.39,-167.711 2835.27,-161.886"/>
</g>
<!-- Node21 -->
<g id="node22" class="node"><title>Node21</title>
<g id="a_node22"><a xlink:href="KalmanFilterProblemConcept_8h.html" target="_top" xlink:title="../StateEstimation\l/KalmanFilterProblemConcept.h">
<polygon fill="white" stroke="black" points="2551,-447.5 2551,-477.5 2705,-477.5 2705,-447.5 2551,-447.5"/>
<text text-anchor="start" x="2559" y="-465.5" font-family="FreeSans" font-size="10.00">../StateEstimation</text>
<text text-anchor="middle" x="2628" y="-454.5" font-family="FreeSans" font-size="10.00">/KalmanFilterProblemConcept.h</text>
</a>
</g>
</g>
<!-- Node1&#45;&gt;Node21 -->
<g id="edge23" class="edge"><title>Node1&#45;&gt;Node21</title>
<path fill="none" stroke="midnightblue" d="M2801.06,-514.475C2771.02,-505.626 2723.22,-491.549 2685.47,-480.428"/>
<polygon fill="midnightblue" stroke="midnightblue" points="2686.19,-476.991 2675.61,-477.523 2684.21,-483.706 2686.19,-476.991"/>
</g>
<!-- Node23 -->
<g id="node24" class="node"><title>Node23</title>
<g id="a_node24"><a xlink:href="FeatureMatcherProblemConcept_8h.html" target="_top" xlink:title="../Matcher/FeatureMatcher\lProblemConcept.h">
<polygon fill="white" stroke="black" points="2764.5,-447.5 2764.5,-477.5 2895.5,-477.5 2895.5,-447.5 2764.5,-447.5"/>
<text text-anchor="start" x="2772.5" y="-465.5" font-family="FreeSans" font-size="10.00">../Matcher/FeatureMatcher</text>
<text text-anchor="middle" x="2830" y="-454.5" font-family="FreeSans" font-size="10.00">ProblemConcept.h</text>
</a>
</g>
</g>
<!-- Node1&#45;&gt;Node23 -->
<g id="edge29" class="edge"><title>Node1&#45;&gt;Node23</title>
<path fill="none" stroke="midnightblue" d="M2830,-514.475C2830,-507.471 2830,-497.192 2830,-487.696"/>
<polygon fill="midnightblue" stroke="midnightblue" points="2833.5,-487.523 2830,-477.523 2826.5,-487.523 2833.5,-487.523"/>
</g>
<!-- Node6 -->
<g id="node7" class="node"><title>Node6</title>
<g id="a_node7"><a xlink:href="Coordinate_8ipp.html" target="_top" xlink:title="Coordinate.ipp">
<polygon fill="white" stroke="black" points="1381,-73 1381,-92 1459,-92 1459,-73 1381,-73"/>
<text text-anchor="middle" x="1420" y="-80" font-family="FreeSans" font-size="10.00">Coordinate.ipp</text>
</a>
</g>
</g>
<!-- Node5&#45;&gt;Node6 -->
<g id="edge6" class="edge"><title>Node5&#45;&gt;Node6</title>
<path fill="none" stroke="midnightblue" d="M1393.18,-139.734C1397.88,-129.89 1405.62,-113.66 1411.58,-101.159"/>
<polygon fill="midnightblue" stroke="midnightblue" points="1414.74,-102.66 1415.89,-92.1273 1408.42,-99.6467 1414.74,-102.66"/>
</g>
<!-- Node6&#45;&gt;Node2 -->
<g id="edge7" class="edge"><title>Node6&#45;&gt;Node2</title>
<path fill="none" stroke="midnightblue" d="M1459.01,-76.0211C1483.39,-72.8252 1515.46,-69.0336 1544,-67 2160.86,-23.0415 2320.38,-99.4903 2935,-31 2943.58,-30.0435 2952.66,-28.5979 2961.39,-26.9838"/>
<polygon fill="midnightblue" stroke="midnightblue" points="2962.28,-30.3766 2971.43,-25.0309 2960.94,-23.5054 2962.28,-30.3766"/>
</g>
<!-- Node7 -->
<g id="node8" class="node"><title>Node7</title>
<polygon fill="white" stroke="#bfbfbf" points="288,-6 288,-25 416,-25 416,-6 288,-6"/>
<text text-anchor="middle" x="352" y="-13" font-family="FreeSans" font-size="10.00">boost/range/concepts.hpp</text>
</g>
<!-- Node6&#45;&gt;Node7 -->
<g id="edge8" class="edge"><title>Node6&#45;&gt;Node7</title>
<path fill="none" stroke="midnightblue" d="M1380.83,-76.3722C1355.3,-73.2084 1321.22,-69.3239 1291,-67 906.912,-37.4672 807.506,-76.6614 425,-31 416.608,-29.9982 407.739,-28.5619 399.185,-26.9783"/>
<polygon fill="midnightblue" stroke="midnightblue" points="399.818,-23.536 389.335,-25.069 398.486,-30.4081 399.818,-23.536"/>
</g>
<!-- Node8 -->
<g id="node9" class="node"><title>Node8</title>
<polygon fill="white" stroke="#bfbfbf" points="434,-6 434,-25 584,-25 584,-6 434,-6"/>
<text text-anchor="middle" x="509" y="-13" font-family="FreeSans" font-size="10.00">boost/range/metafunctions.hpp</text>
</g>
<!-- Node6&#45;&gt;Node8 -->
<g id="edge9" class="edge"><title>Node6&#45;&gt;Node8</title>
<path fill="none" stroke="midnightblue" d="M1380.71,-74.2776C1364.72,-71.59 1346.03,-68.767 1329,-67 1002.81,-33.1475 917.932,-67.2884 592,-31 582.289,-29.9188 571.995,-28.4146 562.083,-26.7818"/>
<polygon fill="midnightblue" stroke="midnightblue" points="562.38,-23.2818 551.933,-25.0461 561.2,-30.1817 562.38,-23.2818"/>
</g>
<!-- Node9 -->
<g id="node10" class="node"><title>Node9</title>
<polygon fill="white" stroke="#bfbfbf" points="0,-6 0,-25 128,-25 128,-6 0,-6"/>
<text text-anchor="middle" x="64" y="-13" font-family="FreeSans" font-size="10.00">boost/range/functions.hpp</text>
</g>
<!-- Node6&#45;&gt;Node9 -->
<g id="edge10" class="edge"><title>Node6&#45;&gt;Node9</title>
<path fill="none" stroke="midnightblue" d="M1380.85,-80.3253C1179.27,-74.228 262.975,-45.8973 137,-31 128.515,-29.9966 119.543,-28.5441 110.901,-26.9415"/>
<polygon fill="midnightblue" stroke="midnightblue" points="111.442,-23.4812 100.958,-25.0091 110.106,-30.3526 111.442,-23.4812"/>
</g>
<!-- Node10 -->
<g id="node11" class="node"><title>Node10</title>
<polygon fill="white" stroke="#bfbfbf" points="2725.5,-6 2725.5,-25 2796.5,-25 2796.5,-6 2725.5,-6"/>
<text text-anchor="middle" x="2761" y="-13" font-family="FreeSans" font-size="10.00">Eigen/Dense</text>
</g>
<!-- Node6&#45;&gt;Node10 -->
<g id="edge11" class="edge"><title>Node6&#45;&gt;Node10</title>
<path fill="none" stroke="midnightblue" d="M1459.01,-76.0697C1483.39,-72.892 1515.47,-69.1026 1544,-67 1803.86,-47.8507 2459.24,-75.3947 2716,-31 2720.19,-30.2763 2724.52,-29.2527 2728.77,-28.0799"/>
<polygon fill="midnightblue" stroke="midnightblue" points="2729.87,-31.4024 2738.42,-25.1439 2727.83,-24.7053 2729.87,-31.4024"/>
</g>
<!-- Node11 -->
<g id="node12" class="node"><title>Node11</title>
<polygon fill="white" stroke="#bfbfbf" points="2882,-6 2882,-25 2926,-25 2926,-6 2882,-6"/>
<text text-anchor="middle" x="2904" y="-13" font-family="FreeSans" font-size="10.00">vector</text>
</g>
<!-- Node6&#45;&gt;Node11 -->
<g id="edge12" class="edge"><title>Node6&#45;&gt;Node11</title>
<path fill="none" stroke="midnightblue" d="M1459.01,-76.0332C1483.39,-72.8419 1515.46,-69.0509 1544,-67 1691.34,-56.411 2729.25,-65.0071 2873,-31 2875.21,-30.4777 2877.45,-29.7885 2879.66,-28.9939"/>
<polygon fill="midnightblue" stroke="midnightblue" points="2881.16,-32.1575 2889,-25.0261 2878.43,-25.7148 2881.16,-32.1575"/>
</g>
<!-- Node12 -->
<g id="node13" class="node"><title>Node12</title>
<polygon fill="white" stroke="#bfbfbf" points="208,-6 208,-25 270,-25 270,-6 208,-6"/>
<text text-anchor="middle" x="239" y="-13" font-family="FreeSans" font-size="10.00">type_traits</text>
</g>
<!-- Node6&#45;&gt;Node12 -->
<g id="edge13" class="edge"><title>Node6&#45;&gt;Node12</title>
<path fill="none" stroke="midnightblue" d="M1380.88,-80.1015C1186.76,-73.1203 334.125,-41.945 279,-31 275.563,-30.3176 272.026,-29.3902 268.545,-28.3321"/>
<polygon fill="midnightblue" stroke="midnightblue" points="269.603,-24.995 259.008,-25.0985 267.355,-31.6243 269.603,-24.995"/>
</g>
<!-- Node13 -->
<g id="node14" class="node"><title>Node13</title>
<polygon fill="white" stroke="#bfbfbf" points="2814.5,-6 2814.5,-25 2863.5,-25 2863.5,-6 2814.5,-6"/>
<text text-anchor="middle" x="2839" y="-13" font-family="FreeSans" font-size="10.00">cstddef</text>
</g>
<!-- Node6&#45;&gt;Node13 -->
<g id="edge14" class="edge"><title>Node6&#45;&gt;Node13</title>
<path fill="none" stroke="midnightblue" d="M1459.01,-76.0477C1483.39,-72.8617 1515.46,-69.0714 1544,-67 1823.82,-46.6878 2532.28,-92.5708 2806,-31 2808.51,-30.4352 2811.07,-29.6777 2813.59,-28.8039"/>
<polygon fill="midnightblue" stroke="midnightblue" points="2815.01,-32.0049 2822.97,-25.0199 2812.39,-25.5126 2815.01,-32.0049"/>
</g>
<!-- Node14 -->
<g id="node15" class="node"><title>Node14</title>
<polygon fill="white" stroke="#bfbfbf" points="146,-6 146,-25 190,-25 190,-6 146,-6"/>
<text text-anchor="middle" x="168" y="-13" font-family="FreeSans" font-size="10.00">cmath</text>
</g>
<!-- Node6&#45;&gt;Node14 -->
<g id="edge15" class="edge"><title>Node6&#45;&gt;Node14</title>
<path fill="none" stroke="midnightblue" d="M1380.82,-80.3141C1178.34,-74.1306 257.677,-45.3232 199,-31 197.009,-30.5139 194.991,-29.8955 192.99,-29.1892"/>
<polygon fill="midnightblue" stroke="midnightblue" points="193.904,-25.7768 183.329,-25.132 191.193,-32.2308 193.904,-25.7768"/>
</g>
<!-- Node15 -->
<g id="node16" class="node"><title>Node15</title>
<polygon fill="white" stroke="#bfbfbf" points="667,-6 667,-25 705,-25 705,-6 667,-6"/>
<text text-anchor="middle" x="686" y="-13" font-family="FreeSans" font-size="10.00">array</text>
</g>
<!-- Node6&#45;&gt;Node15 -->
<g id="edge16" class="edge"><title>Node6&#45;&gt;Node15</title>
<path fill="none" stroke="midnightblue" d="M1393.01,-72.929C1384.74,-70.6267 1375.57,-68.3921 1367,-67 1080.1,-20.3873 994.406,-107.535 714,-31 712.33,-30.5441 710.645,-29.9796 708.975,-29.3403"/>
<polygon fill="midnightblue" stroke="midnightblue" points="710.315,-26.1043 699.769,-25.0952 707.384,-32.4611 710.315,-26.1043"/>
</g>
<!-- Node16 -->
<g id="node17" class="node"><title>Node16</title>
<polygon fill="white" stroke="#bfbfbf" points="787,-6 787,-25 843,-25 843,-6 787,-6"/>
<text text-anchor="middle" x="815" y="-13" font-family="FreeSans" font-size="10.00">algorithm</text>
</g>
<!-- Node6&#45;&gt;Node16 -->
<g id="edge17" class="edge"><title>Node6&#45;&gt;Node16</title>
<path fill="none" stroke="midnightblue" d="M1392.72,-72.9317C1384.53,-70.6585 1375.46,-68.4392 1367,-67 1140.8,-28.5389 1075.83,-81.4401 852,-31 849.001,-30.3241 845.924,-29.4442 842.889,-28.4517"/>
<polygon fill="midnightblue" stroke="midnightblue" points="844.069,-25.1566 833.475,-25.01 841.665,-31.731 844.069,-25.1566"/>
</g>
<!-- Node17 -->
<g id="node18" class="node"><title>Node17</title>
<polygon fill="white" stroke="#bfbfbf" points="723.5,-6 723.5,-25 768.5,-25 768.5,-6 723.5,-6"/>
<text text-anchor="middle" x="746" y="-13" font-family="FreeSans" font-size="10.00">climits</text>
</g>
<!-- Node6&#45;&gt;Node17 -->
<g id="edge18" class="edge"><title>Node6&#45;&gt;Node17</title>
<path fill="none" stroke="midnightblue" d="M1393,-72.9608C1384.74,-70.6597 1375.56,-68.4177 1367,-67 1108.25,-24.1686 1032.55,-94.1683 778,-31 775.788,-30.4509 773.539,-29.7531 771.312,-28.9617"/>
<polygon fill="midnightblue" stroke="midnightblue" points="772.446,-25.6433 761.867,-25.064 769.775,-32.114 772.446,-25.6433"/>
</g>
<!-- Node18 -->
<g id="node19" class="node"><title>Node18</title>
<polygon fill="white" stroke="#bfbfbf" points="601.5,-6 601.5,-25 648.5,-25 648.5,-6 601.5,-6"/>
<text text-anchor="middle" x="625" y="-13" font-family="FreeSans" font-size="10.00">iterator</text>
</g>
<!-- Node6&#45;&gt;Node18 -->
<g id="edge19" class="edge"><title>Node6&#45;&gt;Node18</title>
<path fill="none" stroke="midnightblue" d="M1393.28,-72.9817C1384.95,-70.6519 1375.67,-68.3886 1367,-67 1055.46,-17.0778 965.037,-103.657 658,-31 655.636,-30.4407 653.231,-29.7177 650.851,-28.8935"/>
<polygon fill="midnightblue" stroke="midnightblue" points="651.964,-25.5689 641.38,-25.0957 649.359,-32.0661 651.964,-25.5689"/>
</g>
<!-- Node20 -->
<g id="node21" class="node"><title>Node20</title>
<g id="a_node21"><a xlink:href="FeatureConcept_8ipp.html" target="_top" xlink:title="FeatureConcept.ipp">
<polygon fill="white" stroke="black" points="2748.5,-73 2748.5,-92 2849.5,-92 2849.5,-73 2748.5,-73"/>
<text text-anchor="middle" x="2799" y="-80" font-family="FreeSans" font-size="10.00">FeatureConcept.ipp</text>
</a>
</g>
</g>
<!-- Node19&#45;&gt;Node20 -->
<g id="edge21" class="edge"><title>Node19&#45;&gt;Node20</title>
<path fill="none" stroke="midnightblue" d="M2809.38,-139.734C2807.62,-130.183 2804.74,-114.618 2802.47,-102.283"/>
<polygon fill="midnightblue" stroke="midnightblue" points="2805.85,-101.326 2800.59,-92.1273 2798.97,-102.597 2805.85,-101.326"/>
</g>
<!-- Node20&#45;&gt;Node2 -->
<g id="edge22" class="edge"><title>Node20&#45;&gt;Node2</title>
<path fill="none" stroke="midnightblue" d="M2826.75,-72.8685C2863.79,-61.3514 2929.47,-40.9219 2970.78,-28.077"/>
<polygon fill="midnightblue" stroke="midnightblue" points="2971.96,-31.3756 2980.46,-25.0637 2969.88,-24.6914 2971.96,-31.3756"/>
</g>
<!-- Node22 -->
<g id="node23" class="node"><title>Node22</title>
<g id="a_node23"><a xlink:href="KalmanFilterProblemConcept_8ipp.html" target="_top" xlink:title="KalmanFilterProblemConcept.ipp">
<polygon fill="white" stroke="black" points="2534,-73 2534,-92 2692,-92 2692,-73 2534,-73"/>
<text text-anchor="middle" x="2613" y="-80" font-family="FreeSans" font-size="10.00">KalmanFilterProblemConcept.ipp</text>
</a>
</g>
</g>
<!-- Node21&#45;&gt;Node22 -->
<g id="edge24" class="edge"><title>Node21&#45;&gt;Node22</title>
<path fill="none" stroke="midnightblue" d="M2619.5,-447.159C2607.23,-425.054 2586,-380.97 2586,-340.5 2586,-340.5 2586,-340.5 2586,-210 2586,-170.857 2598.52,-126.373 2606.51,-101.967"/>
<polygon fill="midnightblue" stroke="midnightblue" points="2609.9,-102.852 2609.8,-92.2576 2603.27,-100.605 2609.9,-102.852"/>
</g>
<!-- Node22&#45;&gt;Node2 -->
<g id="edge25" class="edge"><title>Node22&#45;&gt;Node2</title>
<path fill="none" stroke="midnightblue" d="M2667.7,-72.9497C2757.87,-58.8528 2928.45,-32.163 2935,-31 2941.84,-29.7852 2949.02,-28.4413 2956.11,-27.076"/>
<polygon fill="midnightblue" stroke="midnightblue" points="2957.22,-30.4251 2966.36,-25.0731 2955.88,-23.5549 2957.22,-30.4251"/>
</g>
<!-- Node22&#45;&gt;Node3 -->
<g id="edge26" class="edge"><title>Node22&#45;&gt;Node3</title>
<path fill="none" stroke="midnightblue" d="M2686.52,-72.998C2704.05,-71.0017 2722.68,-68.9026 2740,-67 2891.49,-50.3561 2930.99,-57.8551 3081,-31 3086.47,-30.0216 3092.18,-28.8047 3097.79,-27.4947"/>
<polygon fill="midnightblue" stroke="midnightblue" points="3098.83,-30.845 3107.71,-25.0676 3097.16,-24.0457 3098.83,-30.845"/>
</g>
<!-- Node22&#45;&gt;Node11 -->
<g id="edge27" class="edge"><title>Node22&#45;&gt;Node11</title>
<path fill="none" stroke="midnightblue" d="M2664.79,-72.993C2729.13,-62.1534 2835.07,-43.3462 2873,-31 2874.67,-30.4564 2876.37,-29.8449 2878.06,-29.1886"/>
<polygon fill="midnightblue" stroke="midnightblue" points="2879.77,-32.2652 2887.57,-25.0981 2877,-25.835 2879.77,-32.2652"/>
</g>
<!-- Node22&#45;&gt;Node13 -->
<g id="edge28" class="edge"><title>Node22&#45;&gt;Node13</title>
<path fill="none" stroke="midnightblue" d="M2653.1,-72.9571C2692.52,-64.1045 2754.15,-49.0462 2806,-31 2807.86,-30.352 2809.76,-29.6439 2811.67,-28.9004"/>
<polygon fill="midnightblue" stroke="midnightblue" points="2813.16,-32.0718 2821.05,-25.0009 2810.47,-25.6081 2813.16,-32.0718"/>
</g>
<!-- Node24 -->
<g id="node25" class="node"><title>Node24</title>
<g id="a_node25"><a xlink:href="FeatureMatcherProblemConcept_8ipp.html" target="_top" xlink:title="FeatureMatcherProblemConcept.ipp">
<polygon fill="white" stroke="black" points="2744,-391.5 2744,-410.5 2916,-410.5 2916,-391.5 2744,-391.5"/>
<text text-anchor="middle" x="2830" y="-398.5" font-family="FreeSans" font-size="10.00">FeatureMatcherProblemConcept.ipp</text>
</a>
</g>
</g>
<!-- Node23&#45;&gt;Node24 -->
<g id="edge30" class="edge"><title>Node23&#45;&gt;Node24</title>
<path fill="none" stroke="midnightblue" d="M2830,-447.399C2830,-439.466 2830,-429.458 2830,-420.858"/>
<polygon fill="midnightblue" stroke="midnightblue" points="2833.5,-420.658 2830,-410.658 2826.5,-420.658 2833.5,-420.658"/>
</g>
<!-- Node24&#45;&gt;Node2 -->
<g id="edge31" class="edge"><title>Node24&#45;&gt;Node2</title>
<path fill="none" stroke="midnightblue" d="M2894.37,-391.461C2922.65,-385.121 2954.84,-374.108 2979,-355 3036.64,-309.418 3062,-285.485 3062,-212 3062,-212 3062,-212 3062,-148.5 3062,-111.405 3059.07,-100.896 3044,-67 3038.51,-54.6465 3029.74,-42.2625 3022.24,-32.8498"/>
<polygon fill="midnightblue" stroke="midnightblue" points="3024.91,-30.5868 3015.83,-25.1269 3019.52,-35.0573 3024.91,-30.5868"/>
</g>
<!-- Node24&#45;&gt;Node3 -->
<g id="edge32" class="edge"><title>Node24&#45;&gt;Node3</title>
<path fill="none" stroke="midnightblue" d="M2916.17,-394.823C2995.19,-384.852 3100,-356.065 3100,-273.5 3100,-273.5 3100,-273.5 3100,-148.5 3100,-106.35 3118.11,-59.4796 3129.33,-34.4998"/>
<polygon fill="midnightblue" stroke="midnightblue" points="3132.61,-35.756 3133.64,-25.2119 3126.26,-32.8087 3132.61,-35.756"/>
</g>
<!-- Node24&#45;&gt;Node11 -->
<g id="edge33" class="edge"><title>Node24&#45;&gt;Node11</title>
<path fill="none" stroke="midnightblue" d="M2801.96,-391.462C2689.81,-356.024 2285.98,-215.417 2423,-67 2457.02,-30.1446 2824.51,-43.8306 2873,-31 2874.98,-30.4757 2876.99,-29.8293 2878.99,-29.1033"/>
<polygon fill="midnightblue" stroke="midnightblue" points="2880.8,-32.1356 2888.64,-25.0064 2878.07,-25.692 2880.8,-32.1356"/>
</g>
<!-- Node24&#45;&gt;Node19 -->
<g id="edge34" class="edge"><title>Node24&#45;&gt;Node19</title>
<path fill="none" stroke="midnightblue" d="M2819.84,-391.185C2811.09,-382.87 2799.1,-369.539 2794,-355 2771.13,-289.803 2792.67,-206.024 2804.45,-169.234"/>
<polygon fill="midnightblue" stroke="midnightblue" points="2807.89,-169.992 2807.74,-159.398 2801.25,-167.774 2807.89,-169.992"/>
</g>
<!-- Node25 -->
<g id="node26" class="node"><title>Node25</title>
<g id="a_node26"><a xlink:href="Correspondence_8h.html" target="_top" xlink:title="../Elements/Correspondence.h">
<polygon fill="white" stroke="black" points="1624,-330 1624,-349 1770,-349 1770,-330 1624,-330"/>
<text text-anchor="middle" x="1697" y="-337" font-family="FreeSans" font-size="10.00">../Elements/Correspondence.h</text>
</a>
</g>
</g>
<!-- Node24&#45;&gt;Node25 -->
<g id="edge35" class="edge"><title>Node24&#45;&gt;Node25</title>
<path fill="none" stroke="midnightblue" d="M2743.91,-395.479C2532.4,-384.371 1989.32,-355.851 1780.52,-344.886"/>
<polygon fill="midnightblue" stroke="midnightblue" points="1780.4,-341.375 1770.23,-344.346 1780.04,-348.366 1780.4,-341.375"/>
</g>
<!-- Node63 -->
<g id="node64" class="node"><title>Node63</title>
<g id="a_node64"><a xlink:href="NearestNeighbourMatcherProblemConcept_8h.html" target="_top" xlink:title="NearestNeighbourMatcherProblem\lConcept.h">
<polygon fill="white" stroke="black" points="2802.5,-324.5 2802.5,-354.5 2969.5,-354.5 2969.5,-324.5 2802.5,-324.5"/>
<text text-anchor="start" x="2810.5" y="-342.5" font-family="FreeSans" font-size="10.00">NearestNeighbourMatcherProblem</text>
<text text-anchor="middle" x="2886" y="-331.5" font-family="FreeSans" font-size="10.00">Concept.h</text>
</a>
</g>
</g>
<!-- Node24&#45;&gt;Node63 -->
<g id="edge109" class="edge"><title>Node24&#45;&gt;Node63</title>
<path fill="none" stroke="midnightblue" d="M2838.02,-391.475C2845.25,-383.793 2856.19,-372.172 2865.8,-361.964"/>
<polygon fill="midnightblue" stroke="midnightblue" points="2868.5,-364.204 2872.8,-354.523 2863.4,-359.406 2868.5,-364.204"/>
</g>
<!-- Node25&#45;&gt;Node5 -->
<g id="edge58" class="edge"><title>Node25&#45;&gt;Node5</title>
<path fill="none" stroke="midnightblue" d="M1686.84,-329.882C1659.3,-306.804 1580.34,-242.544 1507,-201 1479.73,-185.555 1446.82,-171.84 1422.69,-162.615"/>
<polygon fill="midnightblue" stroke="midnightblue" points="1423.84,-159.31 1413.25,-159.065 1421.38,-165.862 1423.84,-159.31"/>
</g>
<!-- Node26 -->
<g id="node27" class="node"><title>Node26</title>
<g id="a_node27"><a xlink:href="Correspondence_8ipp.html" target="_top" xlink:title="Correspondence.ipp">
<polygon fill="white" stroke="black" points="850,-201.5 850,-220.5 952,-220.5 952,-201.5 850,-201.5"/>
<text text-anchor="middle" x="901" y="-208.5" font-family="FreeSans" font-size="10.00">Correspondence.ipp</text>
</a>
</g>
</g>
<!-- Node25&#45;&gt;Node26 -->
<g id="edge36" class="edge"><title>Node25&#45;&gt;Node26</title>
<path fill="none" stroke="midnightblue" d="M1643.23,-329.954C1500.52,-307.275 1112.86,-245.668 962.115,-221.712"/>
<polygon fill="midnightblue" stroke="midnightblue" points="962.531,-218.235 952.105,-220.122 961.432,-225.148 962.531,-218.235"/>
</g>
<!-- Node34 -->
<g id="node35" class="node"><title>Node34</title>
<polygon fill="white" stroke="#bfbfbf" points="1743.5,-257.5 1743.5,-287.5 1844.5,-287.5 1844.5,-257.5 1743.5,-257.5"/>
<text text-anchor="start" x="1751.5" y="-275.5" font-family="FreeSans" font-size="10.00">boost/range/iterator</text>
<text text-anchor="middle" x="1794" y="-264.5" font-family="FreeSans" font-size="10.00">_range.hpp</text>
</g>
<!-- Node25&#45;&gt;Node34 -->
<g id="edge57" class="edge"><title>Node25&#45;&gt;Node34</title>
<path fill="none" stroke="midnightblue" d="M1710.08,-329.734C1723.95,-320.443 1746.3,-305.461 1764.46,-293.297"/>
<polygon fill="midnightblue" stroke="midnightblue" points="1766.62,-296.063 1772.97,-287.589 1762.72,-290.248 1766.62,-296.063"/>
</g>
<!-- Node35 -->
<g id="node36" class="node"><title>Node35</title>
<g id="a_node36"><a xlink:href="Feature_8h.html" target="_top" xlink:title="Feature.h">
<polygon fill="white" stroke="black" points="1668.5,-263 1668.5,-282 1725.5,-282 1725.5,-263 1668.5,-263"/>
<text text-anchor="middle" x="1697" y="-270" font-family="FreeSans" font-size="10.00">Feature.h</text>
</a>
</g>
</g>
<!-- Node25&#45;&gt;Node35 -->
<g id="edge59" class="edge"><title>Node25&#45;&gt;Node35</title>
<path fill="none" stroke="midnightblue" d="M1697,-329.734C1697,-320.183 1697,-304.618 1697,-292.283"/>
<polygon fill="midnightblue" stroke="midnightblue" points="1700.5,-292.127 1697,-282.127 1693.5,-292.127 1700.5,-292.127"/>
</g>
<!-- Node26&#45;&gt;Node2 -->
<g id="edge39" class="edge"><title>Node26&#45;&gt;Node2</title>
<path fill="none" stroke="midnightblue" d="M952.19,-208.782C1114.02,-204.706 1613.27,-190.356 1773,-165 1825.28,-156.701 1836.06,-144.202 1888,-134 2123.14,-87.8146 2184.5,-90.3014 2423,-67 2650.04,-44.8185 2708.9,-61.2813 2935,-31 2943.1,-29.9147 2951.66,-28.4801 2959.95,-26.9352"/>
<polygon fill="midnightblue" stroke="midnightblue" points="2960.73,-30.349 2969.89,-25.0121 2959.4,-23.4766 2960.73,-30.349"/>
</g>
<!-- Node26&#45;&gt;Node4 -->
<g id="edge49" class="edge"><title>Node26&#45;&gt;Node4</title>
<path fill="none" stroke="midnightblue" d="M849.547,-208.498C721.414,-204.396 390.712,-191.499 284,-165 281.643,-164.415 279.242,-163.673 276.864,-162.837"/>
<polygon fill="midnightblue" stroke="midnightblue" points="277.981,-159.514 267.398,-159.02 275.363,-166.006 277.981,-159.514"/>
</g>
<!-- Node26&#45;&gt;Node7 -->
<g id="edge40" class="edge"><title>Node26&#45;&gt;Node7</title>
<path fill="none" stroke="midnightblue" d="M884.891,-201.421C856.291,-186.412 794.517,-154.991 740,-134 617.832,-86.9598 468.365,-46.247 395.761,-27.4996"/>
<polygon fill="midnightblue" stroke="midnightblue" points="396.593,-24.0999 386.037,-25.0017 394.852,-30.8798 396.593,-24.0999"/>
</g>
<!-- Node26&#45;&gt;Node8 -->
<g id="edge41" class="edge"><title>Node26&#45;&gt;Node8</title>
<path fill="none" stroke="midnightblue" d="M896.045,-201.143C881.25,-175.6 834.634,-101.431 774,-67 769.457,-64.4201 642.431,-40.8894 565.924,-26.8763"/>
<polygon fill="midnightblue" stroke="midnightblue" points="566.407,-23.4066 555.94,-25.0491 565.146,-30.2922 566.407,-23.4066"/>
</g>
<!-- Node26&#45;&gt;Node9 -->
<g id="edge42" class="edge"><title>Node26&#45;&gt;Node9</title>
<path fill="none" stroke="midnightblue" d="M849.82,-208.564C730.265,-204.778 435.622,-192.84 341,-165 327.404,-161 153.4,-65.666 88.3327,-29.8948"/>
<polygon fill="midnightblue" stroke="midnightblue" points="90.0041,-26.8196 79.5552,-25.0672 86.6307,-32.9532 90.0041,-26.8196"/>
</g>
<!-- Node26&#45;&gt;Node10 -->
<g id="edge43" class="edge"><title>Node26&#45;&gt;Node10</title>
<path fill="none" stroke="midnightblue" d="M904.96,-201.408C913.114,-184.863 933.518,-148.902 963,-134 1107.36,-61.0341 1537.35,-151.494 1690,-98 1712.23,-90.2085 1710.72,-74.6482 1733,-67 1939.75,3.96122 2500.72,-68.878 2716,-31 2720.18,-30.264 2724.51,-29.233 2728.76,-28.0563"/>
<polygon fill="midnightblue" stroke="midnightblue" points="2729.87,-31.3783 2738.41,-25.1169 2727.83,-24.682 2729.87,-31.3783"/>
</g>
<!-- Node26&#45;&gt;Node11 -->
<g id="edge46" class="edge"><title>Node26&#45;&gt;Node11</title>
<path fill="none" stroke="midnightblue" d="M922.481,-201.496C942.227,-193.296 971.988,-179.954 996,-165 1014.8,-153.295 1014.28,-141.798 1035,-134 1190.34,-75.5463 1620.44,-140.015 1781,-98 1810.8,-90.201 1813.14,-74.6009 1843,-67 2064.95,-10.4944 2650.33,-84.6002 2873,-31 2875.21,-30.469 2877.44,-29.7738 2879.65,-28.9751"/>
<polygon fill="midnightblue" stroke="midnightblue" points="2881.16,-32.1372 2888.99,-25.0005 2878.42,-25.6963 2881.16,-32.1372"/>
</g>
<!-- Node26&#45;&gt;Node12 -->
<g id="edge52" class="edge"><title>Node26&#45;&gt;Node12</title>
<path fill="none" stroke="midnightblue" d="M849.836,-208.398C728.277,-204.181 429.542,-191.244 393,-165 354.367,-137.254 383.405,-100.859 350,-67 338.561,-55.4058 300.777,-39.5067 272.447,-28.6653"/>
<polygon fill="midnightblue" stroke="midnightblue" points="273.471,-25.311 262.88,-25.0569 271.001,-31.8606 273.471,-25.311"/>
</g>
<!-- Node26&#45;&gt;Node13 -->
<g id="edge48" class="edge"><title>Node26&#45;&gt;Node13</title>
<path fill="none" stroke="midnightblue" d="M912.385,-201.313C938.465,-181.419 1000.35,-134.236 1001,-134 1152.33,-78.7972 1567.18,-130.258 1725,-98 1763.99,-90.0312 1769.96,-74.7037 1809,-67 2244.01,18.8366 2373.78,-129.945 2806,-31 2808.37,-30.458 2810.78,-29.7471 2813.16,-28.9309"/>
<polygon fill="midnightblue" stroke="midnightblue" points="2814.64,-32.1062 2822.63,-25.1462 2812.05,-25.6056 2814.64,-32.1062"/>
</g>
<!-- Node26&#45;&gt;Node14 -->
<g id="edge44" class="edge"><title>Node26&#45;&gt;Node14</title>
<path fill="none" stroke="midnightblue" d="M849.934,-208.346C724.595,-203.911 409.044,-190.34 369,-165 326.422,-138.056 351.3,-98.5342 312,-67 270.889,-34.0125 248.086,-50.2061 199,-31 197.582,-30.4452 196.138,-29.8562 194.686,-29.2454"/>
<polygon fill="midnightblue" stroke="midnightblue" points="195.767,-25.8958 185.208,-25.0295 192.922,-32.2916 195.767,-25.8958"/>
</g>
<!-- Node26&#45;&gt;Node18 -->
<g id="edge45" class="edge"><title>Node26&#45;&gt;Node18</title>
<path fill="none" stroke="midnightblue" d="M903.01,-201.314C906.499,-186.929 914.337,-157.423 925,-134 932.769,-116.934 941.921,-116.05 947,-98 950.732,-84.7372 956.12,-77.327 947,-67 904.159,-18.491 720.392,-48.1979 658,-31 655.843,-30.4055 653.645,-29.6943 651.46,-28.9105"/>
<polygon fill="midnightblue" stroke="midnightblue" points="652.707,-25.6396 642.124,-25.1472 650.09,-32.132 652.707,-25.6396"/>
</g>
<!-- Node26&#45;&gt;Node19 -->
<g id="edge53" class="edge"><title>Node26&#45;&gt;Node19</title>
<path fill="none" stroke="midnightblue" d="M952.146,-209.222C1156,-205.992 1930.32,-192.509 2567,-165 2620.91,-162.67 2681.48,-159.077 2728.77,-156.051"/>
<polygon fill="midnightblue" stroke="midnightblue" points="2729.21,-159.53 2738.96,-155.394 2728.76,-152.544 2729.21,-159.53"/>
</g>
<!-- Node27 -->
<g id="node28" class="node"><title>Node27</title>
<polygon fill="white" stroke="#bfbfbf" points="402.5,-140 402.5,-159 519.5,-159 519.5,-140 402.5,-140"/>
<text text-anchor="middle" x="461" y="-147" font-family="FreeSans" font-size="10.00">boost/bimap/bimap.hpp</text>
</g>
<!-- Node26&#45;&gt;Node27 -->
<g id="edge37" class="edge"><title>Node26&#45;&gt;Node27</title>
<path fill="none" stroke="midnightblue" d="M849.803,-205.346C777.72,-198.448 642.335,-184.226 528,-165 521.297,-163.873 514.251,-162.527 507.348,-161.116"/>
<polygon fill="midnightblue" stroke="midnightblue" points="507.899,-157.656 497.393,-159.02 506.457,-164.506 507.899,-157.656"/>
</g>
<!-- Node28 -->
<g id="node29" class="node"><title>Node28</title>
<polygon fill="white" stroke="#bfbfbf" points="537.5,-140 537.5,-159 654.5,-159 654.5,-140 537.5,-140"/>
<text text-anchor="middle" x="596" y="-147" font-family="FreeSans" font-size="10.00">boost/bimap/list_of.hpp</text>
</g>
<!-- Node26&#45;&gt;Node28 -->
<g id="edge38" class="edge"><title>Node26&#45;&gt;Node28</title>
<path fill="none" stroke="midnightblue" d="M853.964,-201.483C805.903,-192.692 729.147,-178.409 663,-165 657.097,-163.803 650.909,-162.513 644.78,-161.213"/>
<polygon fill="midnightblue" stroke="midnightblue" points="645.093,-157.701 634.582,-159.031 643.628,-164.546 645.093,-157.701"/>
</g>
<!-- Node29 -->
<g id="node30" class="node"><title>Node29</title>
<polygon fill="white" stroke="#bfbfbf" points="1043.5,-140 1043.5,-159 1078.5,-159 1078.5,-140 1043.5,-140"/>
<text text-anchor="middle" x="1061" y="-147" font-family="FreeSans" font-size="10.00">map</text>
</g>
<!-- Node26&#45;&gt;Node29 -->
<g id="edge47" class="edge"><title>Node26&#45;&gt;Node29</title>
<path fill="none" stroke="midnightblue" d="M927.728,-201.361C953.799,-192.757 994.462,-178.866 1029,-165 1030.6,-164.359 1032.23,-163.684 1033.87,-162.99"/>
<polygon fill="midnightblue" stroke="midnightblue" points="1035.43,-166.129 1043.18,-158.908 1032.62,-159.718 1035.43,-166.129"/>
</g>
<!-- Node30 -->
<g id="node31" class="node"><title>Node30</title>
<polygon fill="white" stroke="#bfbfbf" points="1096.5,-140 1096.5,-159 1135.5,-159 1135.5,-140 1096.5,-140"/>
<text text-anchor="middle" x="1116" y="-147" font-family="FreeSans" font-size="10.00">utility</text>
</g>
<!-- Node26&#45;&gt;Node30 -->
<g id="edge50" class="edge"><title>Node26&#45;&gt;Node30</title>
<path fill="none" stroke="midnightblue" d="M950.396,-201.499C988.667,-194.11 1042.63,-181.92 1088,-165 1089.24,-164.537 1090.5,-164.033 1091.75,-163.498"/>
<polygon fill="midnightblue" stroke="midnightblue" points="1093.66,-166.467 1101.19,-159.014 1090.66,-160.144 1093.66,-166.467"/>
</g>
<!-- Node31 -->
<g id="node32" class="node"><title>Node31</title>
<polygon fill="white" stroke="#bfbfbf" points="672.5,-140 672.5,-159 731.5,-159 731.5,-140 672.5,-140"/>
<text text-anchor="middle" x="702" y="-147" font-family="FreeSans" font-size="10.00">functional</text>
</g>
<!-- Node26&#45;&gt;Node31 -->
<g id="edge51" class="edge"><title>Node26&#45;&gt;Node31</title>
<path fill="none" stroke="midnightblue" d="M870.317,-201.442C838.977,-192.618 788.959,-178.31 746,-165 743.097,-164.101 740.093,-163.151 737.081,-162.185"/>
<polygon fill="midnightblue" stroke="midnightblue" points="738.136,-158.848 727.544,-159.089 735.974,-165.506 738.136,-158.848"/>
</g>
<!-- Node32 -->
<g id="node33" class="node"><title>Node32</title>
<g id="a_node33"><a xlink:href="EigenMetafunction_8h.html" target="_top" xlink:title="../Wrappers/EigenMetafunction.h">
<polygon fill="white" stroke="black" points="1154,-140 1154,-159 1310,-159 1310,-140 1154,-140"/>
<text text-anchor="middle" x="1232" y="-147" font-family="FreeSans" font-size="10.00">../Wrappers/EigenMetafunction.h</text>
</a>
</g>
</g>
<!-- Node26&#45;&gt;Node32 -->
<g id="edge54" class="edge"><title>Node26&#45;&gt;Node32</title>
<path fill="none" stroke="midnightblue" d="M948.424,-201.475C1008.15,-190.739 1110.69,-172.306 1174.73,-160.795"/>
<polygon fill="midnightblue" stroke="midnightblue" points="1175.44,-164.223 1184.66,-159.009 1174.2,-157.334 1175.44,-164.223"/>
</g>
<!-- Node33 -->
<g id="node34" class="node"><title>Node33</title>
<g id="a_node34"><a xlink:href="EigenMetafunction_8ipp.html" target="_top" xlink:title="EigenMetafunction.ipp">
<polygon fill="white" stroke="black" points="826,-73 826,-92 938,-92 938,-73 826,-73"/>
<text text-anchor="middle" x="882" y="-80" font-family="FreeSans" font-size="10.00">EigenMetafunction.ipp</text>
</a>
</g>
</g>
<!-- Node32&#45;&gt;Node33 -->
<g id="edge55" class="edge"><title>Node32&#45;&gt;Node33</title>
<path fill="none" stroke="midnightblue" d="M1185.88,-139.936C1122.06,-128.082 1006.9,-106.696 938.148,-93.9276"/>
<polygon fill="midnightblue" stroke="midnightblue" points="938.411,-90.4166 927.94,-92.0317 937.133,-97.2989 938.411,-90.4166"/>
</g>
<!-- Node33&#45;&gt;Node12 -->
<g id="edge56" class="edge"><title>Node33&#45;&gt;Node12</title>
<path fill="none" stroke="midnightblue" d="M825.984,-81.7105C718.584,-81.0405 476.801,-74.3316 279,-31 275.753,-30.2887 272.412,-29.3794 269.109,-28.3638"/>
<polygon fill="midnightblue" stroke="midnightblue" points="270.047,-24.9862 259.453,-25.0892 267.799,-31.6154 270.047,-24.9862"/>
</g>
<!-- Node36 -->
<g id="node37" class="node"><title>Node36</title>
<g id="a_node37"><a xlink:href="Feature_8ipp.html" target="_top" xlink:title="Feature.ipp">
<polygon fill="white" stroke="black" points="1666.5,-201.5 1666.5,-220.5 1731.5,-220.5 1731.5,-201.5 1666.5,-201.5"/>
<text text-anchor="middle" x="1699" y="-208.5" font-family="FreeSans" font-size="10.00">Feature.ipp</text>
</a>
</g>
</g>
<!-- Node35&#45;&gt;Node36 -->
<g id="edge60" class="edge"><title>Node35&#45;&gt;Node36</title>
<path fill="none" stroke="midnightblue" d="M1697.29,-262.975C1697.57,-254.58 1698.01,-241.481 1698.37,-230.663"/>
<polygon fill="midnightblue" stroke="midnightblue" points="1701.88,-230.621 1698.71,-220.509 1694.88,-230.386 1701.88,-230.621"/>
</g>
<!-- Node36&#45;&gt;Node2 -->
<g id="edge61" class="edge"><title>Node36&#45;&gt;Node2</title>
<path fill="none" stroke="midnightblue" d="M1731.83,-210.088C1870.03,-210.186 2404.85,-207.739 2567,-165 2631.39,-148.029 2644.86,-133.798 2701,-98 2719.67,-86.0957 2719.85,-76.1716 2740,-67 2820.22,-30.4945 2848.44,-47.5854 2935,-31 2941.65,-29.7257 2948.64,-28.3654 2955.54,-27.0079"/>
<polygon fill="midnightblue" stroke="midnightblue" points="2956.42,-30.4016 2965.56,-25.0311 2955.07,-23.5342 2956.42,-30.4016"/>
</g>
<!-- Node36&#45;&gt;Node5 -->
<g id="edge95" class="edge"><title>Node36&#45;&gt;Node5</title>
<path fill="none" stroke="midnightblue" d="M1666.3,-203.758C1620.9,-195.086 1536.2,-178.892 1464,-165 1457.26,-163.704 1450.19,-162.339 1443.18,-160.987"/>
<polygon fill="midnightblue" stroke="midnightblue" points="1443.5,-157.484 1433.02,-159.024 1442.17,-164.357 1443.5,-157.484"/>
</g>
<!-- Node36&#45;&gt;Node7 -->
<g id="edge62" class="edge"><title>Node36&#45;&gt;Node7</title>
<path fill="none" stroke="midnightblue" d="M1666.32,-208.274C1623.91,-204.869 1548.64,-194.783 1492,-165 1474.19,-155.634 1477.19,-142.61 1459,-134 1407.14,-109.451 1004.09,-72.6986 947,-67 715.599,-43.902 655.514,-61.7154 425,-31 416.896,-29.9202 408.338,-28.4883 400.047,-26.9444"/>
<polygon fill="midnightblue" stroke="midnightblue" points="400.596,-23.4858 390.113,-25.0218 399.265,-30.3583 400.596,-23.4858"/>
</g>
<!-- Node36&#45;&gt;Node8 -->
<g id="edge63" class="edge"><title>Node36&#45;&gt;Node8</title>
<path fill="none" stroke="midnightblue" d="M1666.39,-205.518C1631.23,-199.749 1574.34,-187.652 1530,-165 1510.59,-155.085 1511.62,-143.497 1492,-134 1425.22,-101.674 1395.78,-130.326 1329,-98 1309.38,-88.5032 1311.34,-74.8386 1291,-67 1145.87,-11.0628 746.561,-48.4157 592,-31 582.29,-29.9059 571.997,-28.3956 562.085,-26.7608"/>
<polygon fill="midnightblue" stroke="midnightblue" points="562.382,-23.2608 551.935,-25.0242 561.202,-30.1605 562.382,-23.2608"/>
</g>
<!-- Node36&#45;&gt;Node11 -->
<g id="edge85" class="edge"><title>Node36&#45;&gt;Node11</title>
<path fill="none" stroke="midnightblue" d="M1731.57,-208.346C1810.05,-203.994 2007.59,-190.742 2068,-165 2088.05,-156.456 2086.45,-143.637 2106,-134 2222.32,-76.6597 2261.83,-86.7697 2390,-67 2602.75,-34.1852 2664.75,-85.4974 2873,-31 2874.98,-30.481 2876.99,-29.8386 2878.99,-29.1154"/>
<polygon fill="midnightblue" stroke="midnightblue" points="2880.8,-32.149 2888.64,-25.0241 2878.07,-25.704 2880.8,-32.149"/>
</g>
<!-- Node36&#45;&gt;Node13 -->
<g id="edge87" class="edge"><title>Node36&#45;&gt;Node13</title>
<path fill="none" stroke="midnightblue" d="M1719.6,-201.441C1754.24,-187.116 1826.39,-157.537 1888,-134 1969.69,-102.794 1987.26,-84.2251 2073,-67 2392.78,-2.75271 2488.53,-105.847 2806,-31 2808.36,-30.4427 2810.77,-29.721 2813.15,-28.8977"/>
<polygon fill="midnightblue" stroke="midnightblue" points="2814.64,-32.0706 2822.62,-25.1014 2812.04,-25.5731 2814.64,-32.0706"/>
</g>
<!-- Node36&#45;&gt;Node17 -->
<g id="edge92" class="edge"><title>Node36&#45;&gt;Node17</title>
<path fill="none" stroke="midnightblue" d="M1677.94,-201.492C1658.59,-193.288 1629.44,-179.944 1606,-165 1587.62,-153.285 1586.13,-146.102 1568,-134 1539.89,-115.23 1528.44,-117.74 1501,-98 1484.66,-86.2488 1486.51,-74.8945 1468,-67 1326.77,-6.76385 927.185,-67.3165 778,-31 775.785,-30.4608 773.535,-29.77 771.307,-28.9833"/>
<polygon fill="midnightblue" stroke="midnightblue" points="772.439,-25.6644 761.859,-25.0939 769.774,-32.1373 772.439,-25.6644"/>
</g>
<!-- Node36&#45;&gt;Node18 -->
<g id="edge91" class="edge"><title>Node36&#45;&gt;Node18</title>
<path fill="none" stroke="midnightblue" d="M1666.43,-202.262C1639.08,-194.969 1599.52,-182.533 1568,-165 1548.95,-154.406 1549.59,-143.562 1530,-134 1465.28,-102.403 1437.63,-127.652 1372,-98 1350.53,-88.3002 1351.22,-74.8373 1329,-67 1188.18,-17.3261 803.263,-65.595 658,-31 655.637,-30.4373 653.232,-29.7119 650.853,-28.8861"/>
<polygon fill="midnightblue" stroke="midnightblue" points="651.966,-25.5618 641.382,-25.0858 649.359,-32.0582 651.966,-25.5618"/>
</g>
<!-- Node36&#45;&gt;Node19 -->
<g id="edge103" class="edge"><title>Node36&#45;&gt;Node19</title>
<path fill="none" stroke="midnightblue" d="M1731.89,-210.028C1859.73,-209.827 2335.81,-206.186 2725,-165 2735.27,-163.913 2746.17,-162.376 2756.64,-160.706"/>
<polygon fill="midnightblue" stroke="midnightblue" points="2757.21,-164.159 2766.51,-159.075 2756.07,-157.253 2757.21,-164.159"/>
</g>
<!-- Node36&#45;&gt;Node29 -->
<g id="edge88" class="edge"><title>Node36&#45;&gt;Node29</title>
<path fill="none" stroke="midnightblue" d="M1666.22,-209.382C1555.79,-207.02 1198.04,-197.022 1088,-165 1086.53,-164.573 1085.05,-164.058 1083.58,-163.482"/>
<polygon fill="midnightblue" stroke="midnightblue" points="1084.79,-160.181 1074.26,-159.044 1081.78,-166.502 1084.79,-160.181"/>
</g>
<!-- Node36&#45;&gt;Node30 -->
<g id="edge94" class="edge"><title>Node36&#45;&gt;Node30</title>
<path fill="none" stroke="midnightblue" d="M1666.47,-208.982C1563.27,-205.499 1244.21,-192.709 1145,-165 1143.29,-164.521 1141.55,-163.939 1139.83,-163.287"/>
<polygon fill="midnightblue" stroke="midnightblue" points="1140.87,-159.918 1130.31,-159.013 1138,-166.303 1140.87,-159.918"/>
</g>
<!-- Node36&#45;&gt;Node32 -->
<g id="edge107" class="edge"><title>Node36&#45;&gt;Node32</title>
<path fill="none" stroke="midnightblue" d="M1666.4,-206.665C1600.6,-199.817 1447.25,-183.271 1319,-165 1309.87,-163.699 1300.22,-162.208 1290.81,-160.689"/>
<polygon fill="midnightblue" stroke="midnightblue" points="1291.15,-157.198 1280.71,-159.036 1290.01,-164.106 1291.15,-157.198"/>
</g>
<!-- Node37 -->
<g id="node38" class="node"><title>Node37</title>
<g id="a_node38"><a xlink:href="boost__dynamic__bitset_8hpp.html" target="_top" xlink:title="../Modified/boost_dynamic\l_bitset.hpp">
<polygon fill="white" stroke="black" points="1553,-67.5 1553,-97.5 1681,-97.5 1681,-67.5 1553,-67.5"/>
<text text-anchor="start" x="1561" y="-85.5" font-family="FreeSans" font-size="10.00">../Modified/boost_dynamic</text>
<text text-anchor="middle" x="1617" y="-74.5" font-family="FreeSans" font-size="10.00">_bitset.hpp</text>
</a>
</g>
</g>
<!-- Node36&#45;&gt;Node37 -->
<g id="edge64" class="edge"><title>Node36&#45;&gt;Node37</title>
<path fill="none" stroke="midnightblue" d="M1693.36,-201.305C1680.83,-181.963 1650.28,-134.846 1631.85,-106.406"/>
<polygon fill="midnightblue" stroke="midnightblue" points="1634.7,-104.375 1626.33,-97.888 1628.83,-108.183 1634.7,-104.375"/>
</g>
<!-- Node44 -->
<g id="node45" class="node"><title>Node44</title>
<polygon fill="white" stroke="#bfbfbf" points="861,-6 861,-25 913,-25 913,-6 861,-6"/>
<text text-anchor="middle" x="887" y="-13" font-family="FreeSans" font-size="10.00">ostream</text>
</g>
<!-- Node36&#45;&gt;Node44 -->
<g id="edge86" class="edge"><title>Node36&#45;&gt;Node44</title>
<path fill="none" stroke="midnightblue" d="M1688.84,-201.349C1668.39,-184.003 1622.8,-145.632 1606,-134 1579.8,-115.861 1570.73,-115.338 1544,-98 1524.23,-85.1805 1523.18,-74.9316 1501,-67 1258.22,19.8007 1173.19,-89.1337 922,-31 919.329,-30.3818 916.599,-29.5804 913.902,-28.6719"/>
<polygon fill="midnightblue" stroke="midnightblue" points="915.02,-25.3526 904.43,-25.0482 912.519,-31.8905 915.02,-25.3526"/>
</g>
<!-- Node55 -->
<g id="node56" class="node"><title>Node55</title>
<polygon fill="white" stroke="#bfbfbf" points="2115,-140 2115,-159 2145,-159 2145,-140 2115,-140"/>
<text text-anchor="middle" x="2130" y="-147" font-family="FreeSans" font-size="10.00">set</text>
</g>
<!-- Node36&#45;&gt;Node55 -->
<g id="edge89" class="edge"><title>Node36&#45;&gt;Node55</title>
<path fill="none" stroke="midnightblue" d="M1731.55,-210.187C1800.95,-209.762 1968,-204.337 2101,-165 2102.67,-164.506 2104.36,-163.92 2106.04,-163.271"/>
<polygon fill="midnightblue" stroke="midnightblue" points="2107.68,-166.37 2115.36,-159.071 2104.81,-159.988 2107.68,-166.37"/>
</g>
<!-- Node56 -->
<g id="node57" class="node"><title>Node56</title>
<polygon fill="white" stroke="#bfbfbf" points="1896.5,-140 1896.5,-159 1925.5,-159 1925.5,-140 1896.5,-140"/>
<text text-anchor="middle" x="1911" y="-147" font-family="FreeSans" font-size="10.00">list</text>
</g>
<!-- Node36&#45;&gt;Node56 -->
<g id="edge90" class="edge"><title>Node36&#45;&gt;Node56</title>
<path fill="none" stroke="midnightblue" d="M1731.72,-204.239C1768.84,-197.181 1830.87,-183.801 1882,-165 1883.63,-164.399 1885.3,-163.731 1886.96,-163.022"/>
<polygon fill="midnightblue" stroke="midnightblue" points="1888.66,-166.09 1896.23,-158.678 1885.69,-159.751 1888.66,-166.09"/>
</g>
<!-- Node57 -->
<g id="node58" class="node"><title>Node57</title>
<polygon fill="white" stroke="#bfbfbf" points="1943.5,-140 1943.5,-159 1986.5,-159 1986.5,-140 1943.5,-140"/>
<text text-anchor="middle" x="1965" y="-147" font-family="FreeSans" font-size="10.00">queue</text>
</g>
<!-- Node36&#45;&gt;Node57 -->
<g id="edge93" class="edge"><title>Node36&#45;&gt;Node57</title>
<path fill="none" stroke="midnightblue" d="M1731.74,-206.504C1777.95,-200.958 1864.51,-188.307 1935,-165 1936.62,-164.463 1938.27,-163.857 1939.92,-163.205"/>
<polygon fill="midnightblue" stroke="midnightblue" points="1941.41,-166.374 1949.13,-159.124 1938.57,-159.974 1941.41,-166.374"/>
</g>
<!-- Node58 -->
<g id="node59" class="node"><title>Node58</title>
<g id="a_node59"><a xlink:href="Descriptor_8h.html" target="_top" xlink:title="Descriptor.h">
<polygon fill="white" stroke="black" points="1696,-140 1696,-159 1764,-159 1764,-140 1696,-140"/>
<text text-anchor="middle" x="1730" y="-147" font-family="FreeSans" font-size="10.00">Descriptor.h</text>
</a>
</g>
</g>
<!-- Node36&#45;&gt;Node58 -->
<g id="edge96" class="edge"><title>Node36&#45;&gt;Node58</title>
<path fill="none" stroke="midnightblue" d="M1703.44,-201.475C1707.95,-192.815 1715.07,-179.149 1720.81,-168.145"/>
<polygon fill="midnightblue" stroke="midnightblue" points="1724.05,-169.495 1725.57,-159.009 1717.84,-166.26 1724.05,-169.495"/>
</g>
<!-- Node59 -->
<g id="node60" class="node"><title>Node59</title>
<g id="a_node60"><a xlink:href="RoI_8h.html" target="_top" xlink:title="RoI.h">
<polygon fill="white" stroke="black" points="1851.5,-73 1851.5,-92 1890.5,-92 1890.5,-73 1851.5,-73"/>
<text text-anchor="middle" x="1871" y="-80" font-family="FreeSans" font-size="10.00">RoI.h</text>
</a>
</g>
</g>
<!-- Node36&#45;&gt;Node59 -->
<g id="edge100" class="edge"><title>Node36&#45;&gt;Node59</title>
<path fill="none" stroke="midnightblue" d="M1714.44,-201.497C1729.71,-192.887 1753.54,-178.892 1773,-165 1802.81,-143.718 1835.03,-115.889 1854.09,-98.8737"/>
<polygon fill="midnightblue" stroke="midnightblue" points="1856.55,-101.376 1861.64,-92.0865 1851.86,-96.1717 1856.55,-101.376"/>
</g>
<!-- Node60 -->
<g id="node61" class="node"><title>Node60</title>
<g id="a_node61"><a xlink:href="TaggedData_8h.html" target="_top" xlink:title="../DataStructures/Tagged\lData.h">
<polygon fill="white" stroke="black" points="2432.5,-134.5 2432.5,-164.5 2557.5,-164.5 2557.5,-134.5 2432.5,-134.5"/>
<text text-anchor="start" x="2440.5" y="-152.5" font-family="FreeSans" font-size="10.00">../DataStructures/Tagged</text>
<text text-anchor="middle" x="2495" y="-141.5" font-family="FreeSans" font-size="10.00">Data.h</text>
</a>
</g>
</g>
<!-- Node36&#45;&gt;Node60 -->
<g id="edge104" class="edge"><title>Node36&#45;&gt;Node60</title>
<path fill="none" stroke="midnightblue" d="M1731.69,-207.557C1849.6,-198.743 2254.91,-168.446 2422.05,-155.953"/>
<polygon fill="midnightblue" stroke="midnightblue" points="2422.52,-159.428 2432.23,-155.192 2422,-152.447 2422.52,-159.428"/>
</g>
<!-- Node62 -->
<g id="node63" class="node"><title>Node62</title>
<polygon fill="white" stroke="#bfbfbf" points="2005,-140 2005,-159 2059,-159 2059,-140 2005,-140"/>
<text text-anchor="middle" x="2032" y="-147" font-family="FreeSans" font-size="10.00">iostream</text>
</g>
<!-- Node36&#45;&gt;Node62 -->
<g id="edge108" class="edge"><title>Node36&#45;&gt;Node62</title>
<path fill="none" stroke="midnightblue" d="M1731.59,-207.555C1786.81,-202.863 1901.92,-190.696 1996,-165 1998.5,-164.316 2001.07,-163.511 2003.62,-162.635"/>
<polygon fill="midnightblue" stroke="midnightblue" points="2005.1,-165.816 2013.23,-159.019 2002.64,-159.265 2005.1,-165.816"/>
</g>
<!-- Node37&#45;&gt;Node11 -->
<g id="edge69" class="edge"><title>Node37&#45;&gt;Node11</title>
<path fill="none" stroke="midnightblue" d="M1681.39,-75.9656C1718.65,-72.9318 1766.44,-69.3259 1809,-67 2045.23,-54.0892 2642.96,-86.2391 2873,-31 2875.21,-30.4702 2877.44,-29.7759 2879.65,-28.9778"/>
<polygon fill="midnightblue" stroke="midnightblue" points="2881.16,-32.1401 2888.99,-25.0041 2878.42,-25.6989 2881.16,-32.1401"/>
</g>
<!-- Node37&#45;&gt;Node16 -->
<g id="edge68" class="edge"><title>Node37&#45;&gt;Node16</title>
<path fill="none" stroke="midnightblue" d="M1552.96,-72.6936C1536.09,-70.5927 1517.88,-68.5212 1501,-67 1213.28,-41.0685 1134.27,-92.4797 852,-31 848.996,-30.3457 845.917,-29.4798 842.879,-28.4959"/>
<polygon fill="midnightblue" stroke="midnightblue" points="844.057,-25.2 833.463,-25.0648 841.66,-31.777 844.057,-25.2"/>
</g>
<!-- Node37&#45;&gt;Node17 -->
<g id="edge70" class="edge"><title>Node37&#45;&gt;Node17</title>
<path fill="none" stroke="midnightblue" d="M1552.97,-72.6285C1536.09,-70.5283 1517.88,-68.4734 1501,-67 1340.74,-53.0138 934.346,-68.8632 778,-31 775.784,-30.4634 773.534,-29.7745 771.305,-28.9891"/>
<polygon fill="midnightblue" stroke="midnightblue" points="772.437,-25.6701 761.857,-25.1018 769.774,-32.1436 772.437,-25.6701"/>
</g>
<!-- Node38 -->
<g id="node39" class="node"><title>Node38</title>
<polygon fill="white" stroke="#bfbfbf" points="1231.5,-6 1231.5,-25 1282.5,-25 1282.5,-6 1231.5,-6"/>
<text text-anchor="middle" x="1257" y="-13" font-family="FreeSans" font-size="10.00">assert.h</text>
</g>
<!-- Node37&#45;&gt;Node38 -->
<g id="edge65" class="edge"><title>Node37&#45;&gt;Node38</title>
<path fill="none" stroke="midnightblue" d="M1552.76,-69.3527C1548.11,-68.5359 1543.48,-67.7433 1539,-67 1429.56,-48.8587 1398.96,-60.4564 1292,-31 1289.56,-30.3276 1287.06,-29.5296 1284.58,-28.6588"/>
<polygon fill="midnightblue" stroke="midnightblue" points="1285.82,-25.3856 1275.23,-25.0522 1283.3,-31.9166 1285.82,-25.3856"/>
</g>
<!-- Node39 -->
<g id="node40" class="node"><title>Node39</title>
<polygon fill="white" stroke="#bfbfbf" points="1300.5,-6 1300.5,-25 1341.5,-25 1341.5,-6 1300.5,-6"/>
<text text-anchor="middle" x="1321" y="-13" font-family="FreeSans" font-size="10.00">string</text>
</g>
<!-- Node37&#45;&gt;Node39 -->
<g id="edge66" class="edge"><title>Node37&#45;&gt;Node39</title>
<path fill="none" stroke="midnightblue" d="M1552.77,-69.5194C1475.61,-55.0957 1355.83,-32.5936 1351,-31 1349.38,-30.4638 1347.73,-29.8581 1346.08,-29.206"/>
<polygon fill="midnightblue" stroke="midnightblue" points="1347.43,-25.9753 1336.87,-25.1267 1344.59,-32.3759 1347.43,-25.9753"/>
</g>
<!-- Node40 -->
<g id="node41" class="node"><title>Node40</title>
<polygon fill="white" stroke="#bfbfbf" points="1359.5,-6 1359.5,-25 1418.5,-25 1418.5,-6 1359.5,-6"/>
<text text-anchor="middle" x="1389" y="-13" font-family="FreeSans" font-size="10.00">stdexcept</text>
</g>
<!-- Node37&#45;&gt;Node40 -->
<g id="edge67" class="edge"><title>Node37&#45;&gt;Node40</title>
<path fill="none" stroke="midnightblue" d="M1558.68,-67.44C1521.11,-58.0083 1471.36,-44.8197 1428,-31 1425.59,-30.2323 1423.11,-29.4034 1420.63,-28.5446"/>
<polygon fill="midnightblue" stroke="midnightblue" points="1421.74,-25.2263 1411.15,-25.1487 1419.38,-31.8162 1421.74,-25.2263"/>
</g>
<!-- Node41 -->
<g id="node42" class="node"><title>Node41</title>
<polygon fill="white" stroke="#bfbfbf" points="1436.5,-0.5 1436.5,-30.5 1545.5,-30.5 1545.5,-0.5 1436.5,-0.5"/>
<text text-anchor="start" x="1444.5" y="-18.5" font-family="FreeSans" font-size="10.00">boost/dynamic_bitset</text>
<text text-anchor="middle" x="1491" y="-7.5" font-family="FreeSans" font-size="10.00">/config.hpp</text>
</g>
<!-- Node37&#45;&gt;Node41 -->
<g id="edge71" class="edge"><title>Node37&#45;&gt;Node41</title>
<path fill="none" stroke="midnightblue" d="M1589.66,-67.396C1571.41,-57.9839 1547.22,-45.5026 1527.36,-35.2557"/>
<polygon fill="midnightblue" stroke="midnightblue" points="1528.78,-32.0507 1518.29,-30.5765 1525.57,-38.2717 1528.78,-32.0507"/>
</g>
<!-- Node42 -->
<g id="node43" class="node"><title>Node42</title>
<polygon fill="white" stroke="#bfbfbf" points="1564,-6 1564,-25 1606,-25 1606,-6 1564,-6"/>
<text text-anchor="middle" x="1585" y="-13" font-family="FreeSans" font-size="10.00">locale</text>
</g>
<!-- Node37&#45;&gt;Node42 -->
<g id="edge72" class="edge"><title>Node37&#45;&gt;Node42</title>
<path fill="none" stroke="midnightblue" d="M1610.06,-67.396C1605.26,-57.6624 1598.86,-44.6464 1593.72,-34.2139"/>
<polygon fill="midnightblue" stroke="midnightblue" points="1596.84,-32.6203 1589.28,-25.1945 1590.56,-35.7122 1596.84,-32.6203"/>
</g>
<!-- Node43 -->
<g id="node44" class="node"><title>Node43</title>
<polygon fill="white" stroke="#bfbfbf" points="1624.5,-6 1624.5,-25 1673.5,-25 1673.5,-6 1624.5,-6"/>
<text text-anchor="middle" x="1649" y="-13" font-family="FreeSans" font-size="10.00">istream</text>
</g>
<!-- Node37&#45;&gt;Node43 -->
<g id="edge73" class="edge"><title>Node37&#45;&gt;Node43</title>
<path fill="none" stroke="midnightblue" d="M1623.94,-67.396C1628.74,-57.6624 1635.14,-44.6464 1640.28,-34.2139"/>
<polygon fill="midnightblue" stroke="midnightblue" points="1643.44,-35.7122 1644.72,-25.1945 1637.16,-32.6203 1643.44,-35.7122"/>
</g>
<!-- Node37&#45;&gt;Node44 -->
<g id="edge74" class="edge"><title>Node37&#45;&gt;Node44</title>
<path fill="none" stroke="midnightblue" d="M1552.83,-68.9101C1548.16,-68.1971 1543.51,-67.5488 1539,-67 1266.32,-33.8328 1189.73,-92.4242 922,-31 919.328,-30.3869 916.597,-29.5889 913.899,-28.6826"/>
<polygon fill="midnightblue" stroke="midnightblue" points="915.017,-25.3631 904.427,-25.062 912.518,-31.9018 915.017,-25.3631"/>
</g>
<!-- Node45 -->
<g id="node46" class="node"><title>Node45</title>
<polygon fill="white" stroke="#bfbfbf" points="1691.5,-0.5 1691.5,-30.5 1800.5,-30.5 1800.5,-0.5 1691.5,-0.5"/>
<text text-anchor="start" x="1699.5" y="-18.5" font-family="FreeSans" font-size="10.00">boost/dynamic_bitset</text>
<text text-anchor="middle" x="1746" y="-7.5" font-family="FreeSans" font-size="10.00">_fwd.hpp</text>
</g>
<!-- Node37&#45;&gt;Node45 -->
<g id="edge75" class="edge"><title>Node37&#45;&gt;Node45</title>
<path fill="none" stroke="midnightblue" d="M1644.99,-67.396C1663.75,-57.9413 1688.67,-45.3896 1709.05,-35.1168"/>
<polygon fill="midnightblue" stroke="midnightblue" points="1710.71,-38.202 1718.06,-30.5765 1707.56,-31.9507 1710.71,-38.202"/>
</g>
<!-- Node46 -->
<g id="node47" class="node"><title>Node46</title>
<polygon fill="white" stroke="#bfbfbf" points="1819,-0.5 1819,-30.5 1925,-30.5 1925,-0.5 1819,-0.5"/>
<text text-anchor="start" x="1827" y="-18.5" font-family="FreeSans" font-size="10.00">boost/detail/dynamic</text>
<text text-anchor="middle" x="1872" y="-7.5" font-family="FreeSans" font-size="10.00">_bitset.hpp</text>
</g>
<!-- Node37&#45;&gt;Node46 -->
<g id="edge76" class="edge"><title>Node37&#45;&gt;Node46</title>
<path fill="none" stroke="midnightblue" d="M1672.02,-67.476C1712.27,-57.2144 1766.97,-43.273 1808.98,-32.5635"/>
<polygon fill="midnightblue" stroke="midnightblue" points="1810,-35.9153 1818.83,-30.0536 1808.27,-29.1322 1810,-35.9153"/>
</g>
<!-- Node47 -->
<g id="node48" class="node"><title>Node47</title>
<polygon fill="white" stroke="#bfbfbf" points="1943,-6 1943,-25 2061,-25 2061,-6 1943,-6"/>
<text text-anchor="middle" x="2002" y="-13" font-family="FreeSans" font-size="10.00">boost/detail/iterator.hpp</text>
</g>
<!-- Node37&#45;&gt;Node47 -->
<g id="edge77" class="edge"><title>Node37&#45;&gt;Node47</title>
<path fill="none" stroke="midnightblue" d="M1681.24,-69.3771C1685.89,-68.5545 1690.52,-67.754 1695,-67 1800.93,-49.181 1828.31,-50.2099 1934,-31 1940.39,-29.8384 1947.1,-28.5244 1953.71,-27.1735"/>
<polygon fill="midnightblue" stroke="midnightblue" points="1954.88,-30.5044 1963.96,-25.0367 1953.45,-23.6517 1954.88,-30.5044"/>
</g>
<!-- Node48 -->
<g id="node49" class="node"><title>Node48</title>
<polygon fill="white" stroke="#bfbfbf" points="2079.5,-6 2079.5,-25 2192.5,-25 2192.5,-6 2079.5,-6"/>
<text text-anchor="middle" x="2136" y="-13" font-family="FreeSans" font-size="10.00">boost/move/move.hpp</text>
</g>
<!-- Node37&#45;&gt;Node48 -->
<g id="edge78" class="edge"><title>Node37&#45;&gt;Node48</title>
<path fill="none" stroke="midnightblue" d="M1681.2,-69.102C1685.86,-68.344 1690.5,-67.6332 1695,-67 1860.8,-43.6768 1904.6,-57.0111 2070,-31 2076.77,-29.9347 2083.9,-28.5999 2090.85,-27.1742"/>
<polygon fill="midnightblue" stroke="midnightblue" points="2091.82,-30.5474 2100.87,-25.0412 2090.36,-23.701 2091.82,-30.5474"/>
</g>
<!-- Node49 -->
<g id="node50" class="node"><title>Node49</title>
<polygon fill="white" stroke="#bfbfbf" points="2210.5,-6 2210.5,-25 2295.5,-25 2295.5,-6 2210.5,-6"/>
<text text-anchor="middle" x="2253" y="-13" font-family="FreeSans" font-size="10.00">boost/limits.hpp</text>
</g>
<!-- Node37&#45;&gt;Node49 -->
<g id="edge79" class="edge"><title>Node37&#45;&gt;Node49</title>
<path fill="none" stroke="midnightblue" d="M1681.18,-68.9748C1685.85,-68.2466 1690.49,-67.5773 1695,-67 1919.07,-38.3108 1979.51,-70.0966 2202,-31 2206.84,-30.1487 2211.89,-29.021 2216.84,-27.7693"/>
<polygon fill="midnightblue" stroke="midnightblue" points="2218.04,-31.0711 2226.77,-25.075 2216.2,-24.3153 2218.04,-31.0711"/>
</g>
<!-- Node50 -->
<g id="node51" class="node"><title>Node50</title>
<polygon fill="white" stroke="#bfbfbf" points="2313.5,-0.5 2313.5,-30.5 2422.5,-30.5 2422.5,-0.5 2313.5,-0.5"/>
<text text-anchor="start" x="2321.5" y="-18.5" font-family="FreeSans" font-size="10.00">boost/pending/lowest</text>
<text text-anchor="middle" x="2368" y="-7.5" font-family="FreeSans" font-size="10.00">_bit.hpp</text>
</g>
<!-- Node37&#45;&gt;Node50 -->
<g id="edge80" class="edge"><title>Node37&#45;&gt;Node50</title>
<path fill="none" stroke="midnightblue" d="M1681.17,-68.9135C1685.84,-68.1997 1690.49,-67.5503 1695,-67 1961.29,-34.5193 2034.4,-68.7363 2303.41,-31.0679"/>
<polygon fill="midnightblue" stroke="midnightblue" points="2304.06,-34.5101 2313.47,-29.6382 2303.08,-27.5796 2304.06,-34.5101"/>
</g>
<!-- Node51 -->
<g id="node52" class="node"><title>Node51</title>
<polygon fill="white" stroke="#bfbfbf" points="2441,-6 2441,-25 2559,-25 2559,-6 2441,-6"/>
<text text-anchor="middle" x="2500" y="-13" font-family="FreeSans" font-size="10.00">boost/static_assert.hpp</text>
</g>
<!-- Node37&#45;&gt;Node51 -->
<g id="edge81" class="edge"><title>Node37&#45;&gt;Node51</title>
<path fill="none" stroke="midnightblue" d="M1681.17,-68.8614C1685.84,-68.1599 1690.49,-67.5274 1695,-67 2020.73,-28.9446 2106.8,-73.3336 2432,-31 2439.57,-30.0141 2447.56,-28.6297 2455.29,-27.1041"/>
<polygon fill="midnightblue" stroke="midnightblue" points="2456.16,-30.4969 2465.24,-25.0388 2454.74,-23.6428 2456.16,-30.4969"/>
</g>
<!-- Node52 -->
<g id="node53" class="node"><title>Node52</title>
<polygon fill="white" stroke="#bfbfbf" points="2577,-6 2577,-25 2707,-25 2707,-6 2577,-6"/>
<text text-anchor="middle" x="2642" y="-13" font-family="FreeSans" font-size="10.00">boost/utility/addressof.hpp</text>
</g>
<!-- Node37&#45;&gt;Node52 -->
<g id="edge82" class="edge"><title>Node37&#45;&gt;Node52</title>
<path fill="none" stroke="midnightblue" d="M1681.16,-68.8224C1685.84,-68.13 1690.48,-67.5103 1695,-67 2080.87,-23.4025 2182.34,-76.4676 2568,-31 2576.5,-29.9974 2585.49,-28.5607 2594.16,-26.977"/>
<polygon fill="midnightblue" stroke="midnightblue" points="2594.98,-30.3836 2604.15,-25.0676 2593.67,-23.5082 2594.98,-30.3836"/>
</g>
<!-- Node53 -->
<g id="node54" class="node"><title>Node53</title>
<polygon fill="white" stroke="#bfbfbf" points="931,-0.5 931,-30.5 1063,-30.5 1063,-0.5 931,-0.5"/>
<text text-anchor="start" x="939" y="-18.5" font-family="FreeSans" font-size="10.00">boost/detail/no_exceptions</text>
<text text-anchor="middle" x="997" y="-7.5" font-family="FreeSans" font-size="10.00">_support.hpp</text>
</g>
<!-- Node37&#45;&gt;Node53 -->
<g id="edge83" class="edge"><title>Node37&#45;&gt;Node53</title>
<path fill="none" stroke="midnightblue" d="M1552.81,-69.0058C1548.15,-68.2704 1543.51,-67.5909 1539,-67 1335.82,-40.3609 1280.04,-58.2243 1073.15,-31.0489"/>
<polygon fill="midnightblue" stroke="midnightblue" points="1073.56,-27.5724 1063.19,-29.7204 1072.64,-34.511 1073.56,-27.5724"/>
</g>
<!-- Node54 -->
<g id="node55" class="node"><title>Node54</title>
<polygon fill="white" stroke="#bfbfbf" points="1081,-6 1081,-25 1213,-25 1213,-6 1081,-6"/>
<text text-anchor="middle" x="1147" y="-13" font-family="FreeSans" font-size="10.00">boost/throw_exception.hpp</text>
</g>
<!-- Node37&#45;&gt;Node54 -->
<g id="edge84" class="edge"><title>Node37&#45;&gt;Node54</title>
<path fill="none" stroke="midnightblue" d="M1552.79,-69.1928C1548.13,-68.4135 1543.5,-67.673 1539,-67 1399.21,-46.0698 1362.74,-52.2604 1223,-31 1215.16,-29.8067 1206.89,-28.3923 1198.81,-26.9222"/>
<polygon fill="midnightblue" stroke="midnightblue" points="1199.19,-23.4332 1188.72,-25.0428 1197.91,-30.3148 1199.19,-23.4332"/>
</g>
<!-- Node58&#45;&gt;Node10 -->
<g id="edge98" class="edge"><title>Node58&#45;&gt;Node10</title>
<path fill="none" stroke="midnightblue" d="M1738.06,-139.991C1755.33,-122.443 1797.97,-82.5773 1843,-67 2026.5,-3.52665 2524.85,-65.0859 2716,-31 2720.18,-30.2543 2724.51,-29.2176 2728.76,-28.0379"/>
<polygon fill="midnightblue" stroke="midnightblue" points="2729.87,-31.3595 2738.41,-25.0958 2727.83,-24.6637 2729.87,-31.3595"/>
</g>
<!-- Node58&#45;&gt;Node11 -->
<g id="edge99" class="edge"><title>Node58&#45;&gt;Node11</title>
<path fill="none" stroke="midnightblue" d="M1758.11,-139.909C1816.25,-122.572 1954.19,-83.6365 2073,-67 2249.24,-42.3212 2700.2,-73.5153 2873,-31 2874.99,-30.5103 2877.01,-29.8892 2879.01,-29.1811"/>
<polygon fill="midnightblue" stroke="midnightblue" points="2880.81,-32.2218 2888.67,-25.1201 2878.09,-25.7687 2880.81,-32.2218"/>
</g>
<!-- Node58&#45;&gt;Node37 -->
<g id="edge97" class="edge"><title>Node58&#45;&gt;Node37</title>
<path fill="none" stroke="midnightblue" d="M1714.76,-139.734C1698.31,-130.274 1671.61,-114.914 1650.27,-102.636"/>
<polygon fill="midnightblue" stroke="midnightblue" points="1651.91,-99.5413 1641.49,-97.589 1648.42,-105.609 1651.91,-99.5413"/>
</g>
<!-- Node59&#45;&gt;Node10 -->
<g id="edge101" class="edge"><title>Node59&#45;&gt;Node10</title>
<path fill="none" stroke="midnightblue" d="M1887.9,-72.8848C1893.23,-70.551 1899.24,-68.3099 1905,-67 2256.81,13.0527 2360.9,-94.8975 2716,-31 2720.18,-30.2477 2724.51,-29.2071 2728.76,-28.0254"/>
<polygon fill="midnightblue" stroke="midnightblue" points="2729.86,-31.3467 2738.41,-25.0814 2727.82,-24.6513 2729.86,-31.3467"/>
</g>
<!-- Node59&#45;&gt;Node11 -->
<g id="edge102" class="edge"><title>Node59&#45;&gt;Node11</title>
<path fill="none" stroke="midnightblue" d="M1890.68,-78.1335C1911.36,-74.7362 1944.86,-69.6276 1974,-67 2173.13,-49.0417 2678.73,-78.2862 2873,-31 2874.99,-30.5152 2877.01,-29.8977 2879.01,-29.1921"/>
<polygon fill="midnightblue" stroke="midnightblue" points="2880.81,-32.2341 2888.67,-25.1363 2878.1,-25.7797 2880.81,-32.2341"/>
</g>
<!-- Node61 -->
<g id="node62" class="node"><title>Node61</title>
<g id="a_node62"><a xlink:href="TaggedData_8ipp.html" target="_top" xlink:title="TaggedData.ipp">
<polygon fill="white" stroke="black" points="2432,-73 2432,-92 2516,-92 2516,-73 2432,-73"/>
<text text-anchor="middle" x="2474" y="-80" font-family="FreeSans" font-size="10.00">TaggedData.ipp</text>
</a>
</g>
</g>
<!-- Node60&#45;&gt;Node61 -->
<g id="edge105" class="edge"><title>Node60&#45;&gt;Node61</title>
<path fill="none" stroke="midnightblue" d="M2490.44,-134.396C2487.36,-124.863 2483.27,-112.182 2479.93,-101.862"/>
<polygon fill="midnightblue" stroke="midnightblue" points="2483.21,-100.634 2476.81,-92.1945 2476.55,-102.786 2483.21,-100.634"/>
</g>
<!-- Node61&#45;&gt;Node2 -->
<g id="edge106" class="edge"><title>Node61&#45;&gt;Node2</title>
<path fill="none" stroke="midnightblue" d="M2500.51,-72.9351C2508.32,-70.6902 2516.94,-68.4852 2525,-67 2704.89,-33.8389 2753.91,-56.857 2935,-31 2942.82,-29.8827 2951.08,-28.4715 2959.11,-26.9705"/>
<polygon fill="midnightblue" stroke="midnightblue" points="2959.96,-30.3711 2969.11,-25.0367 2958.63,-23.4984 2959.96,-30.3711"/>
</g>
<!-- Node64 -->
<g id="node65" class="node"><title>Node64</title>
<g id="a_node65"><a xlink:href="NearestNeighbourMatcherProblemConcept_8ipp.html" target="_top" xlink:title="NearestNeighbourMatcherProblem\lConcept.ipp">
<polygon fill="white" stroke="black" points="2867.5,-67.5 2867.5,-97.5 3034.5,-97.5 3034.5,-67.5 2867.5,-67.5"/>
<text text-anchor="start" x="2875.5" y="-85.5" font-family="FreeSans" font-size="10.00">NearestNeighbourMatcherProblem</text>
<text text-anchor="middle" x="2951" y="-74.5" font-family="FreeSans" font-size="10.00">Concept.ipp</text>
</a>
</g>
</g>
<!-- Node63&#45;&gt;Node64 -->
<g id="edge110" class="edge"><title>Node63&#45;&gt;Node64</title>
<path fill="none" stroke="midnightblue" d="M2889.59,-324.427C2900.22,-282.717 2931.65,-159.427 2944.95,-107.251"/>
<polygon fill="midnightblue" stroke="midnightblue" points="2948.35,-108.084 2947.42,-97.5296 2941.56,-106.355 2948.35,-108.084"/>
</g>
<!-- Node64&#45;&gt;Node2 -->
<g id="edge111" class="edge"><title>Node64&#45;&gt;Node2</title>
<path fill="none" stroke="midnightblue" d="M2963.37,-67.396C2972.26,-57.2611 2984.26,-43.5674 2993.59,-32.9368"/>
<polygon fill="midnightblue" stroke="midnightblue" points="2996.41,-35.0208 3000.38,-25.1945 2991.15,-30.4055 2996.41,-35.0208"/>
</g>
<!-- Node64&#45;&gt;Node3 -->
<g id="edge112" class="edge"><title>Node64&#45;&gt;Node3</title>
<path fill="none" stroke="midnightblue" d="M2991.58,-67.396C3025.11,-55.7387 3072.2,-39.3731 3103.83,-28.3761"/>
<polygon fill="midnightblue" stroke="midnightblue" points="3105.23,-31.5963 3113.53,-25.007 3102.93,-24.9843 3105.23,-31.5963"/>
</g>
<!-- Node64&#45;&gt;Node11 -->
<g id="edge113" class="edge"><title>Node64&#45;&gt;Node11</title>
<path fill="none" stroke="midnightblue" d="M2940.8,-67.396C2933.62,-57.4617 2923.96,-44.1083 2916.34,-33.5719"/>
<polygon fill="midnightblue" stroke="midnightblue" points="2918.98,-31.2472 2910.29,-25.1945 2913.31,-35.3489 2918.98,-31.2472"/>
</g>
</g>
</svg>
