<?xml version="1.0" encoding="UTF-8" standalone="no"?>
<!DOCTYPE svg PUBLIC "-//W3C//DTD SVG 1.1//EN"
 "http://www.w3.org/Graphics/SVG/1.1/DTD/svg11.dtd">
<!-- Generated by graphviz version 2.38.0 (20140413.2041)
 -->
<!-- Title: src/Elements/FeatureUtility.h Pages: 1 -->
<svg width="3635pt" height="531pt"
 viewBox="0.00 0.00 3635.00 531.00" xmlns="http://www.w3.org/2000/svg" xmlns:xlink="http://www.w3.org/1999/xlink">
<g id="graph0" class="graph" transform="scale(1 1) rotate(0) translate(4 527)">
<title>src/Elements/FeatureUtility.h</title>
<polygon fill="white" stroke="none" points="-4,4 -4,-527 3631,-527 3631,4 -4,4"/>
<!-- Node0 -->
<g id="node1" class="node"><title>Node0</title>
<polygon fill="#bfbfbf" stroke="black" points="2148,-503.5 2148,-522.5 2290,-522.5 2290,-503.5 2148,-503.5"/>
<text text-anchor="middle" x="2219" y="-510.5" font-family="FreeSans" font-size="10.00">src/Elements/FeatureUtility.h</text>
</g>
<!-- Node1 -->
<g id="node2" class="node"><title>Node1</title>
<g id="a_node2"><a xlink:href="FeatureUtility_8ipp.html" target="_top" xlink:title="FeatureUtility.ipp">
<polygon fill="white" stroke="black" points="2174.5,-447.5 2174.5,-466.5 2263.5,-466.5 2263.5,-447.5 2174.5,-447.5"/>
<text text-anchor="middle" x="2219" y="-454.5" font-family="FreeSans" font-size="10.00">FeatureUtility.ipp</text>
</a>
</g>
</g>
<!-- Node0&#45;&gt;Node1 -->
<g id="edge1" class="edge"><title>Node0&#45;&gt;Node1</title>
<path fill="none" stroke="midnightblue" d="M2219,-503.083C2219,-496.006 2219,-485.861 2219,-476.986"/>
<polygon fill="midnightblue" stroke="midnightblue" points="2222.5,-476.751 2219,-466.751 2215.5,-476.751 2222.5,-476.751"/>
</g>
<!-- Node2 -->
<g id="node3" class="node"><title>Node2</title>
<polygon fill="white" stroke="#bfbfbf" points="1990,-6 1990,-25 2118,-25 2118,-6 1990,-6"/>
<text text-anchor="middle" x="2054" y="-13" font-family="FreeSans" font-size="10.00">boost/concept_check.hpp</text>
</g>
<!-- Node1&#45;&gt;Node2 -->
<g id="edge2" class="edge"><title>Node1&#45;&gt;Node2</title>
<path fill="none" stroke="midnightblue" d="M2174.38,-454.246C2001.98,-446.887 1389,-415.091 1389,-335 1389,-335 1389,-335 1389,-210 1389,64.8755 1708.92,-70.0907 1981,-31 1988.82,-29.8759 1997.08,-28.4611 2005.11,-26.9587"/>
<polygon fill="midnightblue" stroke="midnightblue" points="2005.96,-30.3593 2015.11,-25.0241 2004.63,-23.4866 2005.96,-30.3593"/>
</g>
<!-- Node3 -->
<g id="node4" class="node"><title>Node3</title>
<polygon fill="white" stroke="#bfbfbf" points="2922,-6 2922,-25 3050,-25 3050,-6 2922,-6"/>
<text text-anchor="middle" x="2986" y="-13" font-family="FreeSans" font-size="10.00">boost/range/functions.hpp</text>
</g>
<!-- Node1&#45;&gt;Node3 -->
<g id="edge3" class="edge"><title>Node1&#45;&gt;Node3</title>
<path fill="none" stroke="midnightblue" d="M2263.6,-456.133C2469.52,-456.506 3323.03,-455.344 3433,-411 3480,-392.048 3518,-385.676 3518,-335 3518,-335 3518,-335 3518,-271.5 3518,-176.526 3529.14,-127.581 3456,-67 3426.22,-42.3372 3185.59,-26.6189 3060.68,-20.0411"/>
<polygon fill="midnightblue" stroke="midnightblue" points="3060.59,-16.532 3050.43,-19.508 3060.23,-23.5226 3060.59,-16.532"/>
</g>
<!-- Node4 -->
<g id="node5" class="node"><title>Node4</title>
<polygon fill="white" stroke="#bfbfbf" points="2201,-6 2201,-25 2351,-25 2351,-6 2201,-6"/>
<text text-anchor="middle" x="2276" y="-13" font-family="FreeSans" font-size="10.00">boost/range/metafunctions.hpp</text>
</g>
<!-- Node1&#45;&gt;Node4 -->
<g id="edge4" class="edge"><title>Node1&#45;&gt;Node4</title>
<path fill="none" stroke="midnightblue" d="M2174.44,-453.568C2138.26,-449.5 2087.72,-438.82 2053,-411 2023.21,-387.132 2013,-373.171 2013,-335 2013,-335 2013,-335 2013,-148.5 2013,-99.463 2160.89,-49.7429 2234.87,-27.9391"/>
<polygon fill="midnightblue" stroke="midnightblue" points="2236.17,-31.2056 2244.8,-25.0508 2234.22,-24.4844 2236.17,-31.2056"/>
</g>
<!-- Node5 -->
<g id="node6" class="node"><title>Node5</title>
<polygon fill="white" stroke="#bfbfbf" points="2539,-6 2539,-25 2667,-25 2667,-6 2539,-6"/>
<text text-anchor="middle" x="2603" y="-13" font-family="FreeSans" font-size="10.00">boost/range/concepts.hpp</text>
</g>
<!-- Node1&#45;&gt;Node5 -->
<g id="edge5" class="edge"><title>Node1&#45;&gt;Node5</title>
<path fill="none" stroke="midnightblue" d="M2178.59,-447.447C2155.13,-440.782 2126.31,-429.466 2106,-411 2077.91,-385.461 2067,-372.966 2067,-335 2067,-335 2067,-335 2067,-271.5 2067,-201.021 2086.53,-171.82 2146,-134 2226.91,-82.5445 2500.67,-157.336 2576,-98 2595,-83.0353 2600.76,-54.303 2602.43,-35.2651"/>
<polygon fill="midnightblue" stroke="midnightblue" points="2605.94,-35.2991 2603.02,-25.1134 2598.95,-34.8941 2605.94,-35.2991"/>
</g>
<!-- Node6 -->
<g id="node7" class="node"><title>Node6</title>
<polygon fill="white" stroke="#bfbfbf" points="1685,-380.5 1685,-410.5 1819,-410.5 1819,-380.5 1685,-380.5"/>
<text text-anchor="start" x="1693" y="-398.5" font-family="FreeSans" font-size="10.00">boost/geometry/geometries</text>
<text text-anchor="middle" x="1752" y="-387.5" font-family="FreeSans" font-size="10.00">/point_xy.hpp</text>
</g>
<!-- Node1&#45;&gt;Node6 -->
<g id="edge6" class="edge"><title>Node1&#45;&gt;Node6</title>
<path fill="none" stroke="midnightblue" d="M2174.29,-451.94C2103.36,-445.261 1960.46,-430.841 1829.31,-411.13"/>
<polygon fill="midnightblue" stroke="midnightblue" points="1829.5,-407.619 1819.09,-409.579 1828.45,-414.539 1829.5,-407.619"/>
</g>
<!-- Node7 -->
<g id="node8" class="node"><title>Node7</title>
<polygon fill="white" stroke="#bfbfbf" points="1837.5,-380.5 1837.5,-410.5 1946.5,-410.5 1946.5,-380.5 1837.5,-380.5"/>
<text text-anchor="start" x="1845.5" y="-398.5" font-family="FreeSans" font-size="10.00">boost/geometry/index</text>
<text text-anchor="middle" x="1892" y="-387.5" font-family="FreeSans" font-size="10.00">/rtree.hpp</text>
</g>
<!-- Node1&#45;&gt;Node7 -->
<g id="edge7" class="edge"><title>Node1&#45;&gt;Node7</title>
<path fill="none" stroke="midnightblue" d="M2174.17,-448.662C2122.64,-440.116 2035.57,-425.333 1961,-411 1959.53,-410.718 1958.05,-410.431 1956.56,-410.138"/>
<polygon fill="midnightblue" stroke="midnightblue" points="1957.07,-406.671 1946.58,-408.15 1955.7,-413.536 1957.07,-406.671"/>
</g>
<!-- Node8 -->
<g id="node9" class="node"><title>Node8</title>
<polygon fill="white" stroke="#bfbfbf" points="2759.5,-6 2759.5,-25 2830.5,-25 2830.5,-6 2759.5,-6"/>
<text text-anchor="middle" x="2795" y="-13" font-family="FreeSans" font-size="10.00">Eigen/Dense</text>
</g>
<!-- Node1&#45;&gt;Node8 -->
<g id="edge8" class="edge"><title>Node1&#45;&gt;Node8</title>
<path fill="none" stroke="midnightblue" d="M2263.7,-455.127C2414.92,-451.935 2906.59,-439.565 3062,-411 3194.48,-386.649 3258.68,-396.136 3339,-288 3381.45,-230.856 3425.19,-191.335 3383,-134 3353.34,-93.6919 3216.86,-77.8395 3168,-67 3136.63,-60.0407 2933.32,-33.9692 2840.76,-22.2586"/>
<polygon fill="midnightblue" stroke="midnightblue" points="2840.93,-18.7521 2830.57,-20.9705 2840.05,-25.6969 2840.93,-18.7521"/>
</g>
<!-- Node9 -->
<g id="node10" class="node"><title>Node9</title>
<polygon fill="white" stroke="#bfbfbf" points="1928,-6 1928,-25 1972,-25 1972,-6 1928,-6"/>
<text text-anchor="middle" x="1950" y="-13" font-family="FreeSans" font-size="10.00">vector</text>
</g>
<!-- Node1&#45;&gt;Node9 -->
<g id="edge9" class="edge"><title>Node1&#45;&gt;Node9</title>
<path fill="none" stroke="midnightblue" d="M2174.24,-456.289C2006.33,-457.011 1414.19,-456.223 1232,-411 1155.2,-391.938 1071,-414.127 1071,-335 1071,-335 1071,-335 1071,-210 1071,-175.183 1066.21,-159.426 1090,-134 1156.35,-63.0745 1202.53,-84.8471 1298,-67 1569.32,-16.2787 1650.01,-97.0729 1918,-31 1920.21,-30.4543 1922.46,-29.7589 1924.69,-28.9691"/>
<polygon fill="midnightblue" stroke="midnightblue" points="1926.23,-32.122 1934.14,-25.0742 1923.56,-25.6505 1926.23,-32.122"/>
</g>
<!-- Node10 -->
<g id="node11" class="node"><title>Node10</title>
<polygon fill="white" stroke="#bfbfbf" points="1099.5,-140 1099.5,-159 1134.5,-159 1134.5,-140 1099.5,-140"/>
<text text-anchor="middle" x="1117" y="-147" font-family="FreeSans" font-size="10.00">map</text>
</g>
<!-- Node1&#45;&gt;Node10 -->
<g id="edge10" class="edge"><title>Node1&#45;&gt;Node10</title>
<path fill="none" stroke="midnightblue" d="M2174.3,-455.184C2004.59,-451.889 1405.7,-438.412 1325,-411 1268.73,-391.888 1215,-394.423 1215,-335 1215,-335 1215,-335 1215,-271.5 1215,-246.035 1161.92,-192.516 1133.89,-166.028"/>
<polygon fill="midnightblue" stroke="midnightblue" points="1136.09,-163.296 1126.4,-159.027 1131.31,-168.411 1136.09,-163.296"/>
</g>
<!-- Node11 -->
<g id="node12" class="node"><title>Node11</title>
<polygon fill="white" stroke="#bfbfbf" points="2155,-140 2155,-159 2185,-159 2185,-140 2155,-140"/>
<text text-anchor="middle" x="2170" y="-147" font-family="FreeSans" font-size="10.00">set</text>
</g>
<!-- Node1&#45;&gt;Node11 -->
<g id="edge11" class="edge"><title>Node1&#45;&gt;Node11</title>
<path fill="none" stroke="midnightblue" d="M2187.95,-447.366C2168.5,-440.471 2144.31,-428.938 2129,-411 2106,-384.057 2105,-370.422 2105,-335 2105,-335 2105,-335 2105,-271.5 2105,-229.818 2135.3,-188.645 2154.53,-166.718"/>
<polygon fill="midnightblue" stroke="midnightblue" points="2157.37,-168.802 2161.5,-159.048 2152.19,-164.093 2157.37,-168.802"/>
</g>
<!-- Node12 -->
<g id="node13" class="node"><title>Node12</title>
<polygon fill="white" stroke="#bfbfbf" points="2368.5,-6 2368.5,-25 2417.5,-25 2417.5,-6 2368.5,-6"/>
<text text-anchor="middle" x="2393" y="-13" font-family="FreeSans" font-size="10.00">cstddef</text>
</g>
<!-- Node1&#45;&gt;Node12 -->
<g id="edge12" class="edge"><title>Node1&#45;&gt;Node12</title>
<path fill="none" stroke="midnightblue" d="M2222.76,-447.333C2240.95,-405.361 2319.86,-222.888 2342,-165 2359.71,-118.698 2378,-63.2403 2387.1,-35.0012"/>
<polygon fill="midnightblue" stroke="midnightblue" points="2390.5,-35.8707 2390.22,-25.2795 2383.83,-33.7328 2390.5,-35.8707"/>
</g>
<!-- Node13 -->
<g id="node14" class="node"><title>Node13</title>
<polygon fill="white" stroke="#bfbfbf" points="2685,-6 2685,-25 2741,-25 2741,-6 2685,-6"/>
<text text-anchor="middle" x="2713" y="-13" font-family="FreeSans" font-size="10.00">algorithm</text>
</g>
<!-- Node1&#45;&gt;Node13 -->
<g id="edge13" class="edge"><title>Node1&#45;&gt;Node13</title>
<path fill="none" stroke="midnightblue" d="M2263.61,-455.432C2437.23,-452.567 3066.72,-435.92 3240,-344 3325.95,-298.409 3340.54,-258.898 3366,-165 3369.61,-151.702 3374.9,-144.515 3366,-134 3321.16,-81.0387 2816.89,-49.4821 2750,-31 2747.41,-30.2839 2744.75,-29.4499 2742.1,-28.5504"/>
<polygon fill="midnightblue" stroke="midnightblue" points="2743.31,-25.2644 2732.71,-25.0997 2740.89,-31.8347 2743.31,-25.2644"/>
</g>
<!-- Node14 -->
<g id="node15" class="node"><title>Node14</title>
<polygon fill="white" stroke="#bfbfbf" points="3567,-6 3567,-25 3611,-25 3611,-6 3567,-6"/>
<text text-anchor="middle" x="3589" y="-13" font-family="FreeSans" font-size="10.00">cmath</text>
</g>
<!-- Node1&#45;&gt;Node14 -->
<g id="edge14" class="edge"><title>Node1&#45;&gt;Node14</title>
<path fill="none" stroke="midnightblue" d="M2263.54,-456.013C2478.37,-455.87 3402.04,-452.81 3523,-411 3577.11,-392.298 3627,-392.249 3627,-335 3627,-335 3627,-335 3627,-148.5 3627,-106.35 3608.89,-59.4796 3597.67,-34.4998"/>
<polygon fill="midnightblue" stroke="midnightblue" points="3600.74,-32.8087 3593.36,-25.2119 3594.39,-35.756 3600.74,-32.8087"/>
</g>
<!-- Node15 -->
<g id="node16" class="node"><title>Node15</title>
<polygon fill="white" stroke="#bfbfbf" points="3360,-6 3360,-25 3422,-25 3422,-6 3360,-6"/>
<text text-anchor="middle" x="3391" y="-13" font-family="FreeSans" font-size="10.00">type_traits</text>
</g>
<!-- Node1&#45;&gt;Node15 -->
<g id="edge15" class="edge"><title>Node1&#45;&gt;Node15</title>
<path fill="none" stroke="midnightblue" d="M2263.61,-456.335C2474.59,-457.66 3366.76,-460.287 3480,-411 3523.8,-391.935 3556,-382.769 3556,-335 3556,-335 3556,-335 3556,-271.5 3556,-173.41 3546.6,-131.842 3473,-67 3456.22,-52.2177 3434.59,-39.097 3417.76,-29.9367"/>
<polygon fill="midnightblue" stroke="midnightblue" points="3418.95,-26.6075 3408.48,-25.0183 3415.67,-32.7929 3418.95,-26.6075"/>
</g>
<!-- Node16 -->
<g id="node17" class="node"><title>Node16</title>
<polygon fill="white" stroke="#bfbfbf" points="3319,-140 3319,-159 3357,-159 3357,-140 3319,-140"/>
<text text-anchor="middle" x="3338" y="-147" font-family="FreeSans" font-size="10.00">tuple</text>
</g>
<!-- Node1&#45;&gt;Node16 -->
<g id="edge16" class="edge"><title>Node1&#45;&gt;Node16</title>
<path fill="none" stroke="midnightblue" d="M2263.83,-455.957C2475.45,-455.545 3366.08,-451.411 3408,-411 3478.17,-343.357 3387.98,-213.522 3351.79,-167.327"/>
<polygon fill="midnightblue" stroke="midnightblue" points="3354.31,-164.876 3345.34,-159.246 3348.84,-169.244 3354.31,-164.876"/>
</g>
<!-- Node17 -->
<g id="node18" class="node"><title>Node17</title>
<polygon fill="white" stroke="#bfbfbf" points="3261,-140 3261,-159 3301,-159 3301,-140 3261,-140"/>
<text text-anchor="middle" x="3281" y="-147" font-family="FreeSans" font-size="10.00">limits</text>
</g>
<!-- Node1&#45;&gt;Node17 -->
<g id="edge17" class="edge"><title>Node1&#45;&gt;Node17</title>
<path fill="none" stroke="midnightblue" d="M2263.59,-449.627C2322.87,-441.103 2430.88,-425.391 2523,-411 2855.87,-358.998 3043.77,-536.75 3271,-288 3300.77,-255.407 3292.84,-198.407 3286.07,-169.086"/>
<polygon fill="midnightblue" stroke="midnightblue" points="3289.45,-168.159 3283.62,-159.313 3282.66,-169.864 3289.45,-168.159"/>
</g>
<!-- Node18 -->
<g id="node19" class="node"><title>Node18</title>
<polygon fill="white" stroke="#bfbfbf" points="3324.5,-386 3324.5,-405 3375.5,-405 3375.5,-386 3324.5,-386"/>
<text text-anchor="middle" x="3350" y="-393" font-family="FreeSans" font-size="10.00">numeric</text>
</g>
<!-- Node1&#45;&gt;Node18 -->
<g id="edge18" class="edge"><title>Node1&#45;&gt;Node18</title>
<path fill="none" stroke="midnightblue" d="M2263.68,-455.976C2442.23,-455.597 3104.71,-451.44 3310,-411 3313.44,-410.323 3316.98,-409.399 3320.46,-408.342"/>
<polygon fill="midnightblue" stroke="midnightblue" points="3321.65,-411.635 3329.99,-405.111 3319.4,-405.005 3321.65,-411.635"/>
</g>
<!-- Node19 -->
<g id="node20" class="node"><title>Node19</title>
<g id="a_node20"><a xlink:href="Coordinate_8h.html" target="_top" xlink:title="Coordinate.h">
<polygon fill="white" stroke="black" points="2427.5,-140 2427.5,-159 2498.5,-159 2498.5,-140 2427.5,-140"/>
<text text-anchor="middle" x="2463" y="-147" font-family="FreeSans" font-size="10.00">Coordinate.h</text>
</a>
</g>
</g>
<!-- Node1&#45;&gt;Node19 -->
<g id="edge19" class="edge"><title>Node1&#45;&gt;Node19</title>
<path fill="none" stroke="midnightblue" d="M2226.04,-447.186C2259.79,-404.933 2405.21,-222.853 2449.89,-166.912"/>
<polygon fill="midnightblue" stroke="midnightblue" points="2452.66,-169.055 2456.17,-159.058 2447.19,-164.687 2452.66,-169.055"/>
</g>
<!-- Node24 -->
<g id="node25" class="node"><title>Node24</title>
<g id="a_node25"><a xlink:href="Feature_8h.html" target="_top" xlink:title="Feature.h">
<polygon fill="white" stroke="black" points="1835.5,-324.5 1835.5,-343.5 1892.5,-343.5 1892.5,-324.5 1835.5,-324.5"/>
<text text-anchor="middle" x="1864" y="-331.5" font-family="FreeSans" font-size="10.00">Feature.h</text>
</a>
</g>
</g>
<!-- Node1&#45;&gt;Node24 -->
<g id="edge34" class="edge"><title>Node1&#45;&gt;Node24</title>
<path fill="none" stroke="midnightblue" d="M2174.4,-452.291C2128.78,-447.272 2056.62,-435.891 1999,-411 1977.04,-401.514 1975.56,-392.227 1955,-380 1934.84,-368.011 1911.05,-356.326 1892.85,-347.869"/>
<polygon fill="midnightblue" stroke="midnightblue" points="1894.18,-344.629 1883.63,-343.639 1891.26,-350.991 1894.18,-344.629"/>
</g>
<!-- Node49 -->
<g id="node50" class="node"><title>Node49</title>
<g id="a_node50"><a xlink:href="FeatureConcept_8h.html" target="_top" xlink:title="FeatureConcept.h">
<polygon fill="white" stroke="black" points="1229.5,-140 1229.5,-159 1322.5,-159 1322.5,-140 1229.5,-140"/>
<text text-anchor="middle" x="1276" y="-147" font-family="FreeSans" font-size="10.00">FeatureConcept.h</text>
</a>
</g>
</g>
<!-- Node1&#45;&gt;Node49 -->
<g id="edge88" class="edge"><title>Node1&#45;&gt;Node49</title>
<path fill="none" stroke="midnightblue" d="M2174.29,-455.72C2010.14,-454.406 1446.43,-447.272 1375,-411 1336.13,-391.262 1313,-378.592 1313,-335 1313,-335 1313,-335 1313,-271.5 1313,-233.401 1296.02,-191.387 1285.06,-168.25"/>
<polygon fill="midnightblue" stroke="midnightblue" points="1288.09,-166.464 1280.54,-159.03 1281.8,-169.549 1288.09,-166.464"/>
</g>
<!-- Node53 -->
<g id="node54" class="node"><title>Node53</title>
<g id="a_node54"><a xlink:href="EigenMetafunction_8h.html" target="_top" xlink:title="../Wrappers/EigenMetafunction.h">
<polygon fill="white" stroke="black" points="3087,-140 3087,-159 3243,-159 3243,-140 3087,-140"/>
<text text-anchor="middle" x="3165" y="-147" font-family="FreeSans" font-size="10.00">../Wrappers/EigenMetafunction.h</text>
</a>
</g>
</g>
<!-- Node1&#45;&gt;Node53 -->
<g id="edge89" class="edge"><title>Node1&#45;&gt;Node53</title>
<path fill="none" stroke="midnightblue" d="M2263.68,-455.986C2472.57,-455.705 3344.49,-452.069 3384,-411 3470.23,-321.376 3266.59,-203.015 3191.47,-163.77"/>
<polygon fill="midnightblue" stroke="midnightblue" points="3193.06,-160.653 3182.57,-159.177 3189.85,-166.873 3193.06,-160.653"/>
</g>
<!-- Node56 -->
<g id="node57" class="node"><title>Node56</title>
<g id="a_node57"><a xlink:href="CoordinateTransformation_8h.html" target="_top" xlink:title="../Geometry/CoordinateTransformation.h">
<polygon fill="white" stroke="black" points="2326,-386 2326,-405 2514,-405 2514,-386 2326,-386"/>
<text text-anchor="middle" x="2420" y="-393" font-family="FreeSans" font-size="10.00">../Geometry/CoordinateTransformation.h</text>
</a>
</g>
</g>
<!-- Node1&#45;&gt;Node56 -->
<g id="edge90" class="edge"><title>Node1&#45;&gt;Node56</title>
<path fill="none" stroke="midnightblue" d="M2247.8,-447.475C2282.87,-437.092 2342.26,-419.512 2381.31,-407.954"/>
<polygon fill="midnightblue" stroke="midnightblue" points="2382.66,-411.204 2391.26,-405.009 2380.67,-404.492 2382.66,-411.204"/>
</g>
<!-- Node20 -->
<g id="node21" class="node"><title>Node20</title>
<g id="a_node21"><a xlink:href="Coordinate_8ipp.html" target="_top" xlink:title="Coordinate.ipp">
<polygon fill="white" stroke="black" points="2459,-73 2459,-92 2537,-92 2537,-73 2459,-73"/>
<text text-anchor="middle" x="2498" y="-80" font-family="FreeSans" font-size="10.00">Coordinate.ipp</text>
</a>
</g>
</g>
<!-- Node19&#45;&gt;Node20 -->
<g id="edge20" class="edge"><title>Node19&#45;&gt;Node20</title>
<path fill="none" stroke="midnightblue" d="M2467.72,-139.734C2473.02,-129.89 2481.76,-113.66 2488.49,-101.159"/>
<polygon fill="midnightblue" stroke="midnightblue" points="2491.7,-102.591 2493.35,-92.1273 2485.53,-99.2727 2491.7,-102.591"/>
</g>
<!-- Node20&#45;&gt;Node2 -->
<g id="edge21" class="edge"><title>Node20&#45;&gt;Node2</title>
<path fill="none" stroke="midnightblue" d="M2458.89,-76.9698C2391.12,-68.9424 2247.53,-51.1551 2127,-31 2119.82,-29.7986 2112.26,-28.4232 2104.83,-27.0086"/>
<polygon fill="midnightblue" stroke="midnightblue" points="2105.33,-23.5398 2094.85,-25.0681 2103.99,-30.4113 2105.33,-23.5398"/>
</g>
<!-- Node20&#45;&gt;Node3 -->
<g id="edge24" class="edge"><title>Node20&#45;&gt;Node3</title>
<path fill="none" stroke="midnightblue" d="M2537.11,-76.2907C2618.43,-65.4597 2806.88,-40.3577 2911.92,-26.3676"/>
<polygon fill="midnightblue" stroke="midnightblue" points="2912.67,-29.7977 2922.13,-25.0079 2911.75,-22.8589 2912.67,-29.7977"/>
</g>
<!-- Node20&#45;&gt;Node4 -->
<g id="edge23" class="edge"><title>Node20&#45;&gt;Node4</title>
<path fill="none" stroke="midnightblue" d="M2468.52,-72.8685C2429.02,-61.3027 2358.82,-40.7489 2314.98,-27.9145"/>
<polygon fill="midnightblue" stroke="midnightblue" points="2315.83,-24.5147 2305.25,-25.0637 2313.86,-31.2327 2315.83,-24.5147"/>
</g>
<!-- Node20&#45;&gt;Node5 -->
<g id="edge22" class="edge"><title>Node20&#45;&gt;Node5</title>
<path fill="none" stroke="midnightblue" d="M2512.16,-72.7338C2529.71,-61.8669 2559.84,-43.2161 2580.56,-30.3931"/>
<polygon fill="midnightblue" stroke="midnightblue" points="2582.4,-33.3668 2589.06,-25.1273 2578.72,-27.415 2582.4,-33.3668"/>
</g>
<!-- Node20&#45;&gt;Node8 -->
<g id="edge25" class="edge"><title>Node20&#45;&gt;Node8</title>
<path fill="none" stroke="midnightblue" d="M2527.32,-72.9834C2534.99,-70.891 2543.28,-68.7511 2551,-67 2638.65,-47.1216 2662.81,-52.8309 2750,-31 2753.45,-30.1365 2757.02,-29.1501 2760.57,-28.1072"/>
<polygon fill="midnightblue" stroke="midnightblue" points="2761.89,-31.3635 2770.41,-25.0731 2759.83,-24.6741 2761.89,-31.3635"/>
</g>
<!-- Node20&#45;&gt;Node9 -->
<g id="edge26" class="edge"><title>Node20&#45;&gt;Node9</title>
<path fill="none" stroke="midnightblue" d="M2458.7,-79.3903C2354.17,-73.5037 2071.13,-55.6963 1981,-31 1979.07,-30.4701 1977.1,-29.8279 1975.15,-29.1122"/>
<polygon fill="midnightblue" stroke="midnightblue" points="1976.27,-25.783 1965.69,-25.1011 1973.53,-32.2275 1976.27,-25.783"/>
</g>
<!-- Node20&#45;&gt;Node12 -->
<g id="edge28" class="edge"><title>Node20&#45;&gt;Node12</title>
<path fill="none" stroke="midnightblue" d="M2483.84,-72.7338C2466.29,-61.8669 2436.16,-43.2161 2415.44,-30.3931"/>
<polygon fill="midnightblue" stroke="midnightblue" points="2417.28,-27.415 2406.94,-25.1273 2413.6,-33.3668 2417.28,-27.415"/>
</g>
<!-- Node20&#45;&gt;Node13 -->
<g id="edge31" class="edge"><title>Node20&#45;&gt;Node13</title>
<path fill="none" stroke="midnightblue" d="M2528.61,-72.9895C2575.7,-59.8728 2661.96,-35.7306 2676,-31 2678.12,-30.2841 2680.31,-29.5163 2682.5,-28.7212"/>
<polygon fill="midnightblue" stroke="midnightblue" points="2683.88,-31.9415 2692,-25.1382 2681.41,-25.3917 2683.88,-31.9415"/>
</g>
<!-- Node20&#45;&gt;Node14 -->
<g id="edge29" class="edge"><title>Node20&#45;&gt;Node14</title>
<path fill="none" stroke="midnightblue" d="M2537.14,-79.9069C2665.42,-74.5734 3084.78,-56.2479 3431,-31 3474.56,-27.8231 3524.78,-23.0184 3556.7,-19.8214"/>
<polygon fill="midnightblue" stroke="midnightblue" points="3557.18,-23.2901 3566.78,-18.8036 3556.48,-16.3255 3557.18,-23.2901"/>
</g>
<!-- Node20&#45;&gt;Node15 -->
<g id="edge27" class="edge"><title>Node20&#45;&gt;Node15</title>
<path fill="none" stroke="midnightblue" d="M2537.23,-78.6442C2683.85,-67.9724 3198.85,-30.4863 3349.38,-19.5293"/>
<polygon fill="midnightblue" stroke="midnightblue" points="3349.86,-23.0037 3359.58,-18.7869 3349.35,-16.0222 3349.86,-23.0037"/>
</g>
<!-- Node21 -->
<g id="node22" class="node"><title>Node21</title>
<polygon fill="white" stroke="#bfbfbf" points="2479,-6 2479,-25 2517,-25 2517,-6 2479,-6"/>
<text text-anchor="middle" x="2498" y="-13" font-family="FreeSans" font-size="10.00">array</text>
</g>
<!-- Node20&#45;&gt;Node21 -->
<g id="edge30" class="edge"><title>Node20&#45;&gt;Node21</title>
<path fill="none" stroke="midnightblue" d="M2498,-72.7338C2498,-63.1826 2498,-47.6183 2498,-35.2829"/>
<polygon fill="midnightblue" stroke="midnightblue" points="2501.5,-35.1273 2498,-25.1273 2494.5,-35.1273 2501.5,-35.1273"/>
</g>
<!-- Node22 -->
<g id="node23" class="node"><title>Node22</title>
<polygon fill="white" stroke="#bfbfbf" points="1864.5,-6 1864.5,-25 1909.5,-25 1909.5,-6 1864.5,-6"/>
<text text-anchor="middle" x="1887" y="-13" font-family="FreeSans" font-size="10.00">climits</text>
</g>
<!-- Node20&#45;&gt;Node22 -->
<g id="edge32" class="edge"><title>Node20&#45;&gt;Node22</title>
<path fill="none" stroke="midnightblue" d="M2458.97,-79.8136C2346.22,-74.6714 2021.61,-57.8823 1919,-31 1916.84,-30.4348 1914.65,-29.7353 1912.47,-28.9514"/>
<polygon fill="midnightblue" stroke="midnightblue" points="1913.8,-25.7111 1903.22,-25.1288 1911.12,-32.1811 1913.8,-25.7111"/>
</g>
<!-- Node23 -->
<g id="node24" class="node"><title>Node23</title>
<polygon fill="white" stroke="#bfbfbf" points="2136.5,-6 2136.5,-25 2183.5,-25 2183.5,-6 2136.5,-6"/>
<text text-anchor="middle" x="2160" y="-13" font-family="FreeSans" font-size="10.00">iterator</text>
</g>
<!-- Node20&#45;&gt;Node23 -->
<g id="edge33" class="edge"><title>Node20&#45;&gt;Node23</title>
<path fill="none" stroke="midnightblue" d="M2458.61,-78.3204C2399.61,-72.8198 2285.26,-59.2884 2192,-31 2190.07,-30.4158 2188.11,-29.7412 2186.16,-29.0093"/>
<polygon fill="midnightblue" stroke="midnightblue" points="2187.2,-25.6503 2176.62,-25.0249 2184.5,-32.1093 2187.2,-25.6503"/>
</g>
<!-- Node25 -->
<g id="node26" class="node"><title>Node25</title>
<g id="a_node26"><a xlink:href="Feature_8ipp.html" target="_top" xlink:title="Feature.ipp">
<polygon fill="white" stroke="black" points="1759.5,-201.5 1759.5,-220.5 1824.5,-220.5 1824.5,-201.5 1759.5,-201.5"/>
<text text-anchor="middle" x="1792" y="-208.5" font-family="FreeSans" font-size="10.00">Feature.ipp</text>
</a>
</g>
</g>
<!-- Node24&#45;&gt;Node25 -->
<g id="edge35" class="edge"><title>Node24&#45;&gt;Node25</title>
<path fill="none" stroke="midnightblue" d="M1858.82,-324.298C1847.04,-304.502 1818.05,-255.782 1802.41,-229.493"/>
<polygon fill="midnightblue" stroke="midnightblue" points="1805.25,-227.427 1797.13,-220.623 1799.24,-231.007 1805.25,-227.427"/>
</g>
<!-- Node25&#45;&gt;Node2 -->
<g id="edge36" class="edge"><title>Node25&#45;&gt;Node2</title>
<path fill="none" stroke="midnightblue" d="M1759.17,-208.278C1703.32,-204.587 1593.52,-193.77 1570,-165 1541.64,-130.31 1602.97,-72.5885 1612,-67 1682.06,-23.6517 1899.5,-43.0404 1981,-31 1988.73,-29.8582 1996.88,-28.4467 2004.82,-26.9568"/>
<polygon fill="midnightblue" stroke="midnightblue" points="2005.57,-30.3772 2014.72,-25.0419 2004.24,-23.5046 2005.57,-30.3772"/>
</g>
<!-- Node25&#45;&gt;Node4 -->
<g id="edge38" class="edge"><title>Node25&#45;&gt;Node4</title>
<path fill="none" stroke="midnightblue" d="M1788.82,-201.183C1783.96,-186.084 1776.6,-154.887 1790,-134 1828.54,-73.9031 1867.48,-87.0713 1936,-67 2046.26,-34.6989 2078.49,-48.7744 2192,-31 2200.41,-29.6836 2209.28,-28.227 2217.97,-26.7597"/>
<polygon fill="midnightblue" stroke="midnightblue" points="2218.8,-30.1697 2228.07,-25.04 2217.62,-23.2691 2218.8,-30.1697"/>
</g>
<!-- Node25&#45;&gt;Node5 -->
<g id="edge37" class="edge"><title>Node25&#45;&gt;Node5</title>
<path fill="none" stroke="midnightblue" d="M1824.6,-206.183C1872.02,-200.144 1962.49,-186.786 2037,-165 2072.01,-154.762 2077.52,-142.498 2113,-134 2206.9,-111.507 2462.29,-146.12 2546,-98 2570.87,-83.7035 2587.47,-53.637 2596.05,-34.291"/>
<polygon fill="midnightblue" stroke="midnightblue" points="2599.29,-35.6294 2599.91,-25.0528 2592.83,-32.9335 2599.29,-35.6294"/>
</g>
<!-- Node25&#45;&gt;Node9 -->
<g id="edge60" class="edge"><title>Node25&#45;&gt;Node9</title>
<path fill="none" stroke="midnightblue" d="M1759.31,-209.238C1697.02,-207.024 1565.03,-198.406 1537,-165 1509.01,-131.633 1507.69,-99.2145 1537,-67 1594.24,-4.1001 1835.81,-52.8491 1918,-31 1920.16,-30.4271 1922.35,-29.722 1924.52,-28.9343"/>
<polygon fill="midnightblue" stroke="midnightblue" points="1925.87,-32.1626 1933.78,-25.1047 1923.2,-25.6946 1925.87,-32.1626"/>
</g>
<!-- Node25&#45;&gt;Node10 -->
<g id="edge63" class="edge"><title>Node25&#45;&gt;Node10</title>
<path fill="none" stroke="midnightblue" d="M1759.19,-209.237C1645.12,-206.348 1266.44,-194.695 1149,-165 1146.79,-164.441 1144.54,-163.736 1142.32,-162.94"/>
<polygon fill="midnightblue" stroke="midnightblue" points="1143.45,-159.622 1132.87,-159.034 1140.78,-166.091 1143.45,-159.622"/>
</g>
<!-- Node25&#45;&gt;Node11 -->
<g id="edge64" class="edge"><title>Node25&#45;&gt;Node11</title>
<path fill="none" stroke="midnightblue" d="M1824.81,-206.014C1881.65,-198.939 2002.06,-183.202 2103,-165 2117,-162.475 2132.53,-159.147 2145.12,-156.316"/>
<polygon fill="midnightblue" stroke="midnightblue" points="2145.92,-159.722 2154.89,-154.084 2144.36,-152.898 2145.92,-159.722"/>
</g>
<!-- Node25&#45;&gt;Node12 -->
<g id="edge62" class="edge"><title>Node25&#45;&gt;Node12</title>
<path fill="none" stroke="midnightblue" d="M1824.83,-202.971C1861.83,-194.816 1923.65,-180.495 1976,-165 2062.66,-139.346 2275.9,-64.0929 2360,-31 2361.6,-30.3699 2363.24,-29.7078 2364.89,-29.0279"/>
<polygon fill="midnightblue" stroke="midnightblue" points="2366.43,-32.1755 2374.26,-25.0377 2363.69,-25.735 2366.43,-32.1755"/>
</g>
<!-- Node25&#45;&gt;Node19 -->
<g id="edge70" class="edge"><title>Node25&#45;&gt;Node19</title>
<path fill="none" stroke="midnightblue" d="M1824.58,-207.764C1909.73,-201.828 2145.87,-184.768 2342,-165 2366.92,-162.489 2394.66,-159.199 2417.29,-156.389"/>
<polygon fill="midnightblue" stroke="midnightblue" points="2417.81,-159.851 2427.3,-155.136 2416.94,-152.905 2417.81,-159.851"/>
</g>
<!-- Node25&#45;&gt;Node22 -->
<g id="edge67" class="edge"><title>Node25&#45;&gt;Node22</title>
<path fill="none" stroke="midnightblue" d="M1759.36,-210.804C1691.8,-211.48 1532.54,-207.918 1408,-165 1380.94,-155.675 1312.02,-122.954 1298,-98 1291.25,-85.988 1288.58,-77.0516 1298,-67 1340.42,-21.7545 1794.83,-46.0426 1855,-31 1857.21,-30.4471 1859.46,-29.7465 1861.69,-28.9533"/>
<polygon fill="midnightblue" stroke="midnightblue" points="1863.22,-32.1048 1871.13,-25.0522 1860.55,-25.635 1863.22,-32.1048"/>
</g>
<!-- Node25&#45;&gt;Node23 -->
<g id="edge66" class="edge"><title>Node25&#45;&gt;Node23</title>
<path fill="none" stroke="midnightblue" d="M1782.44,-201.45C1773.91,-193.12 1762.01,-179.604 1757,-165 1742.86,-123.802 1727.73,-99.2552 1757,-67 1812.51,-5.82248 2047.07,-51.8777 2127,-31 2129.3,-30.3995 2131.64,-29.6582 2133.97,-28.831"/>
<polygon fill="midnightblue" stroke="midnightblue" points="2135.28,-32.0756 2143.24,-25.0882 2132.66,-25.584 2135.28,-32.0756"/>
</g>
<!-- Node26 -->
<g id="node27" class="node"><title>Node26</title>
<g id="a_node27"><a xlink:href="boost__dynamic__bitset_8hpp.html" target="_top" xlink:title="../Modified/boost_dynamic\l_bitset.hpp">
<polygon fill="white" stroke="black" points="971,-67.5 971,-97.5 1099,-97.5 1099,-67.5 971,-67.5"/>
<text text-anchor="start" x="979" y="-85.5" font-family="FreeSans" font-size="10.00">../Modified/boost_dynamic</text>
<text text-anchor="middle" x="1035" y="-74.5" font-family="FreeSans" font-size="10.00">_bitset.hpp</text>
</a>
</g>
</g>
<!-- Node25&#45;&gt;Node26 -->
<g id="edge39" class="edge"><title>Node25&#45;&gt;Node26</title>
<path fill="none" stroke="midnightblue" d="M1759.32,-209.732C1653.32,-208.505 1320.18,-201.748 1220,-165 1197.88,-156.887 1197.86,-144.945 1177,-134 1151.22,-120.473 1121.02,-109.163 1095.11,-100.7"/>
<polygon fill="midnightblue" stroke="midnightblue" points="1096,-97.3101 1085.41,-97.5966 1093.87,-103.977 1096,-97.3101"/>
</g>
<!-- Node33 -->
<g id="node34" class="node"><title>Node33</title>
<polygon fill="white" stroke="#bfbfbf" points="0,-6 0,-25 52,-25 52,-6 0,-6"/>
<text text-anchor="middle" x="26" y="-13" font-family="FreeSans" font-size="10.00">ostream</text>
</g>
<!-- Node25&#45;&gt;Node33 -->
<g id="edge61" class="edge"><title>Node25&#45;&gt;Node33</title>
<path fill="none" stroke="midnightblue" d="M1759.43,-210.393C1648.02,-211.311 1283.21,-210.68 1177,-165 1158.21,-156.921 1161.7,-142.284 1143,-134 1032.59,-85.0773 178.193,-60.1559 61,-31 58.4868,-30.3748 55.9188,-29.5988 53.3721,-28.7334"/>
<polygon fill="midnightblue" stroke="midnightblue" points="54.4085,-25.3826 43.818,-25.081 51.9089,-31.9211 54.4085,-25.3826"/>
</g>
<!-- Node44 -->
<g id="node45" class="node"><title>Node44</title>
<polygon fill="white" stroke="#bfbfbf" points="1799.5,-140 1799.5,-159 1828.5,-159 1828.5,-140 1799.5,-140"/>
<text text-anchor="middle" x="1814" y="-147" font-family="FreeSans" font-size="10.00">list</text>
</g>
<!-- Node25&#45;&gt;Node44 -->
<g id="edge65" class="edge"><title>Node25&#45;&gt;Node44</title>
<path fill="none" stroke="midnightblue" d="M1795.15,-201.475C1798.32,-192.904 1803.3,-179.427 1807.35,-168.483"/>
<polygon fill="midnightblue" stroke="midnightblue" points="1810.67,-169.602 1810.85,-159.009 1804.1,-167.175 1810.67,-169.602"/>
</g>
<!-- Node45 -->
<g id="node46" class="node"><title>Node45</title>
<polygon fill="white" stroke="#bfbfbf" points="1846.5,-140 1846.5,-159 1889.5,-159 1889.5,-140 1846.5,-140"/>
<text text-anchor="middle" x="1868" y="-147" font-family="FreeSans" font-size="10.00">queue</text>
</g>
<!-- Node25&#45;&gt;Node45 -->
<g id="edge68" class="edge"><title>Node25&#45;&gt;Node45</title>
<path fill="none" stroke="midnightblue" d="M1802.89,-201.475C1814.97,-192.02 1834.67,-176.596 1849.24,-165.187"/>
<polygon fill="midnightblue" stroke="midnightblue" points="1851.41,-167.929 1857.13,-159.009 1847.1,-162.418 1851.41,-167.929"/>
</g>
<!-- Node46 -->
<g id="node47" class="node"><title>Node46</title>
<polygon fill="white" stroke="#bfbfbf" points="1907.5,-140 1907.5,-159 1946.5,-159 1946.5,-140 1907.5,-140"/>
<text text-anchor="middle" x="1927" y="-147" font-family="FreeSans" font-size="10.00">utility</text>
</g>
<!-- Node25&#45;&gt;Node46 -->
<g id="edge69" class="edge"><title>Node25&#45;&gt;Node46</title>
<path fill="none" stroke="midnightblue" d="M1813.29,-201.419C1834.81,-192.635 1868.96,-178.409 1898,-165 1899,-164.54 1900.01,-164.066 1901.03,-163.582"/>
<polygon fill="midnightblue" stroke="midnightblue" points="1902.76,-166.635 1910.22,-159.113 1899.69,-160.34 1902.76,-166.635"/>
</g>
<!-- Node47 -->
<g id="node48" class="node"><title>Node47</title>
<g id="a_node48"><a xlink:href="Descriptor_8h.html" target="_top" xlink:title="Descriptor.h">
<polygon fill="white" stroke="black" points="1417,-140 1417,-159 1485,-159 1485,-140 1417,-140"/>
<text text-anchor="middle" x="1451" y="-147" font-family="FreeSans" font-size="10.00">Descriptor.h</text>
</a>
</g>
</g>
<!-- Node25&#45;&gt;Node47 -->
<g id="edge71" class="edge"><title>Node25&#45;&gt;Node47</title>
<path fill="none" stroke="midnightblue" d="M1759.2,-206.492C1704.73,-200.326 1592.36,-186.159 1499,-165 1494.89,-164.069 1490.62,-162.972 1486.4,-161.806"/>
<polygon fill="midnightblue" stroke="midnightblue" points="1487.31,-158.424 1476.73,-159.001 1485.36,-165.148 1487.31,-158.424"/>
</g>
<!-- Node48 -->
<g id="node49" class="node"><title>Node48</title>
<g id="a_node49"><a xlink:href="RoI_8h.html" target="_top" xlink:title="RoI.h">
<polygon fill="white" stroke="black" points="1945.5,-73 1945.5,-92 1984.5,-92 1984.5,-73 1945.5,-73"/>
<text text-anchor="middle" x="1965" y="-80" font-family="FreeSans" font-size="10.00">RoI.h</text>
</a>
</g>
</g>
<!-- Node25&#45;&gt;Node48 -->
<g id="edge75" class="edge"><title>Node25&#45;&gt;Node48</title>
<path fill="none" stroke="midnightblue" d="M1824.86,-205.294C1867.41,-198.496 1938.13,-184.562 1955,-165 1969.8,-147.837 1970.08,-120.554 1968.16,-102.343"/>
<polygon fill="midnightblue" stroke="midnightblue" points="1971.61,-101.781 1966.79,-92.3484 1964.68,-102.731 1971.61,-101.781"/>
</g>
<!-- Node25&#45;&gt;Node49 -->
<g id="edge78" class="edge"><title>Node25&#45;&gt;Node49</title>
<path fill="none" stroke="midnightblue" d="M1759.25,-208.28C1684.16,-204.005 1493.97,-191.295 1337,-165 1331.02,-163.998 1324.75,-162.744 1318.6,-161.397"/>
<polygon fill="midnightblue" stroke="midnightblue" points="1318.97,-157.892 1308.44,-159.069 1317.41,-164.715 1318.97,-157.892"/>
</g>
<!-- Node51 -->
<g id="node52" class="node"><title>Node51</title>
<g id="a_node52"><a xlink:href="TaggedData_8h.html" target="_top" xlink:title="../DataStructures/Tagged\lData.h">
<polygon fill="white" stroke="black" points="1579.5,-134.5 1579.5,-164.5 1704.5,-164.5 1704.5,-134.5 1579.5,-134.5"/>
<text text-anchor="start" x="1587.5" y="-152.5" font-family="FreeSans" font-size="10.00">../DataStructures/Tagged</text>
<text text-anchor="middle" x="1642" y="-141.5" font-family="FreeSans" font-size="10.00">Data.h</text>
</a>
</g>
</g>
<!-- Node25&#45;&gt;Node51 -->
<g id="edge81" class="edge"><title>Node25&#45;&gt;Node51</title>
<path fill="none" stroke="midnightblue" d="M1770.51,-201.475C1748.77,-192.852 1714.51,-179.264 1686.84,-168.285"/>
<polygon fill="midnightblue" stroke="midnightblue" points="1687.94,-164.957 1677.35,-164.523 1685.36,-171.464 1687.94,-164.957"/>
</g>
<!-- Node25&#45;&gt;Node53 -->
<g id="edge84" class="edge"><title>Node25&#45;&gt;Node53</title>
<path fill="none" stroke="midnightblue" d="M1824.62,-209.144C1962.6,-205.44 2512.03,-189.844 2963,-165 3000.22,-162.949 3041.27,-160.11 3076.58,-157.487"/>
<polygon fill="midnightblue" stroke="midnightblue" points="3077.15,-160.954 3086.86,-156.717 3076.63,-153.974 3077.15,-160.954"/>
</g>
<!-- Node55 -->
<g id="node56" class="node"><title>Node55</title>
<polygon fill="white" stroke="#bfbfbf" points="2279,-140 2279,-159 2333,-159 2333,-140 2279,-140"/>
<text text-anchor="middle" x="2306" y="-147" font-family="FreeSans" font-size="10.00">iostream</text>
</g>
<!-- Node25&#45;&gt;Node55 -->
<g id="edge87" class="edge"><title>Node25&#45;&gt;Node55</title>
<path fill="none" stroke="midnightblue" d="M1824.59,-206.545C1893.05,-199.244 2056.82,-181.556 2194,-165 2218.92,-161.992 2246.94,-158.365 2268.71,-155.491"/>
<polygon fill="midnightblue" stroke="midnightblue" points="2269.4,-158.93 2278.86,-154.147 2268.49,-151.991 2269.4,-158.93"/>
</g>
<!-- Node26&#45;&gt;Node9 -->
<g id="edge44" class="edge"><title>Node26&#45;&gt;Node9</title>
<path fill="none" stroke="midnightblue" d="M1099.17,-68.8402C1103.84,-68.1437 1108.48,-67.5182 1113,-67 1290.9,-46.5869 1743.86,-72.7069 1918,-31 1920.22,-30.4691 1922.47,-29.7841 1924.7,-29.0014"/>
<polygon fill="midnightblue" stroke="midnightblue" points="1926.23,-32.1568 1934.15,-25.1188 1923.57,-25.6821 1926.23,-32.1568"/>
</g>
<!-- Node26&#45;&gt;Node13 -->
<g id="edge43" class="edge"><title>Node26&#45;&gt;Node13</title>
<path fill="none" stroke="midnightblue" d="M1099.02,-77.4512C1152.26,-74.2088 1230.03,-69.7608 1298,-67 1451.04,-60.7836 2525.88,-61.4 2676,-31 2679.08,-30.3765 2682.23,-29.5161 2685.34,-28.5228"/>
<polygon fill="midnightblue" stroke="midnightblue" points="2686.74,-31.7367 2694.94,-25.0243 2684.34,-25.1598 2686.74,-31.7367"/>
</g>
<!-- Node26&#45;&gt;Node22 -->
<g id="edge45" class="edge"><title>Node26&#45;&gt;Node22</title>
<path fill="none" stroke="midnightblue" d="M1099.17,-68.8597C1103.84,-68.1586 1108.49,-67.5267 1113,-67 1440.94,-28.7409 1534.06,-108.507 1855,-31 1857.22,-30.4649 1859.47,-29.7769 1861.7,-28.9922"/>
<polygon fill="midnightblue" stroke="midnightblue" points="1863.23,-32.1469 1871.14,-25.1061 1860.56,-25.6731 1863.23,-32.1469"/>
</g>
<!-- Node27 -->
<g id="node28" class="node"><title>Node27</title>
<polygon fill="white" stroke="#bfbfbf" points="70.5,-6 70.5,-25 121.5,-25 121.5,-6 70.5,-6"/>
<text text-anchor="middle" x="96" y="-13" font-family="FreeSans" font-size="10.00">assert.h</text>
</g>
<!-- Node26&#45;&gt;Node27 -->
<g id="edge40" class="edge"><title>Node26&#45;&gt;Node27</title>
<path fill="none" stroke="midnightblue" d="M970.834,-68.8341C966.164,-68.139 961.516,-67.5155 957,-67 774.235,-46.1386 309.384,-71.7376 130,-31 127.481,-30.428 124.914,-29.6774 122.376,-28.8186"/>
<polygon fill="midnightblue" stroke="midnightblue" points="123.483,-25.4935 112.895,-25.1182 120.938,-32.0145 123.483,-25.4935"/>
</g>
<!-- Node28 -->
<g id="node29" class="node"><title>Node28</title>
<polygon fill="white" stroke="#bfbfbf" points="139.5,-6 139.5,-25 180.5,-25 180.5,-6 139.5,-6"/>
<text text-anchor="middle" x="160" y="-13" font-family="FreeSans" font-size="10.00">string</text>
</g>
<!-- Node26&#45;&gt;Node28 -->
<g id="edge41" class="edge"><title>Node26&#45;&gt;Node28</title>
<path fill="none" stroke="midnightblue" d="M970.832,-68.8513C966.162,-68.1521 961.515,-67.523 957,-67 787.281,-47.3407 354.319,-74.1375 189,-31 187.278,-30.5505 185.538,-29.9908 183.812,-29.355"/>
<polygon fill="midnightblue" stroke="midnightblue" points="184.846,-25.9843 174.286,-25.1181 182.001,-32.3801 184.846,-25.9843"/>
</g>
<!-- Node29 -->
<g id="node30" class="node"><title>Node29</title>
<polygon fill="white" stroke="#bfbfbf" points="198.5,-6 198.5,-25 257.5,-25 257.5,-6 198.5,-6"/>
<text text-anchor="middle" x="228" y="-13" font-family="FreeSans" font-size="10.00">stdexcept</text>
</g>
<!-- Node26&#45;&gt;Node29 -->
<g id="edge42" class="edge"><title>Node26&#45;&gt;Node29</title>
<path fill="none" stroke="midnightblue" d="M970.829,-68.8781C966.16,-68.1726 961.514,-67.5348 957,-67 651.608,-30.8187 566.881,-94.5924 266,-31 262.921,-30.3493 259.763,-29.4858 256.646,-28.5033"/>
<polygon fill="midnightblue" stroke="midnightblue" points="257.574,-25.1186 246.979,-25.074 255.233,-31.7159 257.574,-25.1186"/>
</g>
<!-- Node30 -->
<g id="node31" class="node"><title>Node30</title>
<polygon fill="white" stroke="#bfbfbf" points="275.5,-0.5 275.5,-30.5 384.5,-30.5 384.5,-0.5 275.5,-0.5"/>
<text text-anchor="start" x="283.5" y="-18.5" font-family="FreeSans" font-size="10.00">boost/dynamic_bitset</text>
<text text-anchor="middle" x="330" y="-7.5" font-family="FreeSans" font-size="10.00">/config.hpp</text>
</g>
<!-- Node26&#45;&gt;Node30 -->
<g id="edge46" class="edge"><title>Node26&#45;&gt;Node30</title>
<path fill="none" stroke="midnightblue" d="M970.822,-68.9387C966.154,-68.219 961.511,-67.5614 957,-67 711.467,-36.4398 643.935,-66.0134 394.79,-30.9362"/>
<polygon fill="midnightblue" stroke="midnightblue" points="395.101,-27.4451 384.706,-29.4954 394.11,-34.3748 395.101,-27.4451"/>
</g>
<!-- Node31 -->
<g id="node32" class="node"><title>Node31</title>
<polygon fill="white" stroke="#bfbfbf" points="403,-6 403,-25 445,-25 445,-6 403,-6"/>
<text text-anchor="middle" x="424" y="-13" font-family="FreeSans" font-size="10.00">locale</text>
</g>
<!-- Node26&#45;&gt;Node31 -->
<g id="edge47" class="edge"><title>Node26&#45;&gt;Node31</title>
<path fill="none" stroke="midnightblue" d="M970.817,-68.9777C966.15,-68.2488 961.508,-67.5785 957,-67 734.695,-38.4735 670.546,-88.8001 454,-31 452.072,-30.4853 450.118,-29.846 448.182,-29.125"/>
<polygon fill="midnightblue" stroke="midnightblue" points="449.395,-25.8358 438.83,-25.0381 446.592,-32.25 449.395,-25.8358"/>
</g>
<!-- Node32 -->
<g id="node33" class="node"><title>Node32</title>
<polygon fill="white" stroke="#bfbfbf" points="463.5,-6 463.5,-25 512.5,-25 512.5,-6 463.5,-6"/>
<text text-anchor="middle" x="488" y="-13" font-family="FreeSans" font-size="10.00">istream</text>
</g>
<!-- Node26&#45;&gt;Node32 -->
<g id="edge48" class="edge"><title>Node26&#45;&gt;Node32</title>
<path fill="none" stroke="midnightblue" d="M970.81,-69.0337C966.145,-68.2918 961.505,-67.6032 957,-67 764.282,-41.1986 709.479,-78.7636 521,-31 518.697,-30.4163 516.351,-29.6868 514.026,-28.8676"/>
<polygon fill="midnightblue" stroke="midnightblue" points="515.329,-25.6194 504.745,-25.1385 512.719,-32.1147 515.329,-25.6194"/>
</g>
<!-- Node26&#45;&gt;Node33 -->
<g id="edge49" class="edge"><title>Node26&#45;&gt;Node33</title>
<path fill="none" stroke="midnightblue" d="M970.836,-68.8169C966.165,-68.1258 961.517,-67.5079 957,-67 758.976,-44.7325 255.622,-73.7981 61,-31 58.3221,-30.4111 55.5883,-29.6295 52.8877,-28.7336"/>
<polygon fill="midnightblue" stroke="midnightblue" points="54.003,-25.4132 43.412,-25.1279 51.5134,-31.9556 54.003,-25.4132"/>
</g>
<!-- Node34 -->
<g id="node35" class="node"><title>Node34</title>
<polygon fill="white" stroke="#bfbfbf" points="530.5,-0.5 530.5,-30.5 639.5,-30.5 639.5,-0.5 530.5,-0.5"/>
<text text-anchor="start" x="538.5" y="-18.5" font-family="FreeSans" font-size="10.00">boost/dynamic_bitset</text>
<text text-anchor="middle" x="585" y="-7.5" font-family="FreeSans" font-size="10.00">_fwd.hpp</text>
</g>
<!-- Node26&#45;&gt;Node34 -->
<g id="edge50" class="edge"><title>Node26&#45;&gt;Node34</title>
<path fill="none" stroke="midnightblue" d="M970.785,-69.2077C966.126,-68.4249 961.494,-67.6796 957,-67 823.922,-46.8767 786.581,-53.9065 649.762,-31.0053"/>
<polygon fill="midnightblue" stroke="midnightblue" points="650.181,-27.5265 639.736,-29.3039 649.01,-34.4278 650.181,-27.5265"/>
</g>
<!-- Node35 -->
<g id="node36" class="node"><title>Node35</title>
<polygon fill="white" stroke="#bfbfbf" points="658,-0.5 658,-30.5 764,-30.5 764,-0.5 658,-0.5"/>
<text text-anchor="start" x="666" y="-18.5" font-family="FreeSans" font-size="10.00">boost/detail/dynamic</text>
<text text-anchor="middle" x="711" y="-7.5" font-family="FreeSans" font-size="10.00">_bitset.hpp</text>
</g>
<!-- Node26&#45;&gt;Node35 -->
<g id="edge51" class="edge"><title>Node26&#45;&gt;Node35</title>
<path fill="none" stroke="midnightblue" d="M970.711,-69.4089C910.191,-57.9761 822.831,-41.3315 774.138,-31.1809"/>
<polygon fill="midnightblue" stroke="midnightblue" points="774.576,-27.6965 764.069,-29.056 773.131,-34.5456 774.576,-27.6965"/>
</g>
<!-- Node36 -->
<g id="node37" class="node"><title>Node36</title>
<polygon fill="white" stroke="#bfbfbf" points="782,-6 782,-25 900,-25 900,-6 782,-6"/>
<text text-anchor="middle" x="841" y="-13" font-family="FreeSans" font-size="10.00">boost/detail/iterator.hpp</text>
</g>
<!-- Node26&#45;&gt;Node36 -->
<g id="edge52" class="edge"><title>Node26&#45;&gt;Node36</title>
<path fill="none" stroke="midnightblue" d="M992.905,-67.396C957.962,-55.6882 908.844,-39.2314 876.02,-28.2336"/>
<polygon fill="midnightblue" stroke="midnightblue" points="876.984,-24.8653 866.39,-25.007 874.76,-31.5027 876.984,-24.8653"/>
</g>
<!-- Node37 -->
<g id="node38" class="node"><title>Node37</title>
<polygon fill="white" stroke="#bfbfbf" points="918.5,-6 918.5,-25 1031.5,-25 1031.5,-6 918.5,-6"/>
<text text-anchor="middle" x="975" y="-13" font-family="FreeSans" font-size="10.00">boost/move/move.hpp</text>
</g>
<!-- Node26&#45;&gt;Node37 -->
<g id="edge53" class="edge"><title>Node26&#45;&gt;Node37</title>
<path fill="none" stroke="midnightblue" d="M1021.98,-67.396C1012.53,-57.1607 999.735,-43.2959 989.882,-32.622"/>
<polygon fill="midnightblue" stroke="midnightblue" points="992.38,-30.1686 983.026,-25.1945 987.237,-34.9166 992.38,-30.1686"/>
</g>
<!-- Node38 -->
<g id="node39" class="node"><title>Node38</title>
<polygon fill="white" stroke="#bfbfbf" points="1049.5,-6 1049.5,-25 1134.5,-25 1134.5,-6 1049.5,-6"/>
<text text-anchor="middle" x="1092" y="-13" font-family="FreeSans" font-size="10.00">boost/limits.hpp</text>
</g>
<!-- Node26&#45;&gt;Node38 -->
<g id="edge54" class="edge"><title>Node26&#45;&gt;Node38</title>
<path fill="none" stroke="midnightblue" d="M1047.37,-67.396C1056.26,-57.2611 1068.26,-43.5674 1077.59,-32.9368"/>
<polygon fill="midnightblue" stroke="midnightblue" points="1080.41,-35.0208 1084.38,-25.1945 1075.15,-30.4055 1080.41,-35.0208"/>
</g>
<!-- Node39 -->
<g id="node40" class="node"><title>Node39</title>
<polygon fill="white" stroke="#bfbfbf" points="1152.5,-0.5 1152.5,-30.5 1261.5,-30.5 1261.5,-0.5 1152.5,-0.5"/>
<text text-anchor="start" x="1160.5" y="-18.5" font-family="FreeSans" font-size="10.00">boost/pending/lowest</text>
<text text-anchor="middle" x="1207" y="-7.5" font-family="FreeSans" font-size="10.00">_bit.hpp</text>
</g>
<!-- Node26&#45;&gt;Node39 -->
<g id="edge55" class="edge"><title>Node26&#45;&gt;Node39</title>
<path fill="none" stroke="midnightblue" d="M1072.32,-67.396C1098.13,-57.6432 1132.66,-44.5949 1160.29,-34.152"/>
<polygon fill="midnightblue" stroke="midnightblue" points="1161.63,-37.3856 1169.75,-30.5765 1159.16,-30.8376 1161.63,-37.3856"/>
</g>
<!-- Node40 -->
<g id="node41" class="node"><title>Node40</title>
<polygon fill="white" stroke="#bfbfbf" points="1280,-6 1280,-25 1398,-25 1398,-6 1280,-6"/>
<text text-anchor="middle" x="1339" y="-13" font-family="FreeSans" font-size="10.00">boost/static_assert.hpp</text>
</g>
<!-- Node26&#45;&gt;Node40 -->
<g id="edge56" class="edge"><title>Node26&#45;&gt;Node40</title>
<path fill="none" stroke="midnightblue" d="M1099.1,-67.7946C1155.77,-55.6778 1237.27,-38.2507 1289.18,-27.1529"/>
<polygon fill="midnightblue" stroke="midnightblue" points="1290.1,-30.5348 1299.15,-25.0212 1288.64,-23.6896 1290.1,-30.5348"/>
</g>
<!-- Node41 -->
<g id="node42" class="node"><title>Node41</title>
<polygon fill="white" stroke="#bfbfbf" points="1416,-6 1416,-25 1546,-25 1546,-6 1416,-6"/>
<text text-anchor="middle" x="1481" y="-13" font-family="FreeSans" font-size="10.00">boost/utility/addressof.hpp</text>
</g>
<!-- Node26&#45;&gt;Node41 -->
<g id="edge57" class="edge"><title>Node26&#45;&gt;Node41</title>
<path fill="none" stroke="midnightblue" d="M1099.22,-69.2358C1103.88,-68.4464 1108.51,-67.6919 1113,-67 1243.11,-46.9605 1276.99,-51.67 1407,-31 1414.64,-29.7859 1422.69,-28.3602 1430.56,-26.8852"/>
<polygon fill="midnightblue" stroke="midnightblue" points="1431.22,-30.3222 1440.38,-25.0027 1429.9,-23.4472 1431.22,-30.3222"/>
</g>
<!-- Node42 -->
<g id="node43" class="node"><title>Node42</title>
<polygon fill="white" stroke="#bfbfbf" points="1564,-0.5 1564,-30.5 1696,-30.5 1696,-0.5 1564,-0.5"/>
<text text-anchor="start" x="1572" y="-18.5" font-family="FreeSans" font-size="10.00">boost/detail/no_exceptions</text>
<text text-anchor="middle" x="1630" y="-7.5" font-family="FreeSans" font-size="10.00">_support.hpp</text>
</g>
<!-- Node26&#45;&gt;Node42 -->
<g id="edge58" class="edge"><title>Node26&#45;&gt;Node42</title>
<path fill="none" stroke="midnightblue" d="M1099.19,-69.028C1103.85,-68.2874 1108.49,-67.6006 1113,-67 1305.12,-41.387 1357.98,-57.2006 1553.77,-31.0647"/>
<polygon fill="midnightblue" stroke="midnightblue" points="1554.37,-34.5155 1563.81,-29.7047 1553.43,-27.5788 1554.37,-34.5155"/>
</g>
<!-- Node43 -->
<g id="node44" class="node"><title>Node43</title>
<polygon fill="white" stroke="#bfbfbf" points="1714,-6 1714,-25 1846,-25 1846,-6 1714,-6"/>
<text text-anchor="middle" x="1780" y="-13" font-family="FreeSans" font-size="10.00">boost/throw_exception.hpp</text>
</g>
<!-- Node26&#45;&gt;Node43 -->
<g id="edge59" class="edge"><title>Node26&#45;&gt;Node43</title>
<path fill="none" stroke="midnightblue" d="M1099.18,-68.9227C1103.84,-68.2067 1108.49,-67.5544 1113,-67 1374.63,-34.8508 1443.49,-64.0879 1705,-31 1713.42,-29.9351 1722.31,-28.497 1730.92,-26.9388"/>
<polygon fill="midnightblue" stroke="midnightblue" points="1731.66,-30.3599 1740.84,-25.0695 1730.37,-23.4809 1731.66,-30.3599"/>
</g>
<!-- Node47&#45;&gt;Node8 -->
<g id="edge73" class="edge"><title>Node47&#45;&gt;Node8</title>
<path fill="none" stroke="midnightblue" d="M1485.03,-143.579C1508.79,-140.334 1541.26,-136.277 1570,-134 2002.72,-99.718 2118.68,-174.257 2546,-98 2627.97,-83.3714 2720.04,-47.9875 2765.85,-29.0136"/>
<polygon fill="midnightblue" stroke="midnightblue" points="2767.29,-32.2054 2775.16,-25.1167 2764.58,-25.7479 2767.29,-32.2054"/>
</g>
<!-- Node47&#45;&gt;Node9 -->
<g id="edge74" class="edge"><title>Node47&#45;&gt;Node9</title>
<path fill="none" stroke="midnightblue" d="M1453.19,-139.995C1458.1,-122.815 1471.77,-84.1541 1499,-67 1578.07,-17.1905 1827.58,-54.6257 1918,-31 1920.16,-30.4362 1922.35,-29.7377 1924.53,-28.9545"/>
<polygon fill="midnightblue" stroke="midnightblue" points="1925.88,-32.1844 1933.78,-25.1332 1923.2,-25.7141 1925.88,-32.1844"/>
</g>
<!-- Node47&#45;&gt;Node26 -->
<g id="edge72" class="edge"><title>Node47&#45;&gt;Node26</title>
<path fill="none" stroke="midnightblue" d="M1416.96,-143.181C1350,-132.718 1199.8,-109.25 1108.98,-95.0595"/>
<polygon fill="midnightblue" stroke="midnightblue" points="1109.44,-91.5896 1099.02,-93.5038 1108.36,-98.5057 1109.44,-91.5896"/>
</g>
<!-- Node48&#45;&gt;Node8 -->
<g id="edge76" class="edge"><title>Node48&#45;&gt;Node8</title>
<path fill="none" stroke="midnightblue" d="M1984.57,-80.8974C2090.56,-77.5354 2596.55,-60.1895 2750,-31 2753.97,-30.245 2758.07,-29.2444 2762.12,-28.1205"/>
<polygon fill="midnightblue" stroke="midnightblue" points="2763.38,-31.3963 2771.93,-25.1423 2761.34,-24.6981 2763.38,-31.3963"/>
</g>
<!-- Node48&#45;&gt;Node9 -->
<g id="edge77" class="edge"><title>Node48&#45;&gt;Node9</title>
<path fill="none" stroke="midnightblue" d="M1962.98,-72.7338C1960.75,-63.0852 1957.11,-47.3001 1954.25,-34.9063"/>
<polygon fill="midnightblue" stroke="midnightblue" points="1957.65,-34.0842 1951.99,-25.1273 1950.83,-35.6583 1957.65,-34.0842"/>
</g>
<!-- Node50 -->
<g id="node51" class="node"><title>Node50</title>
<g id="a_node51"><a xlink:href="FeatureConcept_8ipp.html" target="_top" xlink:title="FeatureConcept.ipp">
<polygon fill="white" stroke="black" points="1307.5,-73 1307.5,-92 1408.5,-92 1408.5,-73 1307.5,-73"/>
<text text-anchor="middle" x="1358" y="-80" font-family="FreeSans" font-size="10.00">FeatureConcept.ipp</text>
</a>
</g>
</g>
<!-- Node49&#45;&gt;Node50 -->
<g id="edge79" class="edge"><title>Node49&#45;&gt;Node50</title>
<path fill="none" stroke="midnightblue" d="M1287.06,-139.734C1300.34,-129.208 1322.83,-111.379 1338.93,-98.6174"/>
<polygon fill="midnightblue" stroke="midnightblue" points="1341.45,-101.082 1347.12,-92.1273 1337.11,-95.5965 1341.45,-101.082"/>
</g>
<!-- Node50&#45;&gt;Node2 -->
<g id="edge80" class="edge"><title>Node50&#45;&gt;Node2</title>
<path fill="none" stroke="midnightblue" d="M1408.73,-73.6315C1425.36,-71.2474 1443.94,-68.7893 1461,-67 1691.4,-42.8376 1751.37,-61.6286 1981,-31 1989.1,-29.9191 1997.66,-28.4867 2005.95,-26.9426"/>
<polygon fill="midnightblue" stroke="midnightblue" points="2006.73,-30.3564 2015.89,-25.0199 2005.4,-23.484 2006.73,-30.3564"/>
</g>
<!-- Node52 -->
<g id="node53" class="node"><title>Node52</title>
<g id="a_node53"><a xlink:href="TaggedData_8ipp.html" target="_top" xlink:title="TaggedData.ipp">
<polygon fill="white" stroke="black" points="1621,-73 1621,-92 1705,-92 1705,-73 1621,-73"/>
<text text-anchor="middle" x="1663" y="-80" font-family="FreeSans" font-size="10.00">TaggedData.ipp</text>
</a>
</g>
</g>
<!-- Node51&#45;&gt;Node52 -->
<g id="edge82" class="edge"><title>Node51&#45;&gt;Node52</title>
<path fill="none" stroke="midnightblue" d="M1646.56,-134.396C1649.64,-124.863 1653.73,-112.182 1657.07,-101.862"/>
<polygon fill="midnightblue" stroke="midnightblue" points="1660.45,-102.786 1660.19,-92.1945 1653.79,-100.634 1660.45,-102.786"/>
</g>
<!-- Node52&#45;&gt;Node2 -->
<g id="edge83" class="edge"><title>Node52&#45;&gt;Node2</title>
<path fill="none" stroke="midnightblue" d="M1693.37,-72.9477C1701.64,-70.8078 1710.63,-68.6537 1719,-67 1834.31,-44.2299 1865.08,-50.4583 1981,-31 1988.18,-29.7941 1995.74,-28.4161 2003.17,-27.0004"/>
<polygon fill="midnightblue" stroke="midnightblue" points="2004,-30.4029 2013.15,-25.059 2002.67,-23.5315 2004,-30.4029"/>
</g>
<!-- Node54 -->
<g id="node55" class="node"><title>Node54</title>
<g id="a_node55"><a xlink:href="EigenMetafunction_8ipp.html" target="_top" xlink:title="EigenMetafunction.ipp">
<polygon fill="white" stroke="black" points="3335,-73 3335,-92 3447,-92 3447,-73 3335,-73"/>
<text text-anchor="middle" x="3391" y="-80" font-family="FreeSans" font-size="10.00">EigenMetafunction.ipp</text>
</a>
</g>
</g>
<!-- Node53&#45;&gt;Node54 -->
<g id="edge85" class="edge"><title>Node53&#45;&gt;Node54</title>
<path fill="none" stroke="midnightblue" d="M3195.01,-139.869C3235.31,-128.278 3306.99,-107.662 3351.59,-94.8335"/>
<polygon fill="midnightblue" stroke="midnightblue" points="3352.58,-98.1914 3361.22,-92.0637 3350.65,-91.4642 3352.58,-98.1914"/>
</g>
<!-- Node54&#45;&gt;Node15 -->
<g id="edge86" class="edge"><title>Node54&#45;&gt;Node15</title>
<path fill="none" stroke="midnightblue" d="M3391,-72.7338C3391,-63.1826 3391,-47.6183 3391,-35.2829"/>
<polygon fill="midnightblue" stroke="midnightblue" points="3394.5,-35.1273 3391,-25.1273 3387.5,-35.1273 3394.5,-35.1273"/>
</g>
<!-- Node56&#45;&gt;Node19 -->
<g id="edge125" class="edge"><title>Node56&#45;&gt;Node19</title>
<path fill="none" stroke="midnightblue" d="M2421.53,-385.816C2427.73,-350.61 2451.09,-218.061 2459.75,-168.952"/>
<polygon fill="midnightblue" stroke="midnightblue" points="2463.2,-169.536 2461.49,-159.08 2456.31,-168.321 2463.2,-169.536"/>
</g>
<!-- Node57 -->
<g id="node58" class="node"><title>Node57</title>
<g id="a_node58"><a xlink:href="CoordinateTransformation_8ipp.html" target="_top" xlink:title="CoordinateTransformation.ipp">
<polygon fill="white" stroke="black" points="2611.5,-324.5 2611.5,-343.5 2754.5,-343.5 2754.5,-324.5 2611.5,-324.5"/>
<text text-anchor="middle" x="2683" y="-331.5" font-family="FreeSans" font-size="10.00">CoordinateTransformation.ipp</text>
</a>
</g>
</g>
<!-- Node56&#45;&gt;Node57 -->
<g id="edge91" class="edge"><title>Node56&#45;&gt;Node57</title>
<path fill="none" stroke="midnightblue" d="M2457.68,-385.975C2504.55,-375.371 2584.61,-357.26 2635.6,-345.724"/>
<polygon fill="midnightblue" stroke="midnightblue" points="2636.41,-349.129 2645.39,-343.509 2634.86,-342.302 2636.41,-349.129"/>
</g>
<!-- Node57&#45;&gt;Node2 -->
<g id="edge92" class="edge"><title>Node57&#45;&gt;Node2</title>
<path fill="none" stroke="midnightblue" d="M2611.4,-330.865C2521.87,-327.017 2374.78,-316.453 2329,-288 2259.28,-244.662 2284.71,-192.387 2227,-134 2181.55,-88.0149 2115.61,-49.1473 2079.69,-29.7481"/>
<polygon fill="midnightblue" stroke="midnightblue" points="2081.29,-26.6328 2070.81,-25.0227 2078,-32.8117 2081.29,-26.6328"/>
</g>
<!-- Node57&#45;&gt;Node3 -->
<g id="edge94" class="edge"><title>Node57&#45;&gt;Node3</title>
<path fill="none" stroke="midnightblue" d="M2700.86,-324.401C2717.23,-316.134 2741.77,-302.749 2761,-288 2776.46,-276.141 2775.53,-267.414 2792,-257 2832.28,-231.529 2849.37,-240.18 2893,-221 2905.19,-215.639 2992.12,-176.409 2999,-165 3023.75,-123.938 3005.87,-64.5425 2994.1,-34.8488"/>
<polygon fill="midnightblue" stroke="midnightblue" points="2997.21,-33.2208 2990.13,-25.3418 2990.75,-35.9182 2997.21,-33.2208"/>
</g>
<!-- Node57&#45;&gt;Node4 -->
<g id="edge95" class="edge"><title>Node57&#45;&gt;Node4</title>
<path fill="none" stroke="midnightblue" d="M2611.43,-331.813C2565.67,-327.975 2506.89,-317.049 2463,-288 2412.12,-254.32 2316.26,-88.3893 2285.65,-33.8834"/>
<polygon fill="midnightblue" stroke="midnightblue" points="2288.66,-32.0819 2280.72,-25.0596 2282.55,-35.4965 2288.66,-32.0819"/>
</g>
<!-- Node57&#45;&gt;Node5 -->
<g id="edge93" class="edge"><title>Node57&#45;&gt;Node5</title>
<path fill="none" stroke="midnightblue" d="M2682.87,-324.31C2682.16,-283.858 2677.84,-113.984 2655,-67 2648.07,-52.7498 2635.38,-40.3013 2624.27,-31.3293"/>
<polygon fill="midnightblue" stroke="midnightblue" points="2626.28,-28.458 2616.21,-25.1737 2622.03,-34.0227 2626.28,-28.458"/>
</g>
<!-- Node57&#45;&gt;Node8 -->
<g id="edge98" class="edge"><title>Node57&#45;&gt;Node8</title>
<path fill="none" stroke="midnightblue" d="M2691.36,-324.366C2708.63,-306.68 2747.94,-267.142 2764,-257 2801.12,-233.555 2815.53,-238.042 2856,-221 2859.48,-219.533 2977.95,-168.175 2980,-165 3022.28,-99.507 2900.9,-49.6794 2834.76,-28.1562"/>
<polygon fill="midnightblue" stroke="midnightblue" points="2835.63,-24.7605 2825.04,-25.067 2833.51,-31.4317 2835.63,-24.7605"/>
</g>
<!-- Node57&#45;&gt;Node9 -->
<g id="edge100" class="edge"><title>Node57&#45;&gt;Node9</title>
<path fill="none" stroke="midnightblue" d="M2611.2,-332.075C2512.92,-329.588 2342.75,-320.554 2291,-288 2222.53,-244.93 2263.58,-175.258 2194,-134 2138.27,-100.954 1656.38,-145.207 1612,-98 1602.56,-87.9614 1602.84,-77.2958 1612,-67 1657.5,-15.8348 1852.04,-49.3472 1918,-31 1920.15,-30.4024 1922.34,-29.6798 1924.51,-28.88"/>
<polygon fill="midnightblue" stroke="midnightblue" points="1925.87,-32.1041 1933.76,-25.0282 1923.18,-25.6422 1925.87,-32.1041"/>
</g>
<!-- Node57&#45;&gt;Node11 -->
<g id="edge101" class="edge"><title>Node57&#45;&gt;Node11</title>
<path fill="none" stroke="midnightblue" d="M2611.06,-330.738C2485.13,-326.124 2235.16,-313.807 2205,-288 2170.31,-258.323 2167.5,-199.555 2168.6,-169.368"/>
<polygon fill="midnightblue" stroke="midnightblue" points="2172.1,-169.495 2169.15,-159.318 2165.11,-169.111 2172.1,-169.495"/>
</g>
<!-- Node57&#45;&gt;Node12 -->
<g id="edge102" class="edge"><title>Node57&#45;&gt;Node12</title>
<path fill="none" stroke="midnightblue" d="M2678.48,-324.191C2662.49,-293.797 2605.56,-192.002 2532,-134 2500.75,-109.356 2480.77,-123.246 2450,-98 2428.38,-80.2579 2411.29,-52.3339 2401.66,-34.2192"/>
<polygon fill="midnightblue" stroke="midnightblue" points="2404.77,-32.6024 2397.1,-25.2917 2398.54,-35.7888 2404.77,-32.6024"/>
</g>
<!-- Node57&#45;&gt;Node13 -->
<g id="edge106" class="edge"><title>Node57&#45;&gt;Node13</title>
<path fill="none" stroke="midnightblue" d="M2685.75,-324.198C2691.06,-308.554 2704.17,-275.793 2726,-257 2759.9,-227.811 2778.73,-238.264 2820,-221 2839.82,-212.71 2844.11,-209.121 2864,-201 2907.34,-183.3 2936.14,-203.348 2963,-165 2970.9,-153.715 2970.39,-145.631 2963,-134 2950.31,-114.016 2808.49,-54.9667 2744.27,-28.9962"/>
<polygon fill="midnightblue" stroke="midnightblue" points="2745.24,-25.6153 2734.66,-25.1231 2742.63,-32.1077 2745.24,-25.6153"/>
</g>
<!-- Node57&#45;&gt;Node14 -->
<g id="edge103" class="edge"><title>Node57&#45;&gt;Node14</title>
<path fill="none" stroke="midnightblue" d="M2742.85,-324.479C2780.06,-317.733 2828.22,-306.322 2868,-288 2889.4,-278.144 2889.41,-266.425 2911,-257 2985.37,-224.538 3010.46,-237.068 3090,-221 3212.69,-196.216 3250.42,-213.03 3366,-165 3449.9,-130.134 3535.6,-62.0142 3571.5,-31.6893"/>
<polygon fill="midnightblue" stroke="midnightblue" points="3573.82,-34.3157 3579.15,-25.1613 3569.27,-28.9914 3573.82,-34.3157"/>
</g>
<!-- Node57&#45;&gt;Node15 -->
<g id="edge104" class="edge"><title>Node57&#45;&gt;Node15</title>
<path fill="none" stroke="midnightblue" d="M2754.72,-333.767C2890.88,-334.209 3181.22,-329.999 3271,-288 3377.76,-238.059 3411.62,-207.188 3456,-98 3461.19,-85.2361 3462.06,-79.3752 3456,-67 3448.17,-50.9958 3432.54,-38.6016 3418.58,-30.0975"/>
<polygon fill="midnightblue" stroke="midnightblue" points="3420.16,-26.9715 3409.74,-25.072 3416.7,-33.0569 3420.16,-26.9715"/>
</g>
<!-- Node57&#45;&gt;Node16 -->
<g id="edge105" class="edge"><title>Node57&#45;&gt;Node16</title>
<path fill="none" stroke="midnightblue" d="M2720.91,-324.47C2751.23,-316.925 2794.42,-304.543 2830,-288 2853.03,-277.292 2854.53,-266.694 2878,-257 3059.44,-182.07 3125.18,-231.174 3310,-165 3311.25,-164.554 3312.51,-164.062 3313.77,-163.538"/>
<polygon fill="midnightblue" stroke="midnightblue" points="3315.66,-166.516 3323.22,-159.091 3312.68,-160.182 3315.66,-166.516"/>
</g>
<!-- Node57&#45;&gt;Node19 -->
<g id="edge108" class="edge"><title>Node57&#45;&gt;Node19</title>
<path fill="none" stroke="midnightblue" d="M2611.44,-326.259C2559.29,-319.771 2494.79,-307.938 2477,-288 2461.78,-270.944 2461.46,-203.109 2462.29,-169.53"/>
<polygon fill="midnightblue" stroke="midnightblue" points="2465.8,-169.325 2462.61,-159.221 2458.8,-169.108 2465.8,-169.325"/>
</g>
<!-- Node57&#45;&gt;Node53 -->
<g id="edge107" class="edge"><title>Node57&#45;&gt;Node53</title>
<path fill="none" stroke="midnightblue" d="M2707.39,-324.389C2729.86,-316.114 2763.89,-302.724 2792,-288 2814.5,-276.217 2817.08,-267.933 2840,-257 2891.89,-232.251 3051.23,-184.008 3125.78,-161.973"/>
<polygon fill="midnightblue" stroke="midnightblue" points="3127.11,-165.229 3135.72,-159.043 3125.13,-158.515 3127.11,-165.229"/>
</g>
<!-- Node57&#45;&gt;Node55 -->
<g id="edge124" class="edge"><title>Node57&#45;&gt;Node55</title>
<path fill="none" stroke="midnightblue" d="M2611.28,-331.511C2527.36,-328.356 2395.04,-318.534 2357,-288 2320.2,-258.463 2309.96,-199.632 2307.1,-169.4"/>
<polygon fill="midnightblue" stroke="midnightblue" points="2310.58,-169.037 2306.33,-159.334 2303.6,-169.572 2310.58,-169.037"/>
</g>
<!-- Node58 -->
<g id="node59" class="node"><title>Node58</title>
<polygon fill="white" stroke="#bfbfbf" points="2920,-257.5 2920,-287.5 3030,-287.5 3030,-257.5 2920,-257.5"/>
<text text-anchor="start" x="2928" y="-275.5" font-family="FreeSans" font-size="10.00">boost/range/algorithm</text>
<text text-anchor="middle" x="2975" y="-264.5" font-family="FreeSans" font-size="10.00">/transform.hpp</text>
</g>
<!-- Node57&#45;&gt;Node58 -->
<g id="edge96" class="edge"><title>Node57&#45;&gt;Node58</title>
<path fill="none" stroke="midnightblue" d="M2725.77,-324.475C2770.68,-315.499 2843.33,-300.907 2906,-288 2907.25,-287.743 2908.51,-287.483 2909.78,-287.221"/>
<polygon fill="midnightblue" stroke="midnightblue" points="2910.57,-290.632 2919.65,-285.173 2909.14,-283.778 2910.57,-290.632"/>
</g>
<!-- Node59 -->
<g id="node60" class="node"><title>Node59</title>
<polygon fill="white" stroke="#bfbfbf" points="3048,-257.5 3048,-287.5 3158,-287.5 3158,-257.5 3048,-257.5"/>
<text text-anchor="start" x="3056" y="-275.5" font-family="FreeSans" font-size="10.00">boost/range/algorithm</text>
<text text-anchor="middle" x="3103" y="-264.5" font-family="FreeSans" font-size="10.00">/for_each.hpp</text>
</g>
<!-- Node57&#45;&gt;Node59 -->
<g id="edge97" class="edge"><title>Node57&#45;&gt;Node59</title>
<path fill="none" stroke="midnightblue" d="M2754.57,-326.018C2824.42,-318.734 2933.88,-306.078 3037.87,-288.095"/>
<polygon fill="midnightblue" stroke="midnightblue" points="3038.66,-291.509 3047.91,-286.338 3037.46,-284.613 3038.66,-291.509"/>
</g>
<!-- Node60 -->
<g id="node61" class="node"><title>Node60</title>
<polygon fill="white" stroke="#bfbfbf" points="3176,-263 3176,-282 3262,-282 3262,-263 3176,-263"/>
<text text-anchor="middle" x="3219" y="-270" font-family="FreeSans" font-size="10.00">Eigen/Geometry</text>
</g>
<!-- Node57&#45;&gt;Node60 -->
<g id="edge99" class="edge"><title>Node57&#45;&gt;Node60</title>
<path fill="none" stroke="midnightblue" d="M2754.9,-330.34C2849.91,-325.909 3022.18,-314.701 3167,-288 3171.87,-287.102 3176.95,-285.957 3181.93,-284.705"/>
<polygon fill="midnightblue" stroke="midnightblue" points="3183.2,-287.99 3191.96,-282.03 3181.39,-281.227 3183.2,-287.99"/>
</g>
<!-- Node61 -->
<g id="node62" class="node"><title>Node61</title>
<g id="a_node62"><a xlink:href="CoordinateStatistics_8h.html" target="_top" xlink:title="CoordinateStatistics.h">
<polygon fill="white" stroke="black" points="2486,-263 2486,-282 2598,-282 2598,-263 2486,-263"/>
<text text-anchor="middle" x="2542" y="-270" font-family="FreeSans" font-size="10.00">CoordinateStatistics.h</text>
</a>
</g>
</g>
<!-- Node57&#45;&gt;Node61 -->
<g id="edge109" class="edge"><title>Node57&#45;&gt;Node61</title>
<path fill="none" stroke="midnightblue" d="M2662.8,-324.475C2638.93,-314.401 2599,-297.553 2571.63,-286.002"/>
<polygon fill="midnightblue" stroke="midnightblue" points="2572.74,-282.672 2562.16,-282.009 2570.02,-289.122 2572.74,-282.672"/>
</g>
<!-- Node61&#45;&gt;Node9 -->
<g id="edge122" class="edge"><title>Node61&#45;&gt;Node9</title>
<path fill="none" stroke="midnightblue" d="M2542.78,-262.765C2544.43,-238.236 2545.4,-168.286 2507,-134 2463,-94.7149 2301.9,-109.299 2244,-98 2125.61,-74.8947 2094.58,-71.6213 1981,-31 1979.38,-30.4222 1977.74,-29.7903 1976.09,-29.1239"/>
<polygon fill="midnightblue" stroke="midnightblue" points="1977.38,-25.8665 1966.81,-25.0649 1974.57,-32.2796 1977.38,-25.8665"/>
</g>
<!-- Node61&#45;&gt;Node19 -->
<g id="edge123" class="edge"><title>Node61&#45;&gt;Node19</title>
<path fill="none" stroke="midnightblue" d="M2536.32,-262.798C2523.34,-242.914 2491.3,-193.852 2474.2,-167.647"/>
<polygon fill="midnightblue" stroke="midnightblue" points="2477.03,-165.583 2468.63,-159.123 2471.17,-169.41 2477.03,-165.583"/>
</g>
<!-- Node62 -->
<g id="node63" class="node"><title>Node62</title>
<g id="a_node63"><a xlink:href="CoordinateStatistics_8ipp.html" target="_top" xlink:title="CoordinateStatistics.ipp">
<polygon fill="white" stroke="black" points="2692.5,-201.5 2692.5,-220.5 2811.5,-220.5 2811.5,-201.5 2692.5,-201.5"/>
<text text-anchor="middle" x="2752" y="-208.5" font-family="FreeSans" font-size="10.00">CoordinateStatistics.ipp</text>
</a>
</g>
</g>
<!-- Node61&#45;&gt;Node62 -->
<g id="edge110" class="edge"><title>Node61&#45;&gt;Node62</title>
<path fill="none" stroke="midnightblue" d="M2572.09,-262.975C2608.89,-252.548 2671.31,-234.862 2712.09,-223.307"/>
<polygon fill="midnightblue" stroke="midnightblue" points="2713.3,-226.603 2721.97,-220.509 2711.39,-219.868 2713.3,-226.603"/>
</g>
<!-- Node62&#45;&gt;Node2 -->
<g id="edge111" class="edge"><title>Node62&#45;&gt;Node2</title>
<path fill="none" stroke="midnightblue" d="M2724.67,-201.469C2697.27,-192.781 2653.95,-178.679 2617,-165 2582.79,-152.336 2575.86,-144.752 2541,-134 2468.03,-111.492 2447.34,-115.454 2373,-98 2273.05,-74.533 2156.33,-43.8772 2095.56,-27.6713"/>
<polygon fill="midnightblue" stroke="midnightblue" points="2096.16,-24.2076 2085.59,-25.008 2094.35,-30.9704 2096.16,-24.2076"/>
</g>
<!-- Node62&#45;&gt;Node3 -->
<g id="edge113" class="edge"><title>Node62&#45;&gt;Node3</title>
<path fill="none" stroke="midnightblue" d="M2756.84,-201.495C2761.87,-192.537 2769.85,-177.959 2776,-165 2796.24,-122.346 2781.9,-98.572 2817,-67 2843,-43.6176 2879.43,-31.0472 2911.81,-24.2955"/>
<polygon fill="midnightblue" stroke="midnightblue" points="2912.56,-27.7155 2921.71,-22.3814 2911.23,-20.8426 2912.56,-27.7155"/>
</g>
<!-- Node62&#45;&gt;Node4 -->
<g id="edge112" class="edge"><title>Node62&#45;&gt;Node4</title>
<path fill="none" stroke="midnightblue" d="M2739.6,-201.313C2716.54,-185.557 2665.03,-152.219 2617,-134 2546.01,-107.073 2521.95,-122.257 2450,-98 2394.47,-79.2796 2333.22,-47.8772 2300.25,-30.011"/>
<polygon fill="midnightblue" stroke="midnightblue" points="2301.8,-26.868 2291.34,-25.1411 2298.44,-33.0097 2301.8,-26.868"/>
</g>
<!-- Node62&#45;&gt;Node5 -->
<g id="edge114" class="edge"><title>Node62&#45;&gt;Node5</title>
<path fill="none" stroke="midnightblue" d="M2750.46,-201.212C2745.85,-177.077 2730.06,-108.798 2693,-67 2677.92,-49.9901 2655.68,-37.436 2637.08,-29.0994"/>
<polygon fill="midnightblue" stroke="midnightblue" points="2638.31,-25.8214 2627.74,-25.1231 2635.57,-32.2617 2638.31,-25.8214"/>
</g>
<!-- Node62&#45;&gt;Node8 -->
<g id="edge116" class="edge"><title>Node62&#45;&gt;Node8</title>
<path fill="none" stroke="midnightblue" d="M2753.28,-201.215C2756.65,-178.71 2766.35,-117.225 2779,-67 2781.71,-56.2436 2785.42,-44.4133 2788.58,-34.9086"/>
<polygon fill="midnightblue" stroke="midnightblue" points="2791.93,-35.9413 2791.84,-25.3468 2785.3,-33.6828 2791.93,-35.9413"/>
</g>
<!-- Node62&#45;&gt;Node15 -->
<g id="edge119" class="edge"><title>Node62&#45;&gt;Node15</title>
<path fill="none" stroke="midnightblue" d="M2760.29,-201.404C2776.15,-185.493 2812.54,-151.486 2850,-134 3024.22,-52.6725 3256.5,-26.6996 3349.72,-19.2307"/>
<polygon fill="midnightblue" stroke="midnightblue" points="3350.17,-22.7067 3359.87,-18.4475 3349.63,-15.7275 3350.17,-22.7067"/>
</g>
<!-- Node62&#45;&gt;Node16 -->
<g id="edge117" class="edge"><title>Node62&#45;&gt;Node16</title>
<path fill="none" stroke="midnightblue" d="M2811.64,-208.167C2935.72,-203.87 3217.74,-191.445 3310,-165 3311.66,-164.523 3313.34,-163.943 3315.01,-163.291"/>
<polygon fill="midnightblue" stroke="midnightblue" points="3316.61,-166.406 3324.21,-159.019 3313.67,-160.057 3316.61,-166.406"/>
</g>
<!-- Node62&#45;&gt;Node17 -->
<g id="edge118" class="edge"><title>Node62&#45;&gt;Node17</title>
<path fill="none" stroke="midnightblue" d="M2811.91,-207.403C2926.1,-201.994 3170.78,-188.066 3252,-165 3253.68,-164.524 3255.37,-163.952 3257.05,-163.313"/>
<polygon fill="midnightblue" stroke="midnightblue" points="3258.68,-166.418 3266.38,-159.138 3255.82,-160.029 3258.68,-166.418"/>
</g>
<!-- Node62&#45;&gt;Node19 -->
<g id="edge120" class="edge"><title>Node62&#45;&gt;Node19</title>
<path fill="none" stroke="midnightblue" d="M2710.59,-201.475C2657.11,-190.464 2564.31,-171.358 2508.78,-159.925"/>
<polygon fill="midnightblue" stroke="midnightblue" points="2509.36,-156.472 2498.86,-157.884 2507.95,-163.328 2509.36,-156.472"/>
</g>
<!-- Node62&#45;&gt;Node53 -->
<g id="edge121" class="edge"><title>Node62&#45;&gt;Node53</title>
<path fill="none" stroke="midnightblue" d="M2811.17,-201.475C2886.46,-190.628 3016.28,-171.926 3095.99,-160.442"/>
<polygon fill="midnightblue" stroke="midnightblue" points="3096.54,-163.899 3105.94,-159.009 3095.54,-156.971 3096.54,-163.899"/>
</g>
<!-- Node63 -->
<g id="node64" class="node"><title>Node63</title>
<polygon fill="white" stroke="#bfbfbf" points="2859.5,-140 2859.5,-159 2954.5,-159 2954.5,-140 2859.5,-140"/>
<text text-anchor="middle" x="2907" y="-147" font-family="FreeSans" font-size="10.00">boost/optional.hpp</text>
</g>
<!-- Node62&#45;&gt;Node63 -->
<g id="edge115" class="edge"><title>Node62&#45;&gt;Node63</title>
<path fill="none" stroke="midnightblue" d="M2774.21,-201.475C2800.68,-191.313 2845.11,-174.256 2875.22,-162.7"/>
<polygon fill="midnightblue" stroke="midnightblue" points="2876.75,-165.86 2884.83,-159.009 2874.24,-159.325 2876.75,-165.86"/>
</g>
</g>
</svg>
