<?xml version="1.0" encoding="UTF-8" standalone="no"?>
<!DOCTYPE svg PUBLIC "-//W3C//DTD SVG 1.1//EN"
 "http://www.w3.org/Graphics/SVG/1.1/DTD/svg11.dtd">
<!-- Generated by graphviz version 2.38.0 (20140413.2041)
 -->
<!-- Title: src/Tracker/FeatureTrackingProblemConcept.ipp Pages: 1 -->
<!--zoomable 586 -->
<svg id="main" version="1.1" xmlns="http://www.w3.org/2000/svg" xmlns:xlink="http://www.w3.org/1999/xlink" xml:space="preserve" onload="init(evt)">
<style type="text/css"><![CDATA[
.edge:hover path { stroke: red; }
.edge:hover polygon { stroke: red; fill: red; }
]]></style>
<script type="text/javascript"><![CDATA[
var edges = document.getElementsByTagName('g');
if (edges && edges.length) {
  for (var i=0;i<edges.length;i++) {
    if (edges[i].id.substr(0,4)=='edge') {
      edges[i].setAttribute('class','edge');
    }
  }
}
]]></script>
        <defs>
                <circle id="rim" cx="0" cy="0" r="7"/>
                <circle id="rim2" cx="0" cy="0" r="3.5"/>
                <g id="zoomPlus">
                        <use xlink:href="#rim" fill="#404040">
                                <set attributeName="fill" to="#808080" begin="zoomplus.mouseover" end="zoomplus.mouseout"/>
                        </use>
                        <path d="M-4,0h8M0,-4v8" fill="none" stroke="white" stroke-width="1.5" pointer-events="none"/>
                </g>
                <g id="zoomMin">
                        <use xlink:href="#rim" fill="#404040">
                                <set attributeName="fill" to="#808080" begin="zoomminus.mouseover" end="zoomminus.mouseout"/>
                        </use>
                        <path d="M-4,0h8" fill="none" stroke="white" stroke-width="1.5" pointer-events="none"/>
                </g>
                <g id="dirArrow">
                        <path fill="none" stroke="white" stroke-width="1.5" d="M0,-3.0v7 M-2.5,-0.5L0,-3.0L2.5,-0.5"/>
                </g>
               <g id="resetDef">
                       <use xlink:href="#rim2" fill="#404040">
                               <set attributeName="fill" to="#808080" begin="reset.mouseover" end="reset.mouseout"/>
                       </use>
               </g>
        </defs>

<script type="text/javascript">
var viewWidth = 798;
var viewHeight = 586;
var sectionId = 'dynsection-1';
</script>
<script xlink:href="svgpan.js"/>
<svg id="graph" class="graph">
<g id="viewport">
<title>src/Tracker/FeatureTrackingProblemConcept.ipp</title>
<polygon fill="white" stroke="none" points="-4,4 -4,-582 793.5,-582 793.5,4 -4,4"/>
<!-- Node64 -->
<g id="node1" class="node"><title>Node64</title>
<polygon fill="#bfbfbf" stroke="black" points="332.5,-547.5 332.5,-577.5 472.5,-577.5 472.5,-547.5 332.5,-547.5"/>
<text text-anchor="start" x="340.5" y="-565.5" font-family="FreeSans" font-size="10.00">src/Tracker/FeatureTracking</text>
<text text-anchor="middle" x="402.5" y="-554.5" font-family="FreeSans" font-size="10.00">ProblemConcept.ipp</text>
</g>
<!-- Node65 -->
<g id="node2" class="node"><title>Node65</title>
<g id="a_node2"><a xlink:href="FeatureTrackingProblemConcept_8h.html" target="_top" xlink:title="src/Tracker/FeatureTracking\lProblemConcept.h">
<polygon fill="white" stroke="black" points="332.5,-480.5 332.5,-510.5 472.5,-510.5 472.5,-480.5 332.5,-480.5"/>
<text text-anchor="start" x="340.5" y="-498.5" font-family="FreeSans" font-size="10.00">src/Tracker/FeatureTracking</text>
<text text-anchor="middle" x="402.5" y="-487.5" font-family="FreeSans" font-size="10.00">ProblemConcept.h</text>
</a>
</g>
</g>
<!-- Node64&#45;&gt;Node65 -->
<g id="edge1" class="edge"><title>Node64&#45;&gt;Node65</title>
<path fill="none" stroke="midnightblue" d="M402.5,-537.108C402.5,-528.154 402.5,-518.323 402.5,-510.577"/>
<polygon fill="midnightblue" stroke="midnightblue" points="399,-537.396 402.5,-547.396 406,-537.396 399,-537.396"/>
</g>
<!-- Node66 -->
<g id="node3" class="node"><title>Node66</title>
<g id="a_node3"><a xlink:href="FeatureTracker_8ipp.html" target="_top" xlink:title="src/Tracker/FeatureTracker.ipp">
<polygon fill="white" stroke="black" points="327.5,-424.5 327.5,-443.5 477.5,-443.5 477.5,-424.5 327.5,-424.5"/>
<text text-anchor="middle" x="402.5" y="-431.5" font-family="FreeSans" font-size="10.00">src/Tracker/FeatureTracker.ipp</text>
</a>
</g>
</g>
<!-- Node65&#45;&gt;Node66 -->
<g id="edge2" class="edge"><title>Node65&#45;&gt;Node66</title>
<path fill="none" stroke="midnightblue" d="M402.5,-470.289C402.5,-460.857 402.5,-450.655 402.5,-443.658"/>
<polygon fill="midnightblue" stroke="midnightblue" points="399,-470.399 402.5,-480.399 406,-470.399 399,-470.399"/>
</g>
<!-- Node67 -->
<g id="node4" class="node"><title>Node67</title>
<g id="a_node4"><a xlink:href="FeatureTracker_8h.html" target="_top" xlink:title="src/Tracker/FeatureTracker.h">
<polygon fill="white" stroke="black" points="331,-368.5 331,-387.5 474,-387.5 474,-368.5 331,-368.5"/>
<text text-anchor="middle" x="402.5" y="-375.5" font-family="FreeSans" font-size="10.00">src/Tracker/FeatureTracker.h</text>
</a>
</g>
</g>
<!-- Node66&#45;&gt;Node67 -->
<g id="edge3" class="edge"><title>Node66&#45;&gt;Node67</title>
<path fill="none" stroke="midnightblue" d="M402.5,-413.805C402.5,-404.91 402.5,-394.78 402.5,-387.751"/>
<polygon fill="midnightblue" stroke="midnightblue" points="399,-414.083 402.5,-424.083 406,-414.083 399,-414.083"/>
</g>
<!-- Node68 -->
<g id="node5" class="node"><title>Node68</title>
<g id="a_node5"><a xlink:href="ImageFeatureTrackingPipeline_8ipp.html" target="_top" xlink:title="src/Tracker/ImageFeature\lTrackingPipeline.ipp">
<polygon fill="white" stroke="black" points="245,-301.5 245,-331.5 374,-331.5 374,-301.5 245,-301.5"/>
<text text-anchor="start" x="253" y="-319.5" font-family="FreeSans" font-size="10.00">src/Tracker/ImageFeature</text>
<text text-anchor="middle" x="309.5" y="-308.5" font-family="FreeSans" font-size="10.00">TrackingPipeline.ipp</text>
</a>
</g>
</g>
<!-- Node67&#45;&gt;Node68 -->
<g id="edge4" class="edge"><title>Node67&#45;&gt;Node68</title>
<path fill="none" stroke="midnightblue" d="M380.631,-363.008C365.797,-353.518 346.262,-341.02 331.418,-331.523"/>
<polygon fill="midnightblue" stroke="midnightblue" points="378.866,-366.034 389.175,-368.475 382.638,-360.138 378.866,-366.034"/>
</g>
<!-- Node75 -->
<g id="node12" class="node"><title>Node75</title>
<g id="a_node12"><a xlink:href="TestTracker_8cpp.html" target="_top" xlink:title="src/Tracker/TestTracker.cpp">
<polygon fill="white" stroke="black" points="315.5,-167.5 315.5,-186.5 455.5,-186.5 455.5,-167.5 315.5,-167.5"/>
<text text-anchor="middle" x="385.5" y="-174.5" font-family="FreeSans" font-size="10.00">src/Tracker/TestTracker.cpp</text>
</a>
</g>
</g>
<!-- Node67&#45;&gt;Node75 -->
<g id="edge16" class="edge"><title>Node67&#45;&gt;Node75</title>
<path fill="none" stroke="midnightblue" d="M400.903,-358.302C397.332,-316.506 388.817,-216.826 386.247,-186.743"/>
<polygon fill="midnightblue" stroke="midnightblue" points="397.431,-358.783 401.77,-368.449 404.406,-358.188 397.431,-358.783"/>
</g>
<!-- Node76 -->
<g id="node13" class="node"><title>Node76</title>
<g id="a_node13"><a xlink:href="InterfaceFeatureTracker_8ipp.html" target="_top" xlink:title="src/ApplicationInterface\l/InterfaceFeatureTracker.ipp">
<polygon fill="white" stroke="black" points="448,-301.5 448,-331.5 587,-331.5 587,-301.5 448,-301.5"/>
<text text-anchor="start" x="456" y="-319.5" font-family="FreeSans" font-size="10.00">src/ApplicationInterface</text>
<text text-anchor="middle" x="517.5" y="-308.5" font-family="FreeSans" font-size="10.00">/InterfaceFeatureTracker.ipp</text>
</a>
</g>
</g>
<!-- Node67&#45;&gt;Node76 -->
<g id="edge12" class="edge"><title>Node67&#45;&gt;Node76</title>
<path fill="none" stroke="midnightblue" d="M427.999,-363.807C446.513,-354.228 471.522,-341.289 490.397,-331.523"/>
<polygon fill="midnightblue" stroke="midnightblue" points="426.25,-360.771 418.977,-368.475 429.467,-366.988 426.25,-360.771"/>
</g>
<!-- Node69 -->
<g id="node6" class="node"><title>Node69</title>
<g id="a_node6"><a xlink:href="ImageFeatureTrackingPipeline_8h.html" target="_top" xlink:title="src/Tracker/ImageFeature\lTrackingPipeline.h">
<polygon fill="white" stroke="black" points="245,-234.5 245,-264.5 374,-264.5 374,-234.5 245,-234.5"/>
<text text-anchor="start" x="253" y="-252.5" font-family="FreeSans" font-size="10.00">src/Tracker/ImageFeature</text>
<text text-anchor="middle" x="309.5" y="-241.5" font-family="FreeSans" font-size="10.00">TrackingPipeline.h</text>
</a>
</g>
</g>
<!-- Node68&#45;&gt;Node69 -->
<g id="edge5" class="edge"><title>Node68&#45;&gt;Node69</title>
<path fill="none" stroke="midnightblue" d="M309.5,-291.108C309.5,-282.154 309.5,-272.323 309.5,-264.577"/>
<polygon fill="midnightblue" stroke="midnightblue" points="306,-291.396 309.5,-301.396 313,-291.396 306,-291.396"/>
</g>
<!-- Node70 -->
<g id="node7" class="node"><title>Node70</title>
<g id="a_node7"><a xlink:href="AppStalker_8cpp.html" target="_top" xlink:title="src/Application/AppStalker.cpp">
<polygon fill="white" stroke="black" points="147.5,-167.5 147.5,-186.5 297.5,-186.5 297.5,-167.5 147.5,-167.5"/>
<text text-anchor="middle" x="222.5" y="-174.5" font-family="FreeSans" font-size="10.00">src/Application/AppStalker.cpp</text>
</a>
</g>
</g>
<!-- Node69&#45;&gt;Node70 -->
<g id="edge6" class="edge"><title>Node69&#45;&gt;Node70</title>
<path fill="none" stroke="midnightblue" d="M284.057,-227.883C267.264,-214.274 246.105,-197.128 233.475,-186.893"/>
<polygon fill="midnightblue" stroke="midnightblue" points="281.921,-230.657 291.894,-234.233 286.328,-225.218 281.921,-230.657"/>
</g>
<!-- Node71 -->
<g id="node8" class="node"><title>Node71</title>
<g id="a_node8"><a xlink:href="InterfaceImageFeatureTrackingPipeline_8ipp.html" target="_top" xlink:title="src/ApplicationInterface\l/InterfaceImageFeatureTracking\lPipeline.ipp">
<polygon fill="white" stroke="black" points="474,-156.5 474,-197.5 629,-197.5 629,-156.5 474,-156.5"/>
<text text-anchor="start" x="482" y="-185.5" font-family="FreeSans" font-size="10.00">src/ApplicationInterface</text>
<text text-anchor="start" x="482" y="-174.5" font-family="FreeSans" font-size="10.00">/InterfaceImageFeatureTracking</text>
<text text-anchor="middle" x="551.5" y="-163.5" font-family="FreeSans" font-size="10.00">Pipeline.ipp</text>
</a>
</g>
</g>
<!-- Node69&#45;&gt;Node71 -->
<g id="edge7" class="edge"><title>Node69&#45;&gt;Node71</title>
<path fill="none" stroke="midnightblue" d="M367.24,-231.679C402.403,-221.435 447.48,-208.303 484.248,-197.592"/>
<polygon fill="midnightblue" stroke="midnightblue" points="366.223,-228.33 357.601,-234.487 368.181,-235.05 366.223,-228.33"/>
</g>
<!-- Node74 -->
<g id="node11" class="node"><title>Node74</title>
<g id="a_node11"><a xlink:href="ImageFeatureTrackingPipeline_8cpp.html" target="_top" xlink:title="src/Tracker/ImageFeature\lTrackingPipeline.cpp">
<polygon fill="white" stroke="black" points="0,-162 0,-192 129,-192 129,-162 0,-162"/>
<text text-anchor="start" x="8" y="-180" font-family="FreeSans" font-size="10.00">src/Tracker/ImageFeature</text>
<text text-anchor="middle" x="64.5" y="-169" font-family="FreeSans" font-size="10.00">TrackingPipeline.cpp</text>
</a>
</g>
</g>
<!-- Node69&#45;&gt;Node74 -->
<g id="edge10" class="edge"><title>Node69&#45;&gt;Node74</title>
<path fill="none" stroke="midnightblue" d="M250.995,-231.665C209.035,-219.591 153.147,-203.508 113.524,-192.107"/>
<polygon fill="midnightblue" stroke="midnightblue" points="250.225,-235.085 260.803,-234.487 252.161,-228.358 250.225,-235.085"/>
</g>
<!-- Node69&#45;&gt;Node75 -->
<g id="edge11" class="edge"><title>Node69&#45;&gt;Node75</title>
<path fill="none" stroke="midnightblue" d="M332.53,-227.137C347.066,-213.653 365.081,-196.942 375.913,-186.893"/>
<polygon fill="midnightblue" stroke="midnightblue" points="329.831,-224.866 324.88,-234.233 334.591,-229.998 329.831,-224.866"/>
</g>
<!-- Node72 -->
<g id="node9" class="node"><title>Node72</title>
<g id="a_node9"><a xlink:href="InterfaceImageFeatureTrackingPipeline_8h.html" target="_top" xlink:title="src/ApplicationInterface\l/InterfaceImageFeatureTracking\lPipeline.h">
<polygon fill="white" stroke="black" points="474,-78.5 474,-119.5 629,-119.5 629,-78.5 474,-78.5"/>
<text text-anchor="start" x="482" y="-107.5" font-family="FreeSans" font-size="10.00">src/ApplicationInterface</text>
<text text-anchor="start" x="482" y="-96.5" font-family="FreeSans" font-size="10.00">/InterfaceImageFeatureTracking</text>
<text text-anchor="middle" x="551.5" y="-85.5" font-family="FreeSans" font-size="10.00">Pipeline.h</text>
</a>
</g>
</g>
<!-- Node71&#45;&gt;Node72 -->
<g id="edge8" class="edge"><title>Node71&#45;&gt;Node72</title>
<path fill="none" stroke="midnightblue" d="M551.5,-146.297C551.5,-137.301 551.5,-127.653 551.5,-119.506"/>
<polygon fill="midnightblue" stroke="midnightblue" points="548,-146.428 551.5,-156.428 555,-146.428 548,-146.428"/>
</g>
<!-- Node73 -->
<g id="node10" class="node"><title>Node73</title>
<g id="a_node10"><a xlink:href="InterfaceImageFeatureTrackingPipeline_8cpp.html" target="_top" xlink:title="src/ApplicationInterface\l/InterfaceImageFeatureTracking\lPipeline.cpp">
<polygon fill="white" stroke="black" points="474,-0.5 474,-41.5 629,-41.5 629,-0.5 474,-0.5"/>
<text text-anchor="start" x="482" y="-29.5" font-family="FreeSans" font-size="10.00">src/ApplicationInterface</text>
<text text-anchor="start" x="482" y="-18.5" font-family="FreeSans" font-size="10.00">/InterfaceImageFeatureTracking</text>
<text text-anchor="middle" x="551.5" y="-7.5" font-family="FreeSans" font-size="10.00">Pipeline.cpp</text>
</a>
</g>
</g>
<!-- Node72&#45;&gt;Node73 -->
<g id="edge9" class="edge"><title>Node72&#45;&gt;Node73</title>
<path fill="none" stroke="midnightblue" d="M551.5,-68.2965C551.5,-59.3009 551.5,-49.6532 551.5,-41.5056"/>
<polygon fill="midnightblue" stroke="midnightblue" points="548,-68.4281 551.5,-78.4281 555,-68.4281 548,-68.4281"/>
</g>
<!-- Node77 -->
<g id="node14" class="node"><title>Node77</title>
<g id="a_node14"><a xlink:href="InterfaceFeatureTracker_8h.html" target="_top" xlink:title="src/ApplicationInterface\l/InterfaceFeatureTracker.h">
<polygon fill="white" stroke="black" points="486,-234.5 486,-264.5 617,-264.5 617,-234.5 486,-234.5"/>
<text text-anchor="start" x="494" y="-252.5" font-family="FreeSans" font-size="10.00">src/ApplicationInterface</text>
<text text-anchor="middle" x="551.5" y="-241.5" font-family="FreeSans" font-size="10.00">/InterfaceFeatureTracker.h</text>
</a>
</g>
</g>
<!-- Node76&#45;&gt;Node77 -->
<g id="edge13" class="edge"><title>Node76&#45;&gt;Node77</title>
<path fill="none" stroke="midnightblue" d="M529.644,-292.283C534.488,-283.022 539.907,-272.663 544.137,-264.577"/>
<polygon fill="midnightblue" stroke="midnightblue" points="526.411,-290.913 524.877,-301.396 532.614,-294.157 526.411,-290.913"/>
</g>
<!-- Node77&#45;&gt;Node71 -->
<g id="edge15" class="edge"><title>Node77&#45;&gt;Node71</title>
<path fill="none" stroke="midnightblue" d="M551.5,-223.982C551.5,-215.347 551.5,-205.762 551.5,-197.588"/>
<polygon fill="midnightblue" stroke="midnightblue" points="548,-224.233 551.5,-234.233 555,-224.233 548,-224.233"/>
</g>
<!-- Node78 -->
<g id="node15" class="node"><title>Node78</title>
<g id="a_node15"><a xlink:href="InterfaceFeatureTracker_8cpp.html" target="_top" xlink:title="src/ApplicationInterface\l/InterfaceFeatureTracker.cpp">
<polygon fill="white" stroke="black" points="647.5,-162 647.5,-192 789.5,-192 789.5,-162 647.5,-162"/>
<text text-anchor="start" x="655.5" y="-180" font-family="FreeSans" font-size="10.00">src/ApplicationInterface</text>
<text text-anchor="middle" x="718.5" y="-169" font-family="FreeSans" font-size="10.00">/InterfaceFeatureTracker.cpp</text>
</a>
</g>
</g>
<!-- Node77&#45;&gt;Node78 -->
<g id="edge14" class="edge"><title>Node77&#45;&gt;Node78</title>
<path fill="none" stroke="midnightblue" d="M594.14,-230.499C622.425,-218.559 659.011,-203.114 685.164,-192.073"/>
<polygon fill="midnightblue" stroke="midnightblue" points="592.745,-227.289 584.894,-234.403 595.468,-233.738 592.745,-227.289"/>
</g>
</g>
</svg>
        <g id="navigator" transform="translate(0 0)" fill="#404254">
                <rect fill="#f2f5e9" fill-opacity="0.5" stroke="#606060" stroke-width=".5" x="0" y="0" width="60" height="60"/>
                <use id="zoomplus" xlink:href="#zoomPlus" x="17" y="9" onmousedown="handleZoom(evt,'in')"/>
                <use id="zoomminus" xlink:href="#zoomMin" x="42" y="9" onmousedown="handleZoom(evt,'out')"/>
                <use id="reset" xlink:href="#resetDef" x="30" y="36" onmousedown="handleReset()"/>
                <g id="arrowUp" xlink:href="#dirArrow" transform="translate(30 24)" onmousedown="handlePan(0,-1)">
                  <use xlink:href="#rim" fill="#404040">
                        <set attributeName="fill" to="#808080" begin="arrowUp.mouseover" end="arrowUp.mouseout"/>
                  </use>
                  <path fill="none" stroke="white" stroke-width="1.5" d="M0,-3.0v7 M-2.5,-0.5L0,-3.0L2.5,-0.5"/>
                </g>
                <g id="arrowRight" xlink:href="#dirArrow" transform="rotate(90) translate(36 -43)" onmousedown="handlePan(1,0)">
                  <use xlink:href="#rim" fill="#404040">
                        <set attributeName="fill" to="#808080" begin="arrowRight.mouseover" end="arrowRight.mouseout"/>
                  </use>
                  <path fill="none" stroke="white" stroke-width="1.5" d="M0,-3.0v7 M-2.5,-0.5L0,-3.0L2.5,-0.5"/>
                </g>
                <g id="arrowDown" xlink:href="#dirArrow" transform="rotate(180) translate(-30 -48)" onmousedown="handlePan(0,1)">
                  <use xlink:href="#rim" fill="#404040">
                        <set attributeName="fill" to="#808080" begin="arrowDown.mouseover" end="arrowDown.mouseout"/>
                  </use>
                  <path fill="none" stroke="white" stroke-width="1.5" d="M0,-3.0v7 M-2.5,-0.5L0,-3.0L2.5,-0.5"/>
                </g>
                <g id="arrowLeft" xlink:href="#dirArrow" transform="rotate(270) translate(-36 17)" onmousedown="handlePan(-1,0)">
                  <use xlink:href="#rim" fill="#404040">
                        <set attributeName="fill" to="#808080" begin="arrowLeft.mouseover" end="arrowLeft.mouseout"/>
                  </use>
                  <path fill="none" stroke="white" stroke-width="1.5" d="M0,-3.0v7 M-2.5,-0.5L0,-3.0L2.5,-0.5"/>
                </g>
        </g>
        <svg viewBox="0 0 15 15" width="100%" height="30px" preserveAspectRatio="xMaxYMin meet">
         <g id="arrow_out" transform="scale(0.3 0.3)">
          <a xlink:href="FeatureTrackingProblemConcept_8ipp__dep__incl_org.svg" target="_base">
           <rect id="button" ry="5" rx="5" y="6" x="6" height="38" width="38"
                fill="#f2f5e9" fill-opacity="0.5" stroke="#606060" stroke-width="1.0"/>
           <path id="arrow"
             d="M 11.500037,31.436501 C 11.940474,20.09759 22.043105,11.32322 32.158766,21.979434 L 37.068811,17.246167 C 37.068811,17.246167 37.088388,32 37.088388,32 L 22.160133,31.978069 C 22.160133,31.978069 26.997745,27.140456 26.997745,27.140456 C 18.528582,18.264221 13.291696,25.230495 11.500037,31.436501 z"
             style="fill:#404040;"/>
          </a>
         </g>
        </svg>
</svg>
