<?xml version="1.0" encoding="UTF-8" standalone="no"?>
<!DOCTYPE svg PUBLIC "-//W3C//DTD SVG 1.1//EN"
 "http://www.w3.org/Graphics/SVG/1.1/DTD/svg11.dtd">
<!-- Generated by graphviz version 2.38.0 (20140413.2041)
 -->
<!-- Title: src/Tracker/FeatureTrackerDistanceConstraint.h Pages: 1 -->
<!--zoomable 541 -->
<svg id="main" version="1.1" xmlns="http://www.w3.org/2000/svg" xmlns:xlink="http://www.w3.org/1999/xlink" xml:space="preserve" onload="init(evt)">
<style type="text/css"><![CDATA[
.edge:hover path { stroke: red; }
.edge:hover polygon { stroke: red; fill: red; }
]]></style>
<script type="text/javascript"><![CDATA[
var edges = document.getElementsByTagName('g');
if (edges && edges.length) {
  for (var i=0;i<edges.length;i++) {
    if (edges[i].id.substr(0,4)=='edge') {
      edges[i].setAttribute('class','edge');
    }
  }
}
]]></script>
        <defs>
                <circle id="rim" cx="0" cy="0" r="7"/>
                <circle id="rim2" cx="0" cy="0" r="3.5"/>
                <g id="zoomPlus">
                        <use xlink:href="#rim" fill="#404040">
                                <set attributeName="fill" to="#808080" begin="zoomplus.mouseover" end="zoomplus.mouseout"/>
                        </use>
                        <path d="M-4,0h8M0,-4v8" fill="none" stroke="white" stroke-width="1.5" pointer-events="none"/>
                </g>
                <g id="zoomMin">
                        <use xlink:href="#rim" fill="#404040">
                                <set attributeName="fill" to="#808080" begin="zoomminus.mouseover" end="zoomminus.mouseout"/>
                        </use>
                        <path d="M-4,0h8" fill="none" stroke="white" stroke-width="1.5" pointer-events="none"/>
                </g>
                <g id="dirArrow">
                        <path fill="none" stroke="white" stroke-width="1.5" d="M0,-3.0v7 M-2.5,-0.5L0,-3.0L2.5,-0.5"/>
                </g>
               <g id="resetDef">
                       <use xlink:href="#rim2" fill="#404040">
                               <set attributeName="fill" to="#808080" begin="reset.mouseover" end="reset.mouseout"/>
                       </use>
               </g>
        </defs>

<script type="text/javascript">
var viewWidth = 952;
var viewHeight = 541;
var sectionId = 'dynsection-1';
</script>
<script xlink:href="svgpan.js"/>
<svg id="graph" class="graph">
<g id="viewport">
<title>src/Tracker/FeatureTrackerDistanceConstraint.h</title>
<polygon fill="white" stroke="none" points="-4,4 -4,-537 947.5,-537 947.5,4 -4,4"/>
<!-- Node30 -->
<g id="node1" class="node"><title>Node30</title>
<polygon fill="#bfbfbf" stroke="black" points="652.5,-502.5 652.5,-532.5 787.5,-532.5 787.5,-502.5 652.5,-502.5"/>
<text text-anchor="start" x="660.5" y="-520.5" font-family="FreeSans" font-size="10.00">src/Tracker/FeatureTracker</text>
<text text-anchor="middle" x="720" y="-509.5" font-family="FreeSans" font-size="10.00">DistanceConstraint.h</text>
</g>
<!-- Node31 -->
<g id="node2" class="node"><title>Node31</title>
<g id="a_node2"><a xlink:href="FeatureTracker_8ipp.html" target="_top" xlink:title="src/Tracker/FeatureTracker.ipp">
<polygon fill="white" stroke="black" points="376,-441 376,-460 526,-460 526,-441 376,-441"/>
<text text-anchor="middle" x="451" y="-448" font-family="FreeSans" font-size="10.00">src/Tracker/FeatureTracker.ipp</text>
</a>
</g>
</g>
<!-- Node30&#45;&gt;Node31 -->
<g id="edge1" class="edge"><title>Node30&#45;&gt;Node31</title>
<path fill="none" stroke="midnightblue" d="M652.003,-500.069C599.251,-487.323 528.263,-470.169 486.296,-460.029"/>
<polygon fill="midnightblue" stroke="midnightblue" points="651.42,-503.529 661.962,-502.476 653.064,-496.725 651.42,-503.529"/>
</g>
<!-- Node40 -->
<g id="node11" class="node"><title>Node40</title>
<g id="a_node11"><a xlink:href="TestTracker_8cpp.html" target="_top" xlink:title="src/Tracker/TestTracker.cpp">
<polygon fill="white" stroke="black" points="649,-167.5 649,-186.5 789,-186.5 789,-167.5 649,-167.5"/>
<text text-anchor="middle" x="719" y="-174.5" font-family="FreeSans" font-size="10.00">src/Tracker/TestTracker.cpp</text>
</a>
</g>
</g>
<!-- Node30&#45;&gt;Node40 -->
<g id="edge23" class="edge"><title>Node30&#45;&gt;Node40</title>
<path fill="none" stroke="midnightblue" d="M737.197,-494.288C754.927,-469.118 780,-426.158 780,-384.5 780,-384.5 780,-384.5 780,-315.5 780,-262.747 742.02,-207.635 725.997,-186.731"/>
<polygon fill="midnightblue" stroke="midnightblue" points="734.336,-492.272 731.286,-502.418 739.997,-496.389 734.336,-492.272"/>
</g>
<!-- Node44 -->
<g id="node15" class="node"><title>Node44</title>
<g id="a_node15"><a xlink:href="ImageFeatureTrackingProblem_8ipp.html" target="_top" xlink:title="src/Tracker/ImageFeature\lTrackingProblem.ipp">
<polygon fill="white" stroke="black" points="596.5,-435.5 596.5,-465.5 725.5,-465.5 725.5,-435.5 596.5,-435.5"/>
<text text-anchor="start" x="604.5" y="-453.5" font-family="FreeSans" font-size="10.00">src/Tracker/ImageFeature</text>
<text text-anchor="middle" x="661" y="-442.5" font-family="FreeSans" font-size="10.00">TrackingProblem.ipp</text>
</a>
</g>
</g>
<!-- Node30&#45;&gt;Node44 -->
<g id="edge16" class="edge"><title>Node30&#45;&gt;Node44</title>
<path fill="none" stroke="midnightblue" d="M700.245,-494.736C691.516,-485.119 681.504,-474.089 673.777,-465.577"/>
<polygon fill="midnightblue" stroke="midnightblue" points="697.885,-497.344 707.198,-502.396 703.068,-492.639 697.885,-497.344"/>
</g>
<!-- Node47 -->
<g id="node18" class="node"><title>Node47</title>
<g id="a_node18"><a xlink:href="FeatureTrackerDistanceConstraint_8cpp.html" target="_top" xlink:title="src/Tracker/FeatureTracker\lDistanceConstraint.cpp">
<polygon fill="white" stroke="black" points="808.5,-435.5 808.5,-465.5 943.5,-465.5 943.5,-435.5 808.5,-435.5"/>
<text text-anchor="start" x="816.5" y="-453.5" font-family="FreeSans" font-size="10.00">src/Tracker/FeatureTracker</text>
<text text-anchor="middle" x="876" y="-442.5" font-family="FreeSans" font-size="10.00">DistanceConstraint.cpp</text>
</a>
</g>
</g>
<!-- Node30&#45;&gt;Node47 -->
<g id="edge22" class="edge"><title>Node30&#45;&gt;Node47</title>
<path fill="none" stroke="midnightblue" d="M763.094,-498.544C788.057,-488.143 819.029,-475.238 842.216,-465.577"/>
<polygon fill="midnightblue" stroke="midnightblue" points="761.734,-495.319 753.85,-502.396 764.427,-501.781 761.734,-495.319"/>
</g>
<!-- Node32 -->
<g id="node3" class="node"><title>Node32</title>
<g id="a_node3"><a xlink:href="FeatureTracker_8h.html" target="_top" xlink:title="src/Tracker/FeatureTracker.h">
<polygon fill="white" stroke="black" points="360.5,-374 360.5,-393 503.5,-393 503.5,-374 360.5,-374"/>
<text text-anchor="middle" x="432" y="-381" font-family="FreeSans" font-size="10.00">src/Tracker/FeatureTracker.h</text>
</a>
</g>
</g>
<!-- Node31&#45;&gt;Node32 -->
<g id="edge2" class="edge"><title>Node31&#45;&gt;Node32</title>
<path fill="none" stroke="midnightblue" d="M445.567,-430.915C441.935,-418.488 437.325,-402.717 434.522,-393.127"/>
<polygon fill="midnightblue" stroke="midnightblue" points="442.272,-432.117 448.438,-440.734 448.991,-430.153 442.272,-432.117"/>
</g>
<!-- Node33 -->
<g id="node4" class="node"><title>Node33</title>
<g id="a_node4"><a xlink:href="ImageFeatureTrackingPipeline_8ipp.html" target="_top" xlink:title="src/Tracker/ImageFeature\lTrackingPipeline.ipp">
<polygon fill="white" stroke="black" points="360.5,-301.5 360.5,-331.5 489.5,-331.5 489.5,-301.5 360.5,-301.5"/>
<text text-anchor="start" x="368.5" y="-319.5" font-family="FreeSans" font-size="10.00">src/Tracker/ImageFeature</text>
<text text-anchor="middle" x="425" y="-308.5" font-family="FreeSans" font-size="10.00">TrackingPipeline.ipp</text>
</a>
</g>
</g>
<!-- Node32&#45;&gt;Node33 -->
<g id="edge3" class="edge"><title>Node32&#45;&gt;Node33</title>
<path fill="none" stroke="midnightblue" d="M429.98,-363.739C428.876,-353.487 427.531,-341.001 426.517,-331.589"/>
<polygon fill="midnightblue" stroke="midnightblue" points="426.505,-364.166 431.056,-373.734 433.465,-363.417 426.505,-364.166"/>
</g>
<!-- Node32&#45;&gt;Node40 -->
<g id="edge15" class="edge"><title>Node32&#45;&gt;Node40</title>
<path fill="none" stroke="midnightblue" d="M451.223,-367.706C486.683,-340.551 564.984,-281.209 633,-234 658.029,-216.628 687.992,-197.478 705.131,-186.676"/>
<polygon fill="midnightblue" stroke="midnightblue" points="448.967,-365.026 443.164,-373.89 453.228,-370.58 448.967,-365.026"/>
</g>
<!-- Node41 -->
<g id="node12" class="node"><title>Node41</title>
<g id="a_node12"><a xlink:href="InterfaceFeatureTracker_8ipp.html" target="_top" xlink:title="src/ApplicationInterface\l/InterfaceFeatureTracker.ipp">
<polygon fill="white" stroke="black" points="186.5,-301.5 186.5,-331.5 325.5,-331.5 325.5,-301.5 186.5,-301.5"/>
<text text-anchor="start" x="194.5" y="-319.5" font-family="FreeSans" font-size="10.00">src/ApplicationInterface</text>
<text text-anchor="middle" x="256" y="-308.5" font-family="FreeSans" font-size="10.00">/InterfaceFeatureTracker.ipp</text>
</a>
</g>
</g>
<!-- Node32&#45;&gt;Node41 -->
<g id="edge11" class="edge"><title>Node32&#45;&gt;Node41</title>
<path fill="none" stroke="midnightblue" d="M399.092,-370.346C369.26,-359.329 325.297,-343.093 293.984,-331.528"/>
<polygon fill="midnightblue" stroke="midnightblue" points="398.035,-373.687 408.629,-373.869 400.46,-367.121 398.035,-373.687"/>
</g>
<!-- Node34 -->
<g id="node5" class="node"><title>Node34</title>
<g id="a_node5"><a xlink:href="ImageFeatureTrackingPipeline_8h.html" target="_top" xlink:title="src/Tracker/ImageFeature\lTrackingPipeline.h">
<polygon fill="white" stroke="black" points="360.5,-234.5 360.5,-264.5 489.5,-264.5 489.5,-234.5 360.5,-234.5"/>
<text text-anchor="start" x="368.5" y="-252.5" font-family="FreeSans" font-size="10.00">src/Tracker/ImageFeature</text>
<text text-anchor="middle" x="425" y="-241.5" font-family="FreeSans" font-size="10.00">TrackingPipeline.h</text>
</a>
</g>
</g>
<!-- Node33&#45;&gt;Node34 -->
<g id="edge4" class="edge"><title>Node33&#45;&gt;Node34</title>
<path fill="none" stroke="midnightblue" d="M425,-291.108C425,-282.154 425,-272.323 425,-264.577"/>
<polygon fill="midnightblue" stroke="midnightblue" points="421.5,-291.396 425,-301.396 428.5,-291.396 421.5,-291.396"/>
</g>
<!-- Node35 -->
<g id="node6" class="node"><title>Node35</title>
<g id="a_node6"><a xlink:href="AppStalker_8cpp.html" target="_top" xlink:title="src/Application/AppStalker.cpp">
<polygon fill="white" stroke="black" points="481,-167.5 481,-186.5 631,-186.5 631,-167.5 481,-167.5"/>
<text text-anchor="middle" x="556" y="-174.5" font-family="FreeSans" font-size="10.00">src/Application/AppStalker.cpp</text>
</a>
</g>
</g>
<!-- Node34&#45;&gt;Node35 -->
<g id="edge5" class="edge"><title>Node34&#45;&gt;Node35</title>
<path fill="none" stroke="midnightblue" d="M460.025,-229.651C486.071,-215.633 520.391,-197.164 540.143,-186.534"/>
<polygon fill="midnightblue" stroke="midnightblue" points="458.342,-226.582 451.195,-234.403 461.659,-232.746 458.342,-226.582"/>
</g>
<!-- Node36 -->
<g id="node7" class="node"><title>Node36</title>
<g id="a_node7"><a xlink:href="InterfaceImageFeatureTrackingPipeline_8ipp.html" target="_top" xlink:title="src/ApplicationInterface\l/InterfaceImageFeatureTracking\lPipeline.ipp">
<polygon fill="white" stroke="black" points="160.5,-156.5 160.5,-197.5 315.5,-197.5 315.5,-156.5 160.5,-156.5"/>
<text text-anchor="start" x="168.5" y="-185.5" font-family="FreeSans" font-size="10.00">src/ApplicationInterface</text>
<text text-anchor="start" x="168.5" y="-174.5" font-family="FreeSans" font-size="10.00">/InterfaceImageFeatureTracking</text>
<text text-anchor="middle" x="238" y="-163.5" font-family="FreeSans" font-size="10.00">Pipeline.ipp</text>
</a>
</g>
</g>
<!-- Node34&#45;&gt;Node36 -->
<g id="edge6" class="edge"><title>Node34&#45;&gt;Node36</title>
<path fill="none" stroke="midnightblue" d="M378.05,-230.8C351.2,-220.677 317.474,-207.962 289.846,-197.546"/>
<polygon fill="midnightblue" stroke="midnightblue" points="377.015,-234.15 387.607,-234.403 379.485,-227.6 377.015,-234.15"/>
</g>
<!-- Node39 -->
<g id="node10" class="node"><title>Node39</title>
<g id="a_node10"><a xlink:href="ImageFeatureTrackingPipeline_8cpp.html" target="_top" xlink:title="src/Tracker/ImageFeature\lTrackingPipeline.cpp">
<polygon fill="white" stroke="black" points="333.5,-162 333.5,-192 462.5,-192 462.5,-162 333.5,-162"/>
<text text-anchor="start" x="341.5" y="-180" font-family="FreeSans" font-size="10.00">src/Tracker/ImageFeature</text>
<text text-anchor="middle" x="398" y="-169" font-family="FreeSans" font-size="10.00">TrackingPipeline.cpp</text>
</a>
</g>
</g>
<!-- Node34&#45;&gt;Node39 -->
<g id="edge9" class="edge"><title>Node34&#45;&gt;Node39</title>
<path fill="none" stroke="midnightblue" d="M415.833,-224.564C411.719,-213.821 407.004,-201.51 403.456,-192.246"/>
<polygon fill="midnightblue" stroke="midnightblue" points="412.691,-226.146 419.536,-234.233 419.228,-223.643 412.691,-226.146"/>
</g>
<!-- Node34&#45;&gt;Node40 -->
<g id="edge10" class="edge"><title>Node34&#45;&gt;Node40</title>
<path fill="none" stroke="midnightblue" d="M496.071,-232.131C537.997,-222.394 592.066,-209.696 640,-198 654.982,-194.344 671.527,-190.176 685.589,-186.594"/>
<polygon fill="midnightblue" stroke="midnightblue" points="495.182,-228.744 486.232,-234.414 496.764,-235.563 495.182,-228.744"/>
</g>
<!-- Node37 -->
<g id="node8" class="node"><title>Node37</title>
<g id="a_node8"><a xlink:href="InterfaceImageFeatureTrackingPipeline_8h.html" target="_top" xlink:title="src/ApplicationInterface\l/InterfaceImageFeatureTracking\lPipeline.h">
<polygon fill="white" stroke="black" points="160.5,-78.5 160.5,-119.5 315.5,-119.5 315.5,-78.5 160.5,-78.5"/>
<text text-anchor="start" x="168.5" y="-107.5" font-family="FreeSans" font-size="10.00">src/ApplicationInterface</text>
<text text-anchor="start" x="168.5" y="-96.5" font-family="FreeSans" font-size="10.00">/InterfaceImageFeatureTracking</text>
<text text-anchor="middle" x="238" y="-85.5" font-family="FreeSans" font-size="10.00">Pipeline.h</text>
</a>
</g>
</g>
<!-- Node36&#45;&gt;Node37 -->
<g id="edge7" class="edge"><title>Node36&#45;&gt;Node37</title>
<path fill="none" stroke="midnightblue" d="M238,-146.297C238,-137.301 238,-127.653 238,-119.506"/>
<polygon fill="midnightblue" stroke="midnightblue" points="234.5,-146.428 238,-156.428 241.5,-146.428 234.5,-146.428"/>
</g>
<!-- Node38 -->
<g id="node9" class="node"><title>Node38</title>
<g id="a_node9"><a xlink:href="InterfaceImageFeatureTrackingPipeline_8cpp.html" target="_top" xlink:title="src/ApplicationInterface\l/InterfaceImageFeatureTracking\lPipeline.cpp">
<polygon fill="white" stroke="black" points="160.5,-0.5 160.5,-41.5 315.5,-41.5 315.5,-0.5 160.5,-0.5"/>
<text text-anchor="start" x="168.5" y="-29.5" font-family="FreeSans" font-size="10.00">src/ApplicationInterface</text>
<text text-anchor="start" x="168.5" y="-18.5" font-family="FreeSans" font-size="10.00">/InterfaceImageFeatureTracking</text>
<text text-anchor="middle" x="238" y="-7.5" font-family="FreeSans" font-size="10.00">Pipeline.cpp</text>
</a>
</g>
</g>
<!-- Node37&#45;&gt;Node38 -->
<g id="edge8" class="edge"><title>Node37&#45;&gt;Node38</title>
<path fill="none" stroke="midnightblue" d="M238,-68.2965C238,-59.3009 238,-49.6532 238,-41.5056"/>
<polygon fill="midnightblue" stroke="midnightblue" points="234.5,-68.4281 238,-78.4281 241.5,-68.4281 234.5,-68.4281"/>
</g>
<!-- Node42 -->
<g id="node13" class="node"><title>Node42</title>
<g id="a_node13"><a xlink:href="InterfaceFeatureTracker_8h.html" target="_top" xlink:title="src/ApplicationInterface\l/InterfaceFeatureTracker.h">
<polygon fill="white" stroke="black" points="172.5,-234.5 172.5,-264.5 303.5,-264.5 303.5,-234.5 172.5,-234.5"/>
<text text-anchor="start" x="180.5" y="-252.5" font-family="FreeSans" font-size="10.00">src/ApplicationInterface</text>
<text text-anchor="middle" x="238" y="-241.5" font-family="FreeSans" font-size="10.00">/InterfaceFeatureTracker.h</text>
</a>
</g>
</g>
<!-- Node41&#45;&gt;Node42 -->
<g id="edge12" class="edge"><title>Node41&#45;&gt;Node42</title>
<path fill="none" stroke="midnightblue" d="M249.408,-291.697C246.886,-282.587 244.09,-272.493 241.898,-264.577"/>
<polygon fill="midnightblue" stroke="midnightblue" points="246.052,-292.693 252.094,-301.396 252.798,-290.825 246.052,-292.693"/>
</g>
<!-- Node42&#45;&gt;Node36 -->
<g id="edge14" class="edge"><title>Node42&#45;&gt;Node36</title>
<path fill="none" stroke="midnightblue" d="M238,-223.982C238,-215.347 238,-205.762 238,-197.588"/>
<polygon fill="midnightblue" stroke="midnightblue" points="234.5,-224.233 238,-234.233 241.5,-224.233 234.5,-224.233"/>
</g>
<!-- Node43 -->
<g id="node14" class="node"><title>Node43</title>
<g id="a_node14"><a xlink:href="InterfaceFeatureTracker_8cpp.html" target="_top" xlink:title="src/ApplicationInterface\l/InterfaceFeatureTracker.cpp">
<polygon fill="white" stroke="black" points="0,-162 0,-192 142,-192 142,-162 0,-162"/>
<text text-anchor="start" x="8" y="-180" font-family="FreeSans" font-size="10.00">src/ApplicationInterface</text>
<text text-anchor="middle" x="71" y="-169" font-family="FreeSans" font-size="10.00">/InterfaceFeatureTracker.cpp</text>
</a>
</g>
</g>
<!-- Node42&#45;&gt;Node43 -->
<g id="edge13" class="edge"><title>Node42&#45;&gt;Node43</title>
<path fill="none" stroke="midnightblue" d="M195.36,-230.499C167.075,-218.559 130.489,-203.114 104.336,-192.073"/>
<polygon fill="midnightblue" stroke="midnightblue" points="194.032,-233.738 204.606,-234.403 196.755,-227.289 194.032,-233.738"/>
</g>
<!-- Node45 -->
<g id="node16" class="node"><title>Node45</title>
<g id="a_node16"><a xlink:href="ImageFeatureTrackingProblem_8h.html" target="_top" xlink:title="src/Tracker/ImageFeature\lTrackingProblem.h">
<polygon fill="white" stroke="black" points="529.5,-368.5 529.5,-398.5 658.5,-398.5 658.5,-368.5 529.5,-368.5"/>
<text text-anchor="start" x="537.5" y="-386.5" font-family="FreeSans" font-size="10.00">src/Tracker/ImageFeature</text>
<text text-anchor="middle" x="594" y="-375.5" font-family="FreeSans" font-size="10.00">TrackingProblem.h</text>
</a>
</g>
</g>
<!-- Node44&#45;&gt;Node45 -->
<g id="edge17" class="edge"><title>Node44&#45;&gt;Node45</title>
<path fill="none" stroke="midnightblue" d="M639.16,-428.311C629.109,-418.561 617.459,-407.259 608.51,-398.577"/>
<polygon fill="midnightblue" stroke="midnightblue" points="636.847,-430.945 646.462,-435.396 641.722,-425.921 636.847,-430.945"/>
</g>
<!-- Node45&#45;&gt;Node33 -->
<g id="edge18" class="edge"><title>Node45&#45;&gt;Node33</title>
<path fill="none" stroke="midnightblue" d="M547.672,-364.682C520.568,-354.257 486.829,-341.281 461.599,-331.577"/>
<polygon fill="midnightblue" stroke="midnightblue" points="546.74,-368.073 557.33,-368.396 549.253,-361.539 546.74,-368.073"/>
</g>
<!-- Node45&#45;&gt;Node35 -->
<g id="edge19" class="edge"><title>Node45&#45;&gt;Node35</title>
<path fill="none" stroke="midnightblue" d="M586.765,-358.607C584.395,-350.243 581.889,-340.754 580,-332 568.186,-277.248 559.786,-210.351 557.003,-186.748"/>
<polygon fill="midnightblue" stroke="midnightblue" points="583.478,-359.838 589.636,-368.46 590.198,-357.88 583.478,-359.838"/>
</g>
<!-- Node45&#45;&gt;Node40 -->
<g id="edge21" class="edge"><title>Node45&#45;&gt;Node40</title>
<path fill="none" stroke="midnightblue" d="M596.948,-358.15C599.688,-341.382 604.788,-318.974 614,-301 639.228,-251.778 687.807,-205.474 708.859,-186.745"/>
<polygon fill="midnightblue" stroke="midnightblue" points="593.454,-357.85 595.468,-368.251 600.381,-358.864 593.454,-357.85"/>
</g>
<!-- Node46 -->
<g id="node17" class="node"><title>Node46</title>
<g id="a_node17"><a xlink:href="ImageFeatureTrackingProblem_8cpp.html" target="_top" xlink:title="src/Tracker/ImageFeature\lTrackingProblem.cpp">
<polygon fill="white" stroke="black" points="622.5,-301.5 622.5,-331.5 751.5,-331.5 751.5,-301.5 622.5,-301.5"/>
<text text-anchor="start" x="630.5" y="-319.5" font-family="FreeSans" font-size="10.00">src/Tracker/ImageFeature</text>
<text text-anchor="middle" x="687" y="-308.5" font-family="FreeSans" font-size="10.00">TrackingProblem.cpp</text>
</a>
</g>
</g>
<!-- Node45&#45;&gt;Node46 -->
<g id="edge20" class="edge"><title>Node45&#45;&gt;Node46</title>
<path fill="none" stroke="midnightblue" d="M622.685,-362.451C636.992,-352.452 653.95,-340.6 666.86,-331.577"/>
<polygon fill="midnightblue" stroke="midnightblue" points="620.371,-359.798 614.18,-368.396 624.381,-365.536 620.371,-359.798"/>
</g>
</g>
</svg>
        <g id="navigator" transform="translate(0 0)" fill="#404254">
                <rect fill="#f2f5e9" fill-opacity="0.5" stroke="#606060" stroke-width=".5" x="0" y="0" width="60" height="60"/>
                <use id="zoomplus" xlink:href="#zoomPlus" x="17" y="9" onmousedown="handleZoom(evt,'in')"/>
                <use id="zoomminus" xlink:href="#zoomMin" x="42" y="9" onmousedown="handleZoom(evt,'out')"/>
                <use id="reset" xlink:href="#resetDef" x="30" y="36" onmousedown="handleReset()"/>
                <g id="arrowUp" xlink:href="#dirArrow" transform="translate(30 24)" onmousedown="handlePan(0,-1)">
                  <use xlink:href="#rim" fill="#404040">
                        <set attributeName="fill" to="#808080" begin="arrowUp.mouseover" end="arrowUp.mouseout"/>
                  </use>
                  <path fill="none" stroke="white" stroke-width="1.5" d="M0,-3.0v7 M-2.5,-0.5L0,-3.0L2.5,-0.5"/>
                </g>
                <g id="arrowRight" xlink:href="#dirArrow" transform="rotate(90) translate(36 -43)" onmousedown="handlePan(1,0)">
                  <use xlink:href="#rim" fill="#404040">
                        <set attributeName="fill" to="#808080" begin="arrowRight.mouseover" end="arrowRight.mouseout"/>
                  </use>
                  <path fill="none" stroke="white" stroke-width="1.5" d="M0,-3.0v7 M-2.5,-0.5L0,-3.0L2.5,-0.5"/>
                </g>
                <g id="arrowDown" xlink:href="#dirArrow" transform="rotate(180) translate(-30 -48)" onmousedown="handlePan(0,1)">
                  <use xlink:href="#rim" fill="#404040">
                        <set attributeName="fill" to="#808080" begin="arrowDown.mouseover" end="arrowDown.mouseout"/>
                  </use>
                  <path fill="none" stroke="white" stroke-width="1.5" d="M0,-3.0v7 M-2.5,-0.5L0,-3.0L2.5,-0.5"/>
                </g>
                <g id="arrowLeft" xlink:href="#dirArrow" transform="rotate(270) translate(-36 17)" onmousedown="handlePan(-1,0)">
                  <use xlink:href="#rim" fill="#404040">
                        <set attributeName="fill" to="#808080" begin="arrowLeft.mouseover" end="arrowLeft.mouseout"/>
                  </use>
                  <path fill="none" stroke="white" stroke-width="1.5" d="M0,-3.0v7 M-2.5,-0.5L0,-3.0L2.5,-0.5"/>
                </g>
        </g>
        <svg viewBox="0 0 15 15" width="100%" height="30px" preserveAspectRatio="xMaxYMin meet">
         <g id="arrow_out" transform="scale(0.3 0.3)">
          <a xlink:href="FeatureTrackerDistanceConstraint_8h__dep__incl_org.svg" target="_base">
           <rect id="button" ry="5" rx="5" y="6" x="6" height="38" width="38"
                fill="#f2f5e9" fill-opacity="0.5" stroke="#606060" stroke-width="1.0"/>
           <path id="arrow"
             d="M 11.500037,31.436501 C 11.940474,20.09759 22.043105,11.32322 32.158766,21.979434 L 37.068811,17.246167 C 37.068811,17.246167 37.088388,32 37.088388,32 L 22.160133,31.978069 C 22.160133,31.978069 26.997745,27.140456 26.997745,27.140456 C 18.528582,18.264221 13.291696,25.230495 11.500037,31.436501 z"
             style="fill:#404040;"/>
          </a>
         </g>
        </svg>
</svg>
