<?xml version="1.0" encoding="UTF-8" standalone="no"?>
<!DOCTYPE svg PUBLIC "-//W3C//DTD SVG 1.1//EN"
 "http://www.w3.org/Graphics/SVG/1.1/DTD/svg11.dtd">
<!-- Generated by graphviz version 2.38.0 (20140413.2041)
 -->
<!-- Title: src/Geometry/GeometrySolverConcept.ipp Pages: 1 -->
<!--zoomable 419 -->
<svg id="main" version="1.1" xmlns="http://www.w3.org/2000/svg" xmlns:xlink="http://www.w3.org/1999/xlink" xml:space="preserve" onload="init(evt)">
<style type="text/css"><![CDATA[
.edge:hover path { stroke: red; }
.edge:hover polygon { stroke: red; fill: red; }
]]></style>
<script type="text/javascript"><![CDATA[
var edges = document.getElementsByTagName('g');
if (edges && edges.length) {
  for (var i=0;i<edges.length;i++) {
    if (edges[i].id.substr(0,4)=='edge') {
      edges[i].setAttribute('class','edge');
    }
  }
}
]]></script>
        <defs>
                <circle id="rim" cx="0" cy="0" r="7"/>
                <circle id="rim2" cx="0" cy="0" r="3.5"/>
                <g id="zoomPlus">
                        <use xlink:href="#rim" fill="#404040">
                                <set attributeName="fill" to="#808080" begin="zoomplus.mouseover" end="zoomplus.mouseout"/>
                        </use>
                        <path d="M-4,0h8M0,-4v8" fill="none" stroke="white" stroke-width="1.5" pointer-events="none"/>
                </g>
                <g id="zoomMin">
                        <use xlink:href="#rim" fill="#404040">
                                <set attributeName="fill" to="#808080" begin="zoomminus.mouseover" end="zoomminus.mouseout"/>
                        </use>
                        <path d="M-4,0h8" fill="none" stroke="white" stroke-width="1.5" pointer-events="none"/>
                </g>
                <g id="dirArrow">
                        <path fill="none" stroke="white" stroke-width="1.5" d="M0,-3.0v7 M-2.5,-0.5L0,-3.0L2.5,-0.5"/>
                </g>
               <g id="resetDef">
                       <use xlink:href="#rim2" fill="#404040">
                               <set attributeName="fill" to="#808080" begin="reset.mouseover" end="reset.mouseout"/>
                       </use>
               </g>
        </defs>

<script type="text/javascript">
var viewWidth = 3436;
var viewHeight = 419;
var sectionId = 'dynsection-0';
</script>
<script xlink:href="svgpan.js"/>
<svg id="graph" class="graph">
<g id="viewport">
<title>src/Geometry/GeometrySolverConcept.ipp</title>
<polygon fill="white" stroke="none" points="-4,4 -4,-415 3432,-415 3432,4 -4,4"/>
<!-- Node0 -->
<g id="node1" class="node"><title>Node0</title>
<polygon fill="#bfbfbf" stroke="black" points="1227,-380.5 1227,-410.5 1375,-410.5 1375,-380.5 1227,-380.5"/>
<text text-anchor="start" x="1235" y="-398.5" font-family="FreeSans" font-size="10.00">src/Geometry/GeometrySolver</text>
<text text-anchor="middle" x="1301" y="-387.5" font-family="FreeSans" font-size="10.00">Concept.ipp</text>
</g>
<!-- Node1 -->
<g id="node2" class="node"><title>Node1</title>
<polygon fill="white" stroke="#bfbfbf" points="503,-6 503,-25 631,-25 631,-6 503,-6"/>
<text text-anchor="middle" x="567" y="-13" font-family="FreeSans" font-size="10.00">boost/concept_check.hpp</text>
</g>
<!-- Node0&#45;&gt;Node1 -->
<g id="edge1" class="edge"><title>Node0&#45;&gt;Node1</title>
<path fill="none" stroke="midnightblue" d="M1226.67,-394.996C961.266,-395.801 76,-389.771 76,-273.5 76,-273.5 76,-273.5 76,-210 76,-167.778 97.5063,-156.867 133,-134 195.367,-93.819 224.204,-116.696 296,-98 381.134,-75.8302 479.758,-44.8006 531.349,-28.1519"/>
<polygon fill="midnightblue" stroke="midnightblue" points="532.586,-31.4303 541.022,-25.0208 530.43,-24.7705 532.586,-31.4303"/>
</g>
<!-- Node2 -->
<g id="node3" class="node"><title>Node2</title>
<polygon fill="white" stroke="#bfbfbf" points="1291.5,-6 1291.5,-25 1362.5,-25 1362.5,-6 1291.5,-6"/>
<text text-anchor="middle" x="1327" y="-13" font-family="FreeSans" font-size="10.00">Eigen/Dense</text>
</g>
<!-- Node0&#45;&gt;Node2 -->
<g id="edge2" class="edge"><title>Node0&#45;&gt;Node2</title>
<path fill="none" stroke="midnightblue" d="M1375.17,-389.145C1552.82,-375.329 1988,-335.189 1988,-273.5 1988,-273.5 1988,-273.5 1988,-210 1988,-172.432 1980.98,-156.643 1951,-134 1742.43,23.5319 1625.64,-94.1148 1372,-31 1368.55,-30.1415 1364.98,-29.1585 1361.43,-28.1176"/>
<polygon fill="midnightblue" stroke="midnightblue" points="1362.17,-24.6843 1351.58,-25.0863 1360.11,-31.3744 1362.17,-24.6843"/>
</g>
<!-- Node3 -->
<g id="node4" class="node"><title>Node3</title>
<polygon fill="white" stroke="#bfbfbf" points="1286,-140 1286,-159 1316,-159 1316,-140 1286,-140"/>
<text text-anchor="middle" x="1301" y="-147" font-family="FreeSans" font-size="10.00">set</text>
</g>
<!-- Node0&#45;&gt;Node3 -->
<g id="edge3" class="edge"><title>Node0&#45;&gt;Node3</title>
<path fill="none" stroke="midnightblue" d="M1301,-380.327C1301,-338.607 1301,-216.228 1301,-169.203"/>
<polygon fill="midnightblue" stroke="midnightblue" points="1304.5,-169.195 1301,-159.195 1297.5,-169.195 1304.5,-169.195"/>
</g>
<!-- Node4 -->
<g id="node5" class="node"><title>Node4</title>
<polygon fill="white" stroke="#bfbfbf" points="335.5,-6 335.5,-25 384.5,-25 384.5,-6 335.5,-6"/>
<text text-anchor="middle" x="360" y="-13" font-family="FreeSans" font-size="10.00">cstddef</text>
</g>
<!-- Node0&#45;&gt;Node4 -->
<g id="edge4" class="edge"><title>Node0&#45;&gt;Node4</title>
<path fill="none" stroke="midnightblue" d="M1226.96,-393.32C989.865,-389.251 258.935,-374.361 157,-344 98.0841,-326.452 38,-334.974 38,-273.5 38,-273.5 38,-273.5 38,-210 38,-169.568 54.5362,-156.692 88,-134 153.721,-89.4336 191.527,-132.599 263,-98 296.457,-81.8043 328.011,-51.476 345.596,-32.7313"/>
<polygon fill="midnightblue" stroke="midnightblue" points="348.272,-34.992 352.446,-25.254 343.11,-30.2636 348.272,-34.992"/>
</g>
<!-- Node5 -->
<g id="node6" class="node"><title>Node5</title>
<polygon fill="white" stroke="#bfbfbf" points="1334.5,-140 1334.5,-159 1363.5,-159 1363.5,-140 1334.5,-140"/>
<text text-anchor="middle" x="1349" y="-147" font-family="FreeSans" font-size="10.00">list</text>
</g>
<!-- Node0&#45;&gt;Node5 -->
<g id="edge5" class="edge"><title>Node0&#45;&gt;Node5</title>
<path fill="none" stroke="midnightblue" d="M1305.29,-380.443C1308.27,-370.363 1312.19,-356.424 1315,-344 1329.38,-280.332 1341.26,-203.724 1346.34,-169.099"/>
<polygon fill="midnightblue" stroke="midnightblue" points="1349.83,-169.444 1347.8,-159.046 1342.9,-168.441 1349.83,-169.444"/>
</g>
<!-- Node6 -->
<g id="node7" class="node"><title>Node6</title>
<polygon fill="white" stroke="#bfbfbf" points="1381,-6 1381,-25 1425,-25 1425,-6 1381,-6"/>
<text text-anchor="middle" x="1403" y="-13" font-family="FreeSans" font-size="10.00">vector</text>
</g>
<!-- Node0&#45;&gt;Node6 -->
<g id="edge6" class="edge"><title>Node0&#45;&gt;Node6</title>
<path fill="none" stroke="midnightblue" d="M1375.36,-392.95C1601.24,-387.266 2264,-362.964 2264,-273.5 2264,-273.5 2264,-273.5 2264,-210 2264,-155.905 2117.96,-85.16 2067,-67 1934.28,-19.7016 1570.61,-65.4699 1434,-31 1432.01,-30.4985 1430,-29.8688 1428,-29.1546"/>
<polygon fill="midnightblue" stroke="midnightblue" points="1428.92,-25.7426 1418.34,-25.0814 1426.2,-32.1925 1428.92,-25.7426"/>
</g>
<!-- Node7 -->
<g id="node8" class="node"><title>Node7</title>
<polygon fill="white" stroke="#bfbfbf" points="125,-6 125,-25 187,-25 187,-6 125,-6"/>
<text text-anchor="middle" x="156" y="-13" font-family="FreeSans" font-size="10.00">type_traits</text>
</g>
<!-- Node0&#45;&gt;Node7 -->
<g id="edge7" class="edge"><title>Node0&#45;&gt;Node7</title>
<path fill="none" stroke="midnightblue" d="M1226.6,-394.628C976.293,-394.621 174.435,-390.902 69,-344 28.9416,-326.18 0,-317.343 0,-273.5 0,-273.5 0,-273.5 0,-148.5 0,-85.8995 74.1113,-46.8849 120.171,-28.6825"/>
<polygon fill="midnightblue" stroke="midnightblue" points="121.439,-31.9449 129.537,-25.1132 118.946,-25.4038 121.439,-31.9449"/>
</g>
<!-- Node8 -->
<g id="node9" class="node"><title>Node8</title>
<g id="a_node9"><a xlink:href="Correspondence_8h.html" target="_top" xlink:title="../Elements/Correspondence.h">
<polygon fill="white" stroke="black" points="1384,-324.5 1384,-343.5 1530,-343.5 1530,-324.5 1384,-324.5"/>
<text text-anchor="middle" x="1457" y="-331.5" font-family="FreeSans" font-size="10.00">../Elements/Correspondence.h</text>
</a>
</g>
</g>
<!-- Node0&#45;&gt;Node8 -->
<g id="edge8" class="edge"><title>Node0&#45;&gt;Node8</title>
<path fill="none" stroke="midnightblue" d="M1337.97,-380.399C1364.38,-370.327 1399.56,-356.909 1424.81,-347.277"/>
<polygon fill="midnightblue" stroke="midnightblue" points="1426.2,-350.492 1434.3,-343.658 1423.71,-343.951 1426.2,-350.492"/>
</g>
<!-- Node23 -->
<g id="node24" class="node"><title>Node23</title>
<g id="a_node24"><a xlink:href="EigenMetafunction_8h.html" target="_top" xlink:title="../Wrappers/EigenMetafunction.h">
<polygon fill="white" stroke="black" points="142,-140 142,-159 298,-159 298,-140 142,-140"/>
<text text-anchor="middle" x="220" y="-147" font-family="FreeSans" font-size="10.00">../Wrappers/EigenMetafunction.h</text>
</a>
</g>
</g>
<!-- Node0&#45;&gt;Node23 -->
<g id="edge98" class="edge"><title>Node0&#45;&gt;Node23</title>
<path fill="none" stroke="midnightblue" d="M1238.6,-380.416C1042.54,-336.161 441.582,-200.515 267.634,-161.252"/>
<polygon fill="midnightblue" stroke="midnightblue" points="268.279,-157.809 257.753,-159.022 266.737,-164.638 268.279,-157.809"/>
</g>
<!-- Node9 -->
<g id="node10" class="node"><title>Node9</title>
<g id="a_node10"><a xlink:href="Correspondence_8ipp.html" target="_top" xlink:title="Correspondence.ipp">
<polygon fill="white" stroke="black" points="794,-201.5 794,-220.5 896,-220.5 896,-201.5 794,-201.5"/>
<text text-anchor="middle" x="845" y="-208.5" font-family="FreeSans" font-size="10.00">Correspondence.ipp</text>
</a>
</g>
</g>
<!-- Node8&#45;&gt;Node9 -->
<g id="edge9" class="edge"><title>Node8&#45;&gt;Node9</title>
<path fill="none" stroke="midnightblue" d="M1413.97,-324.492C1304.91,-302.93 1017.91,-246.187 898.409,-222.56"/>
<polygon fill="midnightblue" stroke="midnightblue" points="898.885,-219.086 888.396,-220.58 897.527,-225.953 898.885,-219.086"/>
</g>
<!-- Node25 -->
<g id="node26" class="node"><title>Node25</title>
<polygon fill="white" stroke="#bfbfbf" points="1485.5,-257.5 1485.5,-287.5 1586.5,-287.5 1586.5,-257.5 1485.5,-257.5"/>
<text text-anchor="start" x="1493.5" y="-275.5" font-family="FreeSans" font-size="10.00">boost/range/iterator</text>
<text text-anchor="middle" x="1536" y="-264.5" font-family="FreeSans" font-size="10.00">_range.hpp</text>
</g>
<!-- Node8&#45;&gt;Node25 -->
<g id="edge32" class="edge"><title>Node8&#45;&gt;Node25</title>
<path fill="none" stroke="midnightblue" d="M1468.32,-324.475C1478.92,-316.492 1495.17,-304.254 1509.09,-293.77"/>
<polygon fill="midnightblue" stroke="midnightblue" points="1511.5,-296.335 1517.38,-287.523 1507.29,-290.743 1511.5,-296.335"/>
</g>
<!-- Node26 -->
<g id="node27" class="node"><title>Node26</title>
<g id="a_node27"><a xlink:href="Coordinate_8h.html" target="_top" xlink:title="Coordinate.h">
<polygon fill="white" stroke="black" points="1602.5,-140 1602.5,-159 1673.5,-159 1673.5,-140 1602.5,-140"/>
<text text-anchor="middle" x="1638" y="-147" font-family="FreeSans" font-size="10.00">Coordinate.h</text>
</a>
</g>
</g>
<!-- Node8&#45;&gt;Node26 -->
<g id="edge33" class="edge"><title>Node8&#45;&gt;Node26</title>
<path fill="none" stroke="midnightblue" d="M1457.18,-324.176C1457.89,-309.065 1461.2,-277.853 1476,-257 1508.9,-210.635 1568.91,-179.09 1605.93,-162.993"/>
<polygon fill="midnightblue" stroke="midnightblue" points="1607.42,-166.164 1615.27,-159.048 1604.7,-159.715 1607.42,-166.164"/>
</g>
<!-- Node31 -->
<g id="node32" class="node"><title>Node31</title>
<g id="a_node32"><a xlink:href="Feature_8h.html" target="_top" xlink:title="Feature.h">
<polygon fill="white" stroke="black" points="1628.5,-263 1628.5,-282 1685.5,-282 1685.5,-263 1628.5,-263"/>
<text text-anchor="middle" x="1657" y="-270" font-family="FreeSans" font-size="10.00">Feature.h</text>
</a>
</g>
</g>
<!-- Node8&#45;&gt;Node31 -->
<g id="edge48" class="edge"><title>Node8&#45;&gt;Node31</title>
<path fill="none" stroke="midnightblue" d="M1485.66,-324.475C1520.56,-314.092 1579.65,-296.512 1618.5,-284.954"/>
<polygon fill="midnightblue" stroke="midnightblue" points="1619.81,-288.215 1628.4,-282.009 1617.82,-281.506 1619.81,-288.215"/>
</g>
<!-- Node9&#45;&gt;Node1 -->
<g id="edge12" class="edge"><title>Node9&#45;&gt;Node1</title>
<path fill="none" stroke="midnightblue" d="M793.726,-210.782C710.634,-210.83 552.277,-205.447 517,-165 482.987,-126.002 527.128,-62.9675 552.057,-33.1497"/>
<polygon fill="midnightblue" stroke="midnightblue" points="554.906,-35.2052 558.784,-25.3456 549.604,-30.6348 554.906,-35.2052"/>
</g>
<!-- Node9&#45;&gt;Node2 -->
<g id="edge16" class="edge"><title>Node9&#45;&gt;Node2</title>
<path fill="none" stroke="midnightblue" d="M896.025,-206.384C945.968,-201.494 1023.45,-190.264 1086,-165 1109.2,-155.629 1111.85,-147.373 1133,-134 1193.8,-95.5581 1266.61,-52.1486 1303.33,-30.4354"/>
<polygon fill="midnightblue" stroke="midnightblue" points="1305.45,-33.2515 1312.28,-25.1532 1301.89,-27.2238 1305.45,-33.2515"/>
</g>
<!-- Node9&#45;&gt;Node4 -->
<g id="edge21" class="edge"><title>Node9&#45;&gt;Node4</title>
<path fill="none" stroke="midnightblue" d="M793.867,-209.219C672.488,-206.837 374.879,-197.689 345,-165 312.016,-128.914 335.798,-65.3581 350.589,-34.4238"/>
<polygon fill="midnightblue" stroke="midnightblue" points="353.824,-35.7801 355.165,-25.2705 347.563,-32.6497 353.824,-35.7801"/>
</g>
<!-- Node9&#45;&gt;Node6 -->
<g id="edge19" class="edge"><title>Node9&#45;&gt;Node6</title>
<path fill="none" stroke="midnightblue" d="M896.104,-208.939C953.609,-206.138 1048.8,-196.604 1124,-165 1145.39,-156.011 1144.72,-143.251 1166,-134 1246.02,-99.2085 1288.5,-149.413 1359,-98 1380.18,-82.5561 1392.23,-53.7358 1398.18,-34.8357"/>
<polygon fill="midnightblue" stroke="midnightblue" points="1401.6,-35.6083 1401.01,-25.0301 1394.88,-33.6689 1401.6,-35.6083"/>
</g>
<!-- Node9&#45;&gt;Node7 -->
<g id="edge25" class="edge"><title>Node9&#45;&gt;Node7</title>
<path fill="none" stroke="midnightblue" d="M793.956,-208.668C634.605,-204.265 155.597,-189.071 133,-165 99.1639,-128.958 128.021,-64.9094 145.298,-34.0629"/>
<polygon fill="midnightblue" stroke="midnightblue" points="148.398,-35.6948 150.407,-25.2921 142.349,-32.1716 148.398,-35.6948"/>
</g>
<!-- Node10 -->
<g id="node11" class="node"><title>Node10</title>
<polygon fill="white" stroke="#bfbfbf" points="526.5,-140 526.5,-159 643.5,-159 643.5,-140 526.5,-140"/>
<text text-anchor="middle" x="585" y="-147" font-family="FreeSans" font-size="10.00">boost/bimap/bimap.hpp</text>
</g>
<!-- Node9&#45;&gt;Node10 -->
<g id="edge10" class="edge"><title>Node9&#45;&gt;Node10</title>
<path fill="none" stroke="midnightblue" d="M807.748,-201.475C761.508,-190.893 682.601,-172.836 632.178,-161.297"/>
<polygon fill="midnightblue" stroke="midnightblue" points="632.711,-157.828 622.183,-159.009 631.15,-164.652 632.711,-157.828"/>
</g>
<!-- Node11 -->
<g id="node12" class="node"><title>Node11</title>
<polygon fill="white" stroke="#bfbfbf" points="661.5,-140 661.5,-159 778.5,-159 778.5,-140 661.5,-140"/>
<text text-anchor="middle" x="720" y="-147" font-family="FreeSans" font-size="10.00">boost/bimap/list_of.hpp</text>
</g>
<!-- Node9&#45;&gt;Node11 -->
<g id="edge11" class="edge"><title>Node9&#45;&gt;Node11</title>
<path fill="none" stroke="midnightblue" d="M827.091,-201.475C806.113,-191.49 771.15,-174.848 746.907,-163.307"/>
<polygon fill="midnightblue" stroke="midnightblue" points="748.41,-160.147 737.876,-159.009 745.401,-166.467 748.41,-160.147"/>
</g>
<!-- Node12 -->
<g id="node13" class="node"><title>Node12</title>
<polygon fill="white" stroke="#bfbfbf" points="857,-6 857,-25 985,-25 985,-6 857,-6"/>
<text text-anchor="middle" x="921" y="-13" font-family="FreeSans" font-size="10.00">boost/range/concepts.hpp</text>
</g>
<!-- Node9&#45;&gt;Node12 -->
<g id="edge13" class="edge"><title>Node9&#45;&gt;Node12</title>
<path fill="none" stroke="midnightblue" d="M848.364,-201.436C859.861,-172.162 897.769,-75.6473 913.771,-34.9053"/>
<polygon fill="midnightblue" stroke="midnightblue" points="917.104,-35.9942 917.502,-25.4068 910.588,-33.4351 917.104,-35.9942"/>
</g>
<!-- Node13 -->
<g id="node14" class="node"><title>Node13</title>
<polygon fill="white" stroke="#bfbfbf" points="1059,-6 1059,-25 1209,-25 1209,-6 1059,-6"/>
<text text-anchor="middle" x="1134" y="-13" font-family="FreeSans" font-size="10.00">boost/range/metafunctions.hpp</text>
</g>
<!-- Node9&#45;&gt;Node13 -->
<g id="edge14" class="edge"><title>Node9&#45;&gt;Node13</title>
<path fill="none" stroke="midnightblue" d="M852.968,-201.371C868.227,-185.407 903.329,-151.314 940,-134 1010.23,-100.84 1054.26,-151.032 1111,-98 1128.26,-81.872 1132.91,-53.8891 1133.99,-35.2824"/>
<polygon fill="midnightblue" stroke="midnightblue" points="1137.49,-35.1932 1134.27,-25.0986 1130.49,-34.9961 1137.49,-35.1932"/>
</g>
<!-- Node14 -->
<g id="node15" class="node"><title>Node14</title>
<polygon fill="white" stroke="#bfbfbf" points="649,-6 649,-25 777,-25 777,-6 649,-6"/>
<text text-anchor="middle" x="713" y="-13" font-family="FreeSans" font-size="10.00">boost/range/functions.hpp</text>
</g>
<!-- Node9&#45;&gt;Node14 -->
<g id="edge15" class="edge"><title>Node9&#45;&gt;Node14</title>
<path fill="none" stroke="midnightblue" d="M842.199,-201.213C834.391,-177.648 810.587,-111.804 775,-67 763.775,-52.868 747.962,-40.0662 735.116,-30.8879"/>
<polygon fill="midnightblue" stroke="midnightblue" points="737.007,-27.9405 726.789,-25.1407 733.031,-33.7016 737.007,-27.9405"/>
</g>
<!-- Node15 -->
<g id="node16" class="node"><title>Node15</title>
<polygon fill="white" stroke="#bfbfbf" points="795,-6 795,-25 839,-25 839,-6 795,-6"/>
<text text-anchor="middle" x="817" y="-13" font-family="FreeSans" font-size="10.00">cmath</text>
</g>
<!-- Node9&#45;&gt;Node15 -->
<g id="edge17" class="edge"><title>Node9&#45;&gt;Node15</title>
<path fill="none" stroke="midnightblue" d="M843.761,-201.436C839.543,-172.287 825.677,-76.4675 819.739,-35.4284"/>
<polygon fill="midnightblue" stroke="midnightblue" points="823.185,-34.8025 818.289,-25.4068 816.257,-35.805 823.185,-34.8025"/>
</g>
<!-- Node16 -->
<g id="node17" class="node"><title>Node16</title>
<polygon fill="white" stroke="#bfbfbf" points="1226.5,-6 1226.5,-25 1273.5,-25 1273.5,-6 1226.5,-6"/>
<text text-anchor="middle" x="1250" y="-13" font-family="FreeSans" font-size="10.00">iterator</text>
</g>
<!-- Node9&#45;&gt;Node16 -->
<g id="edge18" class="edge"><title>Node9&#45;&gt;Node16</title>
<path fill="none" stroke="midnightblue" d="M896.012,-204.968C938.906,-199.326 1001.04,-187.795 1051,-165 1061.06,-160.409 1182.88,-67.7427 1230.81,-31.1655"/>
<polygon fill="midnightblue" stroke="midnightblue" points="1233.03,-33.8729 1238.85,-25.0223 1228.78,-28.3093 1233.03,-33.8729"/>
</g>
<!-- Node17 -->
<g id="node18" class="node"><title>Node17</title>
<polygon fill="white" stroke="#bfbfbf" points="1232.5,-140 1232.5,-159 1267.5,-159 1267.5,-140 1232.5,-140"/>
<text text-anchor="middle" x="1250" y="-147" font-family="FreeSans" font-size="10.00">map</text>
</g>
<!-- Node9&#45;&gt;Node17 -->
<g id="edge20" class="edge"><title>Node9&#45;&gt;Node17</title>
<path fill="none" stroke="midnightblue" d="M896.092,-209.904C969.937,-208.438 1110.03,-200.649 1223,-165 1224.43,-164.55 1225.87,-164.023 1227.3,-163.443"/>
<polygon fill="midnightblue" stroke="midnightblue" points="1228.92,-166.546 1236.43,-159.066 1225.9,-160.234 1228.92,-166.546"/>
</g>
<!-- Node18 -->
<g id="node19" class="node"><title>Node18</title>
<polygon fill="white" stroke="#bfbfbf" points="354,-140 354,-159 392,-159 392,-140 354,-140"/>
<text text-anchor="middle" x="373" y="-147" font-family="FreeSans" font-size="10.00">tuple</text>
</g>
<!-- Node9&#45;&gt;Node18 -->
<g id="edge22" class="edge"><title>Node9&#45;&gt;Node18</title>
<path fill="none" stroke="midnightblue" d="M793.867,-210.974C709.993,-211.219 538.745,-206.018 401,-165 399.524,-164.561 398.035,-164.043 396.553,-163.469"/>
<polygon fill="midnightblue" stroke="midnightblue" points="397.642,-160.117 387.095,-159.11 394.712,-166.474 397.642,-160.117"/>
</g>
<!-- Node19 -->
<g id="node20" class="node"><title>Node19</title>
<polygon fill="white" stroke="#bfbfbf" points="1175.5,-140 1175.5,-159 1214.5,-159 1214.5,-140 1175.5,-140"/>
<text text-anchor="middle" x="1195" y="-147" font-family="FreeSans" font-size="10.00">utility</text>
</g>
<!-- Node9&#45;&gt;Node19 -->
<g id="edge23" class="edge"><title>Node9&#45;&gt;Node19</title>
<path fill="none" stroke="midnightblue" d="M896.192,-206.84C959.399,-202.001 1069.73,-190.484 1161,-165 1163.29,-164.359 1165.64,-163.599 1167.97,-162.769"/>
<polygon fill="midnightblue" stroke="midnightblue" points="1169.3,-166.005 1177.32,-159.076 1166.73,-159.495 1169.3,-166.005"/>
</g>
<!-- Node20 -->
<g id="node21" class="node"><title>Node20</title>
<polygon fill="white" stroke="#bfbfbf" points="410.5,-140 410.5,-159 469.5,-159 469.5,-140 410.5,-140"/>
<text text-anchor="middle" x="440" y="-147" font-family="FreeSans" font-size="10.00">functional</text>
</g>
<!-- Node9&#45;&gt;Node20 -->
<g id="edge24" class="edge"><title>Node9&#45;&gt;Node20</title>
<path fill="none" stroke="midnightblue" d="M793.945,-206.773C723.519,-201.614 592.914,-189.49 484,-165 480.331,-164.175 476.535,-163.168 472.781,-162.073"/>
<polygon fill="midnightblue" stroke="midnightblue" points="473.644,-158.675 463.055,-159.032 471.555,-165.356 473.644,-158.675"/>
</g>
<!-- Node21 -->
<g id="node22" class="node"><title>Node21</title>
<g id="a_node22"><a xlink:href="FeatureConcept_8h.html" target="_top" xlink:title="FeatureConcept.h">
<polygon fill="white" stroke="black" points="949.5,-140 949.5,-159 1042.5,-159 1042.5,-140 949.5,-140"/>
<text text-anchor="middle" x="996" y="-147" font-family="FreeSans" font-size="10.00">FeatureConcept.h</text>
</a>
</g>
</g>
<!-- Node9&#45;&gt;Node21 -->
<g id="edge26" class="edge"><title>Node9&#45;&gt;Node21</title>
<path fill="none" stroke="midnightblue" d="M866.635,-201.475C892.424,-191.313 935.711,-174.256 965.04,-162.7"/>
<polygon fill="midnightblue" stroke="midnightblue" points="966.385,-165.932 974.406,-159.009 963.819,-159.419 966.385,-165.932"/>
</g>
<!-- Node9&#45;&gt;Node23 -->
<g id="edge29" class="edge"><title>Node9&#45;&gt;Node23</title>
<path fill="none" stroke="midnightblue" d="M793.794,-206.91C698.668,-200.895 488.319,-186.31 312,-165 301.66,-163.75 290.699,-162.211 280.083,-160.608"/>
<polygon fill="midnightblue" stroke="midnightblue" points="280.461,-157.125 270.044,-159.059 279.393,-164.043 280.461,-157.125"/>
</g>
<!-- Node22 -->
<g id="node23" class="node"><title>Node22</title>
<g id="a_node23"><a xlink:href="FeatureConcept_8ipp.html" target="_top" xlink:title="FeatureConcept.ipp">
<polygon fill="white" stroke="black" points="538.5,-73 538.5,-92 639.5,-92 639.5,-73 538.5,-73"/>
<text text-anchor="middle" x="589" y="-80" font-family="FreeSans" font-size="10.00">FeatureConcept.ipp</text>
</a>
</g>
</g>
<!-- Node21&#45;&gt;Node22 -->
<g id="edge27" class="edge"><title>Node21&#45;&gt;Node22</title>
<path fill="none" stroke="midnightblue" d="M949.428,-141.455C886.616,-131.901 771.289,-114.166 673,-98 664.813,-96.6535 656.184,-95.2014 647.698,-93.7544"/>
<polygon fill="midnightblue" stroke="midnightblue" points="648.285,-90.3041 637.838,-92.0649 647.103,-97.2036 648.285,-90.3041"/>
</g>
<!-- Node22&#45;&gt;Node1 -->
<g id="edge28" class="edge"><title>Node22&#45;&gt;Node1</title>
<path fill="none" stroke="midnightblue" d="M586.033,-72.7338C582.767,-63.0852 577.425,-47.3001 573.23,-34.9063"/>
<polygon fill="midnightblue" stroke="midnightblue" points="576.441,-33.4774 569.92,-25.1273 569.811,-35.7216 576.441,-33.4774"/>
</g>
<!-- Node24 -->
<g id="node25" class="node"><title>Node24</title>
<g id="a_node25"><a xlink:href="EigenMetafunction_8ipp.html" target="_top" xlink:title="EigenMetafunction.ipp">
<polygon fill="white" stroke="black" points="142,-73 142,-92 254,-92 254,-73 142,-73"/>
<text text-anchor="middle" x="198" y="-80" font-family="FreeSans" font-size="10.00">EigenMetafunction.ipp</text>
</a>
</g>
</g>
<!-- Node23&#45;&gt;Node24 -->
<g id="edge30" class="edge"><title>Node23&#45;&gt;Node24</title>
<path fill="none" stroke="midnightblue" d="M217.033,-139.734C213.767,-130.085 208.425,-114.3 204.23,-101.906"/>
<polygon fill="midnightblue" stroke="midnightblue" points="207.441,-100.477 200.92,-92.1273 200.811,-102.722 207.441,-100.477"/>
</g>
<!-- Node24&#45;&gt;Node7 -->
<g id="edge31" class="edge"><title>Node24&#45;&gt;Node7</title>
<path fill="none" stroke="midnightblue" d="M192.336,-72.7338C185.912,-62.7928 175.28,-46.3377 167.171,-33.7892"/>
<polygon fill="midnightblue" stroke="midnightblue" points="169.941,-31.627 161.575,-25.1273 164.062,-35.426 169.941,-31.627"/>
</g>
<!-- Node27 -->
<g id="node28" class="node"><title>Node27</title>
<g id="a_node28"><a xlink:href="Coordinate_8ipp.html" target="_top" xlink:title="Coordinate.ipp">
<polygon fill="white" stroke="black" points="1024,-73 1024,-92 1102,-92 1102,-73 1024,-73"/>
<text text-anchor="middle" x="1063" y="-80" font-family="FreeSans" font-size="10.00">Coordinate.ipp</text>
</a>
</g>
</g>
<!-- Node26&#45;&gt;Node27 -->
<g id="edge34" class="edge"><title>Node26&#45;&gt;Node27</title>
<path fill="none" stroke="midnightblue" d="M1612.28,-139.98C1604.55,-137.708 1596,-135.477 1588,-134 1398.1,-98.9333 1346.73,-121.048 1155,-98 1141.18,-96.3391 1126.26,-94.1562 1112.53,-91.99"/>
<polygon fill="midnightblue" stroke="midnightblue" points="1112.74,-88.4779 1102.31,-90.3456 1111.63,-95.3891 1112.74,-88.4779"/>
</g>
<!-- Node27&#45;&gt;Node1 -->
<g id="edge35" class="edge"><title>Node27&#45;&gt;Node1</title>
<path fill="none" stroke="midnightblue" d="M1023.79,-77.8406C948.934,-70.6291 780.61,-53.3239 640,-31 632.547,-29.8167 624.694,-28.4185 617.013,-26.9652"/>
<polygon fill="midnightblue" stroke="midnightblue" points="617.545,-23.5033 607.062,-25.0363 616.213,-30.3754 617.545,-23.5033"/>
</g>
<!-- Node27&#45;&gt;Node2 -->
<g id="edge39" class="edge"><title>Node27&#45;&gt;Node2</title>
<path fill="none" stroke="midnightblue" d="M1102.02,-73.5506C1146.01,-64.3451 1219.56,-48.2249 1282,-31 1285.35,-30.0771 1288.81,-29.0635 1292.27,-28.0143"/>
<polygon fill="midnightblue" stroke="midnightblue" points="1293.39,-31.3335 1301.89,-25.0093 1291.3,-24.6523 1293.39,-31.3335"/>
</g>
<!-- Node27&#45;&gt;Node4 -->
<g id="edge42" class="edge"><title>Node27&#45;&gt;Node4</title>
<path fill="none" stroke="midnightblue" d="M1024,-78.2992C931.786,-70.6747 693.119,-50.6075 494,-31 460.285,-27.68 421.845,-23.4775 394.809,-20.4525"/>
<polygon fill="midnightblue" stroke="midnightblue" points="395.011,-16.9533 384.683,-19.315 394.229,-23.9095 395.011,-16.9533"/>
</g>
<!-- Node27&#45;&gt;Node6 -->
<g id="edge40" class="edge"><title>Node27&#45;&gt;Node6</title>
<path fill="none" stroke="midnightblue" d="M1102.16,-78.3992C1161.4,-72.9709 1276.87,-59.4979 1371,-31 1372.93,-30.4168 1374.89,-29.743 1376.84,-29.0116"/>
<polygon fill="midnightblue" stroke="midnightblue" points="1378.5,-32.1118 1386.38,-25.0284 1375.8,-25.6525 1378.5,-32.1118"/>
</g>
<!-- Node27&#45;&gt;Node7 -->
<g id="edge41" class="edge"><title>Node27&#45;&gt;Node7</title>
<path fill="none" stroke="midnightblue" d="M1023.83,-79.047C913.817,-72.1071 592.617,-51.5034 326,-31 281.971,-27.6141 231.572,-23.2545 197.153,-20.2034"/>
<polygon fill="midnightblue" stroke="midnightblue" points="197.279,-16.701 187.008,-19.3011 196.659,-23.6734 197.279,-16.701"/>
</g>
<!-- Node27&#45;&gt;Node12 -->
<g id="edge36" class="edge"><title>Node27&#45;&gt;Node12</title>
<path fill="none" stroke="midnightblue" d="M1044.14,-72.8685C1019.85,-61.7476 977.399,-42.3167 949.244,-29.4286"/>
<polygon fill="midnightblue" stroke="midnightblue" points="950.484,-26.147 939.934,-25.1672 947.57,-32.5118 950.484,-26.147"/>
</g>
<!-- Node27&#45;&gt;Node13 -->
<g id="edge37" class="edge"><title>Node27&#45;&gt;Node13</title>
<path fill="none" stroke="midnightblue" d="M1072.58,-72.7338C1083.97,-62.3055 1103.19,-44.7088 1117.1,-31.9732"/>
<polygon fill="midnightblue" stroke="midnightblue" points="1119.56,-34.4614 1124.58,-25.1273 1114.84,-29.2983 1119.56,-34.4614"/>
</g>
<!-- Node27&#45;&gt;Node14 -->
<g id="edge38" class="edge"><title>Node27&#45;&gt;Node14</title>
<path fill="none" stroke="midnightblue" d="M1023.97,-74.5845C970.311,-65.0308 870.755,-47.1422 786,-31 779.348,-29.7331 772.36,-28.3772 765.453,-27.0219"/>
<polygon fill="midnightblue" stroke="midnightblue" points="765.928,-23.5482 755.439,-25.0471 764.573,-30.4159 765.928,-23.5482"/>
</g>
<!-- Node27&#45;&gt;Node15 -->
<g id="edge43" class="edge"><title>Node27&#45;&gt;Node15</title>
<path fill="none" stroke="midnightblue" d="M1023.87,-74.8304C980.242,-66.8186 907.947,-51.8089 848,-31 846.379,-30.4374 844.73,-29.8172 843.079,-29.1597"/>
<polygon fill="midnightblue" stroke="midnightblue" points="844.359,-25.8998 833.792,-25.1246 841.569,-32.3199 844.359,-25.8998"/>
</g>
<!-- Node27&#45;&gt;Node16 -->
<g id="edge47" class="edge"><title>Node27&#45;&gt;Node16</title>
<path fill="none" stroke="midnightblue" d="M1092.48,-72.9566C1123.91,-63.6003 1174.99,-47.6909 1218,-31 1219.42,-30.4483 1220.87,-29.8661 1222.33,-29.2646"/>
<polygon fill="midnightblue" stroke="midnightblue" points="1224.09,-32.318 1231.87,-25.1337 1221.3,-25.8939 1224.09,-32.318"/>
</g>
<!-- Node28 -->
<g id="node29" class="node"><title>Node28</title>
<polygon fill="white" stroke="#bfbfbf" points="1003,-6 1003,-25 1041,-25 1041,-6 1003,-6"/>
<text text-anchor="middle" x="1022" y="-13" font-family="FreeSans" font-size="10.00">array</text>
</g>
<!-- Node27&#45;&gt;Node28 -->
<g id="edge44" class="edge"><title>Node27&#45;&gt;Node28</title>
<path fill="none" stroke="midnightblue" d="M1057.47,-72.7338C1051.2,-62.7928 1040.82,-46.3377 1032.91,-33.7892"/>
<polygon fill="midnightblue" stroke="midnightblue" points="1035.74,-31.718 1027.44,-25.1273 1029.82,-35.4526 1035.74,-31.718"/>
</g>
<!-- Node29 -->
<g id="node30" class="node"><title>Node29</title>
<polygon fill="white" stroke="#bfbfbf" points="1507,-6 1507,-25 1563,-25 1563,-6 1507,-6"/>
<text text-anchor="middle" x="1535" y="-13" font-family="FreeSans" font-size="10.00">algorithm</text>
</g>
<!-- Node27&#45;&gt;Node29 -->
<g id="edge45" class="edge"><title>Node27&#45;&gt;Node29</title>
<path fill="none" stroke="midnightblue" d="M1102.18,-80.1958C1178.98,-76.9291 1354.25,-65.9612 1497,-31 1499.83,-30.3071 1502.73,-29.4611 1505.61,-28.5292"/>
<polygon fill="midnightblue" stroke="midnightblue" points="1506.93,-31.7756 1515.18,-25.1281 1504.59,-25.18 1506.93,-31.7756"/>
</g>
<!-- Node30 -->
<g id="node31" class="node"><title>Node30</title>
<polygon fill="white" stroke="#bfbfbf" points="1443.5,-6 1443.5,-25 1488.5,-25 1488.5,-6 1443.5,-6"/>
<text text-anchor="middle" x="1466" y="-13" font-family="FreeSans" font-size="10.00">climits</text>
</g>
<!-- Node27&#45;&gt;Node30 -->
<g id="edge46" class="edge"><title>Node27&#45;&gt;Node30</title>
<path fill="none" stroke="midnightblue" d="M1102.22,-79.8904C1170.76,-76.26 1316.25,-64.9058 1434,-31 1435.93,-30.443 1437.9,-29.7887 1439.86,-29.0714"/>
<polygon fill="midnightblue" stroke="midnightblue" points="1441.51,-32.178 1449.41,-25.1189 1438.83,-25.7104 1441.51,-32.178"/>
</g>
<!-- Node32 -->
<g id="node33" class="node"><title>Node32</title>
<g id="a_node33"><a xlink:href="Feature_8ipp.html" target="_top" xlink:title="Feature.ipp">
<polygon fill="white" stroke="black" points="1637.5,-201.5 1637.5,-220.5 1702.5,-220.5 1702.5,-201.5 1637.5,-201.5"/>
<text text-anchor="middle" x="1670" y="-208.5" font-family="FreeSans" font-size="10.00">Feature.ipp</text>
</a>
</g>
</g>
<!-- Node31&#45;&gt;Node32 -->
<g id="edge49" class="edge"><title>Node31&#45;&gt;Node32</title>
<path fill="none" stroke="midnightblue" d="M1658.86,-262.975C1660.72,-254.492 1663.62,-241.204 1666,-230.322"/>
<polygon fill="midnightblue" stroke="midnightblue" points="1669.43,-231.026 1668.14,-220.509 1662.59,-229.532 1669.43,-231.026"/>
</g>
<!-- Node32&#45;&gt;Node1 -->
<g id="edge50" class="edge"><title>Node32&#45;&gt;Node1</title>
<path fill="none" stroke="midnightblue" d="M1653.66,-201.34C1637.79,-192.721 1613.19,-178.818 1593,-165 1574.73,-152.493 1574.67,-141.931 1554,-134 1431.57,-87.0298 1095,-115.196 965,-98 834.61,-80.7525 682.996,-45.3871 610.265,-27.451"/>
<polygon fill="midnightblue" stroke="midnightblue" points="611.085,-24.0484 600.537,-25.0396 609.401,-30.8428 611.085,-24.0484"/>
</g>
<!-- Node32&#45;&gt;Node3 -->
<g id="edge78" class="edge"><title>Node32&#45;&gt;Node3</title>
<path fill="none" stroke="midnightblue" d="M1637.11,-210.156C1574.52,-209.496 1434.75,-203.403 1325,-165 1324.12,-164.691 1323.23,-164.346 1322.34,-163.972"/>
<polygon fill="midnightblue" stroke="midnightblue" points="1323.7,-160.733 1313.22,-159.21 1320.46,-166.939 1323.7,-160.733"/>
</g>
<!-- Node32&#45;&gt;Node4 -->
<g id="edge76" class="edge"><title>Node32&#45;&gt;Node4</title>
<path fill="none" stroke="midnightblue" d="M1637.42,-209.451C1586.81,-207.497 1487.2,-199.194 1411,-165 1390.8,-155.935 1392.74,-141.741 1372,-134 1196.33,-68.4489 710.859,-143.664 529,-98 472.596,-83.8372 412.67,-49.7908 381.566,-30.4821"/>
<polygon fill="midnightblue" stroke="midnightblue" points="383.2,-27.3746 372.875,-25.0012 379.466,-33.2957 383.2,-27.3746"/>
</g>
<!-- Node32&#45;&gt;Node5 -->
<g id="edge79" class="edge"><title>Node32&#45;&gt;Node5</title>
<path fill="none" stroke="midnightblue" d="M1637.28,-208.269C1582.47,-204.643 1469.15,-194.025 1378,-165 1376.34,-164.472 1374.66,-163.859 1372.98,-163.191"/>
<polygon fill="midnightblue" stroke="midnightblue" points="1374.23,-159.912 1363.68,-158.945 1371.32,-166.28 1374.23,-159.912"/>
</g>
<!-- Node32&#45;&gt;Node6 -->
<g id="edge74" class="edge"><title>Node32&#45;&gt;Node6</title>
<path fill="none" stroke="midnightblue" d="M1702.61,-209.836C1769.67,-208.735 1919.39,-202.079 1951,-165 1959.94,-154.516 1959.74,-144.652 1951,-134 1802.39,47.1337 1656.61,-104.051 1434,-31 1432.33,-30.4523 1430.63,-29.8378 1428.94,-29.1791"/>
<polygon fill="midnightblue" stroke="midnightblue" points="1430,-25.826 1419.43,-25.0826 1427.23,-32.2545 1430,-25.826"/>
</g>
<!-- Node32&#45;&gt;Node12 -->
<g id="edge51" class="edge"><title>Node32&#45;&gt;Node12</title>
<path fill="none" stroke="midnightblue" d="M1675.32,-201.371C1684.23,-185.711 1699.55,-152.521 1682,-134 1630.95,-80.1236 1083.81,-125.812 1015,-98 980.81,-84.1809 950.414,-52.5436 933.959,-33.0018"/>
<polygon fill="midnightblue" stroke="midnightblue" points="936.638,-30.7497 927.602,-25.2179 931.216,-35.1773 936.638,-30.7497"/>
</g>
<!-- Node32&#45;&gt;Node13 -->
<g id="edge52" class="edge"><title>Node32&#45;&gt;Node13</title>
<path fill="none" stroke="midnightblue" d="M1682.17,-201.272C1701.64,-186.308 1735.66,-155.31 1716,-134 1648.42,-60.7595 1363.85,-128.567 1269,-98 1223.51,-83.3414 1177.29,-50.779 1152.48,-31.5451"/>
<polygon fill="midnightblue" stroke="midnightblue" points="1154.37,-28.5751 1144.35,-25.1199 1150.03,-34.0668 1154.37,-28.5751"/>
</g>
<!-- Node32&#45;&gt;Node16 -->
<g id="edge80" class="edge"><title>Node32&#45;&gt;Node16</title>
<path fill="none" stroke="midnightblue" d="M1702.52,-205.58C1757.44,-196.887 1859.04,-174.771 1821,-134 1742.13,-49.4699 1401.39,-157.049 1302,-98 1278.14,-83.8231 1263.4,-53.9518 1255.96,-34.5793"/>
<polygon fill="midnightblue" stroke="midnightblue" points="1259.23,-33.3058 1252.57,-25.0633 1252.63,-35.658 1259.23,-33.3058"/>
</g>
<!-- Node32&#45;&gt;Node17 -->
<g id="edge77" class="edge"><title>Node32&#45;&gt;Node17</title>
<path fill="none" stroke="midnightblue" d="M1637.31,-210.372C1568.82,-210.268 1405.95,-205.372 1277,-165 1275.57,-164.553 1274.13,-164.029 1272.7,-163.451"/>
<polygon fill="midnightblue" stroke="midnightblue" points="1274.1,-160.241 1263.57,-159.079 1271.08,-166.555 1274.1,-160.241"/>
</g>
<!-- Node32&#45;&gt;Node19 -->
<g id="edge83" class="edge"><title>Node32&#45;&gt;Node19</title>
<path fill="none" stroke="midnightblue" d="M1637.27,-208.304C1547.84,-203.415 1300.84,-188.152 1223,-165 1221.52,-164.561 1220.03,-164.044 1218.55,-163.47"/>
<polygon fill="midnightblue" stroke="midnightblue" points="1219.64,-160.118 1209.09,-159.112 1216.71,-166.476 1219.64,-160.118"/>
</g>
<!-- Node32&#45;&gt;Node21 -->
<g id="edge92" class="edge"><title>Node32&#45;&gt;Node21</title>
<path fill="none" stroke="midnightblue" d="M1637.49,-207.13C1530.62,-197.696 1189.22,-167.558 1052.96,-155.528"/>
<polygon fill="midnightblue" stroke="midnightblue" points="1053,-152.019 1042.73,-154.626 1052.39,-158.992 1053,-152.019"/>
</g>
<!-- Node32&#45;&gt;Node23 -->
<g id="edge96" class="edge"><title>Node32&#45;&gt;Node23</title>
<path fill="none" stroke="midnightblue" d="M1637.17,-209.87C1487.99,-209.075 859.136,-203.486 345,-165 328.763,-163.785 311.385,-162.048 294.907,-160.196"/>
<polygon fill="midnightblue" stroke="midnightblue" points="295.116,-156.697 284.781,-159.032 294.316,-163.652 295.116,-156.697"/>
</g>
<!-- Node32&#45;&gt;Node26 -->
<g id="edge84" class="edge"><title>Node32&#45;&gt;Node26</title>
<path fill="none" stroke="midnightblue" d="M1665.42,-201.475C1660.76,-192.815 1653.41,-179.149 1647.49,-168.145"/>
<polygon fill="midnightblue" stroke="midnightblue" points="1650.4,-166.158 1642.58,-159.009 1644.23,-169.474 1650.4,-166.158"/>
</g>
<!-- Node32&#45;&gt;Node30 -->
<g id="edge81" class="edge"><title>Node32&#45;&gt;Node30</title>
<path fill="none" stroke="midnightblue" d="M1702.57,-209.293C1802.9,-206.783 2102.26,-196.679 2131,-165 2140.26,-154.795 2136.13,-146.789 2131,-134 2115.68,-95.7766 2104.33,-84.3814 2067,-67 1952.14,-13.5235 1620.93,-61.6473 1498,-31 1495.79,-30.4486 1493.54,-29.7491 1491.31,-28.9566"/>
<polygon fill="midnightblue" stroke="midnightblue" points="1492.45,-25.6382 1481.87,-25.0568 1489.78,-32.1084 1492.45,-25.6382"/>
</g>
<!-- Node33 -->
<g id="node34" class="node"><title>Node33</title>
<g id="a_node34"><a xlink:href="boost__dynamic__bitset_8hpp.html" target="_top" xlink:title="../Modified/boost_dynamic\l_bitset.hpp">
<polygon fill="white" stroke="black" points="2178,-67.5 2178,-97.5 2306,-97.5 2306,-67.5 2178,-67.5"/>
<text text-anchor="start" x="2186" y="-85.5" font-family="FreeSans" font-size="10.00">../Modified/boost_dynamic</text>
<text text-anchor="middle" x="2242" y="-74.5" font-family="FreeSans" font-size="10.00">_bitset.hpp</text>
</a>
</g>
</g>
<!-- Node32&#45;&gt;Node33 -->
<g id="edge53" class="edge"><title>Node32&#45;&gt;Node33</title>
<path fill="none" stroke="midnightblue" d="M1702.84,-209.974C1799.63,-209.437 2082.15,-204.445 2164,-165 2191.08,-151.949 2213.73,-125.249 2227.52,-105.96"/>
<polygon fill="midnightblue" stroke="midnightblue" points="2230.43,-107.913 2233.22,-97.694 2224.66,-103.94 2230.43,-107.913"/>
</g>
<!-- Node40 -->
<g id="node41" class="node"><title>Node40</title>
<polygon fill="white" stroke="#bfbfbf" points="3376,-6 3376,-25 3428,-25 3428,-6 3376,-6"/>
<text text-anchor="middle" x="3402" y="-13" font-family="FreeSans" font-size="10.00">ostream</text>
</g>
<!-- Node32&#45;&gt;Node40 -->
<g id="edge75" class="edge"><title>Node32&#45;&gt;Node40</title>
<path fill="none" stroke="midnightblue" d="M1702.72,-207.536C1785.53,-201.229 2010.15,-183.674 2197,-165 2717.8,-112.952 2860.31,-162.213 3367,-31 3369.51,-30.3508 3372.07,-29.5582 3374.61,-28.6818"/>
<polygon fill="midnightblue" stroke="midnightblue" points="3376.09,-31.8662 3384.16,-25.0118 3373.57,-25.3321 3376.09,-31.8662"/>
</g>
<!-- Node51 -->
<g id="node52" class="node"><title>Node51</title>
<polygon fill="white" stroke="#bfbfbf" points="1768.5,-140 1768.5,-159 1811.5,-159 1811.5,-140 1768.5,-140"/>
<text text-anchor="middle" x="1790" y="-147" font-family="FreeSans" font-size="10.00">queue</text>
</g>
<!-- Node32&#45;&gt;Node51 -->
<g id="edge82" class="edge"><title>Node32&#45;&gt;Node51</title>
<path fill="none" stroke="midnightblue" d="M1687.19,-201.475C1707.24,-191.534 1740.6,-174.995 1763.86,-163.461"/>
<polygon fill="midnightblue" stroke="midnightblue" points="1765.43,-166.587 1772.84,-159.009 1762.32,-160.316 1765.43,-166.587"/>
</g>
<!-- Node52 -->
<g id="node53" class="node"><title>Node52</title>
<g id="a_node53"><a xlink:href="Descriptor_8h.html" target="_top" xlink:title="Descriptor.h">
<polygon fill="white" stroke="black" points="2054,-140 2054,-159 2122,-159 2122,-140 2054,-140"/>
<text text-anchor="middle" x="2088" y="-147" font-family="FreeSans" font-size="10.00">Descriptor.h</text>
</a>
</g>
</g>
<!-- Node32&#45;&gt;Node52 -->
<g id="edge85" class="edge"><title>Node32&#45;&gt;Node52</title>
<path fill="none" stroke="midnightblue" d="M1702.98,-207.904C1768.01,-203.352 1917.15,-190.825 2040,-165 2044.22,-164.114 2048.6,-163.028 2052.92,-161.853"/>
<polygon fill="midnightblue" stroke="midnightblue" points="2054.16,-165.137 2062.8,-159.002 2052.22,-158.411 2054.16,-165.137"/>
</g>
<!-- Node53 -->
<g id="node54" class="node"><title>Node53</title>
<g id="a_node54"><a xlink:href="RoI_8h.html" target="_top" xlink:title="RoI.h">
<polygon fill="white" stroke="black" points="1311.5,-73 1311.5,-92 1350.5,-92 1350.5,-73 1311.5,-73"/>
<text text-anchor="middle" x="1331" y="-80" font-family="FreeSans" font-size="10.00">RoI.h</text>
</a>
</g>
</g>
<!-- Node32&#45;&gt;Node53 -->
<g id="edge89" class="edge"><title>Node32&#45;&gt;Node53</title>
<path fill="none" stroke="midnightblue" d="M1702.6,-210.619C1786.17,-211.209 1997.04,-205.831 1931,-134 1892.1,-91.6929 1477.29,-84.8064 1361.1,-83.7055"/>
<polygon fill="midnightblue" stroke="midnightblue" points="1360.84,-80.2032 1350.81,-83.616 1360.78,-87.203 1360.84,-80.2032"/>
</g>
<!-- Node54 -->
<g id="node55" class="node"><title>Node54</title>
<g id="a_node55"><a xlink:href="TaggedData_8h.html" target="_top" xlink:title="../DataStructures/Tagged\lData.h">
<polygon fill="white" stroke="black" points="1420.5,-134.5 1420.5,-164.5 1545.5,-164.5 1545.5,-134.5 1420.5,-134.5"/>
<text text-anchor="start" x="1428.5" y="-152.5" font-family="FreeSans" font-size="10.00">../DataStructures/Tagged</text>
<text text-anchor="middle" x="1483" y="-141.5" font-family="FreeSans" font-size="10.00">Data.h</text>
</a>
</g>
</g>
<!-- Node32&#45;&gt;Node54 -->
<g id="edge93" class="edge"><title>Node32&#45;&gt;Node54</title>
<path fill="none" stroke="midnightblue" d="M1643.21,-201.475C1615.51,-192.664 1571.53,-178.668 1536.65,-167.57"/>
<polygon fill="midnightblue" stroke="midnightblue" points="1537.66,-164.22 1527.07,-164.523 1535.54,-170.89 1537.66,-164.22"/>
</g>
<!-- Node56 -->
<g id="node57" class="node"><title>Node56</title>
<polygon fill="white" stroke="#bfbfbf" points="1868,-140 1868,-159 1922,-159 1922,-140 1868,-140"/>
<text text-anchor="middle" x="1895" y="-147" font-family="FreeSans" font-size="10.00">iostream</text>
</g>
<!-- Node32&#45;&gt;Node56 -->
<g id="edge97" class="edge"><title>Node32&#45;&gt;Node56</title>
<path fill="none" stroke="midnightblue" d="M1702.5,-203.084C1739.48,-194.979 1801.53,-180.652 1854,-165 1856.78,-164.17 1859.65,-163.263 1862.52,-162.32"/>
<polygon fill="midnightblue" stroke="midnightblue" points="1863.81,-165.578 1872.15,-159.037 1861.55,-158.952 1863.81,-165.578"/>
</g>
<!-- Node33&#45;&gt;Node6 -->
<g id="edge58" class="edge"><title>Node33&#45;&gt;Node6</title>
<path fill="none" stroke="midnightblue" d="M2177.97,-72.6541C2161.09,-70.5536 2142.88,-68.4922 2126,-67 1972.61,-53.4413 1583.4,-68.3118 1434,-31 1432.01,-30.5033 1430,-29.8771 1428,-29.1654"/>
<polygon fill="midnightblue" stroke="midnightblue" points="1428.91,-25.7533 1418.34,-25.0972 1426.19,-32.2044 1428.91,-25.7533"/>
</g>
<!-- Node33&#45;&gt;Node29 -->
<g id="edge57" class="edge"><title>Node33&#45;&gt;Node29</title>
<path fill="none" stroke="midnightblue" d="M2177.82,-68.9227C2173.16,-68.2067 2168.51,-67.5544 2164,-67 1902.37,-34.8508 1829.41,-87.7827 1572,-31 1569,-30.3377 1565.92,-29.4666 1562.88,-28.4795"/>
<polygon fill="midnightblue" stroke="midnightblue" points="1564.06,-25.1839 1553.47,-25.0445 1561.66,-31.76 1564.06,-25.1839"/>
</g>
<!-- Node33&#45;&gt;Node30 -->
<g id="edge59" class="edge"><title>Node33&#45;&gt;Node30</title>
<path fill="none" stroke="midnightblue" d="M2177.83,-68.8881C2173.16,-68.1803 2168.51,-67.5392 2164,-67 1869.66,-31.8371 1785.96,-101.384 1498,-31 1495.79,-30.4587 1493.54,-29.7665 1491.31,-28.9788"/>
<polygon fill="midnightblue" stroke="midnightblue" points="1492.44,-25.66 1481.86,-25.0876 1489.77,-32.1324 1492.44,-25.66"/>
</g>
<!-- Node34 -->
<g id="node35" class="node"><title>Node34</title>
<polygon fill="white" stroke="#bfbfbf" points="2293.5,-6 2293.5,-25 2344.5,-25 2344.5,-6 2293.5,-6"/>
<text text-anchor="middle" x="2319" y="-13" font-family="FreeSans" font-size="10.00">assert.h</text>
</g>
<!-- Node33&#45;&gt;Node34 -->
<g id="edge54" class="edge"><title>Node33&#45;&gt;Node34</title>
<path fill="none" stroke="midnightblue" d="M2258.71,-67.396C2271.19,-56.8597 2288.23,-42.4771 2301.01,-31.6886"/>
<polygon fill="midnightblue" stroke="midnightblue" points="2303.32,-34.3196 2308.7,-25.1945 2298.8,-28.9706 2303.32,-34.3196"/>
</g>
<!-- Node35 -->
<g id="node36" class="node"><title>Node35</title>
<polygon fill="white" stroke="#bfbfbf" points="2362.5,-6 2362.5,-25 2403.5,-25 2403.5,-6 2362.5,-6"/>
<text text-anchor="middle" x="2383" y="-13" font-family="FreeSans" font-size="10.00">string</text>
</g>
<!-- Node33&#45;&gt;Node35 -->
<g id="edge55" class="edge"><title>Node33&#45;&gt;Node35</title>
<path fill="none" stroke="midnightblue" d="M2274.02,-67.471C2296.5,-57.52 2327.22,-43.7254 2354,-31 2354.99,-30.5289 2356,-30.0454 2357.02,-29.5542"/>
<polygon fill="midnightblue" stroke="midnightblue" points="2358.76,-32.5998 2366.19,-25.0487 2355.67,-26.3171 2358.76,-32.5998"/>
</g>
<!-- Node36 -->
<g id="node37" class="node"><title>Node36</title>
<polygon fill="white" stroke="#bfbfbf" points="2421.5,-6 2421.5,-25 2480.5,-25 2480.5,-6 2421.5,-6"/>
<text text-anchor="middle" x="2451" y="-13" font-family="FreeSans" font-size="10.00">stdexcept</text>
</g>
<!-- Node33&#45;&gt;Node36 -->
<g id="edge56" class="edge"><title>Node33&#45;&gt;Node36</title>
<path fill="none" stroke="midnightblue" d="M2293.2,-67.4973C2327.35,-57.8863 2373.12,-44.4761 2413,-31 2415.26,-30.2371 2417.58,-29.4234 2419.91,-28.5855"/>
<polygon fill="midnightblue" stroke="midnightblue" points="2421.24,-31.8266 2429.4,-25.0729 2418.81,-25.2619 2421.24,-31.8266"/>
</g>
<!-- Node37 -->
<g id="node38" class="node"><title>Node37</title>
<polygon fill="white" stroke="#bfbfbf" points="2498.5,-0.5 2498.5,-30.5 2607.5,-30.5 2607.5,-0.5 2498.5,-0.5"/>
<text text-anchor="start" x="2506.5" y="-18.5" font-family="FreeSans" font-size="10.00">boost/dynamic_bitset</text>
<text text-anchor="middle" x="2553" y="-7.5" font-family="FreeSans" font-size="10.00">/config.hpp</text>
</g>
<!-- Node33&#45;&gt;Node37 -->
<g id="edge60" class="edge"><title>Node33&#45;&gt;Node37</title>
<path fill="none" stroke="midnightblue" d="M2306.07,-68.9177C2353.85,-59.4269 2420.98,-45.8692 2488.43,-31.314"/>
<polygon fill="midnightblue" stroke="midnightblue" points="2489.35,-34.6962 2498.38,-29.1596 2487.87,-27.8547 2489.35,-34.6962"/>
</g>
<!-- Node38 -->
<g id="node39" class="node"><title>Node38</title>
<polygon fill="white" stroke="#bfbfbf" points="2626,-6 2626,-25 2668,-25 2668,-6 2626,-6"/>
<text text-anchor="middle" x="2647" y="-13" font-family="FreeSans" font-size="10.00">locale</text>
</g>
<!-- Node33&#45;&gt;Node38 -->
<g id="edge61" class="edge"><title>Node33&#45;&gt;Node38</title>
<path fill="none" stroke="midnightblue" d="M2306.22,-69.2296C2310.88,-68.4416 2315.51,-67.6892 2320,-67 2451.43,-46.8391 2489.41,-68.4386 2617,-31 2618.87,-30.4503 2620.77,-29.7935 2622.66,-29.0674"/>
<polygon fill="midnightblue" stroke="midnightblue" points="2624.08,-32.2688 2631.82,-25.0345 2621.26,-25.8627 2624.08,-32.2688"/>
</g>
<!-- Node39 -->
<g id="node40" class="node"><title>Node39</title>
<polygon fill="white" stroke="#bfbfbf" points="2686.5,-6 2686.5,-25 2735.5,-25 2735.5,-6 2686.5,-6"/>
<text text-anchor="middle" x="2711" y="-13" font-family="FreeSans" font-size="10.00">istream</text>
</g>
<!-- Node33&#45;&gt;Node39 -->
<g id="edge62" class="edge"><title>Node33&#45;&gt;Node39</title>
<path fill="none" stroke="midnightblue" d="M2306.2,-69.1266C2310.86,-68.3628 2315.5,-67.6439 2320,-67 2477.86,-44.4074 2522.56,-70.7332 2677,-31 2679.36,-30.3929 2681.77,-29.647 2684.16,-28.8167"/>
<polygon fill="midnightblue" stroke="midnightblue" points="2685.68,-31.9799 2693.71,-25.0685 2683.12,-25.4637 2685.68,-31.9799"/>
</g>
<!-- Node33&#45;&gt;Node40 -->
<g id="edge63" class="edge"><title>Node33&#45;&gt;Node40</title>
<path fill="none" stroke="midnightblue" d="M2306.16,-68.7872C2310.83,-68.1031 2315.48,-67.4948 2320,-67 2551.42,-41.6549 3139.48,-80.3419 3367,-31 3369.68,-30.4189 3372.41,-29.6425 3375.12,-28.7499"/>
<polygon fill="midnightblue" stroke="midnightblue" points="3376.49,-31.9728 3384.59,-25.1489 3374,-25.4292 3376.49,-31.9728"/>
</g>
<!-- Node41 -->
<g id="node42" class="node"><title>Node41</title>
<polygon fill="white" stroke="#bfbfbf" points="2753.5,-0.5 2753.5,-30.5 2862.5,-30.5 2862.5,-0.5 2753.5,-0.5"/>
<text text-anchor="start" x="2761.5" y="-18.5" font-family="FreeSans" font-size="10.00">boost/dynamic_bitset</text>
<text text-anchor="middle" x="2808" y="-7.5" font-family="FreeSans" font-size="10.00">_fwd.hpp</text>
</g>
<!-- Node33&#45;&gt;Node41 -->
<g id="edge64" class="edge"><title>Node33&#45;&gt;Node41</title>
<path fill="none" stroke="midnightblue" d="M2306.19,-69.0446C2310.86,-68.3001 2315.5,-67.6079 2320,-67 2504.65,-42.079 2555.97,-59.707 2743.55,-31.0869"/>
<polygon fill="midnightblue" stroke="midnightblue" points="2744.11,-34.5415 2753.46,-29.5516 2743.04,-27.6241 2744.11,-34.5415"/>
</g>
<!-- Node42 -->
<g id="node43" class="node"><title>Node42</title>
<polygon fill="white" stroke="#bfbfbf" points="2881,-0.5 2881,-30.5 2987,-30.5 2987,-0.5 2881,-0.5"/>
<text text-anchor="start" x="2889" y="-18.5" font-family="FreeSans" font-size="10.00">boost/detail/dynamic</text>
<text text-anchor="middle" x="2934" y="-7.5" font-family="FreeSans" font-size="10.00">_bitset.hpp</text>
</g>
<!-- Node33&#45;&gt;Node42 -->
<g id="edge65" class="edge"><title>Node33&#45;&gt;Node42</title>
<path fill="none" stroke="midnightblue" d="M2306.18,-68.9452C2310.85,-68.224 2315.49,-67.5643 2320,-67 2560.62,-36.8966 2627.01,-66.2897 2870.45,-31.0618"/>
<polygon fill="midnightblue" stroke="midnightblue" points="2871.29,-34.4758 2880.67,-29.5593 2870.27,-27.5502 2871.29,-34.4758"/>
</g>
<!-- Node43 -->
<g id="node44" class="node"><title>Node43</title>
<polygon fill="white" stroke="#bfbfbf" points="3005,-6 3005,-25 3123,-25 3123,-6 3005,-6"/>
<text text-anchor="middle" x="3064" y="-13" font-family="FreeSans" font-size="10.00">boost/detail/iterator.hpp</text>
</g>
<!-- Node33&#45;&gt;Node43 -->
<g id="edge66" class="edge"><title>Node33&#45;&gt;Node43</title>
<path fill="none" stroke="midnightblue" d="M2306.17,-68.884C2310.84,-68.1771 2315.49,-67.5374 2320,-67 2618.76,-31.4297 2697.73,-70.4942 2996,-31 3003.57,-29.9974 3011.55,-28.6047 3019.28,-27.0758"/>
<polygon fill="midnightblue" stroke="midnightblue" points="3020.16,-30.4685 3029.24,-25.009 3018.74,-23.6146 3020.16,-30.4685"/>
</g>
<!-- Node44 -->
<g id="node45" class="node"><title>Node44</title>
<polygon fill="white" stroke="#bfbfbf" points="3141.5,-6 3141.5,-25 3254.5,-25 3254.5,-6 3141.5,-6"/>
<text text-anchor="middle" x="3198" y="-13" font-family="FreeSans" font-size="10.00">boost/move/move.hpp</text>
</g>
<!-- Node33&#45;&gt;Node44 -->
<g id="edge67" class="edge"><title>Node33&#45;&gt;Node44</title>
<path fill="none" stroke="midnightblue" d="M2306.17,-68.8383C2310.84,-68.1421 2315.48,-67.5173 2320,-67 2678.9,-25.8885 2773.82,-77.9311 3132,-31 3139.36,-30.036 3147.11,-28.6632 3154.61,-27.1425"/>
<polygon fill="midnightblue" stroke="midnightblue" points="3155.57,-30.5153 3164.62,-25.0016 3154.11,-23.67 3155.57,-30.5153"/>
</g>
<!-- Node45 -->
<g id="node46" class="node"><title>Node45</title>
<polygon fill="white" stroke="#bfbfbf" points="3272.5,-6 3272.5,-25 3357.5,-25 3357.5,-6 3272.5,-6"/>
<text text-anchor="middle" x="3315" y="-13" font-family="FreeSans" font-size="10.00">boost/limits.hpp</text>
</g>
<!-- Node33&#45;&gt;Node45 -->
<g id="edge68" class="edge"><title>Node33&#45;&gt;Node45</title>
<path fill="none" stroke="midnightblue" d="M2306.16,-68.8064C2310.83,-68.1178 2315.48,-67.5033 2320,-67 2737.28,-20.5085 2849.34,-96.8802 3264,-31 3269.15,-30.1815 3274.52,-29.0147 3279.76,-27.6941"/>
<polygon fill="midnightblue" stroke="midnightblue" points="3280.86,-31.0232 3289.58,-25.0158 3279.02,-24.2697 3280.86,-31.0232"/>
</g>
<!-- Node46 -->
<g id="node47" class="node"><title>Node46</title>
<polygon fill="white" stroke="#bfbfbf" points="1581.5,-0.5 1581.5,-30.5 1690.5,-30.5 1690.5,-0.5 1581.5,-0.5"/>
<text text-anchor="start" x="1589.5" y="-18.5" font-family="FreeSans" font-size="10.00">boost/pending/lowest</text>
<text text-anchor="middle" x="1636" y="-7.5" font-family="FreeSans" font-size="10.00">_bit.hpp</text>
</g>
<!-- Node33&#45;&gt;Node46 -->
<g id="edge69" class="edge"><title>Node33&#45;&gt;Node46</title>
<path fill="none" stroke="midnightblue" d="M2177.81,-69.0083C2173.15,-68.2723 2168.51,-67.592 2164,-67 1962.12,-40.481 1906.25,-61.2622 1700.62,-30.9293"/>
<polygon fill="midnightblue" stroke="midnightblue" points="1701.12,-27.4654 1690.71,-29.4458 1700.08,-34.3883 1701.12,-27.4654"/>
</g>
<!-- Node47 -->
<g id="node48" class="node"><title>Node47</title>
<polygon fill="white" stroke="#bfbfbf" points="1709,-6 1709,-25 1827,-25 1827,-6 1709,-6"/>
<text text-anchor="middle" x="1768" y="-13" font-family="FreeSans" font-size="10.00">boost/static_assert.hpp</text>
</g>
<!-- Node33&#45;&gt;Node47 -->
<g id="edge70" class="edge"><title>Node33&#45;&gt;Node47</title>
<path fill="none" stroke="midnightblue" d="M2177.79,-69.1717C2173.13,-68.3974 2168.5,-67.6638 2164,-67 2018.92,-45.5835 1980.79,-54.3216 1836,-31 1829.11,-29.8908 1821.87,-28.5437 1814.79,-27.1225"/>
<polygon fill="midnightblue" stroke="midnightblue" points="1815.08,-23.6085 1804.58,-25.0063 1813.66,-30.4629 1815.08,-23.6085"/>
</g>
<!-- Node48 -->
<g id="node49" class="node"><title>Node48</title>
<polygon fill="white" stroke="#bfbfbf" points="1845,-6 1845,-25 1975,-25 1975,-6 1845,-6"/>
<text text-anchor="middle" x="1910" y="-13" font-family="FreeSans" font-size="10.00">boost/utility/addressof.hpp</text>
</g>
<!-- Node33&#45;&gt;Node48 -->
<g id="edge71" class="edge"><title>Node33&#45;&gt;Node48</title>
<path fill="none" stroke="midnightblue" d="M2177.85,-68.9478C2125.65,-58.7321 2050.07,-43.9385 1984,-31 1977.35,-29.6983 1970.37,-28.3306 1963.46,-26.9766"/>
<polygon fill="midnightblue" stroke="midnightblue" points="1963.92,-23.5002 1953.43,-25.0121 1962.57,-30.3696 1963.92,-23.5002"/>
</g>
<!-- Node49 -->
<g id="node50" class="node"><title>Node49</title>
<polygon fill="white" stroke="#bfbfbf" points="1993,-0.5 1993,-30.5 2125,-30.5 2125,-0.5 1993,-0.5"/>
<text text-anchor="start" x="2001" y="-18.5" font-family="FreeSans" font-size="10.00">boost/detail/no_exceptions</text>
<text text-anchor="middle" x="2059" y="-7.5" font-family="FreeSans" font-size="10.00">_support.hpp</text>
</g>
<!-- Node33&#45;&gt;Node49 -->
<g id="edge72" class="edge"><title>Node33&#45;&gt;Node49</title>
<path fill="none" stroke="midnightblue" d="M2202.29,-67.396C2174.71,-57.6006 2137.78,-44.4809 2108.31,-34.0153"/>
<polygon fill="midnightblue" stroke="midnightblue" points="2109.23,-30.6255 2098.63,-30.5765 2106.88,-37.2218 2109.23,-30.6255"/>
</g>
<!-- Node50 -->
<g id="node51" class="node"><title>Node50</title>
<polygon fill="white" stroke="#bfbfbf" points="2143,-6 2143,-25 2275,-25 2275,-6 2143,-6"/>
<text text-anchor="middle" x="2209" y="-13" font-family="FreeSans" font-size="10.00">boost/throw_exception.hpp</text>
</g>
<!-- Node33&#45;&gt;Node50 -->
<g id="edge73" class="edge"><title>Node33&#45;&gt;Node50</title>
<path fill="none" stroke="midnightblue" d="M2234.84,-67.396C2229.9,-57.6624 2223.29,-44.6464 2217.99,-34.2139"/>
<polygon fill="midnightblue" stroke="midnightblue" points="2221.06,-32.5268 2213.41,-25.1945 2214.82,-35.6957 2221.06,-32.5268"/>
</g>
<!-- Node52&#45;&gt;Node2 -->
<g id="edge87" class="edge"><title>Node52&#45;&gt;Node2</title>
<path fill="none" stroke="midnightblue" d="M2078.65,-139.794C2059.15,-122.244 2011.91,-82.9358 1964,-67 1713.88,16.1936 1631.04,-79.8056 1372,-31 1367.83,-30.2135 1363.5,-29.1525 1359.26,-27.9601"/>
<polygon fill="midnightblue" stroke="midnightblue" points="1360.19,-24.5865 1349.61,-25.0065 1358.14,-31.28 1360.19,-24.5865"/>
</g>
<!-- Node52&#45;&gt;Node6 -->
<g id="edge88" class="edge"><title>Node52&#45;&gt;Node6</title>
<path fill="none" stroke="midnightblue" d="M2085.85,-139.935C2081.01,-122.646 2067.46,-83.7935 2040,-67 1924.92,3.39025 1564.76,-64.1696 1434,-31 1432.01,-30.496 1430,-29.8645 1428,-29.149"/>
<polygon fill="midnightblue" stroke="midnightblue" points="1428.92,-25.7371 1418.34,-25.0732 1426.2,-32.1862 1428.92,-25.7371"/>
</g>
<!-- Node52&#45;&gt;Node33 -->
<g id="edge86" class="edge"><title>Node52&#45;&gt;Node33</title>
<path fill="none" stroke="midnightblue" d="M2108.45,-139.869C2131.56,-130.115 2169.81,-113.97 2199.47,-101.452"/>
<polygon fill="midnightblue" stroke="midnightblue" points="2200.91,-104.641 2208.76,-97.5281 2198.19,-98.1922 2200.91,-104.641"/>
</g>
<!-- Node53&#45;&gt;Node2 -->
<g id="edge90" class="edge"><title>Node53&#45;&gt;Node2</title>
<path fill="none" stroke="midnightblue" d="M1330.46,-72.7338C1329.87,-63.1826 1328.91,-47.6183 1328.16,-35.2829"/>
<polygon fill="midnightblue" stroke="midnightblue" points="1331.64,-34.8934 1327.53,-25.1273 1324.65,-35.3234 1331.64,-34.8934"/>
</g>
<!-- Node53&#45;&gt;Node6 -->
<g id="edge91" class="edge"><title>Node53&#45;&gt;Node6</title>
<path fill="none" stroke="midnightblue" d="M1340.71,-72.7338C1352.26,-62.3055 1371.75,-44.7088 1385.86,-31.9732"/>
<polygon fill="midnightblue" stroke="midnightblue" points="1388.37,-34.4263 1393.44,-25.1273 1383.68,-29.2304 1388.37,-34.4263"/>
</g>
<!-- Node55 -->
<g id="node56" class="node"><title>Node55</title>
<g id="a_node56"><a xlink:href="TaggedData_8ipp.html" target="_top" xlink:title="TaggedData.ipp">
<polygon fill="white" stroke="black" points="682,-73 682,-92 766,-92 766,-73 682,-73"/>
<text text-anchor="middle" x="724" y="-80" font-family="FreeSans" font-size="10.00">TaggedData.ipp</text>
</a>
</g>
</g>
<!-- Node54&#45;&gt;Node55 -->
<g id="edge94" class="edge"><title>Node54&#45;&gt;Node55</title>
<path fill="none" stroke="midnightblue" d="M1420.48,-136.082C1415.59,-135.308 1410.72,-134.601 1406,-134 1168.71,-103.813 1107.37,-117.903 869,-98 838.261,-95.4334 803.912,-92.0226 776.364,-89.1538"/>
<polygon fill="midnightblue" stroke="midnightblue" points="776.471,-85.6459 766.16,-88.0838 775.741,-92.6078 776.471,-85.6459"/>
</g>
<!-- Node55&#45;&gt;Node1 -->
<g id="edge95" class="edge"><title>Node55&#45;&gt;Node1</title>
<path fill="none" stroke="midnightblue" d="M703.152,-72.8685C676.056,-61.6504 628.536,-41.9766 597.416,-29.0925"/>
<polygon fill="midnightblue" stroke="midnightblue" points="598.513,-25.7587 587.935,-25.1672 595.835,-32.2263 598.513,-25.7587"/>
</g>
</g>
</svg>
        <g id="navigator" transform="translate(0 0)" fill="#404254">
                <rect fill="#f2f5e9" fill-opacity="0.5" stroke="#606060" stroke-width=".5" x="0" y="0" width="60" height="60"/>
                <use id="zoomplus" xlink:href="#zoomPlus" x="17" y="9" onmousedown="handleZoom(evt,'in')"/>
                <use id="zoomminus" xlink:href="#zoomMin" x="42" y="9" onmousedown="handleZoom(evt,'out')"/>
                <use id="reset" xlink:href="#resetDef" x="30" y="36" onmousedown="handleReset()"/>
                <g id="arrowUp" xlink:href="#dirArrow" transform="translate(30 24)" onmousedown="handlePan(0,-1)">
                  <use xlink:href="#rim" fill="#404040">
                        <set attributeName="fill" to="#808080" begin="arrowUp.mouseover" end="arrowUp.mouseout"/>
                  </use>
                  <path fill="none" stroke="white" stroke-width="1.5" d="M0,-3.0v7 M-2.5,-0.5L0,-3.0L2.5,-0.5"/>
                </g>
                <g id="arrowRight" xlink:href="#dirArrow" transform="rotate(90) translate(36 -43)" onmousedown="handlePan(1,0)">
                  <use xlink:href="#rim" fill="#404040">
                        <set attributeName="fill" to="#808080" begin="arrowRight.mouseover" end="arrowRight.mouseout"/>
                  </use>
                  <path fill="none" stroke="white" stroke-width="1.5" d="M0,-3.0v7 M-2.5,-0.5L0,-3.0L2.5,-0.5"/>
                </g>
                <g id="arrowDown" xlink:href="#dirArrow" transform="rotate(180) translate(-30 -48)" onmousedown="handlePan(0,1)">
                  <use xlink:href="#rim" fill="#404040">
                        <set attributeName="fill" to="#808080" begin="arrowDown.mouseover" end="arrowDown.mouseout"/>
                  </use>
                  <path fill="none" stroke="white" stroke-width="1.5" d="M0,-3.0v7 M-2.5,-0.5L0,-3.0L2.5,-0.5"/>
                </g>
                <g id="arrowLeft" xlink:href="#dirArrow" transform="rotate(270) translate(-36 17)" onmousedown="handlePan(-1,0)">
                  <use xlink:href="#rim" fill="#404040">
                        <set attributeName="fill" to="#808080" begin="arrowLeft.mouseover" end="arrowLeft.mouseout"/>
                  </use>
                  <path fill="none" stroke="white" stroke-width="1.5" d="M0,-3.0v7 M-2.5,-0.5L0,-3.0L2.5,-0.5"/>
                </g>
        </g>
        <svg viewBox="0 0 15 15" width="100%" height="30px" preserveAspectRatio="xMaxYMin meet">
         <g id="arrow_out" transform="scale(0.3 0.3)">
          <a xlink:href="GeometrySolverConcept_8ipp__incl_org.svg" target="_base">
           <rect id="button" ry="5" rx="5" y="6" x="6" height="38" width="38"
                fill="#f2f5e9" fill-opacity="0.5" stroke="#606060" stroke-width="1.0"/>
           <path id="arrow"
             d="M 11.500037,31.436501 C 11.940474,20.09759 22.043105,11.32322 32.158766,21.979434 L 37.068811,17.246167 C 37.068811,17.246167 37.088388,32 37.088388,32 L 22.160133,31.978069 C 22.160133,31.978069 26.997745,27.140456 26.997745,27.140456 C 18.528582,18.264221 13.291696,25.230495 11.500037,31.436501 z"
             style="fill:#404040;"/>
          </a>
         </g>
        </svg>
</svg>
