<?xml version="1.0" encoding="UTF-8" standalone="no"?>
<!DOCTYPE svg PUBLIC "-//W3C//DTD SVG 1.1//EN"
 "http://www.w3.org/Graphics/SVG/1.1/DTD/svg11.dtd">
<!-- Generated by graphviz version 2.38.0 (20140413.2041)
 -->
<!-- Title: src/Elements/GeometricEntity.h Pages: 1 -->
<!--zoomable 531 -->
<svg id="main" version="1.1" xmlns="http://www.w3.org/2000/svg" xmlns:xlink="http://www.w3.org/1999/xlink" xml:space="preserve" onload="init(evt)">
<style type="text/css"><![CDATA[
.edge:hover path { stroke: red; }
.edge:hover polygon { stroke: red; fill: red; }
]]></style>
<script type="text/javascript"><![CDATA[
var edges = document.getElementsByTagName('g');
if (edges && edges.length) {
  for (var i=0;i<edges.length;i++) {
    if (edges[i].id.substr(0,4)=='edge') {
      edges[i].setAttribute('class','edge');
    }
  }
}
]]></script>
        <defs>
                <circle id="rim" cx="0" cy="0" r="7"/>
                <circle id="rim2" cx="0" cy="0" r="3.5"/>
                <g id="zoomPlus">
                        <use xlink:href="#rim" fill="#404040">
                                <set attributeName="fill" to="#808080" begin="zoomplus.mouseover" end="zoomplus.mouseout"/>
                        </use>
                        <path d="M-4,0h8M0,-4v8" fill="none" stroke="white" stroke-width="1.5" pointer-events="none"/>
                </g>
                <g id="zoomMin">
                        <use xlink:href="#rim" fill="#404040">
                                <set attributeName="fill" to="#808080" begin="zoomminus.mouseover" end="zoomminus.mouseout"/>
                        </use>
                        <path d="M-4,0h8" fill="none" stroke="white" stroke-width="1.5" pointer-events="none"/>
                </g>
                <g id="dirArrow">
                        <path fill="none" stroke="white" stroke-width="1.5" d="M0,-3.0v7 M-2.5,-0.5L0,-3.0L2.5,-0.5"/>
                </g>
               <g id="resetDef">
                       <use xlink:href="#rim2" fill="#404040">
                               <set attributeName="fill" to="#808080" begin="reset.mouseover" end="reset.mouseout"/>
                       </use>
               </g>
        </defs>

<script type="text/javascript">
var viewWidth = 4157;
var viewHeight = 531;
var sectionId = 'dynsection-0';
</script>
<script xlink:href="svgpan.js"/>
<svg id="graph" class="graph">
<g id="viewport">
<title>src/Elements/GeometricEntity.h</title>
<polygon fill="white" stroke="none" points="-4,4 -4,-527 4153.49,-527 4153.49,4 -4,4"/>
<!-- Node0 -->
<g id="node1" class="node"><title>Node0</title>
<polygon fill="#bfbfbf" stroke="black" points="3208.99,-503.5 3208.99,-522.5 3361.99,-522.5 3361.99,-503.5 3208.99,-503.5"/>
<text text-anchor="middle" x="3285.49" y="-510.5" font-family="FreeSans" font-size="10.00">src/Elements/GeometricEntity.h</text>
</g>
<!-- Node1 -->
<g id="node2" class="node"><title>Node1</title>
<g id="a_node2"><a xlink:href="GeometricEntity_8ipp.html" target="_top" xlink:title="GeometricEntity.ipp">
<polygon fill="white" stroke="black" points="3234.99,-447.5 3234.99,-466.5 3335.99,-466.5 3335.99,-447.5 3234.99,-447.5"/>
<text text-anchor="middle" x="3285.49" y="-454.5" font-family="FreeSans" font-size="10.00">GeometricEntity.ipp</text>
</a>
</g>
</g>
<!-- Node0&#45;&gt;Node1 -->
<g id="edge1" class="edge"><title>Node0&#45;&gt;Node1</title>
<path fill="none" stroke="midnightblue" d="M3285.49,-503.083C3285.49,-496.006 3285.49,-485.861 3285.49,-476.986"/>
<polygon fill="midnightblue" stroke="midnightblue" points="3288.99,-476.751 3285.49,-466.751 3281.99,-476.751 3288.99,-476.751"/>
</g>
<!-- Node2 -->
<g id="node3" class="node"><title>Node2</title>
<polygon fill="white" stroke="#bfbfbf" points="2675.99,-263 2675.99,-282 2770.99,-282 2770.99,-263 2675.99,-263"/>
<text text-anchor="middle" x="2723.49" y="-270" font-family="FreeSans" font-size="10.00">boost/optional.hpp</text>
</g>
<!-- Node1&#45;&gt;Node2 -->
<g id="edge2" class="edge"><title>Node1&#45;&gt;Node2</title>
<path fill="none" stroke="midnightblue" d="M3234.84,-454.545C3096.4,-450.277 2713.79,-436.461 2590.49,-411 2517.94,-396.018 2476.18,-415.549 2433.49,-355 2425.56,-343.739 2424.63,-334.545 2433.49,-324 2462.55,-289.445 2589.65,-278.533 2665.6,-275.088"/>
<polygon fill="midnightblue" stroke="midnightblue" points="2666.12,-278.569 2675.97,-274.65 2665.83,-271.575 2666.12,-278.569"/>
</g>
<!-- Node3 -->
<g id="node4" class="node"><title>Node3</title>
<polygon fill="white" stroke="#bfbfbf" points="2869.49,-62 2869.49,-81 2997.49,-81 2997.49,-62 2869.49,-62"/>
<text text-anchor="middle" x="2933.49" y="-69" font-family="FreeSans" font-size="10.00">boost/concept_check.hpp</text>
</g>
<!-- Node1&#45;&gt;Node3 -->
<g id="edge3" class="edge"><title>Node1&#45;&gt;Node3</title>
<path fill="none" stroke="midnightblue" d="M3268.23,-447.422C3252.43,-439.17 3228.8,-425.794 3210.49,-411 3152.29,-363.959 3136.77,-350.428 3095.49,-288 3051.27,-221.108 3076.3,-182.455 3022.49,-123 3007.27,-106.175 2985.08,-93.5676 2966.66,-85.1576"/>
<polygon fill="midnightblue" stroke="midnightblue" points="2968,-81.923 2957.44,-81.1422 2965.21,-88.3417 2968,-81.923"/>
</g>
<!-- Node4 -->
<g id="node5" class="node"><title>Node4</title>
<polygon fill="white" stroke="#bfbfbf" points="2716.99,-62 2716.99,-81 2787.99,-81 2787.99,-62 2716.99,-62"/>
<text text-anchor="middle" x="2752.49" y="-69" font-family="FreeSans" font-size="10.00">Eigen/Dense</text>
</g>
<!-- Node1&#45;&gt;Node4 -->
<g id="edge4" class="edge"><title>Node1&#45;&gt;Node4</title>
<path fill="none" stroke="midnightblue" d="M3260.31,-447.418C3238.79,-439.527 3207.44,-426.69 3182.49,-411 3066.5,-338.032 3080.64,-267.304 2967.49,-190 2930.56,-164.763 2913.19,-174.629 2873.49,-154 2835.23,-134.116 2794.35,-104.634 2771.25,-87.114"/>
<polygon fill="midnightblue" stroke="midnightblue" points="2773.38,-84.3348 2763.31,-81.0299 2769.12,-89.8909 2773.38,-84.3348"/>
</g>
<!-- Node5 -->
<g id="node6" class="node"><title>Node5</title>
<polygon fill="white" stroke="#bfbfbf" points="3921.49,-129 3921.49,-148 4007.49,-148 4007.49,-129 3921.49,-129"/>
<text text-anchor="middle" x="3964.49" y="-136" font-family="FreeSans" font-size="10.00">Eigen/Geometry</text>
</g>
<!-- Node1&#45;&gt;Node5 -->
<g id="edge5" class="edge"><title>Node1&#45;&gt;Node5</title>
<path fill="none" stroke="midnightblue" d="M3336.29,-453.931C3510.56,-446.166 4073.49,-415.294 4073.49,-340.5 4073.49,-340.5 4073.49,-340.5 4073.49,-271.5 4073.49,-218.482 4020.57,-175.257 3988.47,-153.921"/>
<polygon fill="midnightblue" stroke="midnightblue" points="3989.96,-150.714 3979.65,-148.255 3986.17,-156.603 3989.96,-150.714"/>
</g>
<!-- Node6 -->
<g id="node7" class="node"><title>Node6</title>
<polygon fill="white" stroke="#bfbfbf" points="3943.49,-263 3943.49,-282 4007.49,-282 4007.49,-263 3943.49,-263"/>
<text text-anchor="middle" x="3975.49" y="-270" font-family="FreeSans" font-size="10.00">Eigen/SVD</text>
</g>
<!-- Node1&#45;&gt;Node6 -->
<g id="edge6" class="edge"><title>Node1&#45;&gt;Node6</title>
<path fill="none" stroke="midnightblue" d="M3336.3,-456.949C3418.34,-457.111 3584.27,-451.733 3717.49,-411 3812.68,-381.896 3913.44,-316.692 3955.37,-287.777"/>
<polygon fill="midnightblue" stroke="midnightblue" points="3957.42,-290.614 3963.62,-282.026 3953.42,-284.87 3957.42,-290.614"/>
</g>
<!-- Node7 -->
<g id="node8" class="node"><title>Node7</title>
<polygon fill="white" stroke="#bfbfbf" points="3420.49,-196 3420.49,-215 3458.49,-215 3458.49,-196 3420.49,-196"/>
<text text-anchor="middle" x="3439.49" y="-203" font-family="FreeSans" font-size="10.00">tuple</text>
</g>
<!-- Node1&#45;&gt;Node7 -->
<g id="edge7" class="edge"><title>Node1&#45;&gt;Node7</title>
<path fill="none" stroke="midnightblue" d="M3336.12,-447.534C3412.8,-431.653 3555.76,-389.356 3615.49,-288 3649.13,-230.923 3527.1,-213.439 3468.82,-208.404"/>
<polygon fill="midnightblue" stroke="midnightblue" points="3468.97,-204.905 3458.73,-207.602 3468.42,-211.883 3468.97,-204.905"/>
</g>
<!-- Node8 -->
<g id="node9" class="node"><title>Node8</title>
<polygon fill="white" stroke="#bfbfbf" points="4053.49,-129 4053.49,-148 4093.49,-148 4093.49,-129 4053.49,-129"/>
<text text-anchor="middle" x="4073.49" y="-136" font-family="FreeSans" font-size="10.00">limits</text>
</g>
<!-- Node1&#45;&gt;Node8 -->
<g id="edge8" class="edge"><title>Node1&#45;&gt;Node8</title>
<path fill="none" stroke="midnightblue" d="M3336.34,-454.161C3467.18,-449.15 3813.11,-434.07 3925.49,-411 4012.09,-393.223 4111.49,-428.906 4111.49,-340.5 4111.49,-340.5 4111.49,-340.5 4111.49,-271.5 4111.49,-229.35 4093.38,-182.48 4082.16,-157.5"/>
<polygon fill="midnightblue" stroke="midnightblue" points="4085.24,-155.809 4077.85,-148.212 4078.89,-158.756 4085.24,-155.809"/>
</g>
<!-- Node9 -->
<g id="node10" class="node"><title>Node9</title>
<polygon fill="white" stroke="#bfbfbf" points="3439.49,-62 3439.49,-81 3483.49,-81 3483.49,-62 3439.49,-62"/>
<text text-anchor="middle" x="3461.49" y="-69" font-family="FreeSans" font-size="10.00">cmath</text>
</g>
<!-- Node1&#45;&gt;Node9 -->
<g id="edge9" class="edge"><title>Node1&#45;&gt;Node9</title>
<path fill="none" stroke="midnightblue" d="M3336.24,-455.726C3480.75,-454.499 3892.37,-447.78 4021.49,-411 4083.96,-393.207 4149.49,-405.447 4149.49,-340.5 4149.49,-340.5 4149.49,-340.5 4149.49,-204.5 4149.49,-162.686 4138.06,-144.982 4102.49,-123 3987.93,-52.1945 3628.9,-116.545 3497.49,-87 3494.66,-86.3626 3491.76,-85.5284 3488.89,-84.5819"/>
<polygon fill="midnightblue" stroke="midnightblue" points="3490.03,-81.2721 3479.44,-81.0537 3487.59,-87.8301 3490.03,-81.2721"/>
</g>
<!-- Node10 -->
<g id="node11" class="node"><title>Node10</title>
<polygon fill="white" stroke="#bfbfbf" points="1968.49,-62 1968.49,-81 2012.49,-81 2012.49,-62 1968.49,-62"/>
<text text-anchor="middle" x="1990.49" y="-69" font-family="FreeSans" font-size="10.00">vector</text>
</g>
<!-- Node1&#45;&gt;Node10 -->
<g id="edge10" class="edge"><title>Node1&#45;&gt;Node10</title>
<path fill="none" stroke="midnightblue" d="M3234.97,-455.906C2917.42,-454.993 1210.49,-445.217 1210.49,-340.5 1210.49,-340.5 1210.49,-340.5 1210.49,-271.5 1210.49,-176.097 1278.08,-161.226 1365.49,-123 1486.66,-70.0133 1831.33,-119.592 1959.49,-87 1961.48,-86.4948 1963.5,-85.8624 1965.49,-85.1463"/>
<polygon fill="midnightblue" stroke="midnightblue" points="1967.3,-88.1833 1975.15,-81.0693 1964.58,-81.7344 1967.3,-88.1833"/>
</g>
<!-- Node11 -->
<g id="node12" class="node"><title>Node11</title>
<polygon fill="white" stroke="#bfbfbf" points="3341.49,-0.5 3341.49,-19.5 3403.49,-19.5 3403.49,-0.5 3341.49,-0.5"/>
<text text-anchor="middle" x="3372.49" y="-7.5" font-family="FreeSans" font-size="10.00">type_traits</text>
</g>
<!-- Node1&#45;&gt;Node11 -->
<g id="edge11" class="edge"><title>Node1&#45;&gt;Node11</title>
<path fill="none" stroke="midnightblue" d="M3234.91,-455.59C2820.71,-452.074 2.49422,-425.045 2.49422,-340.5 2.49422,-340.5 2.49422,-340.5 2.49422,-137.5 2.49422,-100.306 -7.48265,-79.3174 21.4942,-56 55.3685,-28.7418 2950,-13.1422 3331.22,-11.2053"/>
<polygon fill="midnightblue" stroke="midnightblue" points="3331.29,-14.7051 3341.27,-11.1544 3331.25,-7.70517 3331.29,-14.7051"/>
</g>
<!-- Node12 -->
<g id="node13" class="node"><title>Node12</title>
<g id="a_node13"><a xlink:href="Coordinate_8h.html" target="_top" xlink:title="Coordinate.h">
<polygon fill="white" stroke="black" points="2115.99,-196 2115.99,-215 2186.99,-215 2186.99,-196 2115.99,-196"/>
<text text-anchor="middle" x="2151.49" y="-203" font-family="FreeSans" font-size="10.00">Coordinate.h</text>
</a>
</g>
</g>
<!-- Node1&#45;&gt;Node12 -->
<g id="edge12" class="edge"><title>Node1&#45;&gt;Node12</title>
<path fill="none" stroke="midnightblue" d="M3234.85,-452.945C3153.61,-447.43 2998.26,-434.176 2948.49,-411 2925.46,-400.274 2802.89,-266.9 2779.49,-257 2659.75,-206.333 2323.18,-245.55 2195.49,-221 2191.52,-220.236 2187.41,-219.212 2183.37,-218.06"/>
<polygon fill="midnightblue" stroke="midnightblue" points="2184.17,-214.645 2173.58,-215.008 2182.09,-221.327 2184.17,-214.645"/>
</g>
<!-- Node22 -->
<g id="node23" class="node"><title>Node22</title>
<g id="a_node23"><a xlink:href="Correspondence_8h.html" target="_top" xlink:title="Correspondence.h">
<polygon fill="white" stroke="black" points="2599.99,-391.5 2599.99,-410.5 2694.99,-410.5 2694.99,-391.5 2599.99,-391.5"/>
<text text-anchor="middle" x="2647.49" y="-398.5" font-family="FreeSans" font-size="10.00">Correspondence.h</text>
</a>
</g>
</g>
<!-- Node1&#45;&gt;Node22 -->
<g id="edge27" class="edge"><title>Node1&#45;&gt;Node22</title>
<path fill="none" stroke="midnightblue" d="M3234.9,-451.718C3117.79,-441.806 2828.69,-417.336 2705.07,-406.873"/>
<polygon fill="midnightblue" stroke="midnightblue" points="2705.3,-403.38 2695.04,-406.024 2704.71,-410.355 2705.3,-403.38"/>
</g>
<!-- Node31 -->
<g id="node32" class="node"><title>Node31</title>
<g id="a_node32"><a xlink:href="EigenMetafunction_8h.html" target="_top" xlink:title="../Wrappers/EigenMetafunction.h">
<polygon fill="white" stroke="black" points="3489.49,-129 3489.49,-148 3645.49,-148 3645.49,-129 3489.49,-129"/>
<text text-anchor="middle" x="3567.49" y="-136" font-family="FreeSans" font-size="10.00">../Wrappers/EigenMetafunction.h</text>
</a>
</g>
</g>
<!-- Node1&#45;&gt;Node31 -->
<g id="edge103" class="edge"><title>Node1&#45;&gt;Node31</title>
<path fill="none" stroke="midnightblue" d="M3336.11,-456.398C3423.65,-455.941 3608.38,-449.913 3758.49,-411 3818.6,-395.419 3830.42,-381.681 3886.49,-355 3945.19,-327.07 3982.66,-343.5 4016.49,-288 4097.81,-154.619 4079.94,-302.705 3774.49,-221 3707.77,-203.15 3633.24,-170.464 3594.39,-152.383"/>
<polygon fill="midnightblue" stroke="midnightblue" points="3595.84,-149.199 3585.3,-148.119 3592.87,-155.536 3595.84,-149.199"/>
</g>
<!-- Node62 -->
<g id="node63" class="node"><title>Node62</title>
<g id="a_node63"><a xlink:href="EigenExtensions_8h.html" target="_top" xlink:title="../Wrappers/EigenExtensions.h">
<polygon fill="white" stroke="black" points="3739.99,-263 3739.99,-282 3886.99,-282 3886.99,-263 3739.99,-263"/>
<text text-anchor="middle" x="3813.49" y="-270" font-family="FreeSans" font-size="10.00">../Wrappers/EigenExtensions.h</text>
</a>
</g>
</g>
<!-- Node1&#45;&gt;Node62 -->
<g id="edge104" class="edge"><title>Node1&#45;&gt;Node62</title>
<path fill="none" stroke="midnightblue" d="M3336.3,-454.721C3430.3,-451.638 3627.24,-441.627 3687.49,-411 3742.19,-383.2 3784.95,-321.219 3803.47,-290.89"/>
<polygon fill="midnightblue" stroke="midnightblue" points="3806.52,-292.622 3808.62,-282.239 3800.5,-289.043 3806.52,-292.622"/>
</g>
<!-- Node65 -->
<g id="node66" class="node"><title>Node65</title>
<g id="a_node66"><a xlink:href="LinearAlgebra_8h.html" target="_top" xlink:title="../Numeric/LinearAlgebra.h">
<polygon fill="white" stroke="black" points="3219.99,-391.5 3219.99,-410.5 3350.99,-410.5 3350.99,-391.5 3219.99,-391.5"/>
<text text-anchor="middle" x="3285.49" y="-398.5" font-family="FreeSans" font-size="10.00">../Numeric/LinearAlgebra.h</text>
</a>
</g>
</g>
<!-- Node1&#45;&gt;Node65 -->
<g id="edge114" class="edge"><title>Node1&#45;&gt;Node65</title>
<path fill="none" stroke="midnightblue" d="M3285.49,-447.083C3285.49,-440.006 3285.49,-429.861 3285.49,-420.986"/>
<polygon fill="midnightblue" stroke="midnightblue" points="3288.99,-420.751 3285.49,-410.751 3281.99,-420.751 3288.99,-420.751"/>
</g>
<!-- Node13 -->
<g id="node14" class="node"><title>Node13</title>
<g id="a_node14"><a xlink:href="Coordinate_8ipp.html" target="_top" xlink:title="Coordinate.ipp">
<polygon fill="white" stroke="black" points="2266.49,-129 2266.49,-148 2344.49,-148 2344.49,-129 2266.49,-129"/>
<text text-anchor="middle" x="2305.49" y="-136" font-family="FreeSans" font-size="10.00">Coordinate.ipp</text>
</a>
</g>
</g>
<!-- Node12&#45;&gt;Node13 -->
<g id="edge13" class="edge"><title>Node12&#45;&gt;Node13</title>
<path fill="none" stroke="midnightblue" d="M2171.94,-195.869C2198.52,-184.65 2245.13,-164.977 2275.66,-152.092"/>
<polygon fill="midnightblue" stroke="midnightblue" points="2277.11,-155.28 2284.96,-148.167 2274.39,-148.831 2277.11,-155.28"/>
</g>
<!-- Node13&#45;&gt;Node3 -->
<g id="edge14" class="edge"><title>Node13&#45;&gt;Node3</title>
<path fill="none" stroke="midnightblue" d="M2344.57,-132.742C2368.97,-129.818 2401.05,-126.058 2429.49,-123 2592.45,-105.482 2633.45,-103.625 2796.49,-87 2816.85,-84.9245 2838.9,-82.6169 2859.24,-80.4642"/>
<polygon fill="midnightblue" stroke="midnightblue" points="2859.81,-83.9234 2869.38,-79.3882 2859.07,-76.9624 2859.81,-83.9234"/>
</g>
<!-- Node13&#45;&gt;Node4 -->
<g id="edge18" class="edge"><title>Node13&#45;&gt;Node4</title>
<path fill="none" stroke="midnightblue" d="M2344.86,-130.851C2360.86,-128.247 2379.54,-125.331 2396.49,-123 2534.34,-104.048 2571.51,-116.48 2707.49,-87 2711.35,-86.1631 2715.35,-85.1285 2719.3,-84"/>
<polygon fill="midnightblue" stroke="midnightblue" points="2720.37,-87.3331 2728.91,-81.0607 2718.32,-80.6394 2720.37,-87.3331"/>
</g>
<!-- Node13&#45;&gt;Node9 -->
<g id="edge22" class="edge"><title>Node13&#45;&gt;Node9</title>
<path fill="none" stroke="midnightblue" d="M2344.52,-132.252C2368.9,-129.143 2400.98,-125.362 2429.49,-123 2530.96,-114.595 3264.13,-81.3795 3428.74,-73.9705"/>
<polygon fill="midnightblue" stroke="midnightblue" points="3429.34,-77.4472 3439.18,-73.5013 3429.03,-70.4542 3429.34,-77.4472"/>
</g>
<!-- Node13&#45;&gt;Node10 -->
<g id="edge19" class="edge"><title>Node13&#45;&gt;Node10</title>
<path fill="none" stroke="midnightblue" d="M2266.13,-133.789C2210.58,-127.817 2106.47,-113.917 2021.49,-87 2019.82,-86.4696 2018.12,-85.8684 2016.42,-85.2197"/>
<polygon fill="midnightblue" stroke="midnightblue" points="2017.48,-81.8648 2006.9,-81.1491 2014.72,-88.3005 2017.48,-81.8648"/>
</g>
<!-- Node13&#45;&gt;Node11 -->
<g id="edge20" class="edge"><title>Node13&#45;&gt;Node11</title>
<path fill="none" stroke="midnightblue" d="M2313.99,-128.991C2334.12,-108.937 2383.75,-60.0812 2393.49,-56 2480.83,-19.4367 3156.36,-12.4359 3331.26,-11.2311"/>
<polygon fill="midnightblue" stroke="midnightblue" points="3331.36,-14.7306 3341.34,-11.1643 3331.32,-7.73075 3331.36,-14.7306"/>
</g>
<!-- Node14 -->
<g id="node15" class="node"><title>Node14</title>
<polygon fill="white" stroke="#bfbfbf" points="2162.49,-62 2162.49,-81 2290.49,-81 2290.49,-62 2162.49,-62"/>
<text text-anchor="middle" x="2226.49" y="-69" font-family="FreeSans" font-size="10.00">boost/range/concepts.hpp</text>
</g>
<!-- Node13&#45;&gt;Node14 -->
<g id="edge15" class="edge"><title>Node13&#45;&gt;Node14</title>
<path fill="none" stroke="midnightblue" d="M2294.84,-128.734C2282.05,-118.208 2260.38,-100.379 2244.87,-87.6174"/>
<polygon fill="midnightblue" stroke="midnightblue" points="2246.93,-84.7782 2236.98,-81.1273 2242.48,-90.1837 2246.93,-84.7782"/>
</g>
<!-- Node15 -->
<g id="node16" class="node"><title>Node15</title>
<polygon fill="white" stroke="#bfbfbf" points="2548.49,-62 2548.49,-81 2698.49,-81 2698.49,-62 2548.49,-62"/>
<text text-anchor="middle" x="2623.49" y="-69" font-family="FreeSans" font-size="10.00">boost/range/metafunctions.hpp</text>
</g>
<!-- Node13&#45;&gt;Node15 -->
<g id="edge16" class="edge"><title>Node13&#45;&gt;Node15</title>
<path fill="none" stroke="midnightblue" d="M2335.1,-128.957C2342.7,-126.888 2350.87,-124.766 2358.49,-123 2397.09,-114.057 2500.43,-94.8753 2566.07,-82.8959"/>
<polygon fill="midnightblue" stroke="midnightblue" points="2567.05,-86.2741 2576.26,-81.0377 2565.8,-79.3875 2567.05,-86.2741"/>
</g>
<!-- Node16 -->
<g id="node17" class="node"><title>Node16</title>
<polygon fill="white" stroke="#bfbfbf" points="2402.49,-62 2402.49,-81 2530.49,-81 2530.49,-62 2402.49,-62"/>
<text text-anchor="middle" x="2466.49" y="-69" font-family="FreeSans" font-size="10.00">boost/range/functions.hpp</text>
</g>
<!-- Node13&#45;&gt;Node16 -->
<g id="edge17" class="edge"><title>Node13&#45;&gt;Node16</title>
<path fill="none" stroke="midnightblue" d="M2326.87,-128.869C2354.86,-117.571 2404.09,-97.6961 2435.98,-84.8183"/>
<polygon fill="midnightblue" stroke="midnightblue" points="2437.32,-88.0529 2445.28,-81.0637 2434.7,-81.5619 2437.32,-88.0529"/>
</g>
<!-- Node17 -->
<g id="node18" class="node"><title>Node17</title>
<polygon fill="white" stroke="#bfbfbf" points="3063.99,-62 3063.99,-81 3112.99,-81 3112.99,-62 3063.99,-62"/>
<text text-anchor="middle" x="3088.49" y="-69" font-family="FreeSans" font-size="10.00">cstddef</text>
</g>
<!-- Node13&#45;&gt;Node17 -->
<g id="edge21" class="edge"><title>Node13&#45;&gt;Node17</title>
<path fill="none" stroke="midnightblue" d="M2344.53,-132.387C2368.92,-129.328 2401,-125.553 2429.49,-123 2685.41,-100.07 2751.36,-117.419 3006.49,-87 3022.09,-85.1407 3039.21,-82.2484 3053.76,-79.5345"/>
<polygon fill="midnightblue" stroke="midnightblue" points="3054.68,-82.9231 3063.84,-77.6073 3053.36,-76.0476 3054.68,-82.9231"/>
</g>
<!-- Node18 -->
<g id="node19" class="node"><title>Node18</title>
<polygon fill="white" stroke="#bfbfbf" points="2308.49,-62 2308.49,-81 2346.49,-81 2346.49,-62 2308.49,-62"/>
<text text-anchor="middle" x="2327.49" y="-69" font-family="FreeSans" font-size="10.00">array</text>
</g>
<!-- Node13&#45;&gt;Node18 -->
<g id="edge23" class="edge"><title>Node13&#45;&gt;Node18</title>
<path fill="none" stroke="midnightblue" d="M2308.46,-128.734C2311.73,-119.085 2317.07,-103.3 2321.26,-90.9063"/>
<polygon fill="midnightblue" stroke="midnightblue" points="2324.68,-91.7216 2324.57,-81.1273 2318.05,-89.4774 2324.68,-91.7216"/>
</g>
<!-- Node19 -->
<g id="node20" class="node"><title>Node19</title>
<polygon fill="white" stroke="#bfbfbf" points="1894.49,-62 1894.49,-81 1950.49,-81 1950.49,-62 1894.49,-62"/>
<text text-anchor="middle" x="1922.49" y="-69" font-family="FreeSans" font-size="10.00">algorithm</text>
</g>
<!-- Node13&#45;&gt;Node19 -->
<g id="edge24" class="edge"><title>Node13&#45;&gt;Node19</title>
<path fill="none" stroke="midnightblue" d="M2266.25,-134.708C2201.47,-129.45 2068.49,-115.903 1959.49,-87 1956.84,-86.2948 1954.11,-85.4576 1951.39,-84.5464"/>
<polygon fill="midnightblue" stroke="midnightblue" points="1952.4,-81.1854 1941.8,-81.0272 1949.98,-87.7572 1952.4,-81.1854"/>
</g>
<!-- Node20 -->
<g id="node21" class="node"><title>Node20</title>
<polygon fill="white" stroke="#bfbfbf" points="2098.99,-62 2098.99,-81 2143.99,-81 2143.99,-62 2098.99,-62"/>
<text text-anchor="middle" x="2121.49" y="-69" font-family="FreeSans" font-size="10.00">climits</text>
</g>
<!-- Node13&#45;&gt;Node20 -->
<g id="edge25" class="edge"><title>Node13&#45;&gt;Node20</title>
<path fill="none" stroke="midnightblue" d="M2276.88,-128.976C2246.09,-119.575 2195.83,-103.572 2153.49,-87 2152.07,-86.4442 2150.63,-85.8586 2149.17,-85.2545"/>
<polygon fill="midnightblue" stroke="midnightblue" points="2150.2,-81.8846 2139.63,-81.115 2147.41,-88.3062 2150.2,-81.8846"/>
</g>
<!-- Node21 -->
<g id="node22" class="node"><title>Node21</title>
<polygon fill="white" stroke="#bfbfbf" points="2030.99,-62 2030.99,-81 2077.99,-81 2077.99,-62 2030.99,-62"/>
<text text-anchor="middle" x="2054.49" y="-69" font-family="FreeSans" font-size="10.00">iterator</text>
</g>
<!-- Node13&#45;&gt;Node21 -->
<g id="edge26" class="edge"><title>Node13&#45;&gt;Node21</title>
<path fill="none" stroke="midnightblue" d="M2266.35,-130.346C2222.67,-121.905 2150.17,-106.517 2089.49,-87 2087.36,-86.3127 2085.17,-85.551 2082.98,-84.7469"/>
<polygon fill="midnightblue" stroke="midnightblue" points="2084.13,-81.4377 2073.54,-81.0499 2081.57,-87.9557 2084.13,-81.4377"/>
</g>
<!-- Node22&#45;&gt;Node12 -->
<g id="edge52" class="edge"><title>Node22&#45;&gt;Node12</title>
<path fill="none" stroke="midnightblue" d="M2647.89,-391.311C2648.09,-375.554 2646.13,-342.211 2627.49,-324 2486.31,-186.063 2385.4,-274.826 2195.49,-221 2192.5,-220.15 2189.4,-219.225 2186.3,-218.268"/>
<polygon fill="midnightblue" stroke="midnightblue" points="2187.1,-214.851 2176.51,-215.149 2184.98,-221.52 2187.1,-214.851"/>
</g>
<!-- Node23 -->
<g id="node24" class="node"><title>Node23</title>
<g id="a_node24"><a xlink:href="Correspondence_8ipp.html" target="_top" xlink:title="Correspondence.ipp">
<polygon fill="white" stroke="black" points="2827.49,-263 2827.49,-282 2929.49,-282 2929.49,-263 2827.49,-263"/>
<text text-anchor="middle" x="2878.49" y="-270" font-family="FreeSans" font-size="10.00">Correspondence.ipp</text>
</a>
</g>
</g>
<!-- Node22&#45;&gt;Node23 -->
<g id="edge28" class="edge"><title>Node22&#45;&gt;Node23</title>
<path fill="none" stroke="midnightblue" d="M2663.37,-391.305C2702.95,-369.633 2806.2,-313.088 2853.8,-287.021"/>
<polygon fill="midnightblue" stroke="midnightblue" points="2855.72,-289.961 2862.81,-282.088 2852.36,-283.822 2855.72,-289.961"/>
</g>
<!-- Node33 -->
<g id="node34" class="node"><title>Node33</title>
<polygon fill="white" stroke="#bfbfbf" points="2442.99,-324.5 2442.99,-354.5 2543.99,-354.5 2543.99,-324.5 2442.99,-324.5"/>
<text text-anchor="start" x="2450.99" y="-342.5" font-family="FreeSans" font-size="10.00">boost/range/iterator</text>
<text text-anchor="middle" x="2493.49" y="-331.5" font-family="FreeSans" font-size="10.00">_range.hpp</text>
</g>
<!-- Node22&#45;&gt;Node33 -->
<g id="edge51" class="edge"><title>Node22&#45;&gt;Node33</title>
<path fill="none" stroke="midnightblue" d="M2625.43,-391.475C2603.01,-382.814 2567.64,-369.145 2539.15,-358.141"/>
<polygon fill="midnightblue" stroke="midnightblue" points="2540.38,-354.862 2529.79,-354.523 2537.86,-361.392 2540.38,-354.862"/>
</g>
<!-- Node34 -->
<g id="node35" class="node"><title>Node34</title>
<g id="a_node35"><a xlink:href="Feature_8h.html" target="_top" xlink:title="Feature.h">
<polygon fill="white" stroke="black" points="2561.99,-330 2561.99,-349 2618.99,-349 2618.99,-330 2561.99,-330"/>
<text text-anchor="middle" x="2590.49" y="-337" font-family="FreeSans" font-size="10.00">Feature.h</text>
</a>
</g>
</g>
<!-- Node22&#45;&gt;Node34 -->
<g id="edge53" class="edge"><title>Node22&#45;&gt;Node34</title>
<path fill="none" stroke="midnightblue" d="M2639.33,-391.475C2630.61,-382.373 2616.59,-367.741 2605.81,-356.483"/>
<polygon fill="midnightblue" stroke="midnightblue" points="2608.09,-353.809 2598.65,-349.009 2603.04,-358.651 2608.09,-353.809"/>
</g>
<!-- Node23&#45;&gt;Node3 -->
<g id="edge31" class="edge"><title>Node23&#45;&gt;Node3</title>
<path fill="none" stroke="midnightblue" d="M2921.83,-262.982C2945.59,-255.923 2973.25,-243.286 2988.49,-221 3013.11,-185.023 3010.72,-162.597 2992.49,-123 2985.39,-107.576 2971,-95.106 2958.21,-86.4164"/>
<polygon fill="midnightblue" stroke="midnightblue" points="2960.03,-83.4293 2949.72,-81.0147 2956.28,-89.3354 2960.03,-83.4293"/>
</g>
<!-- Node23&#45;&gt;Node4 -->
<g id="edge35" class="edge"><title>Node23&#45;&gt;Node4</title>
<path fill="none" stroke="midnightblue" d="M2896.26,-262.865C2924.19,-248.168 2972.96,-217.234 2950.49,-190 2896.91,-125.05 2822.68,-214.863 2764.49,-154 2748.7,-137.477 2747.95,-109.818 2749.61,-91.3685"/>
<polygon fill="midnightblue" stroke="midnightblue" points="2753.11,-91.6039 2750.85,-81.2531 2746.16,-90.7545 2753.11,-91.6039"/>
</g>
<!-- Node23&#45;&gt;Node7 -->
<g id="edge41" class="edge"><title>Node23&#45;&gt;Node7</title>
<path fill="none" stroke="midnightblue" d="M2929.71,-266.131C3013.55,-257.264 3185.3,-238.766 3330.49,-221 3357.53,-217.692 3388.28,-213.568 3410.21,-210.565"/>
<polygon fill="midnightblue" stroke="midnightblue" points="3410.78,-214.019 3420.21,-209.189 3409.83,-207.084 3410.78,-214.019"/>
</g>
<!-- Node23&#45;&gt;Node9 -->
<g id="edge36" class="edge"><title>Node23&#45;&gt;Node9</title>
<path fill="none" stroke="midnightblue" d="M2929.52,-269.049C2984.04,-264.781 3071.88,-253.079 3140.49,-221 3160.24,-211.768 3159.79,-201.186 3178.49,-190 3263.85,-138.959 3375.47,-99.8028 3429.47,-82.3934"/>
<polygon fill="midnightblue" stroke="midnightblue" points="3430.7,-85.6731 3439.17,-79.301 3428.57,-79.0038 3430.7,-85.6731"/>
</g>
<!-- Node23&#45;&gt;Node10 -->
<g id="edge38" class="edge"><title>Node23&#45;&gt;Node10</title>
<path fill="none" stroke="midnightblue" d="M2843.55,-262.969C2833.86,-260.804 2823.3,-258.632 2813.49,-257 2670.14,-233.144 2629,-258.142 2488.49,-221 2454.81,-212.096 2449.77,-200.309 2416.49,-190 2337.31,-165.472 2313.81,-174.522 2233.49,-154 2137.75,-129.536 2113.56,-122.9 2021.49,-87 2020.08,-86.4469 2018.63,-85.8592 2017.18,-85.2494"/>
<polygon fill="midnightblue" stroke="midnightblue" points="2018.26,-81.8995 2007.7,-81.0368 2015.42,-88.2963 2018.26,-81.8995"/>
</g>
<!-- Node23&#45;&gt;Node11 -->
<g id="edge44" class="edge"><title>Node23&#45;&gt;Node11</title>
<path fill="none" stroke="midnightblue" d="M2914.19,-262.931C2947.06,-254.4 2996.76,-239.867 3037.49,-221 3165.03,-161.932 3302.86,-63.0104 3352.93,-25.7744"/>
<polygon fill="midnightblue" stroke="midnightblue" points="3355.32,-28.355 3361.23,-19.563 3351.13,-22.7492 3355.32,-28.355"/>
</g>
<!-- Node23&#45;&gt;Node14 -->
<g id="edge32" class="edge"><title>Node23&#45;&gt;Node14</title>
<path fill="none" stroke="midnightblue" d="M2842.84,-262.968C2833.34,-260.853 2823.06,-258.705 2813.49,-257 2695.18,-235.897 2659.73,-258.328 2545.49,-221 2518.08,-212.043 2515.81,-199.245 2488.49,-190 2390.07,-156.688 2338.23,-219.413 2257.49,-154 2238.41,-138.538 2231.06,-109.938 2228.24,-91.0648"/>
<polygon fill="midnightblue" stroke="midnightblue" points="2231.7,-90.5194 2227.03,-81.0115 2224.75,-91.3592 2231.7,-90.5194"/>
</g>
<!-- Node23&#45;&gt;Node15 -->
<g id="edge33" class="edge"><title>Node23&#45;&gt;Node15</title>
<path fill="none" stroke="midnightblue" d="M2888.23,-262.886C2904.88,-247.132 2935.27,-213.166 2916.49,-190 2867.87,-129.999 2817.72,-183.857 2746.49,-154 2705.85,-136.964 2664.29,-106.023 2641.4,-87.5566"/>
<polygon fill="midnightblue" stroke="midnightblue" points="2643.53,-84.7791 2633.58,-81.145 2639.09,-90.1921 2643.53,-84.7791"/>
</g>
<!-- Node23&#45;&gt;Node16 -->
<g id="edge34" class="edge"><title>Node23&#45;&gt;Node16</title>
<path fill="none" stroke="midnightblue" d="M2842.49,-262.977C2833.08,-260.884 2822.93,-258.746 2813.49,-257 2759.6,-247.027 2612.33,-255.194 2569.49,-221 2532.98,-191.856 2559.4,-160.467 2531.49,-123 2520.54,-108.287 2504.22,-95.6305 2490.68,-86.6685"/>
<polygon fill="midnightblue" stroke="midnightblue" points="2492.17,-83.468 2481.85,-81.0743 2488.42,-89.3818 2492.17,-83.468"/>
</g>
<!-- Node23&#45;&gt;Node17 -->
<g id="edge40" class="edge"><title>Node23&#45;&gt;Node17</title>
<path fill="none" stroke="midnightblue" d="M2922.8,-262.982C2950.64,-255.743 2985.82,-242.916 3010.49,-221 3051.22,-184.83 3074.07,-122.247 3083.43,-91.1516"/>
<polygon fill="midnightblue" stroke="midnightblue" points="3086.88,-91.8046 3086.27,-81.2272 3080.15,-89.8754 3086.88,-91.8046"/>
</g>
<!-- Node23&#45;&gt;Node21 -->
<g id="edge37" class="edge"><title>Node23&#45;&gt;Node21</title>
<path fill="none" stroke="midnightblue" d="M2843.55,-262.96C2833.86,-260.796 2823.3,-258.626 2813.49,-257 2668.38,-232.95 2626.32,-260.003 2484.49,-221 2452.47,-212.193 2448.12,-200.164 2416.49,-190 2337.58,-164.635 2312.42,-179.346 2233.49,-154 2176.39,-135.66 2113.37,-104.116 2079.44,-86.1233"/>
<polygon fill="midnightblue" stroke="midnightblue" points="2080.75,-82.8518 2070.28,-81.2169 2077.44,-89.0229 2080.75,-82.8518"/>
</g>
<!-- Node24 -->
<g id="node25" class="node"><title>Node24</title>
<polygon fill="white" stroke="#bfbfbf" points="2578.99,-196 2578.99,-215 2695.99,-215 2695.99,-196 2578.99,-196"/>
<text text-anchor="middle" x="2637.49" y="-203" font-family="FreeSans" font-size="10.00">boost/bimap/bimap.hpp</text>
</g>
<!-- Node23&#45;&gt;Node24 -->
<g id="edge29" class="edge"><title>Node23&#45;&gt;Node24</title>
<path fill="none" stroke="midnightblue" d="M2846.49,-262.869C2803.34,-251.23 2726.44,-230.489 2678.92,-217.672"/>
<polygon fill="midnightblue" stroke="midnightblue" points="2679.81,-214.289 2669.25,-215.064 2677.99,-221.047 2679.81,-214.289"/>
</g>
<!-- Node25 -->
<g id="node26" class="node"><title>Node25</title>
<polygon fill="white" stroke="#bfbfbf" points="2713.99,-196 2713.99,-215 2830.99,-215 2830.99,-196 2713.99,-196"/>
<text text-anchor="middle" x="2772.49" y="-203" font-family="FreeSans" font-size="10.00">boost/bimap/list_of.hpp</text>
</g>
<!-- Node23&#45;&gt;Node25 -->
<g id="edge30" class="edge"><title>Node23&#45;&gt;Node25</title>
<path fill="none" stroke="midnightblue" d="M2864.2,-262.734C2846.48,-251.867 2816.06,-233.216 2795.15,-220.393"/>
<polygon fill="midnightblue" stroke="midnightblue" points="2796.92,-217.371 2786.56,-215.127 2793.26,-223.339 2796.92,-217.371"/>
</g>
<!-- Node26 -->
<g id="node27" class="node"><title>Node26</title>
<polygon fill="white" stroke="#bfbfbf" points="2372.99,-196 2372.99,-215 2407.99,-215 2407.99,-196 2372.99,-196"/>
<text text-anchor="middle" x="2390.49" y="-203" font-family="FreeSans" font-size="10.00">map</text>
</g>
<!-- Node23&#45;&gt;Node26 -->
<g id="edge39" class="edge"><title>Node23&#45;&gt;Node26</title>
<path fill="none" stroke="midnightblue" d="M2843.91,-262.924C2834.12,-260.733 2823.43,-258.559 2813.49,-257 2641.09,-229.947 2591.2,-265.633 2422.49,-221 2420.34,-220.43 2418.15,-219.726 2415.97,-218.94"/>
<polygon fill="midnightblue" stroke="midnightblue" points="2417.29,-215.7 2406.72,-215.113 2414.62,-222.169 2417.29,-215.7"/>
</g>
<!-- Node27 -->
<g id="node28" class="node"><title>Node27</title>
<polygon fill="white" stroke="#bfbfbf" points="2315.99,-196 2315.99,-215 2354.99,-215 2354.99,-196 2315.99,-196"/>
<text text-anchor="middle" x="2335.49" y="-203" font-family="FreeSans" font-size="10.00">utility</text>
</g>
<!-- Node23&#45;&gt;Node27 -->
<g id="edge42" class="edge"><title>Node23&#45;&gt;Node27</title>
<path fill="none" stroke="midnightblue" d="M2844.59,-262.998C2834.63,-260.754 2823.67,-258.534 2813.49,-257 2615.1,-227.085 2556.38,-276.222 2363.49,-221 2361.83,-220.524 2360.15,-219.943 2358.48,-219.293"/>
<polygon fill="midnightblue" stroke="midnightblue" points="2359.83,-216.058 2349.28,-215.021 2356.88,-222.407 2359.83,-216.058"/>
</g>
<!-- Node28 -->
<g id="node29" class="node"><title>Node28</title>
<polygon fill="white" stroke="#bfbfbf" points="2848.99,-196 2848.99,-215 2907.99,-215 2907.99,-196 2848.99,-196"/>
<text text-anchor="middle" x="2878.49" y="-203" font-family="FreeSans" font-size="10.00">functional</text>
</g>
<!-- Node23&#45;&gt;Node28 -->
<g id="edge43" class="edge"><title>Node23&#45;&gt;Node28</title>
<path fill="none" stroke="midnightblue" d="M2878.49,-262.734C2878.49,-253.183 2878.49,-237.618 2878.49,-225.283"/>
<polygon fill="midnightblue" stroke="midnightblue" points="2881.99,-225.127 2878.49,-215.127 2874.99,-225.127 2881.99,-225.127"/>
</g>
<!-- Node29 -->
<g id="node30" class="node"><title>Node29</title>
<g id="a_node30"><a xlink:href="FeatureConcept_8h.html" target="_top" xlink:title="FeatureConcept.h">
<polygon fill="white" stroke="black" points="2204.99,-196 2204.99,-215 2297.99,-215 2297.99,-196 2204.99,-196"/>
<text text-anchor="middle" x="2251.49" y="-203" font-family="FreeSans" font-size="10.00">FeatureConcept.h</text>
</a>
</g>
</g>
<!-- Node23&#45;&gt;Node29 -->
<g id="edge45" class="edge"><title>Node23&#45;&gt;Node29</title>
<path fill="none" stroke="midnightblue" d="M2844.6,-262.94C2834.63,-260.695 2823.68,-258.489 2813.49,-257 2589.97,-224.318 2529.35,-257.955 2306.49,-221 2301.01,-220.091 2295.29,-218.882 2289.69,-217.548"/>
<polygon fill="midnightblue" stroke="midnightblue" points="2290.37,-214.112 2279.82,-215.05 2288.66,-220.897 2290.37,-214.112"/>
</g>
<!-- Node23&#45;&gt;Node31 -->
<g id="edge48" class="edge"><title>Node23&#45;&gt;Node31</title>
<path fill="none" stroke="midnightblue" d="M2929.56,-263.538C2989.35,-254.068 3091.3,-237.465 3178.49,-221 3301.69,-197.734 3445.98,-166.437 3519.35,-150.23"/>
<polygon fill="midnightblue" stroke="midnightblue" points="3520.21,-153.624 3529.22,-148.046 3518.7,-146.789 3520.21,-153.624"/>
</g>
<!-- Node30 -->
<g id="node31" class="node"><title>Node30</title>
<g id="a_node31"><a xlink:href="FeatureConcept_8ipp.html" target="_top" xlink:title="FeatureConcept.ipp">
<polygon fill="white" stroke="black" points="2882.99,-129 2882.99,-148 2983.99,-148 2983.99,-129 2882.99,-129"/>
<text text-anchor="middle" x="2933.49" y="-136" font-family="FreeSans" font-size="10.00">FeatureConcept.ipp</text>
</a>
</g>
</g>
<!-- Node29&#45;&gt;Node30 -->
<g id="edge46" class="edge"><title>Node29&#45;&gt;Node30</title>
<path fill="none" stroke="midnightblue" d="M2279.53,-195.988C2288.11,-193.688 2297.62,-191.439 2306.49,-190 2553.55,-149.909 2620.71,-189.354 2868.49,-154 2875.42,-153.012 2882.69,-151.682 2889.77,-150.227"/>
<polygon fill="midnightblue" stroke="midnightblue" points="2890.91,-153.563 2899.94,-148.03 2889.43,-146.721 2890.91,-153.563"/>
</g>
<!-- Node30&#45;&gt;Node3 -->
<g id="edge47" class="edge"><title>Node30&#45;&gt;Node3</title>
<path fill="none" stroke="midnightblue" d="M2933.49,-128.734C2933.49,-119.183 2933.49,-103.618 2933.49,-91.2829"/>
<polygon fill="midnightblue" stroke="midnightblue" points="2936.99,-91.1273 2933.49,-81.1273 2929.99,-91.1273 2936.99,-91.1273"/>
</g>
<!-- Node32 -->
<g id="node33" class="node"><title>Node32</title>
<g id="a_node33"><a xlink:href="EigenMetafunction_8ipp.html" target="_top" xlink:title="EigenMetafunction.ipp">
<polygon fill="white" stroke="black" points="3506.49,-62 3506.49,-81 3618.49,-81 3618.49,-62 3506.49,-62"/>
<text text-anchor="middle" x="3562.49" y="-69" font-family="FreeSans" font-size="10.00">EigenMetafunction.ipp</text>
</a>
</g>
</g>
<!-- Node31&#45;&gt;Node32 -->
<g id="edge49" class="edge"><title>Node31&#45;&gt;Node32</title>
<path fill="none" stroke="midnightblue" d="M3566.82,-128.734C3566.09,-119.183 3564.89,-103.618 3563.94,-91.2829"/>
<polygon fill="midnightblue" stroke="midnightblue" points="3567.41,-90.8294 3563.16,-81.1273 3560.44,-91.3663 3567.41,-90.8294"/>
</g>
<!-- Node32&#45;&gt;Node11 -->
<g id="edge50" class="edge"><title>Node32&#45;&gt;Node11</title>
<path fill="none" stroke="midnightblue" d="M3535.27,-61.9751C3502.26,-51.6362 3446.45,-34.1611 3409.54,-22.6017"/>
<polygon fill="midnightblue" stroke="midnightblue" points="3410.26,-19.1576 3399.67,-19.5091 3408.16,-25.8377 3410.26,-19.1576"/>
</g>
<!-- Node35 -->
<g id="node36" class="node"><title>Node35</title>
<g id="a_node36"><a xlink:href="Feature_8ipp.html" target="_top" xlink:title="Feature.ipp">
<polygon fill="white" stroke="black" points="1739.99,-263 1739.99,-282 1804.99,-282 1804.99,-263 1739.99,-263"/>
<text text-anchor="middle" x="1772.49" y="-270" font-family="FreeSans" font-size="10.00">Feature.ipp</text>
</a>
</g>
</g>
<!-- Node34&#45;&gt;Node35 -->
<g id="edge54" class="edge"><title>Node34&#45;&gt;Node35</title>
<path fill="none" stroke="midnightblue" d="M2571.5,-329.975C2565.53,-327.645 2558.84,-325.383 2552.49,-324 2410.05,-292.954 1957.21,-278.447 1815.39,-274.588"/>
<polygon fill="midnightblue" stroke="midnightblue" points="1815.43,-271.087 1805.34,-274.318 1815.24,-278.085 1815.43,-271.087"/>
</g>
<!-- Node35&#45;&gt;Node3 -->
<g id="edge55" class="edge"><title>Node35&#45;&gt;Node3</title>
<path fill="none" stroke="midnightblue" d="M1805.29,-267.947C1849.25,-262.302 1928.97,-248.935 1991.49,-221 2013.33,-211.241 2012.97,-198.048 2035.49,-190 2139.56,-152.822 2422.01,-169.01 2531.49,-154 2662.72,-136.01 2815.47,-101.138 2889.2,-83.4128"/>
<polygon fill="midnightblue" stroke="midnightblue" points="2890.17,-86.7794 2899.07,-81.029 2888.52,-79.9751 2890.17,-86.7794"/>
</g>
<!-- Node35&#45;&gt;Node10 -->
<g id="edge79" class="edge"><title>Node35&#45;&gt;Node10</title>
<path fill="none" stroke="midnightblue" d="M1739.84,-270.399C1639.26,-266.674 1339.14,-252.952 1310.49,-221 1301.3,-210.742 1301.55,-200.478 1310.49,-190 1405.31,-78.9452 1819.88,-129.798 1959.49,-87 1961.37,-86.4253 1963.28,-85.7579 1965.17,-85.0311"/>
<polygon fill="midnightblue" stroke="midnightblue" points="1966.62,-88.2207 1974.42,-81.0579 1963.85,-81.789 1966.62,-88.2207"/>
</g>
<!-- Node35&#45;&gt;Node12 -->
<g id="edge89" class="edge"><title>Node35&#45;&gt;Node12</title>
<path fill="none" stroke="midnightblue" d="M1805.44,-267.881C1864.99,-261.022 1994.28,-244.669 2101.49,-221 2105.71,-220.068 2110.1,-218.979 2114.45,-217.823"/>
<polygon fill="midnightblue" stroke="midnightblue" points="2115.72,-221.103 2124.41,-215.049 2113.84,-214.359 2115.72,-221.103"/>
</g>
<!-- Node35&#45;&gt;Node14 -->
<g id="edge56" class="edge"><title>Node35&#45;&gt;Node14</title>
<path fill="none" stroke="midnightblue" d="M1774.32,-262.895C1778.41,-245.883 1790.04,-208.037 1815.49,-190 1904.22,-127.13 1953.56,-185.98 2057.49,-154 2112.23,-137.157 2171.49,-105.009 2203.25,-86.5221"/>
<polygon fill="midnightblue" stroke="midnightblue" points="2205.35,-89.348 2212.19,-81.2553 2201.79,-83.3173 2205.35,-89.348"/>
</g>
<!-- Node35&#45;&gt;Node15 -->
<g id="edge57" class="edge"><title>Node35&#45;&gt;Node15</title>
<path fill="none" stroke="midnightblue" d="M1780.04,-262.713C1797.46,-242.52 1839.68,-194.212 1848.49,-190 1950.01,-141.496 2243.93,-179.565 2353.49,-154 2389.02,-145.711 2394.88,-134.509 2429.49,-123 2478.1,-106.839 2534.95,-92.5676 2574.49,-83.3556"/>
<polygon fill="midnightblue" stroke="midnightblue" points="2575.45,-86.7263 2584.4,-81.067 2573.87,-79.9056 2575.45,-86.7263"/>
</g>
<!-- Node35&#45;&gt;Node17 -->
<g id="edge81" class="edge"><title>Node35&#45;&gt;Node17</title>
<path fill="none" stroke="midnightblue" d="M1805.17,-270.32C1855.38,-267.373 1953.45,-257.063 2027.49,-221 2046.48,-211.755 2043.85,-197.73 2063.49,-190 2255.75,-114.363 2799.97,-228.962 2992.49,-154 3027.46,-140.387 3058.68,-108.403 3075.47,-88.7939"/>
<polygon fill="midnightblue" stroke="midnightblue" points="3078.25,-90.9307 3081.94,-81.0013 3072.86,-86.459 3078.25,-90.9307"/>
</g>
<!-- Node35&#45;&gt;Node20 -->
<g id="edge86" class="edge"><title>Node35&#45;&gt;Node20</title>
<path fill="none" stroke="midnightblue" d="M1769.89,-262.786C1765.55,-246.25 1759.01,-210.169 1777.49,-190 1850.67,-110.163 1919.12,-197.054 2018.49,-154 2054.19,-138.533 2088.06,-107.479 2106.68,-88.4865"/>
<polygon fill="midnightblue" stroke="midnightblue" points="2109.3,-90.8104 2113.69,-81.166 2104.24,-85.9702 2109.3,-90.8104"/>
</g>
<!-- Node35&#45;&gt;Node21 -->
<g id="edge85" class="edge"><title>Node35&#45;&gt;Node21</title>
<path fill="none" stroke="midnightblue" d="M1739.82,-270.108C1644.17,-265.7 1369.78,-250.562 1343.49,-221 1334.34,-210.704 1334.51,-200.448 1343.49,-190 1393.16,-132.215 1948.31,-108.232 2021.49,-87 2023.64,-86.3766 2025.83,-85.6446 2028.02,-84.8464"/>
<polygon fill="midnightblue" stroke="midnightblue" points="2029.4,-88.0628 2037.34,-81.0553 2026.76,-81.5779 2029.4,-88.0628"/>
</g>
<!-- Node35&#45;&gt;Node26 -->
<g id="edge82" class="edge"><title>Node35&#45;&gt;Node26</title>
<path fill="none" stroke="midnightblue" d="M1805.33,-270.444C1913.45,-266.693 2257.51,-252.517 2363.49,-221 2364.96,-220.564 2366.44,-220.043 2367.91,-219.462"/>
<polygon fill="midnightblue" stroke="midnightblue" points="2369.71,-222.478 2377.23,-215.01 2366.69,-216.162 2369.71,-222.478"/>
</g>
<!-- Node35&#45;&gt;Node27 -->
<g id="edge88" class="edge"><title>Node35&#45;&gt;Node27</title>
<path fill="none" stroke="midnightblue" d="M1805.27,-269.981C1906.23,-265.055 2211.38,-248.245 2306.49,-221 2308.17,-220.52 2309.86,-219.945 2311.54,-219.304"/>
<polygon fill="midnightblue" stroke="midnightblue" points="2313.18,-222.408 2320.87,-215.124 2310.31,-216.02 2313.18,-222.408"/>
</g>
<!-- Node35&#45;&gt;Node29 -->
<g id="edge97" class="edge"><title>Node35&#45;&gt;Node29</title>
<path fill="none" stroke="midnightblue" d="M1805.09,-269.112C1876.36,-263.564 2051.22,-248.163 2195.49,-221 2200.86,-219.99 2206.47,-218.754 2211.99,-217.435"/>
<polygon fill="midnightblue" stroke="midnightblue" points="2212.87,-220.821 2221.73,-215.001 2211.18,-214.03 2212.87,-220.821"/>
</g>
<!-- Node35&#45;&gt;Node31 -->
<g id="edge101" class="edge"><title>Node35&#45;&gt;Node31</title>
<path fill="none" stroke="midnightblue" d="M1805.26,-270.575C1860.58,-267.99 1975.11,-258.184 2063.49,-221 2085.21,-211.864 2084.2,-197.625 2106.49,-190 2139.09,-178.851 3167.68,-150.279 3479.05,-141.865"/>
<polygon fill="midnightblue" stroke="midnightblue" points="3479.48,-145.355 3489.38,-141.586 3479.29,-138.357 3479.48,-145.355"/>
</g>
<!-- Node36 -->
<g id="node37" class="node"><title>Node36</title>
<g id="a_node37"><a xlink:href="boost__dynamic__bitset_8hpp.html" target="_top" xlink:title="../Modified/boost_dynamic\l_bitset.hpp">
<polygon fill="white" stroke="black" points="1138.49,-123.5 1138.49,-153.5 1266.49,-153.5 1266.49,-123.5 1138.49,-123.5"/>
<text text-anchor="start" x="1146.49" y="-141.5" font-family="FreeSans" font-size="10.00">../Modified/boost_dynamic</text>
<text text-anchor="middle" x="1202.49" y="-130.5" font-family="FreeSans" font-size="10.00">_bitset.hpp</text>
</a>
</g>
</g>
<!-- Node35&#45;&gt;Node36 -->
<g id="edge58" class="edge"><title>Node35&#45;&gt;Node36</title>
<path fill="none" stroke="midnightblue" d="M1739.84,-271.322C1642.21,-270.307 1354.29,-263.68 1272.49,-221 1247.34,-207.876 1227.37,-181.575 1215.29,-162.389"/>
<polygon fill="midnightblue" stroke="midnightblue" points="1218.18,-160.389 1210.02,-153.631 1212.18,-164.002 1218.18,-160.389"/>
</g>
<!-- Node43 -->
<g id="node44" class="node"><title>Node43</title>
<polygon fill="white" stroke="#bfbfbf" points="1824.49,-62 1824.49,-81 1876.49,-81 1876.49,-62 1824.49,-62"/>
<text text-anchor="middle" x="1850.49" y="-69" font-family="FreeSans" font-size="10.00">ostream</text>
</g>
<!-- Node35&#45;&gt;Node43 -->
<g id="edge80" class="edge"><title>Node35&#45;&gt;Node43</title>
<path fill="none" stroke="midnightblue" d="M1739.87,-268.218C1683.96,-261.17 1578.75,-240.887 1610.49,-190 1622.62,-170.565 1758.89,-111.18 1820.53,-85.0566"/>
<polygon fill="midnightblue" stroke="midnightblue" points="1822.24,-88.131 1830.09,-81.0155 1819.52,-81.6827 1822.24,-88.131"/>
</g>
<!-- Node54 -->
<g id="node55" class="node"><title>Node54</title>
<polygon fill="white" stroke="#bfbfbf" points="1352.49,-196 1352.49,-215 1382.49,-215 1382.49,-196 1352.49,-196"/>
<text text-anchor="middle" x="1367.49" y="-203" font-family="FreeSans" font-size="10.00">set</text>
</g>
<!-- Node35&#45;&gt;Node54 -->
<g id="edge83" class="edge"><title>Node35&#45;&gt;Node54</title>
<path fill="none" stroke="midnightblue" d="M1739.85,-271.617C1672.67,-270.909 1514.89,-264.321 1391.49,-221 1390.61,-220.69 1389.72,-220.344 1388.84,-219.97"/>
<polygon fill="midnightblue" stroke="midnightblue" points="1390.2,-216.731 1379.71,-215.204 1386.96,-222.936 1390.2,-216.731"/>
</g>
<!-- Node55 -->
<g id="node56" class="node"><title>Node55</title>
<polygon fill="white" stroke="#bfbfbf" points="1400.99,-196 1400.99,-215 1429.99,-215 1429.99,-196 1400.99,-196"/>
<text text-anchor="middle" x="1415.49" y="-203" font-family="FreeSans" font-size="10.00">list</text>
</g>
<!-- Node35&#45;&gt;Node55 -->
<g id="edge84" class="edge"><title>Node35&#45;&gt;Node55</title>
<path fill="none" stroke="midnightblue" d="M1739.62,-270.958C1678.43,-268.997 1543.75,-260.171 1438.49,-221 1437.76,-220.728 1437.03,-220.431 1436.3,-220.114"/>
<polygon fill="midnightblue" stroke="midnightblue" points="1437.64,-216.856 1427.18,-215.166 1434.3,-223.01 1437.64,-216.856"/>
</g>
<!-- Node56 -->
<g id="node57" class="node"><title>Node56</title>
<polygon fill="white" stroke="#bfbfbf" points="1447.99,-196 1447.99,-215 1490.99,-215 1490.99,-196 1447.99,-196"/>
<text text-anchor="middle" x="1469.49" y="-203" font-family="FreeSans" font-size="10.00">queue</text>
</g>
<!-- Node35&#45;&gt;Node56 -->
<g id="edge87" class="edge"><title>Node35&#45;&gt;Node56</title>
<path fill="none" stroke="midnightblue" d="M1739.6,-268.123C1687.78,-262.201 1584.41,-247.931 1500.49,-221 1498.82,-220.463 1497.12,-219.857 1495.42,-219.205"/>
<polygon fill="midnightblue" stroke="midnightblue" points="1496.48,-215.851 1485.91,-215.125 1493.72,-222.284 1496.48,-215.851"/>
</g>
<!-- Node57 -->
<g id="node58" class="node"><title>Node57</title>
<g id="a_node58"><a xlink:href="Descriptor_8h.html" target="_top" xlink:title="Descriptor.h">
<polygon fill="white" stroke="black" points="1619.49,-196 1619.49,-215 1687.49,-215 1687.49,-196 1619.49,-196"/>
<text text-anchor="middle" x="1653.49" y="-203" font-family="FreeSans" font-size="10.00">Descriptor.h</text>
</a>
</g>
</g>
<!-- Node35&#45;&gt;Node57 -->
<g id="edge90" class="edge"><title>Node35&#45;&gt;Node57</title>
<path fill="none" stroke="midnightblue" d="M1756.45,-262.734C1736.37,-251.769 1701.79,-232.881 1678.3,-220.049"/>
<polygon fill="midnightblue" stroke="midnightblue" points="1679.74,-216.849 1669.29,-215.127 1676.39,-222.993 1679.74,-216.849"/>
</g>
<!-- Node58 -->
<g id="node59" class="node"><title>Node58</title>
<g id="a_node59"><a xlink:href="RoI_8h.html" target="_top" xlink:title="RoI.h">
<polygon fill="white" stroke="black" points="1970.99,-129 1970.99,-148 2009.99,-148 2009.99,-129 1970.99,-129"/>
<text text-anchor="middle" x="1990.49" y="-136" font-family="FreeSans" font-size="10.00">RoI.h</text>
</a>
</g>
</g>
<!-- Node35&#45;&gt;Node58 -->
<g id="edge94" class="edge"><title>Node35&#45;&gt;Node58</title>
<path fill="none" stroke="midnightblue" d="M1763.62,-262.769C1748.48,-246.823 1721.02,-212.559 1739.49,-190 1767.19,-156.178 1900.5,-144.517 1960.78,-140.93"/>
<polygon fill="midnightblue" stroke="midnightblue" points="1961.02,-144.422 1970.81,-140.368 1960.63,-137.433 1961.02,-144.422"/>
</g>
<!-- Node59 -->
<g id="node60" class="node"><title>Node59</title>
<g id="a_node60"><a xlink:href="TaggedData_8h.html" target="_top" xlink:title="../DataStructures/Tagged\lData.h">
<polygon fill="white" stroke="black" points="1857.99,-190.5 1857.99,-220.5 1982.99,-220.5 1982.99,-190.5 1857.99,-190.5"/>
<text text-anchor="start" x="1865.99" y="-208.5" font-family="FreeSans" font-size="10.00">../DataStructures/Tagged</text>
<text text-anchor="middle" x="1920.49" y="-197.5" font-family="FreeSans" font-size="10.00">Data.h</text>
</a>
</g>
</g>
<!-- Node35&#45;&gt;Node59 -->
<g id="edge98" class="edge"><title>Node35&#45;&gt;Node59</title>
<path fill="none" stroke="midnightblue" d="M1792.15,-262.869C1814.26,-253.157 1850.8,-237.109 1879.25,-224.615"/>
<polygon fill="midnightblue" stroke="midnightblue" points="1880.8,-227.754 1888.55,-220.528 1877.99,-221.345 1880.8,-227.754"/>
</g>
<!-- Node61 -->
<g id="node62" class="node"><title>Node61</title>
<polygon fill="white" stroke="#bfbfbf" points="1509.49,-196 1509.49,-215 1563.49,-215 1563.49,-196 1509.49,-196"/>
<text text-anchor="middle" x="1536.49" y="-203" font-family="FreeSans" font-size="10.00">iostream</text>
</g>
<!-- Node35&#45;&gt;Node61 -->
<g id="edge102" class="edge"><title>Node35&#45;&gt;Node61</title>
<path fill="none" stroke="midnightblue" d="M1739.82,-263.953C1700.89,-254.751 1634.01,-238.277 1577.49,-221 1574.88,-220.2 1572.18,-219.336 1569.48,-218.441"/>
<polygon fill="midnightblue" stroke="midnightblue" points="1570.39,-215.055 1559.79,-215.133 1568.13,-221.679 1570.39,-215.055"/>
</g>
<!-- Node36&#45;&gt;Node10 -->
<g id="edge63" class="edge"><title>Node36&#45;&gt;Node10</title>
<path fill="none" stroke="midnightblue" d="M1266.67,-124.883C1271.33,-124.176 1275.98,-123.537 1280.49,-123 1580.58,-87.3075 1666.33,-160.371 1959.49,-87 1961.48,-86.5023 1963.5,-85.8754 1965.5,-85.1632"/>
<polygon fill="midnightblue" stroke="midnightblue" points="1967.3,-88.202 1975.16,-81.094 1964.58,-81.7511 1967.3,-88.202"/>
</g>
<!-- Node36&#45;&gt;Node19 -->
<g id="edge62" class="edge"><title>Node36&#45;&gt;Node19</title>
<path fill="none" stroke="midnightblue" d="M1266.67,-124.916C1271.34,-124.202 1275.98,-123.551 1280.49,-123 1547.87,-90.3215 1622.42,-144.854 1885.49,-87 1888.5,-86.3397 1891.58,-85.4699 1894.61,-84.4835"/>
<polygon fill="midnightblue" stroke="midnightblue" points="1895.83,-87.7641 1904.03,-81.0495 1893.43,-81.1879 1895.83,-87.7641"/>
</g>
<!-- Node36&#45;&gt;Node20 -->
<g id="edge64" class="edge"><title>Node36&#45;&gt;Node20</title>
<path fill="none" stroke="midnightblue" d="M1266.68,-136.616C1442.72,-133.748 1930.37,-122.719 2086.49,-87 2089.17,-86.3885 2091.9,-85.5917 2094.6,-84.686"/>
<polygon fill="midnightblue" stroke="midnightblue" points="2095.98,-87.9054 2104.07,-81.0664 2093.48,-81.3665 2095.98,-87.9054"/>
</g>
<!-- Node37 -->
<g id="node38" class="node"><title>Node37</title>
<polygon fill="white" stroke="#bfbfbf" points="1112.99,-62 1112.99,-81 1163.99,-81 1163.99,-62 1112.99,-62"/>
<text text-anchor="middle" x="1138.49" y="-69" font-family="FreeSans" font-size="10.00">assert.h</text>
</g>
<!-- Node36&#45;&gt;Node37 -->
<g id="edge59" class="edge"><title>Node36&#45;&gt;Node37</title>
<path fill="none" stroke="midnightblue" d="M1188.61,-123.396C1178.53,-113.161 1164.88,-99.2959 1154.37,-88.622"/>
<polygon fill="midnightblue" stroke="midnightblue" points="1156.57,-85.8646 1147.05,-81.1945 1151.58,-90.7759 1156.57,-85.8646"/>
</g>
<!-- Node38 -->
<g id="node39" class="node"><title>Node38</title>
<polygon fill="white" stroke="#bfbfbf" points="1181.99,-62 1181.99,-81 1222.99,-81 1222.99,-62 1181.99,-62"/>
<text text-anchor="middle" x="1202.49" y="-69" font-family="FreeSans" font-size="10.00">string</text>
</g>
<!-- Node36&#45;&gt;Node38 -->
<g id="edge60" class="edge"><title>Node36&#45;&gt;Node38</title>
<path fill="none" stroke="midnightblue" d="M1202.49,-123.396C1202.49,-114.064 1202.49,-101.714 1202.49,-91.5173"/>
<polygon fill="midnightblue" stroke="midnightblue" points="1205.99,-91.1945 1202.49,-81.1945 1198.99,-91.1946 1205.99,-91.1945"/>
</g>
<!-- Node39 -->
<g id="node40" class="node"><title>Node39</title>
<polygon fill="white" stroke="#bfbfbf" points="1240.99,-62 1240.99,-81 1299.99,-81 1299.99,-62 1240.99,-62"/>
<text text-anchor="middle" x="1270.49" y="-69" font-family="FreeSans" font-size="10.00">stdexcept</text>
</g>
<!-- Node36&#45;&gt;Node39 -->
<g id="edge61" class="edge"><title>Node36&#45;&gt;Node39</title>
<path fill="none" stroke="midnightblue" d="M1217.25,-123.396C1228.06,-113.06 1242.75,-99.0237 1253.96,-88.309"/>
<polygon fill="midnightblue" stroke="midnightblue" points="1256.59,-90.6344 1261.4,-81.1945 1251.75,-85.5743 1256.59,-90.6344"/>
</g>
<!-- Node40 -->
<g id="node41" class="node"><title>Node40</title>
<polygon fill="white" stroke="#bfbfbf" points="1317.99,-56.5 1317.99,-86.5 1426.99,-86.5 1426.99,-56.5 1317.99,-56.5"/>
<text text-anchor="start" x="1325.99" y="-74.5" font-family="FreeSans" font-size="10.00">boost/dynamic_bitset</text>
<text text-anchor="middle" x="1372.49" y="-63.5" font-family="FreeSans" font-size="10.00">/config.hpp</text>
</g>
<!-- Node36&#45;&gt;Node40 -->
<g id="edge65" class="edge"><title>Node36&#45;&gt;Node40</title>
<path fill="none" stroke="midnightblue" d="M1239.38,-123.396C1264.89,-113.643 1299.02,-100.595 1326.33,-90.152"/>
<polygon fill="midnightblue" stroke="midnightblue" points="1327.59,-93.4171 1335.68,-86.5765 1325.09,-86.8788 1327.59,-93.4171"/>
</g>
<!-- Node41 -->
<g id="node42" class="node"><title>Node41</title>
<polygon fill="white" stroke="#bfbfbf" points="1445.49,-62 1445.49,-81 1487.49,-81 1487.49,-62 1445.49,-62"/>
<text text-anchor="middle" x="1466.49" y="-69" font-family="FreeSans" font-size="10.00">locale</text>
</g>
<!-- Node36&#45;&gt;Node41 -->
<g id="edge66" class="edge"><title>Node36&#45;&gt;Node41</title>
<path fill="none" stroke="midnightblue" d="M1266.54,-125.291C1324.31,-113.976 1404.76,-97.3729 1435.49,-87 1437.16,-86.4384 1438.85,-85.8131 1440.55,-85.1463"/>
<polygon fill="midnightblue" stroke="midnightblue" points="1442.26,-88.2173 1450.04,-81.0288 1439.48,-81.7947 1442.26,-88.2173"/>
</g>
<!-- Node42 -->
<g id="node43" class="node"><title>Node42</title>
<polygon fill="white" stroke="#bfbfbf" points="1505.99,-62 1505.99,-81 1554.99,-81 1554.99,-62 1505.99,-62"/>
<text text-anchor="middle" x="1530.49" y="-69" font-family="FreeSans" font-size="10.00">istream</text>
</g>
<!-- Node36&#45;&gt;Node42 -->
<g id="edge67" class="edge"><title>Node36&#45;&gt;Node42</title>
<path fill="none" stroke="midnightblue" d="M1266.75,-125.457C1271.4,-124.616 1276.02,-123.789 1280.49,-123 1376.34,-106.105 1403.07,-114.282 1496.49,-87 1498.65,-86.3715 1500.84,-85.6445 1503.04,-84.8576"/>
<polygon fill="midnightblue" stroke="midnightblue" points="1504.42,-88.0734 1512.44,-81.1437 1501.85,-81.5631 1504.42,-88.0734"/>
</g>
<!-- Node36&#45;&gt;Node43 -->
<g id="edge68" class="edge"><title>Node36&#45;&gt;Node43</title>
<path fill="none" stroke="midnightblue" d="M1266.67,-124.956C1271.34,-124.232 1275.98,-123.569 1280.49,-123 1516.94,-93.1713 1583.45,-141.325 1815.49,-87 1818.16,-86.375 1820.89,-85.569 1823.59,-84.6576"/>
<polygon fill="midnightblue" stroke="midnightblue" points="1824.97,-87.8754 1833.06,-81.0297 1822.47,-81.3386 1824.97,-87.8754"/>
</g>
<!-- Node44 -->
<g id="node45" class="node"><title>Node44</title>
<polygon fill="white" stroke="#bfbfbf" points="1572.99,-56.5 1572.99,-86.5 1681.99,-86.5 1681.99,-56.5 1572.99,-56.5"/>
<text text-anchor="start" x="1580.99" y="-74.5" font-family="FreeSans" font-size="10.00">boost/dynamic_bitset</text>
<text text-anchor="middle" x="1627.49" y="-63.5" font-family="FreeSans" font-size="10.00">_fwd.hpp</text>
</g>
<!-- Node36&#45;&gt;Node44 -->
<g id="edge69" class="edge"><title>Node36&#45;&gt;Node44</title>
<path fill="none" stroke="midnightblue" d="M1266.72,-125.26C1271.37,-124.465 1276,-123.702 1280.49,-123 1402.58,-103.903 1436.9,-108.764 1562.73,-87.0213"/>
<polygon fill="midnightblue" stroke="midnightblue" points="1563.5,-90.4387 1572.75,-85.2669 1562.3,-83.5435 1563.5,-90.4387"/>
</g>
<!-- Node45 -->
<g id="node46" class="node"><title>Node45</title>
<polygon fill="white" stroke="#bfbfbf" points="1700.49,-56.5 1700.49,-86.5 1806.49,-86.5 1806.49,-56.5 1700.49,-56.5"/>
<text text-anchor="start" x="1708.49" y="-74.5" font-family="FreeSans" font-size="10.00">boost/detail/dynamic</text>
<text text-anchor="middle" x="1753.49" y="-63.5" font-family="FreeSans" font-size="10.00">_bitset.hpp</text>
</g>
<!-- Node36&#45;&gt;Node45 -->
<g id="edge70" class="edge"><title>Node36&#45;&gt;Node45</title>
<path fill="none" stroke="midnightblue" d="M1266.69,-125.06C1271.35,-124.312 1275.99,-123.615 1280.49,-123 1458.55,-98.6902 1508.09,-114.987 1690.4,-86.8384"/>
<polygon fill="midnightblue" stroke="midnightblue" points="1690.98,-90.2906 1700.32,-85.2843 1689.9,-83.375 1690.98,-90.2906"/>
</g>
<!-- Node46 -->
<g id="node47" class="node"><title>Node46</title>
<polygon fill="white" stroke="#bfbfbf" points="30.4942,-62 30.4942,-81 148.494,-81 148.494,-62 30.4942,-62"/>
<text text-anchor="middle" x="89.4942" y="-69" font-family="FreeSans" font-size="10.00">boost/detail/iterator.hpp</text>
</g>
<!-- Node36&#45;&gt;Node46 -->
<g id="edge71" class="edge"><title>Node36&#45;&gt;Node46</title>
<path fill="none" stroke="midnightblue" d="M1138.26,-137.998C974.178,-138.492 526.519,-134.941 157.494,-87 149.92,-86.016 141.936,-84.6327 134.207,-83.1075"/>
<polygon fill="midnightblue" stroke="midnightblue" points="134.753,-79.6462 124.25,-81.0424 133.331,-86.5003 134.753,-79.6462"/>
</g>
<!-- Node47 -->
<g id="node48" class="node"><title>Node47</title>
<polygon fill="white" stroke="#bfbfbf" points="166.994,-62 166.994,-81 279.994,-81 279.994,-62 166.994,-62"/>
<text text-anchor="middle" x="223.494" y="-69" font-family="FreeSans" font-size="10.00">boost/move/move.hpp</text>
</g>
<!-- Node36&#45;&gt;Node47 -->
<g id="edge72" class="edge"><title>Node36&#45;&gt;Node47</title>
<path fill="none" stroke="midnightblue" d="M1138.43,-137.567C988.865,-136.939 605.314,-130.788 288.494,-87 281.492,-86.0322 274.126,-84.6996 266.971,-83.2316"/>
<polygon fill="midnightblue" stroke="midnightblue" points="267.218,-79.7043 256.704,-81.0108 265.738,-86.546 267.218,-79.7043"/>
</g>
<!-- Node48 -->
<g id="node49" class="node"><title>Node48</title>
<polygon fill="white" stroke="#bfbfbf" points="297.994,-62 297.994,-81 382.994,-81 382.994,-62 297.994,-62"/>
<text text-anchor="middle" x="340.494" y="-69" font-family="FreeSans" font-size="10.00">boost/limits.hpp</text>
</g>
<!-- Node36&#45;&gt;Node48 -->
<g id="edge73" class="edge"><title>Node36&#45;&gt;Node48</title>
<path fill="none" stroke="midnightblue" d="M1138.34,-138.16C1000.55,-138.561 666.46,-134.086 391.494,-87 386.592,-86.1605 381.487,-85.0295 376.484,-83.7674"/>
<polygon fill="midnightblue" stroke="midnightblue" points="377.021,-80.2866 366.453,-81.044 375.187,-87.042 377.021,-80.2866"/>
</g>
<!-- Node49 -->
<g id="node50" class="node"><title>Node49</title>
<polygon fill="white" stroke="#bfbfbf" points="400.994,-56.5 400.994,-86.5 509.994,-86.5 509.994,-56.5 400.994,-56.5"/>
<text text-anchor="start" x="408.994" y="-74.5" font-family="FreeSans" font-size="10.00">boost/pending/lowest</text>
<text text-anchor="middle" x="455.494" y="-63.5" font-family="FreeSans" font-size="10.00">_bit.hpp</text>
</g>
<!-- Node36&#45;&gt;Node49 -->
<g id="edge74" class="edge"><title>Node36&#45;&gt;Node49</title>
<path fill="none" stroke="midnightblue" d="M1138.11,-135.934C1018.29,-132.324 752.93,-121.057 520.213,-86.9432"/>
<polygon fill="midnightblue" stroke="midnightblue" points="520.611,-83.4641 510.206,-85.4591 519.584,-90.3883 520.611,-83.4641"/>
</g>
<!-- Node50 -->
<g id="node51" class="node"><title>Node50</title>
<polygon fill="white" stroke="#bfbfbf" points="528.494,-62 528.494,-81 646.494,-81 646.494,-62 528.494,-62"/>
<text text-anchor="middle" x="587.494" y="-69" font-family="FreeSans" font-size="10.00">boost/static_assert.hpp</text>
</g>
<!-- Node36&#45;&gt;Node50 -->
<g id="edge75" class="edge"><title>Node36&#45;&gt;Node50</title>
<path fill="none" stroke="midnightblue" d="M1138.19,-134.03C1035.66,-127.944 828.975,-113.41 655.494,-87 648.357,-85.9134 640.842,-84.543 633.517,-83.0808"/>
<polygon fill="midnightblue" stroke="midnightblue" points="634.2,-79.648 623.698,-81.0479 632.78,-86.5026 634.2,-79.648"/>
</g>
<!-- Node51 -->
<g id="node52" class="node"><title>Node51</title>
<polygon fill="white" stroke="#bfbfbf" points="664.494,-62 664.494,-81 794.494,-81 794.494,-62 664.494,-62"/>
<text text-anchor="middle" x="729.494" y="-69" font-family="FreeSans" font-size="10.00">boost/utility/addressof.hpp</text>
</g>
<!-- Node36&#45;&gt;Node51 -->
<g id="edge76" class="edge"><title>Node36&#45;&gt;Node51</title>
<path fill="none" stroke="midnightblue" d="M1138.38,-130.737C1059.4,-122.093 921.201,-105.959 803.494,-87 796.035,-85.7986 788.178,-84.4019 780.482,-82.9592"/>
<polygon fill="midnightblue" stroke="midnightblue" points="780.985,-79.4918 770.505,-81.0485 779.668,-86.3669 780.985,-79.4918"/>
</g>
<!-- Node52 -->
<g id="node53" class="node"><title>Node52</title>
<polygon fill="white" stroke="#bfbfbf" points="812.494,-56.5 812.494,-86.5 944.494,-86.5 944.494,-56.5 812.494,-56.5"/>
<text text-anchor="start" x="820.494" y="-74.5" font-family="FreeSans" font-size="10.00">boost/detail/no_exceptions</text>
<text text-anchor="middle" x="878.494" y="-63.5" font-family="FreeSans" font-size="10.00">_support.hpp</text>
</g>
<!-- Node36&#45;&gt;Node52 -->
<g id="edge77" class="edge"><title>Node36&#45;&gt;Node52</title>
<path fill="none" stroke="midnightblue" d="M1138.48,-124.658C1085.59,-114.048 1010.39,-98.9598 954.455,-87.739"/>
<polygon fill="midnightblue" stroke="midnightblue" points="955.091,-84.2969 944.598,-85.7615 953.714,-91.1602 955.091,-84.2969"/>
</g>
<!-- Node53 -->
<g id="node54" class="node"><title>Node53</title>
<polygon fill="white" stroke="#bfbfbf" points="962.494,-62 962.494,-81 1094.49,-81 1094.49,-62 962.494,-62"/>
<text text-anchor="middle" x="1028.49" y="-69" font-family="FreeSans" font-size="10.00">boost/throw_exception.hpp</text>
</g>
<!-- Node36&#45;&gt;Node53 -->
<g id="edge78" class="edge"><title>Node36&#45;&gt;Node53</title>
<path fill="none" stroke="midnightblue" d="M1164.74,-123.396C1133.67,-111.789 1090.1,-95.5147 1060.67,-84.5192"/>
<polygon fill="midnightblue" stroke="midnightblue" points="1061.86,-81.2278 1051.27,-81.007 1059.41,-87.7852 1061.86,-81.2278"/>
</g>
<!-- Node57&#45;&gt;Node4 -->
<g id="edge92" class="edge"><title>Node57&#45;&gt;Node4</title>
<path fill="none" stroke="midnightblue" d="M1687.66,-201.928C1726.59,-199.004 1792.12,-194.105 1848.49,-190 2072.91,-173.657 2134.37,-205.129 2353.49,-154 2389.02,-145.711 2394.22,-132.309 2429.49,-123 2549.96,-91.2075 2585.92,-114.219 2707.49,-87 2711.15,-86.1807 2714.94,-85.192 2718.69,-84.1205"/>
<polygon fill="midnightblue" stroke="midnightblue" points="2719.89,-87.4154 2728.43,-81.1501 2717.84,-80.7199 2719.89,-87.4154"/>
</g>
<!-- Node57&#45;&gt;Node10 -->
<g id="edge93" class="edge"><title>Node57&#45;&gt;Node10</title>
<path fill="none" stroke="midnightblue" d="M1677.53,-195.929C1729.46,-177.269 1855.8,-131.093 1959.49,-87 1960.69,-86.4899 1961.92,-85.9608 1963.15,-85.4196"/>
<polygon fill="midnightblue" stroke="midnightblue" points="1964.9,-88.4687 1972.56,-81.1516 1962.01,-82.0934 1964.9,-88.4687"/>
</g>
<!-- Node57&#45;&gt;Node36 -->
<g id="edge91" class="edge"><title>Node57&#45;&gt;Node36</title>
<path fill="none" stroke="midnightblue" d="M1619.26,-198.047C1604.84,-195.414 1587.88,-192.425 1572.49,-190 1470.35,-173.894 1351.86,-158.254 1277.04,-148.752"/>
<polygon fill="midnightblue" stroke="midnightblue" points="1277.14,-145.237 1266.78,-147.452 1276.26,-152.181 1277.14,-145.237"/>
</g>
<!-- Node58&#45;&gt;Node4 -->
<g id="edge95" class="edge"><title>Node58&#45;&gt;Node4</title>
<path fill="none" stroke="midnightblue" d="M2010.04,-136.406C2117.83,-130.335 2637.28,-100.578 2707.49,-87 2711.46,-86.233 2715.57,-85.2249 2719.61,-84.0969"/>
<polygon fill="midnightblue" stroke="midnightblue" points="2720.87,-87.372 2729.42,-81.1145 2718.83,-80.6747 2720.87,-87.372"/>
</g>
<!-- Node58&#45;&gt;Node10 -->
<g id="edge96" class="edge"><title>Node58&#45;&gt;Node10</title>
<path fill="none" stroke="midnightblue" d="M1990.49,-128.734C1990.49,-119.183 1990.49,-103.618 1990.49,-91.2829"/>
<polygon fill="midnightblue" stroke="midnightblue" points="1993.99,-91.1273 1990.49,-81.1273 1986.99,-91.1273 1993.99,-91.1273"/>
</g>
<!-- Node60 -->
<g id="node61" class="node"><title>Node60</title>
<g id="a_node61"><a xlink:href="TaggedData_8ipp.html" target="_top" xlink:title="TaggedData.ipp">
<polygon fill="white" stroke="black" points="2438.49,-129 2438.49,-148 2522.49,-148 2522.49,-129 2438.49,-129"/>
<text text-anchor="middle" x="2480.49" y="-136" font-family="FreeSans" font-size="10.00">TaggedData.ipp</text>
</a>
</g>
</g>
<!-- Node59&#45;&gt;Node60 -->
<g id="edge99" class="edge"><title>Node59&#45;&gt;Node60</title>
<path fill="none" stroke="midnightblue" d="M1983.02,-192.173C1987.91,-191.378 1992.78,-190.641 1997.49,-190 2186.21,-164.344 2236.75,-185.984 2424.49,-154 2430,-153.062 2435.76,-151.847 2441.4,-150.519"/>
<polygon fill="midnightblue" stroke="midnightblue" points="2442.48,-153.856 2451.34,-148.045 2440.79,-147.063 2442.48,-153.856"/>
</g>
<!-- Node60&#45;&gt;Node3 -->
<g id="edge100" class="edge"><title>Node60&#45;&gt;Node3</title>
<path fill="none" stroke="midnightblue" d="M2522.7,-131.443C2600.9,-120.223 2768.98,-96.1059 2864.13,-82.4536"/>
<polygon fill="midnightblue" stroke="midnightblue" points="2864.83,-85.8889 2874.23,-81.004 2863.83,-78.9599 2864.83,-85.8889"/>
</g>
<!-- Node63 -->
<g id="node64" class="node"><title>Node63</title>
<g id="a_node64"><a xlink:href="EigenExtensions_8ipp.html" target="_top" xlink:title="EigenExtensions.ipp">
<polygon fill="white" stroke="black" points="3783.99,-196 3783.99,-215 3886.99,-215 3886.99,-196 3783.99,-196"/>
<text text-anchor="middle" x="3835.49" y="-203" font-family="FreeSans" font-size="10.00">EigenExtensions.ipp</text>
</a>
</g>
</g>
<!-- Node62&#45;&gt;Node63 -->
<g id="edge105" class="edge"><title>Node62&#45;&gt;Node63</title>
<path fill="none" stroke="midnightblue" d="M3816.46,-262.734C3819.73,-253.085 3825.07,-237.3 3829.26,-224.906"/>
<polygon fill="midnightblue" stroke="midnightblue" points="3832.68,-225.722 3832.57,-215.127 3826.05,-223.477 3832.68,-225.722"/>
</g>
<!-- Node63&#45;&gt;Node4 -->
<g id="edge106" class="edge"><title>Node63&#45;&gt;Node4</title>
<path fill="none" stroke="midnightblue" d="M3817.62,-195.989C3775.35,-175.928 3671.51,-127.059 3654.49,-123 3482.69,-82.012 3036.41,-102.767 2860.49,-87 2840.05,-85.1677 2817.54,-82.2839 2798.38,-79.5691"/>
<polygon fill="midnightblue" stroke="midnightblue" points="2798.8,-76.0943 2788.41,-78.1288 2797.8,-83.0224 2798.8,-76.0943"/>
</g>
<!-- Node63&#45;&gt;Node5 -->
<g id="edge107" class="edge"><title>Node63&#45;&gt;Node5</title>
<path fill="none" stroke="midnightblue" d="M3852.62,-195.869C3874.5,-184.845 3912.59,-165.655 3938.16,-152.768"/>
<polygon fill="midnightblue" stroke="midnightblue" points="3939.94,-155.793 3947.29,-148.167 3936.79,-149.541 3939.94,-155.793"/>
</g>
<!-- Node63&#45;&gt;Node8 -->
<g id="edge112" class="edge"><title>Node63&#45;&gt;Node8</title>
<path fill="none" stroke="midnightblue" d="M3867.1,-195.869C3913.2,-183.278 3998.31,-160.034 4043.49,-147.695"/>
<polygon fill="midnightblue" stroke="midnightblue" points="4044.56,-151.031 4053.28,-145.02 4042.71,-144.279 4044.56,-151.031"/>
</g>
<!-- Node63&#45;&gt;Node9 -->
<g id="edge110" class="edge"><title>Node63&#45;&gt;Node9</title>
<path fill="none" stroke="midnightblue" d="M3838.22,-195.992C3842.93,-179.487 3850.35,-142.992 3831.49,-123 3780.27,-68.6961 3569.91,-105.117 3497.49,-87 3494.83,-86.3331 3492.1,-85.5108 3489.39,-84.5994"/>
<polygon fill="midnightblue" stroke="midnightblue" points="3490.45,-81.2566 3479.85,-81.0273 3487.99,-87.812 3490.45,-81.2566"/>
</g>
<!-- Node63&#45;&gt;Node11 -->
<g id="edge111" class="edge"><title>Node63&#45;&gt;Node11</title>
<path fill="none" stroke="midnightblue" d="M3840.81,-195.971C3849.79,-180.356 3865.68,-146.607 3851.49,-123 3818.83,-68.6338 3785.94,-75.2128 3725.49,-56 3616.51,-21.3594 3480.58,-13.2865 3413.65,-11.4719"/>
<polygon fill="midnightblue" stroke="midnightblue" points="3413.59,-7.96968 3403.51,-11.2313 3413.43,-14.9677 3413.59,-7.96968"/>
</g>
<!-- Node63&#45;&gt;Node17 -->
<g id="edge108" class="edge"><title>Node63&#45;&gt;Node17</title>
<path fill="none" stroke="midnightblue" d="M3834.32,-195.763C3831.49,-178.513 3822.57,-140.26 3797.49,-123 3769.41,-103.673 3261.46,-80.0814 3123.07,-73.9905"/>
<polygon fill="midnightblue" stroke="midnightblue" points="3123.16,-70.4914 3113.02,-73.5505 3122.86,-77.4847 3123.16,-70.4914"/>
</g>
<!-- Node63&#45;&gt;Node31 -->
<g id="edge113" class="edge"><title>Node63&#45;&gt;Node31</title>
<path fill="none" stroke="midnightblue" d="M3800.18,-195.936C3751.98,-184.244 3665.54,-163.28 3612.67,-150.457"/>
<polygon fill="midnightblue" stroke="midnightblue" points="3613.43,-147.039 3602.88,-148.083 3611.78,-153.842 3613.43,-147.039"/>
</g>
<!-- Node64 -->
<g id="node65" class="node"><title>Node64</title>
<polygon fill="white" stroke="#bfbfbf" points="3739.99,-129 3739.99,-148 3788.99,-148 3788.99,-129 3739.99,-129"/>
<text text-anchor="middle" x="3764.49" y="-136" font-family="FreeSans" font-size="10.00">cassert</text>
</g>
<!-- Node63&#45;&gt;Node64 -->
<g id="edge109" class="edge"><title>Node63&#45;&gt;Node64</title>
<path fill="none" stroke="midnightblue" d="M3825.92,-195.734C3814.53,-185.305 3795.31,-167.709 3781.4,-154.973"/>
<polygon fill="midnightblue" stroke="midnightblue" points="3783.66,-152.298 3773.92,-148.127 3778.93,-157.461 3783.66,-152.298"/>
</g>
<!-- Node65&#45;&gt;Node4 -->
<g id="edge130" class="edge"><title>Node65&#45;&gt;Node4</title>
<path fill="none" stroke="midnightblue" d="M3263.91,-391.382C3226.18,-375.49 3147.31,-338.518 3095.49,-288 3033.59,-227.653 3063.35,-172.528 2992.49,-123 2976.72,-111.972 2863.48,-91.3272 2798.34,-80.1535"/>
<polygon fill="midnightblue" stroke="midnightblue" points="2798.77,-76.6758 2788.32,-78.4444 2797.59,-83.5761 2798.77,-76.6758"/>
</g>
<!-- Node66 -->
<g id="node67" class="node"><title>Node66</title>
<g id="a_node67"><a xlink:href="LinearAlgebra_8ipp.html" target="_top" xlink:title="LinearAlgebra.ipp">
<polygon fill="white" stroke="black" points="3393.49,-330 3393.49,-349 3485.49,-349 3485.49,-330 3393.49,-330"/>
<text text-anchor="middle" x="3439.49" y="-337" font-family="FreeSans" font-size="10.00">LinearAlgebra.ipp</text>
</a>
</g>
</g>
<!-- Node65&#45;&gt;Node66 -->
<g id="edge115" class="edge"><title>Node65&#45;&gt;Node66</title>
<path fill="none" stroke="midnightblue" d="M3307.56,-391.475C3333.86,-381.313 3378.01,-364.256 3407.92,-352.7"/>
<polygon fill="midnightblue" stroke="midnightblue" points="3409.4,-355.878 3417.47,-349.009 3406.88,-349.348 3409.4,-355.878"/>
</g>
<!-- Node66&#45;&gt;Node2 -->
<g id="edge117" class="edge"><title>Node66&#45;&gt;Node2</title>
<path fill="none" stroke="midnightblue" d="M3393.42,-335.865C3290.24,-329.722 3032.83,-313.041 2818.49,-288 2806.45,-286.593 2793.6,-284.817 2781.35,-282.995"/>
<polygon fill="midnightblue" stroke="midnightblue" points="2781.66,-279.501 2771.25,-281.46 2780.61,-286.422 2781.66,-279.501"/>
</g>
<!-- Node66&#45;&gt;Node3 -->
<g id="edge116" class="edge"><title>Node66&#45;&gt;Node3</title>
<path fill="none" stroke="midnightblue" d="M3433.1,-329.517C3406.31,-292.14 3302.3,-149.658 3254.49,-123 3233.29,-111.177 3095.5,-92.4243 3007.47,-81.4045"/>
<polygon fill="midnightblue" stroke="midnightblue" points="3007.88,-77.9286 2997.53,-80.1657 3007.02,-84.8749 3007.88,-77.9286"/>
</g>
<!-- Node66&#45;&gt;Node5 -->
<g id="edge122" class="edge"><title>Node66&#45;&gt;Node5</title>
<path fill="none" stroke="midnightblue" d="M3485.74,-338.979C3588.27,-339.169 3830.73,-334.536 3895.49,-288 3939.28,-256.541 3956.06,-190.2 3961.81,-157.92"/>
<polygon fill="midnightblue" stroke="midnightblue" points="3965.27,-158.467 3963.42,-148.036 3958.36,-157.346 3965.27,-158.467"/>
</g>
<!-- Node66&#45;&gt;Node6 -->
<g id="edge121" class="edge"><title>Node66&#45;&gt;Node6</title>
<path fill="none" stroke="midnightblue" d="M3485.57,-336.862C3572.96,-333.071 3768.49,-321.313 3929.49,-288 3933.44,-287.184 3937.53,-286.162 3941.57,-285.04"/>
<polygon fill="midnightblue" stroke="midnightblue" points="3942.81,-288.323 3951.39,-282.109 3940.8,-281.615 3942.81,-288.323"/>
</g>
<!-- Node66&#45;&gt;Node7 -->
<g id="edge123" class="edge"><title>Node66&#45;&gt;Node7</title>
<path fill="none" stroke="midnightblue" d="M3439.49,-329.839C3439.49,-308.674 3439.49,-253.948 3439.49,-225.033"/>
<polygon fill="midnightblue" stroke="midnightblue" points="3442.99,-225.021 3439.49,-215.021 3435.99,-225.021 3442.99,-225.021"/>
</g>
<!-- Node66&#45;&gt;Node9 -->
<g id="edge126" class="edge"><title>Node66&#45;&gt;Node9</title>
<path fill="none" stroke="midnightblue" d="M3442.04,-329.966C3444.99,-319.96 3449.89,-302.853 3453.49,-288 3460.67,-258.438 3464.37,-251.26 3467.49,-221 3472.3,-174.531 3467.31,-119.513 3463.97,-91.282"/>
<polygon fill="midnightblue" stroke="midnightblue" points="3467.43,-90.7208 3462.72,-81.231 3460.48,-91.5874 3467.43,-90.7208"/>
</g>
<!-- Node66&#45;&gt;Node11 -->
<g id="edge127" class="edge"><title>Node66&#45;&gt;Node11</title>
<path fill="none" stroke="midnightblue" d="M3485.64,-336.494C3563.24,-330.375 3711.49,-305.705 3711.49,-206.5 3711.49,-206.5 3711.49,-206.5 3711.49,-137.5 3711.49,-85.4824 3673.81,-79.6731 3627.49,-56 3558.4,-20.6862 3466.55,-12.5355 3414.05,-10.9725"/>
<polygon fill="midnightblue" stroke="midnightblue" points="3413.85,-7.46727 3403.77,-10.7366 3413.69,-14.4654 3413.85,-7.46727"/>
</g>
<!-- Node66&#45;&gt;Node17 -->
<g id="edge125" class="edge"><title>Node66&#45;&gt;Node17</title>
<path fill="none" stroke="midnightblue" d="M3437.47,-329.855C3429.06,-296.094 3393.39,-172.571 3311.49,-123 3251.95,-86.9591 3169.36,-76.5982 3123.22,-73.6471"/>
<polygon fill="midnightblue" stroke="midnightblue" points="3123.31,-70.1468 3113.13,-73.0837 3122.92,-77.1359 3123.31,-70.1468"/>
</g>
<!-- Node66&#45;&gt;Node20 -->
<g id="edge124" class="edge"><title>Node66&#45;&gt;Node20</title>
<path fill="none" stroke="midnightblue" d="M3393.22,-336.889C3326.02,-333.403 3198.23,-322.426 3095.49,-288 3009.5,-259.182 3002.1,-219.956 2916.49,-190 2752.56,-132.635 2703.63,-146.14 2531.49,-123 2364.24,-100.516 2316.57,-130.418 2153.49,-87 2151.34,-86.4263 2149.15,-85.7206 2146.97,-84.9325"/>
<polygon fill="midnightblue" stroke="midnightblue" points="2148.3,-81.6929 2137.72,-81.1022 2145.62,-88.1607 2148.3,-81.6929"/>
</g>
<!-- Node66&#45;&gt;Node31 -->
<g id="edge128" class="edge"><title>Node66&#45;&gt;Node31</title>
<path fill="none" stroke="midnightblue" d="M3485.7,-331.614C3532.4,-323.598 3599.86,-308.756 3615.49,-288 3646.38,-247.012 3605.29,-185.386 3581.82,-156.098"/>
<polygon fill="midnightblue" stroke="midnightblue" points="3584.27,-153.575 3575.2,-148.105 3578.88,-158.039 3584.27,-153.575"/>
</g>
<!-- Node66&#45;&gt;Node62 -->
<g id="edge129" class="edge"><title>Node66&#45;&gt;Node62</title>
<path fill="none" stroke="midnightblue" d="M3485.73,-330.465C3553.49,-318.689 3679.77,-296.742 3754.25,-283.797"/>
<polygon fill="midnightblue" stroke="midnightblue" points="3755.15,-287.193 3764.4,-282.032 3753.95,-280.297 3755.15,-287.193"/>
</g>
<!-- Node67 -->
<g id="node68" class="node"><title>Node67</title>
<polygon fill="white" stroke="#bfbfbf" points="3505.99,-257.5 3505.99,-287.5 3606.99,-287.5 3606.99,-257.5 3505.99,-257.5"/>
<text text-anchor="start" x="3513.99" y="-275.5" font-family="FreeSans" font-size="10.00">boost/math/special</text>
<text text-anchor="middle" x="3556.49" y="-264.5" font-family="FreeSans" font-size="10.00">_functions/pow.hpp</text>
</g>
<!-- Node66&#45;&gt;Node67 -->
<g id="edge118" class="edge"><title>Node66&#45;&gt;Node67</title>
<path fill="none" stroke="midnightblue" d="M3455.27,-329.734C3472.38,-320.231 3500.2,-304.777 3522.34,-292.472"/>
<polygon fill="midnightblue" stroke="midnightblue" points="3524.09,-295.505 3531.13,-287.589 3520.69,-289.386 3524.09,-295.505"/>
</g>
<!-- Node68 -->
<g id="node69" class="node"><title>Node68</title>
<polygon fill="white" stroke="#bfbfbf" points="3104.99,-257.5 3104.99,-287.5 3205.99,-287.5 3205.99,-257.5 3104.99,-257.5"/>
<text text-anchor="start" x="3112.99" y="-275.5" font-family="FreeSans" font-size="10.00">boost/math/special</text>
<text text-anchor="middle" x="3155.49" y="-264.5" font-family="FreeSans" font-size="10.00">_functions/sign.hpp</text>
</g>
<!-- Node66&#45;&gt;Node68 -->
<g id="edge119" class="edge"><title>Node66&#45;&gt;Node68</title>
<path fill="none" stroke="midnightblue" d="M3400.42,-329.981C3357.51,-320.571 3286.34,-304.798 3215.93,-288.315"/>
<polygon fill="midnightblue" stroke="midnightblue" points="3216.54,-284.863 3206.01,-285.986 3214.94,-291.678 3216.54,-284.863"/>
</g>
<!-- Node69 -->
<g id="node70" class="node"><title>Node69</title>
<polygon fill="white" stroke="#bfbfbf" points="3223.99,-257.5 3223.99,-287.5 3334.99,-287.5 3334.99,-257.5 3223.99,-257.5"/>
<text text-anchor="start" x="3231.99" y="-275.5" font-family="FreeSans" font-size="10.00">boost/math/constants</text>
<text text-anchor="middle" x="3279.49" y="-264.5" font-family="FreeSans" font-size="10.00">/constants.hpp</text>
</g>
<!-- Node66&#45;&gt;Node69 -->
<g id="edge120" class="edge"><title>Node66&#45;&gt;Node69</title>
<path fill="none" stroke="midnightblue" d="M3418.25,-329.869C3394.24,-320.115 3354.5,-303.97 3323.68,-291.452"/>
<polygon fill="midnightblue" stroke="midnightblue" points="3324.61,-288.049 3314.02,-287.528 3321.97,-294.535 3324.61,-288.049"/>
</g>
</g>
</svg>
        <g id="navigator" transform="translate(0 0)" fill="#404254">
                <rect fill="#f2f5e9" fill-opacity="0.5" stroke="#606060" stroke-width=".5" x="0" y="0" width="60" height="60"/>
                <use id="zoomplus" xlink:href="#zoomPlus" x="17" y="9" onmousedown="handleZoom(evt,'in')"/>
                <use id="zoomminus" xlink:href="#zoomMin" x="42" y="9" onmousedown="handleZoom(evt,'out')"/>
                <use id="reset" xlink:href="#resetDef" x="30" y="36" onmousedown="handleReset()"/>
                <g id="arrowUp" xlink:href="#dirArrow" transform="translate(30 24)" onmousedown="handlePan(0,-1)">
                  <use xlink:href="#rim" fill="#404040">
                        <set attributeName="fill" to="#808080" begin="arrowUp.mouseover" end="arrowUp.mouseout"/>
                  </use>
                  <path fill="none" stroke="white" stroke-width="1.5" d="M0,-3.0v7 M-2.5,-0.5L0,-3.0L2.5,-0.5"/>
                </g>
                <g id="arrowRight" xlink:href="#dirArrow" transform="rotate(90) translate(36 -43)" onmousedown="handlePan(1,0)">
                  <use xlink:href="#rim" fill="#404040">
                        <set attributeName="fill" to="#808080" begin="arrowRight.mouseover" end="arrowRight.mouseout"/>
                  </use>
                  <path fill="none" stroke="white" stroke-width="1.5" d="M0,-3.0v7 M-2.5,-0.5L0,-3.0L2.5,-0.5"/>
                </g>
                <g id="arrowDown" xlink:href="#dirArrow" transform="rotate(180) translate(-30 -48)" onmousedown="handlePan(0,1)">
                  <use xlink:href="#rim" fill="#404040">
                        <set attributeName="fill" to="#808080" begin="arrowDown.mouseover" end="arrowDown.mouseout"/>
                  </use>
                  <path fill="none" stroke="white" stroke-width="1.5" d="M0,-3.0v7 M-2.5,-0.5L0,-3.0L2.5,-0.5"/>
                </g>
                <g id="arrowLeft" xlink:href="#dirArrow" transform="rotate(270) translate(-36 17)" onmousedown="handlePan(-1,0)">
                  <use xlink:href="#rim" fill="#404040">
                        <set attributeName="fill" to="#808080" begin="arrowLeft.mouseover" end="arrowLeft.mouseout"/>
                  </use>
                  <path fill="none" stroke="white" stroke-width="1.5" d="M0,-3.0v7 M-2.5,-0.5L0,-3.0L2.5,-0.5"/>
                </g>
        </g>
        <svg viewBox="0 0 15 15" width="100%" height="30px" preserveAspectRatio="xMaxYMin meet">
         <g id="arrow_out" transform="scale(0.3 0.3)">
          <a xlink:href="GeometricEntity_8h__incl_org.svg" target="_base">
           <rect id="button" ry="5" rx="5" y="6" x="6" height="38" width="38"
                fill="#f2f5e9" fill-opacity="0.5" stroke="#606060" stroke-width="1.0"/>
           <path id="arrow"
             d="M 11.500037,31.436501 C 11.940474,20.09759 22.043105,11.32322 32.158766,21.979434 L 37.068811,17.246167 C 37.068811,17.246167 37.088388,32 37.088388,32 L 22.160133,31.978069 C 22.160133,31.978069 26.997745,27.140456 26.997745,27.140456 C 18.528582,18.264221 13.291696,25.230495 11.500037,31.436501 z"
             style="fill:#404040;"/>
          </a>
         </g>
        </svg>
</svg>
