<?xml version="1.0" encoding="UTF-8" standalone="no"?>
<!DOCTYPE svg PUBLIC "-//W3C//DTD SVG 1.1//EN"
 "http://www.w3.org/Graphics/SVG/1.1/DTD/svg11.dtd">
<!-- Generated by graphviz version 2.38.0 (20140413.2041)
 -->
<!-- Title: SeeSawN::GeometryN::MakeRANSACHomography2DProblem Pages: 1 -->
<svg width="1058pt" height="310pt"
 viewBox="0.00 0.00 1058.00 309.50" xmlns="http://www.w3.org/2000/svg" xmlns:xlink="http://www.w3.org/1999/xlink">
<g id="graph0" class="graph" transform="scale(1 1) rotate(0) translate(4 305.5)">
<title>SeeSawN::GeometryN::MakeRANSACHomography2DProblem</title>
<polygon fill="white" stroke="none" points="-4,4 -4,-305.5 1054,-305.5 1054,4 -4,4"/>
<!-- Node15 -->
<g id="node1" class="node"><title>Node15</title>
<polygon fill="#bfbfbf" stroke="black" points="0,-126 0,-156 189,-156 189,-126 0,-126"/>
<text text-anchor="start" x="8" y="-144" font-family="FreeSans" font-size="10.00">SeeSawN::GeometryN</text>
<text text-anchor="middle" x="94.5" y="-133" font-family="FreeSans" font-size="10.00">::MakeRANSACHomography2DProblem</text>
</g>
<!-- Node16 -->
<g id="node2" class="node"><title>Node16</title>
<g id="a_node2"><a xlink:href="classSeeSawN_1_1TrackerN_1_1ImageFeatureTrackingPipelineC.html#a735ee5f1210ba1c3df2d6e40a0a1793a" target="_top" xlink:title="Applies the homography constraint to identify the static features. ">
<polygon fill="white" stroke="black" points="269.5,-240.5 269.5,-281.5 420.5,-281.5 420.5,-240.5 269.5,-240.5"/>
<text text-anchor="start" x="277.5" y="-269.5" font-family="FreeSans" font-size="10.00">SeeSawN::TrackerN::</text>
<text text-anchor="start" x="277.5" y="-258.5" font-family="FreeSans" font-size="10.00">ImageFeatureTrackingPipeline</text>
<text text-anchor="middle" x="345" y="-247.5" font-family="FreeSans" font-size="10.00">C::ApplyHomographyConstraint</text>
</a>
</g>
</g>
<!-- Node15&#45;&gt;Node16 -->
<g id="edge1" class="edge"><title>Node15&#45;&gt;Node16</title>
<path fill="none" stroke="midnightblue" d="M120.535,-162.542C145.463,-182.949 185.597,-213.065 225,-231 238.865,-237.311 254.268,-242.437 269.268,-246.548"/>
<polygon fill="midnightblue" stroke="midnightblue" points="122.616,-159.721 112.687,-156.026 118.144,-165.107 122.616,-159.721"/>
</g>
<!-- Node21 -->
<g id="node7" class="node"><title>Node21</title>
<g id="a_node7"><a xlink:href="namespaceSeeSawN_1_1UnitTestsN_1_1TestGeometryN.html#a32654de8d3508439f7b2c562a9341d8e" target="_top" xlink:title="SeeSawN::UnitTestsN\l::TestGeometryN::BOOST\l_AUTO_TEST_CASE">
<polygon fill="white" stroke="black" points="280.5,-180.5 280.5,-221.5 409.5,-221.5 409.5,-180.5 280.5,-180.5"/>
<text text-anchor="start" x="288.5" y="-209.5" font-family="FreeSans" font-size="10.00">SeeSawN::UnitTestsN</text>
<text text-anchor="start" x="288.5" y="-198.5" font-family="FreeSans" font-size="10.00">::TestGeometryN::BOOST</text>
<text text-anchor="middle" x="345" y="-187.5" font-family="FreeSans" font-size="10.00">_AUTO_TEST_CASE</text>
</a>
</g>
</g>
<!-- Node15&#45;&gt;Node21 -->
<g id="edge6" class="edge"><title>Node15&#45;&gt;Node21</title>
<path fill="none" stroke="midnightblue" d="M167.733,-158.441C203.343,-167.039 245.909,-177.316 280.29,-185.617"/>
<polygon fill="midnightblue" stroke="midnightblue" points="168.428,-155.008 157.886,-156.063 166.785,-161.812 168.428,-155.008"/>
</g>
<!-- Node22 -->
<g id="node8" class="node"><title>Node22</title>
<g id="a_node8"><a xlink:href="classSeeSawN_1_1AppMultimodelGeometryEstimator22N_1_1AppMultimodelGeometryEstimator22ImplementationC.html#ac91cea9549a34161bf941ef8dd7772e0" target="_top" xlink:title="Runs the homography estimation pipeline. ">
<polygon fill="white" stroke="black" points="225,-120.5 225,-161.5 465,-161.5 465,-120.5 225,-120.5"/>
<text text-anchor="start" x="233" y="-149.5" font-family="FreeSans" font-size="10.00">SeeSawN::AppMultimodelGeometry</text>
<text text-anchor="start" x="233" y="-138.5" font-family="FreeSans" font-size="10.00">Estimator22N::AppMultimodelGeometry</text>
<text text-anchor="middle" x="345" y="-127.5" font-family="FreeSans" font-size="10.00">Estimator22ImplementationC::ComputeHomography</text>
</a>
</g>
</g>
<!-- Node15&#45;&gt;Node22 -->
<g id="edge7" class="edge"><title>Node15&#45;&gt;Node22</title>
<path fill="none" stroke="midnightblue" d="M199.32,-141C207.767,-141 216.342,-141 224.885,-141"/>
<polygon fill="midnightblue" stroke="midnightblue" points="199.093,-137.5 189.093,-141 199.093,-144.5 199.093,-137.5"/>
</g>
<!-- Node23 -->
<g id="node9" class="node"><title>Node23</title>
<g id="a_node9"><a xlink:href="classSeeSawN_1_1AppGeometryEstimator22N_1_1GeometryEstimator22ImplementationC.html#adcd6634684cc6fa0af368858b0465924" target="_top" xlink:title="Runs the homography estimation pipeline. ">
<polygon fill="white" stroke="black" points="250.5,-60.5 250.5,-101.5 439.5,-101.5 439.5,-60.5 250.5,-60.5"/>
<text text-anchor="start" x="258.5" y="-89.5" font-family="FreeSans" font-size="10.00">SeeSawN::AppGeometryEstimator22</text>
<text text-anchor="start" x="258.5" y="-78.5" font-family="FreeSans" font-size="10.00">N::GeometryEstimator22Implementation</text>
<text text-anchor="middle" x="345" y="-67.5" font-family="FreeSans" font-size="10.00">C::ComputeHomography</text>
</a>
</g>
</g>
<!-- Node15&#45;&gt;Node23 -->
<g id="edge8" class="edge"><title>Node15&#45;&gt;Node23</title>
<path fill="none" stroke="midnightblue" d="M167.787,-123.546C196.342,-116.652 229.364,-108.679 259.049,-101.511"/>
<polygon fill="midnightblue" stroke="midnightblue" points="166.785,-120.188 157.886,-125.937 168.428,-126.992 166.785,-120.188"/>
</g>
<!-- Node24 -->
<g id="node10" class="node"><title>Node24</title>
<g id="a_node10"><a xlink:href="classSeeSawN_1_1GeometryN_1_1VisionGraphPipelineC.html#ac7557be58defccf810cb7b5602c40e7f" target="_top" xlink:title="Homography estimation. ">
<polygon fill="white" stroke="black" points="287,-0.5 287,-41.5 403,-41.5 403,-0.5 287,-0.5"/>
<text text-anchor="start" x="295" y="-29.5" font-family="FreeSans" font-size="10.00">SeeSawN::GeometryN</text>
<text text-anchor="start" x="295" y="-18.5" font-family="FreeSans" font-size="10.00">::VisionGraphPipelineC</text>
<text text-anchor="middle" x="345" y="-7.5" font-family="FreeSans" font-size="10.00">::EstimateGeometry</text>
</a>
</g>
</g>
<!-- Node15&#45;&gt;Node24 -->
<g id="edge9" class="edge"><title>Node15&#45;&gt;Node24</title>
<path fill="none" stroke="midnightblue" d="M120.535,-119.458C145.463,-99.0514 185.597,-68.9355 225,-51 244.392,-42.1733 266.792,-35.6648 286.891,-31.0103"/>
<polygon fill="midnightblue" stroke="midnightblue" points="118.144,-116.893 112.687,-125.974 122.616,-122.279 118.144,-116.893"/>
</g>
<!-- Node17 -->
<g id="node3" class="node"><title>Node17</title>
<g id="a_node3"><a xlink:href="classSeeSawN_1_1TrackerN_1_1ImageFeatureTrackingPipelineC.html#a61869be04a9f9b96ab42f47fc639182c" target="_top" xlink:title="Identifies the static features. ">
<polygon fill="white" stroke="black" points="501,-240.5 501,-281.5 650,-281.5 650,-240.5 501,-240.5"/>
<text text-anchor="start" x="509" y="-269.5" font-family="FreeSans" font-size="10.00">SeeSawN::TrackerN::</text>
<text text-anchor="start" x="509" y="-258.5" font-family="FreeSans" font-size="10.00">ImageFeatureTrackingPipeline</text>
<text text-anchor="middle" x="575.5" y="-247.5" font-family="FreeSans" font-size="10.00">C::IdentifyStaticFeatures</text>
</a>
</g>
</g>
<!-- Node16&#45;&gt;Node17 -->
<g id="edge2" class="edge"><title>Node16&#45;&gt;Node17</title>
<path fill="none" stroke="midnightblue" d="M430.616,-261C453.681,-261 478.478,-261 500.878,-261"/>
<polygon fill="midnightblue" stroke="midnightblue" points="430.503,-257.5 420.503,-261 430.503,-264.5 430.503,-257.5"/>
</g>
<!-- Node18 -->
<g id="node4" class="node"><title>Node18</title>
<g id="a_node4"><a xlink:href="classSeeSawN_1_1TrackerN_1_1ImageFeatureTrackingPipelineC.html#a81b1665da5a53c01a6397e8ee2511cc5" target="_top" xlink:title="Updates the tracks with the image measurements. ">
<polygon fill="white" stroke="black" points="686,-240.5 686,-281.5 835,-281.5 835,-240.5 686,-240.5"/>
<text text-anchor="start" x="694" y="-269.5" font-family="FreeSans" font-size="10.00">SeeSawN::TrackerN::</text>
<text text-anchor="start" x="694" y="-258.5" font-family="FreeSans" font-size="10.00">ImageFeatureTrackingPipeline</text>
<text text-anchor="middle" x="760.5" y="-247.5" font-family="FreeSans" font-size="10.00">C::Update</text>
</a>
</g>
</g>
<!-- Node17&#45;&gt;Node18 -->
<g id="edge3" class="edge"><title>Node17&#45;&gt;Node18</title>
<path fill="none" stroke="midnightblue" d="M660.387,-261C668.838,-261 677.376,-261 685.711,-261"/>
<polygon fill="midnightblue" stroke="midnightblue" points="660.142,-257.5 650.142,-261 660.142,-264.5 660.142,-257.5"/>
</g>
<!-- Node19 -->
<g id="node5" class="node"><title>Node19</title>
<g id="a_node5"><a xlink:href="classSeeSawN_1_1AppStalker22N_1_1StalkerImplementationC.html#ae0023fdc93be07e1c48a62e901be391e" target="_top" xlink:title="Runs the application. ">
<polygon fill="white" stroke="black" points="887,-271 887,-301 1034,-301 1034,-271 887,-271"/>
<text text-anchor="start" x="895" y="-289" font-family="FreeSans" font-size="10.00">SeeSawN::AppStalker22N</text>
<text text-anchor="middle" x="960.5" y="-278" font-family="FreeSans" font-size="10.00">::StalkerImplementationC::Run</text>
</a>
</g>
</g>
<!-- Node18&#45;&gt;Node19 -->
<g id="edge4" class="edge"><title>Node18&#45;&gt;Node19</title>
<path fill="none" stroke="midnightblue" d="M845.188,-271.567C858.988,-273.309 873.194,-275.103 886.699,-276.808"/>
<polygon fill="midnightblue" stroke="midnightblue" points="845.588,-268.089 835.228,-270.309 844.711,-275.034 845.588,-268.089"/>
</g>
<!-- Node20 -->
<g id="node6" class="node"><title>Node20</title>
<g id="a_node6"><a xlink:href="namespaceSeeSawN_1_1TestTrackerN.html#a8c496242273d486ba0d10172c752f78a" target="_top" xlink:title="SeeSawN::TestTrackerN\l::BOOST_AUTO_TEST_SUITE_END">
<polygon fill="white" stroke="black" points="871,-222 871,-252 1050,-252 1050,-222 871,-222"/>
<text text-anchor="start" x="879" y="-240" font-family="FreeSans" font-size="10.00">SeeSawN::TestTrackerN</text>
<text text-anchor="middle" x="960.5" y="-229" font-family="FreeSans" font-size="10.00">::BOOST_AUTO_TEST_SUITE_END</text>
</a>
</g>
</g>
<!-- Node18&#45;&gt;Node20 -->
<g id="edge5" class="edge"><title>Node18&#45;&gt;Node20</title>
<path fill="none" stroke="midnightblue" d="M845.165,-250.859C853.704,-249.824 862.399,-248.77 870.987,-247.729"/>
<polygon fill="midnightblue" stroke="midnightblue" points="844.734,-247.385 835.228,-252.063 845.576,-254.334 844.734,-247.385"/>
</g>
</g>
</svg>
