<?xml version="1.0" encoding="UTF-8" standalone="no"?>
<!DOCTYPE svg PUBLIC "-//W3C//DTD SVG 1.1//EN"
 "http://www.w3.org/Graphics/SVG/1.1/DTD/svg11.dtd">
<!-- Generated by graphviz version 2.38.0 (20140413.2041)
 -->
<!-- Title: SeeSawN::ElementsN::MapToCanonical Pages: 1 -->
<!--zoomable 230 -->
<svg id="main" version="1.1" xmlns="http://www.w3.org/2000/svg" xmlns:xlink="http://www.w3.org/1999/xlink" xml:space="preserve" onload="init(evt)">
<style type="text/css"><![CDATA[
.edge:hover path { stroke: red; }
.edge:hover polygon { stroke: red; fill: red; }
]]></style>
<script type="text/javascript"><![CDATA[
var edges = document.getElementsByTagName('g');
if (edges && edges.length) {
  for (var i=0;i<edges.length;i++) {
    if (edges[i].id.substr(0,4)=='edge') {
      edges[i].setAttribute('class','edge');
    }
  }
}
]]></script>
        <defs>
                <circle id="rim" cx="0" cy="0" r="7"/>
                <circle id="rim2" cx="0" cy="0" r="3.5"/>
                <g id="zoomPlus">
                        <use xlink:href="#rim" fill="#404040">
                                <set attributeName="fill" to="#808080" begin="zoomplus.mouseover" end="zoomplus.mouseout"/>
                        </use>
                        <path d="M-4,0h8M0,-4v8" fill="none" stroke="white" stroke-width="1.5" pointer-events="none"/>
                </g>
                <g id="zoomMin">
                        <use xlink:href="#rim" fill="#404040">
                                <set attributeName="fill" to="#808080" begin="zoomminus.mouseover" end="zoomminus.mouseout"/>
                        </use>
                        <path d="M-4,0h8" fill="none" stroke="white" stroke-width="1.5" pointer-events="none"/>
                </g>
                <g id="dirArrow">
                        <path fill="none" stroke="white" stroke-width="1.5" d="M0,-3.0v7 M-2.5,-0.5L0,-3.0L2.5,-0.5"/>
                </g>
               <g id="resetDef">
                       <use xlink:href="#rim2" fill="#404040">
                               <set attributeName="fill" to="#808080" begin="reset.mouseover" end="reset.mouseout"/>
                       </use>
               </g>
        </defs>

<script type="text/javascript">
var viewWidth = 1103;
var viewHeight = 230;
var sectionId = 'dynsection-13';
</script>
<script xlink:href="svgpan.js"/>
<svg id="graph" class="graph">
<g id="viewport">
<title>SeeSawN::ElementsN::MapToCanonical</title>
<polygon fill="white" stroke="none" points="-4,4 -4,-226 1099,-226 1099,4 -4,4"/>
<!-- Node201 -->
<g id="node1" class="node"><title>Node201</title>
<polygon fill="#bfbfbf" stroke="black" points="0,-126 0,-156 113,-156 113,-126 0,-126"/>
<text text-anchor="start" x="8" y="-144" font-family="FreeSans" font-size="10.00">SeeSawN::ElementsN</text>
<text text-anchor="middle" x="56.5" y="-133" font-family="FreeSans" font-size="10.00">::MapToCanonical</text>
</g>
<!-- Node202 -->
<g id="node2" class="node"><title>Node202</title>
<g id="a_node2"><a xlink:href="namespaceSeeSawN_1_1UnitTestsN_1_1TestElementsN.html#ab6ba968ed02ea6551b27d45ccc1b4a46" target="_top" xlink:title="SeeSawN::UnitTestsN\l::TestElementsN::BOOST\l_AUTO_TEST_CASE">
<polygon fill="white" stroke="black" points="155,-150.5 155,-191.5 283,-191.5 283,-150.5 155,-150.5"/>
<text text-anchor="start" x="163" y="-179.5" font-family="FreeSans" font-size="10.00">SeeSawN::UnitTestsN</text>
<text text-anchor="start" x="163" y="-168.5" font-family="FreeSans" font-size="10.00">::TestElementsN::BOOST</text>
<text text-anchor="middle" x="219" y="-157.5" font-family="FreeSans" font-size="10.00">_AUTO_TEST_CASE</text>
</a>
</g>
</g>
<!-- Node201&#45;&gt;Node202 -->
<g id="edge1" class="edge"><title>Node201&#45;&gt;Node202</title>
<path fill="none" stroke="midnightblue" d="M123.142,-153.27C133.664,-155.236 144.533,-157.268 154.992,-159.223"/>
<polygon fill="midnightblue" stroke="midnightblue" points="123.658,-149.805 113.185,-151.408 122.371,-156.686 123.658,-149.805"/>
</g>
<!-- Node203 -->
<g id="node3" class="node"><title>Node203</title>
<g id="a_node3"><a xlink:href="classSeeSawN_1_1GeometryN_1_1DualAbsoluteQuadricSolverC.html#af63c488b84b048758d95b8721dfedabc" target="_top" xlink:title="Estimates the dual absolute quadric for a set of cameras. ">
<polygon fill="white" stroke="black" points="149,-90.5 149,-131.5 289,-131.5 289,-90.5 149,-90.5"/>
<text text-anchor="start" x="157" y="-119.5" font-family="FreeSans" font-size="10.00">SeeSawN::GeometryN</text>
<text text-anchor="start" x="157" y="-108.5" font-family="FreeSans" font-size="10.00">::DualAbsoluteQuadricSolver</text>
<text text-anchor="middle" x="219" y="-97.5" font-family="FreeSans" font-size="10.00">C::operator()</text>
</a>
</g>
</g>
<!-- Node201&#45;&gt;Node203 -->
<g id="edge2" class="edge"><title>Node201&#45;&gt;Node203</title>
<path fill="none" stroke="midnightblue" d="M123.039,-128.75C131.544,-127.16 140.276,-125.528 148.837,-123.928"/>
<polygon fill="midnightblue" stroke="midnightblue" points="122.371,-125.314 113.185,-130.592 123.658,-132.195 122.371,-125.314"/>
</g>
<!-- Node204 -->
<g id="node4" class="node"><title>Node204</title>
<g id="a_node4"><a xlink:href="classSeeSawN_1_1GeometryN_1_1DualAbsoluteQuadricSolverC.html#ae3aeea9a301f04ddd071a858aabbced2" target="_top" xlink:title="Evaluates the cost for an intrinsic calibration matrix. ">
<polygon fill="white" stroke="black" points="325,-90.5 325,-131.5 465,-131.5 465,-90.5 325,-90.5"/>
<text text-anchor="start" x="333" y="-119.5" font-family="FreeSans" font-size="10.00">SeeSawN::GeometryN</text>
<text text-anchor="start" x="333" y="-108.5" font-family="FreeSans" font-size="10.00">::DualAbsoluteQuadricSolver</text>
<text text-anchor="middle" x="395" y="-97.5" font-family="FreeSans" font-size="10.00">C::Evaluate</text>
</a>
</g>
</g>
<!-- Node203&#45;&gt;Node204 -->
<g id="edge3" class="edge"><title>Node203&#45;&gt;Node204</title>
<path fill="none" stroke="midnightblue" d="M299.035,-104.275C307.625,-104.221 316.319,-104.255 324.779,-104.377"/>
<polygon fill="midnightblue" stroke="midnightblue" points="298.982,-100.775 289.019,-104.38 299.055,-107.775 298.982,-100.775"/>
</g>
<!-- Node204&#45;&gt;Node203 -->
<g id="edge4" class="edge"><title>Node204&#45;&gt;Node203</title>
<path fill="none" stroke="midnightblue" d="M314.761,-117.726C306.169,-117.779 297.476,-117.744 289.019,-117.62"/>
<polygon fill="midnightblue" stroke="midnightblue" points="314.816,-121.226 324.779,-117.623 314.744,-114.226 314.816,-121.226"/>
</g>
<!-- Node205 -->
<g id="node5" class="node"><title>Node205</title>
<g id="a_node5"><a xlink:href="namespaceSeeSawN_1_1UnitTestsN_1_1TestGeometryN.html#a1860df7545344dabb089e66c0833f725" target="_top" xlink:title="SeeSawN::UnitTestsN\l::TestGeometryN::BOOST\l_AUTO_TEST_CASE">
<polygon fill="white" stroke="black" points="526,-180.5 526,-221.5 655,-221.5 655,-180.5 526,-180.5"/>
<text text-anchor="start" x="534" y="-209.5" font-family="FreeSans" font-size="10.00">SeeSawN::UnitTestsN</text>
<text text-anchor="start" x="534" y="-198.5" font-family="FreeSans" font-size="10.00">::TestGeometryN::BOOST</text>
<text text-anchor="middle" x="590.5" y="-187.5" font-family="FreeSans" font-size="10.00">_AUTO_TEST_CASE</text>
</a>
</g>
</g>
<!-- Node204&#45;&gt;Node205 -->
<g id="edge5" class="edge"><title>Node204&#45;&gt;Node205</title>
<path fill="none" stroke="midnightblue" d="M436.957,-136.848C455.985,-148.213 479.184,-161.179 501,-171 508.841,-174.53 517.228,-177.883 525.6,-180.983"/>
<polygon fill="midnightblue" stroke="midnightblue" points="438.621,-133.764 428.252,-131.587 435,-139.755 438.621,-133.764"/>
</g>
<!-- Node206 -->
<g id="node6" class="node"><title>Node206</title>
<g id="a_node6"><a xlink:href="classSeeSawN_1_1GeometryN_1_1LinearAutocalibrationPipelineC.html#ac67415163629d4f7b81c865d87f115ab" target="_top" xlink:title="Evaluates a solution. ">
<polygon fill="white" stroke="black" points="517,-120.5 517,-161.5 664,-161.5 664,-120.5 517,-120.5"/>
<text text-anchor="start" x="525" y="-149.5" font-family="FreeSans" font-size="10.00">SeeSawN::GeometryN</text>
<text text-anchor="start" x="525" y="-138.5" font-family="FreeSans" font-size="10.00">::LinearAutocalibrationPipeline</text>
<text text-anchor="middle" x="590.5" y="-127.5" font-family="FreeSans" font-size="10.00">C::Evaluate</text>
</a>
</g>
</g>
<!-- Node204&#45;&gt;Node206 -->
<g id="edge6" class="edge"><title>Node204&#45;&gt;Node206</title>
<path fill="none" stroke="midnightblue" d="M475.018,-123.251C488.869,-125.398 503.223,-127.624 516.889,-129.743"/>
<polygon fill="midnightblue" stroke="midnightblue" points="475.457,-119.777 465.038,-121.704 474.384,-126.694 475.457,-119.777"/>
</g>
<!-- Node207 -->
<g id="node7" class="node"><title>Node207</title>
<g id="a_node7"><a xlink:href="classSeeSawN_1_1RANSACN_1_1RANSACDualAbsoluteQuadricProblemC.html#a50e147c26628114515a2e48f98e6fb71" target="_top" xlink:title="Evaluates an observation against a model. ">
<polygon fill="white" stroke="black" points="501,-60.5 501,-101.5 680,-101.5 680,-60.5 501,-60.5"/>
<text text-anchor="start" x="509" y="-89.5" font-family="FreeSans" font-size="10.00">SeeSawN::RANSACN::RANSACDual</text>
<text text-anchor="start" x="509" y="-78.5" font-family="FreeSans" font-size="10.00">AbsoluteQuadricProblemC</text>
<text text-anchor="middle" x="590.5" y="-67.5" font-family="FreeSans" font-size="10.00">::EvaluateObservation</text>
</a>
</g>
</g>
<!-- Node204&#45;&gt;Node207 -->
<g id="edge7" class="edge"><title>Node204&#45;&gt;Node207</title>
<path fill="none" stroke="midnightblue" d="M474.959,-98.7584C483.498,-97.4344 492.229,-96.0807 500.873,-94.7406"/>
<polygon fill="midnightblue" stroke="midnightblue" points="474.384,-95.3055 465.038,-100.296 475.457,-102.223 474.384,-95.3055"/>
</g>
<!-- Node210 -->
<g id="node10" class="node"><title>Node210</title>
<g id="a_node10"><a xlink:href="classSeeSawN_1_1RANSACN_1_1RANSACDualAbsoluteQuadricProblemC.html#a7929ecefc4388fc3aeb481636f253cac" target="_top" xlink:title="Evaluates an validator against a model. ">
<polygon fill="white" stroke="black" points="501,-0.5 501,-41.5 680,-41.5 680,-0.5 501,-0.5"/>
<text text-anchor="start" x="509" y="-29.5" font-family="FreeSans" font-size="10.00">SeeSawN::RANSACN::RANSACDual</text>
<text text-anchor="start" x="509" y="-18.5" font-family="FreeSans" font-size="10.00">AbsoluteQuadricProblemC</text>
<text text-anchor="middle" x="590.5" y="-7.5" font-family="FreeSans" font-size="10.00">::EvaluateValidator</text>
</a>
</g>
</g>
<!-- Node204&#45;&gt;Node210 -->
<g id="edge10" class="edge"><title>Node204&#45;&gt;Node210</title>
<path fill="none" stroke="midnightblue" d="M436.957,-85.1524C455.985,-73.787 479.184,-60.8209 501,-51 508.397,-47.6703 516.28,-44.4968 524.178,-41.5456"/>
<polygon fill="midnightblue" stroke="midnightblue" points="435,-82.2452 428.252,-90.413 438.621,-88.2361 435,-82.2452"/>
</g>
<!-- Node208 -->
<g id="node8" class="node"><title>Node208</title>
<g id="a_node8"><a xlink:href="classSeeSawN_1_1RANSACN_1_1RANSACDualAbsoluteQuadricProblemC.html#a13adaf08aa1174deafd4d922ab9b1e86" target="_top" xlink:title="Returns the observations that are inliers wrt/a model. ">
<polygon fill="white" stroke="black" points="716,-60.5 716,-101.5 895,-101.5 895,-60.5 716,-60.5"/>
<text text-anchor="start" x="724" y="-89.5" font-family="FreeSans" font-size="10.00">SeeSawN::RANSACN::RANSACDual</text>
<text text-anchor="start" x="724" y="-78.5" font-family="FreeSans" font-size="10.00">AbsoluteQuadricProblemC</text>
<text text-anchor="middle" x="805.5" y="-67.5" font-family="FreeSans" font-size="10.00">::GetInlierObservations</text>
</a>
</g>
</g>
<!-- Node207&#45;&gt;Node208 -->
<g id="edge8" class="edge"><title>Node207&#45;&gt;Node208</title>
<path fill="none" stroke="midnightblue" d="M690.545,-81C698.99,-81 707.498,-81 715.855,-81"/>
<polygon fill="midnightblue" stroke="midnightblue" points="690.289,-77.5001 680.289,-81 690.289,-84.5001 690.289,-77.5001"/>
</g>
<!-- Node209 -->
<g id="node9" class="node"><title>Node209</title>
<g id="a_node9"><a xlink:href="classSeeSawN_1_1GeometryN_1_1LinearAutocalibrationPipelineC.html#a431fc8c40c1f8362705ad3239e674c5b" target="_top" xlink:title="Estimates the rectifying homography. ">
<polygon fill="white" stroke="black" points="931,-60.5 931,-101.5 1095,-101.5 1095,-60.5 931,-60.5"/>
<text text-anchor="start" x="939" y="-89.5" font-family="FreeSans" font-size="10.00">SeeSawN::GeometryN</text>
<text text-anchor="start" x="939" y="-78.5" font-family="FreeSans" font-size="10.00">::LinearAutocalibrationPipeline</text>
<text text-anchor="middle" x="1013" y="-67.5" font-family="FreeSans" font-size="10.00">C::EstimateRectifyingHomography</text>
</a>
</g>
</g>
<!-- Node208&#45;&gt;Node209 -->
<g id="edge9" class="edge"><title>Node208&#45;&gt;Node209</title>
<path fill="none" stroke="midnightblue" d="M905.178,-81C913.755,-81 922.37,-81 930.783,-81"/>
<polygon fill="midnightblue" stroke="midnightblue" points="905.142,-77.5001 895.142,-81 905.142,-84.5001 905.142,-77.5001"/>
</g>
</g>
</svg>
        <g id="navigator" transform="translate(0 0)" fill="#404254">
                <rect fill="#f2f5e9" fill-opacity="0.5" stroke="#606060" stroke-width=".5" x="0" y="0" width="60" height="60"/>
                <use id="zoomplus" xlink:href="#zoomPlus" x="17" y="9" onmousedown="handleZoom(evt,'in')"/>
                <use id="zoomminus" xlink:href="#zoomMin" x="42" y="9" onmousedown="handleZoom(evt,'out')"/>
                <use id="reset" xlink:href="#resetDef" x="30" y="36" onmousedown="handleReset()"/>
                <g id="arrowUp" xlink:href="#dirArrow" transform="translate(30 24)" onmousedown="handlePan(0,-1)">
                  <use xlink:href="#rim" fill="#404040">
                        <set attributeName="fill" to="#808080" begin="arrowUp.mouseover" end="arrowUp.mouseout"/>
                  </use>
                  <path fill="none" stroke="white" stroke-width="1.5" d="M0,-3.0v7 M-2.5,-0.5L0,-3.0L2.5,-0.5"/>
                </g>
                <g id="arrowRight" xlink:href="#dirArrow" transform="rotate(90) translate(36 -43)" onmousedown="handlePan(1,0)">
                  <use xlink:href="#rim" fill="#404040">
                        <set attributeName="fill" to="#808080" begin="arrowRight.mouseover" end="arrowRight.mouseout"/>
                  </use>
                  <path fill="none" stroke="white" stroke-width="1.5" d="M0,-3.0v7 M-2.5,-0.5L0,-3.0L2.5,-0.5"/>
                </g>
                <g id="arrowDown" xlink:href="#dirArrow" transform="rotate(180) translate(-30 -48)" onmousedown="handlePan(0,1)">
                  <use xlink:href="#rim" fill="#404040">
                        <set attributeName="fill" to="#808080" begin="arrowDown.mouseover" end="arrowDown.mouseout"/>
                  </use>
                  <path fill="none" stroke="white" stroke-width="1.5" d="M0,-3.0v7 M-2.5,-0.5L0,-3.0L2.5,-0.5"/>
                </g>
                <g id="arrowLeft" xlink:href="#dirArrow" transform="rotate(270) translate(-36 17)" onmousedown="handlePan(-1,0)">
                  <use xlink:href="#rim" fill="#404040">
                        <set attributeName="fill" to="#808080" begin="arrowLeft.mouseover" end="arrowLeft.mouseout"/>
                  </use>
                  <path fill="none" stroke="white" stroke-width="1.5" d="M0,-3.0v7 M-2.5,-0.5L0,-3.0L2.5,-0.5"/>
                </g>
        </g>
        <svg viewBox="0 0 15 15" width="100%" height="30px" preserveAspectRatio="xMaxYMin meet">
         <g id="arrow_out" transform="scale(0.3 0.3)">
          <a xlink:href="group__Elements_ga95a4bac6210203f2ead6771fbd0f1894_icgraph_org.svg" target="_base">
           <rect id="button" ry="5" rx="5" y="6" x="6" height="38" width="38"
                fill="#f2f5e9" fill-opacity="0.5" stroke="#606060" stroke-width="1.0"/>
           <path id="arrow"
             d="M 11.500037,31.436501 C 11.940474,20.09759 22.043105,11.32322 32.158766,21.979434 L 37.068811,17.246167 C 37.068811,17.246167 37.088388,32 37.088388,32 L 22.160133,31.978069 C 22.160133,31.978069 26.997745,27.140456 26.997745,27.140456 C 18.528582,18.264221 13.291696,25.230495 11.500037,31.436501 z"
             style="fill:#404040;"/>
          </a>
         </g>
        </svg>
</svg>
