<?xml version="1.0" encoding="UTF-8" standalone="no"?>
<!DOCTYPE svg PUBLIC "-//W3C//DTD SVG 1.1//EN"
 "http://www.w3.org/Graphics/SVG/1.1/DTD/svg11.dtd">
<!-- Generated by graphviz version 2.38.0 (20140413.2041)
 -->
<!-- Title: SeeSawN::GeometryN::MakePDLP2PProblem Pages: 1 -->
<svg width="330pt" height="50pt"
 viewBox="0.00 0.00 330.00 50.00" xmlns="http://www.w3.org/2000/svg" xmlns:xlink="http://www.w3.org/1999/xlink">
<g id="graph0" class="graph" transform="scale(1 1) rotate(0) translate(4 46)">
<title>SeeSawN::GeometryN::MakePDLP2PProblem</title>
<polygon fill="white" stroke="none" points="-4,4 -4,-46 326,-46 326,4 -4,4"/>
<!-- Node2 -->
<g id="node1" class="node"><title>Node2</title>
<polygon fill="#bfbfbf" stroke="black" points="0,-6 0,-36 119,-36 119,-6 0,-6"/>
<text text-anchor="start" x="8" y="-24" font-family="FreeSans" font-size="10.00">SeeSawN::GeometryN</text>
<text text-anchor="middle" x="59.5" y="-13" font-family="FreeSans" font-size="10.00">::MakePDLP2PProblem</text>
</g>
<!-- Node3 -->
<g id="node2" class="node"><title>Node3</title>
<g id="a_node2"><a xlink:href="namespaceSeeSawN_1_1GeometryN.html#a7e330393b7063826de0885ca289e0865" target="_top" xlink:title="SeeSawN::GeometryN\l::MakeGeometryEstimationPipeline\lP2PProblem">
<polygon fill="white" stroke="black" points="155,-0.5 155,-41.5 322,-41.5 322,-0.5 155,-0.5"/>
<text text-anchor="start" x="163" y="-29.5" font-family="FreeSans" font-size="10.00">SeeSawN::GeometryN</text>
<text text-anchor="start" x="163" y="-18.5" font-family="FreeSans" font-size="10.00">::MakeGeometryEstimationPipeline</text>
<text text-anchor="middle" x="238.5" y="-7.5" font-family="FreeSans" font-size="10.00">P2PProblem</text>
</a>
</g>
</g>
<!-- Node2&#45;&gt;Node3 -->
<g id="edge1" class="edge"><title>Node2&#45;&gt;Node3</title>
<path fill="none" stroke="midnightblue" d="M119.438,-21C127.606,-21 136.154,-21 144.754,-21"/>
<polygon fill="midnightblue" stroke="midnightblue" points="144.856,-24.5001 154.856,-21 144.856,-17.5001 144.856,-24.5001"/>
</g>
</g>
</svg>
