<?xml version="1.0" encoding="UTF-8" standalone="no"?>
<!DOCTYPE svg PUBLIC "-//W3C//DTD SVG 1.1//EN"
 "http://www.w3.org/Graphics/SVG/1.1/DTD/svg11.dtd">
<!-- Generated by graphviz version 2.38.0 (20140413.2041)
 -->
<!-- Title: SeeSawN::NumericN::GetCombinationIndex Pages: 1 -->
<svg width="282pt" height="50pt"
 viewBox="0.00 0.00 282.00 50.00" xmlns="http://www.w3.org/2000/svg" xmlns:xlink="http://www.w3.org/1999/xlink">
<g id="graph0" class="graph" transform="scale(1 1) rotate(0) translate(4 46)">
<title>SeeSawN::NumericN::GetCombinationIndex</title>
<polygon fill="white" stroke="none" points="-4,4 -4,-46 278,-46 278,4 -4,4"/>
<!-- Node47 -->
<g id="node1" class="node"><title>Node47</title>
<polygon fill="#bfbfbf" stroke="black" points="0,-6 0,-36 114,-36 114,-6 0,-6"/>
<text text-anchor="start" x="8" y="-24" font-family="FreeSans" font-size="10.00">SeeSawN::NumericN::</text>
<text text-anchor="middle" x="57" y="-13" font-family="FreeSans" font-size="10.00">GetCombinationIndex</text>
</g>
<!-- Node48 -->
<g id="node2" class="node"><title>Node48</title>
<g id="a_node2"><a xlink:href="namespaceSeeSawN_1_1UnitTestsN_1_1TestNumericN.html#a91126fd175d6b7b1ef9a828b995215da" target="_top" xlink:title="SeeSawN::UnitTestsN\l::TestNumericN::BOOST\l_AUTO_TEST_CASE">
<polygon fill="white" stroke="black" points="150,-0.5 150,-41.5 274,-41.5 274,-0.5 150,-0.5"/>
<text text-anchor="start" x="158" y="-29.5" font-family="FreeSans" font-size="10.00">SeeSawN::UnitTestsN</text>
<text text-anchor="start" x="158" y="-18.5" font-family="FreeSans" font-size="10.00">::TestNumericN::BOOST</text>
<text text-anchor="middle" x="212" y="-7.5" font-family="FreeSans" font-size="10.00">_AUTO_TEST_CASE</text>
</a>
</g>
</g>
<!-- Node47&#45;&gt;Node48 -->
<g id="edge1" class="edge"><title>Node47&#45;&gt;Node48</title>
<path fill="none" stroke="midnightblue" d="M124.302,-21C132.755,-21 141.378,-21 149.747,-21"/>
<polygon fill="midnightblue" stroke="midnightblue" points="124.103,-17.5001 114.103,-21 124.103,-24.5001 124.103,-17.5001"/>
</g>
</g>
</svg>
