<?xml version="1.0" encoding="UTF-8" standalone="no"?>
<!DOCTYPE svg PUBLIC "-//W3C//DTD SVG 1.1//EN"
 "http://www.w3.org/Graphics/SVG/1.1/DTD/svg11.dtd">
<!-- Generated by graphviz version 2.38.0 (20140413.2041)
 -->
<!-- Title: SeeSawN::ApplicationN::ReadParameter Pages: 1 -->
<svg width="1812pt" height="1704pt"
 viewBox="0.00 0.00 1812.00 1703.86" xmlns="http://www.w3.org/2000/svg" xmlns:xlink="http://www.w3.org/1999/xlink">
<g id="graph0" class="graph" transform="scale(1 1) rotate(0) translate(4 1699.86)">
<title>SeeSawN::ApplicationN::ReadParameter</title>
<polygon fill="white" stroke="none" points="-4,4 -4,-1699.86 1808,-1699.86 1808,4 -4,4"/>
<!-- Node188 -->
<g id="node1" class="node"><title>Node188</title>
<polygon fill="#bfbfbf" stroke="black" points="0,-911 0,-941 121,-941 121,-911 0,-911"/>
<text text-anchor="start" x="8" y="-929" font-family="FreeSans" font-size="10.00">SeeSawN::ApplicationN</text>
<text text-anchor="middle" x="60.5" y="-918" font-family="FreeSans" font-size="10.00">::ReadParameter</text>
</g>
<!-- Node189 -->
<g id="node2" class="node"><title>Node189</title>
<g id="a_node2"><a xlink:href="classSeeSawN_1_1ApplicationN_1_1InterfaceRANSACC.html#a210cc166da4e686db34b5da58a82aedb" target="_top" xlink:title="Extracts the parameters for RANSACGeometryEstimationProblemC. ">
<polygon fill="white" stroke="black" points="622.5,-952.5 622.5,-993.5 767.5,-993.5 767.5,-952.5 622.5,-952.5"/>
<text text-anchor="start" x="630.5" y="-981.5" font-family="FreeSans" font-size="10.00">SeeSawN::ApplicationN</text>
<text text-anchor="start" x="630.5" y="-970.5" font-family="FreeSans" font-size="10.00">::InterfaceRANSACC::Extract</text>
<text text-anchor="middle" x="695" y="-959.5" font-family="FreeSans" font-size="10.00">GeometryProblemParameters</text>
</a>
</g>
</g>
<!-- Node188&#45;&gt;Node189 -->
<g id="edge1" class="edge"><title>Node188&#45;&gt;Node189</title>
<path fill="none" stroke="midnightblue" d="M82.8003,-948.626C100.707,-965.881 127.972,-988.284 157,-998 316.307,-1051.32 517.073,-1017.3 622.237,-992.401"/>
<polygon fill="midnightblue" stroke="midnightblue" points="84.8168,-945.695 75.2587,-941.124 79.88,-950.658 84.8168,-945.695"/>
</g>
<!-- Node190 -->
<g id="node3" class="node"><title>Node190</title>
<g id="a_node3"><a xlink:href="classSeeSawN_1_1AppMultimodelGeometryEstimator22N_1_1AppMultimodelGeometryEstimator22ImplementationC.html#a6ab5cbfa539585a5493ffea2336d480a" target="_top" xlink:title="Sets and validates the application parameters. ">
<polygon fill="white" stroke="black" points="1341,-1404.5 1341,-1445.5 1553,-1445.5 1553,-1404.5 1341,-1404.5"/>
<text text-anchor="start" x="1349" y="-1433.5" font-family="FreeSans" font-size="10.00">SeeSawN::AppMultimodelGeometry</text>
<text text-anchor="start" x="1349" y="-1422.5" font-family="FreeSans" font-size="10.00">Estimator22N::AppMultimodelGeometry</text>
<text text-anchor="middle" x="1447" y="-1411.5" font-family="FreeSans" font-size="10.00">Estimator22ImplementationC::SetParameters</text>
</a>
</g>
</g>
<!-- Node188&#45;&gt;Node190 -->
<g id="edge95" class="edge"><title>Node188&#45;&gt;Node190</title>
<path fill="none" stroke="midnightblue" d="M61.8623,-951.277C63.8613,-1052.78 76.6618,-1429.09 157,-1509 259.727,-1611.19 334.105,-1560 479,-1560 479,-1560 479,-1560 946.5,-1560 1108.35,-1560 1153.09,-1551.86 1305,-1496 1322.39,-1489.61 1324.62,-1483.66 1341,-1475 1360.28,-1464.81 1381.98,-1454.32 1400.63,-1445.59"/>
<polygon fill="midnightblue" stroke="midnightblue" points="65.3578,-950.987 61.6801,-941.051 58.3589,-951.111 65.3578,-950.987"/>
</g>
<!-- Node191 -->
<g id="node4" class="node"><title>Node191</title>
<g id="a_node4"><a xlink:href="classSeeSawN_1_1ApplicationN_1_1InterfaceImageFeatureTrackingPipelineC.html#a64855882f38d56819bc17e7a314c7e4f" target="_top" xlink:title="Makes a parameter object from a property tree. ">
<polygon fill="white" stroke="black" points="1122,-751.5 1122,-792.5 1282,-792.5 1282,-751.5 1122,-751.5"/>
<text text-anchor="start" x="1130" y="-780.5" font-family="FreeSans" font-size="10.00">SeeSawN::ApplicationN</text>
<text text-anchor="start" x="1130" y="-769.5" font-family="FreeSans" font-size="10.00">::InterfaceImageFeatureTracking</text>
<text text-anchor="middle" x="1202" y="-758.5" font-family="FreeSans" font-size="10.00">PipelineC::MakeParameterObject</text>
</a>
</g>
</g>
<!-- Node188&#45;&gt;Node191 -->
<g id="edge86" class="edge"><title>Node188&#45;&gt;Node191</title>
<path fill="none" stroke="midnightblue" d="M62.1447,-900.544C65.1421,-804.691 81.0128,-467.54 157,-400 210.586,-352.371 407.307,-380 479,-380 479,-380 479,-380 696,-380 860.279,-380 932.848,-323.759 1063,-424 1171.65,-507.679 1194.94,-689.827 1199.78,-751.278"/>
<polygon fill="midnightblue" stroke="midnightblue" points="58.6398,-900.665 61.8463,-910.763 65.6368,-900.869 58.6398,-900.665"/>
</g>
<!-- Node193 -->
<g id="node6" class="node"><title>Node193</title>
<g id="a_node6"><a xlink:href="classSeeSawN_1_1AppGeometryEstimator32N_1_1GeometryEstimator32ImplementationC.html#aba68a985bf9fea064541a976c2bd5505" target="_top" xlink:title="Sets and validates the application parameters. ">
<polygon fill="white" stroke="black" points="1107.5,-1284.5 1107.5,-1325.5 1296.5,-1325.5 1296.5,-1284.5 1107.5,-1284.5"/>
<text text-anchor="start" x="1115.5" y="-1313.5" font-family="FreeSans" font-size="10.00">SeeSawN::AppGeometryEstimator32</text>
<text text-anchor="start" x="1115.5" y="-1302.5" font-family="FreeSans" font-size="10.00">N::GeometryEstimator32Implementation</text>
<text text-anchor="middle" x="1202" y="-1291.5" font-family="FreeSans" font-size="10.00">C::SetParameters</text>
</a>
</g>
</g>
<!-- Node188&#45;&gt;Node193 -->
<g id="edge96" class="edge"><title>Node188&#45;&gt;Node193</title>
<path fill="none" stroke="midnightblue" d="M63.2166,-951.16C69.5378,-1035.8 94.4803,-1308.08 157,-1364 295.946,-1488.28 883.871,-1375.18 1110.97,-1325.59"/>
<polygon fill="midnightblue" stroke="midnightblue" points="66.7046,-950.866 62.4911,-941.145 59.7229,-951.372 66.7046,-950.866"/>
</g>
<!-- Node194 -->
<g id="node7" class="node"><title>Node194</title>
<g id="a_node7"><a xlink:href="classSeeSawN_1_1ApplicationN_1_1InterfaceCalibrationVerificationPipelineC.html#ac361593d46882b26eb89db49c9691a47" target="_top" xlink:title="Makes a parameter object from a property tree. ">
<polygon fill="white" stroke="black" points="1122,-1344.5 1122,-1385.5 1282,-1385.5 1282,-1344.5 1122,-1344.5"/>
<text text-anchor="start" x="1130" y="-1373.5" font-family="FreeSans" font-size="10.00">SeeSawN::ApplicationN</text>
<text text-anchor="start" x="1130" y="-1362.5" font-family="FreeSans" font-size="10.00">::InterfaceCalibrationVerification</text>
<text text-anchor="middle" x="1202" y="-1351.5" font-family="FreeSans" font-size="10.00">PipelineC::MakeParameterObject</text>
</a>
</g>
</g>
<!-- Node188&#45;&gt;Node194 -->
<g id="edge81" class="edge"><title>Node188&#45;&gt;Node194</title>
<path fill="none" stroke="midnightblue" d="M63.0486,-951.396C69.009,-1040.71 93.3977,-1338.55 157,-1405 258.889,-1511.45 331.645,-1484 479,-1484 479,-1484 479,-1484 696,-1484 780.783,-1484 1013.95,-1419.65 1131.43,-1385.59"/>
<polygon fill="midnightblue" stroke="midnightblue" points="66.5364,-951.093 62.3975,-941.341 59.5511,-951.546 66.5364,-951.093"/>
</g>
<!-- Node195 -->
<g id="node8" class="node"><title>Node195</title>
<g id="a_node8"><a xlink:href="classSeeSawN_1_1AppCalibrationVerificationN_1_1AppCalibrationVerificationImplementationC.html#ac04bcbed179f0534015eb622d62c9d92" target="_top" xlink:title="Sets and validates the application parameters. ">
<polygon fill="white" stroke="black" points="1344,-1584.5 1344,-1625.5 1550,-1625.5 1550,-1584.5 1344,-1584.5"/>
<text text-anchor="start" x="1352" y="-1613.5" font-family="FreeSans" font-size="10.00">SeeSawN::AppCalibrationVerification</text>
<text text-anchor="start" x="1352" y="-1602.5" font-family="FreeSans" font-size="10.00">N::AppCalibrationVerificationImplementation</text>
<text text-anchor="middle" x="1447" y="-1591.5" font-family="FreeSans" font-size="10.00">C::SetParameters</text>
</a>
</g>
</g>
<!-- Node188&#45;&gt;Node195 -->
<g id="edge91" class="edge"><title>Node188&#45;&gt;Node195</title>
<path fill="none" stroke="midnightblue" d="M61.1695,-951.548C60.2917,-1063.11 62.8595,-1506.06 157,-1598 260.097,-1698.68 334.896,-1636 479,-1636 479,-1636 479,-1636 946.5,-1636 1084.21,-1636 1242.87,-1624.12 1343.75,-1615.06"/>
<polygon fill="midnightblue" stroke="midnightblue" points="64.672,-951.287 61.2685,-941.254 57.6724,-951.22 64.672,-951.287"/>
</g>
<!-- Node196 -->
<g id="node9" class="node"><title>Node196</title>
<g id="a_node9"><a xlink:href="classSeeSawN_1_1ApplicationN_1_1InterfaceNodalCameraTrackingPipelineC.html#a1528e3aacb9088d316f1cb86978ac010" target="_top" xlink:title="Makes a parameter object from a property tree. ">
<polygon fill="white" stroke="black" points="1122,-1224.5 1122,-1265.5 1282,-1265.5 1282,-1224.5 1122,-1224.5"/>
<text text-anchor="start" x="1130" y="-1253.5" font-family="FreeSans" font-size="10.00">SeeSawN::ApplicationN</text>
<text text-anchor="start" x="1130" y="-1242.5" font-family="FreeSans" font-size="10.00">::InterfaceNodalCameraTracking</text>
<text text-anchor="middle" x="1202" y="-1231.5" font-family="FreeSans" font-size="10.00">PipelineC::MakeParameterObject</text>
</a>
</g>
</g>
<!-- Node188&#45;&gt;Node196 -->
<g id="edge82" class="edge"><title>Node188&#45;&gt;Node196</title>
<path fill="none" stroke="midnightblue" d="M64.3886,-951.297C73.4624,-1025.87 103.987,-1242.29 157,-1285 231.417,-1344.96 890.855,-1279.09 1121.65,-1253.93"/>
<polygon fill="midnightblue" stroke="midnightblue" points="67.8634,-950.877 63.2054,-941.361 60.9125,-951.705 67.8634,-950.877"/>
</g>
<!-- Node197 -->
<g id="node10" class="node"><title>Node197</title>
<g id="a_node10"><a xlink:href="classSeeSawN_1_1AppNodalCameraTrackerN_1_1AppNodalCameraTrackerImplementationC.html#a3bcec328618771244080b0d1eba59093" target="_top" xlink:title="Sets and validates the application parameters. ">
<polygon fill="white" stroke="black" points="1344.5,-1484.5 1344.5,-1525.5 1549.5,-1525.5 1549.5,-1484.5 1344.5,-1484.5"/>
<text text-anchor="start" x="1352.5" y="-1513.5" font-family="FreeSans" font-size="10.00">SeeSawN::AppNodalCameraTracker</text>
<text text-anchor="start" x="1352.5" y="-1502.5" font-family="FreeSans" font-size="10.00">N::AppNodalCameraTrackerImplementation</text>
<text text-anchor="middle" x="1447" y="-1491.5" font-family="FreeSans" font-size="10.00">C::SetParameters</text>
</a>
</g>
</g>
<!-- Node188&#45;&gt;Node197 -->
<g id="edge94" class="edge"><title>Node188&#45;&gt;Node197</title>
<path fill="none" stroke="midnightblue" d="M61.4886,-951.196C61.9911,-1057.52 69.6408,-1467.95 157,-1554 259.904,-1655.36 334.559,-1598 479,-1598 479,-1598 479,-1598 946.5,-1598 1103.73,-1598 1284.17,-1552.91 1379.27,-1525.52"/>
<polygon fill="midnightblue" stroke="midnightblue" points="64.9883,-951.069 61.4589,-941.079 57.9884,-951.089 64.9883,-951.069"/>
</g>
<!-- Node198 -->
<g id="node11" class="node"><title>Node198</title>
<g id="a_node11"><a xlink:href="classSeeSawN_1_1ApplicationN_1_1InterfacePfMPipelineC.html#acfbef1b92f2a55be0413a3c490ddeea0" target="_top" xlink:title="Makes a parameter object from a property tree. ">
<polygon fill="white" stroke="black" points="1386.5,-424.5 1386.5,-465.5 1507.5,-465.5 1507.5,-424.5 1386.5,-424.5"/>
<text text-anchor="start" x="1394.5" y="-453.5" font-family="FreeSans" font-size="10.00">SeeSawN::ApplicationN</text>
<text text-anchor="start" x="1394.5" y="-442.5" font-family="FreeSans" font-size="10.00">::InterfacePfMPipelineC</text>
<text text-anchor="middle" x="1447" y="-431.5" font-family="FreeSans" font-size="10.00">::MakeParameterObject</text>
</a>
</g>
</g>
<!-- Node188&#45;&gt;Node198 -->
<g id="edge85" class="edge"><title>Node188&#45;&gt;Node198</title>
<path fill="none" stroke="midnightblue" d="M61.8945,-900.683C64.0045,-801.475 77.1359,-441.06 157,-368 262.937,-271.089 335.423,-342 479,-342 479,-342 479,-342 946.5,-342 1108.31,-342 1293.65,-394.489 1386.46,-424.527"/>
<polygon fill="midnightblue" stroke="midnightblue" points="58.3899,-900.892 61.6965,-910.958 65.3886,-901.027 58.3899,-900.892"/>
</g>
<!-- Node199 -->
<g id="node12" class="node"><title>Node199</title>
<g id="a_node12"><a xlink:href="classSeeSawN_1_1AppPfMN_1_1AppPfMImplementationC.html#abc73e8c53e5966a07e0da314df087d02" target="_top" xlink:title="Sets and validates the application parameters. ">
<polygon fill="white" stroke="black" points="1589,-1096 1589,-1126 1804,-1126 1804,-1096 1589,-1096"/>
<text text-anchor="start" x="1597" y="-1114" font-family="FreeSans" font-size="10.00">SeeSawN::AppPfMN::AppPfMImplementation</text>
<text text-anchor="middle" x="1696.5" y="-1103" font-family="FreeSans" font-size="10.00">C::SetParameters</text>
</a>
</g>
</g>
<!-- Node188&#45;&gt;Node199 -->
<g id="edge92" class="edge"><title>Node188&#45;&gt;Node199</title>
<path fill="none" stroke="midnightblue" d="M63.0457,-951.174C70.7165,-1072.24 106.359,-1590.75 157,-1640 260.16,-1740.34 335.093,-1674 479,-1674 479,-1674 479,-1674 1203,-1674 1359.52,-1674 1434.11,-1736.8 1553,-1635 1634.55,-1565.17 1683.78,-1204.86 1693.66,-1126.18"/>
<polygon fill="midnightblue" stroke="midnightblue" points="66.5283,-950.786 62.4095,-941.024 59.542,-951.224 66.5283,-950.786"/>
</g>
<!-- Node200 -->
<g id="node13" class="node"><title>Node200</title>
<g id="a_node13"><a xlink:href="classSeeSawN_1_1ApplicationN_1_1InterfacePoseGraphPipelineC.html#a8b6ca5eab7c573298151bb52c18ce8a6" target="_top" xlink:title="Makes a parameter object from a property tree. ">
<polygon fill="white" stroke="black" points="1130.5,-1028.5 1130.5,-1069.5 1273.5,-1069.5 1273.5,-1028.5 1130.5,-1028.5"/>
<text text-anchor="start" x="1138.5" y="-1057.5" font-family="FreeSans" font-size="10.00">SeeSawN::ApplicationN</text>
<text text-anchor="start" x="1138.5" y="-1046.5" font-family="FreeSans" font-size="10.00">::InterfacePoseGraphPipeline</text>
<text text-anchor="middle" x="1202" y="-1035.5" font-family="FreeSans" font-size="10.00">C::MakeParameterObject</text>
</a>
</g>
</g>
<!-- Node188&#45;&gt;Node200 -->
<g id="edge79" class="edge"><title>Node188&#45;&gt;Node200</title>
<path fill="none" stroke="midnightblue" d="M75.9133,-949.723C92.1818,-973.992 121.117,-1010.3 157,-1026 203.118,-1046.18 1012.69,-1039.13 1063,-1041 1084.94,-1041.82 1108.83,-1043.07 1130.47,-1044.35"/>
<polygon fill="midnightblue" stroke="midnightblue" points="78.6866,-947.567 70.3104,-941.079 72.8127,-951.374 78.6866,-947.567"/>
</g>
<!-- Node201 -->
<g id="node14" class="node"><title>Node201</title>
<g id="a_node14"><a xlink:href="classSeeSawN_1_1ApplicationN_1_1InterfaceSfMPipelineC.html#a2dcd6302c84357ab559b2ba37a7cbbf9" target="_top" xlink:title="Makes a parameter object from a property tree. ">
<polygon fill="white" stroke="black" points="1386.5,-985.5 1386.5,-1026.5 1507.5,-1026.5 1507.5,-985.5 1386.5,-985.5"/>
<text text-anchor="start" x="1394.5" y="-1014.5" font-family="FreeSans" font-size="10.00">SeeSawN::ApplicationN</text>
<text text-anchor="start" x="1394.5" y="-1003.5" font-family="FreeSans" font-size="10.00">::InterfaceSfMPipelineC</text>
<text text-anchor="middle" x="1447" y="-992.5" font-family="FreeSans" font-size="10.00">::MakeParameterObject</text>
</a>
</g>
</g>
<!-- Node188&#45;&gt;Node201 -->
<g id="edge88" class="edge"><title>Node188&#45;&gt;Node201</title>
<path fill="none" stroke="midnightblue" d="M131.239,-926.268C199.292,-926.515 305.757,-926.863 398,-927 470.889,-927.108 491.441,-945.284 562,-927 579.718,-922.409 580.397,-912.014 598,-907 812.395,-845.934 876.142,-888.335 1099,-883 1190.53,-880.809 1219.27,-850.862 1305,-883 1359.75,-903.525 1407.22,-955.996 1430.57,-985.342"/>
<polygon fill="midnightblue" stroke="midnightblue" points="131.082,-922.767 121.069,-926.23 131.056,-929.767 131.082,-922.767"/>
</g>
<!-- Node202 -->
<g id="node15" class="node"><title>Node202</title>
<g id="a_node15"><a xlink:href="classSeeSawN_1_1ApplicationN_1_1InterfaceRoamingCameraTrackingPipelineC.html#a8302af37f63e6682be01ab9f52fc7855" target="_top" xlink:title="Makes a parameter object from a property tree. ">
<polygon fill="white" stroke="black" points="1117.5,-1088.5 1117.5,-1129.5 1286.5,-1129.5 1286.5,-1088.5 1117.5,-1088.5"/>
<text text-anchor="start" x="1125.5" y="-1117.5" font-family="FreeSans" font-size="10.00">SeeSawN::ApplicationN</text>
<text text-anchor="start" x="1125.5" y="-1106.5" font-family="FreeSans" font-size="10.00">::InterfaceRoamingCameraTracking</text>
<text text-anchor="middle" x="1202" y="-1095.5" font-family="FreeSans" font-size="10.00">PipelineC::MakeParameterObject</text>
</a>
</g>
</g>
<!-- Node188&#45;&gt;Node202 -->
<g id="edge83" class="edge"><title>Node188&#45;&gt;Node202</title>
<path fill="none" stroke="midnightblue" d="M73.3803,-950.572C88.4941,-978.813 117.461,-1023.97 157,-1045 322.428,-1133 899.612,-1120.71 1117.17,-1112.64"/>
<polygon fill="midnightblue" stroke="midnightblue" points="76.3177,-948.632 68.6174,-941.355 70.0989,-951.846 76.3177,-948.632"/>
</g>
<!-- Node203 -->
<g id="node16" class="node"><title>Node203</title>
<g id="a_node16"><a xlink:href="classSeeSawN_1_1ApplicationN_1_1InterfaceVisionGraphPipelineC.html#a6cc54cb46531eefd52ca842ad62570b7" target="_top" xlink:title="Makes a parameter object from a property tree. ">
<polygon fill="white" stroke="black" points="1128.5,-892.5 1128.5,-933.5 1275.5,-933.5 1275.5,-892.5 1128.5,-892.5"/>
<text text-anchor="start" x="1136.5" y="-921.5" font-family="FreeSans" font-size="10.00">SeeSawN::ApplicationN</text>
<text text-anchor="start" x="1136.5" y="-910.5" font-family="FreeSans" font-size="10.00">::InterfaceVisionGraphPipeline</text>
<text text-anchor="middle" x="1202" y="-899.5" font-family="FreeSans" font-size="10.00">C::MakeParameterObject</text>
</a>
</g>
</g>
<!-- Node188&#45;&gt;Node203 -->
<g id="edge80" class="edge"><title>Node188&#45;&gt;Node203</title>
<path fill="none" stroke="midnightblue" d="M104.461,-944.817C120.608,-950.943 139.335,-956.949 157,-960 334.374,-990.633 386.362,-999.385 562,-960 579.265,-956.128 580.836,-947.299 598,-943 784.575,-896.264 1013.5,-901.114 1128.2,-907.61"/>
<polygon fill="midnightblue" stroke="midnightblue" points="105.361,-941.41 94.7736,-941.013 102.802,-947.926 105.361,-941.41"/>
</g>
<!-- Node204 -->
<g id="node17" class="node"><title>Node204</title>
<g id="a_node17"><a xlink:href="classSeeSawN_1_1ApplicationN_1_1InterfaceRandomSpanningTreeSamplerC.html#a2012997537adefca9dbaa361603a54fb" target="_top" xlink:title="Makes a parameter object from a property tree. ">
<polygon fill="white" stroke="black" points="179,-144.5 179,-185.5 340,-185.5 340,-144.5 179,-144.5"/>
<text text-anchor="start" x="187" y="-173.5" font-family="FreeSans" font-size="10.00">SeeSawN::ApplicationN</text>
<text text-anchor="start" x="187" y="-162.5" font-family="FreeSans" font-size="10.00">::InterfaceRandomSpanningTree</text>
<text text-anchor="middle" x="259.5" y="-151.5" font-family="FreeSans" font-size="10.00">SamplerC::MakeParameterObject</text>
</a>
</g>
</g>
<!-- Node188&#45;&gt;Node204 -->
<g id="edge19" class="edge"><title>Node188&#45;&gt;Node204</title>
<path fill="none" stroke="midnightblue" d="M61.3823,-900.762C61.344,-785.562 66.7401,-310.535 157,-200 162.895,-192.781 170.359,-187.047 178.554,-182.493"/>
<polygon fill="midnightblue" stroke="midnightblue" points="57.8822,-900.769 61.4003,-910.762 64.8822,-900.756 57.8822,-900.769"/>
</g>
<!-- Node205 -->
<g id="node18" class="node"><title>Node205</title>
<g id="a_node18"><a xlink:href="classSeeSawN_1_1ApplicationN_1_1InterfaceRotationRegistrationPipelineC.html#ad6fa8a8503f110bdd75c11e63d68e2ee" target="_top" xlink:title="Makes a parameter object from a property tree. ">
<polygon fill="white" stroke="black" points="400,-98.5 400,-139.5 560,-139.5 560,-98.5 400,-98.5"/>
<text text-anchor="start" x="408" y="-127.5" font-family="FreeSans" font-size="10.00">SeeSawN::ApplicationN</text>
<text text-anchor="start" x="408" y="-116.5" font-family="FreeSans" font-size="10.00">::InterfaceRotationRegistration</text>
<text text-anchor="middle" x="480" y="-105.5" font-family="FreeSans" font-size="10.00">PipelineC::MakeParameterObject</text>
</a>
</g>
</g>
<!-- Node188&#45;&gt;Node205 -->
<g id="edge23" class="edge"><title>Node188&#45;&gt;Node205</title>
<path fill="none" stroke="midnightblue" d="M62.6576,-900.55C68.7993,-770.974 99.4769,-188.604 157,-135 222.722,-73.7556 332.603,-83.0168 405.439,-98.4496"/>
<polygon fill="midnightblue" stroke="midnightblue" points="59.1539,-900.549 62.183,-910.701 66.1463,-900.875 59.1539,-900.549"/>
</g>
<!-- Node206 -->
<g id="node19" class="node"><title>Node206</title>
<g id="a_node19"><a xlink:href="classSeeSawN_1_1ApplicationN_1_1InterfaceScaledUnscentedTransformationC.html#a797770ea7d2fefc7fa5c07ff3a67f52a" target="_top" xlink:title="Makes a parameter object from a property tree. ">
<polygon fill="white" stroke="black" points="158.5,-1202.5 158.5,-1243.5 360.5,-1243.5 360.5,-1202.5 158.5,-1202.5"/>
<text text-anchor="start" x="166.5" y="-1231.5" font-family="FreeSans" font-size="10.00">SeeSawN::ApplicationN</text>
<text text-anchor="start" x="166.5" y="-1220.5" font-family="FreeSans" font-size="10.00">::InterfaceScaledUnscentedTransformation</text>
<text text-anchor="middle" x="259.5" y="-1209.5" font-family="FreeSans" font-size="10.00">C::MakeParameterObject</text>
</a>
</g>
</g>
<!-- Node188&#45;&gt;Node206 -->
<g id="edge24" class="edge"><title>Node188&#45;&gt;Node206</title>
<path fill="none" stroke="midnightblue" d="M63.6157,-951.382C69.2714,-1003.11 89.2803,-1121.45 157,-1188 162.717,-1193.62 169.377,-1198.34 176.502,-1202.3"/>
<polygon fill="midnightblue" stroke="midnightblue" points="67.0671,-950.72 62.5894,-941.118 60.1018,-951.417 67.0671,-950.72"/>
</g>
<!-- Node207 -->
<g id="node20" class="node"><title>Node207</title>
<g id="a_node20"><a xlink:href="classSeeSawN_1_1ApplicationN_1_1InterfaceGeometryEstimationPipelineC.html#a32894c85b4610b3d8da17e9ce002655f" target="_top" xlink:title="Makes a parameter object from a property tree. ">
<polygon fill="white" stroke="black" points="865.5,-1186.5 865.5,-1227.5 1025.5,-1227.5 1025.5,-1186.5 865.5,-1186.5"/>
<text text-anchor="start" x="873.5" y="-1215.5" font-family="FreeSans" font-size="10.00">SeeSawN::ApplicationN</text>
<text text-anchor="start" x="873.5" y="-1204.5" font-family="FreeSans" font-size="10.00">::InterfaceGeometryEstimation</text>
<text text-anchor="middle" x="945.5" y="-1193.5" font-family="FreeSans" font-size="10.00">PipelineC::MakeParameterObject</text>
</a>
</g>
</g>
<!-- Node188&#45;&gt;Node207 -->
<g id="edge78" class="edge"><title>Node188&#45;&gt;Node207</title>
<path fill="none" stroke="midnightblue" d="M64.9999,-951.444C75.2434,-1021.76 107.591,-1215.96 157,-1253 266.918,-1335.41 688.213,-1260.4 865.33,-1224.09"/>
<polygon fill="midnightblue" stroke="midnightblue" points="68.4251,-950.67 63.5464,-941.266 61.4954,-951.66 68.4251,-950.67"/>
</g>
<!-- Node208 -->
<g id="node21" class="node"><title>Node208</title>
<g id="a_node21"><a xlink:href="classSeeSawN_1_1ApplicationN_1_1InterfaceMultimodelGeometryEstimationPipelineC.html#a022f2ccad25296bf25259cd3eaee5dff" target="_top" xlink:title="Makes a parameter object from a property tree. ">
<polygon fill="white" stroke="black" points="1099,-1404.5 1099,-1445.5 1305,-1445.5 1305,-1404.5 1099,-1404.5"/>
<text text-anchor="start" x="1107" y="-1433.5" font-family="FreeSans" font-size="10.00">SeeSawN::ApplicationN</text>
<text text-anchor="start" x="1107" y="-1422.5" font-family="FreeSans" font-size="10.00">::InterfaceMultimodelGeometry</text>
<text text-anchor="middle" x="1202" y="-1411.5" font-family="FreeSans" font-size="10.00">EstimationPipelineC::MakeParameterObject</text>
</a>
</g>
</g>
<!-- Node188&#45;&gt;Node208 -->
<g id="edge84" class="edge"><title>Node188&#45;&gt;Node208</title>
<path fill="none" stroke="midnightblue" d="M62.3523,-951.224C66.1188,-1047.01 84.4588,-1386.49 157,-1460 259.369,-1563.73 333.26,-1522 479,-1522 479,-1522 479,-1522 696,-1522 856.697,-1522 1041.08,-1474.04 1136.39,-1445.57"/>
<polygon fill="midnightblue" stroke="midnightblue" points="65.8422,-950.887 61.971,-941.025 58.8471,-951.148 65.8422,-950.887"/>
</g>
<!-- Node209 -->
<g id="node22" class="node"><title>Node209</title>
<g id="a_node22"><a xlink:href="classSeeSawN_1_1ApplicationN_1_1InterfaceMultiviewTriangulationC.html#a0ef38619b6d4700f21009c9c279a6da4" target="_top" xlink:title="Makes a parameter object from a property tree. ">
<polygon fill="white" stroke="black" points="402,-1164.5 402,-1205.5 558,-1205.5 558,-1164.5 402,-1164.5"/>
<text text-anchor="start" x="410" y="-1193.5" font-family="FreeSans" font-size="10.00">SeeSawN::ApplicationN</text>
<text text-anchor="start" x="410" y="-1182.5" font-family="FreeSans" font-size="10.00">::InterfaceMultiviewTriangulation</text>
<text text-anchor="middle" x="480" y="-1171.5" font-family="FreeSans" font-size="10.00">C::MakeParameterObject</text>
</a>
</g>
</g>
<!-- Node188&#45;&gt;Node209 -->
<g id="edge44" class="edge"><title>Node188&#45;&gt;Node209</title>
<path fill="none" stroke="midnightblue" d="M64.0997,-951.214C70.4688,-998.798 91.4701,-1101.41 157,-1150 194.547,-1177.84 319.127,-1184.28 401.864,-1185.38"/>
<polygon fill="midnightblue" stroke="midnightblue" points="67.5563,-950.647 62.8635,-941.148 60.6085,-951.5 67.5563,-950.647"/>
</g>
<!-- Node210 -->
<g id="node23" class="node"><title>Node210</title>
<g id="a_node23"><a xlink:href="classSeeSawN_1_1ApplicationN_1_1InterfaceSparse3DReconstructionPipelineC.html#aef3e2ab9f46a4abccdd174dd59efb432" target="_top" xlink:title="Makes a parameter object from a property tree. ">
<polygon fill="white" stroke="black" points="611.5,-1164.5 611.5,-1205.5 778.5,-1205.5 778.5,-1164.5 611.5,-1164.5"/>
<text text-anchor="start" x="619.5" y="-1193.5" font-family="FreeSans" font-size="10.00">SeeSawN::ApplicationN</text>
<text text-anchor="start" x="619.5" y="-1182.5" font-family="FreeSans" font-size="10.00">::InterfaceSparse3DReconstruction</text>
<text text-anchor="middle" x="695" y="-1171.5" font-family="FreeSans" font-size="10.00">PipelineC::MakeParameterObject</text>
</a>
</g>
</g>
<!-- Node188&#45;&gt;Node210 -->
<g id="edge76" class="edge"><title>Node188&#45;&gt;Node210</title>
<path fill="none" stroke="midnightblue" d="M66.412,-951.055C75.9344,-992.282 101.096,-1073.66 157,-1112 231.641,-1163.19 472.718,-1140.17 562,-1155 577.996,-1157.66 594.959,-1161.06 611.205,-1164.62"/>
<polygon fill="midnightblue" stroke="midnightblue" points="69.8251,-950.279 64.2708,-941.257 62.9865,-951.774 69.8251,-950.279"/>
</g>
<!-- Node211 -->
<g id="node24" class="node"><title>Node211</title>
<g id="a_node24"><a xlink:href="classSeeSawN_1_1ApplicationN_1_1InterfaceMultiviewPanoramaBuilderC.html#ae64ad3d3b4f4626f250d6f45ede90ad3" target="_top" xlink:title="Makes a parameter object from a property tree. ">
<polygon fill="white" stroke="black" points="402.5,-272.5 402.5,-313.5 557.5,-313.5 557.5,-272.5 402.5,-272.5"/>
<text text-anchor="start" x="410.5" y="-301.5" font-family="FreeSans" font-size="10.00">SeeSawN::ApplicationN</text>
<text text-anchor="start" x="410.5" y="-290.5" font-family="FreeSans" font-size="10.00">::InterfaceMultiviewPanorama</text>
<text text-anchor="middle" x="480" y="-279.5" font-family="FreeSans" font-size="10.00">BuilderC::MakeParameterObject</text>
</a>
</g>
</g>
<!-- Node188&#45;&gt;Node211 -->
<g id="edge40" class="edge"><title>Node188&#45;&gt;Node211</title>
<path fill="none" stroke="midnightblue" d="M61.64,-900.621C62.7717,-797.07 72.6566,-408.221 157,-328 221.48,-266.672 329.286,-267.791 402.214,-277.587"/>
<polygon fill="midnightblue" stroke="midnightblue" points="58.1388,-900.744 61.548,-910.776 65.1386,-900.808 58.1388,-900.744"/>
</g>
<!-- Node212 -->
<g id="node25" class="node"><title>Node212</title>
<g id="a_node25"><a xlink:href="classSeeSawN_1_1ApplicationN_1_1InterfaceSparseUnitSphereReconstructionC.html#ae65a4c92e3dd37422ffd23871f84b97e" target="_top" xlink:title="Makes a parameter object from a property tree. ">
<polygon fill="white" stroke="black" points="599.5,-408.5 599.5,-449.5 790.5,-449.5 790.5,-408.5 599.5,-408.5"/>
<text text-anchor="start" x="607.5" y="-437.5" font-family="FreeSans" font-size="10.00">SeeSawN::ApplicationN</text>
<text text-anchor="start" x="607.5" y="-426.5" font-family="FreeSans" font-size="10.00">::InterfaceSparseUnitSphere</text>
<text text-anchor="middle" x="695" y="-415.5" font-family="FreeSans" font-size="10.00">ReconstructionC::MakeParameterObject</text>
</a>
</g>
</g>
<!-- Node188&#45;&gt;Node212 -->
<g id="edge62" class="edge"><title>Node188&#45;&gt;Node212</title>
<path fill="none" stroke="midnightblue" d="M62.5008,-900.437C66.6511,-809.224 85.7892,-501.991 157,-442 221.545,-387.624 463.262,-403.64 599.353,-417.692"/>
<polygon fill="midnightblue" stroke="midnightblue" points="58.9928,-900.548 62.057,-910.69 65.9863,-900.85 58.9928,-900.548"/>
</g>
<!-- Node213 -->
<g id="node26" class="node"><title>Node213</title>
<g id="a_node26"><a xlink:href="classSeeSawN_1_1AppSparseUnitSphereBuilderN_1_1AppSparseUnitSphereBuilderImplementationC.html#a0706143c40b8db88a144d6b030c72b40" target="_top" xlink:title="Sets and validates the application parameters. ">
<polygon fill="white" stroke="black" points="853,-433.5 853,-474.5 1038,-474.5 1038,-433.5 853,-433.5"/>
<text text-anchor="start" x="861" y="-462.5" font-family="FreeSans" font-size="10.00">SeeSawN::AppSparseUnitSphere</text>
<text text-anchor="start" x="861" y="-451.5" font-family="FreeSans" font-size="10.00">BuilderN::AppSparseUnitSphereBuilder</text>
<text text-anchor="middle" x="945.5" y="-440.5" font-family="FreeSans" font-size="10.00">ImplementationC::SetParameters</text>
</a>
</g>
</g>
<!-- Node188&#45;&gt;Node213 -->
<g id="edge90" class="edge"><title>Node188&#45;&gt;Node213</title>
<path fill="none" stroke="midnightblue" d="M62.8546,-900.641C68.0837,-813.478 90.115,-528.488 157,-473 170.579,-461.735 774.363,-459.484 792,-459 811.728,-458.459 832.888,-457.81 852.977,-457.161"/>
<polygon fill="midnightblue" stroke="midnightblue" points="59.3558,-900.521 62.2737,-910.706 66.3442,-900.924 59.3558,-900.521"/>
</g>
<!-- Node214 -->
<g id="node27" class="node"><title>Node214</title>
<g id="a_node27"><a xlink:href="classSeeSawN_1_1ApplicationN_1_1InterfaceFeatureMatcherC.html#af7d4e6a1ebf6147dc4385a4a6df3b4e5" target="_top" xlink:title="Makes a parameter object from a property tree. ">
<polygon fill="white" stroke="black" points="192.5,-789.5 192.5,-830.5 326.5,-830.5 326.5,-789.5 192.5,-789.5"/>
<text text-anchor="start" x="200.5" y="-818.5" font-family="FreeSans" font-size="10.00">SeeSawN::ApplicationN</text>
<text text-anchor="start" x="200.5" y="-807.5" font-family="FreeSans" font-size="10.00">::InterfaceFeatureMatcherC</text>
<text text-anchor="middle" x="259.5" y="-796.5" font-family="FreeSans" font-size="10.00">::MakeParameterObject</text>
</a>
</g>
</g>
<!-- Node188&#45;&gt;Node214 -->
<g id="edge45" class="edge"><title>Node188&#45;&gt;Node214</title>
<path fill="none" stroke="midnightblue" d="M95.8967,-905.746C131.676,-884.678 187.402,-851.865 223.429,-830.651"/>
<polygon fill="midnightblue" stroke="midnightblue" points="94.0955,-902.745 87.2543,-910.835 97.6473,-908.777 94.0955,-902.745"/>
</g>
<!-- Node215 -->
<g id="node28" class="node"><title>Node215</title>
<g id="a_node28"><a xlink:href="classSeeSawN_1_1ApplicationN_1_1InterfaceFeatureTrackerC.html#ad25fe934540f046117733810186c00f9" target="_top" xlink:title="Makes a parameter object from a property tree. ">
<polygon fill="white" stroke="black" points="414,-702.5 414,-743.5 546,-743.5 546,-702.5 414,-702.5"/>
<text text-anchor="start" x="422" y="-731.5" font-family="FreeSans" font-size="10.00">SeeSawN::ApplicationN</text>
<text text-anchor="start" x="422" y="-720.5" font-family="FreeSans" font-size="10.00">::InterfaceFeatureTrackerC</text>
<text text-anchor="middle" x="480" y="-709.5" font-family="FreeSans" font-size="10.00">::MakeParameterObject</text>
</a>
</g>
</g>
<!-- Node188&#45;&gt;Node215 -->
<g id="edge64" class="edge"><title>Node188&#45;&gt;Node215</title>
<path fill="none" stroke="midnightblue" d="M70.4514,-901.148C83.8225,-867.834 112.328,-809.484 157,-780 198.223,-752.793 332.164,-736.238 413.741,-728.424"/>
<polygon fill="midnightblue" stroke="midnightblue" points="67.1296,-900.034 66.7864,-910.623 73.6583,-902.559 67.1296,-900.034"/>
</g>
<!-- Node216 -->
<g id="node29" class="node"><title>Node216</title>
<g id="a_node29"><a xlink:href="classSeeSawN_1_1ApplicationN_1_1InterfaceMultisourceFeatureMatcherC.html#a32151a42087a150e45561f576e7bac11" target="_top" xlink:title="Makes a parameter object from a property tree. ">
<polygon fill="white" stroke="black" points="399.5,-876.5 399.5,-917.5 560.5,-917.5 560.5,-876.5 399.5,-876.5"/>
<text text-anchor="start" x="407.5" y="-905.5" font-family="FreeSans" font-size="10.00">SeeSawN::ApplicationN</text>
<text text-anchor="start" x="407.5" y="-894.5" font-family="FreeSans" font-size="10.00">::InterfaceMultisourceFeature</text>
<text text-anchor="middle" x="480" y="-883.5" font-family="FreeSans" font-size="10.00">MatcherC::MakeParameterObject</text>
</a>
</g>
</g>
<!-- Node188&#45;&gt;Node216 -->
<g id="edge63" class="edge"><title>Node188&#45;&gt;Node216</title>
<path fill="none" stroke="midnightblue" d="M131.462,-921.14C205.41,-916.004 321.843,-907.916 399.289,-902.537"/>
<polygon fill="midnightblue" stroke="midnightblue" points="131.051,-917.66 121.318,-921.845 131.536,-924.644 131.051,-917.66"/>
</g>
<!-- Node217 -->
<g id="node30" class="node"><title>Node217</title>
<g id="a_node30"><a xlink:href="classSeeSawN_1_1ApplicationN_1_1InterfaceRelativeSynchronisationC.html#a2c85b8edde3aee4e7ef365388b764718" target="_top" xlink:title="Makes a parameter object from a property tree. ">
<polygon fill="white" stroke="black" points="398,-484.5 398,-525.5 562,-525.5 562,-484.5 398,-484.5"/>
<text text-anchor="start" x="406" y="-513.5" font-family="FreeSans" font-size="10.00">SeeSawN::ApplicationN</text>
<text text-anchor="start" x="406" y="-502.5" font-family="FreeSans" font-size="10.00">::InterfaceRelativeSynchronisation</text>
<text text-anchor="middle" x="480" y="-491.5" font-family="FreeSans" font-size="10.00">C::MakeParameterObject</text>
</a>
</g>
</g>
<!-- Node188&#45;&gt;Node217 -->
<g id="edge87" class="edge"><title>Node188&#45;&gt;Node217</title>
<path fill="none" stroke="midnightblue" d="M63.6767,-900.465C71.1118,-819.856 98.356,-573.22 157,-524 223.057,-468.558 326.164,-472.944 397.84,-485.241"/>
<polygon fill="midnightblue" stroke="midnightblue" points="60.1662,-900.427 62.7579,-910.7 67.1381,-901.053 60.1662,-900.427"/>
</g>
<!-- Node218 -->
<g id="node31" class="node"><title>Node218</title>
<g id="a_node31"><a xlink:href="classSeeSawN_1_1ApplicationN_1_1InterfaceMulticameraSynchronisationC.html#a77809c05110f30ea160c4497ce3c943c" target="_top" xlink:title="Makes a parameter object from a property tree. ">
<polygon fill="white" stroke="black" points="604,-234.5 604,-275.5 786,-275.5 786,-234.5 604,-234.5"/>
<text text-anchor="start" x="612" y="-263.5" font-family="FreeSans" font-size="10.00">SeeSawN::ApplicationN</text>
<text text-anchor="start" x="612" y="-252.5" font-family="FreeSans" font-size="10.00">::InterfaceMulticameraSynchronisation</text>
<text text-anchor="middle" x="695" y="-241.5" font-family="FreeSans" font-size="10.00">C::MakeParameterObject</text>
</a>
</g>
</g>
<!-- Node188&#45;&gt;Node218 -->
<g id="edge74" class="edge"><title>Node188&#45;&gt;Node218</title>
<path fill="none" stroke="midnightblue" d="M62.4105,-900.579C67.4878,-765.918 94.3611,-139.936 157,-84 190.568,-54.0245 521.715,-68.9403 562,-89 624.954,-120.347 667.447,-197.323 684.968,-234.392"/>
<polygon fill="midnightblue" stroke="midnightblue" points="58.9065,-900.624 62.0336,-910.747 65.9017,-900.884 58.9065,-900.624"/>
</g>
<!-- Node219 -->
<g id="node32" class="node"><title>Node219</title>
<g id="a_node32"><a xlink:href="classSeeSawN_1_1AppMulticameraSynchronisationN_1_1AppMulticameraSynchronisationImplementationC.html#adb26bc6ff7e34e1361dc6c1580f56781" target="_top" xlink:title="Sets and validates the application parameters. ">
<polygon fill="white" stroke="black" points="828,-215.5 828,-256.5 1063,-256.5 1063,-215.5 828,-215.5"/>
<text text-anchor="start" x="836" y="-244.5" font-family="FreeSans" font-size="10.00">SeeSawN::AppMulticameraSynchronisation</text>
<text text-anchor="start" x="836" y="-233.5" font-family="FreeSans" font-size="10.00">N::AppMulticameraSynchronisationImplementation</text>
<text text-anchor="middle" x="945.5" y="-222.5" font-family="FreeSans" font-size="10.00">C::SetParameters</text>
</a>
</g>
</g>
<!-- Node188&#45;&gt;Node219 -->
<g id="edge89" class="edge"><title>Node188&#45;&gt;Node219</title>
<path fill="none" stroke="midnightblue" d="M61.2103,-900.577C60.5239,-790.543 63.8425,-356.885 157,-268 250.182,-179.092 632.155,-203.637 827.806,-222.856"/>
<polygon fill="midnightblue" stroke="midnightblue" points="57.7116,-900.77 61.2917,-910.742 64.7114,-900.714 57.7116,-900.77"/>
</g>
<!-- Node220 -->
<g id="node33" class="node"><title>Node220</title>
<g id="a_node33"><a xlink:href="classSeeSawN_1_1ApplicationN_1_1InterfacePowellDogLegC.html#a5bcff0c4f36ea54d92c337ec666523f7" target="_top" xlink:title="Makes a parameter object from a property tree. ">
<polygon fill="white" stroke="black" points="195,-533.5 195,-574.5 324,-574.5 324,-533.5 195,-533.5"/>
<text text-anchor="start" x="203" y="-562.5" font-family="FreeSans" font-size="10.00">SeeSawN::ApplicationN</text>
<text text-anchor="start" x="203" y="-551.5" font-family="FreeSans" font-size="10.00">::InterfacePowellDogLegC</text>
<text text-anchor="middle" x="259.5" y="-540.5" font-family="FreeSans" font-size="10.00">::MakeParameterObject</text>
</a>
</g>
</g>
<!-- Node188&#45;&gt;Node220 -->
<g id="edge57" class="edge"><title>Node188&#45;&gt;Node220</title>
<path fill="none" stroke="midnightblue" d="M61.5577,-900.673C63.0562,-839.871 75.1588,-684.038 157,-594 167.192,-582.787 180.926,-574.676 194.993,-568.824"/>
<polygon fill="midnightblue" stroke="midnightblue" points="58.0547,-900.825 61.3868,-910.882 65.0537,-900.942 58.0547,-900.825"/>
</g>
<!-- Node222 -->
<g id="node35" class="node"><title>Node222</title>
<g id="a_node35"><a xlink:href="classSeeSawN_1_1ApplicationN_1_1InterfaceRANSACC.html#a1f3fbf218841630d8012f027dd1c8d00" target="_top" xlink:title="Makes a parameter object from a property tree. ">
<polygon fill="white" stroke="black" points="169,-643.5 169,-684.5 350,-684.5 350,-643.5 169,-643.5"/>
<text text-anchor="start" x="177" y="-672.5" font-family="FreeSans" font-size="10.00">SeeSawN::ApplicationN</text>
<text text-anchor="start" x="177" y="-661.5" font-family="FreeSans" font-size="10.00">::InterfaceRANSACC::MakeParameter</text>
<text text-anchor="middle" x="259.5" y="-650.5" font-family="FreeSans" font-size="10.00">Object</text>
</a>
</g>
</g>
<!-- Node188&#45;&gt;Node222 -->
<g id="edge65" class="edge"><title>Node188&#45;&gt;Node222</title>
<path fill="none" stroke="midnightblue" d="M65.533,-900.928C74.1588,-855.206 98.5866,-757.855 157,-702 164.344,-694.978 173.105,-689.228 182.36,-684.525"/>
<polygon fill="midnightblue" stroke="midnightblue" points="62.0682,-900.421 63.7537,-910.881 68.9589,-901.653 62.0682,-900.421"/>
</g>
<!-- Node223 -->
<g id="node36" class="node"><title>Node223</title>
<g id="a_node36"><a xlink:href="classSeeSawN_1_1ApplicationN_1_1InterfaceLinearAutocalibrationPipelineC.html#a3ae32f6cdfafc8e18327a2a0200ca6dd" target="_top" xlink:title="Makes a parameter object from a property tree. ">
<polygon fill="white" stroke="black" points="400,-642.5 400,-683.5 560,-683.5 560,-642.5 400,-642.5"/>
<text text-anchor="start" x="408" y="-671.5" font-family="FreeSans" font-size="10.00">SeeSawN::ApplicationN</text>
<text text-anchor="start" x="408" y="-660.5" font-family="FreeSans" font-size="10.00">::InterfaceLinearAutocalibration</text>
<text text-anchor="middle" x="480" y="-649.5" font-family="FreeSans" font-size="10.00">PipelineC::MakeParameterObject</text>
</a>
</g>
</g>
<!-- Node188&#45;&gt;Node223 -->
<g id="edge73" class="edge"><title>Node188&#45;&gt;Node223</title>
<path fill="none" stroke="midnightblue" d="M66.0946,-900.965C75.284,-858.508 100.142,-772.832 157,-730 230.886,-674.34 271.653,-713.864 362,-694 376.058,-690.909 390.97,-687.253 405.272,-683.555"/>
<polygon fill="midnightblue" stroke="midnightblue" points="62.663,-900.277 64.0859,-910.776 69.5207,-901.681 62.663,-900.277"/>
</g>
<!-- Node225 -->
<g id="node38" class="node"><title>Node225</title>
<g id="a_node38"><a xlink:href="classSeeSawN_1_1ApplicationN_1_1InterfaceSequentialRANSACC.html#a5a8b27836ebc3bf5e2441cce807c5ff0" target="_top" xlink:title="Makes a parameter object from a property tree. ">
<polygon fill="white" stroke="black" points="403.5,-1338.5 403.5,-1379.5 556.5,-1379.5 556.5,-1338.5 403.5,-1338.5"/>
<text text-anchor="start" x="411.5" y="-1367.5" font-family="FreeSans" font-size="10.00">SeeSawN::ApplicationN</text>
<text text-anchor="start" x="411.5" y="-1356.5" font-family="FreeSans" font-size="10.00">::InterfaceSequentialRANSACC</text>
<text text-anchor="middle" x="480" y="-1345.5" font-family="FreeSans" font-size="10.00">::MakeParameterObject</text>
</a>
</g>
</g>
<!-- Node188&#45;&gt;Node225 -->
<g id="edge75" class="edge"><title>Node188&#45;&gt;Node225</title>
<path fill="none" stroke="midnightblue" d="M63.8189,-951.167C71.6821,-1030.63 100.072,-1273.89 157,-1324 223.796,-1382.8 331.055,-1382.28 403.227,-1373.31"/>
<polygon fill="midnightblue" stroke="midnightblue" points="67.2897,-950.696 62.8447,-941.078 60.3222,-951.368 67.2897,-950.696"/>
</g>
<!-- Node226 -->
<g id="node39" class="node"><title>Node226</title>
<g id="a_node39"><a xlink:href="classSeeSawN_1_1ApplicationN_1_1InterfaceTwoStageRANSACC.html#a589cffaf215a4227a87b027bf092540b" target="_top" xlink:title="Makes a parameter object from a property tree. ">
<polygon fill="white" stroke="black" points="404,-582.5 404,-623.5 556,-623.5 556,-582.5 404,-582.5"/>
<text text-anchor="start" x="412" y="-611.5" font-family="FreeSans" font-size="10.00">SeeSawN::ApplicationN</text>
<text text-anchor="start" x="412" y="-600.5" font-family="FreeSans" font-size="10.00">::InterfaceTwoStageRANSACC</text>
<text text-anchor="middle" x="480" y="-589.5" font-family="FreeSans" font-size="10.00">::MakeParameterObject</text>
</a>
</g>
</g>
<!-- Node188&#45;&gt;Node226 -->
<g id="edge77" class="edge"><title>Node188&#45;&gt;Node226</title>
<path fill="none" stroke="midnightblue" d="M61.2428,-900.675C62.1685,-842.868 73.3078,-701.036 157,-634 226.147,-578.614 332.344,-579.716 403.674,-588.719"/>
<polygon fill="midnightblue" stroke="midnightblue" points="57.7424,-900.739 61.1745,-910.762 64.7423,-900.786 57.7424,-900.739"/>
</g>
<!-- Node227 -->
<g id="node40" class="node"><title>Node227</title>
<g id="a_node40"><a xlink:href="classSeeSawN_1_1AppZeroReconstructionEvaluationN_1_1AppZeroReconstructionEvaluationImplementationC.html#a06ddad72022977bf9f24366e0715fc6a" target="_top" xlink:title="Sets and validates the application parameters. ">
<polygon fill="white" stroke="black" points="157,-0.5 157,-41.5 362,-41.5 362,-0.5 157,-0.5"/>
<text text-anchor="start" x="165" y="-29.5" font-family="FreeSans" font-size="10.00">SeeSawN::AppZeroReconstruction</text>
<text text-anchor="start" x="165" y="-18.5" font-family="FreeSans" font-size="10.00">EvaluationN::AppZeroReconstruction</text>
<text text-anchor="middle" x="259.5" y="-7.5" font-family="FreeSans" font-size="10.00">EvaluationImplementationC::SetParameters</text>
</a>
</g>
</g>
<!-- Node188&#45;&gt;Node227 -->
<g id="edge93" class="edge"><title>Node188&#45;&gt;Node227</title>
<path fill="none" stroke="midnightblue" d="M62.6874,-900.52C69.2544,-764.111 102.806,-123.84 157,-56 161.537,-50.3203 167.048,-45.5588 173.13,-41.5676"/>
<polygon fill="midnightblue" stroke="midnightblue" points="59.1773,-900.65 62.1977,-910.805 66.1694,-900.983 59.1773,-900.65"/>
</g>
<!-- Node189&#45;&gt;Node190 -->
<g id="edge2" class="edge"><title>Node189&#45;&gt;Node190</title>
<path fill="none" stroke="midnightblue" d="M777.953,-968.462C924.739,-962.039 1224.69,-957.187 1305,-1019 1431.83,-1116.62 1445.11,-1335.69 1446.08,-1404.15"/>
<polygon fill="midnightblue" stroke="midnightblue" points="777.486,-964.98 767.654,-968.927 777.802,-971.973 777.486,-964.98"/>
</g>
<!-- Node189&#45;&gt;Node191 -->
<g id="edge3" class="edge"><title>Node189&#45;&gt;Node191</title>
<path fill="none" stroke="midnightblue" d="M755.154,-948.476C833.53,-916.12 976.213,-857.693 1099,-810 1113.88,-804.218 1130.06,-798.113 1145.04,-792.528"/>
<polygon fill="midnightblue" stroke="midnightblue" points="753.364,-945.428 745.457,-952.481 756.036,-951.898 753.364,-945.428"/>
</g>
<!-- Node192 -->
<g id="node5" class="node"><title>Node192</title>
<g id="a_node5"><a xlink:href="classSeeSawN_1_1ApplicationN_1_1InterfaceTwoStageRANSACC.html#a14b9e6b6db39d18b349dff59fddfa413" target="_top" xlink:title="Extracts the parameters for RANSACGeometryEstimationProblemC. ">
<polygon fill="white" stroke="black" points="856,-1050.5 856,-1091.5 1035,-1091.5 1035,-1050.5 856,-1050.5"/>
<text text-anchor="start" x="864" y="-1079.5" font-family="FreeSans" font-size="10.00">SeeSawN::ApplicationN</text>
<text text-anchor="start" x="864" y="-1068.5" font-family="FreeSans" font-size="10.00">::InterfaceTwoStageRANSACC</text>
<text text-anchor="middle" x="945.5" y="-1057.5" font-family="FreeSans" font-size="10.00">::ExtractGeometryProblemParameters</text>
</a>
</g>
</g>
<!-- Node189&#45;&gt;Node192 -->
<g id="edge4" class="edge"><title>Node189&#45;&gt;Node192</title>
<path fill="none" stroke="midnightblue" d="M757.544,-997.271C799.026,-1013.63 853.145,-1034.97 892.475,-1050.48"/>
<polygon fill="midnightblue" stroke="midnightblue" points="758.681,-993.957 748.094,-993.544 756.112,-1000.47 758.681,-993.957"/>
</g>
<!-- Node192&#45;&gt;Node193 -->
<g id="edge5" class="edge"><title>Node192&#45;&gt;Node193</title>
<path fill="none" stroke="midnightblue" d="M984.559,-1097.88C1009.77,-1117.37 1041.95,-1145.71 1063,-1177 1088.9,-1215.5 1065.12,-1243.29 1099,-1275 1102.77,-1278.53 1106.94,-1281.65 1111.37,-1284.4"/>
<polygon fill="midnightblue" stroke="midnightblue" points="986.386,-1094.88 976.304,-1091.62 982.156,-1100.45 986.386,-1094.88"/>
</g>
<!-- Node192&#45;&gt;Node194 -->
<g id="edge6" class="edge"><title>Node192&#45;&gt;Node194</title>
<path fill="none" stroke="midnightblue" d="M986.542,-1097.57C1012.22,-1116.68 1044.16,-1144.71 1063,-1177 1099.3,-1239.2 1049.68,-1282.52 1099,-1335 1105.45,-1341.86 1113.37,-1347.18 1121.93,-1351.29"/>
<polygon fill="midnightblue" stroke="midnightblue" points="988.596,-1094.74 978.45,-1091.68 984.478,-1100.4 988.596,-1094.74"/>
</g>
<!-- Node192&#45;&gt;Node196 -->
<g id="edge8" class="edge"><title>Node192&#45;&gt;Node196</title>
<path fill="none" stroke="midnightblue" d="M985.138,-1097.42C1036.06,-1132.23 1124.57,-1192.74 1170.85,-1224.38"/>
<polygon fill="midnightblue" stroke="midnightblue" points="986.924,-1094.4 976.694,-1091.64 982.974,-1100.18 986.924,-1094.4"/>
</g>
<!-- Node192&#45;&gt;Node198 -->
<g id="edge10" class="edge"><title>Node192&#45;&gt;Node198</title>
<path fill="none" stroke="midnightblue" d="M963.519,-1041.61C988.47,-1000.85 1038.63,-927.2 1099,-883 1178.38,-824.885 1235.38,-871.512 1305,-802 1404.03,-703.123 1435.47,-526.236 1443.57,-465.86"/>
<polygon fill="midnightblue" stroke="midnightblue" points="960.466,-1039.89 958.297,-1050.26 966.46,-1043.51 960.466,-1039.89"/>
</g>
<!-- Node192&#45;&gt;Node200 -->
<g id="edge12" class="edge"><title>Node192&#45;&gt;Node200</title>
<path fill="none" stroke="midnightblue" d="M1045.48,-1062.44C1073.78,-1060 1104.04,-1057.38 1130.28,-1055.11"/>
<polygon fill="midnightblue" stroke="midnightblue" points="1044.82,-1058.99 1035.15,-1063.34 1045.42,-1065.96 1044.82,-1058.99"/>
</g>
<!-- Node192&#45;&gt;Node201 -->
<g id="edge15" class="edge"><title>Node192&#45;&gt;Node201</title>
<path fill="none" stroke="midnightblue" d="M1004.61,-1046.73C1032.62,-1036.19 1067.01,-1024.92 1099,-1019 1198.59,-1000.57 1316.91,-1000.73 1386.48,-1003.02"/>
<polygon fill="midnightblue" stroke="midnightblue" points="1003.06,-1043.57 994.977,-1050.42 1005.57,-1050.11 1003.06,-1043.57"/>
</g>
<!-- Node192&#45;&gt;Node202 -->
<g id="edge14" class="edge"><title>Node192&#45;&gt;Node202</title>
<path fill="none" stroke="midnightblue" d="M1045.27,-1085.75C1069.09,-1089.3 1094.31,-1093.07 1117.37,-1096.51"/>
<polygon fill="midnightblue" stroke="midnightblue" points="1045.56,-1082.25 1035.15,-1084.24 1044.53,-1089.18 1045.56,-1082.25"/>
</g>
<!-- Node192&#45;&gt;Node203 -->
<g id="edge16" class="edge"><title>Node192&#45;&gt;Node203</title>
<path fill="none" stroke="midnightblue" d="M974.304,-1043.51C1003.32,-1016.12 1051.17,-974.419 1099,-948 1108.83,-942.569 1119.66,-937.761 1130.47,-933.583"/>
<polygon fill="midnightblue" stroke="midnightblue" points="971.808,-1041.06 966.991,-1050.49 976.641,-1046.12 971.808,-1041.06"/>
</g>
<!-- Node194&#45;&gt;Node195 -->
<g id="edge7" class="edge"><title>Node194&#45;&gt;Node195</title>
<path fill="none" stroke="midnightblue" d="M1291.02,-1383.85C1296.12,-1387.02 1300.85,-1390.71 1305,-1395 1349.64,-1441.2 1303.81,-1482.61 1341,-1535 1356.03,-1556.17 1379.64,-1572.74 1400.67,-1584.43"/>
<polygon fill="midnightblue" stroke="midnightblue" points="1292.59,-1380.72 1282.14,-1379 1289.24,-1386.86 1292.59,-1380.72"/>
</g>
<!-- Node196&#45;&gt;Node197 -->
<g id="edge9" class="edge"><title>Node196&#45;&gt;Node197</title>
<path fill="none" stroke="midnightblue" d="M1291.14,-1263.5C1296.24,-1266.75 1300.93,-1270.55 1305,-1275 1360.08,-1335.19 1290.86,-1390.64 1341,-1455 1350.8,-1467.58 1364.56,-1477.16 1378.89,-1484.39"/>
<polygon fill="midnightblue" stroke="midnightblue" points="1292.68,-1260.35 1282.24,-1258.54 1289.28,-1266.47 1292.68,-1260.35"/>
</g>
<!-- Node198&#45;&gt;Node199 -->
<g id="edge11" class="edge"><title>Node198&#45;&gt;Node199</title>
<path fill="none" stroke="midnightblue" d="M1459.17,-475.055C1502.43,-591.479 1658.16,-1010.53 1689.85,-1095.79"/>
<polygon fill="midnightblue" stroke="midnightblue" points="1462.44,-473.817 1455.68,-465.662 1455.88,-476.255 1462.44,-473.817"/>
</g>
<!-- Node200&#45;&gt;Node201 -->
<g id="edge13" class="edge"><title>Node200&#45;&gt;Node201</title>
<path fill="none" stroke="midnightblue" d="M1283.84,-1034.7C1317.31,-1028.77 1355.44,-1022.03 1386.31,-1016.56"/>
<polygon fill="midnightblue" stroke="midnightblue" points="1282.85,-1031.32 1273.61,-1036.5 1284.07,-1038.21 1282.85,-1031.32"/>
</g>
<!-- Node203&#45;&gt;Node198 -->
<g id="edge17" class="edge"><title>Node203&#45;&gt;Node198</title>
<path fill="none" stroke="midnightblue" d="M1250.07,-886.899C1269.3,-874.259 1290.42,-857.56 1305,-838 1396.42,-715.377 1432.93,-527.911 1442.94,-465.794"/>
<polygon fill="midnightblue" stroke="midnightblue" points="1247.95,-884.098 1241.39,-892.417 1251.7,-890.005 1247.95,-884.098"/>
</g>
<!-- Node203&#45;&gt;Node201 -->
<g id="edge18" class="edge"><title>Node203&#45;&gt;Node201</title>
<path fill="none" stroke="midnightblue" d="M1274.17,-936.812C1284.55,-940.46 1295.07,-944.259 1305,-948 1336.21,-959.761 1370.85,-973.995 1397.99,-985.419"/>
<polygon fill="midnightblue" stroke="midnightblue" points="1275.3,-933.498 1264.7,-933.509 1272.99,-940.108 1275.3,-933.498"/>
</g>
<!-- Node204&#45;&gt;Node198 -->
<g id="edge20" class="edge"><title>Node204&#45;&gt;Node198</title>
<path fill="none" stroke="midnightblue" d="M350.575,-165.986C438.255,-166.861 575.271,-168 694,-168 694,-168 694,-168 946.5,-168 996.298,-168 1231.31,-242.337 1305,-291 1360.81,-327.854 1409.41,-391.576 1432.21,-424.296"/>
<polygon fill="midnightblue" stroke="midnightblue" points="350.431,-162.485 340.397,-165.884 350.361,-169.485 350.431,-162.485"/>
</g>
<!-- Node204&#45;&gt;Node205 -->
<g id="edge21" class="edge"><title>Node204&#45;&gt;Node205</title>
<path fill="none" stroke="midnightblue" d="M350.176,-146.121C366.667,-142.649 383.772,-139.048 399.923,-135.648"/>
<polygon fill="midnightblue" stroke="midnightblue" points="349.066,-142.778 340.002,-148.263 350.508,-149.628 349.066,-142.778"/>
</g>
<!-- Node205&#45;&gt;Node198 -->
<g id="edge22" class="edge"><title>Node205&#45;&gt;Node198</title>
<path fill="none" stroke="midnightblue" d="M566.711,-96.1646C726.67,-58.8537 1075.22,-3.1205 1305,-154 1402.14,-217.784 1434.37,-368.68 1443.16,-424.108"/>
<polygon fill="midnightblue" stroke="midnightblue" points="565.84,-92.7739 556.915,-98.4818 567.452,-99.5859 565.84,-92.7739"/>
</g>
<!-- Node206&#45;&gt;Node201 -->
<g id="edge39" class="edge"><title>Node206&#45;&gt;Node201</title>
<path fill="none" stroke="midnightblue" d="M275.641,-1253.04C297.035,-1291.94 340.057,-1358.36 398,-1389 576.646,-1483.47 1142.1,-1574.59 1305,-1455 1341.51,-1428.2 1420.57,-1110.93 1441.06,-1026.52"/>
<polygon fill="midnightblue" stroke="midnightblue" points="278.486,-1250.94 270.672,-1243.78 272.318,-1254.25 278.486,-1250.94"/>
</g>
<!-- Node206&#45;&gt;Node207 -->
<g id="edge25" class="edge"><title>Node206&#45;&gt;Node207</title>
<path fill="none" stroke="midnightblue" d="M371.153,-1222.54C478.684,-1221.8 646.583,-1219.91 792,-1215 815.847,-1214.2 841.775,-1212.97 865.374,-1211.71"/>
<polygon fill="midnightblue" stroke="midnightblue" points="370.914,-1219.04 360.938,-1222.61 370.961,-1226.04 370.914,-1219.04"/>
</g>
<!-- Node206&#45;&gt;Node209 -->
<g id="edge36" class="edge"><title>Node206&#45;&gt;Node209</title>
<path fill="none" stroke="midnightblue" d="M370.844,-1203.81C381.332,-1201.99 391.807,-1200.16 401.881,-1198.41"/>
<polygon fill="midnightblue" stroke="midnightblue" points="370.049,-1200.4 360.797,-1205.56 371.249,-1207.29 370.049,-1200.4"/>
</g>
<!-- Node207&#45;&gt;Node191 -->
<g id="edge28" class="edge"><title>Node207&#45;&gt;Node191</title>
<path fill="none" stroke="midnightblue" d="M987.439,-1180.6C1013.34,-1161.65 1045.2,-1133.73 1063,-1101 1109.92,-1014.73 1055.98,-971.279 1099,-883 1116.88,-846.298 1150.85,-813.108 1174.65,-792.779"/>
<polygon fill="midnightblue" stroke="midnightblue" points="985.37,-1177.78 979.263,-1186.44 989.436,-1183.48 985.37,-1177.78"/>
</g>
<!-- Node207&#45;&gt;Node193 -->
<g id="edge26" class="edge"><title>Node207&#45;&gt;Node193</title>
<path fill="none" stroke="midnightblue" d="M997.792,-1231.93C1027.05,-1245.62 1064.63,-1262.35 1099,-1275 1107.92,-1278.28 1117.38,-1281.46 1126.8,-1284.44"/>
<polygon fill="midnightblue" stroke="midnightblue" points="999.138,-1228.69 988.6,-1227.6 996.154,-1235.03 999.138,-1228.69"/>
</g>
<!-- Node207&#45;&gt;Node194 -->
<g id="edge27" class="edge"><title>Node207&#45;&gt;Node194</title>
<path fill="none" stroke="midnightblue" d="M972.869,-1235.14C1001.4,-1264.05 1049.5,-1308.46 1099,-1335 1106.24,-1338.88 1114.04,-1342.32 1122,-1345.35"/>
<polygon fill="midnightblue" stroke="midnightblue" points="975.187,-1232.5 965.7,-1227.79 970.174,-1237.39 975.187,-1232.5"/>
</g>
<!-- Node207&#45;&gt;Node196 -->
<g id="edge31" class="edge"><title>Node207&#45;&gt;Node196</title>
<path fill="none" stroke="midnightblue" d="M1035.83,-1220.34C1063.88,-1224.53 1094.63,-1229.12 1121.92,-1233.19"/>
<polygon fill="midnightblue" stroke="midnightblue" points="1036.04,-1216.83 1025.63,-1218.82 1035,-1223.75 1036.04,-1216.83"/>
</g>
<!-- Node207&#45;&gt;Node200 -->
<g id="edge32" class="edge"><title>Node207&#45;&gt;Node200</title>
<path fill="none" stroke="midnightblue" d="M972.869,-1178.86C1001.4,-1149.95 1049.5,-1105.54 1099,-1079 1108.76,-1073.77 1119.55,-1069.34 1130.35,-1065.63"/>
<polygon fill="midnightblue" stroke="midnightblue" points="970.174,-1176.61 965.7,-1186.21 975.187,-1181.5 970.174,-1176.61"/>
</g>
<!-- Node207&#45;&gt;Node201 -->
<g id="edge34" class="edge"><title>Node207&#45;&gt;Node201</title>
<path fill="none" stroke="midnightblue" d="M1035.56,-1205.87C1126.24,-1203.39 1259.74,-1195.68 1305,-1172 1368.66,-1138.7 1415.49,-1063.39 1435.41,-1026.77"/>
<polygon fill="midnightblue" stroke="midnightblue" points="1035.45,-1202.37 1025.55,-1206.13 1035.63,-1209.37 1035.45,-1202.37"/>
</g>
<!-- Node207&#45;&gt;Node202 -->
<g id="edge33" class="edge"><title>Node207&#45;&gt;Node202</title>
<path fill="none" stroke="midnightblue" d="M1009.26,-1182.83C1051.78,-1166.46 1107.35,-1145.06 1147.72,-1129.52"/>
<polygon fill="midnightblue" stroke="midnightblue" points="1007.93,-1179.6 999.852,-1186.46 1010.44,-1186.13 1007.93,-1179.6"/>
</g>
<!-- Node207&#45;&gt;Node203 -->
<g id="edge35" class="edge"><title>Node207&#45;&gt;Node203</title>
<path fill="none" stroke="midnightblue" d="M983.707,-1179.88C1008.68,-1160.2 1040.92,-1131.72 1063,-1101 1086.23,-1068.68 1076.86,-1052.07 1099,-1019 1121.16,-985.893 1154.19,-953.773 1176.61,-933.732"/>
<polygon fill="midnightblue" stroke="midnightblue" points="981.301,-1177.32 975.542,-1186.21 985.59,-1182.85 981.301,-1177.32"/>
</g>
<!-- Node207&#45;&gt;Node208 -->
<g id="edge29" class="edge"><title>Node207&#45;&gt;Node208</title>
<path fill="none" stroke="midnightblue" d="M972.129,-1235.18C996.342,-1262.2 1033.28,-1304.46 1063,-1343 1080.17,-1365.26 1076.22,-1378.54 1099,-1395 1103.94,-1398.57 1109.3,-1401.71 1114.89,-1404.49"/>
<polygon fill="midnightblue" stroke="midnightblue" points="974.639,-1232.74 965.35,-1227.64 969.435,-1237.42 974.639,-1232.74"/>
</g>
<!-- Node208&#45;&gt;Node190 -->
<g id="edge30" class="edge"><title>Node208&#45;&gt;Node190</title>
<path fill="none" stroke="midnightblue" d="M1315.52,-1425C1323.89,-1425 1332.32,-1425 1340.65,-1425"/>
<polygon fill="midnightblue" stroke="midnightblue" points="1315.35,-1421.5 1305.35,-1425 1315.35,-1428.5 1315.35,-1421.5"/>
</g>
<!-- Node209&#45;&gt;Node210 -->
<g id="edge37" class="edge"><title>Node209&#45;&gt;Node210</title>
<path fill="none" stroke="midnightblue" d="M568.427,-1185C582.606,-1185 597.252,-1185 611.315,-1185"/>
<polygon fill="midnightblue" stroke="midnightblue" points="568.199,-1181.5 558.199,-1185 568.199,-1188.5 568.199,-1181.5"/>
</g>
<!-- Node210&#45;&gt;Node201 -->
<g id="edge38" class="edge"><title>Node210&#45;&gt;Node201</title>
<path fill="none" stroke="midnightblue" d="M788.774,-1178.79C956.351,-1167.46 1293.36,-1144.14 1305,-1139 1361.03,-1114.26 1408.66,-1057.48 1431.51,-1026.71"/>
<polygon fill="midnightblue" stroke="midnightblue" points="788.462,-1175.3 778.721,-1179.47 788.934,-1182.29 788.462,-1175.3"/>
</g>
<!-- Node211&#45;&gt;Node198 -->
<g id="edge41" class="edge"><title>Node211&#45;&gt;Node198</title>
<path fill="none" stroke="midnightblue" d="M567.652,-289.754C751.066,-284 1172.55,-277 1305,-328 1357.54,-348.231 1404.83,-396.417 1429.02,-424.231"/>
<polygon fill="midnightblue" stroke="midnightblue" points="567.392,-286.26 557.509,-290.079 567.615,-293.257 567.392,-286.26"/>
</g>
<!-- Node211&#45;&gt;Node212 -->
<g id="edge42" class="edge"><title>Node211&#45;&gt;Node212</title>
<path fill="none" stroke="midnightblue" d="M521.958,-319.151C562.676,-345.15 624.309,-384.502 661.695,-408.373"/>
<polygon fill="midnightblue" stroke="midnightblue" points="523.662,-316.087 513.35,-313.655 519.895,-321.987 523.662,-316.087"/>
</g>
<!-- Node212&#45;&gt;Node213 -->
<g id="edge43" class="edge"><title>Node212&#45;&gt;Node213</title>
<path fill="none" stroke="midnightblue" d="M800.796,-439.543C818.137,-441.287 835.997,-443.084 852.978,-444.793"/>
<polygon fill="midnightblue" stroke="midnightblue" points="800.956,-436.041 790.656,-438.523 800.255,-443.006 800.956,-436.041"/>
</g>
<!-- Node214&#45;&gt;Node191 -->
<g id="edge49" class="edge"><title>Node214&#45;&gt;Node191</title>
<path fill="none" stroke="midnightblue" d="M336.594,-794.547C356.495,-791.103 377.983,-787.91 398,-786 662.242,-760.79 977.55,-765.332 1121.84,-769.318"/>
<polygon fill="midnightblue" stroke="midnightblue" points="335.893,-791.117 326.658,-796.309 337.116,-798.009 335.893,-791.117"/>
</g>
<!-- Node214&#45;&gt;Node207 -->
<g id="edge48" class="edge"><title>Node214&#45;&gt;Node207</title>
<path fill="none" stroke="midnightblue" d="M336.883,-793.012C404.343,-782.819 501.18,-780.638 562,-834 619.727,-884.648 553.111,-940.689 598,-1003 608.367,-1017.39 820.688,-1137.52 907.748,-1186.42"/>
<polygon fill="midnightblue" stroke="midnightblue" points="336.055,-789.6 326.735,-794.639 337.163,-796.512 336.055,-789.6"/>
</g>
<!-- Node214&#45;&gt;Node208 -->
<g id="edge50" class="edge"><title>Node214&#45;&gt;Node208</title>
<path fill="none" stroke="midnightblue" d="M336.715,-819.841C420.761,-831.397 546.264,-851.019 562,-867 627.825,-933.851 539.334,-1001.79 598,-1075 656.32,-1147.78 725.311,-1089.8 792,-1155 820.46,-1182.82 801.507,-1207.3 828,-1237 920.801,-1341.05 970.966,-1339.82 1099,-1395 1106.88,-1398.4 1115.27,-1401.55 1123.71,-1404.44"/>
<polygon fill="midnightblue" stroke="midnightblue" points="337.063,-816.356 326.682,-818.472 336.117,-823.291 337.063,-816.356"/>
</g>
<!-- Node214&#45;&gt;Node215 -->
<g id="edge46" class="edge"><title>Node214&#45;&gt;Node215</title>
<path fill="none" stroke="midnightblue" d="M328.121,-785.93C339.472,-781.724 351.1,-777.312 362,-773 375.351,-767.718 405.314,-754.907 431.574,-743.576"/>
<polygon fill="midnightblue" stroke="midnightblue" points="326.85,-782.669 318.674,-789.408 329.268,-789.238 326.85,-782.669"/>
</g>
<!-- Node214&#45;&gt;Node216 -->
<g id="edge51" class="edge"><title>Node214&#45;&gt;Node216</title>
<path fill="none" stroke="midnightblue" d="M321.641,-834.344C354.969,-847.615 395.763,-863.857 427.463,-876.479"/>
<polygon fill="midnightblue" stroke="midnightblue" points="322.59,-830.955 312.005,-830.508 320.001,-837.459 322.59,-830.955"/>
</g>
<!-- Node214&#45;&gt;Node217 -->
<g id="edge54" class="edge"><title>Node214&#45;&gt;Node217</title>
<path fill="none" stroke="midnightblue" d="M291.215,-782.08C313.705,-760.115 343.423,-727.684 362,-694 389.096,-644.869 367.214,-619.907 398,-573 410.392,-554.119 429.575,-537.684 446.162,-525.703"/>
<polygon fill="midnightblue" stroke="midnightblue" points="288.679,-779.662 283.892,-789.114 293.529,-784.711 288.679,-779.662"/>
</g>
<!-- Node215&#45;&gt;Node191 -->
<g id="edge47" class="edge"><title>Node215&#45;&gt;Node191</title>
<path fill="none" stroke="midnightblue" d="M556.174,-726.533C667.135,-731.972 881.26,-743.323 1063,-758 1082.08,-759.541 1102.62,-761.475 1121.87,-763.41"/>
<polygon fill="midnightblue" stroke="midnightblue" points="556.246,-723.033 546.088,-726.041 555.905,-730.024 556.246,-723.033"/>
</g>
<!-- Node216&#45;&gt;Node210 -->
<g id="edge52" class="edge"><title>Node216&#45;&gt;Node210</title>
<path fill="none" stroke="midnightblue" d="M487.107,-927.602C499.155,-980.249 530.855,-1088.24 598,-1150 604.137,-1155.64 611.256,-1160.4 618.79,-1164.39"/>
<polygon fill="midnightblue" stroke="midnightblue" points="490.461,-926.555 484.892,-917.542 483.624,-928.061 490.461,-926.555"/>
</g>
<!-- Node216&#45;&gt;Node212 -->
<g id="edge53" class="edge"><title>Node216&#45;&gt;Node212</title>
<path fill="none" stroke="midnightblue" d="M501.548,-867.614C520.217,-839.486 547.055,-795.209 562,-753 593.899,-662.909 557.429,-627.532 598,-541 615.177,-504.363 647.72,-470.287 670.118,-449.566"/>
<polygon fill="midnightblue" stroke="midnightblue" points="498.479,-865.906 495.799,-876.156 504.287,-869.814 498.479,-865.906"/>
</g>
<!-- Node217&#45;&gt;Node218 -->
<g id="edge55" class="edge"><title>Node217&#45;&gt;Node218</title>
<path fill="none" stroke="midnightblue" d="M505.345,-476.426C548.734,-425.5 638.435,-320.217 676.407,-275.65"/>
<polygon fill="midnightblue" stroke="midnightblue" points="502.615,-474.233 498.794,-484.115 507.943,-478.773 502.615,-474.233"/>
</g>
<!-- Node218&#45;&gt;Node219 -->
<g id="edge56" class="edge"><title>Node218&#45;&gt;Node219</title>
<path fill="none" stroke="midnightblue" d="M796.05,-247.35C806.551,-246.547 817.292,-245.726 827.957,-244.911"/>
<polygon fill="midnightblue" stroke="midnightblue" points="795.77,-243.861 786.066,-248.114 796.303,-250.841 795.77,-243.861"/>
</g>
<!-- Node220&#45;&gt;Node217 -->
<g id="edge61" class="edge"><title>Node220&#45;&gt;Node217</title>
<path fill="none" stroke="midnightblue" d="M334.137,-537.487C354.535,-532.912 376.794,-527.92 397.607,-523.253"/>
<polygon fill="midnightblue" stroke="midnightblue" points="333.278,-534.092 324.287,-539.695 334.81,-540.922 333.278,-534.092"/>
</g>
<!-- Node221 -->
<g id="node34" class="node"><title>Node221</title>
<g id="a_node34"><a xlink:href="classSeeSawN_1_1ApplicationN_1_1InterfaceGeometryEstimatorC.html#af08aa9e88b51acdfe94f0e2cfdf3223e" target="_top" xlink:title="Makes a parameter object from a property tree. ">
<polygon fill="white" stroke="black" points="623.5,-550.5 623.5,-591.5 766.5,-591.5 766.5,-550.5 623.5,-550.5"/>
<text text-anchor="start" x="631.5" y="-579.5" font-family="FreeSans" font-size="10.00">SeeSawN::ApplicationN</text>
<text text-anchor="start" x="631.5" y="-568.5" font-family="FreeSans" font-size="10.00">::InterfaceGeometryEstimator</text>
<text text-anchor="middle" x="695" y="-557.5" font-family="FreeSans" font-size="10.00">C::MakeParameterObject</text>
</a>
</g>
</g>
<!-- Node220&#45;&gt;Node221 -->
<g id="edge58" class="edge"><title>Node220&#45;&gt;Node221</title>
<path fill="none" stroke="midnightblue" d="M334.565,-556.905C415.381,-560.074 543.818,-565.111 623.288,-568.227"/>
<polygon fill="midnightblue" stroke="midnightblue" points="334.594,-553.403 324.464,-556.508 334.32,-560.398 334.594,-553.403"/>
</g>
<!-- Node221&#45;&gt;Node198 -->
<g id="edge60" class="edge"><title>Node221&#45;&gt;Node198</title>
<path fill="none" stroke="midnightblue" d="M776.736,-557.436C928.426,-531.953 1252.73,-477.47 1386.46,-455.003"/>
<polygon fill="midnightblue" stroke="midnightblue" points="775.84,-554.038 766.558,-559.146 777,-560.941 775.84,-554.038"/>
</g>
<!-- Node221&#45;&gt;Node207 -->
<g id="edge59" class="edge"><title>Node221&#45;&gt;Node207</title>
<path fill="none" stroke="midnightblue" d="M771.424,-596.973C779.415,-602.465 786.586,-609.071 792,-617 852.818,-706.07 780.758,-1004.04 828,-1101 845.967,-1137.87 882.876,-1167.93 910.361,-1186.49"/>
<polygon fill="midnightblue" stroke="midnightblue" points="773.181,-593.944 762.839,-591.643 769.489,-599.891 773.181,-593.944"/>
</g>
<!-- Node222&#45;&gt;Node223 -->
<g id="edge66" class="edge"><title>Node222&#45;&gt;Node223</title>
<path fill="none" stroke="midnightblue" d="M360.121,-663.544C373.419,-663.483 386.908,-663.421 399.793,-663.363"/>
<polygon fill="midnightblue" stroke="midnightblue" points="359.987,-660.045 350.003,-663.59 360.019,-667.044 359.987,-660.045"/>
</g>
<!-- Node222&#45;&gt;Node225 -->
<g id="edge69" class="edge"><title>Node222&#45;&gt;Node225</title>
<path fill="none" stroke="midnightblue" d="M294.162,-691.728C317.589,-713.168 347.183,-745.022 362,-780 437.67,-958.628 341.138,-1029.53 398,-1215 412.545,-1262.44 444.423,-1311.53 463.564,-1338.37"/>
<polygon fill="midnightblue" stroke="midnightblue" points="296.273,-688.92 286.484,-684.867 291.609,-694.14 296.273,-688.92"/>
</g>
<!-- Node222&#45;&gt;Node226 -->
<g id="edge71" class="edge"><title>Node222&#45;&gt;Node226</title>
<path fill="none" stroke="midnightblue" d="M343.965,-640.699C364.149,-635.064 385.579,-629.081 405.279,-623.581"/>
<polygon fill="midnightblue" stroke="midnightblue" points="342.86,-637.373 334.17,-643.433 344.742,-644.115 342.86,-637.373"/>
</g>
<!-- Node223&#45;&gt;Node201 -->
<g id="edge68" class="edge"><title>Node223&#45;&gt;Node201</title>
<path fill="none" stroke="midnightblue" d="M570.363,-673.949C579.692,-675.015 589.036,-676.052 598,-677 911.797,-710.193 1042.09,-567.501 1305,-742 1393.53,-800.762 1430.6,-934.108 1441.93,-985.381"/>
<polygon fill="midnightblue" stroke="midnightblue" points="570.602,-670.453 560.266,-672.783 569.799,-677.407 570.602,-670.453"/>
</g>
<!-- Node224 -->
<g id="node37" class="node"><title>Node224</title>
<g id="a_node37"><a xlink:href="classSeeSawN_1_1AppIntrinsicsEstimatorN_1_1AppIntrinsicsEstimatorImplementationC.html#a8e6e0ea9c19653971be04660d607aa19" target="_top" xlink:title="Sets and validates the application parameters. ">
<polygon fill="white" stroke="black" points="598,-626.5 598,-667.5 792,-667.5 792,-626.5 598,-626.5"/>
<text text-anchor="start" x="606" y="-655.5" font-family="FreeSans" font-size="10.00">SeeSawN::AppIntrinsicsEstimator</text>
<text text-anchor="start" x="606" y="-644.5" font-family="FreeSans" font-size="10.00">N::AppIntrinsicsEstimatorImplementation</text>
<text text-anchor="middle" x="695" y="-633.5" font-family="FreeSans" font-size="10.00">C::SetParameters</text>
</a>
</g>
</g>
<!-- Node223&#45;&gt;Node224 -->
<g id="edge67" class="edge"><title>Node223&#45;&gt;Node224</title>
<path fill="none" stroke="midnightblue" d="M570.214,-656.298C579.33,-655.614 588.62,-654.916 597.806,-654.226"/>
<polygon fill="midnightblue" stroke="midnightblue" points="569.72,-652.826 560.011,-657.065 570.245,-659.806 569.72,-652.826"/>
</g>
<!-- Node225&#45;&gt;Node208 -->
<g id="edge70" class="edge"><title>Node225&#45;&gt;Node208</title>
<path fill="none" stroke="midnightblue" d="M566.851,-1366.87C700.087,-1379.08 956.117,-1402.55 1098.73,-1415.62"/>
<polygon fill="midnightblue" stroke="midnightblue" points="566.97,-1363.37 556.692,-1365.94 566.331,-1370.34 566.97,-1363.37"/>
</g>
<!-- Node226&#45;&gt;Node221 -->
<g id="edge72" class="edge"><title>Node226&#45;&gt;Node221</title>
<path fill="none" stroke="midnightblue" d="M566.178,-590.203C585.073,-587.365 604.901,-584.386 623.15,-581.644"/>
<polygon fill="midnightblue" stroke="midnightblue" points="565.465,-586.771 556.096,-591.718 566.505,-593.693 565.465,-586.771"/>
</g>
</g>
</svg>
