<?xml version="1.0" encoding="UTF-8" standalone="no"?>
<!DOCTYPE svg PUBLIC "-//W3C//DTD SVG 1.1//EN"
 "http://www.w3.org/Graphics/SVG/1.1/DTD/svg11.dtd">
<!-- Generated by graphviz version 2.38.0 (20140413.2041)
 -->
<!-- Title: SeeSawN::GeometryN::MakeRANSACSimilarity3DProblem Pages: 1 -->
<svg width="850pt" height="170pt"
 viewBox="0.00 0.00 850.00 170.00" xmlns="http://www.w3.org/2000/svg" xmlns:xlink="http://www.w3.org/1999/xlink">
<g id="graph0" class="graph" transform="scale(1 1) rotate(0) translate(4 166)">
<title>SeeSawN::GeometryN::MakeRANSACSimilarity3DProblem</title>
<polygon fill="white" stroke="none" points="-4,4 -4,-166 846,-166 846,4 -4,4"/>
<!-- Node11 -->
<g id="node1" class="node"><title>Node11</title>
<polygon fill="#bfbfbf" stroke="black" points="0,-66 0,-96 174,-96 174,-66 0,-66"/>
<text text-anchor="start" x="8" y="-84" font-family="FreeSans" font-size="10.00">SeeSawN::GeometryN</text>
<text text-anchor="middle" x="87" y="-73" font-family="FreeSans" font-size="10.00">::MakeRANSACSimilarity3DProblem</text>
</g>
<!-- Node12 -->
<g id="node2" class="node"><title>Node12</title>
<g id="a_node2"><a xlink:href="classSeeSawN_1_1AppGeometryEstimator33N_1_1GeometryEstimator33ImplementationC.html#a4095312d37b399bbf76e5e5ae4d1d856" target="_top" xlink:title="Runs the 3D similarity transformation estimation pipeline. ">
<polygon fill="white" stroke="black" points="210,-120.5 210,-161.5 399,-161.5 399,-120.5 210,-120.5"/>
<text text-anchor="start" x="218" y="-149.5" font-family="FreeSans" font-size="10.00">SeeSawN::AppGeometryEstimator33</text>
<text text-anchor="start" x="218" y="-138.5" font-family="FreeSans" font-size="10.00">N::GeometryEstimator33Implementation</text>
<text text-anchor="middle" x="304.5" y="-127.5" font-family="FreeSans" font-size="10.00">C::ComputeSimilarity3D</text>
</a>
</g>
</g>
<!-- Node11&#45;&gt;Node12 -->
<g id="edge1" class="edge"><title>Node11&#45;&gt;Node12</title>
<path fill="none" stroke="midnightblue" d="M151.989,-98.816C176.45,-105.627 204.537,-113.446 229.83,-120.489"/>
<polygon fill="midnightblue" stroke="midnightblue" points="152.674,-95.3736 142.102,-96.0631 150.796,-102.117 152.674,-95.3736"/>
</g>
<!-- Node13 -->
<g id="node3" class="node"><title>Node13</title>
<g id="a_node3"><a xlink:href="classSeeSawN_1_1ZeroN_1_1ZeroReconstructionEvaluationModuleC.html#a7a3f1010e33ba6c5cc83b55f7cd7c5e7" target="_top" xlink:title="Computes the similarity transformation between the models. ">
<polygon fill="white" stroke="black" points="213,-60.5 213,-101.5 396,-101.5 396,-60.5 213,-60.5"/>
<text text-anchor="start" x="221" y="-89.5" font-family="FreeSans" font-size="10.00">SeeSawN::ZeroN::ZeroReconstruction</text>
<text text-anchor="start" x="221" y="-78.5" font-family="FreeSans" font-size="10.00">EvaluationModuleC::ComputeSimilarity</text>
<text text-anchor="middle" x="304.5" y="-67.5" font-family="FreeSans" font-size="10.00">Transformation</text>
</a>
</g>
</g>
<!-- Node11&#45;&gt;Node13 -->
<g id="edge2" class="edge"><title>Node11&#45;&gt;Node13</title>
<path fill="none" stroke="midnightblue" d="M184.359,-81C193.869,-81 203.499,-81 212.948,-81"/>
<polygon fill="midnightblue" stroke="midnightblue" points="184.1,-77.5001 174.1,-81 184.1,-84.5001 184.1,-77.5001"/>
</g>
<!-- Node16 -->
<g id="node6" class="node"><title>Node16</title>
<g id="a_node6"><a xlink:href="classSeeSawN_1_1GeometryN_1_1PoseGraphPipelineC.html#a05f3af9255d9b2eacdddcbbc0dccfa42" target="_top" xlink:title="Similarity matrix estimation. ">
<polygon fill="white" stroke="black" points="247,-0.5 247,-41.5 362,-41.5 362,-0.5 247,-0.5"/>
<text text-anchor="start" x="255" y="-29.5" font-family="FreeSans" font-size="10.00">SeeSawN::GeometryN</text>
<text text-anchor="start" x="255" y="-18.5" font-family="FreeSans" font-size="10.00">::PoseGraphPipelineC</text>
<text text-anchor="middle" x="304.5" y="-7.5" font-family="FreeSans" font-size="10.00">::EstimateGeometry</text>
</a>
</g>
</g>
<!-- Node11&#45;&gt;Node16 -->
<g id="edge5" class="edge"><title>Node11&#45;&gt;Node16</title>
<path fill="none" stroke="midnightblue" d="M152.07,-63.1614C182.133,-54.7913 217.656,-44.9008 246.739,-36.8035"/>
<polygon fill="midnightblue" stroke="midnightblue" points="150.796,-59.8829 142.102,-65.9369 152.674,-66.6264 150.796,-59.8829"/>
</g>
<!-- Node14 -->
<g id="node4" class="node"><title>Node14</title>
<g id="a_node4"><a xlink:href="classSeeSawN_1_1ZeroN_1_1ZeroReconstructionEvaluationModuleC.html#a4349de15b78a95932b4f253130d77b96" target="_top" xlink:title="Evaluates the consistency of reconstructions. ">
<polygon fill="white" stroke="black" points="435,-66 435,-96 630,-96 630,-66 435,-66"/>
<text text-anchor="start" x="443" y="-84" font-family="FreeSans" font-size="10.00">SeeSawN::ZeroN::ZeroReconstruction</text>
<text text-anchor="middle" x="532.5" y="-73" font-family="FreeSans" font-size="10.00">EvaluationModuleC::EvaluateConsistency</text>
</a>
</g>
</g>
<!-- Node13&#45;&gt;Node14 -->
<g id="edge3" class="edge"><title>Node13&#45;&gt;Node14</title>
<path fill="none" stroke="midnightblue" d="M406.369,-81C415.867,-81 425.482,-81 434.939,-81"/>
<polygon fill="midnightblue" stroke="midnightblue" points="406.121,-77.5001 396.121,-81 406.121,-84.5001 406.121,-77.5001"/>
</g>
<!-- Node15 -->
<g id="node5" class="node"><title>Node15</title>
<g id="a_node5"><a xlink:href="classSeeSawN_1_1AppZeroReconstructionEvaluationN_1_1AppZeroReconstructionEvaluationImplementationC.html#a627d6c37454be6dba342f8321dad0e31" target="_top" xlink:title="Runs the application. ">
<polygon fill="white" stroke="black" points="666,-60.5 666,-101.5 842,-101.5 842,-60.5 666,-60.5"/>
<text text-anchor="start" x="674" y="-89.5" font-family="FreeSans" font-size="10.00">SeeSawN::AppZeroReconstruction</text>
<text text-anchor="start" x="674" y="-78.5" font-family="FreeSans" font-size="10.00">EvaluationN::AppZeroReconstruction</text>
<text text-anchor="middle" x="754" y="-67.5" font-family="FreeSans" font-size="10.00">EvaluationImplementationC::Run</text>
</a>
</g>
</g>
<!-- Node14&#45;&gt;Node15 -->
<g id="edge4" class="edge"><title>Node14&#45;&gt;Node15</title>
<path fill="none" stroke="midnightblue" d="M640.128,-81C648.695,-81 657.287,-81 665.695,-81"/>
<polygon fill="midnightblue" stroke="midnightblue" points="640.095,-77.5001 630.095,-81 640.095,-84.5001 640.095,-77.5001"/>
</g>
</g>
</svg>
