<?xml version="1.0" encoding="UTF-8" standalone="no"?>
<!DOCTYPE svg PUBLIC "-//W3C//DTD SVG 1.1//EN"
 "http://www.w3.org/Graphics/SVG/1.1/DTD/svg11.dtd">
<!-- Generated by graphviz version 2.38.0 (20140413.2041)
 -->
<!-- Title: src/SignalProcessing/HistogramMatching.ipp Pages: 1 -->
<!--zoomable 419 -->
<svg id="main" version="1.1" xmlns="http://www.w3.org/2000/svg" xmlns:xlink="http://www.w3.org/1999/xlink" xml:space="preserve" onload="init(evt)">
<style type="text/css"><![CDATA[
.edge:hover path { stroke: red; }
.edge:hover polygon { stroke: red; fill: red; }
]]></style>
<script type="text/javascript"><![CDATA[
var edges = document.getElementsByTagName('g');
if (edges && edges.length) {
  for (var i=0;i<edges.length;i++) {
    if (edges[i].id.substr(0,4)=='edge') {
      edges[i].setAttribute('class','edge');
    }
  }
}
]]></script>
        <defs>
                <circle id="rim" cx="0" cy="0" r="7"/>
                <circle id="rim2" cx="0" cy="0" r="3.5"/>
                <g id="zoomPlus">
                        <use xlink:href="#rim" fill="#404040">
                                <set attributeName="fill" to="#808080" begin="zoomplus.mouseover" end="zoomplus.mouseout"/>
                        </use>
                        <path d="M-4,0h8M0,-4v8" fill="none" stroke="white" stroke-width="1.5" pointer-events="none"/>
                </g>
                <g id="zoomMin">
                        <use xlink:href="#rim" fill="#404040">
                                <set attributeName="fill" to="#808080" begin="zoomminus.mouseover" end="zoomminus.mouseout"/>
                        </use>
                        <path d="M-4,0h8" fill="none" stroke="white" stroke-width="1.5" pointer-events="none"/>
                </g>
                <g id="dirArrow">
                        <path fill="none" stroke="white" stroke-width="1.5" d="M0,-3.0v7 M-2.5,-0.5L0,-3.0L2.5,-0.5"/>
                </g>
               <g id="resetDef">
                       <use xlink:href="#rim2" fill="#404040">
                               <set attributeName="fill" to="#808080" begin="reset.mouseover" end="reset.mouseout"/>
                       </use>
               </g>
        </defs>

<script type="text/javascript">
var viewWidth = 3896;
var viewHeight = 419;
var sectionId = 'dynsection-0';
</script>
<script xlink:href="svgpan.js"/>
<svg id="graph" class="graph">
<g id="viewport">
<title>src/SignalProcessing/HistogramMatching.ipp</title>
<polygon fill="white" stroke="none" points="-4,4 -4,-415 3892,-415 3892,4 -4,4"/>
<!-- Node0 -->
<g id="node1" class="node"><title>Node0</title>
<polygon fill="#bfbfbf" stroke="black" points="2331,-380.5 2331,-410.5 2450,-410.5 2450,-380.5 2331,-380.5"/>
<text text-anchor="start" x="2339" y="-398.5" font-family="FreeSans" font-size="10.00">src/SignalProcessing</text>
<text text-anchor="middle" x="2390.5" y="-387.5" font-family="FreeSans" font-size="10.00">/HistogramMatching.ipp</text>
</g>
<!-- Node1 -->
<g id="node2" class="node"><title>Node1</title>
<polygon fill="white" stroke="#bfbfbf" points="2079.5,-6 2079.5,-25 2207.5,-25 2207.5,-6 2079.5,-6"/>
<text text-anchor="middle" x="2143.5" y="-13" font-family="FreeSans" font-size="10.00">boost/concept_check.hpp</text>
</g>
<!-- Node0&#45;&gt;Node1 -->
<g id="edge1" class="edge"><title>Node0&#45;&gt;Node1</title>
<path fill="none" stroke="midnightblue" d="M2330.99,-394.281C2095.09,-392.64 1238.5,-379.038 1238.5,-268 1238.5,-268 1238.5,-268 1238.5,-210 1238.5,-78.1198 1369.01,-92.0204 1498.5,-67 1748.16,-18.7574 1817.31,-63.517 2069.5,-31 2077.72,-29.9407 2086.39,-28.5193 2094.8,-26.9794"/>
<polygon fill="midnightblue" stroke="midnightblue" points="2095.7,-30.3704 2104.87,-25.0588 2094.39,-23.4943 2095.7,-30.3704"/>
</g>
<!-- Node2 -->
<g id="node3" class="node"><title>Node2</title>
<polygon fill="white" stroke="#bfbfbf" points="3689.5,-6 3689.5,-25 3817.5,-25 3817.5,-6 3689.5,-6"/>
<text text-anchor="middle" x="3753.5" y="-13" font-family="FreeSans" font-size="10.00">boost/range/functions.hpp</text>
</g>
<!-- Node0&#45;&gt;Node2 -->
<g id="edge2" class="edge"><title>Node0&#45;&gt;Node2</title>
<path fill="none" stroke="midnightblue" d="M2450.3,-393.153C2644.7,-388.517 3251.05,-371.955 3334.5,-344 3357.88,-336.169 3359.24,-325.487 3380.5,-313 3411.01,-295.08 3422.11,-296.699 3451.5,-277 3570.62,-197.154 3694.66,-76.0012 3737.7,-32.638"/>
<polygon fill="midnightblue" stroke="midnightblue" points="3740.23,-35.049 3744.77,-25.4739 3735.25,-30.1309 3740.23,-35.049"/>
</g>
<!-- Node3 -->
<g id="node4" class="node"><title>Node3</title>
<polygon fill="white" stroke="#bfbfbf" points="2950.5,-6 2950.5,-25 3100.5,-25 3100.5,-6 2950.5,-6"/>
<text text-anchor="middle" x="3025.5" y="-13" font-family="FreeSans" font-size="10.00">boost/range/metafunctions.hpp</text>
</g>
<!-- Node0&#45;&gt;Node3 -->
<g id="edge3" class="edge"><title>Node0&#45;&gt;Node3</title>
<path fill="none" stroke="midnightblue" d="M2450.1,-394.695C2605.41,-394.543 3019.42,-389.728 3147.5,-344 3195.82,-326.749 3218,-322.606 3241.5,-277 3297.14,-169.011 3121.98,-65.5201 3052.56,-29.7129"/>
<polygon fill="midnightblue" stroke="midnightblue" points="3054,-26.5202 3043.5,-25.1161 3050.84,-32.7625 3054,-26.5202"/>
</g>
<!-- Node4 -->
<g id="node5" class="node"><title>Node4</title>
<polygon fill="white" stroke="#bfbfbf" points="3390,-313.5 3390,-343.5 3497,-343.5 3497,-313.5 3390,-313.5"/>
<text text-anchor="start" x="3398" y="-331.5" font-family="FreeSans" font-size="10.00">boost/range/counting</text>
<text text-anchor="middle" x="3443.5" y="-320.5" font-family="FreeSans" font-size="10.00">_range.hpp</text>
</g>
<!-- Node0&#45;&gt;Node4 -->
<g id="edge4" class="edge"><title>Node0&#45;&gt;Node4</title>
<path fill="none" stroke="midnightblue" d="M2450.2,-394.731C2604.17,-394.617 3027.04,-389.789 3375.5,-344 3376.96,-343.808 3378.43,-343.602 3379.92,-343.383"/>
<polygon fill="midnightblue" stroke="midnightblue" points="3380.51,-346.833 3389.81,-341.771 3379.38,-339.924 3380.51,-346.833"/>
</g>
<!-- Node5 -->
<g id="node6" class="node"><title>Node5</title>
<polygon fill="white" stroke="#bfbfbf" points="3515.5,-319 3515.5,-338 3643.5,-338 3643.5,-319 3515.5,-319"/>
<text text-anchor="middle" x="3579.5" y="-326" font-family="FreeSans" font-size="10.00">boost/range/algorithm.hpp</text>
</g>
<!-- Node0&#45;&gt;Node5 -->
<g id="edge5" class="edge"><title>Node0&#45;&gt;Node5</title>
<path fill="none" stroke="midnightblue" d="M2450.28,-394.9C2617.6,-395.35 3104.6,-392.088 3505.5,-344 3514,-342.98 3522.99,-341.535 3531.66,-339.948"/>
<polygon fill="midnightblue" stroke="midnightblue" points="3532.48,-343.355 3541.65,-338.038 3531.17,-336.48 3532.48,-343.355"/>
</g>
<!-- Node6 -->
<g id="node7" class="node"><title>Node6</title>
<polygon fill="white" stroke="#bfbfbf" points="3662,-319 3662,-338 3757,-338 3757,-319 3662,-319"/>
<text text-anchor="middle" x="3709.5" y="-326" font-family="FreeSans" font-size="10.00">boost/optional.hpp</text>
</g>
<!-- Node0&#45;&gt;Node6 -->
<g id="edge6" class="edge"><title>Node0&#45;&gt;Node6</title>
<path fill="none" stroke="midnightblue" d="M2450.03,-393.768C2667.13,-390.841 3415.99,-378.428 3652.5,-344 3658.46,-343.133 3664.69,-341.897 3670.76,-340.507"/>
<polygon fill="midnightblue" stroke="midnightblue" points="3671.86,-343.841 3680.74,-338.062 3670.19,-337.042 3671.86,-343.841"/>
</g>
<!-- Node7 -->
<g id="node8" class="node"><title>Node7</title>
<polygon fill="white" stroke="#bfbfbf" points="3775,-319 3775,-338 3888,-338 3888,-319 3775,-319"/>
<text text-anchor="middle" x="3831.5" y="-326" font-family="FreeSans" font-size="10.00">boost/lexical_cast.hpp</text>
</g>
<!-- Node0&#45;&gt;Node7 -->
<g id="edge7" class="edge"><title>Node0&#45;&gt;Node7</title>
<path fill="none" stroke="midnightblue" d="M2450.13,-393.735C2679.54,-390.572 3505.28,-377.091 3765.5,-344 3772.86,-343.064 3780.61,-341.705 3788.11,-340.19"/>
<polygon fill="midnightblue" stroke="midnightblue" points="3789.08,-343.563 3798.13,-338.052 3787.62,-336.717 3789.08,-343.563"/>
</g>
<!-- Node8 -->
<g id="node9" class="node"><title>Node8</title>
<polygon fill="white" stroke="#bfbfbf" points="0,-6 0,-25 71,-25 71,-6 0,-6"/>
<text text-anchor="middle" x="35.5" y="-13" font-family="FreeSans" font-size="10.00">Eigen/Dense</text>
</g>
<!-- Node0&#45;&gt;Node8 -->
<g id="edge8" class="edge"><title>Node0&#45;&gt;Node8</title>
<path fill="none" stroke="midnightblue" d="M2330.87,-394.352C1974.3,-393.087 139.5,-381.082 139.5,-268 139.5,-268 139.5,-268 139.5,-148.5 139.5,-96.1891 88.4827,-52.4019 57.9124,-30.8597"/>
<polygon fill="midnightblue" stroke="midnightblue" points="59.7604,-27.8835 49.5259,-25.1437 55.818,-33.6678 59.7604,-27.8835"/>
</g>
<!-- Node9 -->
<g id="node10" class="node"><title>Node9</title>
<polygon fill="white" stroke="#bfbfbf" points="2353.5,-6 2353.5,-25 2409.5,-25 2409.5,-6 2353.5,-6"/>
<text text-anchor="middle" x="2381.5" y="-13" font-family="FreeSans" font-size="10.00">algorithm</text>
</g>
<!-- Node0&#45;&gt;Node9 -->
<g id="edge9" class="edge"><title>Node0&#45;&gt;Node9</title>
<path fill="none" stroke="midnightblue" d="M2334.84,-380.479C2282.3,-363.505 2211.5,-329.266 2211.5,-268 2211.5,-268 2211.5,-268 2211.5,-210 2211.5,-122.833 2327.95,-172.92 2372.5,-98 2383.9,-78.8297 2384.72,-52.5966 2383.63,-35.1269"/>
<polygon fill="midnightblue" stroke="midnightblue" points="2387.11,-34.7256 2382.74,-25.0746 2380.14,-35.3451 2387.11,-34.7256"/>
</g>
<!-- Node10 -->
<g id="node11" class="node"><title>Node10</title>
<polygon fill="white" stroke="#bfbfbf" points="2870.5,-6 2870.5,-25 2932.5,-25 2932.5,-6 2870.5,-6"/>
<text text-anchor="middle" x="2901.5" y="-13" font-family="FreeSans" font-size="10.00">type_traits</text>
</g>
<!-- Node0&#45;&gt;Node10 -->
<g id="edge10" class="edge"><title>Node0&#45;&gt;Node10</title>
<path fill="none" stroke="midnightblue" d="M2450.07,-392.563C2591.02,-387.564 2941.66,-372.576 3055.5,-344 3136.56,-323.653 3227.5,-351.574 3227.5,-268 3227.5,-268 3227.5,-268 3227.5,-210 3227.5,-165.263 3197.38,-160.719 3161.5,-134 3122.93,-105.275 2993.27,-52.519 2932.91,-28.7181"/>
<polygon fill="midnightblue" stroke="midnightblue" points="2934.08,-25.4206 2923.5,-25.0214 2931.52,-31.9358 2934.08,-25.4206"/>
</g>
<!-- Node11 -->
<g id="node12" class="node"><title>Node11</title>
<polygon fill="white" stroke="#bfbfbf" points="2642,-6 2642,-25 2691,-25 2691,-6 2642,-6"/>
<text text-anchor="middle" x="2666.5" y="-13" font-family="FreeSans" font-size="10.00">cstddef</text>
</g>
<!-- Node0&#45;&gt;Node11 -->
<g id="edge11" class="edge"><title>Node0&#45;&gt;Node11</title>
<path fill="none" stroke="midnightblue" d="M2450.23,-391.341C2635.72,-380.741 3189.5,-342.83 3189.5,-268 3189.5,-268 3189.5,-268 3189.5,-210 3189.5,-105.555 2817.98,-39.7138 2701.2,-21.5972"/>
<polygon fill="midnightblue" stroke="midnightblue" points="2701.44,-18.0934 2691.02,-20.0403 2700.38,-25.0128 2701.44,-18.0934"/>
</g>
<!-- Node12 -->
<g id="node13" class="node"><title>Node12</title>
<polygon fill="white" stroke="#bfbfbf" points="2107.5,-140 2107.5,-159 2145.5,-159 2145.5,-140 2107.5,-140"/>
<text text-anchor="middle" x="2126.5" y="-147" font-family="FreeSans" font-size="10.00">tuple</text>
</g>
<!-- Node0&#45;&gt;Node12 -->
<g id="edge12" class="edge"><title>Node0&#45;&gt;Node12</title>
<path fill="none" stroke="midnightblue" d="M2330.98,-393.008C2288.91,-388.909 2233.77,-376.956 2197.5,-344 2145.66,-296.897 2131.58,-208.691 2127.83,-169.782"/>
<polygon fill="midnightblue" stroke="midnightblue" points="2131.28,-169.065 2126.97,-159.389 2124.31,-169.645 2131.28,-169.065"/>
</g>
<!-- Node13 -->
<g id="node14" class="node"><title>Node13</title>
<polygon fill="white" stroke="#bfbfbf" points="2016,-6 2016,-25 2061,-25 2061,-6 2016,-6"/>
<text text-anchor="middle" x="2038.5" y="-13" font-family="FreeSans" font-size="10.00">climits</text>
</g>
<!-- Node0&#45;&gt;Node13 -->
<g id="edge13" class="edge"><title>Node0&#45;&gt;Node13</title>
<path fill="none" stroke="midnightblue" d="M2330.82,-393.37C2116.89,-389.096 1395.89,-372.689 1296.5,-344 1230.72,-325.011 1162.5,-336.468 1162.5,-268 1162.5,-268 1162.5,-268 1162.5,-148.5 1162.5,-66.7086 1248.37,-87.701 1327.5,-67 1619.86,9.48583 1712.9,-102.602 2006.5,-31 2008.71,-30.4599 2010.96,-29.7684 2013.19,-28.9813"/>
<polygon fill="midnightblue" stroke="midnightblue" points="2014.73,-32.1351 2022.64,-25.091 2012.06,-25.6624 2014.73,-32.1351"/>
</g>
<!-- Node14 -->
<g id="node15" class="node"><title>Node14</title>
<polygon fill="white" stroke="#bfbfbf" points="2291.5,-6 2291.5,-25 2335.5,-25 2335.5,-6 2291.5,-6"/>
<text text-anchor="middle" x="2313.5" y="-13" font-family="FreeSans" font-size="10.00">cmath</text>
</g>
<!-- Node0&#45;&gt;Node14 -->
<g id="edge14" class="edge"><title>Node0&#45;&gt;Node14</title>
<path fill="none" stroke="midnightblue" d="M2330.96,-393.287C2188.84,-388.781 1841.5,-367.583 1841.5,-268 1841.5,-268 1841.5,-268 1841.5,-210 1841.5,-167.778 1863.53,-157.666 1898.5,-134 2044.48,-35.1983 2115.56,-90.4617 2281.5,-31 2283.16,-30.4059 2284.85,-29.7613 2286.54,-29.0853"/>
<polygon fill="midnightblue" stroke="midnightblue" points="2288.29,-32.1476 2296.11,-25.0005 2285.54,-25.7104 2288.29,-32.1476"/>
</g>
<!-- Node15 -->
<g id="node16" class="node"><title>Node15</title>
<polygon fill="white" stroke="#bfbfbf" points="1880,-6 1880,-25 1921,-25 1921,-6 1880,-6"/>
<text text-anchor="middle" x="1900.5" y="-13" font-family="FreeSans" font-size="10.00">string</text>
</g>
<!-- Node0&#45;&gt;Node15 -->
<g id="edge15" class="edge"><title>Node0&#45;&gt;Node15</title>
<path fill="none" stroke="midnightblue" d="M2330.65,-393.636C2087.86,-389.934 1186.79,-374.207 1134.5,-344 1099.91,-324.017 1086.5,-307.951 1086.5,-268 1086.5,-268 1086.5,-268 1086.5,-148.5 1086.5,-106.004 1099.94,-88.6572 1136.5,-67 1206.75,-25.3866 1791.38,-51.1711 1870.5,-31 1872.43,-30.507 1874.39,-29.8835 1876.33,-29.1737"/>
<polygon fill="midnightblue" stroke="midnightblue" points="1877.91,-32.3036 1885.69,-25.1093 1875.12,-25.8832 1877.91,-32.3036"/>
</g>
<!-- Node16 -->
<g id="node17" class="node"><title>Node16</title>
<polygon fill="white" stroke="#bfbfbf" points="1939,-6 1939,-25 1998,-25 1998,-6 1939,-6"/>
<text text-anchor="middle" x="1968.5" y="-13" font-family="FreeSans" font-size="10.00">stdexcept</text>
</g>
<!-- Node0&#45;&gt;Node16 -->
<g id="edge16" class="edge"><title>Node0&#45;&gt;Node16</title>
<path fill="none" stroke="midnightblue" d="M2330.85,-393.454C2094.05,-389.118 1230.65,-371.481 1179.5,-344 1142.77,-324.266 1124.5,-309.695 1124.5,-268 1124.5,-268 1124.5,-268 1124.5,-148.5 1124.5,-104.042 1143.49,-88.3232 1182.5,-67 1255.42,-27.1453 1848.09,-47.6761 1929.5,-31 1932.76,-30.3331 1936.1,-29.4378 1939.4,-28.4175"/>
<polygon fill="midnightblue" stroke="midnightblue" points="1940.7,-31.6686 1949.01,-25.0859 1938.41,-25.0548 1940.7,-31.6686"/>
</g>
<!-- Node17 -->
<g id="node18" class="node"><title>Node17</title>
<polygon fill="white" stroke="#bfbfbf" points="2054,-140 2054,-159 2089,-159 2089,-140 2054,-140"/>
<text text-anchor="middle" x="2071.5" y="-147" font-family="FreeSans" font-size="10.00">map</text>
</g>
<!-- Node0&#45;&gt;Node17 -->
<g id="edge17" class="edge"><title>Node0&#45;&gt;Node17</title>
<path fill="none" stroke="midnightblue" d="M2330.86,-394.452C2282.45,-391.482 2214.85,-380.336 2168.5,-344 2110.09,-298.209 2084.07,-207.9 2075.23,-169.02"/>
<polygon fill="midnightblue" stroke="midnightblue" points="2078.62,-168.143 2073.1,-159.101 2071.78,-169.613 2078.62,-168.143"/>
</g>
<!-- Node18 -->
<g id="node19" class="node"><title>Node18</title>
<g id="a_node19"><a xlink:href="Correspondence_8h.html" target="_top" xlink:title="../Elements/Correspondence.h">
<polygon fill="white" stroke="black" points="2317.5,-319 2317.5,-338 2463.5,-338 2463.5,-319 2317.5,-319"/>
<text text-anchor="middle" x="2390.5" y="-326" font-family="FreeSans" font-size="10.00">../Elements/Correspondence.h</text>
</a>
</g>
</g>
<!-- Node0&#45;&gt;Node18 -->
<g id="edge18" class="edge"><title>Node0&#45;&gt;Node18</title>
<path fill="none" stroke="midnightblue" d="M2390.5,-380.396C2390.5,-371.064 2390.5,-358.714 2390.5,-348.517"/>
<polygon fill="midnightblue" stroke="midnightblue" points="2394,-348.195 2390.5,-338.195 2387,-348.195 2394,-348.195"/>
</g>
<!-- Node61 -->
<g id="node62" class="node"><title>Node61</title>
<g id="a_node62"><a xlink:href="BoostRange_8h.html" target="_top" xlink:title="../Wrappers/BoostRange.h">
<polygon fill="white" stroke="black" points="3314,-257.5 3314,-276.5 3443,-276.5 3443,-257.5 3314,-257.5"/>
<text text-anchor="middle" x="3378.5" y="-264.5" font-family="FreeSans" font-size="10.00">../Wrappers/BoostRange.h</text>
</a>
</g>
</g>
<!-- Node0&#45;&gt;Node61 -->
<g id="edge108" class="edge"><title>Node0&#45;&gt;Node61</title>
<path fill="none" stroke="midnightblue" d="M2450.28,-393.583C2640.22,-390.339 3222.06,-377.727 3299.5,-344 3328.46,-331.388 3353.07,-303.187 3366.8,-284.911"/>
<polygon fill="midnightblue" stroke="midnightblue" points="3369.77,-286.774 3372.8,-276.62 3364.1,-282.671 3369.77,-286.774"/>
</g>
<!-- Node19 -->
<g id="node20" class="node"><title>Node19</title>
<g id="a_node20"><a xlink:href="Correspondence_8ipp.html" target="_top" xlink:title="Correspondence.ipp">
<polygon fill="white" stroke="black" points="2418.5,-201.5 2418.5,-220.5 2520.5,-220.5 2520.5,-201.5 2418.5,-201.5"/>
<text text-anchor="middle" x="2469.5" y="-208.5" font-family="FreeSans" font-size="10.00">Correspondence.ipp</text>
</a>
</g>
</g>
<!-- Node18&#45;&gt;Node19 -->
<g id="edge19" class="edge"><title>Node18&#45;&gt;Node19</title>
<path fill="none" stroke="midnightblue" d="M2396.44,-318.819C2409.42,-299.839 2440.53,-254.348 2457.68,-229.288"/>
<polygon fill="midnightblue" stroke="midnightblue" points="2460.74,-231.012 2463.49,-220.782 2454.96,-227.06 2460.74,-231.012"/>
</g>
<!-- Node31 -->
<g id="node32" class="node"><title>Node31</title>
<polygon fill="white" stroke="#bfbfbf" points="3191,-0.5 3191,-30.5 3292,-30.5 3292,-0.5 3191,-0.5"/>
<text text-anchor="start" x="3199" y="-18.5" font-family="FreeSans" font-size="10.00">boost/range/iterator</text>
<text text-anchor="middle" x="3241.5" y="-7.5" font-family="FreeSans" font-size="10.00">_range.hpp</text>
</g>
<!-- Node18&#45;&gt;Node31 -->
<g id="edge42" class="edge"><title>Node18&#45;&gt;Node31</title>
<path fill="none" stroke="midnightblue" d="M2463.69,-324.127C2597.52,-315.156 2887.19,-282.57 3096.5,-165 3153.36,-133.063 3202.29,-72.0616 3226.09,-39.0536"/>
<polygon fill="midnightblue" stroke="midnightblue" points="3229.2,-40.7176 3232.12,-30.5333 3223.49,-36.6733 3229.2,-40.7176"/>
</g>
<!-- Node32 -->
<g id="node33" class="node"><title>Node32</title>
<g id="a_node33"><a xlink:href="Coordinate_8h.html" target="_top" xlink:title="Coordinate.h">
<polygon fill="white" stroke="black" points="1908,-140 1908,-159 1979,-159 1979,-140 1908,-140"/>
<text text-anchor="middle" x="1943.5" y="-147" font-family="FreeSans" font-size="10.00">Coordinate.h</text>
</a>
</g>
</g>
<!-- Node18&#45;&gt;Node32 -->
<g id="edge43" class="edge"><title>Node18&#45;&gt;Node32</title>
<path fill="none" stroke="midnightblue" d="M2368.94,-318.963C2296.22,-290.167 2059.76,-196.534 1974.5,-162.775"/>
<polygon fill="midnightblue" stroke="midnightblue" points="1975.69,-159.482 1965.1,-159.055 1973.11,-165.991 1975.69,-159.482"/>
</g>
<!-- Node35 -->
<g id="node36" class="node"><title>Node35</title>
<g id="a_node36"><a xlink:href="Feature_8h.html" target="_top" xlink:title="Feature.h">
<polygon fill="white" stroke="black" points="1922,-257.5 1922,-276.5 1979,-276.5 1979,-257.5 1922,-257.5"/>
<text text-anchor="middle" x="1950.5" y="-264.5" font-family="FreeSans" font-size="10.00">Feature.h</text>
</a>
</g>
</g>
<!-- Node18&#45;&gt;Node35 -->
<g id="edge58" class="edge"><title>Node18&#45;&gt;Node35</title>
<path fill="none" stroke="midnightblue" d="M2327.46,-318.975C2234.98,-306.469 2065.28,-283.521 1989.19,-273.233"/>
<polygon fill="midnightblue" stroke="midnightblue" points="1989.48,-269.739 1979.1,-271.867 1988.54,-276.676 1989.48,-269.739"/>
</g>
<!-- Node19&#45;&gt;Node1 -->
<g id="edge22" class="edge"><title>Node19&#45;&gt;Node1</title>
<path fill="none" stroke="midnightblue" d="M2418.22,-201.757C2385.65,-195.062 2343.4,-183.605 2309.5,-165 2275.76,-146.483 2194.14,-66.9885 2159.49,-32.5319"/>
<polygon fill="midnightblue" stroke="midnightblue" points="2161.66,-29.7541 2152.11,-25.1679 2156.71,-34.7091 2161.66,-29.7541"/>
</g>
<!-- Node19&#45;&gt;Node2 -->
<g id="edge25" class="edge"><title>Node19&#45;&gt;Node2</title>
<path fill="none" stroke="midnightblue" d="M2520.53,-208.572C2627.67,-205.083 2883.77,-194.17 3096.5,-165 3244.34,-144.728 3288.49,-157.117 3425.5,-98 3447.46,-88.5231 3447.39,-76.134 3469.5,-67 3557.02,-30.8428 3586.36,-48.1056 3679.5,-31 3686.33,-29.7448 3693.52,-28.3867 3700.61,-27.0225"/>
<polygon fill="midnightblue" stroke="midnightblue" points="3701.73,-30.3701 3710.88,-25.0304 3700.4,-23.4981 3701.73,-30.3701"/>
</g>
<!-- Node19&#45;&gt;Node3 -->
<g id="edge24" class="edge"><title>Node19&#45;&gt;Node3</title>
<path fill="none" stroke="midnightblue" d="M2520.73,-210.089C2660.09,-209.799 3038.11,-205.274 3075.5,-165 3110.88,-126.897 3065.56,-62.9121 3040.32,-32.9324"/>
<polygon fill="midnightblue" stroke="midnightblue" points="3042.73,-30.3657 3033.53,-25.106 3037.44,-34.9531 3042.73,-30.3657"/>
</g>
<!-- Node19&#45;&gt;Node8 -->
<g id="edge26" class="edge"><title>Node19&#45;&gt;Node8</title>
<path fill="none" stroke="midnightblue" d="M2418.42,-210.701C2359.77,-209.559 2262.05,-201.584 2187.5,-165 2169.43,-156.135 2173.11,-141.648 2154.5,-134 2082.28,-104.323 827.428,-102.894 749.5,-98 674.942,-93.3178 153.629,-46.2636 80.5,-31 76.6332,-30.1929 72.6299,-29.1769 68.6782,-28.0589"/>
<polygon fill="midnightblue" stroke="midnightblue" points="69.6542,-24.6975 59.0682,-25.1311 67.6141,-31.3936 69.6542,-24.6975"/>
</g>
<!-- Node19&#45;&gt;Node10 -->
<g id="edge35" class="edge"><title>Node19&#45;&gt;Node10</title>
<path fill="none" stroke="midnightblue" d="M2520.76,-209.948C2656.88,-209.279 3019.53,-203.834 3055.5,-165 3104.53,-112.064 2990.47,-53.9565 2932.6,-29.0083"/>
<polygon fill="midnightblue" stroke="midnightblue" points="2933.74,-25.6894 2923.17,-25.0189 2931.02,-32.1368 2933.74,-25.6894"/>
</g>
<!-- Node19&#45;&gt;Node11 -->
<g id="edge31" class="edge"><title>Node19&#45;&gt;Node11</title>
<path fill="none" stroke="midnightblue" d="M2520.57,-203.42C2566.72,-196.379 2629.89,-183.642 2646.5,-165 2678.87,-128.674 2674.62,-66.1633 2669.98,-35.1178"/>
<polygon fill="midnightblue" stroke="midnightblue" points="2673.42,-34.4944 2668.32,-25.2103 2666.52,-35.6513 2673.42,-34.4944"/>
</g>
<!-- Node19&#45;&gt;Node12 -->
<g id="edge32" class="edge"><title>Node19&#45;&gt;Node12</title>
<path fill="none" stroke="midnightblue" d="M2418.42,-206.82C2356.23,-201.989 2248.51,-190.505 2159.5,-165 2157.35,-164.384 2155.16,-163.657 2152.97,-162.862"/>
<polygon fill="midnightblue" stroke="midnightblue" points="2154.23,-159.593 2143.64,-159.078 2151.59,-166.08 2154.23,-159.593"/>
</g>
<!-- Node19&#45;&gt;Node14 -->
<g id="edge27" class="edge"><title>Node19&#45;&gt;Node14</title>
<path fill="none" stroke="midnightblue" d="M2504.51,-201.445C2523.43,-194.844 2545.18,-183.594 2556.5,-165 2563.66,-153.231 2565.6,-144.345 2556.5,-134 2473.63,-39.793 2359.37,-192.207 2276.5,-98 2259.41,-78.5737 2280.2,-49.9416 2296.83,-32.296"/>
<polygon fill="midnightblue" stroke="midnightblue" points="2299.47,-34.6012 2304.02,-25.0341 2294.5,-29.6744 2299.47,-34.6012"/>
</g>
<!-- Node19&#45;&gt;Node17 -->
<g id="edge30" class="edge"><title>Node19&#45;&gt;Node17</title>
<path fill="none" stroke="midnightblue" d="M2418.44,-209.74C2345.72,-208.054 2208.91,-199.974 2098.5,-165 2097.07,-164.548 2095.63,-164.02 2094.2,-163.439"/>
<polygon fill="midnightblue" stroke="midnightblue" points="2095.61,-160.231 2085.08,-159.06 2092.58,-166.542 2095.61,-160.231"/>
</g>
<!-- Node20 -->
<g id="node21" class="node"><title>Node20</title>
<polygon fill="white" stroke="#bfbfbf" points="2718,-140 2718,-159 2835,-159 2835,-140 2718,-140"/>
<text text-anchor="middle" x="2776.5" y="-147" font-family="FreeSans" font-size="10.00">boost/bimap/bimap.hpp</text>
</g>
<!-- Node19&#45;&gt;Node20 -->
<g id="edge20" class="edge"><title>Node19&#45;&gt;Node20</title>
<path fill="none" stroke="midnightblue" d="M2514.38,-201.454C2561.49,-192.462 2637.73,-177.857 2703.5,-165 2710.06,-163.718 2716.95,-162.361 2723.77,-161.014"/>
<polygon fill="midnightblue" stroke="midnightblue" points="2724.53,-164.43 2733.66,-159.054 2723.17,-157.564 2724.53,-164.43"/>
</g>
<!-- Node21 -->
<g id="node22" class="node"><title>Node21</title>
<polygon fill="white" stroke="#bfbfbf" points="2853,-140 2853,-159 2970,-159 2970,-140 2853,-140"/>
<text text-anchor="middle" x="2911.5" y="-147" font-family="FreeSans" font-size="10.00">boost/bimap/list_of.hpp</text>
</g>
<!-- Node19&#45;&gt;Node21 -->
<g id="edge21" class="edge"><title>Node19&#45;&gt;Node21</title>
<path fill="none" stroke="midnightblue" d="M2520.52,-205.336C2592.71,-198.401 2728.67,-184.111 2843.5,-165 2850.3,-163.868 2857.45,-162.52 2864.46,-161.108"/>
<polygon fill="midnightblue" stroke="midnightblue" points="2865.48,-164.47 2874.56,-159.011 2864.06,-157.616 2865.48,-164.47"/>
</g>
<!-- Node22 -->
<g id="node23" class="node"><title>Node22</title>
<polygon fill="white" stroke="#bfbfbf" points="2483.5,-6 2483.5,-25 2611.5,-25 2611.5,-6 2483.5,-6"/>
<text text-anchor="middle" x="2547.5" y="-13" font-family="FreeSans" font-size="10.00">boost/range/concepts.hpp</text>
</g>
<!-- Node19&#45;&gt;Node22 -->
<g id="edge23" class="edge"><title>Node19&#45;&gt;Node22</title>
<path fill="none" stroke="midnightblue" d="M2520.89,-202.173C2561.89,-194.754 2614.53,-182.186 2627.5,-165 2661.19,-120.375 2600.12,-59.7075 2566.9,-31.7529"/>
<polygon fill="midnightblue" stroke="midnightblue" points="2568.71,-28.706 2558.75,-25.0772 2564.27,-34.1214 2568.71,-28.706"/>
</g>
<!-- Node23 -->
<g id="node24" class="node"><title>Node23</title>
<polygon fill="white" stroke="#bfbfbf" points="2226,-6 2226,-25 2273,-25 2273,-6 2226,-6"/>
<text text-anchor="middle" x="2249.5" y="-13" font-family="FreeSans" font-size="10.00">iterator</text>
</g>
<!-- Node19&#45;&gt;Node23 -->
<g id="edge28" class="edge"><title>Node19&#45;&gt;Node23</title>
<path fill="none" stroke="midnightblue" d="M2449.05,-201.4C2402.39,-181.378 2290.27,-130.855 2266.5,-98 2253.16,-79.5563 2249.8,-52.9582 2249.19,-35.2206"/>
<polygon fill="midnightblue" stroke="midnightblue" points="2252.69,-34.9906 2249.11,-25.0187 2245.69,-35.0461 2252.69,-34.9906"/>
</g>
<!-- Node24 -->
<g id="node25" class="node"><title>Node24</title>
<polygon fill="white" stroke="#bfbfbf" points="159.5,-6 159.5,-25 203.5,-25 203.5,-6 159.5,-6"/>
<text text-anchor="middle" x="181.5" y="-13" font-family="FreeSans" font-size="10.00">vector</text>
</g>
<!-- Node19&#45;&gt;Node24 -->
<g id="edge29" class="edge"><title>Node19&#45;&gt;Node24</title>
<path fill="none" stroke="midnightblue" d="M2420.96,-201.447C2379.49,-193.616 2318.46,-180.85 2266.5,-165 2230.42,-153.996 2224.46,-141.537 2187.5,-134 2049.61,-105.879 1055.03,-142.414 921.5,-98 898.801,-90.4501 900.1,-74.8405 877.5,-67 737.681,-18.4942 356.046,-67.0112 212.5,-31 210.512,-30.5012 208.496,-29.8735 206.497,-29.1607"/>
<polygon fill="midnightblue" stroke="midnightblue" points="207.413,-25.7486 196.839,-25.0903 204.695,-32.1992 207.413,-25.7486"/>
</g>
<!-- Node25 -->
<g id="node26" class="node"><title>Node25</title>
<polygon fill="white" stroke="#bfbfbf" points="1997,-140 1997,-159 2036,-159 2036,-140 1997,-140"/>
<text text-anchor="middle" x="2016.5" y="-147" font-family="FreeSans" font-size="10.00">utility</text>
</g>
<!-- Node19&#45;&gt;Node25 -->
<g id="edge33" class="edge"><title>Node19&#45;&gt;Node25</title>
<path fill="none" stroke="midnightblue" d="M2418.25,-210.638C2337.17,-210.312 2175.08,-204.203 2044.5,-165 2043.03,-164.557 2041.54,-164.037 2040.06,-163.461"/>
<polygon fill="midnightblue" stroke="midnightblue" points="2041.15,-160.109 2030.6,-159.097 2038.21,-166.465 2041.15,-160.109"/>
</g>
<!-- Node26 -->
<g id="node27" class="node"><title>Node26</title>
<polygon fill="white" stroke="#bfbfbf" points="2988,-140 2988,-159 3047,-159 3047,-140 2988,-140"/>
<text text-anchor="middle" x="3017.5" y="-147" font-family="FreeSans" font-size="10.00">functional</text>
</g>
<!-- Node19&#45;&gt;Node26 -->
<g id="edge34" class="edge"><title>Node19&#45;&gt;Node26</title>
<path fill="none" stroke="midnightblue" d="M2520.77,-209.972C2613.34,-208.93 2814.08,-202.124 2978.5,-165 2981.57,-164.306 2984.73,-163.429 2987.85,-162.449"/>
<polygon fill="midnightblue" stroke="midnightblue" points="2989.27,-165.662 2997.57,-159.077 2986.98,-159.048 2989.27,-165.662"/>
</g>
<!-- Node27 -->
<g id="node28" class="node"><title>Node27</title>
<g id="a_node28"><a xlink:href="FeatureConcept_8h.html" target="_top" xlink:title="FeatureConcept.h">
<polygon fill="white" stroke="black" points="1682,-140 1682,-159 1775,-159 1775,-140 1682,-140"/>
<text text-anchor="middle" x="1728.5" y="-147" font-family="FreeSans" font-size="10.00">FeatureConcept.h</text>
</a>
</g>
</g>
<!-- Node19&#45;&gt;Node27 -->
<g id="edge36" class="edge"><title>Node19&#45;&gt;Node27</title>
<path fill="none" stroke="midnightblue" d="M2418.31,-206.077C2318.36,-198.393 2090.27,-180.735 1898.5,-165 1860.81,-161.907 1818.42,-158.292 1785.41,-155.446"/>
<polygon fill="midnightblue" stroke="midnightblue" points="1785.3,-151.924 1775.03,-154.55 1784.69,-158.898 1785.3,-151.924"/>
</g>
<!-- Node29 -->
<g id="node30" class="node"><title>Node29</title>
<g id="a_node30"><a xlink:href="EigenMetafunction_8h.html" target="_top" xlink:title="../Wrappers/EigenMetafunction.h">
<polygon fill="white" stroke="black" points="2391.5,-140 2391.5,-159 2547.5,-159 2547.5,-140 2391.5,-140"/>
<text text-anchor="middle" x="2469.5" y="-147" font-family="FreeSans" font-size="10.00">../Wrappers/EigenMetafunction.h</text>
</a>
</g>
</g>
<!-- Node19&#45;&gt;Node29 -->
<g id="edge39" class="edge"><title>Node19&#45;&gt;Node29</title>
<path fill="none" stroke="midnightblue" d="M2469.5,-201.475C2469.5,-193.08 2469.5,-179.981 2469.5,-169.163"/>
<polygon fill="midnightblue" stroke="midnightblue" points="2473,-169.009 2469.5,-159.009 2466,-169.009 2473,-169.009"/>
</g>
<!-- Node28 -->
<g id="node29" class="node"><title>Node28</title>
<g id="a_node29"><a xlink:href="FeatureConcept_8ipp.html" target="_top" xlink:title="FeatureConcept.ipp">
<polygon fill="white" stroke="black" points="1831,-73 1831,-92 1932,-92 1932,-73 1831,-73"/>
<text text-anchor="middle" x="1881.5" y="-80" font-family="FreeSans" font-size="10.00">FeatureConcept.ipp</text>
</a>
</g>
</g>
<!-- Node27&#45;&gt;Node28 -->
<g id="edge37" class="edge"><title>Node27&#45;&gt;Node28</title>
<path fill="none" stroke="midnightblue" d="M1748.82,-139.869C1775.22,-128.65 1821.53,-108.977 1851.86,-96.0925"/>
<polygon fill="midnightblue" stroke="midnightblue" points="1853.26,-99.2987 1861.1,-92.1672 1850.53,-92.856 1853.26,-99.2987"/>
</g>
<!-- Node28&#45;&gt;Node1 -->
<g id="edge38" class="edge"><title>Node28&#45;&gt;Node1</title>
<path fill="none" stroke="midnightblue" d="M1916.02,-72.9355C1963.05,-61.2685 2047.3,-40.3669 2099.01,-27.5367"/>
<polygon fill="midnightblue" stroke="midnightblue" points="2100.04,-30.8884 2108.9,-25.0834 2098.35,-24.0944 2100.04,-30.8884"/>
</g>
<!-- Node30 -->
<g id="node31" class="node"><title>Node30</title>
<g id="a_node31"><a xlink:href="EigenMetafunction_8ipp.html" target="_top" xlink:title="EigenMetafunction.ipp">
<polygon fill="white" stroke="black" points="2717.5,-73 2717.5,-92 2829.5,-92 2829.5,-73 2717.5,-73"/>
<text text-anchor="middle" x="2773.5" y="-80" font-family="FreeSans" font-size="10.00">EigenMetafunction.ipp</text>
</a>
</g>
</g>
<!-- Node29&#45;&gt;Node30 -->
<g id="edge40" class="edge"><title>Node29&#45;&gt;Node30</title>
<path fill="none" stroke="midnightblue" d="M2509.56,-139.936C2564.58,-128.171 2663.51,-107.018 2723.37,-94.2176"/>
<polygon fill="midnightblue" stroke="midnightblue" points="2724.31,-97.597 2733.36,-92.0834 2722.85,-90.7518 2724.31,-97.597"/>
</g>
<!-- Node30&#45;&gt;Node10 -->
<g id="edge41" class="edge"><title>Node30&#45;&gt;Node10</title>
<path fill="none" stroke="midnightblue" d="M2790.5,-72.8685C2812.21,-61.8447 2849.99,-42.6554 2875.37,-29.7678"/>
<polygon fill="midnightblue" stroke="midnightblue" points="2877.1,-32.8157 2884.43,-25.1672 2873.93,-26.5743 2877.1,-32.8157"/>
</g>
<!-- Node33 -->
<g id="node34" class="node"><title>Node33</title>
<g id="a_node34"><a xlink:href="Coordinate_8ipp.html" target="_top" xlink:title="Coordinate.ipp">
<polygon fill="white" stroke="black" points="2285.5,-73 2285.5,-92 2363.5,-92 2363.5,-73 2285.5,-73"/>
<text text-anchor="middle" x="2324.5" y="-80" font-family="FreeSans" font-size="10.00">Coordinate.ipp</text>
</a>
</g>
</g>
<!-- Node32&#45;&gt;Node33 -->
<g id="edge44" class="edge"><title>Node32&#45;&gt;Node33</title>
<path fill="none" stroke="midnightblue" d="M1967.04,-139.927C1973.6,-137.762 1980.77,-135.601 1987.5,-134 2041.14,-121.241 2195.3,-100.292 2275.19,-89.8421"/>
<polygon fill="midnightblue" stroke="midnightblue" points="2276.02,-93.2634 2285.48,-88.4997 2275.11,-86.3222 2276.02,-93.2634"/>
</g>
<!-- Node33&#45;&gt;Node1 -->
<g id="edge45" class="edge"><title>Node33&#45;&gt;Node1</title>
<path fill="none" stroke="midnightblue" d="M2300.46,-72.8685C2268.73,-61.4732 2212.71,-41.3528 2176.88,-28.4869"/>
<polygon fill="midnightblue" stroke="midnightblue" points="2177.94,-25.1495 2167.35,-25.0637 2175.58,-31.7376 2177.94,-25.1495"/>
</g>
<!-- Node33&#45;&gt;Node2 -->
<g id="edge48" class="edge"><title>Node33&#45;&gt;Node2</title>
<path fill="none" stroke="midnightblue" d="M2363.75,-80.0091C2433.24,-77.3712 2582.5,-71.7147 2708.5,-67 3140.05,-50.8523 3250.51,-80.6721 3679.5,-31 3688.1,-30.0043 3697.19,-28.5555 3705.95,-26.9542"/>
<polygon fill="midnightblue" stroke="midnightblue" points="3706.87,-30.3422 3716.03,-25.0223 3705.55,-23.4673 3706.87,-30.3422"/>
</g>
<!-- Node33&#45;&gt;Node3 -->
<g id="edge47" class="edge"><title>Node33&#45;&gt;Node3</title>
<path fill="none" stroke="midnightblue" d="M2363.61,-79.5141C2461.34,-74.2878 2723.99,-58.6179 2941.5,-31 2950.87,-29.8101 2960.79,-28.3122 2970.4,-26.7338"/>
<polygon fill="midnightblue" stroke="midnightblue" points="2970.99,-30.1836 2980.27,-25.0694 2969.83,-23.2811 2970.99,-30.1836"/>
</g>
<!-- Node33&#45;&gt;Node8 -->
<g id="edge49" class="edge"><title>Node33&#45;&gt;Node8</title>
<path fill="none" stroke="midnightblue" d="M2285.26,-79.7798C2215.78,-76.7872 2066.54,-70.5991 1940.5,-67 1733.88,-61.0999 284.38,-65.0609 80.5,-31 76.2193,-30.2849 71.7872,-29.2466 67.4489,-28.0491"/>
<polygon fill="midnightblue" stroke="midnightblue" points="68.1979,-24.6183 57.6116,-25.0434 66.1524,-31.3128 68.1979,-24.6183"/>
</g>
<!-- Node33&#45;&gt;Node9 -->
<g id="edge55" class="edge"><title>Node33&#45;&gt;Node9</title>
<path fill="none" stroke="midnightblue" d="M2332.19,-72.7338C2341.16,-62.5004 2356.19,-45.3642 2367.3,-32.6924"/>
<polygon fill="midnightblue" stroke="midnightblue" points="2369.97,-34.9536 2373.93,-25.1273 2364.71,-30.3383 2369.97,-34.9536"/>
</g>
<!-- Node33&#45;&gt;Node10 -->
<g id="edge51" class="edge"><title>Node33&#45;&gt;Node10</title>
<path fill="none" stroke="midnightblue" d="M2363.71,-77.0834C2468.28,-65.3032 2753.14,-33.2135 2860.14,-21.1594"/>
<polygon fill="midnightblue" stroke="midnightblue" points="2860.68,-24.6208 2870.22,-20.0233 2859.89,-17.6648 2860.68,-24.6208"/>
</g>
<!-- Node33&#45;&gt;Node11 -->
<g id="edge52" class="edge"><title>Node33&#45;&gt;Node11</title>
<path fill="none" stroke="midnightblue" d="M2363.63,-76.5564C2420.61,-68.9679 2529.54,-52.9859 2620.5,-31 2624.33,-30.0747 2628.3,-29 2632.24,-27.862"/>
<polygon fill="midnightblue" stroke="midnightblue" points="2633.29,-31.2008 2641.85,-24.952 2631.26,-24.5014 2633.29,-31.2008"/>
</g>
<!-- Node33&#45;&gt;Node13 -->
<g id="edge56" class="edge"><title>Node33&#45;&gt;Node13</title>
<path fill="none" stroke="midnightblue" d="M2285.07,-76.5195C2234.52,-69.4894 2144.55,-54.7912 2070.5,-31 2068.63,-30.3983 2066.72,-29.7182 2064.81,-28.9888"/>
<polygon fill="midnightblue" stroke="midnightblue" points="2066.06,-25.7168 2055.49,-25.0678 2063.35,-32.1697 2066.06,-25.7168"/>
</g>
<!-- Node33&#45;&gt;Node14 -->
<g id="edge53" class="edge"><title>Node33&#45;&gt;Node14</title>
<path fill="none" stroke="midnightblue" d="M2323.02,-72.7338C2321.4,-63.1826 2318.77,-47.6183 2316.68,-35.2829"/>
<polygon fill="midnightblue" stroke="midnightblue" points="2320.08,-34.4031 2314.96,-25.1273 2313.18,-35.5711 2320.08,-34.4031"/>
</g>
<!-- Node33&#45;&gt;Node22 -->
<g id="edge46" class="edge"><title>Node33&#45;&gt;Node22</title>
<path fill="none" stroke="midnightblue" d="M2354.11,-72.8685C2393.79,-61.3027 2464.31,-40.7489 2508.34,-27.9145"/>
<polygon fill="midnightblue" stroke="midnightblue" points="2509.5,-31.2223 2518.12,-25.0637 2507.54,-24.5019 2509.5,-31.2223"/>
</g>
<!-- Node33&#45;&gt;Node23 -->
<g id="edge57" class="edge"><title>Node33&#45;&gt;Node23</title>
<path fill="none" stroke="midnightblue" d="M2314.39,-72.7338C2302.35,-62.3055 2282.05,-44.7088 2267.35,-31.9732"/>
<polygon fill="midnightblue" stroke="midnightblue" points="2269.3,-29.0317 2259.45,-25.1273 2264.72,-34.3216 2269.3,-29.0317"/>
</g>
<!-- Node33&#45;&gt;Node24 -->
<g id="edge50" class="edge"><title>Node33&#45;&gt;Node24</title>
<path fill="none" stroke="midnightblue" d="M2285.26,-79.799C2215.77,-76.836 2066.54,-70.6922 1940.5,-67 1748.54,-61.3766 399.521,-74.626 212.5,-31 210.29,-30.4846 208.05,-29.8003 205.838,-29.0089"/>
<polygon fill="midnightblue" stroke="midnightblue" points="207.069,-25.7295 196.496,-25.0465 204.336,-32.1737 207.069,-25.7295"/>
</g>
<!-- Node34 -->
<g id="node35" class="node"><title>Node34</title>
<polygon fill="white" stroke="#bfbfbf" points="2427.5,-6 2427.5,-25 2465.5,-25 2465.5,-6 2427.5,-6"/>
<text text-anchor="middle" x="2446.5" y="-13" font-family="FreeSans" font-size="10.00">array</text>
</g>
<!-- Node33&#45;&gt;Node34 -->
<g id="edge54" class="edge"><title>Node33&#45;&gt;Node34</title>
<path fill="none" stroke="midnightblue" d="M2340.7,-72.8685C2361.3,-61.8932 2397.09,-42.8243 2421.28,-29.9385"/>
<polygon fill="midnightblue" stroke="midnightblue" points="2423.05,-32.9583 2430.23,-25.1672 2419.76,-26.7804 2423.05,-32.9583"/>
</g>
<!-- Node36 -->
<g id="node37" class="node"><title>Node36</title>
<g id="a_node37"><a xlink:href="Feature_8ipp.html" target="_top" xlink:title="Feature.ipp">
<polygon fill="white" stroke="black" points="1575,-201.5 1575,-220.5 1640,-220.5 1640,-201.5 1575,-201.5"/>
<text text-anchor="middle" x="1607.5" y="-208.5" font-family="FreeSans" font-size="10.00">Feature.ipp</text>
</a>
</g>
</g>
<!-- Node35&#45;&gt;Node36 -->
<g id="edge59" class="edge"><title>Node35&#45;&gt;Node36</title>
<path fill="none" stroke="midnightblue" d="M1921.85,-261.489C1861.46,-251.982 1720.86,-229.848 1649.98,-218.687"/>
<polygon fill="midnightblue" stroke="midnightblue" points="1650.46,-215.221 1640.04,-217.123 1649.37,-222.136 1650.46,-215.221"/>
</g>
<!-- Node36&#45;&gt;Node1 -->
<g id="edge60" class="edge"><title>Node36&#45;&gt;Node1</title>
<path fill="none" stroke="midnightblue" d="M1574.8,-207.296C1547.21,-203.09 1509.29,-192.358 1490.5,-165 1469.13,-133.885 1519.92,-68.7476 1522.5,-67 1572.93,-32.8362 2009.1,-38.8722 2069.5,-31 2077.71,-29.9294 2086.39,-28.5023 2094.79,-26.9602"/>
<polygon fill="midnightblue" stroke="midnightblue" points="2095.7,-30.351 2104.86,-25.0384 2094.38,-23.4751 2095.7,-30.351"/>
</g>
<!-- Node36&#45;&gt;Node3 -->
<g id="edge62" class="edge"><title>Node36&#45;&gt;Node3</title>
<path fill="none" stroke="midnightblue" d="M1640.23,-207.915C1725.22,-202.371 1959.84,-186.225 2154.5,-165 2256.16,-153.915 2280.82,-144.918 2382.5,-134 2584.64,-112.297 2641.27,-147.29 2838.5,-98 2900.05,-82.6168 2967.04,-48.8493 3001.71,-29.9634"/>
<polygon fill="midnightblue" stroke="midnightblue" points="3003.53,-32.9541 3010.6,-25.0588 3000.15,-26.825 3003.53,-32.9541"/>
</g>
<!-- Node36&#45;&gt;Node11 -->
<g id="edge86" class="edge"><title>Node36&#45;&gt;Node11</title>
<path fill="none" stroke="midnightblue" d="M1640.02,-206.62C1685.44,-201.241 1770,-188.819 1838.5,-165 1866.85,-155.142 1869.59,-142.084 1898.5,-134 2123.74,-71.0131 2194.1,-143.555 2423.5,-98 2503.03,-82.2069 2592.46,-47.6048 2637.4,-28.9714"/>
<polygon fill="midnightblue" stroke="midnightblue" points="2638.94,-32.1225 2646.81,-25.0328 2636.23,-25.6653 2638.94,-32.1225"/>
</g>
<!-- Node36&#45;&gt;Node13 -->
<g id="edge91" class="edge"><title>Node36&#45;&gt;Node13</title>
<path fill="none" stroke="midnightblue" d="M1574.93,-210.42C1502.46,-210.585 1331.42,-206.471 1295.5,-165 1286.48,-154.585 1287.84,-145.454 1295.5,-134 1338.8,-69.2279 1381.62,-84.6732 1457.5,-67 1695.65,-11.5352 1769.31,-90.4211 2006.5,-31 2008.71,-30.446 2010.96,-29.7448 2013.19,-28.951"/>
<polygon fill="midnightblue" stroke="midnightblue" points="2014.72,-32.1024 2022.63,-25.0491 2012.05,-25.6328 2014.72,-32.1024"/>
</g>
<!-- Node36&#45;&gt;Node17 -->
<g id="edge87" class="edge"><title>Node36&#45;&gt;Node17</title>
<path fill="none" stroke="midnightblue" d="M1640.15,-208.284C1728.15,-203.396 1968.76,-188.24 2044.5,-165 2045.93,-164.561 2047.37,-164.043 2048.81,-163.47"/>
<polygon fill="midnightblue" stroke="midnightblue" points="2050.42,-166.577 2057.94,-159.112 2047.41,-160.26 2050.42,-166.577"/>
</g>
<!-- Node36&#45;&gt;Node22 -->
<g id="edge61" class="edge"><title>Node36&#45;&gt;Node22</title>
<path fill="none" stroke="midnightblue" d="M1640.24,-202.777C1675.82,-194.663 1734.18,-180.576 1783.5,-165 1820.65,-153.267 1827.44,-142.357 1865.5,-134 2086.14,-85.5478 2153.81,-154.625 2372.5,-98 2402.69,-90.1836 2481.45,-50.6692 2522.22,-29.6681"/>
<polygon fill="midnightblue" stroke="midnightblue" points="2523.98,-32.7018 2531.25,-25 2520.76,-26.4837 2523.98,-32.7018"/>
</g>
<!-- Node36&#45;&gt;Node23 -->
<g id="edge90" class="edge"><title>Node36&#45;&gt;Node23</title>
<path fill="none" stroke="midnightblue" d="M1612.97,-201.394C1623.08,-186.062 1646.1,-153.777 1672.5,-134 1730.61,-90.4685 1751.27,-85.437 1821.5,-67 1992.01,-22.2381 2045.8,-75.0304 2216.5,-31 2218.8,-30.4065 2221.14,-29.6702 2223.47,-28.8463"/>
<polygon fill="midnightblue" stroke="midnightblue" points="2224.78,-32.0919 2232.75,-25.1092 2222.16,-25.5988 2224.78,-32.0919"/>
</g>
<!-- Node36&#45;&gt;Node24 -->
<g id="edge84" class="edge"><title>Node36&#45;&gt;Node24</title>
<path fill="none" stroke="midnightblue" d="M1574.82,-209.335C1443.74,-206.476 960.148,-194.036 898.5,-165 871.477,-152.272 833.541,-79.6892 806.5,-67 686.783,-10.8225 340.663,-63.5918 212.5,-31 210.513,-30.4948 208.499,-29.8624 206.501,-29.1463"/>
<polygon fill="midnightblue" stroke="midnightblue" points="207.418,-25.7344 196.844,-25.0693 204.695,-32.1833 207.418,-25.7344"/>
</g>
<!-- Node36&#45;&gt;Node25 -->
<g id="edge93" class="edge"><title>Node36&#45;&gt;Node25</title>
<path fill="none" stroke="midnightblue" d="M1640.04,-209.891C1706.68,-208.859 1862.92,-202.281 1987.5,-165 1989.17,-164.501 1990.86,-163.91 1992.54,-163.258"/>
<polygon fill="midnightblue" stroke="midnightblue" points="1994.18,-166.356 2001.85,-159.052 1991.3,-159.976 1994.18,-166.356"/>
</g>
<!-- Node36&#45;&gt;Node27 -->
<g id="edge102" class="edge"><title>Node36&#45;&gt;Node27</title>
<path fill="none" stroke="midnightblue" d="M1624.84,-201.475C1645.05,-191.534 1678.69,-174.995 1702.14,-163.461"/>
<polygon fill="midnightblue" stroke="midnightblue" points="1703.77,-166.563 1711.2,-159.009 1700.68,-160.281 1703.77,-166.563"/>
</g>
<!-- Node36&#45;&gt;Node29 -->
<g id="edge106" class="edge"><title>Node36&#45;&gt;Node29</title>
<path fill="none" stroke="midnightblue" d="M1640.01,-208.579C1742.76,-203.963 2069.63,-188.331 2339.5,-165 2355.52,-163.615 2372.62,-161.887 2388.98,-160.112"/>
<polygon fill="midnightblue" stroke="midnightblue" points="2389.5,-163.576 2399.06,-159.003 2388.74,-156.618 2389.5,-163.576"/>
</g>
<!-- Node36&#45;&gt;Node32 -->
<g id="edge94" class="edge"><title>Node36&#45;&gt;Node32</title>
<path fill="none" stroke="midnightblue" d="M1640.35,-206.201C1693.8,-199.714 1802.74,-185.216 1893.5,-165 1897.72,-164.06 1902.1,-162.966 1906.45,-161.808"/>
<polygon fill="midnightblue" stroke="midnightblue" points="1907.72,-165.087 1916.41,-159.03 1905.84,-158.344 1907.72,-165.087"/>
</g>
<!-- Node37 -->
<g id="node38" class="node"><title>Node37</title>
<g id="a_node38"><a xlink:href="boost__dynamic__bitset_8hpp.html" target="_top" xlink:title="../Modified/boost_dynamic\l_bitset.hpp">
<polygon fill="white" stroke="black" points="930.5,-67.5 930.5,-97.5 1058.5,-97.5 1058.5,-67.5 930.5,-67.5"/>
<text text-anchor="start" x="938.5" y="-85.5" font-family="FreeSans" font-size="10.00">../Modified/boost_dynamic</text>
<text text-anchor="middle" x="994.5" y="-74.5" font-family="FreeSans" font-size="10.00">_bitset.hpp</text>
</a>
</g>
</g>
<!-- Node36&#45;&gt;Node37 -->
<g id="edge63" class="edge"><title>Node36&#45;&gt;Node37</title>
<path fill="none" stroke="midnightblue" d="M1574.85,-207.554C1513.25,-202.54 1375.87,-189.455 1262.5,-165 1184.41,-148.154 1096.18,-119.368 1042.98,-100.903"/>
<polygon fill="midnightblue" stroke="midnightblue" points="1044.06,-97.5727 1033.47,-97.5803 1041.76,-104.181 1044.06,-97.5727"/>
</g>
<!-- Node42 -->
<g id="node43" class="node"><title>Node42</title>
<polygon fill="white" stroke="#bfbfbf" points="89.5,-6 89.5,-25 141.5,-25 141.5,-6 89.5,-6"/>
<text text-anchor="middle" x="115.5" y="-13" font-family="FreeSans" font-size="10.00">ostream</text>
</g>
<!-- Node36&#45;&gt;Node42 -->
<g id="edge85" class="edge"><title>Node36&#45;&gt;Node42</title>
<path fill="none" stroke="midnightblue" d="M1574.87,-209.998C1463.91,-209.612 1091.13,-205.2 786.5,-165 500.11,-127.207 426.453,-116.425 150.5,-31 148.356,-30.3363 146.162,-29.5918 143.968,-28.8"/>
<polygon fill="midnightblue" stroke="midnightblue" points="145.109,-25.4885 134.521,-25.1285 142.574,-32.0131 145.109,-25.4885"/>
</g>
<!-- Node53 -->
<g id="node54" class="node"><title>Node53</title>
<polygon fill="white" stroke="#bfbfbf" points="1304.5,-140 1304.5,-159 1334.5,-159 1334.5,-140 1304.5,-140"/>
<text text-anchor="middle" x="1319.5" y="-147" font-family="FreeSans" font-size="10.00">set</text>
</g>
<!-- Node36&#45;&gt;Node53 -->
<g id="edge88" class="edge"><title>Node36&#45;&gt;Node53</title>
<path fill="none" stroke="midnightblue" d="M1574.8,-208.346C1523.88,-204.914 1423.25,-194.667 1343.5,-165 1342.62,-164.673 1341.74,-164.314 1340.86,-163.928"/>
<polygon fill="midnightblue" stroke="midnightblue" points="1342.23,-160.693 1331.75,-159.108 1338.96,-166.88 1342.23,-160.693"/>
</g>
<!-- Node54 -->
<g id="node55" class="node"><title>Node54</title>
<polygon fill="white" stroke="#bfbfbf" points="1353,-140 1353,-159 1382,-159 1382,-140 1353,-140"/>
<text text-anchor="middle" x="1367.5" y="-147" font-family="FreeSans" font-size="10.00">list</text>
</g>
<!-- Node36&#45;&gt;Node54 -->
<g id="edge89" class="edge"><title>Node36&#45;&gt;Node54</title>
<path fill="none" stroke="midnightblue" d="M1574.83,-206.902C1531.42,-201.971 1452.94,-190.192 1390.5,-165 1389.78,-164.709 1389.05,-164.395 1388.33,-164.062"/>
<polygon fill="midnightblue" stroke="midnightblue" points="1389.68,-160.81 1379.24,-159.03 1386.29,-166.935 1389.68,-160.81"/>
</g>
<!-- Node55 -->
<g id="node56" class="node"><title>Node55</title>
<polygon fill="white" stroke="#bfbfbf" points="1400,-140 1400,-159 1443,-159 1443,-140 1400,-140"/>
<text text-anchor="middle" x="1421.5" y="-147" font-family="FreeSans" font-size="10.00">queue</text>
</g>
<!-- Node36&#45;&gt;Node55 -->
<g id="edge92" class="edge"><title>Node36&#45;&gt;Node55</title>
<path fill="none" stroke="midnightblue" d="M1575.92,-201.432C1545.37,-192.935 1497.91,-179.166 1457.5,-165 1455.59,-164.331 1453.64,-163.62 1451.67,-162.886"/>
<polygon fill="midnightblue" stroke="midnightblue" points="1452.53,-159.463 1441.94,-159.108 1449.99,-165.989 1452.53,-159.463"/>
</g>
<!-- Node56 -->
<g id="node57" class="node"><title>Node56</title>
<g id="a_node57"><a xlink:href="Descriptor_8h.html" target="_top" xlink:title="Descriptor.h">
<polygon fill="white" stroke="black" points="907.5,-140 907.5,-159 975.5,-159 975.5,-140 907.5,-140"/>
<text text-anchor="middle" x="941.5" y="-147" font-family="FreeSans" font-size="10.00">Descriptor.h</text>
</a>
</g>
</g>
<!-- Node36&#45;&gt;Node56 -->
<g id="edge95" class="edge"><title>Node36&#45;&gt;Node56</title>
<path fill="none" stroke="midnightblue" d="M1574.93,-207.09C1465.45,-197.309 1110.6,-165.607 985.581,-154.438"/>
<polygon fill="midnightblue" stroke="midnightblue" points="985.865,-150.95 975.593,-153.546 985.242,-157.922 985.865,-150.95"/>
</g>
<!-- Node57 -->
<g id="node58" class="node"><title>Node57</title>
<g id="a_node58"><a xlink:href="RoI_8h.html" target="_top" xlink:title="RoI.h">
<polygon fill="white" stroke="black" points="759,-73 759,-92 798,-92 798,-73 759,-73"/>
<text text-anchor="middle" x="778.5" y="-80" font-family="FreeSans" font-size="10.00">RoI.h</text>
</a>
</g>
</g>
<!-- Node36&#45;&gt;Node57 -->
<g id="edge99" class="edge"><title>Node36&#45;&gt;Node57</title>
<path fill="none" stroke="midnightblue" d="M1574.89,-210.168C1433.21,-210.63 875.472,-209.582 812.5,-165 792.103,-150.56 783.896,-121.465 780.626,-102.233"/>
<polygon fill="midnightblue" stroke="midnightblue" points="784.078,-101.648 779.215,-92.2345 777.146,-102.625 784.078,-101.648"/>
</g>
<!-- Node58 -->
<g id="node59" class="node"><title>Node58</title>
<g id="a_node59"><a xlink:href="TaggedData_8h.html" target="_top" xlink:title="../DataStructures/Tagged\lData.h">
<polygon fill="white" stroke="black" points="1500,-134.5 1500,-164.5 1625,-164.5 1625,-134.5 1500,-134.5"/>
<text text-anchor="start" x="1508" y="-152.5" font-family="FreeSans" font-size="10.00">../DataStructures/Tagged</text>
<text text-anchor="middle" x="1562.5" y="-141.5" font-family="FreeSans" font-size="10.00">Data.h</text>
</a>
</g>
</g>
<!-- Node36&#45;&gt;Node58 -->
<g id="edge103" class="edge"><title>Node36&#45;&gt;Node58</title>
<path fill="none" stroke="midnightblue" d="M1601.05,-201.475C1595.36,-193.944 1586.8,-182.626 1579.19,-172.566"/>
<polygon fill="midnightblue" stroke="midnightblue" points="1581.93,-170.388 1573.11,-164.523 1576.35,-174.61 1581.93,-170.388"/>
</g>
<!-- Node60 -->
<g id="node61" class="node"><title>Node60</title>
<polygon fill="white" stroke="#bfbfbf" points="3118.5,-6 3118.5,-25 3172.5,-25 3172.5,-6 3118.5,-6"/>
<text text-anchor="middle" x="3145.5" y="-13" font-family="FreeSans" font-size="10.00">iostream</text>
</g>
<!-- Node36&#45;&gt;Node60 -->
<g id="edge107" class="edge"><title>Node36&#45;&gt;Node60</title>
<path fill="none" stroke="midnightblue" d="M1640.02,-210.264C1761.4,-210.868 2199.29,-209.626 2556.5,-165 2624.91,-156.453 2640.86,-147.373 2708.5,-134 2791.96,-117.499 2814.01,-118.798 2896.5,-98 2992.73,-73.7385 3016.07,-64.4529 3109.5,-31 3111.4,-30.3186 3113.35,-29.5978 3115.32,-28.8561"/>
<polygon fill="midnightblue" stroke="midnightblue" points="3117,-31.9558 3125.05,-25.0605 3114.46,-25.4346 3117,-31.9558"/>
</g>
<!-- Node37&#45;&gt;Node9 -->
<g id="edge67" class="edge"><title>Node37&#45;&gt;Node9</title>
<path fill="none" stroke="midnightblue" d="M1058.86,-79.6926C1318.89,-72.313 2281,-44.2325 2344.5,-31 2347.51,-30.3728 2350.59,-29.5246 2353.63,-28.5513"/>
<polygon fill="midnightblue" stroke="midnightblue" points="2354.85,-31.8347 2363.05,-25.1337 2352.46,-25.2545 2354.85,-31.8347"/>
</g>
<!-- Node37&#45;&gt;Node13 -->
<g id="edge69" class="edge"><title>Node37&#45;&gt;Node13</title>
<path fill="none" stroke="midnightblue" d="M1058.5,-74.7237C1086.15,-71.9903 1118.89,-69.0135 1148.5,-67 1338.89,-54.0511 1820.85,-75.1916 2006.5,-31 2008.72,-30.4721 2010.97,-29.7893 2013.2,-29.008"/>
<polygon fill="midnightblue" stroke="midnightblue" points="2014.73,-32.1641 2022.65,-25.1281 2012.07,-25.6887 2014.73,-32.1641"/>
</g>
<!-- Node37&#45;&gt;Node15 -->
<g id="edge65" class="edge"><title>Node37&#45;&gt;Node15</title>
<path fill="none" stroke="midnightblue" d="M1058.67,-68.8422C1063.34,-68.1452 1067.98,-67.519 1072.5,-67 1248.85,-46.7295 1698.4,-74.514 1870.5,-31 1872.43,-30.5108 1874.39,-29.8901 1876.33,-29.1822"/>
<polygon fill="midnightblue" stroke="midnightblue" points="1877.91,-32.313 1885.69,-25.1217 1875.12,-25.8915 1877.91,-32.313"/>
</g>
<!-- Node37&#45;&gt;Node16 -->
<g id="edge66" class="edge"><title>Node37&#45;&gt;Node16</title>
<path fill="none" stroke="midnightblue" d="M1058.53,-72.5616C1075.4,-70.462 1093.61,-68.4242 1110.5,-67 1473.56,-36.3791 1572.41,-103.365 1929.5,-31 1932.76,-30.34 1936.1,-29.4491 1939.4,-28.4314"/>
<polygon fill="midnightblue" stroke="midnightblue" points="1940.71,-31.683 1949.01,-25.1028 1938.41,-25.0685 1940.71,-31.683"/>
</g>
<!-- Node37&#45;&gt;Node24 -->
<g id="edge68" class="edge"><title>Node37&#45;&gt;Node24</title>
<path fill="none" stroke="midnightblue" d="M930.33,-68.8731C925.66,-68.1688 921.014,-67.5326 916.5,-67 605.361,-30.2891 516.495,-106.78 212.5,-31 210.511,-30.5042 208.495,-29.8787 206.496,-29.1674"/>
<polygon fill="midnightblue" stroke="midnightblue" points="207.411,-25.7552 196.836,-25.1001 204.694,-32.2066 207.411,-25.7552"/>
</g>
<!-- Node38 -->
<g id="node39" class="node"><title>Node38</title>
<polygon fill="white" stroke="#bfbfbf" points="372,-6 372,-25 423,-25 423,-6 372,-6"/>
<text text-anchor="middle" x="397.5" y="-13" font-family="FreeSans" font-size="10.00">assert.h</text>
</g>
<!-- Node37&#45;&gt;Node38 -->
<g id="edge64" class="edge"><title>Node37&#45;&gt;Node38</title>
<path fill="none" stroke="midnightblue" d="M930.315,-68.9912C925.649,-68.2592 921.008,-67.5845 916.5,-67 702.146,-39.2059 641.525,-82.0858 431.5,-31 428.99,-30.3895 426.429,-29.6126 423.895,-28.7366"/>
<polygon fill="midnightblue" stroke="midnightblue" points="425.007,-25.4131 414.42,-25.01 422.445,-31.9273 425.007,-25.4131"/>
</g>
<!-- Node39 -->
<g id="node40" class="node"><title>Node39</title>
<polygon fill="white" stroke="#bfbfbf" points="441,-0.5 441,-30.5 550,-30.5 550,-0.5 441,-0.5"/>
<text text-anchor="start" x="449" y="-18.5" font-family="FreeSans" font-size="10.00">boost/dynamic_bitset</text>
<text text-anchor="middle" x="495.5" y="-7.5" font-family="FreeSans" font-size="10.00">/config.hpp</text>
</g>
<!-- Node37&#45;&gt;Node39 -->
<g id="edge70" class="edge"><title>Node37&#45;&gt;Node39</title>
<path fill="none" stroke="midnightblue" d="M930.297,-69.1266C925.635,-68.3628 920.999,-67.6439 916.5,-67 761.875,-44.8707 718.653,-56.1784 560.325,-30.9923"/>
<polygon fill="midnightblue" stroke="midnightblue" points="560.657,-27.5006 550.226,-29.3617 559.541,-34.4111 560.657,-27.5006"/>
</g>
<!-- Node40 -->
<g id="node41" class="node"><title>Node40</title>
<polygon fill="white" stroke="#bfbfbf" points="568.5,-6 568.5,-25 610.5,-25 610.5,-6 568.5,-6"/>
<text text-anchor="middle" x="589.5" y="-13" font-family="FreeSans" font-size="10.00">locale</text>
</g>
<!-- Node37&#45;&gt;Node40 -->
<g id="edge71" class="edge"><title>Node37&#45;&gt;Node40</title>
<path fill="none" stroke="midnightblue" d="M930.282,-69.2296C925.623,-68.4416 920.993,-67.6892 916.5,-67 785.071,-46.8391 747.087,-68.4386 619.5,-31 617.627,-30.4503 615.726,-29.7935 613.837,-29.0674"/>
<polygon fill="midnightblue" stroke="midnightblue" points="615.244,-25.8627 604.682,-25.0345 612.422,-32.2688 615.244,-25.8627"/>
</g>
<!-- Node41 -->
<g id="node42" class="node"><title>Node41</title>
<polygon fill="white" stroke="#bfbfbf" points="629,-6 629,-25 678,-25 678,-6 629,-6"/>
<text text-anchor="middle" x="653.5" y="-13" font-family="FreeSans" font-size="10.00">istream</text>
</g>
<!-- Node37&#45;&gt;Node41 -->
<g id="edge72" class="edge"><title>Node37&#45;&gt;Node41</title>
<path fill="none" stroke="midnightblue" d="M930.253,-69.4065C925.601,-68.577 920.98,-67.7669 916.5,-67 814.516,-49.5431 785.804,-60.0538 686.5,-31 684.353,-30.3718 682.162,-29.6363 679.981,-28.8357"/>
<polygon fill="midnightblue" stroke="midnightblue" points="681.236,-25.5676 670.654,-25.0399 678.597,-32.0512 681.236,-25.5676"/>
</g>
<!-- Node37&#45;&gt;Node42 -->
<g id="edge73" class="edge"><title>Node37&#45;&gt;Node42</title>
<path fill="none" stroke="midnightblue" d="M930.137,-76.1814C893.843,-73.2712 847.658,-69.7162 806.5,-67 515.14,-47.7717 435.213,-95.8018 150.5,-31 147.827,-30.3915 145.096,-29.5967 142.397,-28.6923"/>
<polygon fill="midnightblue" stroke="midnightblue" points="143.515,-25.3727 132.924,-25.0746 141.017,-31.912 143.515,-25.3727"/>
</g>
<!-- Node43 -->
<g id="node44" class="node"><title>Node43</title>
<polygon fill="white" stroke="#bfbfbf" points="696,-0.5 696,-30.5 805,-30.5 805,-0.5 696,-0.5"/>
<text text-anchor="start" x="704" y="-18.5" font-family="FreeSans" font-size="10.00">boost/dynamic_bitset</text>
<text text-anchor="middle" x="750.5" y="-7.5" font-family="FreeSans" font-size="10.00">_fwd.hpp</text>
</g>
<!-- Node37&#45;&gt;Node43 -->
<g id="edge74" class="edge"><title>Node37&#45;&gt;Node43</title>
<path fill="none" stroke="midnightblue" d="M941.856,-67.476C904.144,-57.4297 853.192,-43.8564 813.346,-33.2418"/>
<polygon fill="midnightblue" stroke="midnightblue" points="814.034,-29.8031 803.47,-30.6109 812.232,-36.5672 814.034,-29.8031"/>
</g>
<!-- Node44 -->
<g id="node45" class="node"><title>Node44</title>
<polygon fill="white" stroke="#bfbfbf" points="823.5,-0.5 823.5,-30.5 929.5,-30.5 929.5,-0.5 823.5,-0.5"/>
<text text-anchor="start" x="831.5" y="-18.5" font-family="FreeSans" font-size="10.00">boost/detail/dynamic</text>
<text text-anchor="middle" x="876.5" y="-7.5" font-family="FreeSans" font-size="10.00">_bitset.hpp</text>
</g>
<!-- Node37&#45;&gt;Node44 -->
<g id="edge75" class="edge"><title>Node37&#45;&gt;Node44</title>
<path fill="none" stroke="midnightblue" d="M968.896,-67.396C951.964,-58.0691 929.56,-45.7282 911.055,-35.5345"/>
<polygon fill="midnightblue" stroke="midnightblue" points="912.502,-32.3358 902.054,-30.5765 909.125,-38.4671 912.502,-32.3358"/>
</g>
<!-- Node45 -->
<g id="node46" class="node"><title>Node45</title>
<polygon fill="white" stroke="#bfbfbf" points="947.5,-6 947.5,-25 1065.5,-25 1065.5,-6 947.5,-6"/>
<text text-anchor="middle" x="1006.5" y="-13" font-family="FreeSans" font-size="10.00">boost/detail/iterator.hpp</text>
</g>
<!-- Node37&#45;&gt;Node45 -->
<g id="edge76" class="edge"><title>Node37&#45;&gt;Node45</title>
<path fill="none" stroke="midnightblue" d="M997.104,-67.396C998.845,-57.9635 1001.16,-45.4484 1003.05,-35.1891"/>
<polygon fill="midnightblue" stroke="midnightblue" points="1006.52,-35.6638 1004.89,-25.1945 999.637,-34.3929 1006.52,-35.6638"/>
</g>
<!-- Node46 -->
<g id="node47" class="node"><title>Node46</title>
<polygon fill="white" stroke="#bfbfbf" points="1084,-6 1084,-25 1197,-25 1197,-6 1084,-6"/>
<text text-anchor="middle" x="1140.5" y="-13" font-family="FreeSans" font-size="10.00">boost/move/move.hpp</text>
</g>
<!-- Node37&#45;&gt;Node46 -->
<g id="edge77" class="edge"><title>Node37&#45;&gt;Node46</title>
<path fill="none" stroke="midnightblue" d="M1026.18,-67.396C1051.8,-55.991 1087.54,-40.0794 1112.2,-29.0976"/>
<polygon fill="midnightblue" stroke="midnightblue" points="1113.68,-32.2717 1121.39,-25.007 1110.83,-25.8768 1113.68,-32.2717"/>
</g>
<!-- Node47 -->
<g id="node48" class="node"><title>Node47</title>
<polygon fill="white" stroke="#bfbfbf" points="1215,-6 1215,-25 1300,-25 1300,-6 1215,-6"/>
<text text-anchor="middle" x="1257.5" y="-13" font-family="FreeSans" font-size="10.00">boost/limits.hpp</text>
</g>
<!-- Node37&#45;&gt;Node47 -->
<g id="edge78" class="edge"><title>Node37&#45;&gt;Node47</title>
<path fill="none" stroke="midnightblue" d="M1056.05,-67.4029C1098.21,-57.5902 1155.36,-43.9854 1205.5,-31 1209.53,-29.9558 1213.73,-28.8372 1217.92,-27.7015"/>
<polygon fill="midnightblue" stroke="midnightblue" points="1218.86,-31.0714 1227.58,-25.0475 1217.01,-24.3214 1218.86,-31.0714"/>
</g>
<!-- Node48 -->
<g id="node49" class="node"><title>Node48</title>
<polygon fill="white" stroke="#bfbfbf" points="1318,-0.5 1318,-30.5 1427,-30.5 1427,-0.5 1318,-0.5"/>
<text text-anchor="start" x="1326" y="-18.5" font-family="FreeSans" font-size="10.00">boost/pending/lowest</text>
<text text-anchor="middle" x="1372.5" y="-7.5" font-family="FreeSans" font-size="10.00">_bit.hpp</text>
</g>
<!-- Node37&#45;&gt;Node48 -->
<g id="edge79" class="edge"><title>Node37&#45;&gt;Node48</title>
<path fill="none" stroke="midnightblue" d="M1058.74,-69.3866C1063.4,-68.5618 1068.02,-67.7582 1072.5,-67 1173.95,-49.8375 1202.54,-50.6656 1307.67,-31.0726"/>
<polygon fill="midnightblue" stroke="midnightblue" points="1308.56,-34.4658 1317.74,-29.1767 1307.27,-27.5865 1308.56,-34.4658"/>
</g>
<!-- Node49 -->
<g id="node50" class="node"><title>Node49</title>
<polygon fill="white" stroke="#bfbfbf" points="1445.5,-6 1445.5,-25 1563.5,-25 1563.5,-6 1445.5,-6"/>
<text text-anchor="middle" x="1504.5" y="-13" font-family="FreeSans" font-size="10.00">boost/static_assert.hpp</text>
</g>
<!-- Node37&#45;&gt;Node49 -->
<g id="edge80" class="edge"><title>Node37&#45;&gt;Node49</title>
<path fill="none" stroke="midnightblue" d="M1058.7,-69.1181C1063.36,-68.3563 1068,-67.6402 1072.5,-67 1233.01,-44.1639 1275.27,-55.7069 1435.5,-31 1442.65,-29.8971 1450.18,-28.5301 1457.53,-27.08"/>
<polygon fill="midnightblue" stroke="midnightblue" points="1458.29,-30.4967 1467.39,-25.0679 1456.9,-23.6381 1458.29,-30.4967"/>
</g>
<!-- Node50 -->
<g id="node51" class="node"><title>Node50</title>
<polygon fill="white" stroke="#bfbfbf" points="1581.5,-6 1581.5,-25 1711.5,-25 1711.5,-6 1581.5,-6"/>
<text text-anchor="middle" x="1646.5" y="-13" font-family="FreeSans" font-size="10.00">boost/utility/addressof.hpp</text>
</g>
<!-- Node37&#45;&gt;Node50 -->
<g id="edge81" class="edge"><title>Node37&#45;&gt;Node50</title>
<path fill="none" stroke="midnightblue" d="M1058.68,-68.9799C1063.35,-68.2505 1067.99,-67.5795 1072.5,-67 1293.48,-38.5956 1351.66,-60.4753 1572.5,-31 1580.62,-29.9164 1589.19,-28.4965 1597.5,-26.9693"/>
<polygon fill="midnightblue" stroke="midnightblue" points="1598.31,-30.3794 1607.47,-25.0687 1597,-23.5033 1598.31,-30.3794"/>
</g>
<!-- Node51 -->
<g id="node52" class="node"><title>Node51</title>
<polygon fill="white" stroke="#bfbfbf" points="1729.5,-0.5 1729.5,-30.5 1861.5,-30.5 1861.5,-0.5 1729.5,-0.5"/>
<text text-anchor="start" x="1737.5" y="-18.5" font-family="FreeSans" font-size="10.00">boost/detail/no_exceptions</text>
<text text-anchor="middle" x="1795.5" y="-7.5" font-family="FreeSans" font-size="10.00">_support.hpp</text>
</g>
<!-- Node37&#45;&gt;Node51 -->
<g id="edge82" class="edge"><title>Node37&#45;&gt;Node51</title>
<path fill="none" stroke="midnightblue" d="M1058.67,-68.8958C1063.34,-68.1862 1067.99,-67.5425 1072.5,-67 1355.53,-32.9737 1432.45,-65.6725 1719.04,-31.0581"/>
<polygon fill="midnightblue" stroke="midnightblue" points="1719.82,-34.4883 1729.32,-29.7982 1718.97,-27.5403 1719.82,-34.4883"/>
</g>
<!-- Node52 -->
<g id="node53" class="node"><title>Node52</title>
<polygon fill="white" stroke="#bfbfbf" points="221.5,-6 221.5,-25 353.5,-25 353.5,-6 221.5,-6"/>
<text text-anchor="middle" x="287.5" y="-13" font-family="FreeSans" font-size="10.00">boost/throw_exception.hpp</text>
</g>
<!-- Node37&#45;&gt;Node52 -->
<g id="edge83" class="edge"><title>Node37&#45;&gt;Node52</title>
<path fill="none" stroke="midnightblue" d="M930.321,-68.944C925.654,-68.2231 921.01,-67.5637 916.5,-67 671.664,-36.3979 607.225,-62.4806 362.5,-31 354.086,-29.9176 345.194,-28.4708 336.588,-26.9093"/>
<polygon fill="midnightblue" stroke="midnightblue" points="337.138,-23.4514 326.663,-25.0384 335.842,-30.3303 337.138,-23.4514"/>
</g>
<!-- Node56&#45;&gt;Node8 -->
<g id="edge97" class="edge"><title>Node56&#45;&gt;Node8</title>
<path fill="none" stroke="midnightblue" d="M907.473,-146.023C790.929,-137.081 397.514,-103.115 80.5,-31 76.8434,-30.1682 73.0586,-29.1714 69.308,-28.0951"/>
<polygon fill="midnightblue" stroke="midnightblue" points="70.1572,-24.6949 59.5709,-25.1189 68.111,-31.3892 70.1572,-24.6949"/>
</g>
<!-- Node56&#45;&gt;Node24 -->
<g id="edge98" class="edge"><title>Node56&#45;&gt;Node24</title>
<path fill="none" stroke="midnightblue" d="M932.443,-139.959C911.842,-120.744 861.627,-75.1485 840.5,-67 710.08,-16.6984 348.029,-65.2291 212.5,-31 210.513,-30.4981 208.498,-29.8681 206.499,-29.1536"/>
<polygon fill="midnightblue" stroke="midnightblue" points="207.416,-25.7416 196.841,-25.08 204.695,-32.1913 207.416,-25.7416"/>
</g>
<!-- Node56&#45;&gt;Node37 -->
<g id="edge96" class="edge"><title>Node56&#45;&gt;Node37</title>
<path fill="none" stroke="midnightblue" d="M948.648,-139.734C955.742,-131.034 966.904,-117.345 976.438,-105.651"/>
<polygon fill="midnightblue" stroke="midnightblue" points="979.405,-107.551 983.012,-97.589 973.98,-103.127 979.405,-107.551"/>
</g>
<!-- Node57&#45;&gt;Node8 -->
<g id="edge100" class="edge"><title>Node57&#45;&gt;Node8</title>
<path fill="none" stroke="midnightblue" d="M761.597,-72.9195C756.258,-70.5871 750.25,-68.3381 744.5,-67 456.647,-0.0139911 371.113,-84.766 80.5,-31 76.3232,-30.2273 71.9962,-29.1744 67.7504,-27.9863"/>
<polygon fill="midnightblue" stroke="midnightblue" points="68.6861,-24.6125 58.0997,-25.0366 66.6399,-31.3068 68.6861,-24.6125"/>
</g>
<!-- Node57&#45;&gt;Node24 -->
<g id="edge101" class="edge"><title>Node57&#45;&gt;Node24</title>
<path fill="none" stroke="midnightblue" d="M761.586,-72.9669C756.247,-70.6365 750.241,-68.3766 744.5,-67 514.047,-11.7411 441.968,-90.2136 212.5,-31 210.515,-30.4878 208.502,-29.8503 206.505,-29.1306"/>
<polygon fill="midnightblue" stroke="midnightblue" points="207.424,-25.719 196.85,-25.0464 204.696,-32.1659 207.424,-25.719"/>
</g>
<!-- Node59 -->
<g id="node60" class="node"><title>Node59</title>
<g id="a_node60"><a xlink:href="TaggedData_8ipp.html" target="_top" xlink:title="TaggedData.ipp">
<polygon fill="white" stroke="black" points="1531.5,-73 1531.5,-92 1615.5,-92 1615.5,-73 1531.5,-73"/>
<text text-anchor="middle" x="1573.5" y="-80" font-family="FreeSans" font-size="10.00">TaggedData.ipp</text>
</a>
</g>
</g>
<!-- Node58&#45;&gt;Node59 -->
<g id="edge104" class="edge"><title>Node58&#45;&gt;Node59</title>
<path fill="none" stroke="midnightblue" d="M1564.89,-134.396C1566.48,-124.963 1568.6,-112.448 1570.34,-102.189"/>
<polygon fill="midnightblue" stroke="midnightblue" points="1573.81,-102.638 1572.03,-92.1945 1566.91,-101.47 1573.81,-102.638"/>
</g>
<!-- Node59&#45;&gt;Node1 -->
<g id="edge105" class="edge"><title>Node59&#45;&gt;Node1</title>
<path fill="none" stroke="midnightblue" d="M1608.28,-72.954C1618.3,-70.7368 1629.29,-68.5417 1639.5,-67 1829.13,-38.361 1879.56,-57.4786 2069.5,-31 2077.52,-29.882 2085.98,-28.4578 2094.21,-26.9407"/>
<polygon fill="midnightblue" stroke="midnightblue" points="2094.91,-30.3699 2104.08,-25.0583 2093.6,-23.4939 2094.91,-30.3699"/>
</g>
<!-- Node62 -->
<g id="node63" class="node"><title>Node62</title>
<g id="a_node63"><a xlink:href="BoostRange_8ipp.html" target="_top" xlink:title="BoostRange.ipp">
<polygon fill="white" stroke="black" points="3332,-73 3332,-92 3417,-92 3417,-73 3332,-73"/>
<text text-anchor="middle" x="3374.5" y="-80" font-family="FreeSans" font-size="10.00">BoostRange.ipp</text>
</a>
</g>
</g>
<!-- Node61&#45;&gt;Node62 -->
<g id="edge109" class="edge"><title>Node61&#45;&gt;Node62</title>
<path fill="none" stroke="midnightblue" d="M3378.31,-257.198C3377.69,-229.193 3375.78,-141.713 3374.92,-102.66"/>
<polygon fill="midnightblue" stroke="midnightblue" points="3378.41,-102.135 3374.69,-92.214 3371.41,-102.288 3378.41,-102.135"/>
</g>
<!-- Node62&#45;&gt;Node1 -->
<g id="edge110" class="edge"><title>Node62&#45;&gt;Node1</title>
<path fill="none" stroke="midnightblue" d="M3331.93,-80.5142C3150.23,-76.1728 2438.89,-57.7774 2216.5,-31 2208.11,-29.9897 2199.24,-28.5491 2190.69,-26.9641"/>
<polygon fill="midnightblue" stroke="midnightblue" points="2191.32,-23.5218 2180.84,-25.0542 2189.99,-30.3938 2191.32,-23.5218"/>
</g>
<!-- Node62&#45;&gt;Node2 -->
<g id="edge114" class="edge"><title>Node62&#45;&gt;Node2</title>
<path fill="none" stroke="midnightblue" d="M3405.72,-72.9283C3414.06,-70.8129 3423.09,-68.6757 3431.5,-67 3540.73,-45.2409 3569.71,-49.714 3679.5,-31 3686.69,-29.775 3694.25,-28.3969 3701.68,-26.9902"/>
<polygon fill="midnightblue" stroke="midnightblue" points="3702.53,-30.3909 3711.69,-25.0659 3701.21,-23.5167 3702.53,-30.3909"/>
</g>
<!-- Node62&#45;&gt;Node3 -->
<g id="edge113" class="edge"><title>Node62&#45;&gt;Node3</title>
<path fill="none" stroke="midnightblue" d="M3342.65,-72.9311C3334.48,-70.8624 3325.69,-68.7469 3317.5,-67 3316.07,-66.6954 3169.7,-41.4059 3084.77,-26.7355"/>
<polygon fill="midnightblue" stroke="midnightblue" points="3085.18,-23.2546 3074.73,-25.0015 3083.99,-30.1525 3085.18,-23.2546"/>
</g>
<!-- Node62&#45;&gt;Node10 -->
<g id="edge117" class="edge"><title>Node62&#45;&gt;Node10</title>
<path fill="none" stroke="midnightblue" d="M3331.98,-77.8051C3238.01,-69.4338 3015.16,-48.3966 2941.5,-31 2938.44,-30.2763 2935.28,-29.3916 2932.16,-28.4195"/>
<polygon fill="midnightblue" stroke="midnightblue" points="2932.99,-25.0068 2922.4,-25.1074 2930.74,-31.6355 2932.99,-25.0068"/>
</g>
<!-- Node62&#45;&gt;Node31 -->
<g id="edge112" class="edge"><title>Node62&#45;&gt;Node31</title>
<path fill="none" stroke="midnightblue" d="M3356.84,-72.8685C3337.14,-63.2417 3304.7,-47.3878 3279.23,-34.9415"/>
<polygon fill="midnightblue" stroke="midnightblue" points="3280.72,-31.7745 3270.2,-30.5281 3277.65,-38.0636 3280.72,-31.7745"/>
</g>
<!-- Node62&#45;&gt;Node60 -->
<g id="edge118" class="edge"><title>Node62&#45;&gt;Node60</title>
<path fill="none" stroke="midnightblue" d="M3340.88,-72.9503C3289.71,-59.9024 3196.63,-36.0028 3181.5,-31 3179.37,-30.2952 3177.18,-29.5283 3174.99,-28.7274"/>
<polygon fill="midnightblue" stroke="midnightblue" points="3176.11,-25.4056 3165.52,-25.0855 3173.59,-31.9397 3176.11,-25.4056"/>
</g>
<!-- Node63 -->
<g id="node64" class="node"><title>Node63</title>
<polygon fill="white" stroke="#bfbfbf" points="3457,-6 3457,-25 3564,-25 3564,-6 3457,-6"/>
<text text-anchor="middle" x="3510.5" y="-13" font-family="FreeSans" font-size="10.00">boost/tuple/tuple.hpp</text>
</g>
<!-- Node62&#45;&gt;Node63 -->
<g id="edge111" class="edge"><title>Node62&#45;&gt;Node63</title>
<path fill="none" stroke="midnightblue" d="M3392.56,-72.8685C3415.73,-61.7961 3456.13,-42.4862 3483.1,-29.5978"/>
<polygon fill="midnightblue" stroke="midnightblue" points="3484.85,-32.6373 3492.37,-25.1672 3481.83,-26.3216 3484.85,-32.6373"/>
</g>
<!-- Node64 -->
<g id="node65" class="node"><title>Node64</title>
<polygon fill="white" stroke="#bfbfbf" points="3582,-0.5 3582,-30.5 3671,-30.5 3671,-0.5 3582,-0.5"/>
<text text-anchor="start" x="3590" y="-18.5" font-family="FreeSans" font-size="10.00">boost/iterator/zip</text>
<text text-anchor="middle" x="3626.5" y="-7.5" font-family="FreeSans" font-size="10.00">_iterator.hpp</text>
</g>
<!-- Node62&#45;&gt;Node64 -->
<g id="edge115" class="edge"><title>Node62&#45;&gt;Node64</title>
<path fill="none" stroke="midnightblue" d="M3408.08,-72.9601C3454.99,-61.0265 3537.51,-40.0202 3571.99,-31.101"/>
<polygon fill="midnightblue" stroke="midnightblue" points="3572.93,-34.4749 3581.72,-28.5702 3571.16,-27.7003 3572.93,-34.4749"/>
</g>
<!-- Node65 -->
<g id="node66" class="node"><title>Node65</title>
<polygon fill="white" stroke="#bfbfbf" points="3310.5,-0.5 3310.5,-30.5 3438.5,-30.5 3438.5,-0.5 3310.5,-0.5"/>
<text text-anchor="start" x="3318.5" y="-18.5" font-family="FreeSans" font-size="10.00">boost/iterator/permutation</text>
<text text-anchor="middle" x="3374.5" y="-7.5" font-family="FreeSans" font-size="10.00">_iterator.hpp</text>
</g>
<!-- Node62&#45;&gt;Node65 -->
<g id="edge116" class="edge"><title>Node62&#45;&gt;Node65</title>
<path fill="none" stroke="midnightblue" d="M3374.5,-72.7338C3374.5,-64.5406 3374.5,-51.9225 3374.5,-40.7136"/>
<polygon fill="midnightblue" stroke="midnightblue" points="3378,-40.589 3374.5,-30.589 3371,-40.5891 3378,-40.589"/>
</g>
</g>
</svg>
        <g id="navigator" transform="translate(0 0)" fill="#404254">
                <rect fill="#f2f5e9" fill-opacity="0.5" stroke="#606060" stroke-width=".5" x="0" y="0" width="60" height="60"/>
                <use id="zoomplus" xlink:href="#zoomPlus" x="17" y="9" onmousedown="handleZoom(evt,'in')"/>
                <use id="zoomminus" xlink:href="#zoomMin" x="42" y="9" onmousedown="handleZoom(evt,'out')"/>
                <use id="reset" xlink:href="#resetDef" x="30" y="36" onmousedown="handleReset()"/>
                <g id="arrowUp" xlink:href="#dirArrow" transform="translate(30 24)" onmousedown="handlePan(0,-1)">
                  <use xlink:href="#rim" fill="#404040">
                        <set attributeName="fill" to="#808080" begin="arrowUp.mouseover" end="arrowUp.mouseout"/>
                  </use>
                  <path fill="none" stroke="white" stroke-width="1.5" d="M0,-3.0v7 M-2.5,-0.5L0,-3.0L2.5,-0.5"/>
                </g>
                <g id="arrowRight" xlink:href="#dirArrow" transform="rotate(90) translate(36 -43)" onmousedown="handlePan(1,0)">
                  <use xlink:href="#rim" fill="#404040">
                        <set attributeName="fill" to="#808080" begin="arrowRight.mouseover" end="arrowRight.mouseout"/>
                  </use>
                  <path fill="none" stroke="white" stroke-width="1.5" d="M0,-3.0v7 M-2.5,-0.5L0,-3.0L2.5,-0.5"/>
                </g>
                <g id="arrowDown" xlink:href="#dirArrow" transform="rotate(180) translate(-30 -48)" onmousedown="handlePan(0,1)">
                  <use xlink:href="#rim" fill="#404040">
                        <set attributeName="fill" to="#808080" begin="arrowDown.mouseover" end="arrowDown.mouseout"/>
                  </use>
                  <path fill="none" stroke="white" stroke-width="1.5" d="M0,-3.0v7 M-2.5,-0.5L0,-3.0L2.5,-0.5"/>
                </g>
                <g id="arrowLeft" xlink:href="#dirArrow" transform="rotate(270) translate(-36 17)" onmousedown="handlePan(-1,0)">
                  <use xlink:href="#rim" fill="#404040">
                        <set attributeName="fill" to="#808080" begin="arrowLeft.mouseover" end="arrowLeft.mouseout"/>
                  </use>
                  <path fill="none" stroke="white" stroke-width="1.5" d="M0,-3.0v7 M-2.5,-0.5L0,-3.0L2.5,-0.5"/>
                </g>
        </g>
        <svg viewBox="0 0 15 15" width="100%" height="30px" preserveAspectRatio="xMaxYMin meet">
         <g id="arrow_out" transform="scale(0.3 0.3)">
          <a xlink:href="HistogramMatching_8ipp__incl_org.svg" target="_base">
           <rect id="button" ry="5" rx="5" y="6" x="6" height="38" width="38"
                fill="#f2f5e9" fill-opacity="0.5" stroke="#606060" stroke-width="1.0"/>
           <path id="arrow"
             d="M 11.500037,31.436501 C 11.940474,20.09759 22.043105,11.32322 32.158766,21.979434 L 37.068811,17.246167 C 37.068811,17.246167 37.088388,32 37.088388,32 L 22.160133,31.978069 C 22.160133,31.978069 26.997745,27.140456 26.997745,27.140456 C 18.528582,18.264221 13.291696,25.230495 11.500037,31.436501 z"
             style="fill:#404040;"/>
          </a>
         </g>
        </svg>
</svg>
