<?xml version="1.0" encoding="UTF-8" standalone="no"?>
<!DOCTYPE svg PUBLIC "-//W3C//DTD SVG 1.1//EN"
 "http://www.w3.org/Graphics/SVG/1.1/DTD/svg11.dtd">
<!-- Generated by graphviz version 2.38.0 (20140413.2041)
 -->
<!-- Title: src/GeometryEstimationComponents/Homography3DComponents.h Pages: 1 -->
<svg width="620pt" height="508pt"
 viewBox="0.00 0.00 620.00 508.00" xmlns="http://www.w3.org/2000/svg" xmlns:xlink="http://www.w3.org/1999/xlink">
<g id="graph0" class="graph" transform="scale(1 1) rotate(0) translate(4 504)">
<title>src/GeometryEstimationComponents/Homography3DComponents.h</title>
<polygon fill="white" stroke="none" points="-4,4 -4,-504 616,-504 616,4 -4,4"/>
<!-- Node208 -->
<g id="node1" class="node"><title>Node208</title>
<polygon fill="#bfbfbf" stroke="black" points="267,-469.5 267,-499.5 443,-499.5 443,-469.5 267,-469.5"/>
<text text-anchor="start" x="275" y="-487.5" font-family="FreeSans" font-size="10.00">src/GeometryEstimationComponents</text>
<text text-anchor="middle" x="355" y="-476.5" font-family="FreeSans" font-size="10.00">/Homography3DComponents.h</text>
</g>
<!-- Node209 -->
<g id="node2" class="node"><title>Node209</title>
<g id="a_node2"><a xlink:href="AppGeometryEstimator33_8cpp.html" target="_top" xlink:title="src/Application/AppGeometry\lEstimator33.cpp">
<polygon fill="white" stroke="black" points="63.5,-402.5 63.5,-432.5 206.5,-432.5 206.5,-402.5 63.5,-402.5"/>
<text text-anchor="start" x="71.5" y="-420.5" font-family="FreeSans" font-size="10.00">src/Application/AppGeometry</text>
<text text-anchor="middle" x="135" y="-409.5" font-family="FreeSans" font-size="10.00">Estimator33.cpp</text>
</a>
</g>
</g>
<!-- Node208&#45;&gt;Node209 -->
<g id="edge1" class="edge"><title>Node208&#45;&gt;Node209</title>
<path fill="none" stroke="midnightblue" d="M297.731,-466.58C261.999,-456.022 216.543,-442.592 182.76,-432.611"/>
<polygon fill="midnightblue" stroke="midnightblue" points="296.952,-469.999 307.534,-469.476 298.936,-463.286 296.952,-469.999"/>
</g>
<!-- Node210 -->
<g id="node3" class="node"><title>Node210</title>
<g id="a_node3"><a xlink:href="PoseGraphPipeline_8ipp.html" target="_top" xlink:title="src/GeometryEstimationPipeline\l/PoseGraphPipeline.ipp">
<polygon fill="white" stroke="black" points="224.5,-402.5 224.5,-432.5 379.5,-432.5 379.5,-402.5 224.5,-402.5"/>
<text text-anchor="start" x="232.5" y="-420.5" font-family="FreeSans" font-size="10.00">src/GeometryEstimationPipeline</text>
<text text-anchor="middle" x="302" y="-409.5" font-family="FreeSans" font-size="10.00">/PoseGraphPipeline.ipp</text>
</a>
</g>
</g>
<!-- Node208&#45;&gt;Node210 -->
<g id="edge2" class="edge"><title>Node208&#45;&gt;Node210</title>
<path fill="none" stroke="midnightblue" d="M337.019,-461.447C329.233,-451.899 320.349,-441.004 313.478,-432.577"/>
<polygon fill="midnightblue" stroke="midnightblue" points="334.468,-463.858 343.5,-469.396 339.893,-459.434 334.468,-463.858"/>
</g>
<!-- Node218 -->
<g id="node11" class="node"><title>Node218</title>
<g id="a_node11"><a xlink:href="SfMPipeline_8ipp.html" target="_top" xlink:title="src/GeometryEstimationPipeline\l/SfMPipeline.ipp">
<polygon fill="white" stroke="black" points="347.5,-268.5 347.5,-298.5 502.5,-298.5 502.5,-268.5 347.5,-268.5"/>
<text text-anchor="start" x="355.5" y="-286.5" font-family="FreeSans" font-size="10.00">src/GeometryEstimationPipeline</text>
<text text-anchor="middle" x="425" y="-275.5" font-family="FreeSans" font-size="10.00">/SfMPipeline.ipp</text>
</a>
</g>
</g>
<!-- Node208&#45;&gt;Node218 -->
<g id="edge15" class="edge"><title>Node208&#45;&gt;Node218</title>
<path fill="none" stroke="midnightblue" d="M372.575,-461.106C378.501,-452.677 384.697,-442.762 389,-433 409.652,-386.151 419.626,-325.538 423.285,-298.542"/>
<polygon fill="midnightblue" stroke="midnightblue" points="369.67,-459.148 366.586,-469.284 375.318,-463.284 369.67,-459.148"/>
</g>
<!-- Node222 -->
<g id="node15" class="node"><title>Node222</title>
<g id="a_node15"><a xlink:href="Homography3DComponents_8cpp.html" target="_top" xlink:title="src/GeometryEstimationComponents\l/Homography3DComponents.cpp">
<polygon fill="white" stroke="black" points="436,-402.5 436,-432.5 612,-432.5 612,-402.5 436,-402.5"/>
<text text-anchor="start" x="444" y="-420.5" font-family="FreeSans" font-size="10.00">src/GeometryEstimationComponents</text>
<text text-anchor="middle" x="524" y="-409.5" font-family="FreeSans" font-size="10.00">/Homography3DComponents.cpp</text>
</a>
</g>
</g>
<!-- Node208&#45;&gt;Node222 -->
<g id="edge16" class="edge"><title>Node208&#45;&gt;Node222</title>
<path fill="none" stroke="midnightblue" d="M401.328,-465.682C428.432,-455.257 462.171,-442.281 487.401,-432.577"/>
<polygon fill="midnightblue" stroke="midnightblue" points="399.747,-462.539 391.67,-469.396 402.26,-469.073 399.747,-462.539"/>
</g>
<!-- Node211 -->
<g id="node4" class="node"><title>Node211</title>
<g id="a_node4"><a xlink:href="PoseGraphPipeline_8h.html" target="_top" xlink:title="src/GeometryEstimationPipeline\l/PoseGraphPipeline.h">
<polygon fill="white" stroke="black" points="191.5,-335.5 191.5,-365.5 346.5,-365.5 346.5,-335.5 191.5,-335.5"/>
<text text-anchor="start" x="199.5" y="-353.5" font-family="FreeSans" font-size="10.00">src/GeometryEstimationPipeline</text>
<text text-anchor="middle" x="269" y="-342.5" font-family="FreeSans" font-size="10.00">/PoseGraphPipeline.h</text>
</a>
</g>
</g>
<!-- Node210&#45;&gt;Node211 -->
<g id="edge3" class="edge"><title>Node210&#45;&gt;Node211</title>
<path fill="none" stroke="midnightblue" d="M290.213,-393.283C285.511,-384.022 280.252,-373.663 276.147,-365.577"/>
<polygon fill="midnightblue" stroke="midnightblue" points="287.192,-395.064 294.839,-402.396 293.433,-391.895 287.192,-395.064"/>
</g>
<!-- Node212 -->
<g id="node5" class="node"><title>Node212</title>
<g id="a_node5"><a xlink:href="InterfacePoseGraphPipeline_8ipp.html" target="_top" xlink:title="src/ApplicationInterface\l/InterfacePoseGraphPipeline.ipp">
<polygon fill="white" stroke="black" points="0,-268.5 0,-298.5 156,-298.5 156,-268.5 0,-268.5"/>
<text text-anchor="start" x="8" y="-286.5" font-family="FreeSans" font-size="10.00">src/ApplicationInterface</text>
<text text-anchor="middle" x="78" y="-275.5" font-family="FreeSans" font-size="10.00">/InterfacePoseGraphPipeline.ipp</text>
</a>
</g>
</g>
<!-- Node211&#45;&gt;Node212 -->
<g id="edge4" class="edge"><title>Node211&#45;&gt;Node212</title>
<path fill="none" stroke="midnightblue" d="M217.846,-332.092C187.013,-321.599 148.253,-308.408 119.363,-298.577"/>
<polygon fill="midnightblue" stroke="midnightblue" points="216.961,-335.488 227.556,-335.396 219.217,-328.861 216.961,-335.488"/>
</g>
<!-- Node211&#45;&gt;Node218 -->
<g id="edge10" class="edge"><title>Node211&#45;&gt;Node218</title>
<path fill="none" stroke="midnightblue" d="M312.094,-331.544C337.057,-321.143 368.029,-308.238 391.216,-298.577"/>
<polygon fill="midnightblue" stroke="midnightblue" points="310.734,-328.319 302.85,-335.396 313.427,-334.781 310.734,-328.319"/>
</g>
<!-- Node221 -->
<g id="node14" class="node"><title>Node221</title>
<g id="a_node14"><a xlink:href="PoseGraphPipeline_8cpp.html" target="_top" xlink:title="src/GeometryEstimationPipeline\l/PoseGraphPipeline.cpp">
<polygon fill="white" stroke="black" points="174.5,-268.5 174.5,-298.5 329.5,-298.5 329.5,-268.5 174.5,-268.5"/>
<text text-anchor="start" x="182.5" y="-286.5" font-family="FreeSans" font-size="10.00">src/GeometryEstimationPipeline</text>
<text text-anchor="middle" x="252" y="-275.5" font-family="FreeSans" font-size="10.00">/PoseGraphPipeline.cpp</text>
</a>
</g>
</g>
<!-- Node211&#45;&gt;Node221 -->
<g id="edge14" class="edge"><title>Node211&#45;&gt;Node221</title>
<path fill="none" stroke="midnightblue" d="M262.775,-325.697C260.392,-316.587 257.752,-306.493 255.682,-298.577"/>
<polygon fill="midnightblue" stroke="midnightblue" points="259.395,-326.607 265.311,-335.396 266.167,-324.836 259.395,-326.607"/>
</g>
<!-- Node213 -->
<g id="node6" class="node"><title>Node213</title>
<g id="a_node6"><a xlink:href="InterfacePoseGraphPipeline_8h.html" target="_top" xlink:title="src/ApplicationInterface\l/InterfacePoseGraphPipeline.h">
<polygon fill="white" stroke="black" points="17.5,-201.5 17.5,-231.5 166.5,-231.5 166.5,-201.5 17.5,-201.5"/>
<text text-anchor="start" x="25.5" y="-219.5" font-family="FreeSans" font-size="10.00">src/ApplicationInterface</text>
<text text-anchor="middle" x="92" y="-208.5" font-family="FreeSans" font-size="10.00">/InterfacePoseGraphPipeline.h</text>
</a>
</g>
</g>
<!-- Node212&#45;&gt;Node213 -->
<g id="edge5" class="edge"><title>Node212&#45;&gt;Node213</title>
<path fill="none" stroke="midnightblue" d="M83.1901,-258.403C85.1356,-249.37 87.2814,-239.408 88.9681,-231.577"/>
<polygon fill="midnightblue" stroke="midnightblue" points="79.7219,-257.883 81.0378,-268.396 86.565,-259.357 79.7219,-257.883"/>
</g>
<!-- Node214 -->
<g id="node7" class="node"><title>Node214</title>
<g id="a_node7"><a xlink:href="InterfacePoseGraphPipeline_8cpp.html" target="_top" xlink:title="src/ApplicationInterface\l/InterfacePoseGraphPipeline.cpp">
<polygon fill="white" stroke="black" points="12.5,-134.5 12.5,-164.5 171.5,-164.5 171.5,-134.5 12.5,-134.5"/>
<text text-anchor="start" x="20.5" y="-152.5" font-family="FreeSans" font-size="10.00">src/ApplicationInterface</text>
<text text-anchor="middle" x="92" y="-141.5" font-family="FreeSans" font-size="10.00">/InterfacePoseGraphPipeline.cpp</text>
</a>
</g>
</g>
<!-- Node213&#45;&gt;Node214 -->
<g id="edge6" class="edge"><title>Node213&#45;&gt;Node214</title>
<path fill="none" stroke="midnightblue" d="M92,-191.108C92,-182.154 92,-172.323 92,-164.577"/>
<polygon fill="midnightblue" stroke="midnightblue" points="88.5001,-191.396 92,-201.396 95.5001,-191.396 88.5001,-191.396"/>
</g>
<!-- Node215 -->
<g id="node8" class="node"><title>Node215</title>
<g id="a_node8"><a xlink:href="InterfaceSfMPipeline_8ipp.html" target="_top" xlink:title="src/ApplicationInterface\l/InterfaceSfMPipeline.ipp">
<polygon fill="white" stroke="black" points="196.5,-134.5 196.5,-164.5 321.5,-164.5 321.5,-134.5 196.5,-134.5"/>
<text text-anchor="start" x="204.5" y="-152.5" font-family="FreeSans" font-size="10.00">src/ApplicationInterface</text>
<text text-anchor="middle" x="259" y="-141.5" font-family="FreeSans" font-size="10.00">/InterfaceSfMPipeline.ipp</text>
</a>
</g>
</g>
<!-- Node213&#45;&gt;Node215 -->
<g id="edge7" class="edge"><title>Node213&#45;&gt;Node215</title>
<path fill="none" stroke="midnightblue" d="M137.78,-197.682C164.563,-187.257 197.902,-174.281 222.834,-164.577"/>
<polygon fill="midnightblue" stroke="midnightblue" points="136.286,-194.507 128.237,-201.396 138.825,-201.03 136.286,-194.507"/>
</g>
<!-- Node216 -->
<g id="node9" class="node"><title>Node216</title>
<g id="a_node9"><a xlink:href="InterfaceSfMPipeline_8h.html" target="_top" xlink:title="src/ApplicationInterface\l/InterfaceSfMPipeline.h">
<polygon fill="white" stroke="black" points="199.5,-67.5 199.5,-97.5 318.5,-97.5 318.5,-67.5 199.5,-67.5"/>
<text text-anchor="start" x="207.5" y="-85.5" font-family="FreeSans" font-size="10.00">src/ApplicationInterface</text>
<text text-anchor="middle" x="259" y="-74.5" font-family="FreeSans" font-size="10.00">/InterfaceSfMPipeline.h</text>
</a>
</g>
</g>
<!-- Node215&#45;&gt;Node216 -->
<g id="edge8" class="edge"><title>Node215&#45;&gt;Node216</title>
<path fill="none" stroke="midnightblue" d="M259,-124.108C259,-115.154 259,-105.323 259,-97.5765"/>
<polygon fill="midnightblue" stroke="midnightblue" points="255.5,-124.396 259,-134.396 262.5,-124.396 255.5,-124.396"/>
</g>
<!-- Node217 -->
<g id="node10" class="node"><title>Node217</title>
<g id="a_node10"><a xlink:href="InterfaceSfMPipeline_8cpp.html" target="_top" xlink:title="src/ApplicationInterface\l/InterfaceSfMPipeline.cpp">
<polygon fill="white" stroke="black" points="195,-0.5 195,-30.5 323,-30.5 323,-0.5 195,-0.5"/>
<text text-anchor="start" x="203" y="-18.5" font-family="FreeSans" font-size="10.00">src/ApplicationInterface</text>
<text text-anchor="middle" x="259" y="-7.5" font-family="FreeSans" font-size="10.00">/InterfaceSfMPipeline.cpp</text>
</a>
</g>
</g>
<!-- Node216&#45;&gt;Node217 -->
<g id="edge9" class="edge"><title>Node216&#45;&gt;Node217</title>
<path fill="none" stroke="midnightblue" d="M259,-57.1081C259,-48.1539 259,-38.3227 259,-30.5765"/>
<polygon fill="midnightblue" stroke="midnightblue" points="255.5,-57.3959 259,-67.396 262.5,-57.396 255.5,-57.3959"/>
</g>
<!-- Node219 -->
<g id="node12" class="node"><title>Node219</title>
<g id="a_node12"><a xlink:href="SfMPipeline_8h.html" target="_top" xlink:title="src/GeometryEstimationPipeline\l/SfMPipeline.h">
<polygon fill="white" stroke="black" points="343.5,-201.5 343.5,-231.5 498.5,-231.5 498.5,-201.5 343.5,-201.5"/>
<text text-anchor="start" x="351.5" y="-219.5" font-family="FreeSans" font-size="10.00">src/GeometryEstimationPipeline</text>
<text text-anchor="middle" x="421" y="-208.5" font-family="FreeSans" font-size="10.00">/SfMPipeline.h</text>
</a>
</g>
</g>
<!-- Node218&#45;&gt;Node219 -->
<g id="edge11" class="edge"><title>Node218&#45;&gt;Node219</title>
<path fill="none" stroke="midnightblue" d="M423.517,-258.403C422.961,-249.37 422.348,-239.408 421.866,-231.577"/>
<polygon fill="midnightblue" stroke="midnightblue" points="420.024,-258.63 424.132,-268.396 427.011,-258.2 420.024,-258.63"/>
</g>
<!-- Node219&#45;&gt;Node215 -->
<g id="edge12" class="edge"><title>Node219&#45;&gt;Node215</title>
<path fill="none" stroke="midnightblue" d="M376.249,-197.544C350.326,-187.143 318.162,-174.238 294.083,-164.577"/>
<polygon fill="midnightblue" stroke="midnightblue" points="375.264,-200.92 385.848,-201.396 377.871,-194.424 375.264,-200.92"/>
</g>
<!-- Node220 -->
<g id="node13" class="node"><title>Node220</title>
<g id="a_node13"><a xlink:href="SfMPipeline_8cpp.html" target="_top" xlink:title="src/GeometryEstimationPipeline\l/SfMPipeline.cpp">
<polygon fill="white" stroke="black" points="343.5,-134.5 343.5,-164.5 498.5,-164.5 498.5,-134.5 343.5,-134.5"/>
<text text-anchor="start" x="351.5" y="-152.5" font-family="FreeSans" font-size="10.00">src/GeometryEstimationPipeline</text>
<text text-anchor="middle" x="421" y="-141.5" font-family="FreeSans" font-size="10.00">/SfMPipeline.cpp</text>
</a>
</g>
</g>
<!-- Node219&#45;&gt;Node220 -->
<g id="edge13" class="edge"><title>Node219&#45;&gt;Node220</title>
<path fill="none" stroke="midnightblue" d="M421,-191.108C421,-182.154 421,-172.323 421,-164.577"/>
<polygon fill="midnightblue" stroke="midnightblue" points="417.5,-191.396 421,-201.396 424.5,-191.396 417.5,-191.396"/>
</g>
</g>
</svg>
