<?xml version="1.0" encoding="UTF-8" standalone="no"?>
<!DOCTYPE svg PUBLIC "-//W3C//DTD SVG 1.1//EN"
 "http://www.w3.org/Graphics/SVG/1.1/DTD/svg11.dtd">
<!-- Generated by graphviz version 2.38.0 (20140413.2041)
 -->
<!-- Title: Graphical Class Hierarchy Pages: 1 -->
<svg width="314pt" height="72pt"
 viewBox="0.00 0.00 314.00 72.00" xmlns="http://www.w3.org/2000/svg" xmlns:xlink="http://www.w3.org/1999/xlink">
<g id="graph0" class="graph" transform="scale(1 1) rotate(0) translate(4 68)">
<title>Graphical Class Hierarchy</title>
<polygon fill="white" stroke="none" points="-4,4 -4,-68 310,-68 310,4 -4,4"/>
<!-- Node0 -->
<g id="node1" class="node"><title>Node0</title>
<g id="a_node1"><a xlink:href="classSeeSawN_1_1GeometryN_1_1GeometrySolverBaseC.html" target="_top" xlink:title="SeeSawN::GeometryN\l::GeometrySolverBaseC\l\&lt; P2PfSolverC, CameraMatrixT,\l TransferErrorH32DT, 3, 2,\l 2, false, 2, 12, 4 \&gt;">
<polygon fill="white" stroke="black" points="0,-0.5 0,-63.5 155,-63.5 155,-0.5 0,-0.5"/>
<text text-anchor="start" x="8" y="-51.5" font-family="FreeSans" font-size="10.00">SeeSawN::GeometryN</text>
<text text-anchor="start" x="8" y="-40.5" font-family="FreeSans" font-size="10.00">::GeometrySolverBaseC</text>
<text text-anchor="start" x="8" y="-29.5" font-family="FreeSans" font-size="10.00">&lt; P2PfSolverC, CameraMatrixT,</text>
<text text-anchor="start" x="8" y="-18.5" font-family="FreeSans" font-size="10.00"> TransferErrorH32DT, 3, 2,</text>
<text text-anchor="middle" x="77.5" y="-7.5" font-family="FreeSans" font-size="10.00"> 2, false, 2, 12, 4 &gt;</text>
</a>
</g>
</g>
<!-- Node1 -->
<g id="node2" class="node"><title>Node1</title>
<g id="a_node2"><a xlink:href="classSeeSawN_1_1GeometryN_1_1P2PfSolverC.html" target="_top" xlink:title="2&#45;point orientation and focal length solver ">
<polygon fill="white" stroke="black" points="191,-17 191,-47 306,-47 306,-17 191,-17"/>
<text text-anchor="start" x="199" y="-35" font-family="FreeSans" font-size="10.00">SeeSawN::GeometryN</text>
<text text-anchor="middle" x="248.5" y="-24" font-family="FreeSans" font-size="10.00">::P2PfSolverC</text>
</a>
</g>
</g>
<!-- Node0&#45;&gt;Node1 -->
<g id="edge1" class="edge"><title>Node0&#45;&gt;Node1</title>
<path fill="none" stroke="midnightblue" d="M165.287,-32C173.98,-32 182.642,-32 190.902,-32"/>
<polygon fill="midnightblue" stroke="midnightblue" points="165.088,-28.5001 155.088,-32 165.088,-35.5001 165.088,-28.5001"/>
</g>
</g>
</svg>
