<?xml version="1.0" encoding="UTF-8" standalone="no"?>
<!DOCTYPE svg PUBLIC "-//W3C//DTD SVG 1.1//EN"
 "http://www.w3.org/Graphics/SVG/1.1/DTD/svg11.dtd">
<!-- Generated by graphviz version 2.38.0 (20140413.2041)
 -->
<!-- Title: Graphical Class Hierarchy Pages: 1 -->
<svg width="328pt" height="72pt"
 viewBox="0.00 0.00 328.00 72.00" xmlns="http://www.w3.org/2000/svg" xmlns:xlink="http://www.w3.org/1999/xlink">
<g id="graph0" class="graph" transform="scale(1 1) rotate(0) translate(4 68)">
<title>Graphical Class Hierarchy</title>
<polygon fill="white" stroke="none" points="-4,4 -4,-68 324,-68 324,4 -4,4"/>
<!-- Node0 -->
<g id="node1" class="node"><title>Node0</title>
<g id="a_node1"><a xlink:href="classSeeSawN_1_1GeometryN_1_1GeometrySolverBaseC.html" target="_top" xlink:title="SeeSawN::GeometryN\l::GeometrySolverBaseC\l\&lt; Fundamental8SolverC,\l EpipolarMatrixT, EpipolarSampson\lErrorC, 2, 2, 8, true, 1, 9, 7 \&gt;">
<polygon fill="white" stroke="black" points="0,-0.5 0,-63.5 167,-63.5 167,-0.5 0,-0.5"/>
<text text-anchor="start" x="8" y="-51.5" font-family="FreeSans" font-size="10.00">SeeSawN::GeometryN</text>
<text text-anchor="start" x="8" y="-40.5" font-family="FreeSans" font-size="10.00">::GeometrySolverBaseC</text>
<text text-anchor="start" x="8" y="-29.5" font-family="FreeSans" font-size="10.00">&lt; Fundamental8SolverC,</text>
<text text-anchor="start" x="8" y="-18.5" font-family="FreeSans" font-size="10.00"> EpipolarMatrixT, EpipolarSampson</text>
<text text-anchor="middle" x="83.5" y="-7.5" font-family="FreeSans" font-size="10.00">ErrorC, 2, 2, 8, true, 1, 9, 7 &gt;</text>
</a>
</g>
</g>
<!-- Node1 -->
<g id="node2" class="node"><title>Node1</title>
<g id="a_node2"><a xlink:href="classSeeSawN_1_1GeometryN_1_1Fundamental8SolverC.html" target="_top" xlink:title="8&#45;point fundamental matrix estimator ">
<polygon fill="white" stroke="black" points="203,-17 203,-47 320,-47 320,-17 203,-17"/>
<text text-anchor="start" x="211" y="-35" font-family="FreeSans" font-size="10.00">SeeSawN::GeometryN</text>
<text text-anchor="middle" x="261.5" y="-24" font-family="FreeSans" font-size="10.00">::Fundamental8SolverC</text>
</a>
</g>
</g>
<!-- Node0&#45;&gt;Node1 -->
<g id="edge1" class="edge"><title>Node0&#45;&gt;Node1</title>
<path fill="none" stroke="midnightblue" d="M177.274,-32C185.943,-32 194.551,-32 202.758,-32"/>
<polygon fill="midnightblue" stroke="midnightblue" points="177.089,-28.5001 167.089,-32 177.089,-35.5001 177.089,-28.5001"/>
</g>
</g>
</svg>
