<?xml version="1.0" encoding="UTF-8" standalone="no"?>
<!DOCTYPE svg PUBLIC "-//W3C//DTD SVG 1.1//EN"
 "http://www.w3.org/Graphics/SVG/1.1/DTD/svg11.dtd">
<!-- Generated by graphviz version 2.38.0 (20140413.2041)
 -->
<!-- Title: Graphical Class Hierarchy Pages: 1 -->
<svg width="359pt" height="78pt"
 viewBox="0.00 0.00 359.00 77.50" xmlns="http://www.w3.org/2000/svg" xmlns:xlink="http://www.w3.org/1999/xlink">
<g id="graph0" class="graph" transform="scale(1 1) rotate(0) translate(4 73.5)">
<title>Graphical Class Hierarchy</title>
<polygon fill="white" stroke="none" points="-4,4 -4,-73.5 355,-73.5 355,4 -4,4"/>
<!-- Node0 -->
<g id="node1" class="node"><title>Node0</title>
<g id="a_node1"><a xlink:href="classSeeSawN_1_1ION_1_1SceneFeatureIOBaseC.html" target="_top" xlink:title="Base class for scene feature I/O operations. ">
<polygon fill="white" stroke="black" points="0,-17 0,-47 149,-47 149,-17 0,-17"/>
<text text-anchor="start" x="8" y="-35" font-family="FreeSans" font-size="10.00">SeeSawN::ION::SceneFeature</text>
<text text-anchor="middle" x="74.5" y="-24" font-family="FreeSans" font-size="10.00">IOBaseC</text>
</a>
</g>
</g>
<!-- Node1 -->
<g id="node2" class="node"><title>Node1</title>
<g id="a_node2"><a xlink:href="classSeeSawN_1_1ION_1_1OrientedBinarySceneFeatureIOC.html" target="_top" xlink:title="Oriented binary scene feature I/O operations. ">
<polygon fill="white" stroke="black" points="192,-39 192,-69 344,-69 344,-39 192,-39"/>
<text text-anchor="start" x="200" y="-57" font-family="FreeSans" font-size="10.00">SeeSawN::ION::OrientedBinary</text>
<text text-anchor="middle" x="268" y="-46" font-family="FreeSans" font-size="10.00">SceneFeatureIOC</text>
</a>
</g>
</g>
<!-- Node0&#45;&gt;Node1 -->
<g id="edge1" class="edge"><title>Node0&#45;&gt;Node1</title>
<path fill="none" stroke="midnightblue" d="M159.467,-41.6464C170.191,-42.8783 181.115,-44.1333 191.69,-45.3482"/>
<polygon fill="midnightblue" stroke="midnightblue" points="159.599,-38.1386 149.265,-40.4743 158.8,-45.0928 159.599,-38.1386"/>
</g>
<!-- Node2 -->
<g id="node3" class="node"><title>Node2</title>
<g id="a_node3"><a xlink:href="classSeeSawN_1_1ION_1_1SceneFeatureIOC.html" target="_top" xlink:title="Scene feature I/O operations. ">
<polygon fill="white" stroke="black" points="185,-0.5 185,-19.5 351,-19.5 351,-0.5 185,-0.5"/>
<text text-anchor="middle" x="268" y="-7.5" font-family="FreeSans" font-size="10.00">SeeSawN::ION::SceneFeatureIOC</text>
</a>
</g>
</g>
<!-- Node0&#45;&gt;Node2 -->
<g id="edge2" class="edge"><title>Node0&#45;&gt;Node2</title>
<path fill="none" stroke="midnightblue" d="M159.226,-22.3813C167.776,-21.399 176.457,-20.4018 184.989,-19.4217"/>
<polygon fill="midnightblue" stroke="midnightblue" points="158.8,-18.9072 149.265,-23.5257 159.599,-25.8614 158.8,-18.9072"/>
</g>
</g>
</svg>
