<?xml version="1.0" encoding="UTF-8" standalone="no"?>
<!DOCTYPE svg PUBLIC "-//W3C//DTD SVG 1.1//EN"
 "http://www.w3.org/Graphics/SVG/1.1/DTD/svg11.dtd">
<!-- Generated by graphviz version 2.38.0 (20140413.2041)
 -->
<!-- Title: Graphical Class Hierarchy Pages: 1 -->
<svg width="424pt" height="61pt"
 viewBox="0.00 0.00 424.00 61.00" xmlns="http://www.w3.org/2000/svg" xmlns:xlink="http://www.w3.org/1999/xlink">
<g id="graph0" class="graph" transform="scale(1 1) rotate(0) translate(4 57)">
<title>Graphical Class Hierarchy</title>
<polygon fill="white" stroke="none" points="-4,4 -4,-57 420,-57 420,4 -4,4"/>
<!-- Node0 -->
<g id="node1" class="node"><title>Node0</title>
<g id="a_node1"><a xlink:href="classSeeSawN_1_1OptimisationN_1_1PDLGeometryEstimationProblemBaseC.html" target="_top" xlink:title="SeeSawN::OptimisationN\l::PDLGeometryEstimationProblem\lBaseC\&lt; PDLRotation3DEstimationProblem\lC, Rotation3DSolverC \&gt;">
<polygon fill="white" stroke="black" points="0,-0.5 0,-52.5 203,-52.5 203,-0.5 0,-0.5"/>
<text text-anchor="start" x="8" y="-40.5" font-family="FreeSans" font-size="10.00">SeeSawN::OptimisationN</text>
<text text-anchor="start" x="8" y="-29.5" font-family="FreeSans" font-size="10.00">::PDLGeometryEstimationProblem</text>
<text text-anchor="start" x="8" y="-18.5" font-family="FreeSans" font-size="10.00">BaseC&lt; PDLRotation3DEstimationProblem</text>
<text text-anchor="middle" x="101.5" y="-7.5" font-family="FreeSans" font-size="10.00">C, Rotation3DSolverC &gt;</text>
</a>
</g>
</g>
<!-- Node1 -->
<g id="node2" class="node"><title>Node1</title>
<g id="a_node2"><a xlink:href="classSeeSawN_1_1OptimisationN_1_1PDLRotation3DEstimationProblemC.html" target="_top" xlink:title="Problem for Powell&#39;s dog leg algorithm, for the estimation of 3D rotations. ">
<polygon fill="white" stroke="black" points="239,-11.5 239,-41.5 416,-41.5 416,-11.5 239,-11.5"/>
<text text-anchor="start" x="247" y="-29.5" font-family="FreeSans" font-size="10.00">SeeSawN::OptimisationN</text>
<text text-anchor="middle" x="327.5" y="-18.5" font-family="FreeSans" font-size="10.00">::PDLRotation3DEstimationProblemC</text>
</a>
</g>
</g>
<!-- Node0&#45;&gt;Node1 -->
<g id="edge1" class="edge"><title>Node0&#45;&gt;Node1</title>
<path fill="none" stroke="midnightblue" d="M213.171,-26.5C221.821,-26.5 230.482,-26.5 238.947,-26.5"/>
<polygon fill="midnightblue" stroke="midnightblue" points="213.034,-23.0001 203.034,-26.5 213.033,-30.0001 213.034,-23.0001"/>
</g>
</g>
</svg>
