<?xml version="1.0" encoding="UTF-8" standalone="no"?>
<!DOCTYPE svg PUBLIC "-//W3C//DTD SVG 1.1//EN"
 "http://www.w3.org/Graphics/SVG/1.1/DTD/svg11.dtd">
<!-- Generated by graphviz version 2.38.0 (20140413.2041)
 -->
<!-- Title: Graphical Class Hierarchy Pages: 1 -->
<svg width="190pt" height="39pt"
 viewBox="0.00 0.00 190.00 39.00" xmlns="http://www.w3.org/2000/svg" xmlns:xlink="http://www.w3.org/1999/xlink">
<g id="graph0" class="graph" transform="scale(1 1) rotate(0) translate(4 35)">
<title>Graphical Class Hierarchy</title>
<polygon fill="white" stroke="none" points="-4,4 -4,-35 186,-35 186,4 -4,4"/>
<!-- Node0 -->
<g id="node1" class="node"><title>Node0</title>
<g id="a_node1"><a xlink:href="classSeeSawN_1_1ZeroN_1_1ZeroReconstructionEvaluationModuleC.html" target="_top" xlink:title="Metrics and tools for the evaluation of the 3D reconstruction accuracy for Zero. ">
<polygon fill="white" stroke="black" points="0,-0.5 0,-30.5 182,-30.5 182,-0.5 0,-0.5"/>
<text text-anchor="start" x="8" y="-18.5" font-family="FreeSans" font-size="10.00">SeeSawN::ZeroN::ZeroReconstruction</text>
<text text-anchor="middle" x="91" y="-7.5" font-family="FreeSans" font-size="10.00">EvaluationModuleC</text>
</a>
</g>
</g>
</g>
</svg>
