<?xml version="1.0" encoding="UTF-8" standalone="no"?>
<!DOCTYPE svg PUBLIC "-//W3C//DTD SVG 1.1//EN"
 "http://www.w3.org/Graphics/SVG/1.1/DTD/svg11.dtd">
<!-- Generated by graphviz version 2.38.0 (20140413.2041)
 -->
<!-- Title: src/ApplicationInterface/InterfaceNodalCameraTrackingPipeline.ipp Pages: 1 -->
<svg width="360pt" height="173pt"
 viewBox="0.00 0.00 360.00 173.00" xmlns="http://www.w3.org/2000/svg" xmlns:xlink="http://www.w3.org/1999/xlink">
<g id="graph0" class="graph" transform="scale(1 1) rotate(0) translate(4 169)">
<title>src/ApplicationInterface/InterfaceNodalCameraTrackingPipeline.ipp</title>
<polygon fill="white" stroke="none" points="-4,4 -4,-169 356,-169 356,4 -4,4"/>
<!-- Node248 -->
<g id="node1" class="node"><title>Node248</title>
<polygon fill="#bfbfbf" stroke="black" points="53.5,-134.5 53.5,-164.5 257.5,-164.5 257.5,-134.5 53.5,-134.5"/>
<text text-anchor="start" x="61.5" y="-152.5" font-family="FreeSans" font-size="10.00">src/ApplicationInterface</text>
<text text-anchor="middle" x="155.5" y="-141.5" font-family="FreeSans" font-size="10.00">/InterfaceNodalCameraTrackingPipeline.ipp</text>
</g>
<!-- Node249 -->
<g id="node2" class="node"><title>Node249</title>
<g id="a_node2"><a xlink:href="InterfaceNodalCameraTrackingPipeline_8h.html" target="_top" xlink:title="src/ApplicationInterface\l/InterfaceNodalCameraTrackingPipeline.h">
<polygon fill="white" stroke="black" points="57,-67.5 57,-97.5 254,-97.5 254,-67.5 57,-67.5"/>
<text text-anchor="start" x="65" y="-85.5" font-family="FreeSans" font-size="10.00">src/ApplicationInterface</text>
<text text-anchor="middle" x="155.5" y="-74.5" font-family="FreeSans" font-size="10.00">/InterfaceNodalCameraTrackingPipeline.h</text>
</a>
</g>
</g>
<!-- Node248&#45;&gt;Node249 -->
<g id="edge1" class="edge"><title>Node248&#45;&gt;Node249</title>
<path fill="none" stroke="midnightblue" d="M155.5,-124.108C155.5,-115.154 155.5,-105.323 155.5,-97.5765"/>
<polygon fill="midnightblue" stroke="midnightblue" points="152,-124.396 155.5,-134.396 159,-124.396 152,-124.396"/>
</g>
<!-- Node250 -->
<g id="node3" class="node"><title>Node250</title>
<g id="a_node3"><a xlink:href="AppNodalCameraTracker_8cpp.html" target="_top" xlink:title="src/Application/AppNodal\lCameraTracker.cpp">
<polygon fill="white" stroke="black" points="0,-0.5 0,-30.5 127,-30.5 127,-0.5 0,-0.5"/>
<text text-anchor="start" x="8" y="-18.5" font-family="FreeSans" font-size="10.00">src/Application/AppNodal</text>
<text text-anchor="middle" x="63.5" y="-7.5" font-family="FreeSans" font-size="10.00">CameraTracker.cpp</text>
</a>
</g>
</g>
<!-- Node249&#45;&gt;Node250 -->
<g id="edge2" class="edge"><title>Node249&#45;&gt;Node250</title>
<path fill="none" stroke="midnightblue" d="M127.123,-61.4511C112.97,-51.4517 96.1947,-39.5995 83.4237,-30.5765"/>
<polygon fill="midnightblue" stroke="midnightblue" points="125.351,-64.4841 135.537,-67.396 129.39,-58.7671 125.351,-64.4841"/>
</g>
<!-- Node251 -->
<g id="node4" class="node"><title>Node251</title>
<g id="a_node4"><a xlink:href="InterfaceNodalCameraTrackingPipeline_8cpp.html" target="_top" xlink:title="src/ApplicationInterface\l/InterfaceNodalCameraTrackingPipeline.cpp">
<polygon fill="white" stroke="black" points="145,-0.5 145,-30.5 352,-30.5 352,-0.5 145,-0.5"/>
<text text-anchor="start" x="153" y="-18.5" font-family="FreeSans" font-size="10.00">src/ApplicationInterface</text>
<text text-anchor="middle" x="248.5" y="-7.5" font-family="FreeSans" font-size="10.00">/InterfaceNodalCameraTrackingPipeline.cpp</text>
</a>
</g>
</g>
<!-- Node249&#45;&gt;Node251 -->
<g id="edge3" class="edge"><title>Node249&#45;&gt;Node251</title>
<path fill="none" stroke="midnightblue" d="M184.185,-61.4511C198.492,-51.4517 215.45,-39.5995 228.36,-30.5765"/>
<polygon fill="midnightblue" stroke="midnightblue" points="181.871,-58.7985 175.68,-67.396 185.881,-64.536 181.871,-58.7985"/>
</g>
</g>
</svg>
