<?xml version="1.0" encoding="UTF-8" standalone="no"?>
<!DOCTYPE svg PUBLIC "-//W3C//DTD SVG 1.1//EN"
 "http://www.w3.org/Graphics/SVG/1.1/DTD/svg11.dtd">
<!-- Generated by graphviz version 2.38.0 (20140413.2041)
 -->
<!-- Title: src/ApplicationInterface/InterfaceMultiviewPanoramaBuilder.ipp Pages: 1 -->
<svg width="725pt" height="307pt"
 viewBox="0.00 0.00 725.00 307.00" xmlns="http://www.w3.org/2000/svg" xmlns:xlink="http://www.w3.org/1999/xlink">
<g id="graph0" class="graph" transform="scale(1 1) rotate(0) translate(4 303)">
<title>src/ApplicationInterface/InterfaceMultiviewPanoramaBuilder.ipp</title>
<polygon fill="white" stroke="none" points="-4,4 -4,-303 721,-303 721,4 -4,4"/>
<!-- Node129 -->
<g id="node1" class="node"><title>Node129</title>
<polygon fill="#bfbfbf" stroke="black" points="304.5,-268.5 304.5,-298.5 492.5,-298.5 492.5,-268.5 304.5,-268.5"/>
<text text-anchor="start" x="312.5" y="-286.5" font-family="FreeSans" font-size="10.00">src/ApplicationInterface</text>
<text text-anchor="middle" x="398.5" y="-275.5" font-family="FreeSans" font-size="10.00">/InterfaceMultiviewPanoramaBuilder.ipp</text>
</g>
<!-- Node130 -->
<g id="node2" class="node"><title>Node130</title>
<g id="a_node2"><a xlink:href="InterfaceMultiviewPanoramaBuilder_8h.html" target="_top" xlink:title="src/ApplicationInterface\l/InterfaceMultiviewPanoramaBuilder.h">
<polygon fill="white" stroke="black" points="308,-201.5 308,-231.5 489,-231.5 489,-201.5 308,-201.5"/>
<text text-anchor="start" x="316" y="-219.5" font-family="FreeSans" font-size="10.00">src/ApplicationInterface</text>
<text text-anchor="middle" x="398.5" y="-208.5" font-family="FreeSans" font-size="10.00">/InterfaceMultiviewPanoramaBuilder.h</text>
</a>
</g>
</g>
<!-- Node129&#45;&gt;Node130 -->
<g id="edge1" class="edge"><title>Node129&#45;&gt;Node130</title>
<path fill="none" stroke="midnightblue" d="M398.5,-258.108C398.5,-249.154 398.5,-239.323 398.5,-231.577"/>
<polygon fill="midnightblue" stroke="midnightblue" points="395,-258.396 398.5,-268.396 402,-258.396 395,-258.396"/>
</g>
<!-- Node131 -->
<g id="node3" class="node"><title>Node131</title>
<g id="a_node3"><a xlink:href="InterfacePfMPipeline_8ipp.html" target="_top" xlink:title="src/ApplicationInterface\l/InterfacePfMPipeline.ipp">
<polygon fill="white" stroke="black" points="146,-134.5 146,-164.5 271,-164.5 271,-134.5 146,-134.5"/>
<text text-anchor="start" x="154" y="-152.5" font-family="FreeSans" font-size="10.00">src/ApplicationInterface</text>
<text text-anchor="middle" x="208.5" y="-141.5" font-family="FreeSans" font-size="10.00">/InterfacePfMPipeline.ipp</text>
</a>
</g>
</g>
<!-- Node130&#45;&gt;Node131 -->
<g id="edge2" class="edge"><title>Node130&#45;&gt;Node131</title>
<path fill="none" stroke="midnightblue" d="M347.614,-198.092C316.943,-187.599 278.386,-174.408 249.647,-164.577"/>
<polygon fill="midnightblue" stroke="midnightblue" points="346.678,-201.471 357.273,-201.396 348.944,-194.847 346.678,-201.471"/>
</g>
<!-- Node135 -->
<g id="node7" class="node"><title>Node135</title>
<g id="a_node7"><a xlink:href="InterfaceSparseUnitSphereReconstruction_8ipp.html" target="_top" xlink:title="src/ApplicationInterface\l/InterfaceSparseUnitSphereReconstruction.ipp">
<polygon fill="white" stroke="black" points="289.5,-134.5 289.5,-164.5 507.5,-164.5 507.5,-134.5 289.5,-134.5"/>
<text text-anchor="start" x="297.5" y="-152.5" font-family="FreeSans" font-size="10.00">src/ApplicationInterface</text>
<text text-anchor="middle" x="398.5" y="-141.5" font-family="FreeSans" font-size="10.00">/InterfaceSparseUnitSphereReconstruction.ipp</text>
</a>
</g>
</g>
<!-- Node130&#45;&gt;Node135 -->
<g id="edge6" class="edge"><title>Node130&#45;&gt;Node135</title>
<path fill="none" stroke="midnightblue" d="M398.5,-191.108C398.5,-182.154 398.5,-172.323 398.5,-164.577"/>
<polygon fill="midnightblue" stroke="midnightblue" points="395,-191.396 398.5,-201.396 402,-191.396 395,-191.396"/>
</g>
<!-- Node139 -->
<g id="node11" class="node"><title>Node139</title>
<g id="a_node11"><a xlink:href="InterfaceMultiviewPanoramaBuilder_8cpp.html" target="_top" xlink:title="src/ApplicationInterface\l/InterfaceMultiviewPanoramaBuilder.cpp">
<polygon fill="white" stroke="black" points="526,-134.5 526,-164.5 717,-164.5 717,-134.5 526,-134.5"/>
<text text-anchor="start" x="534" y="-152.5" font-family="FreeSans" font-size="10.00">src/ApplicationInterface</text>
<text text-anchor="middle" x="621.5" y="-141.5" font-family="FreeSans" font-size="10.00">/InterfaceMultiviewPanoramaBuilder.cpp</text>
</a>
</g>
</g>
<!-- Node130&#45;&gt;Node139 -->
<g id="edge10" class="edge"><title>Node130&#45;&gt;Node139</title>
<path fill="none" stroke="midnightblue" d="M456.549,-198.58C492.769,-188.022 538.845,-174.592 573.089,-164.611"/>
<polygon fill="midnightblue" stroke="midnightblue" points="455.234,-195.317 446.613,-201.476 457.193,-202.038 455.234,-195.317"/>
</g>
<!-- Node132 -->
<g id="node4" class="node"><title>Node132</title>
<g id="a_node4"><a xlink:href="InterfacePfMPipeline_8h.html" target="_top" xlink:title="src/ApplicationInterface\l/InterfacePfMPipeline.h">
<polygon fill="white" stroke="black" points="149,-67.5 149,-97.5 268,-97.5 268,-67.5 149,-67.5"/>
<text text-anchor="start" x="157" y="-85.5" font-family="FreeSans" font-size="10.00">src/ApplicationInterface</text>
<text text-anchor="middle" x="208.5" y="-74.5" font-family="FreeSans" font-size="10.00">/InterfacePfMPipeline.h</text>
</a>
</g>
</g>
<!-- Node131&#45;&gt;Node132 -->
<g id="edge3" class="edge"><title>Node131&#45;&gt;Node132</title>
<path fill="none" stroke="midnightblue" d="M208.5,-124.108C208.5,-115.154 208.5,-105.323 208.5,-97.5765"/>
<polygon fill="midnightblue" stroke="midnightblue" points="205,-124.396 208.5,-134.396 212,-124.396 205,-124.396"/>
</g>
<!-- Node133 -->
<g id="node5" class="node"><title>Node133</title>
<g id="a_node5"><a xlink:href="AppPfM_8cpp.html" target="_top" xlink:title="src/Application/AppPfM.cpp">
<polygon fill="white" stroke="black" points="0,-6 0,-25 137,-25 137,-6 0,-6"/>
<text text-anchor="middle" x="68.5" y="-13" font-family="FreeSans" font-size="10.00">src/Application/AppPfM.cpp</text>
</a>
</g>
</g>
<!-- Node132&#45;&gt;Node133 -->
<g id="edge4" class="edge"><title>Node132&#45;&gt;Node133</title>
<path fill="none" stroke="midnightblue" d="M168.937,-63.1315C141.99,-50.6205 107.571,-34.6399 86.8228,-25.007"/>
<polygon fill="midnightblue" stroke="midnightblue" points="167.578,-66.3593 178.122,-67.396 170.526,-60.0103 167.578,-66.3593"/>
</g>
<!-- Node134 -->
<g id="node6" class="node"><title>Node134</title>
<g id="a_node6"><a xlink:href="InterfacePfMPipeline_8cpp.html" target="_top" xlink:title="src/ApplicationInterface\l/InterfacePfMPipeline.cpp">
<polygon fill="white" stroke="black" points="155.5,-0.5 155.5,-30.5 283.5,-30.5 283.5,-0.5 155.5,-0.5"/>
<text text-anchor="start" x="163.5" y="-18.5" font-family="FreeSans" font-size="10.00">src/ApplicationInterface</text>
<text text-anchor="middle" x="219.5" y="-7.5" font-family="FreeSans" font-size="10.00">/InterfacePfMPipeline.cpp</text>
</a>
</g>
</g>
<!-- Node132&#45;&gt;Node134 -->
<g id="edge5" class="edge"><title>Node132&#45;&gt;Node134</title>
<path fill="none" stroke="midnightblue" d="M212.578,-57.4029C214.107,-48.3703 215.793,-38.4078 217.118,-30.5765"/>
<polygon fill="midnightblue" stroke="midnightblue" points="209.105,-56.9521 210.887,-67.396 216.006,-58.1202 209.105,-56.9521"/>
</g>
<!-- Node136 -->
<g id="node8" class="node"><title>Node136</title>
<g id="a_node8"><a xlink:href="InterfaceSparseUnitSphereReconstruction_8h.html" target="_top" xlink:title="src/ApplicationInterface\l/InterfaceSparseUnitSphereReconstruction.h">
<polygon fill="white" stroke="black" points="293.5,-67.5 293.5,-97.5 503.5,-97.5 503.5,-67.5 293.5,-67.5"/>
<text text-anchor="start" x="301.5" y="-85.5" font-family="FreeSans" font-size="10.00">src/ApplicationInterface</text>
<text text-anchor="middle" x="398.5" y="-74.5" font-family="FreeSans" font-size="10.00">/InterfaceSparseUnitSphereReconstruction.h</text>
</a>
</g>
</g>
<!-- Node135&#45;&gt;Node136 -->
<g id="edge7" class="edge"><title>Node135&#45;&gt;Node136</title>
<path fill="none" stroke="midnightblue" d="M398.5,-124.108C398.5,-115.154 398.5,-105.323 398.5,-97.5765"/>
<polygon fill="midnightblue" stroke="midnightblue" points="395,-124.396 398.5,-134.396 402,-124.396 395,-124.396"/>
</g>
<!-- Node137 -->
<g id="node9" class="node"><title>Node137</title>
<g id="a_node9"><a xlink:href="AppSparseUnitSphereBuilder_8cpp.html" target="_top" xlink:title="src/Application/AppSparse\lUnitSphereBuilder.cpp">
<polygon fill="white" stroke="black" points="322.5,-0.5 322.5,-30.5 454.5,-30.5 454.5,-0.5 322.5,-0.5"/>
<text text-anchor="start" x="330.5" y="-18.5" font-family="FreeSans" font-size="10.00">src/Application/AppSparse</text>
<text text-anchor="middle" x="388.5" y="-7.5" font-family="FreeSans" font-size="10.00">UnitSphereBuilder.cpp</text>
</a>
</g>
</g>
<!-- Node136&#45;&gt;Node137 -->
<g id="edge8" class="edge"><title>Node136&#45;&gt;Node137</title>
<path fill="none" stroke="midnightblue" d="M394.793,-57.4029C393.403,-48.3703 391.87,-38.4078 390.666,-30.5765"/>
<polygon fill="midnightblue" stroke="midnightblue" points="391.35,-58.0445 396.33,-67.396 398.269,-56.98 391.35,-58.0445"/>
</g>
<!-- Node138 -->
<g id="node10" class="node"><title>Node138</title>
<g id="a_node10"><a xlink:href="InterfaceSparseUnitSphereReconstruction_8cpp.html" target="_top" xlink:title="src/ApplicationInterface\l/InterfaceSparseUnitSphereReconstruction.cpp">
<polygon fill="white" stroke="black" points="473,-0.5 473,-30.5 694,-30.5 694,-0.5 473,-0.5"/>
<text text-anchor="start" x="481" y="-18.5" font-family="FreeSans" font-size="10.00">src/ApplicationInterface</text>
<text text-anchor="middle" x="583.5" y="-7.5" font-family="FreeSans" font-size="10.00">/InterfaceSparseUnitSphereReconstruction.cpp</text>
</a>
</g>
</g>
<!-- Node136&#45;&gt;Node138 -->
<g id="edge9" class="edge"><title>Node136&#45;&gt;Node138</title>
<path fill="none" stroke="midnightblue" d="M448.435,-63.9553C478.236,-53.4847 515.575,-40.3656 543.436,-30.5765"/>
<polygon fill="midnightblue" stroke="midnightblue" points="446.917,-60.7789 438.642,-67.396 449.237,-67.3832 446.917,-60.7789"/>
</g>
</g>
</svg>
