<?xml version="1.0" encoding="UTF-8" standalone="no"?>
<!DOCTYPE svg PUBLIC "-//W3C//DTD SVG 1.1//EN"
 "http://www.w3.org/Graphics/SVG/1.1/DTD/svg11.dtd">
<!-- Generated by graphviz version 2.38.0 (20140413.2041)
 -->
<!-- Title: src/ApplicationInterface/InterfaceRotationRegistrationPipeline.h Pages: 1 -->
<svg width="379pt" height="262pt"
 viewBox="0.00 0.00 378.50 262.00" xmlns="http://www.w3.org/2000/svg" xmlns:xlink="http://www.w3.org/1999/xlink">
<g id="graph0" class="graph" transform="scale(1 1) rotate(0) translate(4 258)">
<title>src/ApplicationInterface/InterfaceRotationRegistrationPipeline.h</title>
<polygon fill="white" stroke="none" points="-4,4 -4,-258 374.5,-258 374.5,4 -4,4"/>
<!-- Node106 -->
<g id="node1" class="node"><title>Node106</title>
<polygon fill="#bfbfbf" stroke="black" points="147.5,-212.5 147.5,-253.5 293.5,-253.5 293.5,-212.5 147.5,-212.5"/>
<text text-anchor="start" x="155.5" y="-241.5" font-family="FreeSans" font-size="10.00">src/ApplicationInterface</text>
<text text-anchor="start" x="155.5" y="-230.5" font-family="FreeSans" font-size="10.00">/InterfaceRotationRegistration</text>
<text text-anchor="middle" x="220.5" y="-219.5" font-family="FreeSans" font-size="10.00">Pipeline.h</text>
</g>
<!-- Node107 -->
<g id="node2" class="node"><title>Node107</title>
<g id="a_node2"><a xlink:href="InterfacePfMPipeline_8ipp.html" target="_top" xlink:title="src/ApplicationInterface\l/InterfacePfMPipeline.ipp">
<polygon fill="white" stroke="black" points="81,-140 81,-170 206,-170 206,-140 81,-140"/>
<text text-anchor="start" x="89" y="-158" font-family="FreeSans" font-size="10.00">src/ApplicationInterface</text>
<text text-anchor="middle" x="143.5" y="-147" font-family="FreeSans" font-size="10.00">/InterfacePfMPipeline.ipp</text>
</a>
</g>
</g>
<!-- Node106&#45;&gt;Node107 -->
<g id="edge1" class="edge"><title>Node106&#45;&gt;Node107</title>
<path fill="none" stroke="midnightblue" d="M193.473,-205.324C181.501,-193.508 167.9,-180.083 157.913,-170.225"/>
<polygon fill="midnightblue" stroke="midnightblue" points="191.095,-207.894 200.671,-212.428 196.012,-202.912 191.095,-207.894"/>
</g>
<!-- Node111 -->
<g id="node6" class="node"><title>Node111</title>
<g id="a_node6"><a xlink:href="InterfaceRotationRegistrationPipeline_8cpp.html" target="_top" xlink:title="src/ApplicationInterface\l/InterfaceRotationRegistration\lPipeline.cpp">
<polygon fill="white" stroke="black" points="224.5,-134.5 224.5,-175.5 370.5,-175.5 370.5,-134.5 224.5,-134.5"/>
<text text-anchor="start" x="232.5" y="-163.5" font-family="FreeSans" font-size="10.00">src/ApplicationInterface</text>
<text text-anchor="start" x="232.5" y="-152.5" font-family="FreeSans" font-size="10.00">/InterfaceRotationRegistration</text>
<text text-anchor="middle" x="297.5" y="-141.5" font-family="FreeSans" font-size="10.00">Pipeline.cpp</text>
</a>
</g>
</g>
<!-- Node106&#45;&gt;Node111 -->
<g id="edge5" class="edge"><title>Node106&#45;&gt;Node111</title>
<path fill="none" stroke="midnightblue" d="M247.649,-205.204C257.565,-195.416 268.586,-184.539 277.738,-175.506"/>
<polygon fill="midnightblue" stroke="midnightblue" points="244.988,-202.912 240.329,-212.428 249.905,-207.894 244.988,-202.912"/>
</g>
<!-- Node108 -->
<g id="node3" class="node"><title>Node108</title>
<g id="a_node3"><a xlink:href="InterfacePfMPipeline_8h.html" target="_top" xlink:title="src/ApplicationInterface\l/InterfacePfMPipeline.h">
<polygon fill="white" stroke="black" points="84,-67.5 84,-97.5 203,-97.5 203,-67.5 84,-67.5"/>
<text text-anchor="start" x="92" y="-85.5" font-family="FreeSans" font-size="10.00">src/ApplicationInterface</text>
<text text-anchor="middle" x="143.5" y="-74.5" font-family="FreeSans" font-size="10.00">/InterfacePfMPipeline.h</text>
</a>
</g>
</g>
<!-- Node107&#45;&gt;Node108 -->
<g id="edge2" class="edge"><title>Node107&#45;&gt;Node108</title>
<path fill="none" stroke="midnightblue" d="M143.5,-129.732C143.5,-119.068 143.5,-106.914 143.5,-97.7455"/>
<polygon fill="midnightblue" stroke="midnightblue" points="140,-129.733 143.5,-139.733 147,-129.733 140,-129.733"/>
</g>
<!-- Node109 -->
<g id="node4" class="node"><title>Node109</title>
<g id="a_node4"><a xlink:href="AppPfM_8cpp.html" target="_top" xlink:title="src/Application/AppPfM.cpp">
<polygon fill="white" stroke="black" points="0,-6 0,-25 137,-25 137,-6 0,-6"/>
<text text-anchor="middle" x="68.5" y="-13" font-family="FreeSans" font-size="10.00">src/Application/AppPfM.cpp</text>
</a>
</g>
</g>
<!-- Node108&#45;&gt;Node109 -->
<g id="edge3" class="edge"><title>Node108&#45;&gt;Node109</title>
<path fill="none" stroke="midnightblue" d="M119.468,-60.6722C105.62,-48.6707 88.9465,-34.2203 78.5322,-25.1945"/>
<polygon fill="midnightblue" stroke="midnightblue" points="117.377,-63.4915 127.226,-67.396 121.961,-58.2017 117.377,-63.4915"/>
</g>
<!-- Node110 -->
<g id="node5" class="node"><title>Node110</title>
<g id="a_node5"><a xlink:href="InterfacePfMPipeline_8cpp.html" target="_top" xlink:title="src/ApplicationInterface\l/InterfacePfMPipeline.cpp">
<polygon fill="white" stroke="black" points="155.5,-0.5 155.5,-30.5 283.5,-30.5 283.5,-0.5 155.5,-0.5"/>
<text text-anchor="start" x="163.5" y="-18.5" font-family="FreeSans" font-size="10.00">src/ApplicationInterface</text>
<text text-anchor="middle" x="219.5" y="-7.5" font-family="FreeSans" font-size="10.00">/InterfacePfMPipeline.cpp</text>
</a>
</g>
</g>
<!-- Node108&#45;&gt;Node110 -->
<g id="edge4" class="edge"><title>Node108&#45;&gt;Node110</title>
<path fill="none" stroke="midnightblue" d="M167.606,-60.8832C179.155,-51.0054 192.69,-39.4293 203.041,-30.5765"/>
<polygon fill="midnightblue" stroke="midnightblue" points="165.316,-58.2364 159.991,-67.396 169.865,-63.5561 165.316,-58.2364"/>
</g>
</g>
</svg>
