<?xml version="1.0" encoding="UTF-8" standalone="no"?>
<!DOCTYPE svg PUBLIC "-//W3C//DTD SVG 1.1//EN"
 "http://www.w3.org/Graphics/SVG/1.1/DTD/svg11.dtd">
<!-- Generated by graphviz version 2.38.0 (20140413.2041)
 -->
<!-- Title: src/ApplicationInterface/InterfaceVisionGraphPipeline.h Pages: 1 -->
<!--zoomable 240 -->
<svg id="main" version="1.1" xmlns="http://www.w3.org/2000/svg" xmlns:xlink="http://www.w3.org/1999/xlink" xml:space="preserve" onload="init(evt)">
<style type="text/css"><![CDATA[
.edge:hover path { stroke: red; }
.edge:hover polygon { stroke: red; fill: red; }
]]></style>
<script type="text/javascript"><![CDATA[
var edges = document.getElementsByTagName('g');
if (edges && edges.length) {
  for (var i=0;i<edges.length;i++) {
    if (edges[i].id.substr(0,4)=='edge') {
      edges[i].setAttribute('class','edge');
    }
  }
}
]]></script>
        <defs>
                <circle id="rim" cx="0" cy="0" r="7"/>
                <circle id="rim2" cx="0" cy="0" r="3.5"/>
                <g id="zoomPlus">
                        <use xlink:href="#rim" fill="#404040">
                                <set attributeName="fill" to="#808080" begin="zoomplus.mouseover" end="zoomplus.mouseout"/>
                        </use>
                        <path d="M-4,0h8M0,-4v8" fill="none" stroke="white" stroke-width="1.5" pointer-events="none"/>
                </g>
                <g id="zoomMin">
                        <use xlink:href="#rim" fill="#404040">
                                <set attributeName="fill" to="#808080" begin="zoomminus.mouseover" end="zoomminus.mouseout"/>
                        </use>
                        <path d="M-4,0h8" fill="none" stroke="white" stroke-width="1.5" pointer-events="none"/>
                </g>
                <g id="dirArrow">
                        <path fill="none" stroke="white" stroke-width="1.5" d="M0,-3.0v7 M-2.5,-0.5L0,-3.0L2.5,-0.5"/>
                </g>
               <g id="resetDef">
                       <use xlink:href="#rim2" fill="#404040">
                               <set attributeName="fill" to="#808080" begin="reset.mouseover" end="reset.mouseout"/>
                       </use>
               </g>
        </defs>

<script type="text/javascript">
var viewWidth = 618;
var viewHeight = 240;
var sectionId = 'dynsection-1';
</script>
<script xlink:href="svgpan.js"/>
<svg id="graph" class="graph">
<g id="viewport">
<title>src/ApplicationInterface/InterfaceVisionGraphPipeline.h</title>
<polygon fill="white" stroke="none" points="-4,4 -4,-236 613.5,-236 613.5,4 -4,4"/>
<!-- Node258 -->
<g id="node1" class="node"><title>Node258</title>
<polygon fill="#bfbfbf" stroke="black" points="288,-201.5 288,-231.5 441,-231.5 441,-201.5 288,-201.5"/>
<text text-anchor="start" x="296" y="-219.5" font-family="FreeSans" font-size="10.00">src/ApplicationInterface</text>
<text text-anchor="middle" x="364.5" y="-208.5" font-family="FreeSans" font-size="10.00">/InterfaceVisionGraphPipeline.h</text>
</g>
<!-- Node259 -->
<g id="node2" class="node"><title>Node259</title>
<g id="a_node2"><a xlink:href="InterfacePfMPipeline_8ipp.html" target="_top" xlink:title="src/ApplicationInterface\l/InterfacePfMPipeline.ipp">
<polygon fill="white" stroke="black" points="158,-134.5 158,-164.5 283,-164.5 283,-134.5 158,-134.5"/>
<text text-anchor="start" x="166" y="-152.5" font-family="FreeSans" font-size="10.00">src/ApplicationInterface</text>
<text text-anchor="middle" x="220.5" y="-141.5" font-family="FreeSans" font-size="10.00">/InterfacePfMPipeline.ipp</text>
</a>
</g>
</g>
<!-- Node258&#45;&gt;Node259 -->
<g id="edge1" class="edge"><title>Node258&#45;&gt;Node259</title>
<path fill="none" stroke="midnightblue" d="M324.111,-197.269C301.175,-186.916 272.9,-174.153 251.685,-164.577"/>
<polygon fill="midnightblue" stroke="midnightblue" points="322.7,-200.472 333.254,-201.396 325.58,-194.092 322.7,-200.472"/>
</g>
<!-- Node263 -->
<g id="node6" class="node"><title>Node263</title>
<g id="a_node6"><a xlink:href="InterfaceSfMPipeline_8ipp.html" target="_top" xlink:title="src/ApplicationInterface\l/InterfaceSfMPipeline.ipp">
<polygon fill="white" stroke="black" points="302,-134.5 302,-164.5 427,-164.5 427,-134.5 302,-134.5"/>
<text text-anchor="start" x="310" y="-152.5" font-family="FreeSans" font-size="10.00">src/ApplicationInterface</text>
<text text-anchor="middle" x="364.5" y="-141.5" font-family="FreeSans" font-size="10.00">/InterfaceSfMPipeline.ipp</text>
</a>
</g>
</g>
<!-- Node258&#45;&gt;Node263 -->
<g id="edge5" class="edge"><title>Node258&#45;&gt;Node263</title>
<path fill="none" stroke="midnightblue" d="M364.5,-191.108C364.5,-182.154 364.5,-172.323 364.5,-164.577"/>
<polygon fill="midnightblue" stroke="midnightblue" points="361,-191.396 364.5,-201.396 368,-191.396 361,-191.396"/>
</g>
<!-- Node266 -->
<g id="node9" class="node"><title>Node266</title>
<g id="a_node9"><a xlink:href="InterfaceVisionGraphPipeline_8cpp.html" target="_top" xlink:title="src/ApplicationInterface\l/InterfaceVisionGraphPipeline.cpp">
<polygon fill="white" stroke="black" points="445.5,-134.5 445.5,-164.5 609.5,-164.5 609.5,-134.5 445.5,-134.5"/>
<text text-anchor="start" x="453.5" y="-152.5" font-family="FreeSans" font-size="10.00">src/ApplicationInterface</text>
<text text-anchor="middle" x="527.5" y="-141.5" font-family="FreeSans" font-size="10.00">/InterfaceVisionGraphPipeline.cpp</text>
</a>
</g>
</g>
<!-- Node258&#45;&gt;Node266 -->
<g id="edge8" class="edge"><title>Node258&#45;&gt;Node266</title>
<path fill="none" stroke="midnightblue" d="M409.183,-197.682C435.325,-187.257 467.866,-174.281 492.2,-164.577"/>
<polygon fill="midnightblue" stroke="midnightblue" points="407.861,-194.441 399.869,-201.396 410.454,-200.943 407.861,-194.441"/>
</g>
<!-- Node260 -->
<g id="node3" class="node"><title>Node260</title>
<g id="a_node3"><a xlink:href="InterfacePfMPipeline_8h.html" target="_top" xlink:title="src/ApplicationInterface\l/InterfacePfMPipeline.h">
<polygon fill="white" stroke="black" points="160,-67.5 160,-97.5 279,-97.5 279,-67.5 160,-67.5"/>
<text text-anchor="start" x="168" y="-85.5" font-family="FreeSans" font-size="10.00">src/ApplicationInterface</text>
<text text-anchor="middle" x="219.5" y="-74.5" font-family="FreeSans" font-size="10.00">/InterfacePfMPipeline.h</text>
</a>
</g>
</g>
<!-- Node259&#45;&gt;Node260 -->
<g id="edge2" class="edge"><title>Node259&#45;&gt;Node260</title>
<path fill="none" stroke="midnightblue" d="M220.125,-124.108C219.987,-115.154 219.836,-105.323 219.717,-97.5765"/>
<polygon fill="midnightblue" stroke="midnightblue" points="216.63,-124.451 220.283,-134.396 223.629,-124.343 216.63,-124.451"/>
</g>
<!-- Node261 -->
<g id="node4" class="node"><title>Node261</title>
<g id="a_node4"><a xlink:href="AppPfM_8cpp.html" target="_top" xlink:title="src/Application/AppPfM.cpp">
<polygon fill="white" stroke="black" points="0,-6 0,-25 137,-25 137,-6 0,-6"/>
<text text-anchor="middle" x="68.5" y="-13" font-family="FreeSans" font-size="10.00">src/Application/AppPfM.cpp</text>
</a>
</g>
</g>
<!-- Node260&#45;&gt;Node261 -->
<g id="edge3" class="edge"><title>Node260&#45;&gt;Node261</title>
<path fill="none" stroke="midnightblue" d="M177.209,-63.2952C148.089,-50.7602 110.738,-34.682 88.2624,-25.007"/>
<polygon fill="midnightblue" stroke="midnightblue" points="176.166,-66.6568 186.735,-67.396 178.934,-60.2272 176.166,-66.6568"/>
</g>
<!-- Node262 -->
<g id="node5" class="node"><title>Node262</title>
<g id="a_node5"><a xlink:href="InterfacePfMPipeline_8cpp.html" target="_top" xlink:title="src/ApplicationInterface\l/InterfacePfMPipeline.cpp">
<polygon fill="white" stroke="black" points="155.5,-0.5 155.5,-30.5 283.5,-30.5 283.5,-0.5 155.5,-0.5"/>
<text text-anchor="start" x="163.5" y="-18.5" font-family="FreeSans" font-size="10.00">src/ApplicationInterface</text>
<text text-anchor="middle" x="219.5" y="-7.5" font-family="FreeSans" font-size="10.00">/InterfacePfMPipeline.cpp</text>
</a>
</g>
</g>
<!-- Node260&#45;&gt;Node262 -->
<g id="edge4" class="edge"><title>Node260&#45;&gt;Node262</title>
<path fill="none" stroke="midnightblue" d="M219.5,-57.1081C219.5,-48.1539 219.5,-38.3227 219.5,-30.5765"/>
<polygon fill="midnightblue" stroke="midnightblue" points="216,-57.3959 219.5,-67.396 223,-57.396 216,-57.3959"/>
</g>
<!-- Node264 -->
<g id="node7" class="node"><title>Node264</title>
<g id="a_node7"><a xlink:href="InterfaceSfMPipeline_8h.html" target="_top" xlink:title="src/ApplicationInterface\l/InterfaceSfMPipeline.h">
<polygon fill="white" stroke="black" points="305,-67.5 305,-97.5 424,-97.5 424,-67.5 305,-67.5"/>
<text text-anchor="start" x="313" y="-85.5" font-family="FreeSans" font-size="10.00">src/ApplicationInterface</text>
<text text-anchor="middle" x="364.5" y="-74.5" font-family="FreeSans" font-size="10.00">/InterfaceSfMPipeline.h</text>
</a>
</g>
</g>
<!-- Node263&#45;&gt;Node264 -->
<g id="edge6" class="edge"><title>Node263&#45;&gt;Node264</title>
<path fill="none" stroke="midnightblue" d="M364.5,-124.108C364.5,-115.154 364.5,-105.323 364.5,-97.5765"/>
<polygon fill="midnightblue" stroke="midnightblue" points="361,-124.396 364.5,-134.396 368,-124.396 361,-124.396"/>
</g>
<!-- Node265 -->
<g id="node8" class="node"><title>Node265</title>
<g id="a_node8"><a xlink:href="InterfaceSfMPipeline_8cpp.html" target="_top" xlink:title="src/ApplicationInterface\l/InterfaceSfMPipeline.cpp">
<polygon fill="white" stroke="black" points="301.5,-0.5 301.5,-30.5 429.5,-30.5 429.5,-0.5 301.5,-0.5"/>
<text text-anchor="start" x="309.5" y="-18.5" font-family="FreeSans" font-size="10.00">src/ApplicationInterface</text>
<text text-anchor="middle" x="365.5" y="-7.5" font-family="FreeSans" font-size="10.00">/InterfaceSfMPipeline.cpp</text>
</a>
</g>
</g>
<!-- Node264&#45;&gt;Node265 -->
<g id="edge7" class="edge"><title>Node264&#45;&gt;Node265</title>
<path fill="none" stroke="midnightblue" d="M364.875,-57.1081C365.013,-48.1539 365.164,-38.3227 365.283,-30.5765"/>
<polygon fill="midnightblue" stroke="midnightblue" points="361.371,-57.3433 364.717,-67.396 368.37,-57.451 361.371,-57.3433"/>
</g>
</g>
</svg>
        <g id="navigator" transform="translate(0 0)" fill="#404254">
                <rect fill="#f2f5e9" fill-opacity="0.5" stroke="#606060" stroke-width=".5" x="0" y="0" width="60" height="60"/>
                <use id="zoomplus" xlink:href="#zoomPlus" x="17" y="9" onmousedown="handleZoom(evt,'in')"/>
                <use id="zoomminus" xlink:href="#zoomMin" x="42" y="9" onmousedown="handleZoom(evt,'out')"/>
                <use id="reset" xlink:href="#resetDef" x="30" y="36" onmousedown="handleReset()"/>
                <g id="arrowUp" xlink:href="#dirArrow" transform="translate(30 24)" onmousedown="handlePan(0,-1)">
                  <use xlink:href="#rim" fill="#404040">
                        <set attributeName="fill" to="#808080" begin="arrowUp.mouseover" end="arrowUp.mouseout"/>
                  </use>
                  <path fill="none" stroke="white" stroke-width="1.5" d="M0,-3.0v7 M-2.5,-0.5L0,-3.0L2.5,-0.5"/>
                </g>
                <g id="arrowRight" xlink:href="#dirArrow" transform="rotate(90) translate(36 -43)" onmousedown="handlePan(1,0)">
                  <use xlink:href="#rim" fill="#404040">
                        <set attributeName="fill" to="#808080" begin="arrowRight.mouseover" end="arrowRight.mouseout"/>
                  </use>
                  <path fill="none" stroke="white" stroke-width="1.5" d="M0,-3.0v7 M-2.5,-0.5L0,-3.0L2.5,-0.5"/>
                </g>
                <g id="arrowDown" xlink:href="#dirArrow" transform="rotate(180) translate(-30 -48)" onmousedown="handlePan(0,1)">
                  <use xlink:href="#rim" fill="#404040">
                        <set attributeName="fill" to="#808080" begin="arrowDown.mouseover" end="arrowDown.mouseout"/>
                  </use>
                  <path fill="none" stroke="white" stroke-width="1.5" d="M0,-3.0v7 M-2.5,-0.5L0,-3.0L2.5,-0.5"/>
                </g>
                <g id="arrowLeft" xlink:href="#dirArrow" transform="rotate(270) translate(-36 17)" onmousedown="handlePan(-1,0)">
                  <use xlink:href="#rim" fill="#404040">
                        <set attributeName="fill" to="#808080" begin="arrowLeft.mouseover" end="arrowLeft.mouseout"/>
                  </use>
                  <path fill="none" stroke="white" stroke-width="1.5" d="M0,-3.0v7 M-2.5,-0.5L0,-3.0L2.5,-0.5"/>
                </g>
        </g>
        <svg viewBox="0 0 15 15" width="100%" height="30px" preserveAspectRatio="xMaxYMin meet">
         <g id="arrow_out" transform="scale(0.3 0.3)">
          <a xlink:href="InterfaceVisionGraphPipeline_8h__dep__incl_org.svg" target="_base">
           <rect id="button" ry="5" rx="5" y="6" x="6" height="38" width="38"
                fill="#f2f5e9" fill-opacity="0.5" stroke="#606060" stroke-width="1.0"/>
           <path id="arrow"
             d="M 11.500037,31.436501 C 11.940474,20.09759 22.043105,11.32322 32.158766,21.979434 L 37.068811,17.246167 C 37.068811,17.246167 37.088388,32 37.088388,32 L 22.160133,31.978069 C 22.160133,31.978069 26.997745,27.140456 26.997745,27.140456 C 18.528582,18.264221 13.291696,25.230495 11.500037,31.436501 z"
             style="fill:#404040;"/>
          </a>
         </g>
        </svg>
</svg>
