<?xml version="1.0" encoding="UTF-8" standalone="no"?>
<!DOCTYPE svg PUBLIC "-//W3C//DTD SVG 1.1//EN"
 "http://www.w3.org/Graphics/SVG/1.1/DTD/svg11.dtd">
<!-- Generated by graphviz version 2.38.0 (20140413.2041)
 -->
<!-- Title: src/ApplicationInterface/InterfacePoseGraphPipeline.h Pages: 1 -->
<svg width="312pt" height="240pt"
 viewBox="0.00 0.00 311.50 240.00" xmlns="http://www.w3.org/2000/svg" xmlns:xlink="http://www.w3.org/1999/xlink">
<g id="graph0" class="graph" transform="scale(1 1) rotate(0) translate(4 236)">
<title>src/ApplicationInterface/InterfacePoseGraphPipeline.h</title>
<polygon fill="white" stroke="none" points="-4,4 -4,-236 307.5,-236 307.5,4 -4,4"/>
<!-- Node246 -->
<g id="node1" class="node"><title>Node246</title>
<polygon fill="#bfbfbf" stroke="black" points="85,-201.5 85,-231.5 234,-231.5 234,-201.5 85,-201.5"/>
<text text-anchor="start" x="93" y="-219.5" font-family="FreeSans" font-size="10.00">src/ApplicationInterface</text>
<text text-anchor="middle" x="159.5" y="-208.5" font-family="FreeSans" font-size="10.00">/InterfacePoseGraphPipeline.h</text>
</g>
<!-- Node247 -->
<g id="node2" class="node"><title>Node247</title>
<g id="a_node2"><a xlink:href="InterfacePoseGraphPipeline_8cpp.html" target="_top" xlink:title="src/ApplicationInterface\l/InterfacePoseGraphPipeline.cpp">
<polygon fill="white" stroke="black" points="-1.42109e-14,-134.5 -1.42109e-14,-164.5 159,-164.5 159,-134.5 -1.42109e-14,-134.5"/>
<text text-anchor="start" x="8" y="-152.5" font-family="FreeSans" font-size="10.00">src/ApplicationInterface</text>
<text text-anchor="middle" x="79.5" y="-141.5" font-family="FreeSans" font-size="10.00">/InterfacePoseGraphPipeline.cpp</text>
</a>
</g>
</g>
<!-- Node246&#45;&gt;Node247 -->
<g id="edge1" class="edge"><title>Node246&#45;&gt;Node247</title>
<path fill="none" stroke="midnightblue" d="M134.125,-194.883C121.968,-185.005 107.721,-173.429 96.8249,-164.577"/>
<polygon fill="midnightblue" stroke="midnightblue" points="132.173,-197.806 142.141,-201.396 136.587,-192.374 132.173,-197.806"/>
</g>
<!-- Node248 -->
<g id="node3" class="node"><title>Node248</title>
<g id="a_node3"><a xlink:href="InterfaceSfMPipeline_8ipp.html" target="_top" xlink:title="src/ApplicationInterface\l/InterfaceSfMPipeline.ipp">
<polygon fill="white" stroke="black" points="177,-134.5 177,-164.5 302,-164.5 302,-134.5 177,-134.5"/>
<text text-anchor="start" x="185" y="-152.5" font-family="FreeSans" font-size="10.00">src/ApplicationInterface</text>
<text text-anchor="middle" x="239.5" y="-141.5" font-family="FreeSans" font-size="10.00">/InterfaceSfMPipeline.ipp</text>
</a>
</g>
</g>
<!-- Node246&#45;&gt;Node248 -->
<g id="edge2" class="edge"><title>Node246&#45;&gt;Node248</title>
<path fill="none" stroke="midnightblue" d="M184.875,-194.883C197.032,-185.005 211.279,-173.429 222.175,-164.577"/>
<polygon fill="midnightblue" stroke="midnightblue" points="182.413,-192.374 176.859,-201.396 186.827,-197.806 182.413,-192.374"/>
</g>
<!-- Node249 -->
<g id="node4" class="node"><title>Node249</title>
<g id="a_node4"><a xlink:href="InterfaceSfMPipeline_8h.html" target="_top" xlink:title="src/ApplicationInterface\l/InterfaceSfMPipeline.h">
<polygon fill="white" stroke="black" points="180,-67.5 180,-97.5 299,-97.5 299,-67.5 180,-67.5"/>
<text text-anchor="start" x="188" y="-85.5" font-family="FreeSans" font-size="10.00">src/ApplicationInterface</text>
<text text-anchor="middle" x="239.5" y="-74.5" font-family="FreeSans" font-size="10.00">/InterfaceSfMPipeline.h</text>
</a>
</g>
</g>
<!-- Node248&#45;&gt;Node249 -->
<g id="edge3" class="edge"><title>Node248&#45;&gt;Node249</title>
<path fill="none" stroke="midnightblue" d="M239.5,-124.108C239.5,-115.154 239.5,-105.323 239.5,-97.5765"/>
<polygon fill="midnightblue" stroke="midnightblue" points="236,-124.396 239.5,-134.396 243,-124.396 236,-124.396"/>
</g>
<!-- Node250 -->
<g id="node5" class="node"><title>Node250</title>
<g id="a_node5"><a xlink:href="InterfaceSfMPipeline_8cpp.html" target="_top" xlink:title="src/ApplicationInterface\l/InterfaceSfMPipeline.cpp">
<polygon fill="white" stroke="black" points="175.5,-0.5 175.5,-30.5 303.5,-30.5 303.5,-0.5 175.5,-0.5"/>
<text text-anchor="start" x="183.5" y="-18.5" font-family="FreeSans" font-size="10.00">src/ApplicationInterface</text>
<text text-anchor="middle" x="239.5" y="-7.5" font-family="FreeSans" font-size="10.00">/InterfaceSfMPipeline.cpp</text>
</a>
</g>
</g>
<!-- Node249&#45;&gt;Node250 -->
<g id="edge4" class="edge"><title>Node249&#45;&gt;Node250</title>
<path fill="none" stroke="midnightblue" d="M239.5,-57.1081C239.5,-48.1539 239.5,-38.3227 239.5,-30.5765"/>
<polygon fill="midnightblue" stroke="midnightblue" points="236,-57.3959 239.5,-67.396 243,-57.396 236,-57.3959"/>
</g>
</g>
</svg>
