<?xml version="1.0" encoding="UTF-8" standalone="no"?>
<!DOCTYPE svg PUBLIC "-//W3C//DTD SVG 1.1//EN"
 "http://www.w3.org/Graphics/SVG/1.1/DTD/svg11.dtd">
<!-- Generated by graphviz version 2.38.0 (20140413.2041)
 -->
<!-- Title: src/ApplicationInterface/InterfaceTwoStageRANSAC.ipp Pages: 1 -->
<svg width="2106pt" height="742pt"
 viewBox="0.00 0.00 2106.00 742.00" xmlns="http://www.w3.org/2000/svg" xmlns:xlink="http://www.w3.org/1999/xlink">
<g id="graph0" class="graph" transform="scale(1 1) rotate(0) translate(4 738)">
<title>src/ApplicationInterface/InterfaceTwoStageRANSAC.ipp</title>
<polygon fill="white" stroke="none" points="-4,4 -4,-738 2102,-738 2102,4 -4,4"/>
<!-- Node84 -->
<g id="node1" class="node"><title>Node84</title>
<polygon fill="#bfbfbf" stroke="black" points="1528.5,-703.5 1528.5,-733.5 1686.5,-733.5 1686.5,-703.5 1528.5,-703.5"/>
<text text-anchor="start" x="1536.5" y="-721.5" font-family="FreeSans" font-size="10.00">src/ApplicationInterface</text>
<text text-anchor="middle" x="1607.5" y="-710.5" font-family="FreeSans" font-size="10.00">/InterfaceTwoStageRANSAC.ipp</text>
</g>
<!-- Node85 -->
<g id="node2" class="node"><title>Node85</title>
<g id="a_node2"><a xlink:href="InterfaceTwoStageRANSAC_8h.html" target="_top" xlink:title="src/ApplicationInterface\l/InterfaceTwoStageRANSAC.h">
<polygon fill="white" stroke="black" points="1532,-636.5 1532,-666.5 1683,-666.5 1683,-636.5 1532,-636.5"/>
<text text-anchor="start" x="1540" y="-654.5" font-family="FreeSans" font-size="10.00">src/ApplicationInterface</text>
<text text-anchor="middle" x="1607.5" y="-643.5" font-family="FreeSans" font-size="10.00">/InterfaceTwoStageRANSAC.h</text>
</a>
</g>
</g>
<!-- Node84&#45;&gt;Node85 -->
<g id="edge1" class="edge"><title>Node84&#45;&gt;Node85</title>
<path fill="none" stroke="midnightblue" d="M1607.5,-693.108C1607.5,-684.154 1607.5,-674.323 1607.5,-666.577"/>
<polygon fill="midnightblue" stroke="midnightblue" points="1604,-693.396 1607.5,-703.396 1611,-693.396 1604,-693.396"/>
</g>
<!-- Node86 -->
<g id="node3" class="node"><title>Node86</title>
<g id="a_node3"><a xlink:href="InterfaceGeometryEstimator_8ipp.html" target="_top" xlink:title="src/ApplicationInterface\l/InterfaceGeometryEstimator.ipp">
<polygon fill="white" stroke="black" points="1384.5,-569.5 1384.5,-599.5 1540.5,-599.5 1540.5,-569.5 1384.5,-569.5"/>
<text text-anchor="start" x="1392.5" y="-587.5" font-family="FreeSans" font-size="10.00">src/ApplicationInterface</text>
<text text-anchor="middle" x="1462.5" y="-576.5" font-family="FreeSans" font-size="10.00">/InterfaceGeometryEstimator.ipp</text>
</a>
</g>
</g>
<!-- Node85&#45;&gt;Node86 -->
<g id="edge2" class="edge"><title>Node85&#45;&gt;Node86</title>
<path fill="none" stroke="midnightblue" d="M1566.83,-632.269C1543.74,-621.916 1515.26,-609.153 1493.9,-599.577"/>
<polygon fill="midnightblue" stroke="midnightblue" points="1565.48,-635.499 1576.04,-636.396 1568.34,-629.112 1565.48,-635.499"/>
</g>
<!-- Node90 -->
<g id="node7" class="node"><title>Node90</title>
<g id="a_node7"><a xlink:href="InterfaceCalibrationVerificationPipeline_8ipp.html" target="_top" xlink:title="src/ApplicationInterface\l/InterfaceCalibrationVerification\lPipeline.ipp">
<polygon fill="white" stroke="black" points="225.5,-290.5 225.5,-331.5 377.5,-331.5 377.5,-290.5 225.5,-290.5"/>
<text text-anchor="start" x="233.5" y="-319.5" font-family="FreeSans" font-size="10.00">src/ApplicationInterface</text>
<text text-anchor="start" x="233.5" y="-308.5" font-family="FreeSans" font-size="10.00">/InterfaceCalibrationVerification</text>
<text text-anchor="middle" x="301.5" y="-297.5" font-family="FreeSans" font-size="10.00">Pipeline.ipp</text>
</a>
</g>
</g>
<!-- Node85&#45;&gt;Node90 -->
<g id="edge43" class="edge"><title>Node85&#45;&gt;Node90</title>
<path fill="none" stroke="midnightblue" d="M1521.46,-650.452C1238.91,-649.171 357.5,-635.776 357.5,-518.5 357.5,-518.5 357.5,-518.5 357.5,-449.5 357.5,-404.909 331.926,-357.792 315.343,-331.927"/>
<polygon fill="midnightblue" stroke="midnightblue" points="1521.64,-653.953 1531.66,-650.494 1521.67,-646.953 1521.64,-653.953"/>
</g>
<!-- Node94 -->
<g id="node11" class="node"><title>Node94</title>
<g id="a_node11"><a xlink:href="AppGeometryEstimator32_8cpp.html" target="_top" xlink:title="src/Application/AppGeometry\lEstimator32.cpp">
<polygon fill="white" stroke="black" points="618,-296 618,-326 761,-326 761,-296 618,-296"/>
<text text-anchor="start" x="626" y="-314" font-family="FreeSans" font-size="10.00">src/Application/AppGeometry</text>
<text text-anchor="middle" x="689.5" y="-303" font-family="FreeSans" font-size="10.00">Estimator32.cpp</text>
</a>
</g>
</g>
<!-- Node85&#45;&gt;Node94 -->
<g id="edge44" class="edge"><title>Node85&#45;&gt;Node94</title>
<path fill="none" stroke="midnightblue" d="M1521.6,-651.271C1341.21,-650.572 939.5,-635.841 939.5,-518.5 939.5,-518.5 939.5,-518.5 939.5,-449.5 939.5,-402.938 804.673,-350.609 733.047,-326.095"/>
<polygon fill="midnightblue" stroke="midnightblue" points="1521.84,-654.772 1531.85,-651.297 1521.86,-647.772 1521.84,-654.772"/>
</g>
<!-- Node99 -->
<g id="node16" class="node"><title>Node99</title>
<g id="a_node16"><a xlink:href="InterfaceNodalCameraTrackingPipeline_8ipp.html" target="_top" xlink:title="src/ApplicationInterface\l/InterfaceNodalCameraTrackingPipeline.ipp">
<polygon fill="white" stroke="black" points="395.5,-296 395.5,-326 599.5,-326 599.5,-296 395.5,-296"/>
<text text-anchor="start" x="403.5" y="-314" font-family="FreeSans" font-size="10.00">src/ApplicationInterface</text>
<text text-anchor="middle" x="497.5" y="-303" font-family="FreeSans" font-size="10.00">/InterfaceNodalCameraTrackingPipeline.ipp</text>
</a>
</g>
</g>
<!-- Node85&#45;&gt;Node99 -->
<g id="edge45" class="edge"><title>Node85&#45;&gt;Node99</title>
<path fill="none" stroke="midnightblue" d="M1521.68,-648.028C1280.91,-639.96 616.5,-609.456 616.5,-518.5 616.5,-518.5 616.5,-518.5 616.5,-449.5 616.5,-392.674 557.668,-347.782 522.737,-326.135"/>
<polygon fill="midnightblue" stroke="midnightblue" points="1521.68,-651.53 1531.79,-648.362 1521.91,-644.534 1521.68,-651.53"/>
</g>
<!-- Node103 -->
<g id="node20" class="node"><title>Node103</title>
<g id="a_node20"><a xlink:href="InterfaceVisionGraphPipeline_8ipp.html" target="_top" xlink:title="src/ApplicationInterface\l/InterfaceVisionGraphPipeline.ipp">
<polygon fill="white" stroke="black" points="1418,-296 1418,-326 1579,-326 1579,-296 1418,-296"/>
<text text-anchor="start" x="1426" y="-314" font-family="FreeSans" font-size="10.00">src/ApplicationInterface</text>
<text text-anchor="middle" x="1498.5" y="-303" font-family="FreeSans" font-size="10.00">/InterfaceVisionGraphPipeline.ipp</text>
</a>
</g>
</g>
<!-- Node85&#45;&gt;Node103 -->
<g id="edge46" class="edge"><title>Node85&#45;&gt;Node103</title>
<path fill="none" stroke="midnightblue" d="M1596.35,-626.859C1585.13,-600.89 1569.5,-557.658 1569.5,-518.5 1569.5,-518.5 1569.5,-518.5 1569.5,-449.5 1569.5,-399.529 1532.02,-349.587 1511.52,-326.011"/>
<polygon fill="midnightblue" stroke="midnightblue" points="1593.26,-628.532 1600.53,-636.238 1599.65,-625.68 1593.26,-628.532"/>
</g>
<!-- Node105 -->
<g id="node22" class="node"><title>Node105</title>
<g id="a_node22"><a xlink:href="InterfacePfMPipeline_8ipp.html" target="_top" xlink:title="src/ApplicationInterface\l/InterfacePfMPipeline.ipp">
<polygon fill="white" stroke="black" points="1285,-140 1285,-170 1410,-170 1410,-140 1285,-140"/>
<text text-anchor="start" x="1293" y="-158" font-family="FreeSans" font-size="10.00">src/ApplicationInterface</text>
<text text-anchor="middle" x="1347.5" y="-147" font-family="FreeSans" font-size="10.00">/InterfacePfMPipeline.ipp</text>
</a>
</g>
</g>
<!-- Node85&#45;&gt;Node105 -->
<g id="edge47" class="edge"><title>Node85&#45;&gt;Node105</title>
<path fill="none" stroke="midnightblue" d="M1618.65,-626.859C1629.87,-600.89 1645.5,-557.658 1645.5,-518.5 1645.5,-518.5 1645.5,-518.5 1645.5,-310 1645.5,-258.929 1627.14,-241.569 1585.5,-212 1523.95,-168.29 1492.79,-194.11 1419.5,-176 1412.07,-174.164 1404.24,-172.112 1396.59,-170.041"/>
<polygon fill="midnightblue" stroke="midnightblue" points="1615.35,-625.68 1614.47,-636.238 1621.74,-628.532 1615.35,-625.68"/>
</g>
<!-- Node109 -->
<g id="node26" class="node"><title>Node109</title>
<g id="a_node26"><a xlink:href="InterfaceSfMPipeline_8ipp.html" target="_top" xlink:title="src/ApplicationInterface\l/InterfaceSfMPipeline.ipp">
<polygon fill="white" stroke="black" points="1611,-140 1611,-170 1736,-170 1736,-140 1611,-140"/>
<text text-anchor="start" x="1619" y="-158" font-family="FreeSans" font-size="10.00">src/ApplicationInterface</text>
<text text-anchor="middle" x="1673.5" y="-147" font-family="FreeSans" font-size="10.00">/InterfaceSfMPipeline.ipp</text>
</a>
</g>
</g>
<!-- Node85&#45;&gt;Node109 -->
<g id="edge50" class="edge"><title>Node85&#45;&gt;Node109</title>
<path fill="none" stroke="midnightblue" d="M1633.81,-629.868C1643.05,-621.463 1652.79,-611.11 1659.5,-600 1679.02,-567.675 1683.5,-556.26 1683.5,-518.5 1683.5,-518.5 1683.5,-518.5 1683.5,-310 1683.5,-258.559 1677.88,-197.654 1675.06,-170.417"/>
<polygon fill="midnightblue" stroke="midnightblue" points="1631.49,-627.242 1626.24,-636.442 1636.08,-632.527 1631.49,-627.242"/>
</g>
<!-- Node117 -->
<g id="node34" class="node"><title>Node117</title>
<g id="a_node34"><a xlink:href="InterfacePoseGraphPipeline_8ipp.html" target="_top" xlink:title="src/ApplicationInterface\l/InterfacePoseGraphPipeline.ipp">
<polygon fill="white" stroke="black" points="1711.5,-296 1711.5,-326 1867.5,-326 1867.5,-296 1711.5,-296"/>
<text text-anchor="start" x="1719.5" y="-314" font-family="FreeSans" font-size="10.00">src/ApplicationInterface</text>
<text text-anchor="middle" x="1789.5" y="-303" font-family="FreeSans" font-size="10.00">/InterfacePoseGraphPipeline.ipp</text>
</a>
</g>
</g>
<!-- Node85&#45;&gt;Node117 -->
<g id="edge48" class="edge"><title>Node85&#45;&gt;Node117</title>
<path fill="none" stroke="midnightblue" d="M1656.43,-631.756C1671.42,-623.928 1686.77,-613.459 1697.5,-600 1721.03,-570.471 1721.5,-556.26 1721.5,-518.5 1721.5,-518.5 1721.5,-518.5 1721.5,-449.5 1721.5,-411.74 1728.19,-401.559 1745.5,-368 1753.55,-352.396 1766.21,-336.873 1775.88,-326.142"/>
<polygon fill="midnightblue" stroke="midnightblue" points="1654.62,-628.745 1647.19,-636.292 1657.71,-635.029 1654.62,-628.745"/>
</g>
<!-- Node120 -->
<g id="node37" class="node"><title>Node120</title>
<g id="a_node37"><a xlink:href="InterfaceRoamingCameraTrackingPipeline_8ipp.html" target="_top" xlink:title="src/ApplicationInterface\l/InterfaceRoamingCameraTracking\lPipeline.ipp">
<polygon fill="white" stroke="black" points="1886,-290.5 1886,-331.5 2053,-331.5 2053,-290.5 1886,-290.5"/>
<text text-anchor="start" x="1894" y="-319.5" font-family="FreeSans" font-size="10.00">src/ApplicationInterface</text>
<text text-anchor="start" x="1894" y="-308.5" font-family="FreeSans" font-size="10.00">/InterfaceRoamingCameraTracking</text>
<text text-anchor="middle" x="1969.5" y="-297.5" font-family="FreeSans" font-size="10.00">Pipeline.ipp</text>
</a>
</g>
</g>
<!-- Node85&#45;&gt;Node120 -->
<g id="edge49" class="edge"><title>Node85&#45;&gt;Node120</title>
<path fill="none" stroke="midnightblue" d="M1668.66,-632.778C1687.35,-625.058 1706.83,-614.394 1721.5,-600 1750.03,-572.014 1759.5,-558.466 1759.5,-518.5 1759.5,-518.5 1759.5,-518.5 1759.5,-449.5 1759.5,-386.094 1827.34,-350.346 1885.9,-331.298"/>
<polygon fill="midnightblue" stroke="midnightblue" points="1667.32,-629.544 1659.28,-636.443 1669.87,-636.064 1667.32,-629.544"/>
</g>
<!-- Node124 -->
<g id="node41" class="node"><title>Node124</title>
<g id="a_node41"><a xlink:href="InterfaceTwoStageRANSAC_8cpp.html" target="_top" xlink:title="src/ApplicationInterface\l/InterfaceTwoStageRANSAC.cpp">
<polygon fill="white" stroke="black" points="1788,-569.5 1788,-599.5 1949,-599.5 1949,-569.5 1788,-569.5"/>
<text text-anchor="start" x="1796" y="-587.5" font-family="FreeSans" font-size="10.00">src/ApplicationInterface</text>
<text text-anchor="middle" x="1868.5" y="-576.5" font-family="FreeSans" font-size="10.00">/InterfaceTwoStageRANSAC.cpp</text>
</a>
</g>
</g>
<!-- Node85&#45;&gt;Node124 -->
<g id="edge51" class="edge"><title>Node85&#45;&gt;Node124</title>
<path fill="none" stroke="midnightblue" d="M1673.55,-634.052C1716.22,-623.425 1771.16,-609.741 1811.84,-599.611"/>
<polygon fill="midnightblue" stroke="midnightblue" points="1672.67,-630.663 1663.81,-636.476 1674.36,-637.456 1672.67,-630.663"/>
</g>
<!-- Node87 -->
<g id="node4" class="node"><title>Node87</title>
<g id="a_node4"><a xlink:href="InterfaceGeometryEstimator_8h.html" target="_top" xlink:title="src/ApplicationInterface\l/InterfaceGeometryEstimator.h">
<polygon fill="white" stroke="black" points="1388,-502.5 1388,-532.5 1537,-532.5 1537,-502.5 1388,-502.5"/>
<text text-anchor="start" x="1396" y="-520.5" font-family="FreeSans" font-size="10.00">src/ApplicationInterface</text>
<text text-anchor="middle" x="1462.5" y="-509.5" font-family="FreeSans" font-size="10.00">/InterfaceGeometryEstimator.h</text>
</a>
</g>
</g>
<!-- Node86&#45;&gt;Node87 -->
<g id="edge3" class="edge"><title>Node86&#45;&gt;Node87</title>
<path fill="none" stroke="midnightblue" d="M1462.5,-559.108C1462.5,-550.154 1462.5,-540.323 1462.5,-532.577"/>
<polygon fill="midnightblue" stroke="midnightblue" points="1459,-559.396 1462.5,-569.396 1466,-559.396 1459,-559.396"/>
</g>
<!-- Node88 -->
<g id="node5" class="node"><title>Node88</title>
<g id="a_node5"><a xlink:href="InterfaceGeometryEstimationPipeline_8ipp.html" target="_top" xlink:title="src/ApplicationInterface\l/InterfaceGeometryEstimationPipeline.ipp">
<polygon fill="white" stroke="black" points="1078,-435.5 1078,-465.5 1273,-465.5 1273,-435.5 1078,-435.5"/>
<text text-anchor="start" x="1086" y="-453.5" font-family="FreeSans" font-size="10.00">src/ApplicationInterface</text>
<text text-anchor="middle" x="1175.5" y="-442.5" font-family="FreeSans" font-size="10.00">/InterfaceGeometryEstimationPipeline.ipp</text>
</a>
</g>
</g>
<!-- Node87&#45;&gt;Node88 -->
<g id="edge4" class="edge"><title>Node87&#45;&gt;Node88</title>
<path fill="none" stroke="midnightblue" d="M1390.76,-500.252C1343.72,-489.598 1282.82,-475.805 1237.81,-465.611"/>
<polygon fill="midnightblue" stroke="midnightblue" points="1390.05,-503.681 1400.58,-502.476 1391.6,-496.854 1390.05,-503.681"/>
</g>
<!-- Node87&#45;&gt;Node105 -->
<g id="edge40" class="edge"><title>Node87&#45;&gt;Node105</title>
<path fill="none" stroke="midnightblue" d="M1409.17,-497.737C1395.16,-490.124 1381.68,-479.784 1373.5,-466 1368.51,-457.592 1371.41,-299.736 1370.5,-290 1366.38,-246.053 1356.01,-194.81 1350.71,-170.379"/>
<polygon fill="midnightblue" stroke="midnightblue" points="1407.9,-501.015 1418.41,-502.355 1411.03,-494.753 1407.9,-501.015"/>
</g>
<!-- Node87&#45;&gt;Node109 -->
<g id="edge42" class="edge"><title>Node87&#45;&gt;Node109</title>
<path fill="none" stroke="midnightblue" d="M1507.45,-498.168C1550.03,-477.469 1607.5,-439.367 1607.5,-384.5 1607.5,-384.5 1607.5,-384.5 1607.5,-310 1607.5,-254.733 1643.86,-196.673 1662.6,-170.41"/>
<polygon fill="midnightblue" stroke="midnightblue" points="1505.91,-495.024 1498.34,-502.443 1508.88,-501.36 1505.91,-495.024"/>
</g>
<!-- Node123 -->
<g id="node40" class="node"><title>Node123</title>
<g id="a_node40"><a xlink:href="InterfaceGeometryEstimator_8cpp.html" target="_top" xlink:title="src/ApplicationInterface\l/InterfaceGeometryEstimator.cpp">
<polygon fill="white" stroke="black" points="1383,-435.5 1383,-465.5 1542,-465.5 1542,-435.5 1383,-435.5"/>
<text text-anchor="start" x="1391" y="-453.5" font-family="FreeSans" font-size="10.00">src/ApplicationInterface</text>
<text text-anchor="middle" x="1462.5" y="-442.5" font-family="FreeSans" font-size="10.00">/InterfaceGeometryEstimator.cpp</text>
</a>
</g>
</g>
<!-- Node87&#45;&gt;Node123 -->
<g id="edge41" class="edge"><title>Node87&#45;&gt;Node123</title>
<path fill="none" stroke="midnightblue" d="M1462.5,-492.108C1462.5,-483.154 1462.5,-473.323 1462.5,-465.577"/>
<polygon fill="midnightblue" stroke="midnightblue" points="1459,-492.396 1462.5,-502.396 1466,-492.396 1459,-492.396"/>
</g>
<!-- Node89 -->
<g id="node6" class="node"><title>Node89</title>
<g id="a_node6"><a xlink:href="InterfaceGeometryEstimationPipeline_8h.html" target="_top" xlink:title="src/ApplicationInterface\l/InterfaceGeometryEstimationPipeline.h">
<polygon fill="white" stroke="black" points="1027.5,-368.5 1027.5,-398.5 1215.5,-398.5 1215.5,-368.5 1027.5,-368.5"/>
<text text-anchor="start" x="1035.5" y="-386.5" font-family="FreeSans" font-size="10.00">src/ApplicationInterface</text>
<text text-anchor="middle" x="1121.5" y="-375.5" font-family="FreeSans" font-size="10.00">/InterfaceGeometryEstimationPipeline.h</text>
</a>
</g>
</g>
<!-- Node88&#45;&gt;Node89 -->
<g id="edge5" class="edge"><title>Node88&#45;&gt;Node89</title>
<path fill="none" stroke="midnightblue" d="M1157.18,-427.447C1149.25,-417.899 1140.2,-407.004 1133.19,-398.577"/>
<polygon fill="midnightblue" stroke="midnightblue" points="1154.7,-429.941 1163.78,-435.396 1160.08,-425.467 1154.7,-429.941"/>
</g>
<!-- Node89&#45;&gt;Node90 -->
<g id="edge6" class="edge"><title>Node89&#45;&gt;Node90</title>
<path fill="none" stroke="midnightblue" d="M1017.19,-380.658C874.196,-376.923 609.586,-365.681 386.5,-332 383.652,-331.57 380.758,-331.094 377.842,-330.58"/>
<polygon fill="midnightblue" stroke="midnightblue" points="1017.19,-384.159 1027.28,-380.914 1017.37,-377.161 1017.19,-384.159"/>
</g>
<!-- Node89&#45;&gt;Node94 -->
<g id="edge10" class="edge"><title>Node89&#45;&gt;Node94</title>
<path fill="none" stroke="midnightblue" d="M1017.12,-370.374C946.827,-361.511 852.215,-348.229 769.5,-332 760.649,-330.264 751.31,-328.171 742.258,-326.002"/>
<polygon fill="midnightblue" stroke="midnightblue" points="1016.95,-373.88 1027.31,-371.65 1017.82,-366.935 1016.95,-373.88"/>
</g>
<!-- Node95 -->
<g id="node12" class="node"><title>Node95</title>
<g id="a_node12"><a xlink:href="InterfaceMultimodelGeometryEstimationPipeline_8ipp.html" target="_top" xlink:title="src/ApplicationInterface\l/InterfaceMultimodelGeometryEstimation\lPipeline.ipp">
<polygon fill="white" stroke="black" points="779,-290.5 779,-331.5 972,-331.5 972,-290.5 779,-290.5"/>
<text text-anchor="start" x="787" y="-319.5" font-family="FreeSans" font-size="10.00">src/ApplicationInterface</text>
<text text-anchor="start" x="787" y="-308.5" font-family="FreeSans" font-size="10.00">/InterfaceMultimodelGeometryEstimation</text>
<text text-anchor="middle" x="875.5" y="-297.5" font-family="FreeSans" font-size="10.00">Pipeline.ipp</text>
</a>
</g>
</g>
<!-- Node89&#45;&gt;Node95 -->
<g id="edge11" class="edge"><title>Node89&#45;&gt;Node95</title>
<path fill="none" stroke="midnightblue" d="M1062.81,-365.679C1027.06,-355.435 981.239,-342.303 943.863,-331.592"/>
<polygon fill="midnightblue" stroke="midnightblue" points="1062.03,-369.097 1072.6,-368.487 1063.96,-362.368 1062.03,-369.097"/>
</g>
<!-- Node89&#45;&gt;Node99 -->
<g id="edge15" class="edge"><title>Node89&#45;&gt;Node99</title>
<path fill="none" stroke="midnightblue" d="M1016.98,-374.679C913.109,-366.327 749.399,-351.597 608.5,-332 596.185,-330.287 583.149,-328.193 570.509,-326.013"/>
<polygon fill="midnightblue" stroke="midnightblue" points="1016.91,-378.185 1027.15,-375.493 1017.46,-371.207 1016.91,-378.185"/>
</g>
<!-- Node89&#45;&gt;Node103 -->
<g id="edge19" class="edge"><title>Node89&#45;&gt;Node103</title>
<path fill="none" stroke="midnightblue" d="M1206.28,-366.646C1271.48,-354.453 1360.73,-337.763 1423.39,-326.047"/>
<polygon fill="midnightblue" stroke="midnightblue" points="1205.62,-363.209 1196.43,-368.487 1206.91,-370.089 1205.62,-363.209"/>
</g>
<!-- Node113 -->
<g id="node30" class="node"><title>Node113</title>
<g id="a_node30"><a xlink:href="InterfaceGeometryEstimationPipeline_8cpp.html" target="_top" xlink:title="src/ApplicationInterface\l/InterfaceGeometryEstimationPipeline.cpp">
<polygon fill="white" stroke="black" points="1163.5,-296 1163.5,-326 1361.5,-326 1361.5,-296 1163.5,-296"/>
<text text-anchor="start" x="1171.5" y="-314" font-family="FreeSans" font-size="10.00">src/ApplicationInterface</text>
<text text-anchor="middle" x="1262.5" y="-303" font-family="FreeSans" font-size="10.00">/InterfaceGeometryEstimationPipeline.cpp</text>
</a>
</g>
</g>
<!-- Node89&#45;&gt;Node113 -->
<g id="edge29" class="edge"><title>Node89&#45;&gt;Node113</title>
<path fill="none" stroke="midnightblue" d="M1158.75,-363.873C1182.45,-352.023 1212.66,-336.922 1234.35,-326.073"/>
<polygon fill="midnightblue" stroke="midnightblue" points="1157.07,-360.8 1149.69,-368.403 1160.2,-367.061 1157.07,-360.8"/>
</g>
<!-- Node114 -->
<g id="node31" class="node"><title>Node114</title>
<g id="a_node31"><a xlink:href="InterfaceImageFeatureTrackingPipeline_8ipp.html" target="_top" xlink:title="src/ApplicationInterface\l/InterfaceImageFeatureTracking\lPipeline.ipp">
<polygon fill="white" stroke="black" points="990,-290.5 990,-331.5 1145,-331.5 1145,-290.5 990,-290.5"/>
<text text-anchor="start" x="998" y="-319.5" font-family="FreeSans" font-size="10.00">src/ApplicationInterface</text>
<text text-anchor="start" x="998" y="-308.5" font-family="FreeSans" font-size="10.00">/InterfaceImageFeatureTracking</text>
<text text-anchor="middle" x="1067.5" y="-297.5" font-family="FreeSans" font-size="10.00">Pipeline.ipp</text>
</a>
</g>
</g>
<!-- Node89&#45;&gt;Node114 -->
<g id="edge30" class="edge"><title>Node89&#45;&gt;Node114</title>
<path fill="none" stroke="midnightblue" d="M1104.47,-360.26C1097.42,-351.062 1089.32,-340.489 1082.5,-331.588"/>
<polygon fill="midnightblue" stroke="midnightblue" points="1101.71,-362.423 1110.57,-368.233 1107.27,-358.166 1101.71,-362.423"/>
</g>
<!-- Node89&#45;&gt;Node117 -->
<g id="edge33" class="edge"><title>Node89&#45;&gt;Node117</title>
<path fill="none" stroke="midnightblue" d="M1226.1,-371.46C1360.58,-357.268 1591.04,-332.945 1711.3,-320.254"/>
<polygon fill="midnightblue" stroke="midnightblue" points="1225.37,-368.018 1215.79,-372.549 1226.1,-374.98 1225.37,-368.018"/>
</g>
<!-- Node89&#45;&gt;Node120 -->
<g id="edge37" class="edge"><title>Node89&#45;&gt;Node120</title>
<path fill="none" stroke="midnightblue" d="M1225.82,-380.3C1371.95,-376.134 1645.59,-364.377 1876.5,-332 1879.61,-331.564 1882.77,-331.083 1885.95,-330.566"/>
<polygon fill="midnightblue" stroke="midnightblue" points="1225.42,-376.809 1215.52,-380.587 1225.62,-383.807 1225.42,-376.809"/>
</g>
<!-- Node91 -->
<g id="node8" class="node"><title>Node91</title>
<g id="a_node8"><a xlink:href="InterfaceCalibrationVerificationPipeline_8h.html" target="_top" xlink:title="src/ApplicationInterface\l/InterfaceCalibrationVerification\lPipeline.h">
<polygon fill="white" stroke="black" points="165.5,-212.5 165.5,-253.5 317.5,-253.5 317.5,-212.5 165.5,-212.5"/>
<text text-anchor="start" x="173.5" y="-241.5" font-family="FreeSans" font-size="10.00">src/ApplicationInterface</text>
<text text-anchor="start" x="173.5" y="-230.5" font-family="FreeSans" font-size="10.00">/InterfaceCalibrationVerification</text>
<text text-anchor="middle" x="241.5" y="-219.5" font-family="FreeSans" font-size="10.00">Pipeline.h</text>
</a>
</g>
</g>
<!-- Node90&#45;&gt;Node91 -->
<g id="edge7" class="edge"><title>Node90&#45;&gt;Node91</title>
<path fill="none" stroke="midnightblue" d="M279.661,-282.338C272.114,-272.778 263.821,-262.273 256.899,-253.506"/>
<polygon fill="midnightblue" stroke="midnightblue" points="277.105,-284.748 286.049,-290.428 282.599,-280.41 277.105,-284.748"/>
</g>
<!-- Node92 -->
<g id="node9" class="node"><title>Node92</title>
<g id="a_node9"><a xlink:href="AppCalibrationVerification_8cpp.html" target="_top" xlink:title="src/Application/AppCalibration\lVerification.cpp">
<polygon fill="white" stroke="black" points="0,-140 0,-170 147,-170 147,-140 0,-140"/>
<text text-anchor="start" x="8" y="-158" font-family="FreeSans" font-size="10.00">src/Application/AppCalibration</text>
<text text-anchor="middle" x="73.5" y="-147" font-family="FreeSans" font-size="10.00">Verification.cpp</text>
</a>
</g>
</g>
<!-- Node91&#45;&gt;Node92 -->
<g id="edge8" class="edge"><title>Node91&#45;&gt;Node92</title>
<path fill="none" stroke="midnightblue" d="M189.072,-208.282C161.38,-195.755 128.332,-180.805 104.683,-170.106"/>
<polygon fill="midnightblue" stroke="midnightblue" points="187.682,-211.495 198.236,-212.428 190.567,-205.117 187.682,-211.495"/>
</g>
<!-- Node93 -->
<g id="node10" class="node"><title>Node93</title>
<g id="a_node10"><a xlink:href="InterfaceCalibrationVerificationPipeline_8cpp.html" target="_top" xlink:title="src/ApplicationInterface\l/InterfaceCalibrationVerification\lPipeline.cpp">
<polygon fill="white" stroke="black" points="165.5,-134.5 165.5,-175.5 317.5,-175.5 317.5,-134.5 165.5,-134.5"/>
<text text-anchor="start" x="173.5" y="-163.5" font-family="FreeSans" font-size="10.00">src/ApplicationInterface</text>
<text text-anchor="start" x="173.5" y="-152.5" font-family="FreeSans" font-size="10.00">/InterfaceCalibrationVerification</text>
<text text-anchor="middle" x="241.5" y="-141.5" font-family="FreeSans" font-size="10.00">Pipeline.cpp</text>
</a>
</g>
</g>
<!-- Node91&#45;&gt;Node93 -->
<g id="edge9" class="edge"><title>Node91&#45;&gt;Node93</title>
<path fill="none" stroke="midnightblue" d="M241.5,-202.297C241.5,-193.301 241.5,-183.653 241.5,-175.506"/>
<polygon fill="midnightblue" stroke="midnightblue" points="238,-202.428 241.5,-212.428 245,-202.428 238,-202.428"/>
</g>
<!-- Node96 -->
<g id="node13" class="node"><title>Node96</title>
<g id="a_node13"><a xlink:href="InterfaceMultimodelGeometryEstimationPipeline_8h.html" target="_top" xlink:title="src/ApplicationInterface\l/InterfaceMultimodelGeometryEstimation\lPipeline.h">
<polygon fill="white" stroke="black" points="779,-212.5 779,-253.5 972,-253.5 972,-212.5 779,-212.5"/>
<text text-anchor="start" x="787" y="-241.5" font-family="FreeSans" font-size="10.00">src/ApplicationInterface</text>
<text text-anchor="start" x="787" y="-230.5" font-family="FreeSans" font-size="10.00">/InterfaceMultimodelGeometryEstimation</text>
<text text-anchor="middle" x="875.5" y="-219.5" font-family="FreeSans" font-size="10.00">Pipeline.h</text>
</a>
</g>
</g>
<!-- Node95&#45;&gt;Node96 -->
<g id="edge12" class="edge"><title>Node95&#45;&gt;Node96</title>
<path fill="none" stroke="midnightblue" d="M875.5,-280.297C875.5,-271.301 875.5,-261.653 875.5,-253.506"/>
<polygon fill="midnightblue" stroke="midnightblue" points="872,-280.428 875.5,-290.428 879,-280.428 872,-280.428"/>
</g>
<!-- Node97 -->
<g id="node14" class="node"><title>Node97</title>
<g id="a_node14"><a xlink:href="AppMultimodelGeometryEstimator22_8cpp.html" target="_top" xlink:title="src/Application/AppMultimodel\lGeometryEstimator22.cpp">
<polygon fill="white" stroke="black" points="917,-140 917,-170 1066,-170 1066,-140 917,-140"/>
<text text-anchor="start" x="925" y="-158" font-family="FreeSans" font-size="10.00">src/Application/AppMultimodel</text>
<text text-anchor="middle" x="991.5" y="-147" font-family="FreeSans" font-size="10.00">GeometryEstimator22.cpp</text>
</a>
</g>
</g>
<!-- Node96&#45;&gt;Node97 -->
<g id="edge13" class="edge"><title>Node96&#45;&gt;Node97</title>
<path fill="none" stroke="midnightblue" d="M913.932,-206.82C932.502,-194.654 954.104,-180.501 969.788,-170.225"/>
<polygon fill="midnightblue" stroke="midnightblue" points="911.819,-204.02 905.373,-212.428 915.656,-209.875 911.819,-204.02"/>
</g>
<!-- Node98 -->
<g id="node15" class="node"><title>Node98</title>
<g id="a_node15"><a xlink:href="InterfaceMultimodelGeometryEstimationPipeline_8cpp.html" target="_top" xlink:title="src/ApplicationInterface\l/InterfaceMultimodelGeometryEstimation\lPipeline.cpp">
<polygon fill="white" stroke="black" points="706,-134.5 706,-175.5 899,-175.5 899,-134.5 706,-134.5"/>
<text text-anchor="start" x="714" y="-163.5" font-family="FreeSans" font-size="10.00">src/ApplicationInterface</text>
<text text-anchor="start" x="714" y="-152.5" font-family="FreeSans" font-size="10.00">/InterfaceMultimodelGeometryEstimation</text>
<text text-anchor="middle" x="802.5" y="-141.5" font-family="FreeSans" font-size="10.00">Pipeline.cpp</text>
</a>
</g>
</g>
<!-- Node96&#45;&gt;Node98 -->
<g id="edge14" class="edge"><title>Node96&#45;&gt;Node98</title>
<path fill="none" stroke="midnightblue" d="M849.762,-205.204C840.36,-195.416 829.912,-184.539 821.236,-175.506"/>
<polygon fill="midnightblue" stroke="midnightblue" points="847.249,-207.641 856.701,-212.428 852.298,-202.792 847.249,-207.641"/>
</g>
<!-- Node100 -->
<g id="node17" class="node"><title>Node100</title>
<g id="a_node17"><a xlink:href="InterfaceNodalCameraTrackingPipeline_8h.html" target="_top" xlink:title="src/ApplicationInterface\l/InterfaceNodalCameraTrackingPipeline.h">
<polygon fill="white" stroke="black" points="399,-218 399,-248 596,-248 596,-218 399,-218"/>
<text text-anchor="start" x="407" y="-236" font-family="FreeSans" font-size="10.00">src/ApplicationInterface</text>
<text text-anchor="middle" x="497.5" y="-225" font-family="FreeSans" font-size="10.00">/InterfaceNodalCameraTrackingPipeline.h</text>
</a>
</g>
</g>
<!-- Node99&#45;&gt;Node100 -->
<g id="edge16" class="edge"><title>Node99&#45;&gt;Node100</title>
<path fill="none" stroke="midnightblue" d="M497.5,-285.59C497.5,-273.257 497.5,-258.724 497.5,-248.231"/>
<polygon fill="midnightblue" stroke="midnightblue" points="494,-285.705 497.5,-295.705 501,-285.705 494,-285.705"/>
</g>
<!-- Node101 -->
<g id="node18" class="node"><title>Node101</title>
<g id="a_node18"><a xlink:href="AppNodalCameraTracker_8cpp.html" target="_top" xlink:title="src/Application/AppNodal\lCameraTracker.cpp">
<polygon fill="white" stroke="black" points="336,-140 336,-170 463,-170 463,-140 336,-140"/>
<text text-anchor="start" x="344" y="-158" font-family="FreeSans" font-size="10.00">src/Application/AppNodal</text>
<text text-anchor="middle" x="399.5" y="-147" font-family="FreeSans" font-size="10.00">CameraTracker.cpp</text>
</a>
</g>
</g>
<!-- Node100&#45;&gt;Node101 -->
<g id="edge17" class="edge"><title>Node100&#45;&gt;Node101</title>
<path fill="none" stroke="midnightblue" d="M470.748,-211.253C453.959,-198.234 432.747,-181.784 417.85,-170.231"/>
<polygon fill="midnightblue" stroke="midnightblue" points="469.02,-214.342 479.067,-217.705 473.31,-208.811 469.02,-214.342"/>
</g>
<!-- Node102 -->
<g id="node19" class="node"><title>Node102</title>
<g id="a_node19"><a xlink:href="InterfaceNodalCameraTrackingPipeline_8cpp.html" target="_top" xlink:title="src/ApplicationInterface\l/InterfaceNodalCameraTrackingPipeline.cpp">
<polygon fill="white" stroke="black" points="481,-140 481,-170 688,-170 688,-140 481,-140"/>
<text text-anchor="start" x="489" y="-158" font-family="FreeSans" font-size="10.00">src/ApplicationInterface</text>
<text text-anchor="middle" x="584.5" y="-147" font-family="FreeSans" font-size="10.00">/InterfaceNodalCameraTrackingPipeline.cpp</text>
</a>
</g>
</g>
<!-- Node100&#45;&gt;Node102 -->
<g id="edge18" class="edge"><title>Node100&#45;&gt;Node102</title>
<path fill="none" stroke="midnightblue" d="M521.661,-210.894C536.499,-197.932 555.106,-181.678 568.209,-170.231"/>
<polygon fill="midnightblue" stroke="midnightblue" points="519.093,-208.49 513.864,-217.705 523.698,-213.762 519.093,-208.49"/>
</g>
<!-- Node104 -->
<g id="node21" class="node"><title>Node104</title>
<g id="a_node21"><a xlink:href="InterfaceVisionGraphPipeline_8h.html" target="_top" xlink:title="src/ApplicationInterface\l/InterfaceVisionGraphPipeline.h">
<polygon fill="white" stroke="black" points="1424,-218 1424,-248 1577,-248 1577,-218 1424,-218"/>
<text text-anchor="start" x="1432" y="-236" font-family="FreeSans" font-size="10.00">src/ApplicationInterface</text>
<text text-anchor="middle" x="1500.5" y="-225" font-family="FreeSans" font-size="10.00">/InterfaceVisionGraphPipeline.h</text>
</a>
</g>
</g>
<!-- Node103&#45;&gt;Node104 -->
<g id="edge20" class="edge"><title>Node103&#45;&gt;Node104</title>
<path fill="none" stroke="midnightblue" d="M1499.14,-285.59C1499.47,-273.257 1499.85,-258.724 1500.13,-248.231"/>
<polygon fill="midnightblue" stroke="midnightblue" points="1495.64,-285.616 1498.88,-295.705 1502.64,-285.801 1495.64,-285.616"/>
</g>
<!-- Node104&#45;&gt;Node105 -->
<g id="edge21" class="edge"><title>Node104&#45;&gt;Node105</title>
<path fill="none" stroke="midnightblue" d="M1462.95,-213.349C1436.02,-199.971 1400.3,-182.229 1375.77,-170.041"/>
<polygon fill="midnightblue" stroke="midnightblue" points="1461.57,-216.569 1472.08,-217.883 1464.68,-210.3 1461.57,-216.569"/>
</g>
<!-- Node104&#45;&gt;Node109 -->
<g id="edge25" class="edge"><title>Node104&#45;&gt;Node109</title>
<path fill="none" stroke="midnightblue" d="M1542.16,-213.699C1572.7,-200.282 1613.55,-182.336 1641.54,-170.041"/>
<polygon fill="midnightblue" stroke="midnightblue" points="1540.38,-210.657 1532.63,-217.883 1543.2,-217.065 1540.38,-210.657"/>
</g>
<!-- Node112 -->
<g id="node29" class="node"><title>Node112</title>
<g id="a_node29"><a xlink:href="InterfaceVisionGraphPipeline_8cpp.html" target="_top" xlink:title="src/ApplicationInterface\l/InterfaceVisionGraphPipeline.cpp">
<polygon fill="white" stroke="black" points="1428.5,-140 1428.5,-170 1592.5,-170 1592.5,-140 1428.5,-140"/>
<text text-anchor="start" x="1436.5" y="-158" font-family="FreeSans" font-size="10.00">src/ApplicationInterface</text>
<text text-anchor="middle" x="1510.5" y="-147" font-family="FreeSans" font-size="10.00">/InterfaceVisionGraphPipeline.cpp</text>
</a>
</g>
</g>
<!-- Node104&#45;&gt;Node112 -->
<g id="edge28" class="edge"><title>Node104&#45;&gt;Node112</title>
<path fill="none" stroke="midnightblue" d="M1503.71,-207.59C1505.33,-195.257 1507.25,-180.724 1508.63,-170.231"/>
<polygon fill="midnightblue" stroke="midnightblue" points="1500.22,-207.334 1502.38,-217.705 1507.16,-208.247 1500.22,-207.334"/>
</g>
<!-- Node106 -->
<g id="node23" class="node"><title>Node106</title>
<g id="a_node23"><a xlink:href="InterfacePfMPipeline_8h.html" target="_top" xlink:title="src/ApplicationInterface\l/InterfacePfMPipeline.h">
<polygon fill="white" stroke="black" points="1288,-67.5 1288,-97.5 1407,-97.5 1407,-67.5 1288,-67.5"/>
<text text-anchor="start" x="1296" y="-85.5" font-family="FreeSans" font-size="10.00">src/ApplicationInterface</text>
<text text-anchor="middle" x="1347.5" y="-74.5" font-family="FreeSans" font-size="10.00">/InterfacePfMPipeline.h</text>
</a>
</g>
</g>
<!-- Node105&#45;&gt;Node106 -->
<g id="edge22" class="edge"><title>Node105&#45;&gt;Node106</title>
<path fill="none" stroke="midnightblue" d="M1347.5,-129.732C1347.5,-119.068 1347.5,-106.914 1347.5,-97.7455"/>
<polygon fill="midnightblue" stroke="midnightblue" points="1344,-129.733 1347.5,-139.733 1351,-129.733 1344,-129.733"/>
</g>
<!-- Node107 -->
<g id="node24" class="node"><title>Node107</title>
<g id="a_node24"><a xlink:href="AppPfM_8cpp.html" target="_top" xlink:title="src/Application/AppPfM.cpp">
<polygon fill="white" stroke="black" points="1355,-6 1355,-25 1492,-25 1492,-6 1355,-6"/>
<text text-anchor="middle" x="1423.5" y="-13" font-family="FreeSans" font-size="10.00">src/Application/AppPfM.cpp</text>
</a>
</g>
</g>
<!-- Node106&#45;&gt;Node107 -->
<g id="edge23" class="edge"><title>Node106&#45;&gt;Node107</title>
<path fill="none" stroke="midnightblue" d="M1371.85,-60.6722C1385.89,-48.6707 1402.78,-34.2203 1413.33,-25.1945"/>
<polygon fill="midnightblue" stroke="midnightblue" points="1369.32,-58.2364 1363.99,-67.396 1373.87,-63.5561 1369.32,-58.2364"/>
</g>
<!-- Node108 -->
<g id="node25" class="node"><title>Node108</title>
<g id="a_node25"><a xlink:href="InterfacePfMPipeline_8cpp.html" target="_top" xlink:title="src/ApplicationInterface\l/InterfacePfMPipeline.cpp">
<polygon fill="white" stroke="black" points="1208.5,-0.5 1208.5,-30.5 1336.5,-30.5 1336.5,-0.5 1208.5,-0.5"/>
<text text-anchor="start" x="1216.5" y="-18.5" font-family="FreeSans" font-size="10.00">src/ApplicationInterface</text>
<text text-anchor="middle" x="1272.5" y="-7.5" font-family="FreeSans" font-size="10.00">/InterfacePfMPipeline.cpp</text>
</a>
</g>
</g>
<!-- Node106&#45;&gt;Node108 -->
<g id="edge24" class="edge"><title>Node106&#45;&gt;Node108</title>
<path fill="none" stroke="midnightblue" d="M1323.38,-60.5978C1312.06,-50.7831 1298.86,-39.3442 1288.74,-30.5765"/>
<polygon fill="midnightblue" stroke="midnightblue" points="1321.38,-63.4915 1331.23,-67.396 1325.96,-58.2017 1321.38,-63.4915"/>
</g>
<!-- Node110 -->
<g id="node27" class="node"><title>Node110</title>
<g id="a_node27"><a xlink:href="InterfaceSfMPipeline_8h.html" target="_top" xlink:title="src/ApplicationInterface\l/InterfaceSfMPipeline.h">
<polygon fill="white" stroke="black" points="1614,-67.5 1614,-97.5 1733,-97.5 1733,-67.5 1614,-67.5"/>
<text text-anchor="start" x="1622" y="-85.5" font-family="FreeSans" font-size="10.00">src/ApplicationInterface</text>
<text text-anchor="middle" x="1673.5" y="-74.5" font-family="FreeSans" font-size="10.00">/InterfaceSfMPipeline.h</text>
</a>
</g>
</g>
<!-- Node109&#45;&gt;Node110 -->
<g id="edge26" class="edge"><title>Node109&#45;&gt;Node110</title>
<path fill="none" stroke="midnightblue" d="M1673.5,-129.732C1673.5,-119.068 1673.5,-106.914 1673.5,-97.7455"/>
<polygon fill="midnightblue" stroke="midnightblue" points="1670,-129.733 1673.5,-139.733 1677,-129.733 1670,-129.733"/>
</g>
<!-- Node111 -->
<g id="node28" class="node"><title>Node111</title>
<g id="a_node28"><a xlink:href="InterfaceSfMPipeline_8cpp.html" target="_top" xlink:title="src/ApplicationInterface\l/InterfaceSfMPipeline.cpp">
<polygon fill="white" stroke="black" points="1609.5,-0.5 1609.5,-30.5 1737.5,-30.5 1737.5,-0.5 1609.5,-0.5"/>
<text text-anchor="start" x="1617.5" y="-18.5" font-family="FreeSans" font-size="10.00">src/ApplicationInterface</text>
<text text-anchor="middle" x="1673.5" y="-7.5" font-family="FreeSans" font-size="10.00">/InterfaceSfMPipeline.cpp</text>
</a>
</g>
</g>
<!-- Node110&#45;&gt;Node111 -->
<g id="edge27" class="edge"><title>Node110&#45;&gt;Node111</title>
<path fill="none" stroke="midnightblue" d="M1673.5,-57.1081C1673.5,-48.1539 1673.5,-38.3227 1673.5,-30.5765"/>
<polygon fill="midnightblue" stroke="midnightblue" points="1670,-57.3959 1673.5,-67.396 1677,-57.396 1670,-57.3959"/>
</g>
<!-- Node115 -->
<g id="node32" class="node"><title>Node115</title>
<g id="a_node32"><a xlink:href="InterfaceImageFeatureTrackingPipeline_8h.html" target="_top" xlink:title="src/ApplicationInterface\l/InterfaceImageFeatureTracking\lPipeline.h">
<polygon fill="white" stroke="black" points="1056,-212.5 1056,-253.5 1211,-253.5 1211,-212.5 1056,-212.5"/>
<text text-anchor="start" x="1064" y="-241.5" font-family="FreeSans" font-size="10.00">src/ApplicationInterface</text>
<text text-anchor="start" x="1064" y="-230.5" font-family="FreeSans" font-size="10.00">/InterfaceImageFeatureTracking</text>
<text text-anchor="middle" x="1133.5" y="-219.5" font-family="FreeSans" font-size="10.00">Pipeline.h</text>
</a>
</g>
</g>
<!-- Node114&#45;&gt;Node115 -->
<g id="edge31" class="edge"><title>Node114&#45;&gt;Node115</title>
<path fill="none" stroke="midnightblue" d="M1091.27,-282.627C1099.64,-272.99 1108.87,-262.362 1116.56,-253.506"/>
<polygon fill="midnightblue" stroke="midnightblue" points="1088.41,-280.583 1084.5,-290.428 1093.7,-285.173 1088.41,-280.583"/>
</g>
<!-- Node116 -->
<g id="node33" class="node"><title>Node116</title>
<g id="a_node33"><a xlink:href="InterfaceImageFeatureTrackingPipeline_8cpp.html" target="_top" xlink:title="src/ApplicationInterface\l/InterfaceImageFeatureTracking\lPipeline.cpp">
<polygon fill="white" stroke="black" points="1084,-134.5 1084,-175.5 1239,-175.5 1239,-134.5 1084,-134.5"/>
<text text-anchor="start" x="1092" y="-163.5" font-family="FreeSans" font-size="10.00">src/ApplicationInterface</text>
<text text-anchor="start" x="1092" y="-152.5" font-family="FreeSans" font-size="10.00">/InterfaceImageFeatureTracking</text>
<text text-anchor="middle" x="1161.5" y="-141.5" font-family="FreeSans" font-size="10.00">Pipeline.cpp</text>
</a>
</g>
</g>
<!-- Node115&#45;&gt;Node116 -->
<g id="edge32" class="edge"><title>Node115&#45;&gt;Node116</title>
<path fill="none" stroke="midnightblue" d="M1144.23,-202.882C1147.6,-193.721 1151.25,-183.83 1154.31,-175.506"/>
<polygon fill="midnightblue" stroke="midnightblue" points="1140.88,-201.835 1140.71,-212.428 1147.45,-204.255 1140.88,-201.835"/>
</g>
<!-- Node118 -->
<g id="node35" class="node"><title>Node118</title>
<g id="a_node35"><a xlink:href="InterfacePoseGraphPipeline_8h.html" target="_top" xlink:title="src/ApplicationInterface\l/InterfacePoseGraphPipeline.h">
<polygon fill="white" stroke="black" points="1715,-218 1715,-248 1864,-248 1864,-218 1715,-218"/>
<text text-anchor="start" x="1723" y="-236" font-family="FreeSans" font-size="10.00">src/ApplicationInterface</text>
<text text-anchor="middle" x="1789.5" y="-225" font-family="FreeSans" font-size="10.00">/InterfacePoseGraphPipeline.h</text>
</a>
</g>
</g>
<!-- Node117&#45;&gt;Node118 -->
<g id="edge34" class="edge"><title>Node117&#45;&gt;Node118</title>
<path fill="none" stroke="midnightblue" d="M1789.5,-285.59C1789.5,-273.257 1789.5,-258.724 1789.5,-248.231"/>
<polygon fill="midnightblue" stroke="midnightblue" points="1786,-285.705 1789.5,-295.705 1793,-285.705 1786,-285.705"/>
</g>
<!-- Node118&#45;&gt;Node109 -->
<g id="edge36" class="edge"><title>Node118&#45;&gt;Node109</title>
<path fill="none" stroke="midnightblue" d="M1759.41,-212.289C1739.2,-199.046 1713.05,-181.91 1694.93,-170.041"/>
<polygon fill="midnightblue" stroke="midnightblue" points="1757.67,-215.33 1767.95,-217.883 1761.51,-209.475 1757.67,-215.33"/>
</g>
<!-- Node119 -->
<g id="node36" class="node"><title>Node119</title>
<g id="a_node36"><a xlink:href="InterfacePoseGraphPipeline_8cpp.html" target="_top" xlink:title="src/ApplicationInterface\l/InterfacePoseGraphPipeline.cpp">
<polygon fill="white" stroke="black" points="1754,-140 1754,-170 1913,-170 1913,-140 1754,-140"/>
<text text-anchor="start" x="1762" y="-158" font-family="FreeSans" font-size="10.00">src/ApplicationInterface</text>
<text text-anchor="middle" x="1833.5" y="-147" font-family="FreeSans" font-size="10.00">/InterfacePoseGraphPipeline.cpp</text>
</a>
</g>
</g>
<!-- Node118&#45;&gt;Node119 -->
<g id="edge35" class="edge"><title>Node118&#45;&gt;Node119</title>
<path fill="none" stroke="midnightblue" d="M1802.99,-208.705C1810.26,-196.141 1819,-181.042 1825.26,-170.231"/>
<polygon fill="midnightblue" stroke="midnightblue" points="1799.76,-207.297 1797.78,-217.705 1805.82,-210.804 1799.76,-207.297"/>
</g>
<!-- Node121 -->
<g id="node38" class="node"><title>Node121</title>
<g id="a_node38"><a xlink:href="InterfaceRoamingCameraTrackingPipeline_8h.html" target="_top" xlink:title="src/ApplicationInterface\l/InterfaceRoamingCameraTracking\lPipeline.h">
<polygon fill="white" stroke="black" points="1913,-212.5 1913,-253.5 2080,-253.5 2080,-212.5 1913,-212.5"/>
<text text-anchor="start" x="1921" y="-241.5" font-family="FreeSans" font-size="10.00">src/ApplicationInterface</text>
<text text-anchor="start" x="1921" y="-230.5" font-family="FreeSans" font-size="10.00">/InterfaceRoamingCameraTracking</text>
<text text-anchor="middle" x="1996.5" y="-219.5" font-family="FreeSans" font-size="10.00">Pipeline.h</text>
</a>
</g>
</g>
<!-- Node120&#45;&gt;Node121 -->
<g id="edge38" class="edge"><title>Node120&#45;&gt;Node121</title>
<path fill="none" stroke="midnightblue" d="M1979.84,-280.882C1983.1,-271.721 1986.61,-261.83 1989.57,-253.506"/>
<polygon fill="midnightblue" stroke="midnightblue" points="1976.5,-279.833 1976.45,-290.428 1983.1,-282.177 1976.5,-279.833"/>
</g>
<!-- Node122 -->
<g id="node39" class="node"><title>Node122</title>
<g id="a_node39"><a xlink:href="InterfaceRoamingCameraTrackingPipeline_8cpp.html" target="_top" xlink:title="src/ApplicationInterface\l/InterfaceRoamingCameraTracking\lPipeline.cpp">
<polygon fill="white" stroke="black" points="1931,-134.5 1931,-175.5 2098,-175.5 2098,-134.5 1931,-134.5"/>
<text text-anchor="start" x="1939" y="-163.5" font-family="FreeSans" font-size="10.00">src/ApplicationInterface</text>
<text text-anchor="start" x="1939" y="-152.5" font-family="FreeSans" font-size="10.00">/InterfaceRoamingCameraTracking</text>
<text text-anchor="middle" x="2014.5" y="-141.5" font-family="FreeSans" font-size="10.00">Pipeline.cpp</text>
</a>
</g>
</g>
<!-- Node121&#45;&gt;Node122 -->
<g id="edge39" class="edge"><title>Node121&#45;&gt;Node122</title>
<path fill="none" stroke="midnightblue" d="M2003.47,-202.59C2005.62,-193.511 2007.93,-183.742 2009.88,-175.506"/>
<polygon fill="midnightblue" stroke="midnightblue" points="2000.03,-201.891 2001.14,-212.428 2006.85,-203.504 2000.03,-201.891"/>
</g>
</g>
</svg>
