<?xml version="1.0" encoding="UTF-8" standalone="no"?>
<!DOCTYPE svg PUBLIC "-//W3C//DTD SVG 1.1//EN"
 "http://www.w3.org/Graphics/SVG/1.1/DTD/svg11.dtd">
<!-- Generated by graphviz version 2.38.0 (20140413.2041)
 -->
<!-- Title: src/ApplicationInterface/InterfaceRandomSpanningTreeSampler.ipp Pages: 1 -->
<svg width="2027pt" height="352pt"
 viewBox="0.00 0.00 2027.00 352.00" xmlns="http://www.w3.org/2000/svg" xmlns:xlink="http://www.w3.org/1999/xlink">
<g id="graph0" class="graph" transform="scale(1 1) rotate(0) translate(4 348)">
<title>src/ApplicationInterface/InterfaceRandomSpanningTreeSampler.ipp</title>
<polygon fill="white" stroke="none" points="-4,4 -4,-348 2023,-348 2023,4 -4,4"/>
<!-- Node0 -->
<g id="node1" class="node"><title>Node0</title>
<polygon fill="#bfbfbf" stroke="black" points="305.5,-313.5 305.5,-343.5 510.5,-343.5 510.5,-313.5 305.5,-313.5"/>
<text text-anchor="start" x="313.5" y="-331.5" font-family="FreeSans" font-size="10.00">src/ApplicationInterface</text>
<text text-anchor="middle" x="408" y="-320.5" font-family="FreeSans" font-size="10.00">/InterfaceRandomSpanningTreeSampler.ipp</text>
</g>
<!-- Node1 -->
<g id="node2" class="node"><title>Node1</title>
<polygon fill="white" stroke="#bfbfbf" points="0,-123.5 0,-153.5 100,-153.5 100,-123.5 0,-123.5"/>
<text text-anchor="start" x="8" y="-141.5" font-family="FreeSans" font-size="10.00">boost/property_tree</text>
<text text-anchor="middle" x="50" y="-130.5" font-family="FreeSans" font-size="10.00">/ptree.hpp</text>
</g>
<!-- Node0&#45;&gt;Node1 -->
<g id="edge1" class="edge"><title>Node0&#45;&gt;Node1</title>
<path fill="none" stroke="midnightblue" d="M369.985,-313.477C345.367,-304.01 312.828,-290.769 285,-277 209.098,-239.442 124.338,-187.11 80.293,-159.077"/>
<polygon fill="midnightblue" stroke="midnightblue" points="82.097,-156.076 71.7857,-153.642 78.3284,-161.975 82.097,-156.076"/>
</g>
<!-- Node2 -->
<g id="node3" class="node"><title>Node2</title>
<polygon fill="white" stroke="#bfbfbf" points="576.5,-252 576.5,-271 635.5,-271 635.5,-252 576.5,-252"/>
<text text-anchor="middle" x="606" y="-259" font-family="FreeSans" font-size="10.00">functional</text>
</g>
<!-- Node0&#45;&gt;Node2 -->
<g id="edge2" class="edge"><title>Node0&#45;&gt;Node2</title>
<path fill="none" stroke="midnightblue" d="M454.462,-313.393C486.272,-303.576 529.347,-289.97 567,-277 569.247,-276.226 571.561,-275.411 573.888,-274.579"/>
<polygon fill="midnightblue" stroke="midnightblue" points="575.184,-277.832 583.382,-271.12 572.788,-271.255 575.184,-277.832"/>
</g>
<!-- Node3 -->
<g id="node4" class="node"><title>Node3</title>
<g id="a_node4"><a xlink:href="InterfaceUtility_8h.html" target="_top" xlink:title="InterfaceUtility.h">
<polygon fill="white" stroke="black" points="294.5,-252 294.5,-271 381.5,-271 381.5,-252 294.5,-252"/>
<text text-anchor="middle" x="338" y="-259" font-family="FreeSans" font-size="10.00">InterfaceUtility.h</text>
</a>
</g>
</g>
<!-- Node0&#45;&gt;Node3 -->
<g id="edge3" class="edge"><title>Node0&#45;&gt;Node3</title>
<path fill="none" stroke="midnightblue" d="M392.811,-313.396C381.68,-303.06 366.564,-289.024 355.025,-278.309"/>
<polygon fill="midnightblue" stroke="midnightblue" points="357.073,-275.434 347.363,-271.195 352.31,-280.564 357.073,-275.434"/>
</g>
<!-- Node17 -->
<g id="node18" class="node"><title>Node17</title>
<g id="a_node18"><a xlink:href="RandomSpanningTreeSampler_8h.html" target="_top" xlink:title="../RandomSpanningTreeSampler\l/RandomSpanningTreeSampler.h">
<polygon fill="white" stroke="black" points="399.5,-246.5 399.5,-276.5 558.5,-276.5 558.5,-246.5 399.5,-246.5"/>
<text text-anchor="start" x="407.5" y="-264.5" font-family="FreeSans" font-size="10.00">../RandomSpanningTreeSampler</text>
<text text-anchor="middle" x="479" y="-253.5" font-family="FreeSans" font-size="10.00">/RandomSpanningTreeSampler.h</text>
</a>
</g>
</g>
<!-- Node0&#45;&gt;Node17 -->
<g id="edge21" class="edge"><title>Node0&#45;&gt;Node17</title>
<path fill="none" stroke="midnightblue" d="M423.406,-313.396C432.989,-304.623 445.485,-293.183 456.202,-283.371"/>
<polygon fill="midnightblue" stroke="midnightblue" points="458.612,-285.911 463.624,-276.577 453.885,-280.748 458.612,-285.911"/>
</g>
<!-- Node4 -->
<g id="node5" class="node"><title>Node4</title>
<g id="a_node5"><a xlink:href="InterfaceUtility_8ipp.html" target="_top" xlink:title="InterfaceUtility.ipp">
<polygon fill="white" stroke="black" points="290.5,-190.5 290.5,-209.5 385.5,-209.5 385.5,-190.5 290.5,-190.5"/>
<text text-anchor="middle" x="338" y="-197.5" font-family="FreeSans" font-size="10.00">InterfaceUtility.ipp</text>
</a>
</g>
</g>
<!-- Node3&#45;&gt;Node4 -->
<g id="edge4" class="edge"><title>Node3&#45;&gt;Node4</title>
<path fill="none" stroke="midnightblue" d="M338,-251.975C338,-243.58 338,-230.481 338,-219.663"/>
<polygon fill="midnightblue" stroke="midnightblue" points="341.5,-219.509 338,-209.509 334.5,-219.509 341.5,-219.509"/>
</g>
<!-- Node4&#45;&gt;Node1 -->
<g id="edge6" class="edge"><title>Node4&#45;&gt;Node1</title>
<path fill="none" stroke="midnightblue" d="M290.938,-190.421C246.723,-182.21 178.478,-169.155 110.24,-154.218"/>
<polygon fill="midnightblue" stroke="midnightblue" points="110.693,-150.734 100.175,-152.001 109.187,-157.57 110.693,-150.734"/>
</g>
<!-- Node5 -->
<g id="node6" class="node"><title>Node5</title>
<polygon fill="white" stroke="#bfbfbf" points="1111,-6 1111,-25 1239,-25 1239,-6 1111,-6"/>
<text text-anchor="middle" x="1175" y="-13" font-family="FreeSans" font-size="10.00">boost/concept_check.hpp</text>
</g>
<!-- Node4&#45;&gt;Node5 -->
<g id="edge5" class="edge"><title>Node4&#45;&gt;Node5</title>
<path fill="none" stroke="midnightblue" d="M366.112,-190.434C390.198,-182.553 425.421,-169.722 454,-154 474.328,-142.817 474.358,-131.359 496,-123 643.523,-66.02 693.812,-111.802 850,-87 951.817,-70.8319 1069.71,-42.9197 1131.72,-27.5123"/>
<polygon fill="midnightblue" stroke="midnightblue" points="1132.69,-30.8776 1141.55,-25.0595 1131,-24.0861 1132.69,-30.8776"/>
</g>
<!-- Node6 -->
<g id="node7" class="node"><title>Node6</title>
<polygon fill="white" stroke="#bfbfbf" points="581.5,-129 581.5,-148 676.5,-148 676.5,-129 581.5,-129"/>
<text text-anchor="middle" x="629" y="-136" font-family="FreeSans" font-size="10.00">boost/optional.hpp</text>
</g>
<!-- Node4&#45;&gt;Node6 -->
<g id="edge7" class="edge"><title>Node4&#45;&gt;Node6</title>
<path fill="none" stroke="midnightblue" d="M385.895,-190.758C433.515,-182.345 508.562,-168.496 573,-154 577.712,-152.94 582.63,-151.766 587.511,-150.559"/>
<polygon fill="midnightblue" stroke="midnightblue" points="588.56,-153.904 597.397,-148.061 586.844,-147.118 588.56,-153.904"/>
</g>
<!-- Node7 -->
<g id="node8" class="node"><title>Node7</title>
<polygon fill="white" stroke="#bfbfbf" points="533.5,-6 533.5,-25 646.5,-25 646.5,-6 533.5,-6"/>
<text text-anchor="middle" x="590" y="-13" font-family="FreeSans" font-size="10.00">boost/lexical_cast.hpp</text>
</g>
<!-- Node4&#45;&gt;Node7 -->
<g id="edge8" class="edge"><title>Node4&#45;&gt;Node7</title>
<path fill="none" stroke="midnightblue" d="M290.458,-192.915C266.272,-187.144 238.901,-175.902 224,-154 216.25,-142.609 215.73,-134.02 224,-123 259.931,-75.1234 427.854,-41.7283 523.276,-26.2563"/>
<polygon fill="midnightblue" stroke="midnightblue" points="524.086,-29.6714 533.408,-24.6366 522.981,-22.7591 524.086,-29.6714"/>
</g>
<!-- Node8 -->
<g id="node9" class="node"><title>Node8</title>
<polygon fill="white" stroke="#bfbfbf" points="664.5,-6 664.5,-25 705.5,-25 705.5,-6 664.5,-6"/>
<text text-anchor="middle" x="685" y="-13" font-family="FreeSans" font-size="10.00">string</text>
</g>
<!-- Node4&#45;&gt;Node8 -->
<g id="edge9" class="edge"><title>Node4&#45;&gt;Node8</title>
<path fill="none" stroke="midnightblue" d="M306.977,-190.436C288.968,-183.694 267.769,-172.302 257,-154 250.013,-142.125 248.422,-133.781 257,-123 285.327,-87.3979 613.186,-46.3924 656,-31 657.424,-30.4882 658.868,-29.924 660.313,-29.3242"/>
<polygon fill="midnightblue" stroke="midnightblue" points="662.029,-32.3874 669.646,-25.0236 659.099,-26.0298 662.029,-32.3874"/>
</g>
<!-- Node9 -->
<g id="node10" class="node"><title>Node9</title>
<polygon fill="white" stroke="#bfbfbf" points="504.5,-129 504.5,-148 563.5,-148 563.5,-129 504.5,-129"/>
<text text-anchor="middle" x="534" y="-136" font-family="FreeSans" font-size="10.00">stdexcept</text>
</g>
<!-- Node4&#45;&gt;Node9 -->
<g id="edge10" class="edge"><title>Node4&#45;&gt;Node9</title>
<path fill="none" stroke="midnightblue" d="M367.789,-190.472C398.494,-181.614 447.711,-167.225 490,-154 492.9,-153.093 495.903,-152.138 498.914,-151.169"/>
<polygon fill="midnightblue" stroke="midnightblue" points="500.023,-154.489 508.449,-148.066 497.857,-147.832 500.023,-154.489"/>
</g>
<!-- Node10 -->
<g id="node11" class="node"><title>Node10</title>
<polygon fill="white" stroke="#bfbfbf" points="118,-129 118,-148 172,-148 172,-129 118,-129"/>
<text text-anchor="middle" x="145" y="-136" font-family="FreeSans" font-size="10.00">iostream</text>
</g>
<!-- Node4&#45;&gt;Node10 -->
<g id="edge11" class="edge"><title>Node4&#45;&gt;Node10</title>
<path fill="none" stroke="midnightblue" d="M307.575,-190.497C276.787,-181.775 227.882,-167.596 186,-154 183.549,-153.205 181.024,-152.363 178.486,-151.503"/>
<polygon fill="midnightblue" stroke="midnightblue" points="179.371,-148.106 168.777,-148.145 177.083,-154.721 179.371,-148.106"/>
</g>
<!-- Node11 -->
<g id="node12" class="node"><title>Node11</title>
<polygon fill="white" stroke="#bfbfbf" points="843,-6 843,-25 887,-25 887,-6 843,-6"/>
<text text-anchor="middle" x="865" y="-13" font-family="FreeSans" font-size="10.00">vector</text>
</g>
<!-- Node4&#45;&gt;Node11 -->
<g id="edge12" class="edge"><title>Node4&#45;&gt;Node11</title>
<path fill="none" stroke="midnightblue" d="M354.525,-190.339C370.903,-181.608 396.574,-167.525 418,-154 438.229,-141.231 439.577,-131.335 462,-123 538.604,-94.5233 760.217,-132.657 828,-87 845.869,-74.9642 855.694,-51.4517 860.647,-34.8983"/>
<polygon fill="midnightblue" stroke="midnightblue" points="864.034,-35.7805 863.234,-25.216 857.271,-33.9738 864.034,-35.7805"/>
</g>
<!-- Node12 -->
<g id="node13" class="node"><title>Node12</title>
<g id="a_node13"><a xlink:href="BoostTokenizer_8h.html" target="_top" xlink:title="../Wrappers/BoostTokenizer.h">
<polygon fill="white" stroke="black" points="266.5,-129 266.5,-148 409.5,-148 409.5,-129 266.5,-129"/>
<text text-anchor="middle" x="338" y="-136" font-family="FreeSans" font-size="10.00">../Wrappers/BoostTokenizer.h</text>
</a>
</g>
</g>
<!-- Node4&#45;&gt;Node12 -->
<g id="edge13" class="edge"><title>Node4&#45;&gt;Node12</title>
<path fill="none" stroke="midnightblue" d="M338,-190.475C338,-182.08 338,-168.981 338,-158.163"/>
<polygon fill="midnightblue" stroke="midnightblue" points="341.5,-158.009 338,-148.009 334.5,-158.009 341.5,-158.009"/>
</g>
<!-- Node13 -->
<g id="node14" class="node"><title>Node13</title>
<g id="a_node14"><a xlink:href="BoostTokenizer_8ipp.html" target="_top" xlink:title="BoostTokenizer.ipp">
<polygon fill="white" stroke="black" points="719.5,-67.5 719.5,-86.5 818.5,-86.5 818.5,-67.5 719.5,-67.5"/>
<text text-anchor="middle" x="769" y="-74.5" font-family="FreeSans" font-size="10.00">BoostTokenizer.ipp</text>
</a>
</g>
</g>
<!-- Node12&#45;&gt;Node13 -->
<g id="edge14" class="edge"><title>Node12&#45;&gt;Node13</title>
<path fill="none" stroke="midnightblue" d="M386.615,-128.978C398.807,-126.93 411.87,-124.813 424,-123 523.724,-108.095 640.087,-93.4941 708.987,-85.1386"/>
<polygon fill="midnightblue" stroke="midnightblue" points="709.706,-88.5772 719.214,-83.902 708.866,-81.6278 709.706,-88.5772"/>
</g>
<!-- Node13&#45;&gt;Node7 -->
<g id="edge15" class="edge"><title>Node13&#45;&gt;Node7</title>
<path fill="none" stroke="midnightblue" d="M743.354,-67.4751C712.383,-57.1804 660.127,-39.8103 625.349,-28.2502"/>
<polygon fill="midnightblue" stroke="midnightblue" points="626.192,-24.8422 615.599,-25.0091 623.984,-31.4848 626.192,-24.8422"/>
</g>
<!-- Node13&#45;&gt;Node8 -->
<g id="edge18" class="edge"><title>Node13&#45;&gt;Node8</title>
<path fill="none" stroke="midnightblue" d="M756.965,-67.4751C743.492,-57.9315 721.434,-42.3073 705.285,-30.8683"/>
<polygon fill="midnightblue" stroke="midnightblue" points="707.196,-27.9332 697.013,-25.0091 703.15,-33.6454 707.196,-27.9332"/>
</g>
<!-- Node13&#45;&gt;Node11 -->
<g id="edge17" class="edge"><title>Node13&#45;&gt;Node11</title>
<path fill="none" stroke="midnightblue" d="M782.754,-67.4751C798.366,-57.7989 824.063,-41.8721 842.583,-30.3941"/>
<polygon fill="midnightblue" stroke="midnightblue" points="844.615,-33.2522 851.271,-25.0091 840.927,-27.3023 844.615,-33.2522"/>
</g>
<!-- Node14 -->
<g id="node15" class="node"><title>Node14</title>
<polygon fill="white" stroke="#bfbfbf" points="723.5,-6 723.5,-25 824.5,-25 824.5,-6 723.5,-6"/>
<text text-anchor="middle" x="774" y="-13" font-family="FreeSans" font-size="10.00">boost/tokenizer.hpp</text>
</g>
<!-- Node13&#45;&gt;Node14 -->
<g id="edge16" class="edge"><title>Node13&#45;&gt;Node14</title>
<path fill="none" stroke="midnightblue" d="M769.716,-67.4751C770.422,-59.0803 771.523,-45.9806 772.432,-35.1631"/>
<polygon fill="midnightblue" stroke="midnightblue" points="775.935,-35.2671 773.285,-25.0091 768.96,-34.6808 775.935,-35.2671"/>
</g>
<!-- Node15 -->
<g id="node16" class="node"><title>Node15</title>
<polygon fill="white" stroke="#bfbfbf" points="1043.5,-6 1043.5,-25 1092.5,-25 1092.5,-6 1043.5,-6"/>
<text text-anchor="middle" x="1068" y="-13" font-family="FreeSans" font-size="10.00">cstddef</text>
</g>
<!-- Node13&#45;&gt;Node15 -->
<g id="edge19" class="edge"><title>Node13&#45;&gt;Node15</title>
<path fill="none" stroke="midnightblue" d="M818.859,-71.2747C872.943,-65.297 961.413,-53.023 1035,-31 1036.93,-30.4214 1038.9,-29.7584 1040.87,-29.0416"/>
<polygon fill="midnightblue" stroke="midnightblue" points="1042.53,-32.1441 1050.49,-25.149 1039.91,-25.6551 1042.53,-32.1441"/>
</g>
<!-- Node16 -->
<g id="node17" class="node"><title>Node16</title>
<polygon fill="white" stroke="#bfbfbf" points="978.5,-6 978.5,-25 1025.5,-25 1025.5,-6 978.5,-6"/>
<text text-anchor="middle" x="1002" y="-13" font-family="FreeSans" font-size="10.00">iterator</text>
</g>
<!-- Node13&#45;&gt;Node16 -->
<g id="edge20" class="edge"><title>Node13&#45;&gt;Node16</title>
<path fill="none" stroke="midnightblue" d="M802.383,-67.4751C846.628,-56.1766 924.245,-36.3559 968.532,-25.0466"/>
<polygon fill="midnightblue" stroke="midnightblue" points="969.42,-28.4322 978.243,-22.5667 967.688,-21.6499 969.42,-28.4322"/>
</g>
<!-- Node18 -->
<g id="node19" class="node"><title>Node18</title>
<g id="a_node19"><a xlink:href="RandomSpanningTreeSampler_8ipp.html" target="_top" xlink:title="RandomSpanningTreeSampler.ipp">
<polygon fill="white" stroke="black" points="998,-190.5 998,-209.5 1162,-209.5 1162,-190.5 998,-190.5"/>
<text text-anchor="middle" x="1080" y="-197.5" font-family="FreeSans" font-size="10.00">RandomSpanningTreeSampler.ipp</text>
</a>
</g>
</g>
<!-- Node17&#45;&gt;Node18 -->
<g id="edge22" class="edge"><title>Node17&#45;&gt;Node18</title>
<path fill="none" stroke="midnightblue" d="M558.534,-247.244C561.729,-246.806 564.893,-246.389 568,-246 714.31,-227.677 885.068,-214.259 987.749,-207.048"/>
<polygon fill="midnightblue" stroke="midnightblue" points="988.045,-210.536 997.777,-206.348 987.558,-203.553 988.045,-210.536"/>
</g>
<!-- Node18&#45;&gt;Node6 -->
<g id="edge23" class="edge"><title>Node18&#45;&gt;Node6</title>
<path fill="none" stroke="midnightblue" d="M997.646,-192.233C918.638,-185.092 796.153,-172.316 691,-154 684.854,-152.929 678.404,-151.626 672.084,-150.245"/>
<polygon fill="midnightblue" stroke="midnightblue" points="672.846,-146.829 662.32,-148.032 671.299,-153.656 672.846,-146.829"/>
</g>
<!-- Node18&#45;&gt;Node7 -->
<g id="edge28" class="edge"><title>Node18&#45;&gt;Node7</title>
<path fill="none" stroke="midnightblue" d="M997.718,-194.873C907.874,-189.272 770.565,-177.187 724,-154 709.152,-146.607 636.387,-67.588 604.743,-32.7926"/>
<polygon fill="midnightblue" stroke="midnightblue" points="607.288,-30.3894 597.976,-25.3364 602.105,-35.0937 607.288,-30.3894"/>
</g>
<!-- Node18&#45;&gt;Node8 -->
<g id="edge38" class="edge"><title>Node18&#45;&gt;Node8</title>
<path fill="none" stroke="midnightblue" d="M997.872,-194.442C917.233,-188.724 800.839,-176.776 762,-154 717.649,-127.992 696.919,-66.0741 689.03,-34.9819"/>
<polygon fill="midnightblue" stroke="midnightblue" points="692.389,-33.9738 686.685,-25.0452 685.576,-35.5818 692.389,-33.9738"/>
</g>
<!-- Node18&#45;&gt;Node9 -->
<g id="edge37" class="edge"><title>Node18&#45;&gt;Node9</title>
<path fill="none" stroke="midnightblue" d="M997.738,-198.417C896.575,-196.17 720.175,-187.258 573,-154 569.928,-153.306 566.772,-152.428 563.649,-151.448"/>
<polygon fill="midnightblue" stroke="midnightblue" points="564.524,-148.047 553.929,-148.076 562.23,-154.661 564.524,-148.047"/>
</g>
<!-- Node18&#45;&gt;Node11 -->
<g id="edge34" class="edge"><title>Node18&#45;&gt;Node11</title>
<path fill="none" stroke="midnightblue" d="M997.898,-195.142C965.251,-189.593 929.668,-177.905 905,-154 872.059,-122.078 865.823,-64.7451 864.909,-35.2125"/>
<polygon fill="midnightblue" stroke="midnightblue" points="868.407,-34.9992 864.777,-25.0457 861.407,-35.0906 868.407,-34.9992"/>
</g>
<!-- Node18&#45;&gt;Node15 -->
<g id="edge32" class="edge"><title>Node18&#45;&gt;Node15</title>
<path fill="none" stroke="midnightblue" d="M1162.03,-192.703C1219.93,-184.543 1283.1,-165.837 1258,-123 1248.75,-107.209 1144.83,-54.3961 1094.72,-29.5857"/>
<polygon fill="midnightblue" stroke="midnightblue" points="1095.97,-26.3022 1085.46,-25.0163 1092.88,-32.5797 1095.97,-26.3022"/>
</g>
<!-- Node18&#45;&gt;Node16 -->
<g id="edge40" class="edge"><title>Node18&#45;&gt;Node16</title>
<path fill="none" stroke="midnightblue" d="M1083.31,-190.279C1088.27,-175.844 1096.22,-146.267 1088,-123 1074.58,-85.0192 1041.23,-50.6449 1020.22,-31.7516"/>
<polygon fill="midnightblue" stroke="midnightblue" points="1022.42,-29.0217 1012.59,-25.0739 1017.81,-34.2913 1022.42,-29.0217"/>
</g>
<!-- Node19 -->
<g id="node20" class="node"><title>Node19</title>
<polygon fill="white" stroke="#bfbfbf" points="1135,-123.5 1135,-153.5 1249,-153.5 1249,-123.5 1135,-123.5"/>
<text text-anchor="start" x="1143" y="-141.5" font-family="FreeSans" font-size="10.00">boost/graph/adjacency</text>
<text text-anchor="middle" x="1192" y="-130.5" font-family="FreeSans" font-size="10.00">_matrix.hpp</text>
</g>
<!-- Node18&#45;&gt;Node19 -->
<g id="edge24" class="edge"><title>Node18&#45;&gt;Node19</title>
<path fill="none" stroke="midnightblue" d="M1096.05,-190.475C1111.78,-182.115 1136.3,-169.09 1156.61,-158.299"/>
<polygon fill="midnightblue" stroke="midnightblue" points="1158.41,-161.305 1165.6,-153.523 1155.13,-155.124 1158.41,-161.305"/>
</g>
<!-- Node20 -->
<g id="node21" class="node"><title>Node20</title>
<polygon fill="white" stroke="#bfbfbf" points="1459.5,-123.5 1459.5,-153.5 1562.5,-153.5 1562.5,-123.5 1459.5,-123.5"/>
<text text-anchor="start" x="1467.5" y="-141.5" font-family="FreeSans" font-size="10.00">boost/graph/random</text>
<text text-anchor="middle" x="1511" y="-130.5" font-family="FreeSans" font-size="10.00">_spanning_tree.hpp</text>
</g>
<!-- Node18&#45;&gt;Node20 -->
<g id="edge25" class="edge"><title>Node18&#45;&gt;Node20</title>
<path fill="none" stroke="midnightblue" d="M1162.32,-191.663C1235.22,-184.553 1344.65,-172.385 1449.08,-154.034"/>
<polygon fill="midnightblue" stroke="midnightblue" points="1449.94,-157.437 1459.17,-152.239 1448.71,-150.545 1449.94,-157.437"/>
</g>
<!-- Node21 -->
<g id="node22" class="node"><title>Node21</title>
<polygon fill="white" stroke="#bfbfbf" points="1581,-123.5 1581,-153.5 1715,-153.5 1715,-123.5 1581,-123.5"/>
<text text-anchor="start" x="1589" y="-141.5" font-family="FreeSans" font-size="10.00">boost/graph/prim_minimum</text>
<text text-anchor="middle" x="1648" y="-130.5" font-family="FreeSans" font-size="10.00">_spanning_tree.hpp</text>
</g>
<!-- Node18&#45;&gt;Node21 -->
<g id="edge26" class="edge"><title>Node18&#45;&gt;Node21</title>
<path fill="none" stroke="midnightblue" d="M1162.11,-193.943C1257.82,-187.495 1420.93,-174.795 1570.63,-154.104"/>
<polygon fill="midnightblue" stroke="midnightblue" points="1571.5,-157.515 1580.92,-152.665 1570.53,-150.582 1571.5,-157.515"/>
</g>
<!-- Node22 -->
<g id="node23" class="node"><title>Node22</title>
<polygon fill="white" stroke="#bfbfbf" points="1257,-0.5 1257,-30.5 1359,-30.5 1359,-0.5 1257,-0.5"/>
<text text-anchor="start" x="1265" y="-18.5" font-family="FreeSans" font-size="10.00">boost/property_map</text>
<text text-anchor="middle" x="1308" y="-7.5" font-family="FreeSans" font-size="10.00">/property_map.hpp</text>
</g>
<!-- Node18&#45;&gt;Node22 -->
<g id="edge27" class="edge"><title>Node18&#45;&gt;Node22</title>
<path fill="none" stroke="midnightblue" d="M1150.49,-190.466C1198.54,-183.235 1256.49,-171.262 1274,-154 1304.26,-124.175 1309.16,-71.9745 1309.15,-41.1883"/>
<polygon fill="midnightblue" stroke="midnightblue" points="1312.64,-40.8301 1308.96,-30.8959 1305.65,-40.9584 1312.64,-40.8301"/>
</g>
<!-- Node23 -->
<g id="node24" class="node"><title>Node23</title>
<polygon fill="white" stroke="#bfbfbf" points="1771,-129 1771,-148 1899,-148 1899,-129 1771,-129"/>
<text text-anchor="middle" x="1835" y="-136" font-family="FreeSans" font-size="10.00">boost/range/algorithm.hpp</text>
</g>
<!-- Node18&#45;&gt;Node23 -->
<g id="edge29" class="edge"><title>Node18&#45;&gt;Node23</title>
<path fill="none" stroke="midnightblue" d="M1162.1,-196.652C1289.77,-192.302 1543.41,-180.857 1757,-154 1765.84,-152.889 1775.19,-151.414 1784.23,-149.83"/>
<polygon fill="midnightblue" stroke="midnightblue" points="1785.04,-153.239 1794.26,-148.008 1783.79,-146.352 1785.04,-153.239"/>
</g>
<!-- Node24 -->
<g id="node25" class="node"><title>Node24</title>
<polygon fill="white" stroke="#bfbfbf" points="1917.5,-129 1917.5,-148 1960.5,-148 1960.5,-129 1917.5,-129"/>
<text text-anchor="middle" x="1939" y="-136" font-family="FreeSans" font-size="10.00">omp.h</text>
</g>
<!-- Node18&#45;&gt;Node24 -->
<g id="edge30" class="edge"><title>Node18&#45;&gt;Node24</title>
<path fill="none" stroke="midnightblue" d="M1162.16,-198.507C1342.61,-196.779 1768.54,-189.001 1908,-154 1909.99,-153.501 1912,-152.873 1914,-152.16"/>
<polygon fill="midnightblue" stroke="midnightblue" points="1915.81,-155.199 1923.66,-148.09 1913.09,-148.748 1915.81,-155.199"/>
</g>
<!-- Node25 -->
<g id="node26" class="node"><title>Node25</title>
<polygon fill="white" stroke="#bfbfbf" points="1979,-129 1979,-148 2019,-148 2019,-129 1979,-129"/>
<text text-anchor="middle" x="1999" y="-136" font-family="FreeSans" font-size="10.00">limits</text>
</g>
<!-- Node18&#45;&gt;Node25 -->
<g id="edge31" class="edge"><title>Node18&#45;&gt;Node25</title>
<path fill="none" stroke="midnightblue" d="M1162.28,-199.141C1352.69,-198.773 1818.97,-193.706 1970,-154 1971.72,-153.547 1973.46,-152.985 1975.19,-152.348"/>
<polygon fill="midnightblue" stroke="midnightblue" points="1977,-155.372 1984.71,-148.107 1974.15,-148.977 1977,-155.372"/>
</g>
<!-- Node26 -->
<g id="node27" class="node"><title>Node26</title>
<polygon fill="white" stroke="#bfbfbf" points="771,-129 771,-148 809,-148 809,-129 771,-129"/>
<text text-anchor="middle" x="790" y="-136" font-family="FreeSans" font-size="10.00">tuple</text>
</g>
<!-- Node18&#45;&gt;Node26 -->
<g id="edge33" class="edge"><title>Node18&#45;&gt;Node26</title>
<path fill="none" stroke="midnightblue" d="M997.855,-191.458C945.406,-185.051 876.517,-173.65 818,-154 816.573,-153.521 815.129,-152.977 813.689,-152.389"/>
<polygon fill="midnightblue" stroke="midnightblue" points="814.989,-149.132 804.449,-148.057 812.017,-155.47 814.989,-149.132"/>
</g>
<!-- Node27 -->
<g id="node28" class="node"><title>Node27</title>
<polygon fill="white" stroke="#bfbfbf" points="827,-129 827,-148 857,-148 857,-129 827,-129"/>
<text text-anchor="middle" x="842" y="-136" font-family="FreeSans" font-size="10.00">set</text>
</g>
<!-- Node18&#45;&gt;Node27 -->
<g id="edge35" class="edge"><title>Node18&#45;&gt;Node27</title>
<path fill="none" stroke="midnightblue" d="M1021.71,-190.494C979.177,-183.321 920.55,-171.409 871,-154 869.393,-153.436 867.762,-152.802 866.133,-152.124"/>
<polygon fill="midnightblue" stroke="midnightblue" points="867.583,-148.938 857.038,-147.916 864.644,-155.291 867.583,-148.938"/>
</g>
<!-- Node28 -->
<g id="node29" class="node"><title>Node28</title>
<polygon fill="white" stroke="#bfbfbf" points="913.5,-129 913.5,-148 948.5,-148 948.5,-129 913.5,-129"/>
<text text-anchor="middle" x="931" y="-136" font-family="FreeSans" font-size="10.00">map</text>
</g>
<!-- Node18&#45;&gt;Node28 -->
<g id="edge36" class="edge"><title>Node18&#45;&gt;Node28</title>
<path fill="none" stroke="midnightblue" d="M1053.4,-190.384C1028.39,-182.007 990.112,-168.46 958,-154 957.005,-153.552 955.997,-153.083 954.983,-152.599"/>
<polygon fill="midnightblue" stroke="midnightblue" points="956.451,-149.419 945.951,-148.007 953.279,-155.659 956.451,-149.419"/>
</g>
<!-- Node29 -->
<g id="node30" class="node"><title>Node29</title>
<polygon fill="white" stroke="#bfbfbf" points="967,-129 967,-148 1011,-148 1011,-129 967,-129"/>
<text text-anchor="middle" x="989" y="-136" font-family="FreeSans" font-size="10.00">cmath</text>
</g>
<!-- Node18&#45;&gt;Node29 -->
<g id="edge39" class="edge"><title>Node18&#45;&gt;Node29</title>
<path fill="none" stroke="midnightblue" d="M1066.96,-190.475C1052.23,-180.843 1028.03,-165.017 1010.49,-153.552"/>
<polygon fill="midnightblue" stroke="midnightblue" points="1012.3,-150.552 1002.01,-148.009 1008.47,-156.411 1012.3,-150.552"/>
</g>
<!-- Node30 -->
<g id="node31" class="node"><title>Node30</title>
<polygon fill="white" stroke="#bfbfbf" points="1836.5,-6 1836.5,-25 1875.5,-25 1875.5,-6 1836.5,-6"/>
<text text-anchor="middle" x="1856" y="-13" font-family="FreeSans" font-size="10.00">utility</text>
</g>
<!-- Node18&#45;&gt;Node30 -->
<g id="edge41" class="edge"><title>Node18&#45;&gt;Node30</title>
<path fill="none" stroke="midnightblue" d="M1162.28,-196.549C1324.53,-191.238 1674.36,-177.237 1724,-154 1738.91,-147.019 1810.43,-67.7717 1841.52,-32.8539"/>
<polygon fill="midnightblue" stroke="midnightblue" points="1844.14,-35.1716 1848.17,-25.3707 1838.91,-30.5229 1844.14,-35.1716"/>
</g>
<!-- Node31 -->
<g id="node32" class="node"><title>Node31</title>
<polygon fill="white" stroke="#bfbfbf" points="1029.5,-129 1029.5,-148 1078.5,-148 1078.5,-129 1029.5,-129"/>
<text text-anchor="middle" x="1054" y="-136" font-family="FreeSans" font-size="10.00">random</text>
</g>
<!-- Node18&#45;&gt;Node31 -->
<g id="edge42" class="edge"><title>Node18&#45;&gt;Node31</title>
<path fill="none" stroke="midnightblue" d="M1076.27,-190.475C1072.53,-181.904 1066.64,-168.427 1061.86,-157.483"/>
<polygon fill="midnightblue" stroke="midnightblue" points="1064.93,-155.771 1057.72,-148.009 1058.52,-158.574 1064.93,-155.771"/>
</g>
<!-- Node32 -->
<g id="node33" class="node"><title>Node32</title>
<g id="a_node33"><a xlink:href="Graph_8h.html" target="_top" xlink:title="../Numeric/Graph.h">
<polygon fill="white" stroke="black" points="1343,-129 1343,-148 1441,-148 1441,-129 1343,-129"/>
<text text-anchor="middle" x="1392" y="-136" font-family="FreeSans" font-size="10.00">../Numeric/Graph.h</text>
</a>
</g>
</g>
<!-- Node18&#45;&gt;Node32 -->
<g id="edge43" class="edge"><title>Node18&#45;&gt;Node32</title>
<path fill="none" stroke="midnightblue" d="M1131.16,-190.484C1181.6,-181.917 1260.79,-168.004 1329,-154 1334.7,-152.829 1340.69,-151.536 1346.6,-150.22"/>
<polygon fill="midnightblue" stroke="midnightblue" points="1347.43,-153.62 1356.41,-148 1345.89,-146.792 1347.43,-153.62"/>
</g>
<!-- Node33 -->
<g id="node34" class="node"><title>Node33</title>
<g id="a_node34"><a xlink:href="Graph_8ipp.html" target="_top" xlink:title="Graph.ipp">
<polygon fill="white" stroke="black" points="1377,-67.5 1377,-86.5 1435,-86.5 1435,-67.5 1377,-67.5"/>
<text text-anchor="middle" x="1406" y="-74.5" font-family="FreeSans" font-size="10.00">Graph.ipp</text>
</a>
</g>
</g>
<!-- Node32&#45;&gt;Node33 -->
<g id="edge44" class="edge"><title>Node32&#45;&gt;Node33</title>
<path fill="none" stroke="midnightblue" d="M1394.01,-128.975C1396,-120.492 1399.13,-107.204 1401.69,-96.3222"/>
<polygon fill="midnightblue" stroke="midnightblue" points="1405.11,-97.0449 1404,-86.5091 1398.3,-95.4416 1405.11,-97.0449"/>
</g>
<!-- Node33&#45;&gt;Node5 -->
<g id="edge47" class="edge"><title>Node33&#45;&gt;Node5</title>
<path fill="none" stroke="midnightblue" d="M1376.74,-68.4643C1336.59,-58.122 1264.13,-39.4582 1217.86,-27.5391"/>
<polygon fill="midnightblue" stroke="midnightblue" points="1218.67,-24.1354 1208.12,-25.0303 1216.93,-30.9141 1218.67,-24.1354"/>
</g>
<!-- Node33&#45;&gt;Node15 -->
<g id="edge50" class="edge"><title>Node33&#45;&gt;Node15</title>
<path fill="none" stroke="midnightblue" d="M1376.99,-74.1851C1322.29,-70.2226 1200.59,-58.8203 1102,-31 1099.71,-30.353 1097.36,-29.5887 1095.03,-28.7547"/>
<polygon fill="midnightblue" stroke="midnightblue" points="1096.27,-25.4813 1085.69,-25.0563 1093.7,-31.9903 1096.27,-25.4813"/>
</g>
<!-- Node33&#45;&gt;Node16 -->
<g id="edge51" class="edge"><title>Node33&#45;&gt;Node16</title>
<path fill="none" stroke="midnightblue" d="M1376.58,-75.3432C1313.08,-73.2974 1158.9,-64.9379 1035,-31 1032.71,-30.3723 1030.37,-29.6118 1028.05,-28.7718"/>
<polygon fill="midnightblue" stroke="midnightblue" points="1029.36,-25.5267 1018.78,-25.0069 1026.73,-32.0123 1029.36,-25.5267"/>
</g>
<!-- Node33&#45;&gt;Node22 -->
<g id="edge46" class="edge"><title>Node33&#45;&gt;Node22</title>
<path fill="none" stroke="midnightblue" d="M1391.96,-67.4751C1378.44,-59.266 1357.51,-46.5581 1339.93,-35.8845"/>
<polygon fill="midnightblue" stroke="midnightblue" points="1341.46,-32.721 1331.1,-30.523 1337.83,-38.7046 1341.46,-32.721"/>
</g>
<!-- Node33&#45;&gt;Node30 -->
<g id="edge52" class="edge"><title>Node33&#45;&gt;Node30</title>
<path fill="none" stroke="midnightblue" d="M1435.12,-76.5555C1504.68,-77.1026 1685.29,-73.9017 1828,-31 1829.47,-30.5567 1830.96,-30.0359 1832.44,-29.4598"/>
<polygon fill="midnightblue" stroke="midnightblue" points="1834.29,-32.4636 1841.9,-25.0944 1831.35,-26.1082 1834.29,-32.4636"/>
</g>
<!-- Node34 -->
<g id="node35" class="node"><title>Node34</title>
<polygon fill="white" stroke="#bfbfbf" points="1661,-6 1661,-25 1819,-25 1819,-6 1661,-6"/>
<text text-anchor="middle" x="1740" y="-13" font-family="FreeSans" font-size="10.00">boost/graph/graph_concepts.hpp</text>
</g>
<!-- Node33&#45;&gt;Node34 -->
<g id="edge45" class="edge"><title>Node33&#45;&gt;Node34</title>
<path fill="none" stroke="midnightblue" d="M1435.06,-70.8239C1489.97,-61.0417 1609.92,-39.6737 1681.93,-26.8451"/>
<polygon fill="midnightblue" stroke="midnightblue" points="1682.96,-30.2164 1692.19,-25.0167 1681.73,-23.3249 1682.96,-30.2164"/>
</g>
<!-- Node35 -->
<g id="node36" class="node"><title>Node35</title>
<polygon fill="white" stroke="#bfbfbf" points="1377.5,-6 1377.5,-25 1448.5,-25 1448.5,-6 1377.5,-6"/>
<text text-anchor="middle" x="1413" y="-13" font-family="FreeSans" font-size="10.00">Eigen/Dense</text>
</g>
<!-- Node33&#45;&gt;Node35 -->
<g id="edge48" class="edge"><title>Node33&#45;&gt;Node35</title>
<path fill="none" stroke="midnightblue" d="M1407,-67.4751C1407.99,-59.0803 1409.53,-45.9806 1410.8,-35.1631"/>
<polygon fill="midnightblue" stroke="midnightblue" points="1414.31,-35.3496 1412,-25.0091 1407.35,-34.5316 1414.31,-35.3496"/>
</g>
<!-- Node36 -->
<g id="node37" class="node"><title>Node36</title>
<polygon fill="white" stroke="#bfbfbf" points="1467,-6 1467,-25 1563,-25 1563,-6 1467,-6"/>
<text text-anchor="middle" x="1515" y="-13" font-family="FreeSans" font-size="10.00">Eigen/Eigenvalues</text>
</g>
<!-- Node33&#45;&gt;Node36 -->
<g id="edge49" class="edge"><title>Node33&#45;&gt;Node36</title>
<path fill="none" stroke="midnightblue" d="M1421.62,-67.4751C1439.59,-57.6664 1469.32,-41.4346 1490.41,-29.925"/>
<polygon fill="midnightblue" stroke="midnightblue" points="1492.31,-32.8726 1499.41,-25.0091 1488.96,-26.7284 1492.31,-32.8726"/>
</g>
<!-- Node37 -->
<g id="node38" class="node"><title>Node37</title>
<polygon fill="white" stroke="#bfbfbf" points="1581,-6 1581,-25 1643,-25 1643,-6 1581,-6"/>
<text text-anchor="middle" x="1612" y="-13" font-family="FreeSans" font-size="10.00">type_traits</text>
</g>
<!-- Node33&#45;&gt;Node37 -->
<g id="edge53" class="edge"><title>Node33&#45;&gt;Node37</title>
<path fill="none" stroke="midnightblue" d="M1435,-68.916C1468.3,-60.6028 1524.45,-46.0335 1572,-31 1574.55,-30.1927 1577.19,-29.3234 1579.82,-28.4256"/>
<polygon fill="midnightblue" stroke="midnightblue" points="1580.99,-31.7252 1589.27,-25.1108 1578.67,-25.1203 1580.99,-31.7252"/>
</g>
</g>
</svg>
