<?xml version="1.0" encoding="UTF-8" standalone="no"?>
<!DOCTYPE svg PUBLIC "-//W3C//DTD SVG 1.1//EN"
 "http://www.w3.org/Graphics/SVG/1.1/DTD/svg11.dtd">
<!-- Generated by graphviz version 2.38.0 (20140413.2041)
 -->
<!-- Title: src/ApplicationInterface/InterfaceMulticameraSynchronisation.ipp Pages: 1 -->
<svg width="380pt" height="173pt"
 viewBox="0.00 0.00 379.50 173.00" xmlns="http://www.w3.org/2000/svg" xmlns:xlink="http://www.w3.org/1999/xlink">
<g id="graph0" class="graph" transform="scale(1 1) rotate(0) translate(4 169)">
<title>src/ApplicationInterface/InterfaceMulticameraSynchronisation.ipp</title>
<polygon fill="white" stroke="none" points="-4,4 -4,-169 375.5,-169 375.5,4 -4,4"/>
<!-- Node211 -->
<g id="node1" class="node"><title>Node211</title>
<polygon fill="#bfbfbf" stroke="black" points="77,-134.5 77,-164.5 272,-164.5 272,-134.5 77,-134.5"/>
<text text-anchor="start" x="85" y="-152.5" font-family="FreeSans" font-size="10.00">src/ApplicationInterface</text>
<text text-anchor="middle" x="174.5" y="-141.5" font-family="FreeSans" font-size="10.00">/InterfaceMulticameraSynchronisation.ipp</text>
</g>
<!-- Node212 -->
<g id="node2" class="node"><title>Node212</title>
<g id="a_node2"><a xlink:href="InterfaceMulticameraSynchronisation_8h.html" target="_top" xlink:title="src/ApplicationInterface\l/InterfaceMulticameraSynchronisation.h">
<polygon fill="white" stroke="black" points="80.5,-67.5 80.5,-97.5 268.5,-97.5 268.5,-67.5 80.5,-67.5"/>
<text text-anchor="start" x="88.5" y="-85.5" font-family="FreeSans" font-size="10.00">src/ApplicationInterface</text>
<text text-anchor="middle" x="174.5" y="-74.5" font-family="FreeSans" font-size="10.00">/InterfaceMulticameraSynchronisation.h</text>
</a>
</g>
</g>
<!-- Node211&#45;&gt;Node212 -->
<g id="edge1" class="edge"><title>Node211&#45;&gt;Node212</title>
<path fill="none" stroke="midnightblue" d="M174.5,-124.108C174.5,-115.154 174.5,-105.323 174.5,-97.5765"/>
<polygon fill="midnightblue" stroke="midnightblue" points="171,-124.396 174.5,-134.396 178,-124.396 171,-124.396"/>
</g>
<!-- Node213 -->
<g id="node3" class="node"><title>Node213</title>
<g id="a_node3"><a xlink:href="AppMulticameraSynchronisation_8cpp.html" target="_top" xlink:title="src/Application/AppMulticamera\lSynchronisation.cpp">
<polygon fill="white" stroke="black" points="0,-0.5 0,-30.5 155,-30.5 155,-0.5 0,-0.5"/>
<text text-anchor="start" x="8" y="-18.5" font-family="FreeSans" font-size="10.00">src/Application/AppMulticamera</text>
<text text-anchor="middle" x="77.5" y="-7.5" font-family="FreeSans" font-size="10.00">Synchronisation.cpp</text>
</a>
</g>
</g>
<!-- Node212&#45;&gt;Node213 -->
<g id="edge2" class="edge"><title>Node212&#45;&gt;Node213</title>
<path fill="none" stroke="midnightblue" d="M145.003,-61.7337C129.993,-51.6755 112.099,-39.6847 98.5065,-30.5765"/>
<polygon fill="midnightblue" stroke="midnightblue" points="143.197,-64.7367 153.452,-67.396 147.094,-58.9216 143.197,-64.7367"/>
</g>
<!-- Node214 -->
<g id="node4" class="node"><title>Node214</title>
<g id="a_node4"><a xlink:href="InterfaceMulticameraSynchronisation_8cpp.html" target="_top" xlink:title="src/ApplicationInterface\l/InterfaceMulticameraSynchronisation.cpp">
<polygon fill="white" stroke="black" points="173.5,-0.5 173.5,-30.5 371.5,-30.5 371.5,-0.5 173.5,-0.5"/>
<text text-anchor="start" x="181.5" y="-18.5" font-family="FreeSans" font-size="10.00">src/ApplicationInterface</text>
<text text-anchor="middle" x="272.5" y="-7.5" font-family="FreeSans" font-size="10.00">/InterfaceMulticameraSynchronisation.cpp</text>
</a>
</g>
</g>
<!-- Node212&#45;&gt;Node214 -->
<g id="edge3" class="edge"><title>Node212&#45;&gt;Node214</title>
<path fill="none" stroke="midnightblue" d="M204.302,-61.7337C219.466,-51.6755 237.545,-39.6847 251.277,-30.5765"/>
<polygon fill="midnightblue" stroke="midnightblue" points="202.164,-58.9518 195.765,-67.396 206.033,-64.7853 202.164,-58.9518"/>
</g>
</g>
</svg>
