<?xml version="1.0" encoding="UTF-8" standalone="no"?>
<!DOCTYPE svg PUBLIC "-//W3C//DTD SVG 1.1//EN"
 "http://www.w3.org/Graphics/SVG/1.1/DTD/svg11.dtd">
<!-- Generated by graphviz version 2.38.0 (20140413.2041)
 -->
<!-- Title: src/StateEstimation/KalmanFilter.ipp Pages: 1 -->
<svg width="800pt" height="207pt"
 viewBox="0.00 0.00 800.00 207.00" xmlns="http://www.w3.org/2000/svg" xmlns:xlink="http://www.w3.org/1999/xlink">
<g id="graph0" class="graph" transform="scale(1 1) rotate(0) translate(4 203)">
<title>src/StateEstimation/KalmanFilter.ipp</title>
<polygon fill="white" stroke="none" points="-4,4 -4,-203 796,-203 796,4 -4,4"/>
<!-- Node0 -->
<g id="node1" class="node"><title>Node0</title>
<polygon fill="#bfbfbf" stroke="black" points="352,-168.5 352,-198.5 454,-198.5 454,-168.5 352,-168.5"/>
<text text-anchor="start" x="360" y="-186.5" font-family="FreeSans" font-size="10.00">src/StateEstimation</text>
<text text-anchor="middle" x="403" y="-175.5" font-family="FreeSans" font-size="10.00">/KalmanFilter.ipp</text>
</g>
<!-- Node1 -->
<g id="node2" class="node"><title>Node1</title>
<polygon fill="white" stroke="#bfbfbf" points="0,-0.5 0,-19.5 128,-19.5 128,-0.5 0,-0.5"/>
<text text-anchor="middle" x="64" y="-7.5" font-family="FreeSans" font-size="10.00">boost/concept_check.hpp</text>
</g>
<!-- Node0&#45;&gt;Node1 -->
<g id="edge1" class="edge"><title>Node0&#45;&gt;Node1</title>
<path fill="none" stroke="midnightblue" d="M351.996,-178.941C280.819,-173.056 156.431,-159.153 121,-132 87.7776,-106.54 73.0808,-56.9462 67.2921,-29.8257"/>
<polygon fill="midnightblue" stroke="midnightblue" points="70.6708,-28.8638 65.3286,-19.7144 63.7992,-30.1983 70.6708,-28.8638"/>
</g>
<!-- Node2 -->
<g id="node3" class="node"><title>Node2</title>
<polygon fill="white" stroke="#bfbfbf" points="339,-112.5 339,-131.5 467,-131.5 467,-112.5 339,-112.5"/>
<text text-anchor="middle" x="403" y="-119.5" font-family="FreeSans" font-size="10.00">boost/range/concepts.hpp</text>
</g>
<!-- Node0&#45;&gt;Node2 -->
<g id="edge2" class="edge"><title>Node0&#45;&gt;Node2</title>
<path fill="none" stroke="midnightblue" d="M403,-168.399C403,-160.466 403,-150.458 403,-141.858"/>
<polygon fill="midnightblue" stroke="midnightblue" points="406.5,-141.658 403,-131.658 399.5,-141.658 406.5,-141.658"/>
</g>
<!-- Node3 -->
<g id="node4" class="node"><title>Node3</title>
<polygon fill="white" stroke="#bfbfbf" points="485,-112.5 485,-131.5 635,-131.5 635,-112.5 485,-112.5"/>
<text text-anchor="middle" x="560" y="-119.5" font-family="FreeSans" font-size="10.00">boost/range/metafunctions.hpp</text>
</g>
<!-- Node0&#45;&gt;Node3 -->
<g id="edge3" class="edge"><title>Node0&#45;&gt;Node3</title>
<path fill="none" stroke="midnightblue" d="M440.207,-168.399C466.784,-158.327 502.189,-144.909 527.605,-135.277"/>
<polygon fill="midnightblue" stroke="midnightblue" points="529.044,-138.475 537.155,-131.658 526.564,-131.929 529.044,-138.475"/>
</g>
<!-- Node4 -->
<g id="node5" class="node"><title>Node4</title>
<polygon fill="white" stroke="#bfbfbf" points="275.5,-0.5 275.5,-19.5 370.5,-19.5 370.5,-0.5 275.5,-0.5"/>
<text text-anchor="middle" x="323" y="-7.5" font-family="FreeSans" font-size="10.00">boost/optional.hpp</text>
</g>
<!-- Node0&#45;&gt;Node4 -->
<g id="edge4" class="edge"><title>Node0&#45;&gt;Node4</title>
<path fill="none" stroke="midnightblue" d="M370.372,-168.329C355.385,-160.026 338.98,-147.99 330,-132 311.862,-99.7023 315.359,-54.607 319.313,-29.5872"/>
<polygon fill="midnightblue" stroke="midnightblue" points="322.781,-30.0809 321.086,-19.6224 315.889,-28.8546 322.781,-30.0809"/>
</g>
<!-- Node5 -->
<g id="node6" class="node"><title>Node5</title>
<polygon fill="white" stroke="#bfbfbf" points="652.5,-112.5 652.5,-131.5 711.5,-131.5 711.5,-112.5 652.5,-112.5"/>
<text text-anchor="middle" x="682" y="-119.5" font-family="FreeSans" font-size="10.00">stdexcept</text>
</g>
<!-- Node0&#45;&gt;Node5 -->
<g id="edge5" class="edge"><title>Node0&#45;&gt;Node5</title>
<path fill="none" stroke="midnightblue" d="M454.328,-172.147C500.981,-162.647 571.972,-147.964 642.239,-132.356"/>
<polygon fill="midnightblue" stroke="midnightblue" points="643.147,-135.74 652.146,-130.148 641.624,-128.907 643.147,-135.74"/>
</g>
<!-- Node6 -->
<g id="node7" class="node"><title>Node6</title>
<polygon fill="white" stroke="#bfbfbf" points="730,-112.5 730,-131.5 792,-131.5 792,-112.5 730,-112.5"/>
<text text-anchor="middle" x="761" y="-119.5" font-family="FreeSans" font-size="10.00">type_traits</text>
</g>
<!-- Node0&#45;&gt;Node6 -->
<g id="edge6" class="edge"><title>Node0&#45;&gt;Node6</title>
<path fill="none" stroke="midnightblue" d="M454.12,-175.408C515.065,-166.724 620.206,-151.024 719.68,-132.16"/>
<polygon fill="midnightblue" stroke="midnightblue" points="720.431,-135.579 729.597,-130.265 719.117,-128.704 720.431,-135.579"/>
</g>
<!-- Node7 -->
<g id="node8" class="node"><title>Node7</title>
<g id="a_node8"><a xlink:href="KalmanFilterProblemConcept_8h.html" target="_top" xlink:title="KalmanFilterProblemConcept.h">
<polygon fill="white" stroke="black" points="130.5,-112.5 130.5,-131.5 281.5,-131.5 281.5,-112.5 130.5,-112.5"/>
<text text-anchor="middle" x="206" y="-119.5" font-family="FreeSans" font-size="10.00">KalmanFilterProblemConcept.h</text>
</a>
</g>
</g>
<!-- Node0&#45;&gt;Node7 -->
<g id="edge7" class="edge"><title>Node0&#45;&gt;Node7</title>
<path fill="none" stroke="midnightblue" d="M356.314,-168.399C322.125,-158.073 276.294,-144.231 244.261,-134.556"/>
<polygon fill="midnightblue" stroke="midnightblue" points="244.963,-131.112 234.378,-131.571 242.939,-137.813 244.963,-131.112"/>
</g>
<!-- Node8 -->
<g id="node9" class="node"><title>Node8</title>
<g id="a_node9"><a xlink:href="KalmanFilterProblemConcept_8ipp.html" target="_top" xlink:title="KalmanFilterProblemConcept.ipp">
<polygon fill="white" stroke="black" points="125,-56.5 125,-75.5 283,-75.5 283,-56.5 125,-56.5"/>
<text text-anchor="middle" x="204" y="-63.5" font-family="FreeSans" font-size="10.00">KalmanFilterProblemConcept.ipp</text>
</a>
</g>
</g>
<!-- Node7&#45;&gt;Node8 -->
<g id="edge8" class="edge"><title>Node7&#45;&gt;Node8</title>
<path fill="none" stroke="midnightblue" d="M205.67,-112.083C205.408,-105.006 205.032,-94.8611 204.703,-85.9865"/>
<polygon fill="midnightblue" stroke="midnightblue" points="208.192,-85.6147 204.324,-75.7511 201.197,-85.8738 208.192,-85.6147"/>
</g>
<!-- Node8&#45;&gt;Node1 -->
<g id="edge9" class="edge"><title>Node8&#45;&gt;Node1</title>
<path fill="none" stroke="midnightblue" d="M181.817,-56.4435C158.572,-47.4776 121.851,-33.314 95.5848,-23.1827"/>
<polygon fill="midnightblue" stroke="midnightblue" points="96.6692,-19.8497 86.0796,-19.5164 94.1501,-26.3807 96.6692,-19.8497"/>
</g>
<!-- Node8&#45;&gt;Node4 -->
<g id="edge10" class="edge"><title>Node8&#45;&gt;Node4</title>
<path fill="none" stroke="midnightblue" d="M222.856,-56.4435C242.266,-47.6356 272.73,-33.8116 294.965,-23.722"/>
<polygon fill="midnightblue" stroke="midnightblue" points="296.572,-26.836 304.232,-19.5164 293.68,-20.4615 296.572,-26.836"/>
</g>
<!-- Node9 -->
<g id="node10" class="node"><title>Node9</title>
<polygon fill="white" stroke="#bfbfbf" points="146,-0.5 146,-19.5 190,-19.5 190,-0.5 146,-0.5"/>
<text text-anchor="middle" x="168" y="-7.5" font-family="FreeSans" font-size="10.00">vector</text>
</g>
<!-- Node8&#45;&gt;Node9 -->
<g id="edge11" class="edge"><title>Node8&#45;&gt;Node9</title>
<path fill="none" stroke="midnightblue" d="M198.055,-56.083C193.023,-48.5341 185.663,-37.4948 179.487,-28.2298"/>
<polygon fill="midnightblue" stroke="midnightblue" points="182.293,-26.1301 173.834,-19.7511 176.469,-30.0131 182.293,-26.1301"/>
</g>
<!-- Node10 -->
<g id="node11" class="node"><title>Node10</title>
<polygon fill="white" stroke="#bfbfbf" points="208.5,-0.5 208.5,-19.5 257.5,-19.5 257.5,-0.5 208.5,-0.5"/>
<text text-anchor="middle" x="233" y="-7.5" font-family="FreeSans" font-size="10.00">cstddef</text>
</g>
<!-- Node8&#45;&gt;Node10 -->
<g id="edge12" class="edge"><title>Node8&#45;&gt;Node10</title>
<path fill="none" stroke="midnightblue" d="M208.789,-56.083C212.758,-48.6913 218.525,-37.9533 223.435,-28.8111"/>
<polygon fill="midnightblue" stroke="midnightblue" points="226.653,-30.217 228.3,-19.7511 220.486,-26.9051 226.653,-30.217"/>
</g>
</g>
</svg>
