<?xml version="1.0" encoding="UTF-8" standalone="no"?>
<!DOCTYPE svg PUBLIC "-//W3C//DTD SVG 1.1//EN"
 "http://www.w3.org/Graphics/SVG/1.1/DTD/svg11.dtd">
<!-- Generated by graphviz version 2.38.0 (20140413.2041)
 -->
<!-- Title: src/StateEstimation/KalmanFilter.h Pages: 1 -->
<!--zoomable 263 -->
<svg id="main" version="1.1" xmlns="http://www.w3.org/2000/svg" xmlns:xlink="http://www.w3.org/1999/xlink" xml:space="preserve" onload="init(evt)">
<style type="text/css"><![CDATA[
.edge:hover path { stroke: red; }
.edge:hover polygon { stroke: red; fill: red; }
]]></style>
<script type="text/javascript"><![CDATA[
var edges = document.getElementsByTagName('g');
if (edges && edges.length) {
  for (var i=0;i<edges.length;i++) {
    if (edges[i].id.substr(0,4)=='edge') {
      edges[i].setAttribute('class','edge');
    }
  }
}
]]></script>
        <defs>
                <circle id="rim" cx="0" cy="0" r="7"/>
                <circle id="rim2" cx="0" cy="0" r="3.5"/>
                <g id="zoomPlus">
                        <use xlink:href="#rim" fill="#404040">
                                <set attributeName="fill" to="#808080" begin="zoomplus.mouseover" end="zoomplus.mouseout"/>
                        </use>
                        <path d="M-4,0h8M0,-4v8" fill="none" stroke="white" stroke-width="1.5" pointer-events="none"/>
                </g>
                <g id="zoomMin">
                        <use xlink:href="#rim" fill="#404040">
                                <set attributeName="fill" to="#808080" begin="zoomminus.mouseover" end="zoomminus.mouseout"/>
                        </use>
                        <path d="M-4,0h8" fill="none" stroke="white" stroke-width="1.5" pointer-events="none"/>
                </g>
                <g id="dirArrow">
                        <path fill="none" stroke="white" stroke-width="1.5" d="M0,-3.0v7 M-2.5,-0.5L0,-3.0L2.5,-0.5"/>
                </g>
               <g id="resetDef">
                       <use xlink:href="#rim2" fill="#404040">
                               <set attributeName="fill" to="#808080" begin="reset.mouseover" end="reset.mouseout"/>
                       </use>
               </g>
        </defs>

<script type="text/javascript">
var viewWidth = 800;
var viewHeight = 263;
var sectionId = 'dynsection-0';
</script>
<script xlink:href="svgpan.js"/>
<svg id="graph" class="graph">
<g id="viewport">
<title>src/StateEstimation/KalmanFilter.h</title>
<polygon fill="white" stroke="none" points="-4,4 -4,-259 796,-259 796,4 -4,4"/>
<!-- Node0 -->
<g id="node1" class="node"><title>Node0</title>
<polygon fill="#bfbfbf" stroke="black" points="352,-224.5 352,-254.5 454,-254.5 454,-224.5 352,-224.5"/>
<text text-anchor="start" x="360" y="-242.5" font-family="FreeSans" font-size="10.00">src/StateEstimation</text>
<text text-anchor="middle" x="403" y="-231.5" font-family="FreeSans" font-size="10.00">/KalmanFilter.h</text>
</g>
<!-- Node1 -->
<g id="node2" class="node"><title>Node1</title>
<g id="a_node2"><a xlink:href="KalmanFilter_8ipp.html" target="_top" xlink:title="KalmanFilter.ipp">
<polygon fill="white" stroke="black" points="360,-168.5 360,-187.5 446,-187.5 446,-168.5 360,-168.5"/>
<text text-anchor="middle" x="403" y="-175.5" font-family="FreeSans" font-size="10.00">KalmanFilter.ipp</text>
</a>
</g>
</g>
<!-- Node0&#45;&gt;Node1 -->
<g id="edge1" class="edge"><title>Node0&#45;&gt;Node1</title>
<path fill="none" stroke="midnightblue" d="M403,-224.399C403,-216.466 403,-206.458 403,-197.858"/>
<polygon fill="midnightblue" stroke="midnightblue" points="406.5,-197.658 403,-187.658 399.5,-197.658 406.5,-197.658"/>
</g>
<!-- Node2 -->
<g id="node3" class="node"><title>Node2</title>
<polygon fill="white" stroke="#bfbfbf" points="0,-0.5 0,-19.5 128,-19.5 128,-0.5 0,-0.5"/>
<text text-anchor="middle" x="64" y="-7.5" font-family="FreeSans" font-size="10.00">boost/concept_check.hpp</text>
</g>
<!-- Node1&#45;&gt;Node2 -->
<g id="edge2" class="edge"><title>Node1&#45;&gt;Node2</title>
<path fill="none" stroke="midnightblue" d="M359.825,-174.975C290.38,-170.932 157.911,-159.735 121,-132 87.5377,-106.856 72.9389,-57.1332 67.2291,-29.9087"/>
<polygon fill="midnightblue" stroke="midnightblue" points="70.6049,-28.9253 65.2972,-19.7558 63.7283,-30.2338 70.6049,-28.9253"/>
</g>
<!-- Node3 -->
<g id="node4" class="node"><title>Node3</title>
<polygon fill="white" stroke="#bfbfbf" points="339,-112.5 339,-131.5 467,-131.5 467,-112.5 339,-112.5"/>
<text text-anchor="middle" x="403" y="-119.5" font-family="FreeSans" font-size="10.00">boost/range/concepts.hpp</text>
</g>
<!-- Node1&#45;&gt;Node3 -->
<g id="edge3" class="edge"><title>Node1&#45;&gt;Node3</title>
<path fill="none" stroke="midnightblue" d="M403,-168.083C403,-161.006 403,-150.861 403,-141.986"/>
<polygon fill="midnightblue" stroke="midnightblue" points="406.5,-141.751 403,-131.751 399.5,-141.751 406.5,-141.751"/>
</g>
<!-- Node4 -->
<g id="node5" class="node"><title>Node4</title>
<polygon fill="white" stroke="#bfbfbf" points="485,-112.5 485,-131.5 635,-131.5 635,-112.5 485,-112.5"/>
<text text-anchor="middle" x="560" y="-119.5" font-family="FreeSans" font-size="10.00">boost/range/metafunctions.hpp</text>
</g>
<!-- Node1&#45;&gt;Node4 -->
<g id="edge4" class="edge"><title>Node1&#45;&gt;Node4</title>
<path fill="none" stroke="midnightblue" d="M427.877,-168.444C454.289,-159.359 496.215,-144.939 525.742,-134.783"/>
<polygon fill="midnightblue" stroke="midnightblue" points="526.921,-138.079 535.239,-131.516 524.645,-131.459 526.921,-138.079"/>
</g>
<!-- Node5 -->
<g id="node6" class="node"><title>Node5</title>
<polygon fill="white" stroke="#bfbfbf" points="275.5,-0.5 275.5,-19.5 370.5,-19.5 370.5,-0.5 275.5,-0.5"/>
<text text-anchor="middle" x="323" y="-7.5" font-family="FreeSans" font-size="10.00">boost/optional.hpp</text>
</g>
<!-- Node1&#45;&gt;Node5 -->
<g id="edge5" class="edge"><title>Node1&#45;&gt;Node5</title>
<path fill="none" stroke="midnightblue" d="M377.48,-168.376C360.92,-161.341 340.529,-149.642 330,-132 311.016,-100.192 314.831,-54.913 319.066,-29.7305"/>
<polygon fill="midnightblue" stroke="midnightblue" points="322.545,-30.1708 320.961,-19.695 315.666,-28.8719 322.545,-30.1708"/>
</g>
<!-- Node6 -->
<g id="node7" class="node"><title>Node6</title>
<polygon fill="white" stroke="#bfbfbf" points="652.5,-112.5 652.5,-131.5 711.5,-131.5 711.5,-112.5 652.5,-112.5"/>
<text text-anchor="middle" x="682" y="-119.5" font-family="FreeSans" font-size="10.00">stdexcept</text>
</g>
<!-- Node1&#45;&gt;Node6 -->
<g id="edge6" class="edge"><title>Node1&#45;&gt;Node6</title>
<path fill="none" stroke="midnightblue" d="M446.223,-169.574C492.474,-161.484 568.223,-147.824 642.208,-132.311"/>
<polygon fill="midnightblue" stroke="midnightblue" points="643.098,-135.7 652.16,-130.21 641.652,-128.851 643.098,-135.7"/>
</g>
<!-- Node7 -->
<g id="node8" class="node"><title>Node7</title>
<polygon fill="white" stroke="#bfbfbf" points="730,-112.5 730,-131.5 792,-131.5 792,-112.5 730,-112.5"/>
<text text-anchor="middle" x="761" y="-119.5" font-family="FreeSans" font-size="10.00">type_traits</text>
</g>
<!-- Node1&#45;&gt;Node7 -->
<g id="edge7" class="edge"><title>Node1&#45;&gt;Node7</title>
<path fill="none" stroke="midnightblue" d="M446.126,-172.018C505.526,-164.91 616.05,-150.803 719.608,-132.136"/>
<polygon fill="midnightblue" stroke="midnightblue" points="720.395,-135.55 729.606,-130.315 719.141,-128.663 720.395,-135.55"/>
</g>
<!-- Node8 -->
<g id="node9" class="node"><title>Node8</title>
<g id="a_node9"><a xlink:href="KalmanFilterProblemConcept_8h.html" target="_top" xlink:title="KalmanFilterProblemConcept.h">
<polygon fill="white" stroke="black" points="130.5,-112.5 130.5,-131.5 281.5,-131.5 281.5,-112.5 130.5,-112.5"/>
<text text-anchor="middle" x="206" y="-119.5" font-family="FreeSans" font-size="10.00">KalmanFilterProblemConcept.h</text>
</a>
</g>
</g>
<!-- Node1&#45;&gt;Node8 -->
<g id="edge8" class="edge"><title>Node1&#45;&gt;Node8</title>
<path fill="none" stroke="midnightblue" d="M371.785,-168.444C338.067,-159.201 284.2,-144.436 247.068,-134.257"/>
<polygon fill="midnightblue" stroke="midnightblue" points="247.639,-130.785 237.069,-131.516 245.788,-137.536 247.639,-130.785"/>
</g>
<!-- Node9 -->
<g id="node10" class="node"><title>Node9</title>
<g id="a_node10"><a xlink:href="KalmanFilterProblemConcept_8ipp.html" target="_top" xlink:title="KalmanFilterProblemConcept.ipp">
<polygon fill="white" stroke="black" points="125,-56.5 125,-75.5 283,-75.5 283,-56.5 125,-56.5"/>
<text text-anchor="middle" x="204" y="-63.5" font-family="FreeSans" font-size="10.00">KalmanFilterProblemConcept.ipp</text>
</a>
</g>
</g>
<!-- Node8&#45;&gt;Node9 -->
<g id="edge9" class="edge"><title>Node8&#45;&gt;Node9</title>
<path fill="none" stroke="midnightblue" d="M205.67,-112.083C205.408,-105.006 205.032,-94.8611 204.703,-85.9865"/>
<polygon fill="midnightblue" stroke="midnightblue" points="208.192,-85.6147 204.324,-75.7511 201.197,-85.8738 208.192,-85.6147"/>
</g>
<!-- Node9&#45;&gt;Node2 -->
<g id="edge10" class="edge"><title>Node9&#45;&gt;Node2</title>
<path fill="none" stroke="midnightblue" d="M181.817,-56.4435C158.572,-47.4776 121.851,-33.314 95.5848,-23.1827"/>
<polygon fill="midnightblue" stroke="midnightblue" points="96.6692,-19.8497 86.0796,-19.5164 94.1501,-26.3807 96.6692,-19.8497"/>
</g>
<!-- Node9&#45;&gt;Node5 -->
<g id="edge11" class="edge"><title>Node9&#45;&gt;Node5</title>
<path fill="none" stroke="midnightblue" d="M222.856,-56.4435C242.266,-47.6356 272.73,-33.8116 294.965,-23.722"/>
<polygon fill="midnightblue" stroke="midnightblue" points="296.572,-26.836 304.232,-19.5164 293.68,-20.4615 296.572,-26.836"/>
</g>
<!-- Node10 -->
<g id="node11" class="node"><title>Node10</title>
<polygon fill="white" stroke="#bfbfbf" points="146,-0.5 146,-19.5 190,-19.5 190,-0.5 146,-0.5"/>
<text text-anchor="middle" x="168" y="-7.5" font-family="FreeSans" font-size="10.00">vector</text>
</g>
<!-- Node9&#45;&gt;Node10 -->
<g id="edge12" class="edge"><title>Node9&#45;&gt;Node10</title>
<path fill="none" stroke="midnightblue" d="M198.055,-56.083C193.023,-48.5341 185.663,-37.4948 179.487,-28.2298"/>
<polygon fill="midnightblue" stroke="midnightblue" points="182.293,-26.1301 173.834,-19.7511 176.469,-30.0131 182.293,-26.1301"/>
</g>
<!-- Node11 -->
<g id="node12" class="node"><title>Node11</title>
<polygon fill="white" stroke="#bfbfbf" points="208.5,-0.5 208.5,-19.5 257.5,-19.5 257.5,-0.5 208.5,-0.5"/>
<text text-anchor="middle" x="233" y="-7.5" font-family="FreeSans" font-size="10.00">cstddef</text>
</g>
<!-- Node9&#45;&gt;Node11 -->
<g id="edge13" class="edge"><title>Node9&#45;&gt;Node11</title>
<path fill="none" stroke="midnightblue" d="M208.789,-56.083C212.758,-48.6913 218.525,-37.9533 223.435,-28.8111"/>
<polygon fill="midnightblue" stroke="midnightblue" points="226.653,-30.217 228.3,-19.7511 220.486,-26.9051 226.653,-30.217"/>
</g>
</g>
</svg>
        <g id="navigator" transform="translate(0 0)" fill="#404254">
                <rect fill="#f2f5e9" fill-opacity="0.5" stroke="#606060" stroke-width=".5" x="0" y="0" width="60" height="60"/>
                <use id="zoomplus" xlink:href="#zoomPlus" x="17" y="9" onmousedown="handleZoom(evt,'in')"/>
                <use id="zoomminus" xlink:href="#zoomMin" x="42" y="9" onmousedown="handleZoom(evt,'out')"/>
                <use id="reset" xlink:href="#resetDef" x="30" y="36" onmousedown="handleReset()"/>
                <g id="arrowUp" xlink:href="#dirArrow" transform="translate(30 24)" onmousedown="handlePan(0,-1)">
                  <use xlink:href="#rim" fill="#404040">
                        <set attributeName="fill" to="#808080" begin="arrowUp.mouseover" end="arrowUp.mouseout"/>
                  </use>
                  <path fill="none" stroke="white" stroke-width="1.5" d="M0,-3.0v7 M-2.5,-0.5L0,-3.0L2.5,-0.5"/>
                </g>
                <g id="arrowRight" xlink:href="#dirArrow" transform="rotate(90) translate(36 -43)" onmousedown="handlePan(1,0)">
                  <use xlink:href="#rim" fill="#404040">
                        <set attributeName="fill" to="#808080" begin="arrowRight.mouseover" end="arrowRight.mouseout"/>
                  </use>
                  <path fill="none" stroke="white" stroke-width="1.5" d="M0,-3.0v7 M-2.5,-0.5L0,-3.0L2.5,-0.5"/>
                </g>
                <g id="arrowDown" xlink:href="#dirArrow" transform="rotate(180) translate(-30 -48)" onmousedown="handlePan(0,1)">
                  <use xlink:href="#rim" fill="#404040">
                        <set attributeName="fill" to="#808080" begin="arrowDown.mouseover" end="arrowDown.mouseout"/>
                  </use>
                  <path fill="none" stroke="white" stroke-width="1.5" d="M0,-3.0v7 M-2.5,-0.5L0,-3.0L2.5,-0.5"/>
                </g>
                <g id="arrowLeft" xlink:href="#dirArrow" transform="rotate(270) translate(-36 17)" onmousedown="handlePan(-1,0)">
                  <use xlink:href="#rim" fill="#404040">
                        <set attributeName="fill" to="#808080" begin="arrowLeft.mouseover" end="arrowLeft.mouseout"/>
                  </use>
                  <path fill="none" stroke="white" stroke-width="1.5" d="M0,-3.0v7 M-2.5,-0.5L0,-3.0L2.5,-0.5"/>
                </g>
        </g>
        <svg viewBox="0 0 15 15" width="100%" height="30px" preserveAspectRatio="xMaxYMin meet">
         <g id="arrow_out" transform="scale(0.3 0.3)">
          <a xlink:href="KalmanFilter_8h__incl_org.svg" target="_base">
           <rect id="button" ry="5" rx="5" y="6" x="6" height="38" width="38"
                fill="#f2f5e9" fill-opacity="0.5" stroke="#606060" stroke-width="1.0"/>
           <path id="arrow"
             d="M 11.500037,31.436501 C 11.940474,20.09759 22.043105,11.32322 32.158766,21.979434 L 37.068811,17.246167 C 37.068811,17.246167 37.088388,32 37.088388,32 L 22.160133,31.978069 C 22.160133,31.978069 26.997745,27.140456 26.997745,27.140456 C 18.528582,18.264221 13.291696,25.230495 11.500037,31.436501 z"
             style="fill:#404040;"/>
          </a>
         </g>
        </svg>
</svg>
