<?xml version="1.0" encoding="UTF-8" standalone="no"?>
<!DOCTYPE svg PUBLIC "-//W3C//DTD SVG 1.1//EN"
 "http://www.w3.org/Graphics/SVG/1.1/DTD/svg11.dtd">
<!-- Generated by graphviz version 2.38.0 (20140413.2041)
 -->
<!-- Title: src/Geometry/LensDistortionConcept.ipp Pages: 1 -->
<!--zoomable 207 -->
<svg id="main" version="1.1" xmlns="http://www.w3.org/2000/svg" xmlns:xlink="http://www.w3.org/1999/xlink" xml:space="preserve" onload="init(evt)">
<style type="text/css"><![CDATA[
.edge:hover path { stroke: red; }
.edge:hover polygon { stroke: red; fill: red; }
]]></style>
<script type="text/javascript"><![CDATA[
var edges = document.getElementsByTagName('g');
if (edges && edges.length) {
  for (var i=0;i<edges.length;i++) {
    if (edges[i].id.substr(0,4)=='edge') {
      edges[i].setAttribute('class','edge');
    }
  }
}
]]></script>
        <defs>
                <circle id="rim" cx="0" cy="0" r="7"/>
                <circle id="rim2" cx="0" cy="0" r="3.5"/>
                <g id="zoomPlus">
                        <use xlink:href="#rim" fill="#404040">
                                <set attributeName="fill" to="#808080" begin="zoomplus.mouseover" end="zoomplus.mouseout"/>
                        </use>
                        <path d="M-4,0h8M0,-4v8" fill="none" stroke="white" stroke-width="1.5" pointer-events="none"/>
                </g>
                <g id="zoomMin">
                        <use xlink:href="#rim" fill="#404040">
                                <set attributeName="fill" to="#808080" begin="zoomminus.mouseover" end="zoomminus.mouseout"/>
                        </use>
                        <path d="M-4,0h8" fill="none" stroke="white" stroke-width="1.5" pointer-events="none"/>
                </g>
                <g id="dirArrow">
                        <path fill="none" stroke="white" stroke-width="1.5" d="M0,-3.0v7 M-2.5,-0.5L0,-3.0L2.5,-0.5"/>
                </g>
               <g id="resetDef">
                       <use xlink:href="#rim2" fill="#404040">
                               <set attributeName="fill" to="#808080" begin="reset.mouseover" end="reset.mouseout"/>
                       </use>
               </g>
        </defs>

<script type="text/javascript">
var viewWidth = 1217;
var viewHeight = 207;
var sectionId = 'dynsection-0';
</script>
<script xlink:href="svgpan.js"/>
<svg id="graph" class="graph">
<g id="viewport">
<title>src/Geometry/LensDistortionConcept.ipp</title>
<polygon fill="white" stroke="none" points="-4,4 -4,-203 1213,-203 1213,4 -4,4"/>
<!-- Node0 -->
<g id="node1" class="node"><title>Node0</title>
<polygon fill="#bfbfbf" stroke="black" points="648.5,-168.5 648.5,-198.5 789.5,-198.5 789.5,-168.5 648.5,-168.5"/>
<text text-anchor="start" x="656.5" y="-186.5" font-family="FreeSans" font-size="10.00">src/Geometry/LensDistortion</text>
<text text-anchor="middle" x="719" y="-175.5" font-family="FreeSans" font-size="10.00">Concept.ipp</text>
</g>
<!-- Node1 -->
<g id="node2" class="node"><title>Node1</title>
<polygon fill="white" stroke="#bfbfbf" points="0,-0.5 0,-19.5 128,-19.5 128,-0.5 0,-0.5"/>
<text text-anchor="middle" x="64" y="-7.5" font-family="FreeSans" font-size="10.00">boost/concept_check.hpp</text>
</g>
<!-- Node0&#45;&gt;Node1 -->
<g id="edge1" class="edge"><title>Node0&#45;&gt;Node1</title>
<path fill="none" stroke="midnightblue" d="M665.399,-168.465C538.461,-135.229 221.541,-52.2493 106.541,-22.1387"/>
<polygon fill="midnightblue" stroke="midnightblue" points="107.252,-18.7069 96.6916,-19.5597 105.479,-25.4786 107.252,-18.7069"/>
</g>
<!-- Node2 -->
<g id="node3" class="node"><title>Node2</title>
<polygon fill="white" stroke="#bfbfbf" points="608.5,-112.5 608.5,-131.5 703.5,-131.5 703.5,-112.5 608.5,-112.5"/>
<text text-anchor="middle" x="656" y="-119.5" font-family="FreeSans" font-size="10.00">boost/optional.hpp</text>
</g>
<!-- Node0&#45;&gt;Node2 -->
<g id="edge2" class="edge"><title>Node0&#45;&gt;Node2</title>
<path fill="none" stroke="midnightblue" d="M704.07,-168.399C694.632,-159.486 682.42,-147.952 672.667,-138.741"/>
<polygon fill="midnightblue" stroke="midnightblue" points="674.84,-135.979 665.167,-131.658 670.034,-141.069 674.84,-135.979"/>
</g>
<!-- Node3 -->
<g id="node4" class="node"><title>Node3</title>
<g id="a_node4"><a xlink:href="Coordinate_8h.html" target="_top" xlink:title="../Elements/Coordinate.h">
<polygon fill="white" stroke="black" points="722,-112.5 722,-131.5 844,-131.5 844,-112.5 722,-112.5"/>
<text text-anchor="middle" x="783" y="-119.5" font-family="FreeSans" font-size="10.00">../Elements/Coordinate.h</text>
</a>
</g>
</g>
<!-- Node0&#45;&gt;Node3 -->
<g id="edge3" class="edge"><title>Node0&#45;&gt;Node3</title>
<path fill="none" stroke="midnightblue" d="M734.167,-168.399C743.755,-159.486 756.161,-147.952 766.069,-138.741"/>
<polygon fill="midnightblue" stroke="midnightblue" points="768.747,-141.03 773.687,-131.658 763.98,-135.903 768.747,-141.03"/>
</g>
<!-- Node17 -->
<g id="node18" class="node"><title>Node17</title>
<g id="a_node18"><a xlink:href="EigenMetafunction_8h.html" target="_top" xlink:title="../Wrappers/EigenMetafunction.h">
<polygon fill="white" stroke="black" points="921,-112.5 921,-131.5 1077,-131.5 1077,-112.5 921,-112.5"/>
<text text-anchor="middle" x="999" y="-119.5" font-family="FreeSans" font-size="10.00">../Wrappers/EigenMetafunction.h</text>
</a>
</g>
</g>
<!-- Node0&#45;&gt;Node17 -->
<g id="edge18" class="edge"><title>Node0&#45;&gt;Node17</title>
<path fill="none" stroke="midnightblue" d="M785.002,-168.475C835.206,-157.806 903.226,-143.352 948.987,-133.628"/>
<polygon fill="midnightblue" stroke="midnightblue" points="949.916,-137.009 958.97,-131.506 948.461,-130.161 949.916,-137.009"/>
</g>
<!-- Node4 -->
<g id="node5" class="node"><title>Node4</title>
<g id="a_node5"><a xlink:href="Coordinate_8ipp.html" target="_top" xlink:title="Coordinate.ipp">
<polygon fill="white" stroke="black" points="744,-56.5 744,-75.5 822,-75.5 822,-56.5 744,-56.5"/>
<text text-anchor="middle" x="783" y="-63.5" font-family="FreeSans" font-size="10.00">Coordinate.ipp</text>
</a>
</g>
</g>
<!-- Node3&#45;&gt;Node4 -->
<g id="edge4" class="edge"><title>Node3&#45;&gt;Node4</title>
<path fill="none" stroke="midnightblue" d="M783,-112.083C783,-105.006 783,-94.8611 783,-85.9865"/>
<polygon fill="midnightblue" stroke="midnightblue" points="786.5,-85.751 783,-75.7511 779.5,-85.7511 786.5,-85.751"/>
</g>
<!-- Node4&#45;&gt;Node1 -->
<g id="edge5" class="edge"><title>Node4&#45;&gt;Node1</title>
<path fill="none" stroke="midnightblue" d="M743.983,-63.0063C644.751,-57.7811 374.486,-42.5816 138.232,-20.0693"/>
<polygon fill="midnightblue" stroke="midnightblue" points="138.361,-16.5658 128.073,-19.0947 137.693,-23.5338 138.361,-16.5658"/>
</g>
<!-- Node5 -->
<g id="node6" class="node"><title>Node5</title>
<polygon fill="white" stroke="#bfbfbf" points="146,-0.5 146,-19.5 274,-19.5 274,-0.5 146,-0.5"/>
<text text-anchor="middle" x="210" y="-7.5" font-family="FreeSans" font-size="10.00">boost/range/concepts.hpp</text>
</g>
<!-- Node4&#45;&gt;Node5 -->
<g id="edge6" class="edge"><title>Node4&#45;&gt;Node5</title>
<path fill="none" stroke="midnightblue" d="M743.739,-61.9088C660.905,-55.2915 461.945,-38.8951 284.141,-20.0904"/>
<polygon fill="midnightblue" stroke="midnightblue" points="284.394,-16.5977 274.08,-19.0213 283.655,-23.5585 284.394,-16.5977"/>
</g>
<!-- Node6 -->
<g id="node7" class="node"><title>Node6</title>
<polygon fill="white" stroke="#bfbfbf" points="292,-0.5 292,-19.5 442,-19.5 442,-0.5 292,-0.5"/>
<text text-anchor="middle" x="367" y="-7.5" font-family="FreeSans" font-size="10.00">boost/range/metafunctions.hpp</text>
</g>
<!-- Node4&#45;&gt;Node6 -->
<g id="edge7" class="edge"><title>Node4&#45;&gt;Node6</title>
<path fill="none" stroke="midnightblue" d="M743.864,-59.9198C675.115,-50.9957 531.555,-32.3605 442.812,-20.841"/>
<polygon fill="midnightblue" stroke="midnightblue" points="443.171,-17.3583 432.803,-19.5418 442.27,-24.3 443.171,-17.3583"/>
</g>
<!-- Node7 -->
<g id="node8" class="node"><title>Node7</title>
<polygon fill="white" stroke="#bfbfbf" points="460,-0.5 460,-19.5 588,-19.5 588,-0.5 460,-0.5"/>
<text text-anchor="middle" x="524" y="-7.5" font-family="FreeSans" font-size="10.00">boost/range/functions.hpp</text>
</g>
<!-- Node4&#45;&gt;Node7 -->
<g id="edge8" class="edge"><title>Node4&#45;&gt;Node7</title>
<path fill="none" stroke="midnightblue" d="M743.945,-56.8572C698.862,-47.4576 624.569,-31.968 574.97,-21.6269"/>
<polygon fill="midnightblue" stroke="midnightblue" points="575.592,-18.1814 565.088,-19.5666 574.163,-25.034 575.592,-18.1814"/>
</g>
<!-- Node8 -->
<g id="node9" class="node"><title>Node8</title>
<polygon fill="white" stroke="#bfbfbf" points="606.5,-0.5 606.5,-19.5 677.5,-19.5 677.5,-0.5 606.5,-0.5"/>
<text text-anchor="middle" x="642" y="-7.5" font-family="FreeSans" font-size="10.00">Eigen/Dense</text>
</g>
<!-- Node4&#45;&gt;Node8 -->
<g id="edge9" class="edge"><title>Node4&#45;&gt;Node8</title>
<path fill="none" stroke="midnightblue" d="M760.658,-56.4435C737.247,-47.4776 700.264,-33.314 673.81,-23.1827"/>
<polygon fill="midnightblue" stroke="midnightblue" points="674.828,-19.8245 664.237,-19.5164 672.324,-26.3615 674.828,-19.8245"/>
</g>
<!-- Node9 -->
<g id="node10" class="node"><title>Node9</title>
<polygon fill="white" stroke="#bfbfbf" points="696,-0.5 696,-19.5 740,-19.5 740,-0.5 696,-0.5"/>
<text text-anchor="middle" x="718" y="-7.5" font-family="FreeSans" font-size="10.00">vector</text>
</g>
<!-- Node4&#45;&gt;Node9 -->
<g id="edge10" class="edge"><title>Node4&#45;&gt;Node9</title>
<path fill="none" stroke="midnightblue" d="M772.557,-56.324C762.854,-48.2631 748.185,-36.0765 736.5,-26.3695"/>
<polygon fill="midnightblue" stroke="midnightblue" points="738.562,-23.532 728.633,-19.8339 734.089,-28.9163 738.562,-23.532"/>
</g>
<!-- Node10 -->
<g id="node11" class="node"><title>Node10</title>
<polygon fill="white" stroke="#bfbfbf" points="1147,-0.5 1147,-19.5 1209,-19.5 1209,-0.5 1147,-0.5"/>
<text text-anchor="middle" x="1178" y="-7.5" font-family="FreeSans" font-size="10.00">type_traits</text>
</g>
<!-- Node4&#45;&gt;Node10 -->
<g id="edge11" class="edge"><title>Node4&#45;&gt;Node10</title>
<path fill="none" stroke="midnightblue" d="M822.055,-61.2785C885.833,-54.9341 1016.48,-40.824 1136.52,-20.1202"/>
<polygon fill="midnightblue" stroke="midnightblue" points="1137.36,-23.5254 1146.61,-18.3585 1136.16,-16.6296 1137.36,-23.5254"/>
</g>
<!-- Node11 -->
<g id="node12" class="node"><title>Node11</title>
<polygon fill="white" stroke="#bfbfbf" points="758.5,-0.5 758.5,-19.5 807.5,-19.5 807.5,-0.5 758.5,-0.5"/>
<text text-anchor="middle" x="783" y="-7.5" font-family="FreeSans" font-size="10.00">cstddef</text>
</g>
<!-- Node4&#45;&gt;Node11 -->
<g id="edge12" class="edge"><title>Node4&#45;&gt;Node11</title>
<path fill="none" stroke="midnightblue" d="M783,-56.083C783,-49.0059 783,-38.8611 783,-29.9865"/>
<polygon fill="midnightblue" stroke="midnightblue" points="786.5,-29.751 783,-19.7511 779.5,-29.7511 786.5,-29.751"/>
</g>
<!-- Node12 -->
<g id="node13" class="node"><title>Node12</title>
<polygon fill="white" stroke="#bfbfbf" points="826,-0.5 826,-19.5 870,-19.5 870,-0.5 826,-0.5"/>
<text text-anchor="middle" x="848" y="-7.5" font-family="FreeSans" font-size="10.00">cmath</text>
</g>
<!-- Node4&#45;&gt;Node12 -->
<g id="edge13" class="edge"><title>Node4&#45;&gt;Node12</title>
<path fill="none" stroke="midnightblue" d="M793.443,-56.324C803.146,-48.2631 817.815,-36.0765 829.5,-26.3695"/>
<polygon fill="midnightblue" stroke="midnightblue" points="831.911,-28.9163 837.367,-19.8339 827.438,-23.532 831.911,-28.9163"/>
</g>
<!-- Node13 -->
<g id="node14" class="node"><title>Node13</title>
<polygon fill="white" stroke="#bfbfbf" points="888,-0.5 888,-19.5 926,-19.5 926,-0.5 888,-0.5"/>
<text text-anchor="middle" x="907" y="-7.5" font-family="FreeSans" font-size="10.00">array</text>
</g>
<!-- Node4&#45;&gt;Node13 -->
<g id="edge14" class="edge"><title>Node4&#45;&gt;Node13</title>
<path fill="none" stroke="midnightblue" d="M802.648,-56.4435C823.084,-47.544 855.279,-33.5237 878.506,-23.4086"/>
<polygon fill="midnightblue" stroke="midnightblue" points="880.08,-26.5406 887.851,-19.339 877.285,-20.1228 880.08,-26.5406"/>
</g>
<!-- Node14 -->
<g id="node15" class="node"><title>Node14</title>
<polygon fill="white" stroke="#bfbfbf" points="944,-0.5 944,-19.5 1000,-19.5 1000,-0.5 944,-0.5"/>
<text text-anchor="middle" x="972" y="-7.5" font-family="FreeSans" font-size="10.00">algorithm</text>
</g>
<!-- Node4&#45;&gt;Node14 -->
<g id="edge15" class="edge"><title>Node4&#45;&gt;Node14</title>
<path fill="none" stroke="midnightblue" d="M812.948,-56.4435C845.632,-47.1053 898.049,-32.1287 933.703,-21.9421"/>
<polygon fill="midnightblue" stroke="midnightblue" points="935.082,-25.1881 943.736,-19.0755 933.159,-18.4574 935.082,-25.1881"/>
</g>
<!-- Node15 -->
<g id="node16" class="node"><title>Node15</title>
<polygon fill="white" stroke="#bfbfbf" points="1018.5,-0.5 1018.5,-19.5 1063.5,-19.5 1063.5,-0.5 1018.5,-0.5"/>
<text text-anchor="middle" x="1041" y="-7.5" font-family="FreeSans" font-size="10.00">climits</text>
</g>
<!-- Node4&#45;&gt;Node15 -->
<g id="edge16" class="edge"><title>Node4&#45;&gt;Node15</title>
<path fill="none" stroke="midnightblue" d="M822.396,-58.114C865.619,-50.3478 937.232,-36.8609 1008.31,-20.01"/>
<polygon fill="midnightblue" stroke="midnightblue" points="1009.42,-23.3426 1018.33,-17.6102 1007.79,-16.535 1009.42,-23.3426"/>
</g>
<!-- Node16 -->
<g id="node17" class="node"><title>Node16</title>
<polygon fill="white" stroke="#bfbfbf" points="1081.5,-0.5 1081.5,-19.5 1128.5,-19.5 1128.5,-0.5 1081.5,-0.5"/>
<text text-anchor="middle" x="1105" y="-7.5" font-family="FreeSans" font-size="10.00">iterator</text>
</g>
<!-- Node4&#45;&gt;Node16 -->
<g id="edge17" class="edge"><title>Node4&#45;&gt;Node16</title>
<path fill="none" stroke="midnightblue" d="M822.208,-60.4362C876.286,-53.8097 976.947,-40.285 1071.32,-20.1649"/>
<polygon fill="midnightblue" stroke="midnightblue" points="1072.28,-23.5385 1081.31,-18.004 1070.8,-16.6966 1072.28,-23.5385"/>
</g>
<!-- Node18 -->
<g id="node19" class="node"><title>Node18</title>
<g id="a_node19"><a xlink:href="EigenMetafunction_8ipp.html" target="_top" xlink:title="EigenMetafunction.ipp">
<polygon fill="white" stroke="black" points="1062,-56.5 1062,-75.5 1174,-75.5 1174,-56.5 1062,-56.5"/>
<text text-anchor="middle" x="1118" y="-63.5" font-family="FreeSans" font-size="10.00">EigenMetafunction.ipp</text>
</a>
</g>
</g>
<!-- Node17&#45;&gt;Node18 -->
<g id="edge19" class="edge"><title>Node17&#45;&gt;Node18</title>
<path fill="none" stroke="midnightblue" d="M1017.86,-112.444C1037.27,-103.636 1067.73,-89.8116 1089.96,-79.722"/>
<polygon fill="midnightblue" stroke="midnightblue" points="1091.57,-82.836 1099.23,-75.5164 1088.68,-76.4615 1091.57,-82.836"/>
</g>
<!-- Node18&#45;&gt;Node10 -->
<g id="edge20" class="edge"><title>Node18&#45;&gt;Node10</title>
<path fill="none" stroke="midnightblue" d="M1127.64,-56.324C1136.51,-48.3414 1149.87,-36.3128 1160.61,-26.6529"/>
<polygon fill="midnightblue" stroke="midnightblue" points="1163.09,-29.1251 1168.18,-19.8339 1158.41,-23.922 1163.09,-29.1251"/>
</g>
</g>
</svg>
        <g id="navigator" transform="translate(0 0)" fill="#404254">
                <rect fill="#f2f5e9" fill-opacity="0.5" stroke="#606060" stroke-width=".5" x="0" y="0" width="60" height="60"/>
                <use id="zoomplus" xlink:href="#zoomPlus" x="17" y="9" onmousedown="handleZoom(evt,'in')"/>
                <use id="zoomminus" xlink:href="#zoomMin" x="42" y="9" onmousedown="handleZoom(evt,'out')"/>
                <use id="reset" xlink:href="#resetDef" x="30" y="36" onmousedown="handleReset()"/>
                <g id="arrowUp" xlink:href="#dirArrow" transform="translate(30 24)" onmousedown="handlePan(0,-1)">
                  <use xlink:href="#rim" fill="#404040">
                        <set attributeName="fill" to="#808080" begin="arrowUp.mouseover" end="arrowUp.mouseout"/>
                  </use>
                  <path fill="none" stroke="white" stroke-width="1.5" d="M0,-3.0v7 M-2.5,-0.5L0,-3.0L2.5,-0.5"/>
                </g>
                <g id="arrowRight" xlink:href="#dirArrow" transform="rotate(90) translate(36 -43)" onmousedown="handlePan(1,0)">
                  <use xlink:href="#rim" fill="#404040">
                        <set attributeName="fill" to="#808080" begin="arrowRight.mouseover" end="arrowRight.mouseout"/>
                  </use>
                  <path fill="none" stroke="white" stroke-width="1.5" d="M0,-3.0v7 M-2.5,-0.5L0,-3.0L2.5,-0.5"/>
                </g>
                <g id="arrowDown" xlink:href="#dirArrow" transform="rotate(180) translate(-30 -48)" onmousedown="handlePan(0,1)">
                  <use xlink:href="#rim" fill="#404040">
                        <set attributeName="fill" to="#808080" begin="arrowDown.mouseover" end="arrowDown.mouseout"/>
                  </use>
                  <path fill="none" stroke="white" stroke-width="1.5" d="M0,-3.0v7 M-2.5,-0.5L0,-3.0L2.5,-0.5"/>
                </g>
                <g id="arrowLeft" xlink:href="#dirArrow" transform="rotate(270) translate(-36 17)" onmousedown="handlePan(-1,0)">
                  <use xlink:href="#rim" fill="#404040">
                        <set attributeName="fill" to="#808080" begin="arrowLeft.mouseover" end="arrowLeft.mouseout"/>
                  </use>
                  <path fill="none" stroke="white" stroke-width="1.5" d="M0,-3.0v7 M-2.5,-0.5L0,-3.0L2.5,-0.5"/>
                </g>
        </g>
        <svg viewBox="0 0 15 15" width="100%" height="30px" preserveAspectRatio="xMaxYMin meet">
         <g id="arrow_out" transform="scale(0.3 0.3)">
          <a xlink:href="LensDistortionConcept_8ipp__incl_org.svg" target="_base">
           <rect id="button" ry="5" rx="5" y="6" x="6" height="38" width="38"
                fill="#f2f5e9" fill-opacity="0.5" stroke="#606060" stroke-width="1.0"/>
           <path id="arrow"
             d="M 11.500037,31.436501 C 11.940474,20.09759 22.043105,11.32322 32.158766,21.979434 L 37.068811,17.246167 C 37.068811,17.246167 37.088388,32 37.088388,32 L 22.160133,31.978069 C 22.160133,31.978069 26.997745,27.140456 26.997745,27.140456 C 18.528582,18.264221 13.291696,25.230495 11.500037,31.436501 z"
             style="fill:#404040;"/>
          </a>
         </g>
        </svg>
</svg>
