<?xml version="1.0" encoding="UTF-8" standalone="no"?>
<!DOCTYPE svg PUBLIC "-//W3C//DTD SVG 1.1//EN"
 "http://www.w3.org/Graphics/SVG/1.1/DTD/svg11.dtd">
<!-- Generated by graphviz version 2.38.0 (20140413.2041)
 -->
<!-- Title: src/GeometryEstimationPipeline/LinearAutocalibrationPipeline.h Pages: 1 -->
<!--zoomable 407 -->
<svg id="main" version="1.1" xmlns="http://www.w3.org/2000/svg" xmlns:xlink="http://www.w3.org/1999/xlink" xml:space="preserve" onload="init(evt)">
<style type="text/css"><![CDATA[
.edge:hover path { stroke: red; }
.edge:hover polygon { stroke: red; fill: red; }
]]></style>
<script type="text/javascript"><![CDATA[
var edges = document.getElementsByTagName('g');
if (edges && edges.length) {
  for (var i=0;i<edges.length;i++) {
    if (edges[i].id.substr(0,4)=='edge') {
      edges[i].setAttribute('class','edge');
    }
  }
}
]]></script>
        <defs>
                <circle id="rim" cx="0" cy="0" r="7"/>
                <circle id="rim2" cx="0" cy="0" r="3.5"/>
                <g id="zoomPlus">
                        <use xlink:href="#rim" fill="#404040">
                                <set attributeName="fill" to="#808080" begin="zoomplus.mouseover" end="zoomplus.mouseout"/>
                        </use>
                        <path d="M-4,0h8M0,-4v8" fill="none" stroke="white" stroke-width="1.5" pointer-events="none"/>
                </g>
                <g id="zoomMin">
                        <use xlink:href="#rim" fill="#404040">
                                <set attributeName="fill" to="#808080" begin="zoomminus.mouseover" end="zoomminus.mouseout"/>
                        </use>
                        <path d="M-4,0h8" fill="none" stroke="white" stroke-width="1.5" pointer-events="none"/>
                </g>
                <g id="dirArrow">
                        <path fill="none" stroke="white" stroke-width="1.5" d="M0,-3.0v7 M-2.5,-0.5L0,-3.0L2.5,-0.5"/>
                </g>
               <g id="resetDef">
                       <use xlink:href="#rim2" fill="#404040">
                               <set attributeName="fill" to="#808080" begin="reset.mouseover" end="reset.mouseout"/>
                       </use>
               </g>
        </defs>

<script type="text/javascript">
var viewWidth = 664;
var viewHeight = 407;
var sectionId = 'dynsection-1';
</script>
<script xlink:href="svgpan.js"/>
<svg id="graph" class="graph">
<g id="viewport">
<title>src/GeometryEstimationPipeline/LinearAutocalibrationPipeline.h</title>
<polygon fill="white" stroke="none" points="-4,4 -4,-403 659.5,-403 659.5,4 -4,4"/>
<!-- Node109 -->
<g id="node1" class="node"><title>Node109</title>
<polygon fill="#bfbfbf" stroke="black" points="233,-368.5 233,-398.5 388,-398.5 388,-368.5 233,-368.5"/>
<text text-anchor="start" x="241" y="-386.5" font-family="FreeSans" font-size="10.00">src/GeometryEstimationPipeline</text>
<text text-anchor="middle" x="310.5" y="-375.5" font-family="FreeSans" font-size="10.00">/LinearAutocalibrationPipeline.h</text>
</g>
<!-- Node110 -->
<g id="node2" class="node"><title>Node110</title>
<g id="a_node2"><a xlink:href="AppIntrinsicsEstimator_8cpp.html" target="_top" xlink:title="src/Application/AppIntrinsics\lEstimator.cpp">
<polygon fill="white" stroke="black" points="0,-140 0,-170 141,-170 141,-140 0,-140"/>
<text text-anchor="start" x="8" y="-158" font-family="FreeSans" font-size="10.00">src/Application/AppIntrinsics</text>
<text text-anchor="middle" x="70.5" y="-147" font-family="FreeSans" font-size="10.00">Estimator.cpp</text>
</a>
</g>
</g>
<!-- Node109&#45;&gt;Node110 -->
<g id="edge1" class="edge"><title>Node109&#45;&gt;Node110</title>
<path fill="none" stroke="midnightblue" d="M222.536,-371.719C193.894,-364.446 163.774,-352.292 141.5,-332 92.3,-287.178 76.5378,-203.51 72.0772,-170.206"/>
<polygon fill="midnightblue" stroke="midnightblue" points="222.054,-375.202 232.591,-374.094 223.663,-368.389 222.054,-375.202"/>
</g>
<!-- Node111 -->
<g id="node3" class="node"><title>Node111</title>
<g id="a_node3"><a xlink:href="InterfaceLinearAutocalibrationPipeline_8ipp.html" target="_top" xlink:title="src/ApplicationInterface\l/InterfaceLinearAutocalibration\lPipeline.ipp">
<polygon fill="white" stroke="black" points="151,-290.5 151,-331.5 300,-331.5 300,-290.5 151,-290.5"/>
<text text-anchor="start" x="159" y="-319.5" font-family="FreeSans" font-size="10.00">src/ApplicationInterface</text>
<text text-anchor="start" x="159" y="-308.5" font-family="FreeSans" font-size="10.00">/InterfaceLinearAutocalibration</text>
<text text-anchor="middle" x="225.5" y="-297.5" font-family="FreeSans" font-size="10.00">Pipeline.ipp</text>
</a>
</g>
</g>
<!-- Node109&#45;&gt;Node111 -->
<g id="edge2" class="edge"><title>Node109&#45;&gt;Node111</title>
<path fill="none" stroke="midnightblue" d="M285.37,-361.657C273.902,-352.145 260.396,-340.943 249.117,-331.588"/>
<polygon fill="midnightblue" stroke="midnightblue" points="283.368,-364.543 293.299,-368.233 287.836,-359.155 283.368,-364.543"/>
</g>
<!-- Node117 -->
<g id="node9" class="node"><title>Node117</title>
<g id="a_node9"><a xlink:href="SfMPipeline_8ipp.html" target="_top" xlink:title="src/GeometryEstimationPipeline\l/SfMPipeline.ipp">
<polygon fill="white" stroke="black" points="318,-296 318,-326 473,-326 473,-296 318,-296"/>
<text text-anchor="start" x="326" y="-314" font-family="FreeSans" font-size="10.00">src/GeometryEstimationPipeline</text>
<text text-anchor="middle" x="395.5" y="-303" font-family="FreeSans" font-size="10.00">/SfMPipeline.ipp</text>
</a>
</g>
</g>
<!-- Node109&#45;&gt;Node117 -->
<g id="edge9" class="edge"><title>Node109&#45;&gt;Node117</title>
<path fill="none" stroke="midnightblue" d="M335.472,-361.788C349.363,-350.266 366.283,-336.233 378.615,-326.005"/>
<polygon fill="midnightblue" stroke="midnightblue" points="333.164,-359.155 327.701,-368.233 337.632,-364.543 333.164,-359.155"/>
</g>
<!-- Node120 -->
<g id="node12" class="node"><title>Node120</title>
<g id="a_node12"><a xlink:href="LinearAutocalibrationPipeline_8cpp.html" target="_top" xlink:title="src/GeometryEstimationPipeline\l/LinearAutocalibrationPipeline.cpp">
<polygon fill="white" stroke="black" points="491.5,-296 491.5,-326 655.5,-326 655.5,-296 491.5,-296"/>
<text text-anchor="start" x="499.5" y="-314" font-family="FreeSans" font-size="10.00">src/GeometryEstimationPipeline</text>
<text text-anchor="middle" x="573.5" y="-303" font-family="FreeSans" font-size="10.00">/LinearAutocalibrationPipeline.cpp</text>
</a>
</g>
</g>
<!-- Node109&#45;&gt;Node120 -->
<g id="edge13" class="edge"><title>Node109&#45;&gt;Node120</title>
<path fill="none" stroke="midnightblue" d="M372.449,-365.894C417.586,-353.794 478.071,-337.581 520.874,-326.107"/>
<polygon fill="midnightblue" stroke="midnightblue" points="371.528,-362.517 362.775,-368.487 373.34,-369.279 371.528,-362.517"/>
</g>
<!-- Node112 -->
<g id="node4" class="node"><title>Node112</title>
<g id="a_node4"><a xlink:href="InterfaceLinearAutocalibrationPipeline_8h.html" target="_top" xlink:title="src/ApplicationInterface\l/InterfaceLinearAutocalibration\lPipeline.h">
<polygon fill="white" stroke="black" points="151,-212.5 151,-253.5 300,-253.5 300,-212.5 151,-212.5"/>
<text text-anchor="start" x="159" y="-241.5" font-family="FreeSans" font-size="10.00">src/ApplicationInterface</text>
<text text-anchor="start" x="159" y="-230.5" font-family="FreeSans" font-size="10.00">/InterfaceLinearAutocalibration</text>
<text text-anchor="middle" x="225.5" y="-219.5" font-family="FreeSans" font-size="10.00">Pipeline.h</text>
</a>
</g>
</g>
<!-- Node111&#45;&gt;Node112 -->
<g id="edge3" class="edge"><title>Node111&#45;&gt;Node112</title>
<path fill="none" stroke="midnightblue" d="M225.5,-280.297C225.5,-271.301 225.5,-261.653 225.5,-253.506"/>
<polygon fill="midnightblue" stroke="midnightblue" points="222,-280.428 225.5,-290.428 229,-280.428 222,-280.428"/>
</g>
<!-- Node112&#45;&gt;Node110 -->
<g id="edge4" class="edge"><title>Node112&#45;&gt;Node110</title>
<path fill="none" stroke="midnightblue" d="M176.492,-207.97C151.17,-195.554 121.133,-180.827 99.5122,-170.225"/>
<polygon fill="midnightblue" stroke="midnightblue" points="175.064,-211.168 185.584,-212.428 178.146,-204.883 175.064,-211.168"/>
</g>
<!-- Node113 -->
<g id="node5" class="node"><title>Node113</title>
<g id="a_node5"><a xlink:href="InterfaceLinearAutocalibrationPipeline_8cpp.html" target="_top" xlink:title="src/ApplicationInterface\l/InterfaceLinearAutocalibration\lPipeline.cpp">
<polygon fill="white" stroke="black" points="159,-134.5 159,-175.5 308,-175.5 308,-134.5 159,-134.5"/>
<text text-anchor="start" x="167" y="-163.5" font-family="FreeSans" font-size="10.00">src/ApplicationInterface</text>
<text text-anchor="start" x="167" y="-152.5" font-family="FreeSans" font-size="10.00">/InterfaceLinearAutocalibration</text>
<text text-anchor="middle" x="233.5" y="-141.5" font-family="FreeSans" font-size="10.00">Pipeline.cpp</text>
</a>
</g>
</g>
<!-- Node112&#45;&gt;Node113 -->
<g id="edge5" class="edge"><title>Node112&#45;&gt;Node113</title>
<path fill="none" stroke="midnightblue" d="M228.627,-202.297C229.574,-193.301 230.589,-183.653 231.447,-175.506"/>
<polygon fill="midnightblue" stroke="midnightblue" points="225.126,-202.117 227.56,-212.428 232.088,-202.849 225.126,-202.117"/>
</g>
<!-- Node114 -->
<g id="node6" class="node"><title>Node114</title>
<g id="a_node6"><a xlink:href="InterfaceSfMPipeline_8ipp.html" target="_top" xlink:title="src/ApplicationInterface\l/InterfaceSfMPipeline.ipp">
<polygon fill="white" stroke="black" points="326,-140 326,-170 451,-170 451,-140 326,-140"/>
<text text-anchor="start" x="334" y="-158" font-family="FreeSans" font-size="10.00">src/ApplicationInterface</text>
<text text-anchor="middle" x="388.5" y="-147" font-family="FreeSans" font-size="10.00">/InterfaceSfMPipeline.ipp</text>
</a>
</g>
</g>
<!-- Node112&#45;&gt;Node114 -->
<g id="edge6" class="edge"><title>Node112&#45;&gt;Node114</title>
<path fill="none" stroke="midnightblue" d="M276.719,-208.119C303.514,-195.625 335.399,-180.759 358.245,-170.106"/>
<polygon fill="midnightblue" stroke="midnightblue" points="275.061,-205.03 267.477,-212.428 278.019,-211.374 275.061,-205.03"/>
</g>
<!-- Node115 -->
<g id="node7" class="node"><title>Node115</title>
<g id="a_node7"><a xlink:href="InterfaceSfMPipeline_8h.html" target="_top" xlink:title="src/ApplicationInterface\l/InterfaceSfMPipeline.h">
<polygon fill="white" stroke="black" points="329,-67.5 329,-97.5 448,-97.5 448,-67.5 329,-67.5"/>
<text text-anchor="start" x="337" y="-85.5" font-family="FreeSans" font-size="10.00">src/ApplicationInterface</text>
<text text-anchor="middle" x="388.5" y="-74.5" font-family="FreeSans" font-size="10.00">/InterfaceSfMPipeline.h</text>
</a>
</g>
</g>
<!-- Node114&#45;&gt;Node115 -->
<g id="edge7" class="edge"><title>Node114&#45;&gt;Node115</title>
<path fill="none" stroke="midnightblue" d="M388.5,-129.732C388.5,-119.068 388.5,-106.914 388.5,-97.7455"/>
<polygon fill="midnightblue" stroke="midnightblue" points="385,-129.733 388.5,-139.733 392,-129.733 385,-129.733"/>
</g>
<!-- Node116 -->
<g id="node8" class="node"><title>Node116</title>
<g id="a_node8"><a xlink:href="InterfaceSfMPipeline_8cpp.html" target="_top" xlink:title="src/ApplicationInterface\l/InterfaceSfMPipeline.cpp">
<polygon fill="white" stroke="black" points="324.5,-0.5 324.5,-30.5 452.5,-30.5 452.5,-0.5 324.5,-0.5"/>
<text text-anchor="start" x="332.5" y="-18.5" font-family="FreeSans" font-size="10.00">src/ApplicationInterface</text>
<text text-anchor="middle" x="388.5" y="-7.5" font-family="FreeSans" font-size="10.00">/InterfaceSfMPipeline.cpp</text>
</a>
</g>
</g>
<!-- Node115&#45;&gt;Node116 -->
<g id="edge8" class="edge"><title>Node115&#45;&gt;Node116</title>
<path fill="none" stroke="midnightblue" d="M388.5,-57.1081C388.5,-48.1539 388.5,-38.3227 388.5,-30.5765"/>
<polygon fill="midnightblue" stroke="midnightblue" points="385,-57.3959 388.5,-67.396 392,-57.396 385,-57.3959"/>
</g>
<!-- Node118 -->
<g id="node10" class="node"><title>Node118</title>
<g id="a_node10"><a xlink:href="SfMPipeline_8h.html" target="_top" xlink:title="src/GeometryEstimationPipeline\l/SfMPipeline.h">
<polygon fill="white" stroke="black" points="318,-218 318,-248 473,-248 473,-218 318,-218"/>
<text text-anchor="start" x="326" y="-236" font-family="FreeSans" font-size="10.00">src/GeometryEstimationPipeline</text>
<text text-anchor="middle" x="395.5" y="-225" font-family="FreeSans" font-size="10.00">/SfMPipeline.h</text>
</a>
</g>
</g>
<!-- Node117&#45;&gt;Node118 -->
<g id="edge10" class="edge"><title>Node117&#45;&gt;Node118</title>
<path fill="none" stroke="midnightblue" d="M395.5,-285.59C395.5,-273.257 395.5,-258.724 395.5,-248.231"/>
<polygon fill="midnightblue" stroke="midnightblue" points="392,-285.705 395.5,-295.705 399,-285.705 392,-285.705"/>
</g>
<!-- Node118&#45;&gt;Node114 -->
<g id="edge11" class="edge"><title>Node118&#45;&gt;Node114</title>
<path fill="none" stroke="midnightblue" d="M393.252,-207.59C392.116,-195.257 390.777,-180.724 389.811,-170.231"/>
<polygon fill="midnightblue" stroke="midnightblue" points="389.781,-208.068 394.183,-217.705 396.751,-207.426 389.781,-208.068"/>
</g>
<!-- Node119 -->
<g id="node11" class="node"><title>Node119</title>
<g id="a_node11"><a xlink:href="SfMPipeline_8cpp.html" target="_top" xlink:title="src/GeometryEstimationPipeline\l/SfMPipeline.cpp">
<polygon fill="white" stroke="black" points="469,-140 469,-170 624,-170 624,-140 469,-140"/>
<text text-anchor="start" x="477" y="-158" font-family="FreeSans" font-size="10.00">src/GeometryEstimationPipeline</text>
<text text-anchor="middle" x="546.5" y="-147" font-family="FreeSans" font-size="10.00">/SfMPipeline.cpp</text>
</a>
</g>
</g>
<!-- Node118&#45;&gt;Node119 -->
<g id="edge12" class="edge"><title>Node118&#45;&gt;Node119</title>
<path fill="none" stroke="midnightblue" d="M432.556,-213.349C459.136,-199.971 494.386,-182.229 518.602,-170.041"/>
<polygon fill="midnightblue" stroke="midnightblue" points="430.907,-210.261 423.548,-217.883 434.054,-216.514 430.907,-210.261"/>
</g>
</g>
</svg>
        <g id="navigator" transform="translate(0 0)" fill="#404254">
                <rect fill="#f2f5e9" fill-opacity="0.5" stroke="#606060" stroke-width=".5" x="0" y="0" width="60" height="60"/>
                <use id="zoomplus" xlink:href="#zoomPlus" x="17" y="9" onmousedown="handleZoom(evt,'in')"/>
                <use id="zoomminus" xlink:href="#zoomMin" x="42" y="9" onmousedown="handleZoom(evt,'out')"/>
                <use id="reset" xlink:href="#resetDef" x="30" y="36" onmousedown="handleReset()"/>
                <g id="arrowUp" xlink:href="#dirArrow" transform="translate(30 24)" onmousedown="handlePan(0,-1)">
                  <use xlink:href="#rim" fill="#404040">
                        <set attributeName="fill" to="#808080" begin="arrowUp.mouseover" end="arrowUp.mouseout"/>
                  </use>
                  <path fill="none" stroke="white" stroke-width="1.5" d="M0,-3.0v7 M-2.5,-0.5L0,-3.0L2.5,-0.5"/>
                </g>
                <g id="arrowRight" xlink:href="#dirArrow" transform="rotate(90) translate(36 -43)" onmousedown="handlePan(1,0)">
                  <use xlink:href="#rim" fill="#404040">
                        <set attributeName="fill" to="#808080" begin="arrowRight.mouseover" end="arrowRight.mouseout"/>
                  </use>
                  <path fill="none" stroke="white" stroke-width="1.5" d="M0,-3.0v7 M-2.5,-0.5L0,-3.0L2.5,-0.5"/>
                </g>
                <g id="arrowDown" xlink:href="#dirArrow" transform="rotate(180) translate(-30 -48)" onmousedown="handlePan(0,1)">
                  <use xlink:href="#rim" fill="#404040">
                        <set attributeName="fill" to="#808080" begin="arrowDown.mouseover" end="arrowDown.mouseout"/>
                  </use>
                  <path fill="none" stroke="white" stroke-width="1.5" d="M0,-3.0v7 M-2.5,-0.5L0,-3.0L2.5,-0.5"/>
                </g>
                <g id="arrowLeft" xlink:href="#dirArrow" transform="rotate(270) translate(-36 17)" onmousedown="handlePan(-1,0)">
                  <use xlink:href="#rim" fill="#404040">
                        <set attributeName="fill" to="#808080" begin="arrowLeft.mouseover" end="arrowLeft.mouseout"/>
                  </use>
                  <path fill="none" stroke="white" stroke-width="1.5" d="M0,-3.0v7 M-2.5,-0.5L0,-3.0L2.5,-0.5"/>
                </g>
        </g>
        <svg viewBox="0 0 15 15" width="100%" height="30px" preserveAspectRatio="xMaxYMin meet">
         <g id="arrow_out" transform="scale(0.3 0.3)">
          <a xlink:href="LinearAutocalibrationPipeline_8h__dep__incl_org.svg" target="_base">
           <rect id="button" ry="5" rx="5" y="6" x="6" height="38" width="38"
                fill="#f2f5e9" fill-opacity="0.5" stroke="#606060" stroke-width="1.0"/>
           <path id="arrow"
             d="M 11.500037,31.436501 C 11.940474,20.09759 22.043105,11.32322 32.158766,21.979434 L 37.068811,17.246167 C 37.068811,17.246167 37.088388,32 37.088388,32 L 22.160133,31.978069 C 22.160133,31.978069 26.997745,27.140456 26.997745,27.140456 C 18.528582,18.264221 13.291696,25.230495 11.500037,31.436501 z"
             style="fill:#404040;"/>
          </a>
         </g>
        </svg>
</svg>
