<?xml version="1.0" encoding="UTF-8" standalone="no"?>
<!DOCTYPE svg PUBLIC "-//W3C//DTD SVG 1.1//EN"
 "http://www.w3.org/Graphics/SVG/1.1/DTD/svg11.dtd">
<!-- Generated by graphviz version 2.38.0 (20140413.2041)
 -->
<!-- Title: src/Metrics/MatchAmbiguityMetric.cpp Pages: 1 -->
<svg width="3353pt" height="609pt"
 viewBox="0.00 0.00 3352.50 609.00" xmlns="http://www.w3.org/2000/svg" xmlns:xlink="http://www.w3.org/1999/xlink">
<g id="graph0" class="graph" transform="scale(1 1) rotate(0) translate(4 605)">
<title>src/Metrics/MatchAmbiguityMetric.cpp</title>
<polygon fill="white" stroke="none" points="-4,4 -4,-605 3348.5,-605 3348.5,4 -4,4"/>
<!-- Node0 -->
<g id="node1" class="node"><title>Node0</title>
<polygon fill="#bfbfbf" stroke="black" points="1677,-570.5 1677,-600.5 1815,-600.5 1815,-570.5 1677,-570.5"/>
<text text-anchor="start" x="1685" y="-588.5" font-family="FreeSans" font-size="10.00">src/Metrics/MatchAmbiguity</text>
<text text-anchor="middle" x="1746" y="-577.5" font-family="FreeSans" font-size="10.00">Metric.cpp</text>
</g>
<!-- Node1 -->
<g id="node2" class="node"><title>Node1</title>
<g id="a_node2"><a xlink:href="MatchAmbiguityMetric_8h.html" target="_top" xlink:title="MatchAmbiguityMetric.h">
<polygon fill="white" stroke="black" points="1685.5,-514.5 1685.5,-533.5 1806.5,-533.5 1806.5,-514.5 1685.5,-514.5"/>
<text text-anchor="middle" x="1746" y="-521.5" font-family="FreeSans" font-size="10.00">MatchAmbiguityMetric.h</text>
</a>
</g>
</g>
<!-- Node0&#45;&gt;Node1 -->
<g id="edge1" class="edge"><title>Node0&#45;&gt;Node1</title>
<path fill="none" stroke="midnightblue" d="M1746,-570.399C1746,-562.466 1746,-552.458 1746,-543.858"/>
<polygon fill="midnightblue" stroke="midnightblue" points="1749.5,-543.658 1746,-533.658 1742.5,-543.658 1749.5,-543.658"/>
</g>
<!-- Node2 -->
<g id="node3" class="node"><title>Node2</title>
<g id="a_node3"><a xlink:href="MatchAmbiguityMetric_8ipp.html" target="_top" xlink:title="MatchAmbiguityMetric.ipp">
<polygon fill="white" stroke="black" points="1210,-402.5 1210,-421.5 1338,-421.5 1338,-402.5 1210,-402.5"/>
<text text-anchor="middle" x="1274" y="-409.5" font-family="FreeSans" font-size="10.00">MatchAmbiguityMetric.ipp</text>
</a>
</g>
</g>
<!-- Node1&#45;&gt;Node2 -->
<g id="edge2" class="edge"><title>Node1&#45;&gt;Node2</title>
<path fill="none" stroke="midnightblue" d="M1709.36,-514.46C1624.4,-494.662 1414.13,-445.658 1320.39,-423.812"/>
<polygon fill="midnightblue" stroke="midnightblue" points="1321.15,-420.396 1310.62,-421.535 1319.57,-427.213 1321.15,-420.396"/>
</g>
<!-- Node65 -->
<g id="node66" class="node"><title>Node65</title>
<g id="a_node66"><a xlink:href="Similarity_8h.html" target="_top" xlink:title="Similarity.h">
<polygon fill="white" stroke="black" points="1923,-458.5 1923,-477.5 1987,-477.5 1987,-458.5 1923,-458.5"/>
<text text-anchor="middle" x="1955" y="-465.5" font-family="FreeSans" font-size="10.00">Similarity.h</text>
</a>
</g>
</g>
<!-- Node1&#45;&gt;Node65 -->
<g id="edge109" class="edge"><title>Node1&#45;&gt;Node65</title>
<path fill="none" stroke="midnightblue" d="M1779.12,-514.444C1815.33,-505.087 1873.45,-490.071 1912.88,-479.883"/>
<polygon fill="midnightblue" stroke="midnightblue" points="1913.92,-483.229 1922.73,-477.339 1912.17,-476.452 1913.92,-483.229"/>
</g>
<!-- Node3 -->
<g id="node4" class="node"><title>Node3</title>
<polygon fill="white" stroke="#bfbfbf" points="3153,-6 3153,-25 3281,-25 3281,-6 3153,-6"/>
<text text-anchor="middle" x="3217" y="-13" font-family="FreeSans" font-size="10.00">boost/concept_check.hpp</text>
</g>
<!-- Node2&#45;&gt;Node3 -->
<g id="edge3" class="edge"><title>Node2&#45;&gt;Node3</title>
<path fill="none" stroke="midnightblue" d="M1338.02,-408.254C1601.96,-396.519 2592,-348.253 2592,-284.5 2592,-284.5 2592,-284.5 2592,-148.5 2592,8.42549 2910.06,-64.611 3144,-31 3151.82,-29.8759 3160.08,-28.4611 3168.11,-26.9587"/>
<polygon fill="midnightblue" stroke="midnightblue" points="3168.96,-30.3593 3178.11,-25.0241 3167.63,-23.4866 3168.96,-30.3593"/>
</g>
<!-- Node4 -->
<g id="node5" class="node"><title>Node4</title>
<polygon fill="white" stroke="#bfbfbf" points="145,-6 145,-25 273,-25 273,-6 145,-6"/>
<text text-anchor="middle" x="209" y="-13" font-family="FreeSans" font-size="10.00">boost/range/functions.hpp</text>
</g>
<!-- Node2&#45;&gt;Node4 -->
<g id="edge4" class="edge"><title>Node2&#45;&gt;Node4</title>
<path fill="none" stroke="midnightblue" d="M1209.94,-410.209C966.232,-406.995 107.945,-393.747 57,-366 18.1819,-344.858 0,-328.702 0,-284.5 0,-284.5 0,-284.5 0,-148.5 0,-77.0532 88.3895,-42.708 150.206,-27.4246"/>
<polygon fill="midnightblue" stroke="midnightblue" points="151.336,-30.7538 160.263,-25.0463 149.725,-23.9417 151.336,-30.7538"/>
</g>
<!-- Node5 -->
<g id="node6" class="node"><title>Node5</title>
<polygon fill="white" stroke="#bfbfbf" points="1294.5,-335.5 1294.5,-365.5 1395.5,-365.5 1395.5,-335.5 1294.5,-335.5"/>
<text text-anchor="start" x="1302.5" y="-353.5" font-family="FreeSans" font-size="10.00">boost/math/special</text>
<text text-anchor="middle" x="1345" y="-342.5" font-family="FreeSans" font-size="10.00">_functions/pow.hpp</text>
</g>
<!-- Node2&#45;&gt;Node5 -->
<g id="edge5" class="edge"><title>Node2&#45;&gt;Node5</title>
<path fill="none" stroke="midnightblue" d="M1284.17,-402.475C1293.61,-394.567 1308.03,-382.485 1320.46,-372.067"/>
<polygon fill="midnightblue" stroke="midnightblue" points="1322.85,-374.629 1328.27,-365.523 1318.35,-369.263 1322.85,-374.629"/>
</g>
<!-- Node6 -->
<g id="node7" class="node"><title>Node6</title>
<polygon fill="white" stroke="#bfbfbf" points="66.5,-341 66.5,-360 161.5,-360 161.5,-341 66.5,-341"/>
<text text-anchor="middle" x="114" y="-348" font-family="FreeSans" font-size="10.00">boost/optional.hpp</text>
</g>
<!-- Node2&#45;&gt;Node6 -->
<g id="edge6" class="edge"><title>Node2&#45;&gt;Node6</title>
<path fill="none" stroke="midnightblue" d="M1209.93,-410.177C1005.86,-407.274 372.683,-396.021 170,-366 164.145,-365.133 158.018,-363.896 152.054,-362.507"/>
<polygon fill="midnightblue" stroke="midnightblue" points="152.798,-359.085 142.248,-360.061 151.104,-365.877 152.798,-359.085"/>
</g>
<!-- Node7 -->
<g id="node8" class="node"><title>Node7</title>
<polygon fill="white" stroke="#bfbfbf" points="1063.5,-6 1063.5,-25 1134.5,-25 1134.5,-6 1063.5,-6"/>
<text text-anchor="middle" x="1099" y="-13" font-family="FreeSans" font-size="10.00">Eigen/Dense</text>
</g>
<!-- Node2&#45;&gt;Node7 -->
<g id="edge7" class="edge"><title>Node2&#45;&gt;Node7</title>
<path fill="none" stroke="midnightblue" d="M1336.35,-402.472C1360.53,-396.153 1386.54,-385.152 1404,-366 1429.12,-338.435 1424,-321.797 1424,-284.5 1424,-284.5 1424,-284.5 1424,-148.5 1424,-13.5423 1272.47,-72.3445 1144,-31 1141.22,-30.1042 1138.34,-29.1769 1135.44,-28.2442"/>
<polygon fill="midnightblue" stroke="midnightblue" points="1136.24,-24.8252 1125.65,-25.0905 1134.09,-31.4881 1136.24,-24.8252"/>
</g>
<!-- Node8 -->
<g id="node9" class="node"><title>Node8</title>
<polygon fill="white" stroke="#bfbfbf" points="179.5,-341 179.5,-360 222.5,-360 222.5,-341 179.5,-341"/>
<text text-anchor="middle" x="201" y="-348" font-family="FreeSans" font-size="10.00">omp.h</text>
</g>
<!-- Node2&#45;&gt;Node8 -->
<g id="edge8" class="edge"><title>Node2&#45;&gt;Node8</title>
<path fill="none" stroke="midnightblue" d="M1209.95,-409.745C997.708,-405.378 325.525,-389.801 231,-366 229.065,-365.513 227.106,-364.893 225.166,-364.186"/>
<polygon fill="midnightblue" stroke="midnightblue" points="226.374,-360.896 215.807,-360.128 223.589,-367.318 226.374,-360.896"/>
</g>
<!-- Node9 -->
<g id="node10" class="node"><title>Node9</title>
<polygon fill="white" stroke="#bfbfbf" points="291,-6 291,-25 335,-25 335,-6 291,-6"/>
<text text-anchor="middle" x="313" y="-13" font-family="FreeSans" font-size="10.00">cmath</text>
</g>
<!-- Node2&#45;&gt;Node9 -->
<g id="edge9" class="edge"><title>Node2&#45;&gt;Node9</title>
<path fill="none" stroke="midnightblue" d="M1209.71,-410.282C1011.4,-407.737 417.675,-397.541 337,-366 317.019,-358.188 319.389,-344.183 300,-335 222.325,-298.211 168.66,-361.817 110,-299 39.2501,-223.236 19.6507,-146.646 86,-67 142.689,1.04939 197.642,-57.983 282,-31 283.673,-30.4649 285.373,-29.86 287.071,-29.2086"/>
<polygon fill="midnightblue" stroke="midnightblue" points="288.771,-32.2879 296.583,-25.1308 286.013,-25.8542 288.771,-32.2879"/>
</g>
<!-- Node10 -->
<g id="node11" class="node"><title>Node10</title>
<polygon fill="white" stroke="#bfbfbf" points="3299.5,-6 3299.5,-25 3344.5,-25 3344.5,-6 3299.5,-6"/>
<text text-anchor="middle" x="3322" y="-13" font-family="FreeSans" font-size="10.00">climits</text>
</g>
<!-- Node2&#45;&gt;Node10 -->
<g id="edge10" class="edge"><title>Node2&#45;&gt;Node10</title>
<path fill="none" stroke="midnightblue" d="M1338.13,-410.144C1630.15,-406.137 2826.96,-388.469 2993,-366 3142.28,-345.799 3322,-435.142 3322,-284.5 3322,-284.5 3322,-284.5 3322,-148.5 3322,-108.158 3322,-60.8801 3322,-35.2818"/>
<polygon fill="midnightblue" stroke="midnightblue" points="3325.5,-35.1487 3322,-25.1487 3318.5,-35.1488 3325.5,-35.1487"/>
</g>
<!-- Node11 -->
<g id="node12" class="node"><title>Node11</title>
<polygon fill="white" stroke="#bfbfbf" points="240.5,-341 240.5,-360 291.5,-360 291.5,-341 240.5,-341"/>
<text text-anchor="middle" x="266" y="-348" font-family="FreeSans" font-size="10.00">numeric</text>
</g>
<!-- Node2&#45;&gt;Node11 -->
<g id="edge11" class="edge"><title>Node2&#45;&gt;Node11</title>
<path fill="none" stroke="midnightblue" d="M1209.92,-410.53C1022.85,-408.761 479.744,-400.697 306,-366 302.564,-365.314 299.028,-364.384 295.546,-363.324"/>
<polygon fill="midnightblue" stroke="midnightblue" points="296.605,-359.988 286.01,-360.089 294.356,-366.616 296.605,-359.988"/>
</g>
<!-- Node12 -->
<g id="node13" class="node"><title>Node12</title>
<polygon fill="white" stroke="#bfbfbf" points="428.5,-6 428.5,-25 475.5,-25 475.5,-6 428.5,-6"/>
<text text-anchor="middle" x="452" y="-13" font-family="FreeSans" font-size="10.00">iterator</text>
</g>
<!-- Node2&#45;&gt;Node12 -->
<g id="edge12" class="edge"><title>Node2&#45;&gt;Node12</title>
<path fill="none" stroke="midnightblue" d="M1209.95,-406.774C975.264,-391.026 173.854,-334.818 133,-299 105.033,-274.481 114,-254.694 114,-217.5 114,-217.5 114,-217.5 114,-148.5 114,-83.6413 332.675,-37.7202 418.245,-22.2335"/>
<polygon fill="midnightblue" stroke="midnightblue" points="419.001,-25.6541 428.232,-20.4554 417.774,-18.7625 419.001,-25.6541"/>
</g>
<!-- Node13 -->
<g id="node14" class="node"><title>Node13</title>
<polygon fill="white" stroke="#bfbfbf" points="1153,-6 1153,-25 1197,-25 1197,-6 1153,-6"/>
<text text-anchor="middle" x="1175" y="-13" font-family="FreeSans" font-size="10.00">vector</text>
</g>
<!-- Node2&#45;&gt;Node13 -->
<g id="edge13" class="edge"><title>Node2&#45;&gt;Node13</title>
<path fill="none" stroke="midnightblue" d="M1338.13,-409.029C1420.23,-402.69 1552,-377.958 1552,-284.5 1552,-284.5 1552,-284.5 1552,-148.5 1552,-137.521 1541.81,-138.94 1532,-134 1396.3,-65.6365 1347.57,-86.1973 1206,-31 1204.58,-30.4469 1203.14,-29.8593 1201.68,-29.2495"/>
<polygon fill="midnightblue" stroke="midnightblue" points="1202.76,-25.8996 1192.2,-25.0371 1199.92,-32.2964 1202.76,-25.8996"/>
</g>
<!-- Node14 -->
<g id="node15" class="node"><title>Node14</title>
<polygon fill="white" stroke="#bfbfbf" points="1580.5,-140 1580.5,-159 1623.5,-159 1623.5,-140 1580.5,-140"/>
<text text-anchor="middle" x="1602" y="-147" font-family="FreeSans" font-size="10.00">queue</text>
</g>
<!-- Node2&#45;&gt;Node14 -->
<g id="edge14" class="edge"><title>Node2&#45;&gt;Node14</title>
<path fill="none" stroke="midnightblue" d="M1338.21,-409.629C1414.29,-406.597 1534.7,-396.904 1566,-366 1620.03,-312.648 1611.57,-210.966 1605.32,-169.16"/>
<polygon fill="midnightblue" stroke="midnightblue" points="1608.73,-168.351 1603.67,-159.046 1601.82,-169.479 1608.73,-168.351"/>
</g>
<!-- Node15 -->
<g id="node16" class="node"><title>Node15</title>
<polygon fill="white" stroke="#bfbfbf" points="180.5,-140 180.5,-159 239.5,-159 239.5,-140 180.5,-140"/>
<text text-anchor="middle" x="210" y="-147" font-family="FreeSans" font-size="10.00">functional</text>
</g>
<!-- Node2&#45;&gt;Node15 -->
<g id="edge15" class="edge"><title>Node2&#45;&gt;Node15</title>
<path fill="none" stroke="midnightblue" d="M1238.29,-402.407C1108.13,-371.055 646.802,-259.697 267,-165 261.288,-163.576 255.257,-162.057 249.341,-160.56"/>
<polygon fill="midnightblue" stroke="midnightblue" points="250.124,-157.148 239.571,-158.079 248.402,-163.932 250.124,-157.148"/>
</g>
<!-- Node16 -->
<g id="node17" class="node"><title>Node16</title>
<g id="a_node17"><a xlink:href="InvertibleBinarySimilarityConcept_8h.html" target="_top" xlink:title="InvertibleBinarySimilarity\lConcept.h">
<polygon fill="white" stroke="black" points="2242.5,-268.5 2242.5,-298.5 2365.5,-298.5 2365.5,-268.5 2242.5,-268.5"/>
<text text-anchor="start" x="2250.5" y="-286.5" font-family="FreeSans" font-size="10.00">InvertibleBinarySimilarity</text>
<text text-anchor="middle" x="2304" y="-275.5" font-family="FreeSans" font-size="10.00">Concept.h</text>
</a>
</g>
</g>
<!-- Node2&#45;&gt;Node16 -->
<g id="edge16" class="edge"><title>Node2&#45;&gt;Node16</title>
<path fill="none" stroke="midnightblue" d="M1338.04,-403.135C1520.36,-380.743 2041.34,-316.759 2232.53,-293.278"/>
<polygon fill="midnightblue" stroke="midnightblue" points="2232.97,-296.75 2242.47,-292.057 2232.12,-289.802 2232.97,-296.75"/>
</g>
<!-- Node18 -->
<g id="node19" class="node"><title>Node18</title>
<g id="a_node19"><a xlink:href="Correspondence_8h.html" target="_top" xlink:title="../Elements/Correspondence.h">
<polygon fill="white" stroke="black" points="1130,-341 1130,-360 1276,-360 1276,-341 1130,-341"/>
<text text-anchor="middle" x="1203" y="-348" font-family="FreeSans" font-size="10.00">../Elements/Correspondence.h</text>
</a>
</g>
</g>
<!-- Node2&#45;&gt;Node18 -->
<g id="edge19" class="edge"><title>Node2&#45;&gt;Node18</title>
<path fill="none" stroke="midnightblue" d="M1263.83,-402.475C1252.65,-393.108 1234.48,-377.884 1220.91,-366.508"/>
<polygon fill="midnightblue" stroke="midnightblue" points="1223.07,-363.75 1213.15,-360.009 1218.57,-369.115 1223.07,-363.75"/>
</g>
<!-- Node17 -->
<g id="node18" class="node"><title>Node17</title>
<g id="a_node18"><a xlink:href="InvertibleBinarySimilarityConcept_8ipp.html" target="_top" xlink:title="InvertibleBinarySimilarity\lConcept.ipp">
<polygon fill="white" stroke="black" points="2307.5,-201.5 2307.5,-231.5 2430.5,-231.5 2430.5,-201.5 2307.5,-201.5"/>
<text text-anchor="start" x="2315.5" y="-219.5" font-family="FreeSans" font-size="10.00">InvertibleBinarySimilarity</text>
<text text-anchor="middle" x="2369" y="-208.5" font-family="FreeSans" font-size="10.00">Concept.ipp</text>
</a>
</g>
</g>
<!-- Node16&#45;&gt;Node17 -->
<g id="edge17" class="edge"><title>Node16&#45;&gt;Node17</title>
<path fill="none" stroke="midnightblue" d="M2318.1,-268.396C2326.79,-259.708 2338.1,-248.405 2347.84,-238.658"/>
<polygon fill="midnightblue" stroke="midnightblue" points="2350.33,-241.122 2354.92,-231.577 2345.38,-236.173 2350.33,-241.122"/>
</g>
<!-- Node17&#45;&gt;Node3 -->
<g id="edge18" class="edge"><title>Node17&#45;&gt;Node3</title>
<path fill="none" stroke="midnightblue" d="M2430.73,-209.128C2464.64,-202.795 2505.47,-190.17 2534,-165 2569.8,-133.414 2538.76,-94.2004 2578,-67 2629.79,-31.0991 3081.51,-39.1564 3144,-31 3152.11,-29.9418 3160.67,-28.5209 3168.96,-26.9812"/>
<polygon fill="midnightblue" stroke="midnightblue" points="3169.74,-30.3952 3178.89,-25.0607 3168.41,-23.5225 3169.74,-30.3952"/>
</g>
<!-- Node19 -->
<g id="node20" class="node"><title>Node19</title>
<g id="a_node20"><a xlink:href="Correspondence_8ipp.html" target="_top" xlink:title="Correspondence.ipp">
<polygon fill="white" stroke="black" points="734,-207 734,-226 836,-226 836,-207 734,-207"/>
<text text-anchor="middle" x="785" y="-214" font-family="FreeSans" font-size="10.00">Correspondence.ipp</text>
</a>
</g>
</g>
<!-- Node18&#45;&gt;Node19 -->
<g id="edge20" class="edge"><title>Node18&#45;&gt;Node19</title>
<path fill="none" stroke="midnightblue" d="M1175.9,-340.941C1103.3,-318.017 904.401,-255.206 821.759,-229.108"/>
<polygon fill="midnightblue" stroke="midnightblue" points="822.632,-225.714 812.043,-226.04 820.524,-232.389 822.632,-225.714"/>
</g>
<!-- Node33 -->
<g id="node34" class="node"><title>Node33</title>
<polygon fill="white" stroke="#bfbfbf" points="1152.5,-268.5 1152.5,-298.5 1253.5,-298.5 1253.5,-268.5 1152.5,-268.5"/>
<text text-anchor="start" x="1160.5" y="-286.5" font-family="FreeSans" font-size="10.00">boost/range/iterator</text>
<text text-anchor="middle" x="1203" y="-275.5" font-family="FreeSans" font-size="10.00">_range.hpp</text>
</g>
<!-- Node18&#45;&gt;Node33 -->
<g id="edge43" class="edge"><title>Node18&#45;&gt;Node33</title>
<path fill="none" stroke="midnightblue" d="M1203,-340.734C1203,-332.541 1203,-319.923 1203,-308.714"/>
<polygon fill="midnightblue" stroke="midnightblue" points="1206.5,-308.589 1203,-298.589 1199.5,-308.589 1206.5,-308.589"/>
</g>
<!-- Node34 -->
<g id="node35" class="node"><title>Node34</title>
<g id="a_node35"><a xlink:href="Coordinate_8h.html" target="_top" xlink:title="Coordinate.h">
<polygon fill="white" stroke="black" points="1452.5,-140 1452.5,-159 1523.5,-159 1523.5,-140 1452.5,-140"/>
<text text-anchor="middle" x="1488" y="-147" font-family="FreeSans" font-size="10.00">Coordinate.h</text>
</a>
</g>
</g>
<!-- Node18&#45;&gt;Node34 -->
<g id="edge44" class="edge"><title>Node18&#45;&gt;Node34</title>
<path fill="none" stroke="midnightblue" d="M1215.25,-340.949C1259.55,-310.012 1411.82,-203.694 1467.44,-164.854"/>
<polygon fill="midnightblue" stroke="midnightblue" points="1469.6,-167.614 1475.8,-159.019 1465.6,-161.874 1469.6,-167.614"/>
</g>
<!-- Node38 -->
<g id="node39" class="node"><title>Node38</title>
<g id="a_node39"><a xlink:href="Feature_8h.html" target="_top" xlink:title="Feature.h">
<polygon fill="white" stroke="black" points="2636.5,-274 2636.5,-293 2693.5,-293 2693.5,-274 2636.5,-274"/>
<text text-anchor="middle" x="2665" y="-281" font-family="FreeSans" font-size="10.00">Feature.h</text>
</a>
</g>
</g>
<!-- Node18&#45;&gt;Node38 -->
<g id="edge59" class="edge"><title>Node18&#45;&gt;Node38</title>
<path fill="none" stroke="midnightblue" d="M1244.55,-340.973C1257.46,-338.642 1271.77,-336.381 1285,-335 1766.65,-284.711 1890.15,-319.051 2374,-299 2464.21,-295.262 2570.1,-289.687 2625.94,-286.654"/>
<polygon fill="midnightblue" stroke="midnightblue" points="2626.3,-290.14 2636.1,-286.101 2625.92,-283.15 2626.3,-290.14"/>
</g>
<!-- Node19&#45;&gt;Node3 -->
<g id="edge23" class="edge"><title>Node19&#45;&gt;Node3</title>
<path fill="none" stroke="midnightblue" d="M836.247,-213.662C1057.43,-205.681 1920.33,-174.028 1947,-165 1996.28,-148.318 2001.48,-129.356 2043,-98 2060.39,-84.8648 2060.59,-74.6592 2081,-67 2191.64,-25.4711 3026.6,-44.5566 3144,-31 3152.49,-30.0199 3161.46,-28.5787 3170.1,-26.9799"/>
<polygon fill="midnightblue" stroke="midnightblue" points="3170.9,-30.3912 3180.05,-25.049 3169.56,-23.5195 3170.9,-30.3912"/>
</g>
<!-- Node19&#45;&gt;Node4 -->
<g id="edge26" class="edge"><title>Node19&#45;&gt;Node4</title>
<path fill="none" stroke="midnightblue" d="M733.574,-211.305C613.241,-201.327 322.107,-176.18 304,-165 254.399,-134.375 226.018,-67.1168 214.738,-34.69"/>
<polygon fill="midnightblue" stroke="midnightblue" points="218.036,-33.518 211.562,-25.1316 211.393,-35.7251 218.036,-33.518"/>
</g>
<!-- Node19&#45;&gt;Node7 -->
<g id="edge27" class="edge"><title>Node19&#45;&gt;Node7</title>
<path fill="none" stroke="midnightblue" d="M796.01,-206.762C818.415,-189.51 871.559,-151.254 923,-134 989.798,-111.595 1191.09,-150.572 1238,-98 1247.17,-87.7194 1245.91,-78.2838 1238,-67 1234.88,-62.5415 1174.87,-41.8201 1134.73,-28.3447"/>
<polygon fill="midnightblue" stroke="midnightblue" points="1135.59,-24.9431 1125,-25.0892 1133.37,-31.5814 1135.59,-24.9431"/>
</g>
<!-- Node19&#45;&gt;Node9 -->
<g id="edge28" class="edge"><title>Node19&#45;&gt;Node9</title>
<path fill="none" stroke="midnightblue" d="M733.685,-211.615C616.681,-202.523 339.12,-179.531 325,-165 291.127,-130.14 300.518,-66.4389 307.908,-35.024"/>
<polygon fill="midnightblue" stroke="midnightblue" points="311.379,-35.5788 310.456,-25.0241 304.595,-33.8501 311.379,-35.5788"/>
</g>
<!-- Node19&#45;&gt;Node12 -->
<g id="edge29" class="edge"><title>Node19&#45;&gt;Node12</title>
<path fill="none" stroke="midnightblue" d="M733.852,-212.123C638.059,-205.274 439.387,-188.393 419,-165 386.12,-127.272 419.997,-64.0333 439.818,-33.7215"/>
<polygon fill="midnightblue" stroke="midnightblue" points="442.941,-35.3519 445.657,-25.1111 437.148,-31.423 442.941,-35.3519"/>
</g>
<!-- Node19&#45;&gt;Node13 -->
<g id="edge30" class="edge"><title>Node19&#45;&gt;Node13</title>
<path fill="none" stroke="midnightblue" d="M808.014,-206.984C832.512,-197.65 872.19,-181.76 905,-165 928.622,-152.934 930.93,-142.666 956,-134 1019.46,-112.065 1211.44,-148.228 1256,-98 1265.14,-87.6936 1262.69,-79.0469 1256,-67 1249.94,-56.082 1222.95,-40.5183 1201.76,-29.562"/>
<polygon fill="midnightblue" stroke="midnightblue" points="1203.33,-26.4321 1192.83,-25.0306 1200.16,-32.6752 1203.33,-26.4321"/>
</g>
<!-- Node19&#45;&gt;Node15 -->
<g id="edge35" class="edge"><title>Node19&#45;&gt;Node15</title>
<path fill="none" stroke="midnightblue" d="M733.761,-212.093C619.116,-204.233 344.861,-184.042 254,-165 250.126,-164.188 246.114,-163.152 242.162,-162.009"/>
<polygon fill="midnightblue" stroke="midnightblue" points="243.161,-158.654 232.572,-159.011 241.072,-165.335 243.161,-158.654"/>
</g>
<!-- Node20 -->
<g id="node21" class="node"><title>Node20</title>
<polygon fill="white" stroke="#bfbfbf" points="428.5,-140 428.5,-159 545.5,-159 545.5,-140 428.5,-140"/>
<text text-anchor="middle" x="487" y="-147" font-family="FreeSans" font-size="10.00">boost/bimap/bimap.hpp</text>
</g>
<!-- Node19&#45;&gt;Node20 -->
<g id="edge21" class="edge"><title>Node19&#45;&gt;Node20</title>
<path fill="none" stroke="midnightblue" d="M745.735,-206.936C691.801,-195.171 594.82,-174.018 536.136,-161.218"/>
<polygon fill="midnightblue" stroke="midnightblue" points="536.868,-157.795 526.352,-159.083 535.376,-164.634 536.868,-157.795"/>
</g>
<!-- Node21 -->
<g id="node22" class="node"><title>Node21</title>
<polygon fill="white" stroke="#bfbfbf" points="563.5,-140 563.5,-159 680.5,-159 680.5,-140 563.5,-140"/>
<text text-anchor="middle" x="622" y="-147" font-family="FreeSans" font-size="10.00">boost/bimap/list_of.hpp</text>
</g>
<!-- Node19&#45;&gt;Node21 -->
<g id="edge22" class="edge"><title>Node19&#45;&gt;Node21</title>
<path fill="none" stroke="midnightblue" d="M763.355,-206.869C735.023,-195.571 685.184,-175.696 652.891,-162.818"/>
<polygon fill="midnightblue" stroke="midnightblue" points="654.06,-159.517 643.475,-159.064 651.467,-166.019 654.06,-159.517"/>
</g>
<!-- Node22 -->
<g id="node23" class="node"><title>Node22</title>
<polygon fill="white" stroke="#bfbfbf" points="917,-6 917,-25 1045,-25 1045,-6 917,-6"/>
<text text-anchor="middle" x="981" y="-13" font-family="FreeSans" font-size="10.00">boost/range/concepts.hpp</text>
</g>
<!-- Node19&#45;&gt;Node22 -->
<g id="edge24" class="edge"><title>Node19&#45;&gt;Node22</title>
<path fill="none" stroke="midnightblue" d="M788.605,-206.963C796.388,-189.724 816.561,-150.96 847,-134 919.744,-93.4683 1164.02,-159.647 1220,-98 1229.26,-87.8004 1228.68,-77.7021 1220,-67 1218.51,-65.1627 1102.94,-41.3427 1033.07,-27.0838"/>
<polygon fill="midnightblue" stroke="midnightblue" points="1033.61,-23.622 1023.11,-25.0531 1032.21,-30.4809 1033.61,-23.622"/>
</g>
<!-- Node23 -->
<g id="node24" class="node"><title>Node23</title>
<polygon fill="white" stroke="#bfbfbf" points="693,-6 693,-25 843,-25 843,-6 693,-6"/>
<text text-anchor="middle" x="768" y="-13" font-family="FreeSans" font-size="10.00">boost/range/metafunctions.hpp</text>
</g>
<!-- Node19&#45;&gt;Node23 -->
<g id="edge25" class="edge"><title>Node19&#45;&gt;Node23</title>
<path fill="none" stroke="midnightblue" d="M784.977,-206.768C785.422,-190.2 788.81,-154.069 809,-134 850.002,-93.2418 899.234,-144.192 934,-98 942.285,-86.9918 942.203,-78.0697 934,-67 921.091,-49.5791 870.207,-35.7817 828.14,-27.0415"/>
<polygon fill="midnightblue" stroke="midnightblue" points="828.711,-23.5864 818.216,-25.0377 827.326,-30.4479 828.711,-23.5864"/>
</g>
<!-- Node24 -->
<g id="node25" class="node"><title>Node24</title>
<polygon fill="white" stroke="#bfbfbf" points="965.5,-140 965.5,-159 1000.5,-159 1000.5,-140 965.5,-140"/>
<text text-anchor="middle" x="983" y="-147" font-family="FreeSans" font-size="10.00">map</text>
</g>
<!-- Node19&#45;&gt;Node24 -->
<g id="edge31" class="edge"><title>Node19&#45;&gt;Node24</title>
<path fill="none" stroke="midnightblue" d="M817.55,-206.949C851.325,-197.764 905.476,-182.156 951,-165 952.609,-164.394 954.251,-163.745 955.9,-163.071"/>
<polygon fill="midnightblue" stroke="midnightblue" points="957.437,-166.22 965.233,-159.046 954.664,-159.793 957.437,-166.22"/>
</g>
<!-- Node25 -->
<g id="node26" class="node"><title>Node25</title>
<polygon fill="white" stroke="#bfbfbf" points="626.5,-6 626.5,-25 675.5,-25 675.5,-6 626.5,-6"/>
<text text-anchor="middle" x="651" y="-13" font-family="FreeSans" font-size="10.00">cstddef</text>
</g>
<!-- Node19&#45;&gt;Node25 -->
<g id="edge32" class="edge"><title>Node19&#45;&gt;Node25</title>
<path fill="none" stroke="midnightblue" d="M783.198,-206.923C777.761,-182.685 759.594,-112.501 723,-67 710.638,-51.6296 692.418,-38.9118 677.399,-30.0837"/>
<polygon fill="midnightblue" stroke="midnightblue" points="678.974,-26.9541 668.543,-25.1007 675.542,-33.0547 678.974,-26.9541"/>
</g>
<!-- Node26 -->
<g id="node27" class="node"><title>Node26</title>
<polygon fill="white" stroke="#bfbfbf" points="334,-140 334,-159 372,-159 372,-140 334,-140"/>
<text text-anchor="middle" x="353" y="-147" font-family="FreeSans" font-size="10.00">tuple</text>
</g>
<!-- Node19&#45;&gt;Node26 -->
<g id="edge33" class="edge"><title>Node19&#45;&gt;Node26</title>
<path fill="none" stroke="midnightblue" d="M733.69,-213.715C656.827,-209.993 507.804,-198.703 386,-165 383.844,-164.403 381.646,-163.691 379.461,-162.906"/>
<polygon fill="midnightblue" stroke="midnightblue" points="380.709,-159.635 370.125,-159.14 378.09,-166.127 380.709,-159.635"/>
</g>
<!-- Node27 -->
<g id="node28" class="node"><title>Node27</title>
<polygon fill="white" stroke="#bfbfbf" points="1231.5,-140 1231.5,-159 1270.5,-159 1270.5,-140 1231.5,-140"/>
<text text-anchor="middle" x="1251" y="-147" font-family="FreeSans" font-size="10.00">utility</text>
</g>
<!-- Node19&#45;&gt;Node27 -->
<g id="edge34" class="edge"><title>Node19&#45;&gt;Node27</title>
<path fill="none" stroke="midnightblue" d="M836.229,-210.462C912.37,-202.647 1059.78,-186.262 1184,-165 1196.3,-162.894 1209.77,-160.08 1221.39,-157.491"/>
<polygon fill="midnightblue" stroke="midnightblue" points="1222.47,-160.834 1231.45,-155.204 1220.92,-154.008 1222.47,-160.834"/>
</g>
<!-- Node28 -->
<g id="node29" class="node"><title>Node28</title>
<polygon fill="white" stroke="#bfbfbf" points="546,-6 546,-25 608,-25 608,-6 546,-6"/>
<text text-anchor="middle" x="577" y="-13" font-family="FreeSans" font-size="10.00">type_traits</text>
</g>
<!-- Node19&#45;&gt;Node28 -->
<g id="edge36" class="edge"><title>Node19&#45;&gt;Node28</title>
<path fill="none" stroke="midnightblue" d="M776.062,-206.949C744.133,-176.401 635.38,-72.354 593.566,-32.3493"/>
<polygon fill="midnightblue" stroke="midnightblue" points="595.784,-29.6271 586.138,-25.243 590.945,-34.6851 595.784,-29.6271"/>
</g>
<!-- Node29 -->
<g id="node30" class="node"><title>Node29</title>
<g id="a_node30"><a xlink:href="FeatureConcept_8h.html" target="_top" xlink:title="FeatureConcept.h">
<polygon fill="white" stroke="black" points="2044.5,-140 2044.5,-159 2137.5,-159 2137.5,-140 2044.5,-140"/>
<text text-anchor="middle" x="2091" y="-147" font-family="FreeSans" font-size="10.00">FeatureConcept.h</text>
</a>
</g>
</g>
<!-- Node19&#45;&gt;Node29 -->
<g id="edge37" class="edge"><title>Node19&#45;&gt;Node29</title>
<path fill="none" stroke="midnightblue" d="M836.063,-213.704C1062.81,-205.695 1970.03,-173.265 2030,-165 2036.51,-164.103 2043.34,-162.822 2049.98,-161.389"/>
<polygon fill="midnightblue" stroke="midnightblue" points="2051.22,-164.695 2060.19,-159.045 2049.66,-157.873 2051.22,-164.695"/>
</g>
<!-- Node31 -->
<g id="node32" class="node"><title>Node31</title>
<g id="a_node32"><a xlink:href="EigenMetafunction_8h.html" target="_top" xlink:title="../Wrappers/EigenMetafunction.h">
<polygon fill="white" stroke="black" points="1019,-140 1019,-159 1175,-159 1175,-140 1019,-140"/>
<text text-anchor="middle" x="1097" y="-147" font-family="FreeSans" font-size="10.00">../Wrappers/EigenMetafunction.h</text>
</a>
</g>
</g>
<!-- Node19&#45;&gt;Node31 -->
<g id="edge40" class="edge"><title>Node19&#45;&gt;Node31</title>
<path fill="none" stroke="midnightblue" d="M826.109,-206.936C882.695,-195.147 984.534,-173.93 1045.94,-161.138"/>
<polygon fill="midnightblue" stroke="midnightblue" points="1046.72,-164.549 1055.8,-159.083 1045.3,-157.697 1046.72,-164.549"/>
</g>
<!-- Node30 -->
<g id="node31" class="node"><title>Node30</title>
<g id="a_node31"><a xlink:href="FeatureConcept_8ipp.html" target="_top" xlink:title="FeatureConcept.ipp">
<polygon fill="white" stroke="black" points="2090.5,-73 2090.5,-92 2191.5,-92 2191.5,-73 2090.5,-73"/>
<text text-anchor="middle" x="2141" y="-80" font-family="FreeSans" font-size="10.00">FeatureConcept.ipp</text>
</a>
</g>
</g>
<!-- Node29&#45;&gt;Node30 -->
<g id="edge38" class="edge"><title>Node29&#45;&gt;Node30</title>
<path fill="none" stroke="midnightblue" d="M2097.74,-139.734C2105.54,-129.598 2118.55,-112.69 2128.26,-100.056"/>
<polygon fill="midnightblue" stroke="midnightblue" points="2131.04,-102.188 2134.36,-92.1273 2125.49,-97.9196 2131.04,-102.188"/>
</g>
<!-- Node30&#45;&gt;Node3 -->
<g id="edge39" class="edge"><title>Node30&#45;&gt;Node3</title>
<path fill="none" stroke="midnightblue" d="M2191.84,-77.8006C2235.81,-74.6739 2301.08,-70.2051 2358,-67 2707.15,-47.3414 2796.85,-73.184 3144,-31 3152.39,-29.9805 3161.26,-28.5355 3169.81,-26.9489"/>
<polygon fill="midnightblue" stroke="midnightblue" points="3170.51,-30.3785 3179.66,-25.0383 3169.18,-23.5066 3170.51,-30.3785"/>
</g>
<!-- Node32 -->
<g id="node33" class="node"><title>Node32</title>
<g id="a_node33"><a xlink:href="EigenMetafunction_8ipp.html" target="_top" xlink:title="EigenMetafunction.ipp">
<polygon fill="white" stroke="black" points="813,-73 813,-92 925,-92 925,-73 813,-73"/>
<text text-anchor="middle" x="869" y="-80" font-family="FreeSans" font-size="10.00">EigenMetafunction.ipp</text>
</a>
</g>
</g>
<!-- Node31&#45;&gt;Node32 -->
<g id="edge41" class="edge"><title>Node31&#45;&gt;Node32</title>
<path fill="none" stroke="midnightblue" d="M1066.72,-139.869C1026.07,-128.278 953.754,-107.662 908.754,-94.8335"/>
<polygon fill="midnightblue" stroke="midnightblue" points="909.615,-91.4395 899.039,-92.0637 907.696,-98.1713 909.615,-91.4395"/>
</g>
<!-- Node32&#45;&gt;Node28 -->
<g id="edge42" class="edge"><title>Node32&#45;&gt;Node28</title>
<path fill="none" stroke="midnightblue" d="M827.927,-72.9277C818.431,-70.9638 808.366,-68.8964 799,-67 718.184,-50.6373 696.435,-53.1147 617,-31 614.198,-30.2199 611.312,-29.3368 608.433,-28.4008"/>
<polygon fill="midnightblue" stroke="midnightblue" points="609.406,-25.0341 598.811,-25.0874 607.127,-31.6527 609.406,-25.0341"/>
</g>
<!-- Node35 -->
<g id="node36" class="node"><title>Node35</title>
<g id="a_node36"><a xlink:href="Coordinate_8ipp.html" target="_top" xlink:title="Coordinate.ipp">
<polygon fill="white" stroke="black" points="1133,-73 1133,-92 1211,-92 1211,-73 1133,-73"/>
<text text-anchor="middle" x="1172" y="-80" font-family="FreeSans" font-size="10.00">Coordinate.ipp</text>
</a>
</g>
</g>
<!-- Node34&#45;&gt;Node35 -->
<g id="edge45" class="edge"><title>Node34&#45;&gt;Node35</title>
<path fill="none" stroke="midnightblue" d="M1452.37,-141.17C1395.75,-129.525 1285.14,-106.772 1221.07,-93.5938"/>
<polygon fill="midnightblue" stroke="midnightblue" points="1221.7,-90.1508 1211.2,-91.5642 1220.29,-97.0073 1221.7,-90.1508"/>
</g>
<!-- Node35&#45;&gt;Node3 -->
<g id="edge46" class="edge"><title>Node35&#45;&gt;Node3</title>
<path fill="none" stroke="midnightblue" d="M1211.07,-79.9057C1282.51,-77.0294 1439.01,-70.9085 1571,-67 1920.49,-56.6507 2796.45,-69.203 3144,-31 3152.59,-30.0563 3161.66,-28.6168 3170.39,-27.0049"/>
<polygon fill="midnightblue" stroke="midnightblue" points="3171.28,-30.3977 3180.43,-25.0527 3169.95,-23.5265 3171.28,-30.3977"/>
</g>
<!-- Node35&#45;&gt;Node4 -->
<g id="edge49" class="edge"><title>Node35&#45;&gt;Node4</title>
<path fill="none" stroke="midnightblue" d="M1132.84,-79.0455C1085.67,-76.1055 1004.05,-71.0676 934,-67 644.269,-50.1756 569.932,-67.3611 282,-31 273.798,-29.9642 265.135,-28.5403 256.755,-26.9871"/>
<polygon fill="midnightblue" stroke="midnightblue" points="257.206,-23.5095 246.723,-25.0458 255.876,-30.382 257.206,-23.5095"/>
</g>
<!-- Node35&#45;&gt;Node7 -->
<g id="edge50" class="edge"><title>Node35&#45;&gt;Node7</title>
<path fill="none" stroke="midnightblue" d="M1162.15,-72.7338C1150.44,-62.3055 1130.68,-44.7088 1116.38,-31.9732"/>
<polygon fill="midnightblue" stroke="midnightblue" points="1118.49,-29.1634 1108.69,-25.1273 1113.83,-34.3913 1118.49,-29.1634"/>
</g>
<!-- Node35&#45;&gt;Node9 -->
<g id="edge54" class="edge"><title>Node35&#45;&gt;Node9</title>
<path fill="none" stroke="midnightblue" d="M1132.84,-79.0333C988.412,-69.9124 490.203,-38.2489 419,-31 394.182,-28.4733 366.228,-24.6067 345.261,-21.5016"/>
<polygon fill="midnightblue" stroke="midnightblue" points="345.689,-18.0268 335.28,-20.0032 344.65,-24.9492 345.689,-18.0268"/>
</g>
<!-- Node35&#45;&gt;Node10 -->
<g id="edge57" class="edge"><title>Node35&#45;&gt;Node10</title>
<path fill="none" stroke="midnightblue" d="M1211.07,-79.8805C1282.51,-76.9638 1439.01,-70.7803 1571,-67 1761.96,-61.5308 3103.7,-73.2864 3290,-31 3292.36,-30.4646 3294.75,-29.7472 3297.12,-28.9169"/>
<polygon fill="midnightblue" stroke="midnightblue" points="3298.59,-32.0984 3306.49,-25.0462 3295.91,-25.6284 3298.59,-32.0984"/>
</g>
<!-- Node35&#45;&gt;Node12 -->
<g id="edge58" class="edge"><title>Node35&#45;&gt;Node12</title>
<path fill="none" stroke="midnightblue" d="M1132.89,-78.5954C1003.78,-68.9775 595.985,-38.3615 537,-31 520.103,-28.8911 501.439,-25.7936 485.916,-23.0023"/>
<polygon fill="midnightblue" stroke="midnightblue" points="486.198,-19.4957 475.731,-21.1347 484.936,-26.3809 486.198,-19.4957"/>
</g>
<!-- Node35&#45;&gt;Node13 -->
<g id="edge51" class="edge"><title>Node35&#45;&gt;Node13</title>
<path fill="none" stroke="midnightblue" d="M1172.4,-72.7338C1172.85,-63.1826 1173.56,-47.6183 1174.13,-35.2829"/>
<polygon fill="midnightblue" stroke="midnightblue" points="1177.64,-35.2781 1174.6,-25.1273 1170.64,-34.9553 1177.64,-35.2781"/>
</g>
<!-- Node35&#45;&gt;Node22 -->
<g id="edge47" class="edge"><title>Node35&#45;&gt;Node22</title>
<path fill="none" stroke="midnightblue" d="M1146.64,-72.8685C1113.01,-61.4245 1053.52,-41.1807 1015.74,-28.3223"/>
<polygon fill="midnightblue" stroke="midnightblue" points="1016.76,-24.972 1006.16,-25.0637 1014.5,-31.5988 1016.76,-24.972"/>
</g>
<!-- Node35&#45;&gt;Node23 -->
<g id="edge48" class="edge"><title>Node35&#45;&gt;Node23</title>
<path fill="none" stroke="midnightblue" d="M1143.56,-72.9716C1135.66,-70.8068 1127.04,-68.6342 1119,-67 1001.66,-43.1483 970.351,-49.1872 852,-31 843.392,-29.6771 834.302,-28.1962 825.407,-26.6997"/>
<polygon fill="midnightblue" stroke="midnightblue" points="825.929,-23.2383 815.483,-25.0112 824.754,-30.1391 825.929,-23.2383"/>
</g>
<!-- Node35&#45;&gt;Node25 -->
<g id="edge53" class="edge"><title>Node35&#45;&gt;Node25</title>
<path fill="none" stroke="midnightblue" d="M1132.67,-74.6373C1116.67,-72.002 1097.99,-69.1209 1081,-67 905.197,-45.0483 855.563,-75.2124 684,-31 681.699,-30.4071 679.355,-29.671 677.031,-28.8474"/>
<polygon fill="midnightblue" stroke="midnightblue" points="678.336,-25.5999 667.752,-25.1108 675.721,-32.0931 678.336,-25.5999"/>
</g>
<!-- Node35&#45;&gt;Node28 -->
<g id="edge52" class="edge"><title>Node35&#45;&gt;Node28</title>
<path fill="none" stroke="midnightblue" d="M1132.89,-78.5258C1014.82,-69.4664 667.051,-42.1532 617,-31 613.756,-30.277 610.416,-29.3602 607.114,-28.34"/>
<polygon fill="midnightblue" stroke="midnightblue" points="608.054,-24.9627 597.46,-25.0597 605.802,-31.5906 608.054,-24.9627"/>
</g>
<!-- Node36 -->
<g id="node37" class="node"><title>Node36</title>
<polygon fill="white" stroke="#bfbfbf" points="861,-6 861,-25 899,-25 899,-6 861,-6"/>
<text text-anchor="middle" x="880" y="-13" font-family="FreeSans" font-size="10.00">array</text>
</g>
<!-- Node35&#45;&gt;Node36 -->
<g id="edge55" class="edge"><title>Node35&#45;&gt;Node36</title>
<path fill="none" stroke="midnightblue" d="M1142.69,-72.9306C1135.02,-70.8389 1126.73,-68.7126 1119,-67 1026.12,-46.4231 998.201,-61.2334 908,-31 906.573,-30.5216 905.129,-29.9786 903.689,-29.3905"/>
<polygon fill="midnightblue" stroke="midnightblue" points="904.988,-26.1341 894.448,-25.0598 902.017,-32.4726 904.988,-26.1341"/>
</g>
<!-- Node37 -->
<g id="node38" class="node"><title>Node37</title>
<polygon fill="white" stroke="#bfbfbf" points="1215,-6 1215,-25 1271,-25 1271,-6 1215,-6"/>
<text text-anchor="middle" x="1243" y="-13" font-family="FreeSans" font-size="10.00">algorithm</text>
</g>
<!-- Node35&#45;&gt;Node37 -->
<g id="edge56" class="edge"><title>Node35&#45;&gt;Node37</title>
<path fill="none" stroke="midnightblue" d="M1181.58,-72.7338C1192.97,-62.3055 1212.19,-44.7088 1226.1,-31.9732"/>
<polygon fill="midnightblue" stroke="midnightblue" points="1228.56,-34.4614 1233.58,-25.1273 1223.84,-29.2983 1228.56,-34.4614"/>
</g>
<!-- Node39 -->
<g id="node40" class="node"><title>Node39</title>
<g id="a_node40"><a xlink:href="Feature_8ipp.html" target="_top" xlink:title="Feature.ipp">
<polygon fill="white" stroke="black" points="1809.5,-207 1809.5,-226 1874.5,-226 1874.5,-207 1809.5,-207"/>
<text text-anchor="middle" x="1842" y="-214" font-family="FreeSans" font-size="10.00">Feature.ipp</text>
</a>
</g>
</g>
<!-- Node38&#45;&gt;Node39 -->
<g id="edge60" class="edge"><title>Node38&#45;&gt;Node39</title>
<path fill="none" stroke="midnightblue" d="M2636.19,-280.225C2513.23,-270.514 2031.98,-232.504 1884.92,-220.89"/>
<polygon fill="midnightblue" stroke="midnightblue" points="1884.76,-217.366 1874.52,-220.068 1884.21,-224.345 1884.76,-217.366"/>
</g>
<!-- Node39&#45;&gt;Node3 -->
<g id="edge61" class="edge"><title>Node39&#45;&gt;Node3</title>
<path fill="none" stroke="midnightblue" d="M1874.85,-215.731C1974.44,-215.9 2271.21,-212.324 2353,-165 2399.33,-138.194 2376.03,-92.6718 2423,-67 2493.38,-28.5295 3064.39,-40.8398 3144,-31 3152.39,-29.9632 3161.25,-28.5098 3169.81,-26.9201"/>
<polygon fill="midnightblue" stroke="midnightblue" points="3170.51,-30.3497 3179.66,-25.0083 3169.17,-23.4779 3170.51,-30.3497"/>
</g>
<!-- Node39&#45;&gt;Node10 -->
<g id="edge92" class="edge"><title>Node39&#45;&gt;Node10</title>
<path fill="none" stroke="midnightblue" d="M1874.59,-214.672C1973.96,-211.816 2281.72,-200.513 2534,-165 2744.01,-135.438 2791.82,-101.915 3001,-67 3128.67,-45.69 3165.42,-66.1096 3290,-31 3292.15,-30.3951 3294.33,-29.6672 3296.5,-28.8638"/>
<polygon fill="midnightblue" stroke="midnightblue" points="3297.87,-32.0867 3305.75,-25.0055 3295.17,-25.6266 3297.87,-32.0867"/>
</g>
<!-- Node39&#45;&gt;Node12 -->
<g id="edge91" class="edge"><title>Node39&#45;&gt;Node12</title>
<path fill="none" stroke="midnightblue" d="M1809.45,-210.762C1772.76,-204.407 1712.21,-190.808 1666,-165 1648.15,-155.029 1650.85,-141.929 1632,-134 1502.74,-79.6278 1138.13,-131.661 1002,-98 969.756,-90.0271 966.106,-75.5094 934,-67 762.745,-21.6103 712.68,-53.9139 537,-31 520.115,-28.7976 501.453,-25.6897 485.927,-22.9157"/>
<polygon fill="midnightblue" stroke="midnightblue" points="486.205,-19.4088 475.74,-21.0638 484.953,-26.296 486.205,-19.4088"/>
</g>
<!-- Node39&#45;&gt;Node13 -->
<g id="edge85" class="edge"><title>Node39&#45;&gt;Node13</title>
<path fill="none" stroke="midnightblue" d="M1840.79,-206.592C1838.08,-190.048 1830.04,-154.409 1809,-134 1747.44,-74.268 1711.71,-85.7039 1628,-67 1444.29,-25.9554 1387.85,-79.6295 1206,-31 1204.06,-30.482 1202.1,-29.8485 1200.15,-29.139"/>
<polygon fill="midnightblue" stroke="midnightblue" points="1201.26,-25.8091 1190.68,-25.1411 1198.53,-32.2572 1201.26,-25.8091"/>
</g>
<!-- Node39&#45;&gt;Node14 -->
<g id="edge93" class="edge"><title>Node39&#45;&gt;Node14</title>
<path fill="none" stroke="midnightblue" d="M1809.45,-208.919C1768.86,-200.375 1697.54,-184.254 1638,-165 1635.86,-164.309 1633.67,-163.553 1631.48,-162.759"/>
<polygon fill="midnightblue" stroke="midnightblue" points="1632.59,-159.436 1622,-159.134 1630.09,-165.974 1632.59,-159.436"/>
</g>
<!-- Node39&#45;&gt;Node22 -->
<g id="edge62" class="edge"><title>Node39&#45;&gt;Node22</title>
<path fill="none" stroke="midnightblue" d="M1831.47,-206.924C1819.13,-196.88 1798.08,-179.736 1780,-165 1763.11,-151.229 1761.93,-142.817 1742,-134 1671.31,-102.732 1130.15,-44.2556 1054,-31 1046.91,-29.766 1039.45,-28.3828 1032.12,-26.9736"/>
<polygon fill="midnightblue" stroke="midnightblue" points="1032.73,-23.5269 1022.24,-25.0475 1031.39,-30.3974 1032.73,-23.5269"/>
</g>
<!-- Node39&#45;&gt;Node23 -->
<g id="edge63" class="edge"><title>Node39&#45;&gt;Node23</title>
<path fill="none" stroke="midnightblue" d="M1821.76,-206.844C1801.04,-197.632 1768.26,-182.055 1742,-165 1723.72,-153.129 1724.3,-141.946 1704,-134 1463.5,-39.848 1367.2,-184.937 1124,-98 1101.82,-90.0696 1102.79,-75.9633 1081,-67 985.72,-27.8032 953.655,-47.7632 852,-31 843.814,-29.6501 835.185,-28.196 826.699,-26.7482"/>
<polygon fill="midnightblue" stroke="midnightblue" points="827.286,-23.2979 816.839,-25.058 826.104,-30.1972 827.286,-23.2979"/>
</g>
<!-- Node39&#45;&gt;Node24 -->
<g id="edge88" class="edge"><title>Node39&#45;&gt;Node24</title>
<path fill="none" stroke="midnightblue" d="M1809.14,-215.381C1674.41,-214.608 1164.17,-208.787 1010,-165 1008.53,-164.582 1007.05,-164.075 1005.58,-163.504"/>
<polygon fill="midnightblue" stroke="midnightblue" points="1006.78,-160.203 996.248,-159.081 1003.78,-166.528 1006.78,-160.203"/>
</g>
<!-- Node39&#45;&gt;Node25 -->
<g id="edge87" class="edge"><title>Node39&#45;&gt;Node25</title>
<path fill="none" stroke="midnightblue" d="M1809.43,-206.932C1780.59,-198.578 1737.92,-184.312 1704,-165 1685.06,-154.216 1686.3,-141.94 1666,-134 1544.7,-86.5518 1207.91,-127.275 1081,-98 1045.85,-89.893 1040.93,-75.9809 1006,-67 866.533,-31.1439 823.064,-68.3916 684,-31 681.705,-30.383 679.366,-29.6301 677.044,-28.7952"/>
<polygon fill="midnightblue" stroke="midnightblue" points="678.354,-25.5493 667.771,-25.039 675.726,-32.0373 678.354,-25.5493"/>
</g>
<!-- Node39&#45;&gt;Node27 -->
<g id="edge94" class="edge"><title>Node39&#45;&gt;Node27</title>
<path fill="none" stroke="midnightblue" d="M1809.28,-214.226C1704.74,-209.895 1379.69,-194.352 1279,-165 1277.52,-164.569 1276.03,-164.058 1274.55,-163.489"/>
<polygon fill="midnightblue" stroke="midnightblue" points="1275.63,-160.137 1265.08,-159.144 1272.71,-166.498 1275.63,-160.137"/>
</g>
<!-- Node39&#45;&gt;Node29 -->
<g id="edge103" class="edge"><title>Node39&#45;&gt;Node29</title>
<path fill="none" stroke="midnightblue" d="M1874.55,-207.002C1919.07,-195.38 1999.04,-174.506 2048.32,-161.642"/>
<polygon fill="midnightblue" stroke="midnightblue" points="2049.25,-165.016 2058.04,-159.103 2047.48,-158.243 2049.25,-165.016"/>
</g>
<!-- Node39&#45;&gt;Node31 -->
<g id="edge107" class="edge"><title>Node39&#45;&gt;Node31</title>
<path fill="none" stroke="midnightblue" d="M1809.36,-213.237C1717.07,-206.752 1446.35,-187.143 1222,-165 1207.43,-163.562 1191.91,-161.882 1176.96,-160.187"/>
<polygon fill="midnightblue" stroke="midnightblue" points="1177.04,-156.674 1166.71,-159.014 1176.24,-163.628 1177.04,-156.674"/>
</g>
<!-- Node39&#45;&gt;Node34 -->
<g id="edge95" class="edge"><title>Node39&#45;&gt;Node34</title>
<path fill="none" stroke="midnightblue" d="M1809.33,-209.501C1746.03,-197.879 1606.53,-172.265 1533.94,-158.935"/>
<polygon fill="midnightblue" stroke="midnightblue" points="1534.2,-155.424 1523.73,-157.06 1532.93,-162.309 1534.2,-155.424"/>
</g>
<!-- Node40 -->
<g id="node41" class="node"><title>Node40</title>
<g id="a_node41"><a xlink:href="boost__dynamic__bitset_8hpp.html" target="_top" xlink:title="../Modified/boost_dynamic\l_bitset.hpp">
<polygon fill="white" stroke="black" points="1906,-67.5 1906,-97.5 2034,-97.5 2034,-67.5 1906,-67.5"/>
<text text-anchor="start" x="1914" y="-85.5" font-family="FreeSans" font-size="10.00">../Modified/boost_dynamic</text>
<text text-anchor="middle" x="1970" y="-74.5" font-family="FreeSans" font-size="10.00">_bitset.hpp</text>
</a>
</g>
</g>
<!-- Node39&#45;&gt;Node40 -->
<g id="edge64" class="edge"><title>Node39&#45;&gt;Node40</title>
<path fill="none" stroke="midnightblue" d="M1874.93,-207.459C1898.24,-200.124 1928.52,-186.992 1947,-165 1960.55,-148.874 1966.14,-125.272 1968.43,-107.613"/>
<polygon fill="midnightblue" stroke="midnightblue" points="1971.93,-107.812 1969.47,-97.5051 1964.97,-107.093 1971.93,-107.812"/>
</g>
<!-- Node47 -->
<g id="node48" class="node"><title>Node47</title>
<polygon fill="white" stroke="#bfbfbf" points="3083,-6 3083,-25 3135,-25 3135,-6 3083,-6"/>
<text text-anchor="middle" x="3109" y="-13" font-family="FreeSans" font-size="10.00">ostream</text>
</g>
<!-- Node39&#45;&gt;Node47 -->
<g id="edge86" class="edge"><title>Node39&#45;&gt;Node47</title>
<path fill="none" stroke="midnightblue" d="M1874.58,-215.37C1931.93,-214.016 2053.59,-206.057 2146,-165 2166.23,-156.01 2165.79,-145.013 2185,-134 2256.53,-92.991 2277.36,-84.1775 2358,-67 2669.63,-0.621259 2763.16,-100.999 3074,-31 3076.67,-30.3976 3079.41,-29.6069 3082.11,-28.7052"/>
<polygon fill="midnightblue" stroke="midnightblue" points="3083.48,-31.9256 3091.58,-25.0912 3080.99,-25.3853 3083.48,-31.9256"/>
</g>
<!-- Node58 -->
<g id="node59" class="node"><title>Node58</title>
<polygon fill="white" stroke="#bfbfbf" points="2194,-140 2194,-159 2224,-159 2224,-140 2194,-140"/>
<text text-anchor="middle" x="2209" y="-147" font-family="FreeSans" font-size="10.00">set</text>
</g>
<!-- Node39&#45;&gt;Node58 -->
<g id="edge89" class="edge"><title>Node39&#45;&gt;Node58</title>
<path fill="none" stroke="midnightblue" d="M1874.92,-214.016C1936.27,-210.505 2071.66,-199.226 2180,-165 2181.62,-164.487 2183.27,-163.893 2184.91,-163.244"/>
<polygon fill="midnightblue" stroke="midnightblue" points="2186.36,-166.426 2194.03,-159.11 2183.47,-160.051 2186.36,-166.426"/>
</g>
<!-- Node59 -->
<g id="node60" class="node"><title>Node59</title>
<polygon fill="white" stroke="#bfbfbf" points="2242.5,-140 2242.5,-159 2271.5,-159 2271.5,-140 2242.5,-140"/>
<text text-anchor="middle" x="2257" y="-147" font-family="FreeSans" font-size="10.00">list</text>
</g>
<!-- Node39&#45;&gt;Node59 -->
<g id="edge90" class="edge"><title>Node39&#45;&gt;Node59</title>
<path fill="none" stroke="midnightblue" d="M1874.71,-215.771C1943.19,-215.38 2105.86,-209.397 2233,-165 2233.88,-164.691 2234.77,-164.347 2235.66,-163.974"/>
<polygon fill="midnightblue" stroke="midnightblue" points="2237.54,-166.941 2244.78,-159.213 2234.3,-160.735 2237.54,-166.941"/>
</g>
<!-- Node60 -->
<g id="node61" class="node"><title>Node60</title>
<g id="a_node61"><a xlink:href="Descriptor_8h.html" target="_top" xlink:title="Descriptor.h">
<polygon fill="white" stroke="black" points="1870,-140 1870,-159 1938,-159 1938,-140 1870,-140"/>
<text text-anchor="middle" x="1904" y="-147" font-family="FreeSans" font-size="10.00">Descriptor.h</text>
</a>
</g>
</g>
<!-- Node39&#45;&gt;Node60 -->
<g id="edge96" class="edge"><title>Node39&#45;&gt;Node60</title>
<path fill="none" stroke="midnightblue" d="M1850.36,-206.734C1860.12,-196.5 1876.47,-179.364 1888.55,-166.692"/>
<polygon fill="midnightblue" stroke="midnightblue" points="1891.4,-168.779 1895.77,-159.127 1886.34,-163.948 1891.4,-168.779"/>
</g>
<!-- Node61 -->
<g id="node62" class="node"><title>Node61</title>
<g id="a_node62"><a xlink:href="RoI_8h.html" target="_top" xlink:title="RoI.h">
<polygon fill="white" stroke="black" points="1580.5,-73 1580.5,-92 1619.5,-92 1619.5,-73 1580.5,-73"/>
<text text-anchor="middle" x="1600" y="-80" font-family="FreeSans" font-size="10.00">RoI.h</text>
</a>
</g>
</g>
<!-- Node39&#45;&gt;Node61 -->
<g id="edge100" class="edge"><title>Node39&#45;&gt;Node61</title>
<path fill="none" stroke="midnightblue" d="M1837.87,-206.886C1829.42,-190.195 1808.52,-153.389 1780,-134 1733.58,-102.448 1667.74,-90.4794 1629.9,-86.0344"/>
<polygon fill="midnightblue" stroke="midnightblue" points="1629.87,-82.5116 1619.55,-84.9264 1629.12,-89.4718 1629.87,-82.5116"/>
</g>
<!-- Node62 -->
<g id="node63" class="node"><title>Node62</title>
<g id="a_node63"><a xlink:href="TaggedData_8h.html" target="_top" xlink:title="../DataStructures/Tagged\lData.h">
<polygon fill="white" stroke="black" points="2400.5,-134.5 2400.5,-164.5 2525.5,-164.5 2525.5,-134.5 2400.5,-134.5"/>
<text text-anchor="start" x="2408.5" y="-152.5" font-family="FreeSans" font-size="10.00">../DataStructures/Tagged</text>
<text text-anchor="middle" x="2463" y="-141.5" font-family="FreeSans" font-size="10.00">Data.h</text>
</a>
</g>
</g>
<!-- Node39&#45;&gt;Node62 -->
<g id="edge104" class="edge"><title>Node39&#45;&gt;Node62</title>
<path fill="none" stroke="midnightblue" d="M1874.62,-213.541C1959.3,-208.223 2192.97,-192.074 2386,-165 2387.47,-164.793 2388.96,-164.578 2390.46,-164.355"/>
<polygon fill="midnightblue" stroke="midnightblue" points="2391.13,-167.792 2400.47,-162.782 2390.04,-160.877 2391.13,-167.792"/>
</g>
<!-- Node64 -->
<g id="node65" class="node"><title>Node64</title>
<polygon fill="white" stroke="#bfbfbf" points="2290,-140 2290,-159 2344,-159 2344,-140 2290,-140"/>
<text text-anchor="middle" x="2317" y="-147" font-family="FreeSans" font-size="10.00">iostream</text>
</g>
<!-- Node39&#45;&gt;Node64 -->
<g id="edge108" class="edge"><title>Node39&#45;&gt;Node64</title>
<path fill="none" stroke="midnightblue" d="M1874.66,-214.61C1948.13,-211.988 2131.63,-201.96 2280,-165 2282.67,-164.335 2285.41,-163.525 2288.12,-162.632"/>
<polygon fill="midnightblue" stroke="midnightblue" points="2289.52,-165.848 2297.72,-159.142 2287.13,-159.269 2289.52,-165.848"/>
</g>
<!-- Node40&#45;&gt;Node10 -->
<g id="edge70" class="edge"><title>Node40&#45;&gt;Node10</title>
<path fill="none" stroke="midnightblue" d="M2034.16,-72.0088C2049.47,-70.0505 2065.79,-68.2166 2081,-67 2348.93,-45.5652 3028.15,-91.6511 3290,-31 3292.36,-30.4542 3294.75,-29.7296 3297.11,-28.8946"/>
<polygon fill="midnightblue" stroke="midnightblue" points="3298.58,-32.0745 3306.49,-25.0165 3295.91,-25.6066 3298.58,-32.0745"/>
</g>
<!-- Node40&#45;&gt;Node13 -->
<g id="edge69" class="edge"><title>Node40&#45;&gt;Node13</title>
<path fill="none" stroke="midnightblue" d="M1905.83,-68.88C1901.16,-68.1741 1896.51,-67.5356 1892,-67 1588.82,-31.0224 1502.19,-105.046 1206,-31 1204.01,-30.5029 1202,-29.8764 1200,-29.1644"/>
<polygon fill="midnightblue" stroke="midnightblue" points="1200.91,-25.7523 1190.34,-25.0957 1198.19,-32.2033 1200.91,-25.7523"/>
</g>
<!-- Node40&#45;&gt;Node37 -->
<g id="edge68" class="edge"><title>Node40&#45;&gt;Node37</title>
<path fill="none" stroke="midnightblue" d="M1905.83,-68.9125C1901.16,-68.199 1896.51,-67.5499 1892,-67 1621.53,-34.0364 1546.13,-89.4306 1280,-31 1277,-30.3407 1273.92,-29.4715 1270.88,-28.4856"/>
<polygon fill="midnightblue" stroke="midnightblue" points="1272.06,-25.1899 1261.47,-25.0521 1269.66,-31.7663 1272.06,-25.1899"/>
</g>
<!-- Node41 -->
<g id="node42" class="node"><title>Node41</title>
<polygon fill="white" stroke="#bfbfbf" points="2495.5,-6 2495.5,-25 2546.5,-25 2546.5,-6 2495.5,-6"/>
<text text-anchor="middle" x="2521" y="-13" font-family="FreeSans" font-size="10.00">assert.h</text>
</g>
<!-- Node40&#45;&gt;Node41 -->
<g id="edge65" class="edge"><title>Node40&#45;&gt;Node41</title>
<path fill="none" stroke="midnightblue" d="M2034.19,-69.0318C2038.85,-68.2903 2043.49,-67.6023 2048,-67 2241.6,-41.1172 2296.15,-76.9323 2486,-31 2488.52,-30.391 2491.09,-29.6263 2493.64,-28.7682"/>
<polygon fill="midnightblue" stroke="midnightblue" points="2495.09,-31.9582 2503.19,-25.1277 2492.6,-25.4167 2495.09,-31.9582"/>
</g>
<!-- Node42 -->
<g id="node43" class="node"><title>Node42</title>
<polygon fill="white" stroke="#bfbfbf" points="2564.5,-6 2564.5,-25 2605.5,-25 2605.5,-6 2564.5,-6"/>
<text text-anchor="middle" x="2585" y="-13" font-family="FreeSans" font-size="10.00">string</text>
</g>
<!-- Node40&#45;&gt;Node42 -->
<g id="edge66" class="edge"><title>Node40&#45;&gt;Node42</title>
<path fill="none" stroke="midnightblue" d="M2034.18,-68.9748C2038.85,-68.2466 2043.49,-67.5773 2048,-67 2272.07,-38.3108 2336.72,-89.1961 2555,-31 2556.93,-30.4859 2558.88,-29.8469 2560.82,-29.1262"/>
<polygon fill="midnightblue" stroke="midnightblue" points="2562.41,-32.2513 2570.17,-25.0399 2559.61,-25.837 2562.41,-32.2513"/>
</g>
<!-- Node43 -->
<g id="node44" class="node"><title>Node43</title>
<polygon fill="white" stroke="#bfbfbf" points="2623.5,-6 2623.5,-25 2682.5,-25 2682.5,-6 2623.5,-6"/>
<text text-anchor="middle" x="2653" y="-13" font-family="FreeSans" font-size="10.00">stdexcept</text>
</g>
<!-- Node40&#45;&gt;Node43 -->
<g id="edge67" class="edge"><title>Node40&#45;&gt;Node43</title>
<path fill="none" stroke="midnightblue" d="M2034.18,-68.9364C2038.85,-68.2172 2043.49,-67.5604 2048,-67 2298.58,-35.8687 2368.25,-84.6168 2615,-31 2618.07,-30.3318 2621.23,-29.4569 2624.35,-28.4675"/>
<polygon fill="midnightblue" stroke="midnightblue" points="2625.76,-31.6785 2634.01,-25.0296 2623.42,-25.0833 2625.76,-31.6785"/>
</g>
<!-- Node44 -->
<g id="node45" class="node"><title>Node44</title>
<polygon fill="white" stroke="#bfbfbf" points="2700.5,-0.5 2700.5,-30.5 2809.5,-30.5 2809.5,-0.5 2700.5,-0.5"/>
<text text-anchor="start" x="2708.5" y="-18.5" font-family="FreeSans" font-size="10.00">boost/dynamic_bitset</text>
<text text-anchor="middle" x="2755" y="-7.5" font-family="FreeSans" font-size="10.00">/config.hpp</text>
</g>
<!-- Node40&#45;&gt;Node44 -->
<g id="edge71" class="edge"><title>Node40&#45;&gt;Node44</title>
<path fill="none" stroke="midnightblue" d="M2034.17,-68.8975C2038.84,-68.1875 2043.49,-67.5433 2048,-67 2329.28,-33.1347 2406.38,-70.4015 2690.28,-31.0801"/>
<polygon fill="midnightblue" stroke="midnightblue" points="2691.06,-34.5062 2700.47,-29.6488 2690.08,-27.5742 2691.06,-34.5062"/>
</g>
<!-- Node45 -->
<g id="node46" class="node"><title>Node45</title>
<polygon fill="white" stroke="#bfbfbf" points="2828,-6 2828,-25 2870,-25 2870,-6 2828,-6"/>
<text text-anchor="middle" x="2849" y="-13" font-family="FreeSans" font-size="10.00">locale</text>
</g>
<!-- Node40&#45;&gt;Node45 -->
<g id="edge72" class="edge"><title>Node40&#45;&gt;Node45</title>
<path fill="none" stroke="midnightblue" d="M2034.17,-68.8504C2038.84,-68.1514 2043.48,-67.5226 2048,-67 2218.38,-47.2796 2652.75,-73.1758 2819,-31 2820.93,-30.5093 2822.89,-29.8874 2824.83,-29.1788"/>
<polygon fill="midnightblue" stroke="midnightblue" points="2826.41,-32.3093 2834.19,-25.1167 2823.62,-25.8881 2826.41,-32.3093"/>
</g>
<!-- Node46 -->
<g id="node47" class="node"><title>Node46</title>
<polygon fill="white" stroke="#bfbfbf" points="2888.5,-6 2888.5,-25 2937.5,-25 2937.5,-6 2888.5,-6"/>
<text text-anchor="middle" x="2913" y="-13" font-family="FreeSans" font-size="10.00">istream</text>
</g>
<!-- Node40&#45;&gt;Node46 -->
<g id="edge73" class="edge"><title>Node40&#45;&gt;Node46</title>
<path fill="none" stroke="midnightblue" d="M2034.17,-68.8331C2038.84,-68.1382 2043.48,-67.515 2048,-67 2231.65,-46.0571 2698.75,-71.9154 2879,-31 2881.52,-30.4283 2884.09,-29.6779 2886.62,-28.8191"/>
<polygon fill="midnightblue" stroke="midnightblue" points="2888.06,-32.0151 2896.11,-25.119 2885.52,-25.494 2888.06,-32.0151"/>
</g>
<!-- Node40&#45;&gt;Node47 -->
<g id="edge74" class="edge"><title>Node40&#45;&gt;Node47</title>
<path fill="none" stroke="midnightblue" d="M2034.16,-68.7908C2038.83,-68.1058 2043.48,-67.4964 2048,-67 2274.78,-42.083 2851.06,-79.4317 3074,-31 3076.68,-30.4179 3079.41,-29.6409 3082.12,-28.7479"/>
<polygon fill="midnightblue" stroke="midnightblue" points="3083.49,-31.9707 3091.59,-25.1464 3081,-25.4273 3083.49,-31.9707"/>
</g>
<!-- Node48 -->
<g id="node49" class="node"><title>Node48</title>
<polygon fill="white" stroke="#bfbfbf" points="2955.5,-0.5 2955.5,-30.5 3064.5,-30.5 3064.5,-0.5 2955.5,-0.5"/>
<text text-anchor="start" x="2963.5" y="-18.5" font-family="FreeSans" font-size="10.00">boost/dynamic_bitset</text>
<text text-anchor="middle" x="3010" y="-7.5" font-family="FreeSans" font-size="10.00">_fwd.hpp</text>
</g>
<!-- Node40&#45;&gt;Node48 -->
<g id="edge75" class="edge"><title>Node40&#45;&gt;Node48</title>
<path fill="none" stroke="midnightblue" d="M2034.16,-68.8162C2038.83,-68.1253 2043.48,-67.5076 2048,-67 2442.08,-22.7134 2548.89,-83.0573 2945.46,-31.0326"/>
<polygon fill="midnightblue" stroke="midnightblue" points="2946.03,-34.4881 2955.48,-29.7025 2945.1,-27.549 2946.03,-34.4881"/>
</g>
<!-- Node49 -->
<g id="node50" class="node"><title>Node49</title>
<polygon fill="white" stroke="#bfbfbf" points="1289,-0.5 1289,-30.5 1395,-30.5 1395,-0.5 1289,-0.5"/>
<text text-anchor="start" x="1297" y="-18.5" font-family="FreeSans" font-size="10.00">boost/detail/dynamic</text>
<text text-anchor="middle" x="1342" y="-7.5" font-family="FreeSans" font-size="10.00">_bitset.hpp</text>
</g>
<!-- Node40&#45;&gt;Node49 -->
<g id="edge76" class="edge"><title>Node40&#45;&gt;Node49</title>
<path fill="none" stroke="midnightblue" d="M1905.82,-68.9889C1901.15,-68.2574 1896.51,-67.5834 1892,-67 1679.59,-39.5064 1620.75,-63.1247 1405.37,-31.0488"/>
<polygon fill="midnightblue" stroke="midnightblue" points="1405.74,-27.5648 1395.33,-29.53 1404.7,-34.4861 1405.74,-27.5648"/>
</g>
<!-- Node50 -->
<g id="node51" class="node"><title>Node50</title>
<polygon fill="white" stroke="#bfbfbf" points="1413,-6 1413,-25 1531,-25 1531,-6 1413,-6"/>
<text text-anchor="middle" x="1472" y="-13" font-family="FreeSans" font-size="10.00">boost/detail/iterator.hpp</text>
</g>
<!-- Node40&#45;&gt;Node50 -->
<g id="edge77" class="edge"><title>Node40&#45;&gt;Node50</title>
<path fill="none" stroke="midnightblue" d="M1905.8,-69.1339C1901.13,-68.3684 1896.5,-67.6471 1892,-67 1736.34,-44.6103 1695.35,-55.4338 1540,-31 1533.11,-29.9163 1525.87,-28.5831 1518.78,-27.1683"/>
<polygon fill="midnightblue" stroke="midnightblue" points="1519.07,-23.6543 1508.57,-25.0565 1517.65,-30.5092 1519.07,-23.6543"/>
</g>
<!-- Node51 -->
<g id="node52" class="node"><title>Node51</title>
<polygon fill="white" stroke="#bfbfbf" points="1549.5,-6 1549.5,-25 1662.5,-25 1662.5,-6 1549.5,-6"/>
<text text-anchor="middle" x="1606" y="-13" font-family="FreeSans" font-size="10.00">boost/move/move.hpp</text>
</g>
<!-- Node40&#45;&gt;Node51 -->
<g id="edge78" class="edge"><title>Node40&#45;&gt;Node51</title>
<path fill="none" stroke="midnightblue" d="M1905.75,-69.4381C1901.1,-68.6012 1896.48,-67.7808 1892,-67 1793.96,-49.9048 1768.72,-49.8416 1671,-31 1664.89,-29.822 1658.48,-28.4986 1652.16,-27.1429"/>
<polygon fill="midnightblue" stroke="midnightblue" points="1652.88,-23.7179 1642.36,-25.0022 1651.39,-30.5565 1652.88,-23.7179"/>
</g>
<!-- Node52 -->
<g id="node53" class="node"><title>Node52</title>
<polygon fill="white" stroke="#bfbfbf" points="1680.5,-6 1680.5,-25 1765.5,-25 1765.5,-6 1680.5,-6"/>
<text text-anchor="middle" x="1723" y="-13" font-family="FreeSans" font-size="10.00">boost/limits.hpp</text>
</g>
<!-- Node40&#45;&gt;Node52 -->
<g id="edge79" class="edge"><title>Node40&#45;&gt;Node52</title>
<path fill="none" stroke="midnightblue" d="M1913.72,-67.3935C1874.49,-57.4643 1820.97,-43.7271 1774,-31 1770.21,-29.9732 1766.27,-28.886 1762.33,-27.787"/>
<polygon fill="midnightblue" stroke="midnightblue" points="1763.2,-24.3979 1752.63,-25.0587 1761.31,-31.1362 1763.2,-24.3979"/>
</g>
<!-- Node53 -->
<g id="node54" class="node"><title>Node53</title>
<polygon fill="white" stroke="#bfbfbf" points="1783.5,-0.5 1783.5,-30.5 1892.5,-30.5 1892.5,-0.5 1783.5,-0.5"/>
<text text-anchor="start" x="1791.5" y="-18.5" font-family="FreeSans" font-size="10.00">boost/pending/lowest</text>
<text text-anchor="middle" x="1838" y="-7.5" font-family="FreeSans" font-size="10.00">_bit.hpp</text>
</g>
<!-- Node40&#45;&gt;Node53 -->
<g id="edge80" class="edge"><title>Node40&#45;&gt;Node53</title>
<path fill="none" stroke="midnightblue" d="M1941.36,-67.396C1922.16,-57.9413 1896.67,-45.3896 1875.81,-35.1168"/>
<polygon fill="midnightblue" stroke="midnightblue" points="1877.1,-31.8543 1866.59,-30.5765 1874.01,-38.1342 1877.1,-31.8543"/>
</g>
<!-- Node54 -->
<g id="node55" class="node"><title>Node54</title>
<polygon fill="white" stroke="#bfbfbf" points="1911,-6 1911,-25 2029,-25 2029,-6 1911,-6"/>
<text text-anchor="middle" x="1970" y="-13" font-family="FreeSans" font-size="10.00">boost/static_assert.hpp</text>
</g>
<!-- Node40&#45;&gt;Node54 -->
<g id="edge81" class="edge"><title>Node40&#45;&gt;Node54</title>
<path fill="none" stroke="midnightblue" d="M1970,-67.396C1970,-58.0638 1970,-45.7143 1970,-35.5173"/>
<polygon fill="midnightblue" stroke="midnightblue" points="1973.5,-35.1945 1970,-25.1945 1966.5,-35.1946 1973.5,-35.1945"/>
</g>
<!-- Node55 -->
<g id="node56" class="node"><title>Node55</title>
<polygon fill="white" stroke="#bfbfbf" points="2047,-6 2047,-25 2177,-25 2177,-6 2047,-6"/>
<text text-anchor="middle" x="2112" y="-13" font-family="FreeSans" font-size="10.00">boost/utility/addressof.hpp</text>
</g>
<!-- Node40&#45;&gt;Node55 -->
<g id="edge82" class="edge"><title>Node40&#45;&gt;Node55</title>
<path fill="none" stroke="midnightblue" d="M2000.81,-67.396C2025.62,-56.0414 2060.18,-40.2201 2084.16,-29.2437"/>
<polygon fill="midnightblue" stroke="midnightblue" points="2085.78,-32.3516 2093.42,-25.007 2082.87,-25.9868 2085.78,-32.3516"/>
</g>
<!-- Node56 -->
<g id="node57" class="node"><title>Node56</title>
<polygon fill="white" stroke="#bfbfbf" points="2195,-0.5 2195,-30.5 2327,-30.5 2327,-0.5 2195,-0.5"/>
<text text-anchor="start" x="2203" y="-18.5" font-family="FreeSans" font-size="10.00">boost/detail/no_exceptions</text>
<text text-anchor="middle" x="2261" y="-7.5" font-family="FreeSans" font-size="10.00">_support.hpp</text>
</g>
<!-- Node40&#45;&gt;Node56 -->
<g id="edge83" class="edge"><title>Node40&#45;&gt;Node56</title>
<path fill="none" stroke="midnightblue" d="M2032.78,-67.476C2078.41,-57.2846 2140.29,-43.4635 2188.1,-32.7837"/>
<polygon fill="midnightblue" stroke="midnightblue" points="2189.08,-36.1507 2198.08,-30.5549 2187.55,-29.3191 2189.08,-36.1507"/>
</g>
<!-- Node57 -->
<g id="node58" class="node"><title>Node57</title>
<polygon fill="white" stroke="#bfbfbf" points="2345,-6 2345,-25 2477,-25 2477,-6 2345,-6"/>
<text text-anchor="middle" x="2411" y="-13" font-family="FreeSans" font-size="10.00">boost/throw_exception.hpp</text>
</g>
<!-- Node40&#45;&gt;Node57 -->
<g id="edge84" class="edge"><title>Node40&#45;&gt;Node57</title>
<path fill="none" stroke="midnightblue" d="M2034.22,-69.2486C2038.88,-68.4562 2043.51,-67.6976 2048,-67 2175.47,-47.2032 2208.6,-51.2542 2336,-31 2343.64,-29.7848 2351.7,-28.3701 2359.58,-26.91"/>
<polygon fill="midnightblue" stroke="midnightblue" points="2360.26,-30.3447 2369.43,-25.0479 2358.96,-23.4665 2360.26,-30.3447"/>
</g>
<!-- Node60&#45;&gt;Node7 -->
<g id="edge98" class="edge"><title>Node60&#45;&gt;Node7</title>
<path fill="none" stroke="midnightblue" d="M1881.14,-139.937C1834.38,-122.827 1724.09,-84.5529 1628,-67 1415.81,-28.2366 1355.7,-72.369 1144,-31 1140.04,-30.2252 1135.93,-29.2124 1131.89,-28.0816"/>
<polygon fill="midnightblue" stroke="midnightblue" points="1132.67,-24.6596 1122.08,-25.0965 1130.63,-31.3564 1132.67,-24.6596"/>
</g>
<!-- Node60&#45;&gt;Node13 -->
<g id="edge99" class="edge"><title>Node60&#45;&gt;Node13</title>
<path fill="none" stroke="midnightblue" d="M1901.65,-139.915C1896.41,-122.589 1881.94,-83.6721 1854,-67 1730.15,6.90283 1345.86,-66.1924 1206,-31 1204.01,-30.4998 1202,-29.8711 1200,-29.1576"/>
<polygon fill="midnightblue" stroke="midnightblue" points="1200.91,-25.7455 1190.34,-25.0857 1198.19,-32.1957 1200.91,-25.7455"/>
</g>
<!-- Node60&#45;&gt;Node40 -->
<g id="edge97" class="edge"><title>Node60&#45;&gt;Node40</title>
<path fill="none" stroke="midnightblue" d="M1912.9,-139.734C1921.99,-130.78 1936.45,-116.543 1948.54,-104.635"/>
<polygon fill="midnightblue" stroke="midnightblue" points="1951.03,-107.1 1955.69,-97.589 1946.11,-102.112 1951.03,-107.1"/>
</g>
<!-- Node61&#45;&gt;Node7 -->
<g id="edge101" class="edge"><title>Node61&#45;&gt;Node7</title>
<path fill="none" stroke="midnightblue" d="M1580.29,-79.5542C1498.4,-71.4361 1187.23,-40.2587 1144,-31 1140.14,-30.1727 1136.14,-29.144 1132.19,-28.0188"/>
<polygon fill="midnightblue" stroke="midnightblue" points="1133.16,-24.658 1122.58,-25.0832 1131.12,-31.3525 1133.16,-24.658"/>
</g>
<!-- Node61&#45;&gt;Node13 -->
<g id="edge102" class="edge"><title>Node61&#45;&gt;Node13</title>
<path fill="none" stroke="midnightblue" d="M1582.71,-72.9285C1577.46,-70.6553 1571.59,-68.4367 1566,-67 1410.26,-27.0011 1361.03,-73.6712 1206,-31 1204.07,-30.4679 1202.1,-29.824 1200.15,-29.1071"/>
<polygon fill="midnightblue" stroke="midnightblue" points="1201.27,-25.7781 1190.7,-25.0937 1198.53,-32.222 1201.27,-25.7781"/>
</g>
<!-- Node63 -->
<g id="node64" class="node"><title>Node63</title>
<g id="a_node64"><a xlink:href="TaggedData_8ipp.html" target="_top" xlink:title="TaggedData.ipp">
<polygon fill="white" stroke="black" points="2432,-73 2432,-92 2516,-92 2516,-73 2432,-73"/>
<text text-anchor="middle" x="2474" y="-80" font-family="FreeSans" font-size="10.00">TaggedData.ipp</text>
</a>
</g>
</g>
<!-- Node62&#45;&gt;Node63 -->
<g id="edge105" class="edge"><title>Node62&#45;&gt;Node63</title>
<path fill="none" stroke="midnightblue" d="M2465.39,-134.396C2466.98,-124.963 2469.1,-112.448 2470.84,-102.189"/>
<polygon fill="midnightblue" stroke="midnightblue" points="2474.31,-102.638 2472.53,-92.1945 2467.41,-101.47 2474.31,-102.638"/>
</g>
<!-- Node63&#45;&gt;Node3 -->
<g id="edge106" class="edge"><title>Node63&#45;&gt;Node3</title>
<path fill="none" stroke="midnightblue" d="M2508.07,-72.9471C2518.28,-70.6744 2529.54,-68.4514 2540,-67 2806.37,-30.0341 2877.27,-65.276 3144,-31 3152.2,-29.9462 3160.86,-28.5134 3169.24,-26.9569"/>
<polygon fill="midnightblue" stroke="midnightblue" points="3170.12,-30.3516 3179.27,-25.014 3168.79,-23.4793 3170.12,-30.3516"/>
</g>
<!-- Node66 -->
<g id="node67" class="node"><title>Node66</title>
<g id="a_node67"><a xlink:href="Similarity_8ipp.html" target="_top" xlink:title="Similarity.ipp">
<polygon fill="white" stroke="black" points="3059.5,-207 3059.5,-226 3130.5,-226 3130.5,-207 3059.5,-207"/>
<text text-anchor="middle" x="3095" y="-214" font-family="FreeSans" font-size="10.00">Similarity.ipp</text>
</a>
</g>
</g>
<!-- Node65&#45;&gt;Node66 -->
<g id="edge110" class="edge"><title>Node65&#45;&gt;Node66</title>
<path fill="none" stroke="midnightblue" d="M1987.13,-466.544C2090.87,-464.754 2426.14,-456.499 2701,-422 2832.11,-405.543 2882.41,-438.33 2993,-366 3042.62,-333.546 3074.68,-267.726 3087.98,-235.753"/>
<polygon fill="midnightblue" stroke="midnightblue" points="3091.3,-236.888 3091.77,-226.304 3084.8,-234.283 3091.3,-236.888"/>
</g>
<!-- Node69 -->
<g id="node70" class="node"><title>Node69</title>
<g id="a_node70"><a xlink:href="Distance_8h.html" target="_top" xlink:title="Distance.h">
<polygon fill="white" stroke="black" points="1873,-274 1873,-293 1935,-293 1935,-274 1873,-274"/>
<text text-anchor="middle" x="1904" y="-281" font-family="FreeSans" font-size="10.00">Distance.h</text>
</a>
</g>
</g>
<!-- Node65&#45;&gt;Node69 -->
<g id="edge115" class="edge"><title>Node65&#45;&gt;Node69</title>
<path fill="none" stroke="midnightblue" d="M1946.98,-458.455C1939.47,-449.92 1928.59,-436.079 1923,-422 1907.06,-381.821 1904.13,-330.441 1903.8,-303.283"/>
<polygon fill="midnightblue" stroke="midnightblue" points="1907.3,-303.226 1903.79,-293.23 1900.3,-303.233 1907.3,-303.226"/>
</g>
<!-- Node73 -->
<g id="node74" class="node"><title>Node73</title>
<g id="a_node74"><a xlink:href="SceneFeatureDistance_8h.html" target="_top" xlink:title="SceneFeatureDistance.h">
<polygon fill="white" stroke="black" points="2568.5,-402.5 2568.5,-421.5 2691.5,-421.5 2691.5,-402.5 2568.5,-402.5"/>
<text text-anchor="middle" x="2630" y="-409.5" font-family="FreeSans" font-size="10.00">SceneFeatureDistance.h</text>
</a>
</g>
</g>
<!-- Node65&#45;&gt;Node73 -->
<g id="edge124" class="edge"><title>Node65&#45;&gt;Node73</title>
<path fill="none" stroke="midnightblue" d="M1987.1,-464.432C2089.96,-456.203 2413.05,-430.356 2558.18,-418.746"/>
<polygon fill="midnightblue" stroke="midnightblue" points="2558.62,-422.222 2568.31,-417.935 2558.06,-415.244 2558.62,-422.222"/>
</g>
<!-- Node75 -->
<g id="node76" class="node"><title>Node75</title>
<g id="a_node76"><a xlink:href="BinarySceneFeatureDistance_8h.html" target="_top" xlink:title="BinarySceneFeatureDistance.h">
<polygon fill="white" stroke="black" points="1932,-402.5 1932,-421.5 2082,-421.5 2082,-402.5 1932,-402.5"/>
<text text-anchor="middle" x="2007" y="-409.5" font-family="FreeSans" font-size="10.00">BinarySceneFeatureDistance.h</text>
</a>
</g>
</g>
<!-- Node65&#45;&gt;Node75 -->
<g id="edge130" class="edge"><title>Node65&#45;&gt;Node75</title>
<path fill="none" stroke="midnightblue" d="M1963.59,-458.083C1971.16,-450.22 1982.38,-438.569 1991.51,-429.081"/>
<polygon fill="midnightblue" stroke="midnightblue" points="1994.16,-431.382 1998.57,-421.751 1989.12,-426.527 1994.16,-431.382"/>
</g>
<!-- Node78 -->
<g id="node79" class="node"><title>Node78</title>
<g id="a_node79"><a xlink:href="NumericFunctor_8h.html" target="_top" xlink:title="../Numeric/NumericFunctor.h">
<polygon fill="white" stroke="black" points="473.5,-402.5 473.5,-421.5 614.5,-421.5 614.5,-402.5 473.5,-402.5"/>
<text text-anchor="middle" x="544" y="-409.5" font-family="FreeSans" font-size="10.00">../Numeric/NumericFunctor.h</text>
</a>
</g>
</g>
<!-- Node65&#45;&gt;Node78 -->
<g id="edge138" class="edge"><title>Node65&#45;&gt;Node78</title>
<path fill="none" stroke="midnightblue" d="M1922.88,-465.771C1746.4,-459.017 892.939,-426.354 624.795,-416.092"/>
<polygon fill="midnightblue" stroke="midnightblue" points="624.87,-412.592 614.744,-415.707 624.602,-419.587 624.87,-412.592"/>
</g>
<!-- Node66&#45;&gt;Node3 -->
<g id="edge111" class="edge"><title>Node66&#45;&gt;Node3</title>
<path fill="none" stroke="midnightblue" d="M3076.17,-206.939C3059.63,-198.504 3036.07,-184.111 3022,-165 2995.59,-129.13 2973.32,-101.899 3001,-67 3006.15,-60.5067 3102.07,-39.9067 3164.34,-27.111"/>
<polygon fill="midnightblue" stroke="midnightblue" points="3165.31,-30.485 3174.4,-25.0504 3163.9,-23.6273 3165.31,-30.485"/>
</g>
<!-- Node67 -->
<g id="node68" class="node"><title>Node67</title>
<g id="a_node68"><a xlink:href="InvertibleUnaryFunctionConcept_8h.html" target="_top" xlink:title="../Numeric/InvertibleUnary\lFunctionConcept.h">
<polygon fill="white" stroke="black" points="3030.5,-134.5 3030.5,-164.5 3159.5,-164.5 3159.5,-134.5 3030.5,-134.5"/>
<text text-anchor="start" x="3038.5" y="-152.5" font-family="FreeSans" font-size="10.00">../Numeric/InvertibleUnary</text>
<text text-anchor="middle" x="3095" y="-141.5" font-family="FreeSans" font-size="10.00">FunctionConcept.h</text>
</a>
</g>
</g>
<!-- Node66&#45;&gt;Node67 -->
<g id="edge112" class="edge"><title>Node66&#45;&gt;Node67</title>
<path fill="none" stroke="midnightblue" d="M3095,-206.734C3095,-198.541 3095,-185.923 3095,-174.714"/>
<polygon fill="midnightblue" stroke="midnightblue" points="3098.5,-174.589 3095,-164.589 3091.5,-174.589 3098.5,-174.589"/>
</g>
<!-- Node68 -->
<g id="node69" class="node"><title>Node68</title>
<g id="a_node69"><a xlink:href="InvertibleUnaryFunctionConcept_8ipp.html" target="_top" xlink:title="InvertibleUnaryFunctionConcept.ipp">
<polygon fill="white" stroke="black" points="3010,-73 3010,-92 3180,-92 3180,-73 3010,-73"/>
<text text-anchor="middle" x="3095" y="-80" font-family="FreeSans" font-size="10.00">InvertibleUnaryFunctionConcept.ipp</text>
</a>
</g>
</g>
<!-- Node67&#45;&gt;Node68 -->
<g id="edge113" class="edge"><title>Node67&#45;&gt;Node68</title>
<path fill="none" stroke="midnightblue" d="M3095,-134.396C3095,-125.064 3095,-112.714 3095,-102.517"/>
<polygon fill="midnightblue" stroke="midnightblue" points="3098.5,-102.195 3095,-92.1945 3091.5,-102.195 3098.5,-102.195"/>
</g>
<!-- Node68&#45;&gt;Node3 -->
<g id="edge114" class="edge"><title>Node68&#45;&gt;Node3</title>
<path fill="none" stroke="midnightblue" d="M3111.2,-72.8685C3131.8,-61.8932 3167.59,-42.8243 3191.78,-29.9385"/>
<polygon fill="midnightblue" stroke="midnightblue" points="3193.55,-32.9583 3200.73,-25.1672 3190.26,-26.7804 3193.55,-32.9583"/>
</g>
<!-- Node69&#45;&gt;Node34 -->
<g id="edge122" class="edge"><title>Node69&#45;&gt;Node34</title>
<path fill="none" stroke="midnightblue" d="M1877.03,-273.941C1804.78,-251.017 1606.83,-188.206 1524.58,-162.108"/>
<polygon fill="midnightblue" stroke="midnightblue" points="1525.5,-158.728 1514.91,-159.04 1523.39,-165.4 1525.5,-158.728"/>
</g>
<!-- Node69&#45;&gt;Node60 -->
<g id="edge123" class="edge"><title>Node69&#45;&gt;Node60</title>
<path fill="none" stroke="midnightblue" d="M1904,-273.839C1904,-252.674 1904,-197.948 1904,-169.033"/>
<polygon fill="midnightblue" stroke="midnightblue" points="1907.5,-169.021 1904,-159.021 1900.5,-169.021 1907.5,-169.021"/>
</g>
<!-- Node70 -->
<g id="node71" class="node"><title>Node70</title>
<g id="a_node71"><a xlink:href="Distance_8ipp.html" target="_top" xlink:title="Distance.ipp">
<polygon fill="white" stroke="black" points="1202,-207 1202,-226 1272,-226 1272,-207 1202,-207"/>
<text text-anchor="middle" x="1237" y="-214" font-family="FreeSans" font-size="10.00">Distance.ipp</text>
</a>
</g>
</g>
<!-- Node69&#45;&gt;Node70 -->
<g id="edge116" class="edge"><title>Node69&#45;&gt;Node70</title>
<path fill="none" stroke="midnightblue" d="M1872.72,-279.452C1765,-268.955 1409.06,-234.267 1282.31,-221.915"/>
<polygon fill="midnightblue" stroke="midnightblue" points="1282.47,-218.414 1272.17,-220.928 1281.79,-225.381 1282.47,-218.414"/>
</g>
<!-- Node70&#45;&gt;Node9 -->
<g id="edge119" class="edge"><title>Node70&#45;&gt;Node9</title>
<path fill="none" stroke="midnightblue" d="M1201.85,-209.753C1148.54,-200.91 1044.13,-183.084 956,-165 720.414,-116.657 438.858,-47.7508 345.113,-24.5062"/>
<polygon fill="midnightblue" stroke="midnightblue" points="345.673,-21.0391 335.124,-22.026 343.986,-27.8328 345.673,-21.0391"/>
</g>
<!-- Node70&#45;&gt;Node25 -->
<g id="edge120" class="edge"><title>Node70&#45;&gt;Node25</title>
<path fill="none" stroke="midnightblue" d="M1233.84,-206.86C1227.27,-190.122 1210.5,-153.238 1184,-134 1181.09,-131.888 937.521,-67.7227 934,-67 824.035,-44.4305 791.932,-61.8619 684,-31 681.849,-30.385 679.655,-29.6589 677.473,-28.8649"/>
<polygon fill="midnightblue" stroke="midnightblue" points="678.724,-25.5957 668.142,-25.0818 676.094,-32.0828 678.724,-25.5957"/>
</g>
<!-- Node70&#45;&gt;Node31 -->
<g id="edge121" class="edge"><title>Node70&#45;&gt;Node31</title>
<path fill="none" stroke="midnightblue" d="M1218.41,-206.869C1194.46,-195.748 1152.61,-176.317 1124.85,-163.429"/>
<polygon fill="midnightblue" stroke="midnightblue" points="1126.21,-160.204 1115.67,-159.167 1123.26,-166.553 1126.21,-160.204"/>
</g>
<!-- Node71 -->
<g id="node72" class="node"><title>Node71</title>
<polygon fill="white" stroke="#bfbfbf" points="1288.5,-140 1288.5,-159 1337.5,-159 1337.5,-140 1288.5,-140"/>
<text text-anchor="middle" x="1313" y="-147" font-family="FreeSans" font-size="10.00">cassert</text>
</g>
<!-- Node70&#45;&gt;Node71 -->
<g id="edge117" class="edge"><title>Node70&#45;&gt;Node71</title>
<path fill="none" stroke="midnightblue" d="M1247.25,-206.734C1259.44,-196.305 1280.02,-178.709 1294.91,-165.973"/>
<polygon fill="midnightblue" stroke="midnightblue" points="1297.59,-168.287 1302.91,-159.127 1293.04,-162.967 1297.59,-168.287"/>
</g>
<!-- Node72 -->
<g id="node73" class="node"><title>Node72</title>
<polygon fill="white" stroke="#bfbfbf" points="1356,-140 1356,-159 1396,-159 1396,-140 1356,-140"/>
<text text-anchor="middle" x="1376" y="-147" font-family="FreeSans" font-size="10.00">limits</text>
</g>
<!-- Node70&#45;&gt;Node72 -->
<g id="edge118" class="edge"><title>Node70&#45;&gt;Node72</title>
<path fill="none" stroke="midnightblue" d="M1255.95,-206.835C1277.73,-196.85 1314.52,-179.9 1346,-165 1346.99,-164.53 1348,-164.05 1349.03,-163.563"/>
<polygon fill="midnightblue" stroke="midnightblue" points="1350.75,-166.616 1358.26,-159.135 1347.73,-160.305 1350.75,-166.616"/>
</g>
<!-- Node73&#45;&gt;Node69 -->
<g id="edge129" class="edge"><title>Node73&#45;&gt;Node69</title>
<path fill="none" stroke="midnightblue" d="M2580.95,-402.454C2445.87,-378.917 2070.14,-313.449 1945.08,-291.658"/>
<polygon fill="midnightblue" stroke="midnightblue" points="1945.59,-288.194 1935.14,-289.926 1944.39,-295.09 1945.59,-288.194"/>
</g>
<!-- Node74 -->
<g id="node75" class="node"><title>Node74</title>
<g id="a_node75"><a xlink:href="SceneFeatureDistance_8ipp.html" target="_top" xlink:title="SceneFeatureDistance.ipp">
<polygon fill="white" stroke="black" points="2852.5,-341 2852.5,-360 2983.5,-360 2983.5,-341 2852.5,-341"/>
<text text-anchor="middle" x="2918" y="-348" font-family="FreeSans" font-size="10.00">SceneFeatureDistance.ipp</text>
</a>
</g>
</g>
<!-- Node73&#45;&gt;Node74 -->
<g id="edge125" class="edge"><title>Node73&#45;&gt;Node74</title>
<path fill="none" stroke="midnightblue" d="M2671.26,-402.475C2722.8,-391.827 2810.98,-373.609 2866.79,-362.081"/>
<polygon fill="midnightblue" stroke="midnightblue" points="2867.73,-365.46 2876.81,-360.009 2866.31,-358.605 2867.73,-365.46"/>
</g>
<!-- Node74&#45;&gt;Node3 -->
<g id="edge126" class="edge"><title>Node74&#45;&gt;Node3</title>
<path fill="none" stroke="midnightblue" d="M2920,-340.907C2924.68,-319.942 2936,-264.451 2936,-217.5 2936,-217.5 2936,-217.5 2936,-148.5 2936,-106.462 2949.93,-91.6297 2984,-67 2987.72,-64.3113 3098.16,-41.1002 3165.64,-27.0995"/>
<polygon fill="midnightblue" stroke="midnightblue" points="3166.59,-30.477 3175.67,-25.0202 3165.17,-23.6227 3166.59,-30.477"/>
</g>
<!-- Node74&#45;&gt;Node10 -->
<g id="edge127" class="edge"><title>Node74&#45;&gt;Node10</title>
<path fill="none" stroke="midnightblue" d="M2983.58,-346.606C3062.16,-341.809 3187.55,-329.495 3222,-299 3250.28,-273.974 3246,-255.26 3246,-217.5 3246,-217.5 3246,-217.5 3246,-148.5 3246,-101.191 3283.12,-55.5377 3305.47,-32.3316"/>
<polygon fill="midnightblue" stroke="midnightblue" points="3308.11,-34.6494 3312.68,-25.0936 3303.14,-29.7104 3308.11,-34.6494"/>
</g>
<!-- Node74&#45;&gt;Node38 -->
<g id="edge128" class="edge"><title>Node74&#45;&gt;Node38</title>
<path fill="none" stroke="midnightblue" d="M2884.66,-340.936C2837.94,-328.931 2753.16,-307.15 2703.7,-294.444"/>
<polygon fill="midnightblue" stroke="midnightblue" points="2704.27,-290.975 2693.71,-291.877 2702.53,-297.755 2704.27,-290.975"/>
</g>
<!-- Node75&#45;&gt;Node69 -->
<g id="edge137" class="edge"><title>Node75&#45;&gt;Node69</title>
<path fill="none" stroke="midnightblue" d="M1999.92,-402.305C1982.94,-381.452 1939.68,-328.315 1917.52,-301.105"/>
<polygon fill="midnightblue" stroke="midnightblue" points="1920.16,-298.8 1911.13,-293.256 1914.73,-303.22 1920.16,-298.8"/>
</g>
<!-- Node76 -->
<g id="node77" class="node"><title>Node76</title>
<g id="a_node77"><a xlink:href="BinarySceneFeatureDistance_8ipp.html" target="_top" xlink:title="BinarySceneFeatureDistance.ipp">
<polygon fill="white" stroke="black" points="2658,-341 2658,-360 2816,-360 2816,-341 2658,-341"/>
<text text-anchor="middle" x="2737" y="-348" font-family="FreeSans" font-size="10.00">BinarySceneFeatureDistance.ipp</text>
</a>
</g>
</g>
<!-- Node75&#45;&gt;Node76 -->
<g id="edge131" class="edge"><title>Node75&#45;&gt;Node76</title>
<path fill="none" stroke="midnightblue" d="M2082.25,-406.202C2195.83,-398.766 2417.79,-383.48 2606,-366 2621.51,-364.559 2638.04,-362.859 2653.95,-361.14"/>
<polygon fill="midnightblue" stroke="midnightblue" points="2654.73,-364.575 2664.29,-360.009 2653.97,-357.616 2654.73,-364.575"/>
</g>
<!-- Node76&#45;&gt;Node3 -->
<g id="edge132" class="edge"><title>Node76&#45;&gt;Node3</title>
<path fill="none" stroke="midnightblue" d="M2737,-340.851C2737,-319.764 2737,-264.021 2737,-217.5 2737,-217.5 2737,-217.5 2737,-148.5 2737,39.7763 2959.04,-66.1815 3144,-31 3150.65,-29.7347 3157.64,-28.3797 3164.55,-27.0249"/>
<polygon fill="midnightblue" stroke="midnightblue" points="3165.43,-30.4189 3174.56,-25.0505 3164.07,-23.5511 3165.43,-30.4189"/>
</g>
<!-- Node76&#45;&gt;Node9 -->
<g id="edge135" class="edge"><title>Node76&#45;&gt;Node9</title>
<path fill="none" stroke="midnightblue" d="M2657.85,-344.947C2504.61,-336.127 2156.7,-316.074 1864,-299 1610.88,-284.234 977.533,-254.676 725,-232 477.978,-209.819 395.563,-270.278 171,-165 122.301,-142.169 65.8569,-108.558 100,-67 152.344,-3.2885 203.637,-56.6557 282,-31 283.669,-30.4535 285.366,-29.8398 287.063,-29.1818"/>
<polygon fill="midnightblue" stroke="midnightblue" points="288.77,-32.2576 296.569,-25.087 286,-25.8286 288.77,-32.2576"/>
</g>
<!-- Node76&#45;&gt;Node10 -->
<g id="edge134" class="edge"><title>Node76&#45;&gt;Node10</title>
<path fill="none" stroke="midnightblue" d="M2786.07,-340.974C2906.71,-319.343 3208,-260.969 3208,-217.5 3208,-217.5 3208,-217.5 3208,-148.5 3208,-94.2513 3263.83,-51.2838 3297.35,-30.3766"/>
<polygon fill="midnightblue" stroke="midnightblue" points="3299.39,-33.2337 3306.15,-25.0736 3295.78,-27.2387 3299.39,-33.2337"/>
</g>
<!-- Node76&#45;&gt;Node38 -->
<g id="edge136" class="edge"><title>Node76&#45;&gt;Node38</title>
<path fill="none" stroke="midnightblue" d="M2727.29,-340.734C2715.74,-330.305 2696.25,-312.709 2682.14,-299.973"/>
<polygon fill="midnightblue" stroke="midnightblue" points="2684.32,-297.23 2674.56,-293.127 2679.63,-302.426 2684.32,-297.23"/>
</g>
<!-- Node77 -->
<g id="node78" class="node"><title>Node77</title>
<polygon fill="white" stroke="#bfbfbf" points="2765,-274 2765,-293 2893,-293 2893,-274 2765,-274"/>
<text text-anchor="middle" x="2829" y="-281" font-family="FreeSans" font-size="10.00">boost/range/algorithm.hpp</text>
</g>
<!-- Node76&#45;&gt;Node77 -->
<g id="edge133" class="edge"><title>Node76&#45;&gt;Node77</title>
<path fill="none" stroke="midnightblue" d="M2749.41,-340.734C2764.58,-330.013 2790.48,-311.716 2808.6,-298.914"/>
<polygon fill="midnightblue" stroke="midnightblue" points="2810.64,-301.756 2816.79,-293.127 2806.6,-296.039 2810.64,-301.756"/>
</g>
<!-- Node79 -->
<g id="node80" class="node"><title>Node79</title>
<g id="a_node80"><a xlink:href="NumericFunctor_8ipp.html" target="_top" xlink:title="NumericFunctor.ipp">
<polygon fill="white" stroke="black" points="142.5,-274 142.5,-293 243.5,-293 243.5,-274 142.5,-274"/>
<text text-anchor="middle" x="193" y="-281" font-family="FreeSans" font-size="10.00">NumericFunctor.ipp</text>
</a>
</g>
</g>
<!-- Node78&#45;&gt;Node79 -->
<g id="edge139" class="edge"><title>Node78&#45;&gt;Node79</title>
<path fill="none" stroke="midnightblue" d="M473.055,-409.615C344.668,-406.37 84.4612,-396.116 57,-366 26.4846,-332.535 91.3704,-308.421 141.633,-295.462"/>
<polygon fill="midnightblue" stroke="midnightblue" points="142.598,-298.829 151.458,-293.019 140.909,-292.035 142.598,-298.829"/>
</g>
<!-- Node79&#45;&gt;Node28 -->
<g id="edge140" class="edge"><title>Node79&#45;&gt;Node28</title>
<path fill="none" stroke="midnightblue" d="M187.738,-273.725C173.646,-248.966 138.272,-177.543 171,-134 193.462,-104.116 437.441,-47.3514 536.027,-25.4399"/>
<polygon fill="midnightblue" stroke="midnightblue" points="536.924,-28.8262 545.931,-23.2473 535.411,-21.9916 536.924,-28.8262"/>
</g>
</g>
</svg>
