<?xml version="1.0" encoding="UTF-8" standalone="no"?>
<!DOCTYPE svg PUBLIC "-//W3C//DTD SVG 1.1//EN"
 "http://www.w3.org/Graphics/SVG/1.1/DTD/svg11.dtd">
<!-- Generated by graphviz version 2.38.0 (20140413.2041)
 -->
<!-- Title: src/UncertaintyEstimation/MultivariateGaussian.h Pages: 1 -->
<!--zoomable 274 -->
<svg id="main" version="1.1" xmlns="http://www.w3.org/2000/svg" xmlns:xlink="http://www.w3.org/1999/xlink" xml:space="preserve" onload="init(evt)">
<style type="text/css"><![CDATA[
.edge:hover path { stroke: red; }
.edge:hover polygon { stroke: red; fill: red; }
]]></style>
<script type="text/javascript"><![CDATA[
var edges = document.getElementsByTagName('g');
if (edges && edges.length) {
  for (var i=0;i<edges.length;i++) {
    if (edges[i].id.substr(0,4)=='edge') {
      edges[i].setAttribute('class','edge');
    }
  }
}
]]></script>
        <defs>
                <circle id="rim" cx="0" cy="0" r="7"/>
                <circle id="rim2" cx="0" cy="0" r="3.5"/>
                <g id="zoomPlus">
                        <use xlink:href="#rim" fill="#404040">
                                <set attributeName="fill" to="#808080" begin="zoomplus.mouseover" end="zoomplus.mouseout"/>
                        </use>
                        <path d="M-4,0h8M0,-4v8" fill="none" stroke="white" stroke-width="1.5" pointer-events="none"/>
                </g>
                <g id="zoomMin">
                        <use xlink:href="#rim" fill="#404040">
                                <set attributeName="fill" to="#808080" begin="zoomminus.mouseover" end="zoomminus.mouseout"/>
                        </use>
                        <path d="M-4,0h8" fill="none" stroke="white" stroke-width="1.5" pointer-events="none"/>
                </g>
                <g id="dirArrow">
                        <path fill="none" stroke="white" stroke-width="1.5" d="M0,-3.0v7 M-2.5,-0.5L0,-3.0L2.5,-0.5"/>
                </g>
               <g id="resetDef">
                       <use xlink:href="#rim2" fill="#404040">
                               <set attributeName="fill" to="#808080" begin="reset.mouseover" end="reset.mouseout"/>
                       </use>
               </g>
        </defs>

<script type="text/javascript">
var viewWidth = 951;
var viewHeight = 274;
var sectionId = 'dynsection-0';
</script>
<script xlink:href="svgpan.js"/>
<svg id="graph" class="graph">
<g id="viewport">
<title>src/UncertaintyEstimation/MultivariateGaussian.h</title>
<polygon fill="white" stroke="none" points="-4,4 -4,-270 946.5,-270 946.5,4 -4,4"/>
<!-- Node0 -->
<g id="node1" class="node"><title>Node0</title>
<polygon fill="#bfbfbf" stroke="black" points="571,-235.5 571,-265.5 699,-265.5 699,-235.5 571,-235.5"/>
<text text-anchor="start" x="579" y="-253.5" font-family="FreeSans" font-size="10.00">src/UncertaintyEstimation</text>
<text text-anchor="middle" x="635" y="-242.5" font-family="FreeSans" font-size="10.00">/MultivariateGaussian.h</text>
</g>
<!-- Node1 -->
<g id="node2" class="node"><title>Node1</title>
<g id="a_node2"><a xlink:href="MultivariateGaussian_8ipp.html" target="_top" xlink:title="MultivariateGaussian.ipp">
<polygon fill="white" stroke="black" points="510.5,-179.5 510.5,-198.5 633.5,-198.5 633.5,-179.5 510.5,-179.5"/>
<text text-anchor="middle" x="572" y="-186.5" font-family="FreeSans" font-size="10.00">MultivariateGaussian.ipp</text>
</a>
</g>
</g>
<!-- Node0&#45;&gt;Node1 -->
<g id="edge1" class="edge"><title>Node0&#45;&gt;Node1</title>
<path fill="none" stroke="midnightblue" d="M614.23,-235.399C603.859,-226.664 591.861,-215.413 583.16,-206.296"/>
<polygon fill="midnightblue" stroke="midnightblue" points="585.546,-203.717 576.238,-198.658 580.359,-208.418 585.546,-203.717"/>
</g>
<!-- Node9 -->
<g id="node10" class="node"><title>Node9</title>
<g id="a_node10"><a xlink:href="EigenMetafunction_8h.html" target="_top" xlink:title="../Wrappers/EigenMetafunction.h">
<polygon fill="white" stroke="black" points="707,-118 707,-137 863,-137 863,-118 707,-118"/>
<text text-anchor="middle" x="785" y="-125" font-family="FreeSans" font-size="10.00">../Wrappers/EigenMetafunction.h</text>
</a>
</g>
</g>
<!-- Node0&#45;&gt;Node9 -->
<g id="edge16" class="edge"><title>Node0&#45;&gt;Node9</title>
<path fill="none" stroke="midnightblue" d="M652.5,-235.383C681.058,-212.347 737.411,-166.888 766.564,-143.372"/>
<polygon fill="midnightblue" stroke="midnightblue" points="768.763,-146.095 774.349,-137.092 764.368,-140.647 768.763,-146.095"/>
</g>
<!-- Node11 -->
<g id="node12" class="node"><title>Node11</title>
<g id="a_node12"><a xlink:href="NumericFunctor_8h.html" target="_top" xlink:title="../Numeric/NumericFunctor.h">
<polygon fill="white" stroke="black" points="801.5,-179.5 801.5,-198.5 942.5,-198.5 942.5,-179.5 801.5,-179.5"/>
<text text-anchor="middle" x="872" y="-186.5" font-family="FreeSans" font-size="10.00">../Numeric/NumericFunctor.h</text>
</a>
</g>
</g>
<!-- Node0&#45;&gt;Node11 -->
<g id="edge13" class="edge"><title>Node0&#45;&gt;Node11</title>
<path fill="none" stroke="midnightblue" d="M690.866,-235.475C732.824,-224.941 789.485,-210.716 828.194,-200.998"/>
<polygon fill="midnightblue" stroke="midnightblue" points="829.271,-204.336 838.117,-198.506 827.566,-197.547 829.271,-204.336"/>
</g>
<!-- Node1&#45;&gt;Node0 -->
<g id="edge9" class="edge"><title>Node1&#45;&gt;Node0</title>
<path fill="none" stroke="midnightblue" d="M586.096,-198.658C595.873,-206.332 608.609,-217.862 618.751,-228.002"/>
<polygon fill="midnightblue" stroke="midnightblue" points="616.44,-230.647 625.91,-235.399 621.471,-225.779 616.44,-230.647"/>
</g>
<!-- Node2 -->
<g id="node3" class="node"><title>Node2</title>
<polygon fill="white" stroke="#bfbfbf" points="0,-118 0,-137 128,-137 128,-118 0,-118"/>
<text text-anchor="middle" x="64" y="-125" font-family="FreeSans" font-size="10.00">boost/concept_check.hpp</text>
</g>
<!-- Node1&#45;&gt;Node2 -->
<g id="edge2" class="edge"><title>Node1&#45;&gt;Node2</title>
<path fill="none" stroke="midnightblue" d="M510.18,-183.425C425.633,-176.755 269.322,-162.942 137,-143 129.449,-141.862 121.493,-140.477 113.723,-139.019"/>
<polygon fill="midnightblue" stroke="midnightblue" points="114.146,-135.536 103.664,-137.075 112.818,-142.409 114.146,-135.536"/>
</g>
<!-- Node3 -->
<g id="node4" class="node"><title>Node3</title>
<polygon fill="white" stroke="#bfbfbf" points="146.5,-112.5 146.5,-142.5 257.5,-142.5 257.5,-112.5 146.5,-112.5"/>
<text text-anchor="start" x="154.5" y="-130.5" font-family="FreeSans" font-size="10.00">boost/math/constants</text>
<text text-anchor="middle" x="202" y="-119.5" font-family="FreeSans" font-size="10.00">/constants.hpp</text>
</g>
<!-- Node1&#45;&gt;Node3 -->
<g id="edge3" class="edge"><title>Node1&#45;&gt;Node3</title>
<path fill="none" stroke="midnightblue" d="M510.228,-180.332C450.499,-172.598 357.233,-159.68 267.831,-143.267"/>
<polygon fill="midnightblue" stroke="midnightblue" points="268.266,-139.788 257.795,-141.406 266.99,-146.671 268.266,-139.788"/>
</g>
<!-- Node4 -->
<g id="node5" class="node"><title>Node4</title>
<polygon fill="white" stroke="#bfbfbf" points="275.5,-118 275.5,-137 386.5,-137 386.5,-118 275.5,-118"/>
<text text-anchor="middle" x="331" y="-125" font-family="FreeSans" font-size="10.00">boost/logic/tribool.hpp</text>
</g>
<!-- Node1&#45;&gt;Node4 -->
<g id="edge4" class="edge"><title>Node1&#45;&gt;Node4</title>
<path fill="none" stroke="midnightblue" d="M537.471,-179.475C494.788,-168.937 422.079,-150.986 375.318,-139.441"/>
<polygon fill="midnightblue" stroke="midnightblue" points="376.013,-136.008 365.465,-137.009 374.335,-142.804 376.013,-136.008"/>
</g>
<!-- Node5 -->
<g id="node6" class="node"><title>Node5</title>
<polygon fill="white" stroke="#bfbfbf" points="404.5,-118 404.5,-137 499.5,-137 499.5,-118 404.5,-118"/>
<text text-anchor="middle" x="452" y="-125" font-family="FreeSans" font-size="10.00">boost/optional.hpp</text>
</g>
<!-- Node1&#45;&gt;Node5 -->
<g id="edge5" class="edge"><title>Node1&#45;&gt;Node5</title>
<path fill="none" stroke="midnightblue" d="M554.807,-179.475C534.757,-169.534 501.401,-152.995 478.14,-141.461"/>
<polygon fill="midnightblue" stroke="midnightblue" points="479.675,-138.316 469.161,-137.009 476.566,-144.587 479.675,-138.316"/>
</g>
<!-- Node6 -->
<g id="node7" class="node"><title>Node6</title>
<polygon fill="white" stroke="#bfbfbf" points="517.5,-118 517.5,-137 588.5,-137 588.5,-118 517.5,-118"/>
<text text-anchor="middle" x="553" y="-125" font-family="FreeSans" font-size="10.00">Eigen/Dense</text>
</g>
<!-- Node1&#45;&gt;Node6 -->
<g id="edge6" class="edge"><title>Node1&#45;&gt;Node6</title>
<path fill="none" stroke="midnightblue" d="M569.278,-179.475C566.569,-170.992 562.326,-157.704 558.851,-146.822"/>
<polygon fill="midnightblue" stroke="midnightblue" points="562.093,-145.47 555.717,-137.009 555.425,-147.6 562.093,-145.47"/>
</g>
<!-- Node7 -->
<g id="node8" class="node"><title>Node7</title>
<polygon fill="white" stroke="#bfbfbf" points="607,-118 607,-137 651,-137 651,-118 607,-118"/>
<text text-anchor="middle" x="629" y="-125" font-family="FreeSans" font-size="10.00">cmath</text>
</g>
<!-- Node1&#45;&gt;Node7 -->
<g id="edge7" class="edge"><title>Node1&#45;&gt;Node7</title>
<path fill="none" stroke="midnightblue" d="M580.167,-179.475C588.886,-170.373 602.904,-155.741 613.689,-144.483"/>
<polygon fill="midnightblue" stroke="midnightblue" points="616.458,-146.651 620.848,-137.009 611.403,-141.809 616.458,-146.651"/>
</g>
<!-- Node8 -->
<g id="node9" class="node"><title>Node8</title>
<polygon fill="white" stroke="#bfbfbf" points="735,-0.5 735,-19.5 797,-19.5 797,-0.5 735,-0.5"/>
<text text-anchor="middle" x="766" y="-7.5" font-family="FreeSans" font-size="10.00">type_traits</text>
</g>
<!-- Node1&#45;&gt;Node8 -->
<g id="edge8" class="edge"><title>Node1&#45;&gt;Node8</title>
<path fill="none" stroke="midnightblue" d="M599.131,-179.439C618.184,-172.268 643.17,-160.382 660,-143 689.733,-112.29 673.371,-88.6155 701,-56 711.78,-43.275 726.97,-32.4919 739.955,-24.6739"/>
<polygon fill="midnightblue" stroke="midnightblue" points="741.999,-27.5363 748.926,-19.5199 738.512,-21.4667 741.999,-27.5363"/>
</g>
<!-- Node1&#45;&gt;Node9 -->
<g id="edge10" class="edge"><title>Node1&#45;&gt;Node9</title>
<path fill="none" stroke="midnightblue" d="M602.518,-179.475C639.925,-169.026 703.427,-151.287 744.787,-139.733"/>
<polygon fill="midnightblue" stroke="midnightblue" points="745.849,-143.071 754.539,-137.009 743.966,-136.329 745.849,-143.071"/>
</g>
<!-- Node10 -->
<g id="node11" class="node"><title>Node10</title>
<g id="a_node11"><a xlink:href="EigenMetafunction_8ipp.html" target="_top" xlink:title="EigenMetafunction.ipp">
<polygon fill="white" stroke="black" points="710,-56.5 710,-75.5 822,-75.5 822,-56.5 710,-56.5"/>
<text text-anchor="middle" x="766" y="-63.5" font-family="FreeSans" font-size="10.00">EigenMetafunction.ipp</text>
</a>
</g>
</g>
<!-- Node9&#45;&gt;Node10 -->
<g id="edge11" class="edge"><title>Node9&#45;&gt;Node10</title>
<path fill="none" stroke="midnightblue" d="M782.278,-117.975C779.569,-109.492 775.326,-96.2043 771.851,-85.3222"/>
<polygon fill="midnightblue" stroke="midnightblue" points="775.093,-83.9705 768.717,-75.5091 768.425,-86.0999 775.093,-83.9705"/>
</g>
<!-- Node10&#45;&gt;Node8 -->
<g id="edge12" class="edge"><title>Node10&#45;&gt;Node8</title>
<path fill="none" stroke="midnightblue" d="M766,-56.083C766,-49.0059 766,-38.8611 766,-29.9865"/>
<polygon fill="midnightblue" stroke="midnightblue" points="769.5,-29.751 766,-19.7511 762.5,-29.7511 769.5,-29.751"/>
</g>
<!-- Node12 -->
<g id="node13" class="node"><title>Node12</title>
<g id="a_node13"><a xlink:href="NumericFunctor_8ipp.html" target="_top" xlink:title="NumericFunctor.ipp">
<polygon fill="white" stroke="black" points="840.5,-56.5 840.5,-75.5 941.5,-75.5 941.5,-56.5 840.5,-56.5"/>
<text text-anchor="middle" x="891" y="-63.5" font-family="FreeSans" font-size="10.00">NumericFunctor.ipp</text>
</a>
</g>
</g>
<!-- Node11&#45;&gt;Node12 -->
<g id="edge14" class="edge"><title>Node11&#45;&gt;Node12</title>
<path fill="none" stroke="midnightblue" d="M873.366,-179.298C876.434,-159.763 883.924,-112.065 888.088,-85.5471"/>
<polygon fill="midnightblue" stroke="midnightblue" points="891.552,-86.0451 889.646,-75.6232 884.637,-84.9592 891.552,-86.0451"/>
</g>
<!-- Node12&#45;&gt;Node8 -->
<g id="edge15" class="edge"><title>Node12&#45;&gt;Node8</title>
<path fill="none" stroke="midnightblue" d="M871.193,-56.4435C850.713,-47.5961 818.517,-33.6875 795.135,-23.5865"/>
<polygon fill="midnightblue" stroke="midnightblue" points="796.282,-20.2692 785.714,-19.5164 793.506,-26.6953 796.282,-20.2692"/>
</g>
</g>
</svg>
        <g id="navigator" transform="translate(0 0)" fill="#404254">
                <rect fill="#f2f5e9" fill-opacity="0.5" stroke="#606060" stroke-width=".5" x="0" y="0" width="60" height="60"/>
                <use id="zoomplus" xlink:href="#zoomPlus" x="17" y="9" onmousedown="handleZoom(evt,'in')"/>
                <use id="zoomminus" xlink:href="#zoomMin" x="42" y="9" onmousedown="handleZoom(evt,'out')"/>
                <use id="reset" xlink:href="#resetDef" x="30" y="36" onmousedown="handleReset()"/>
                <g id="arrowUp" xlink:href="#dirArrow" transform="translate(30 24)" onmousedown="handlePan(0,-1)">
                  <use xlink:href="#rim" fill="#404040">
                        <set attributeName="fill" to="#808080" begin="arrowUp.mouseover" end="arrowUp.mouseout"/>
                  </use>
                  <path fill="none" stroke="white" stroke-width="1.5" d="M0,-3.0v7 M-2.5,-0.5L0,-3.0L2.5,-0.5"/>
                </g>
                <g id="arrowRight" xlink:href="#dirArrow" transform="rotate(90) translate(36 -43)" onmousedown="handlePan(1,0)">
                  <use xlink:href="#rim" fill="#404040">
                        <set attributeName="fill" to="#808080" begin="arrowRight.mouseover" end="arrowRight.mouseout"/>
                  </use>
                  <path fill="none" stroke="white" stroke-width="1.5" d="M0,-3.0v7 M-2.5,-0.5L0,-3.0L2.5,-0.5"/>
                </g>
                <g id="arrowDown" xlink:href="#dirArrow" transform="rotate(180) translate(-30 -48)" onmousedown="handlePan(0,1)">
                  <use xlink:href="#rim" fill="#404040">
                        <set attributeName="fill" to="#808080" begin="arrowDown.mouseover" end="arrowDown.mouseout"/>
                  </use>
                  <path fill="none" stroke="white" stroke-width="1.5" d="M0,-3.0v7 M-2.5,-0.5L0,-3.0L2.5,-0.5"/>
                </g>
                <g id="arrowLeft" xlink:href="#dirArrow" transform="rotate(270) translate(-36 17)" onmousedown="handlePan(-1,0)">
                  <use xlink:href="#rim" fill="#404040">
                        <set attributeName="fill" to="#808080" begin="arrowLeft.mouseover" end="arrowLeft.mouseout"/>
                  </use>
                  <path fill="none" stroke="white" stroke-width="1.5" d="M0,-3.0v7 M-2.5,-0.5L0,-3.0L2.5,-0.5"/>
                </g>
        </g>
        <svg viewBox="0 0 15 15" width="100%" height="30px" preserveAspectRatio="xMaxYMin meet">
         <g id="arrow_out" transform="scale(0.3 0.3)">
          <a xlink:href="MultivariateGaussian_8h__incl_org.svg" target="_base">
           <rect id="button" ry="5" rx="5" y="6" x="6" height="38" width="38"
                fill="#f2f5e9" fill-opacity="0.5" stroke="#606060" stroke-width="1.0"/>
           <path id="arrow"
             d="M 11.500037,31.436501 C 11.940474,20.09759 22.043105,11.32322 32.158766,21.979434 L 37.068811,17.246167 C 37.068811,17.246167 37.088388,32 37.088388,32 L 22.160133,31.978069 C 22.160133,31.978069 26.997745,27.140456 26.997745,27.140456 C 18.528582,18.264221 13.291696,25.230495 11.500037,31.436501 z"
             style="fill:#404040;"/>
          </a>
         </g>
        </svg>
</svg>
