<?xml version="1.0" encoding="UTF-8" standalone="no"?>
<!DOCTYPE svg PUBLIC "-//W3C//DTD SVG 1.1//EN"
 "http://www.w3.org/Graphics/SVG/1.1/DTD/svg11.dtd">
<!-- Generated by graphviz version 2.38.0 (20140413.2041)
 -->
<!-- Title: src/Geometry/MultiviewPanoramaBuilder.ipp Pages: 1 -->
<!--zoomable 441 -->
<svg id="main" version="1.1" xmlns="http://www.w3.org/2000/svg" xmlns:xlink="http://www.w3.org/1999/xlink" xml:space="preserve" onload="init(evt)">
<style type="text/css"><![CDATA[
.edge:hover path { stroke: red; }
.edge:hover polygon { stroke: red; fill: red; }
]]></style>
<script type="text/javascript"><![CDATA[
var edges = document.getElementsByTagName('g');
if (edges && edges.length) {
  for (var i=0;i<edges.length;i++) {
    if (edges[i].id.substr(0,4)=='edge') {
      edges[i].setAttribute('class','edge');
    }
  }
}
]]></script>
        <defs>
                <circle id="rim" cx="0" cy="0" r="7"/>
                <circle id="rim2" cx="0" cy="0" r="3.5"/>
                <g id="zoomPlus">
                        <use xlink:href="#rim" fill="#404040">
                                <set attributeName="fill" to="#808080" begin="zoomplus.mouseover" end="zoomplus.mouseout"/>
                        </use>
                        <path d="M-4,0h8M0,-4v8" fill="none" stroke="white" stroke-width="1.5" pointer-events="none"/>
                </g>
                <g id="zoomMin">
                        <use xlink:href="#rim" fill="#404040">
                                <set attributeName="fill" to="#808080" begin="zoomminus.mouseover" end="zoomminus.mouseout"/>
                        </use>
                        <path d="M-4,0h8" fill="none" stroke="white" stroke-width="1.5" pointer-events="none"/>
                </g>
                <g id="dirArrow">
                        <path fill="none" stroke="white" stroke-width="1.5" d="M0,-3.0v7 M-2.5,-0.5L0,-3.0L2.5,-0.5"/>
                </g>
               <g id="resetDef">
                       <use xlink:href="#rim2" fill="#404040">
                               <set attributeName="fill" to="#808080" begin="reset.mouseover" end="reset.mouseout"/>
                       </use>
               </g>
        </defs>

<script type="text/javascript">
var viewWidth = 1262;
var viewHeight = 441;
var sectionId = 'dynsection-1';
</script>
<script xlink:href="svgpan.js"/>
<svg id="graph" class="graph">
<g id="viewport">
<title>src/Geometry/MultiviewPanoramaBuilder.ipp</title>
<polygon fill="white" stroke="none" points="-4,4 -4,-437 1258,-437 1258,4 -4,4"/>
<!-- Node121 -->
<g id="node1" class="node"><title>Node121</title>
<polygon fill="#bfbfbf" stroke="black" points="477.5,-402.5 477.5,-432.5 641.5,-432.5 641.5,-402.5 477.5,-402.5"/>
<text text-anchor="start" x="485.5" y="-420.5" font-family="FreeSans" font-size="10.00">src/Geometry/MultiviewPanorama</text>
<text text-anchor="middle" x="559.5" y="-409.5" font-family="FreeSans" font-size="10.00">Builder.ipp</text>
</g>
<!-- Node122 -->
<g id="node2" class="node"><title>Node122</title>
<g id="a_node2"><a xlink:href="MultiviewPanoramaBuilder_8h.html" target="_top" xlink:title="src/Geometry/MultiviewPanorama\lBuilder.h">
<polygon fill="white" stroke="black" points="477.5,-335.5 477.5,-365.5 641.5,-365.5 641.5,-335.5 477.5,-335.5"/>
<text text-anchor="start" x="485.5" y="-353.5" font-family="FreeSans" font-size="10.00">src/Geometry/MultiviewPanorama</text>
<text text-anchor="middle" x="559.5" y="-342.5" font-family="FreeSans" font-size="10.00">Builder.h</text>
</a>
</g>
</g>
<!-- Node121&#45;&gt;Node122 -->
<g id="edge1" class="edge"><title>Node121&#45;&gt;Node122</title>
<path fill="none" stroke="midnightblue" d="M559.5,-392.108C559.5,-383.154 559.5,-373.323 559.5,-365.577"/>
<polygon fill="midnightblue" stroke="midnightblue" points="556,-392.396 559.5,-402.396 563,-392.396 556,-392.396"/>
</g>
<!-- Node123 -->
<g id="node3" class="node"><title>Node123</title>
<g id="a_node3"><a xlink:href="InterfaceMultiviewPanoramaBuilder_8ipp.html" target="_top" xlink:title="src/ApplicationInterface\l/InterfaceMultiviewPanoramaBuilder.ipp">
<polygon fill="white" stroke="black" points="356.5,-268.5 356.5,-298.5 544.5,-298.5 544.5,-268.5 356.5,-268.5"/>
<text text-anchor="start" x="364.5" y="-286.5" font-family="FreeSans" font-size="10.00">src/ApplicationInterface</text>
<text text-anchor="middle" x="450.5" y="-275.5" font-family="FreeSans" font-size="10.00">/InterfaceMultiviewPanoramaBuilder.ipp</text>
</a>
</g>
</g>
<!-- Node122&#45;&gt;Node123 -->
<g id="edge2" class="edge"><title>Node122&#45;&gt;Node123</title>
<path fill="none" stroke="midnightblue" d="M526.825,-330.015C509.863,-319.9 489.522,-307.77 474.105,-298.577"/>
<polygon fill="midnightblue" stroke="midnightblue" points="525.467,-333.28 535.849,-335.396 529.052,-327.268 525.467,-333.28"/>
</g>
<!-- Node134 -->
<g id="node14" class="node"><title>Node134</title>
<g id="a_node14"><a xlink:href="PfMPipeline_8ipp.html" target="_top" xlink:title="src/GeometryEstimationPipeline\l/PfMPipeline.ipp">
<polygon fill="white" stroke="black" points="164,-268.5 164,-298.5 319,-298.5 319,-268.5 164,-268.5"/>
<text text-anchor="start" x="172" y="-286.5" font-family="FreeSans" font-size="10.00">src/GeometryEstimationPipeline</text>
<text text-anchor="middle" x="241.5" y="-275.5" font-family="FreeSans" font-size="10.00">/PfMPipeline.ipp</text>
</a>
</g>
</g>
<!-- Node122&#45;&gt;Node134 -->
<g id="edge13" class="edge"><title>Node122&#45;&gt;Node134</title>
<path fill="none" stroke="midnightblue" d="M480.975,-333.449C428.625,-322.749 360.469,-308.818 310.261,-298.555"/>
<polygon fill="midnightblue" stroke="midnightblue" points="480.392,-336.902 490.89,-335.476 481.794,-330.044 480.392,-336.902"/>
</g>
<!-- Node137 -->
<g id="node17" class="node"><title>Node137</title>
<g id="a_node17"><a xlink:href="SparseUnitSphereReconstructionPipeline_8ipp.html" target="_top" xlink:title="src/GeometryEstimationPipeline\l/SparseUnitSphereReconstructionPipeline.ipp">
<polygon fill="white" stroke="black" points="562.5,-268.5 562.5,-298.5 776.5,-298.5 776.5,-268.5 562.5,-268.5"/>
<text text-anchor="start" x="570.5" y="-286.5" font-family="FreeSans" font-size="10.00">src/GeometryEstimationPipeline</text>
<text text-anchor="middle" x="669.5" y="-275.5" font-family="FreeSans" font-size="10.00">/SparseUnitSphereReconstructionPipeline.ipp</text>
</a>
</g>
</g>
<!-- Node122&#45;&gt;Node137 -->
<g id="edge18" class="edge"><title>Node122&#45;&gt;Node137</title>
<path fill="none" stroke="midnightblue" d="M592,-330.296C609.212,-320.125 629.976,-307.855 645.678,-298.577"/>
<polygon fill="midnightblue" stroke="midnightblue" points="590.197,-327.295 583.368,-335.396 593.758,-333.322 590.197,-327.295"/>
</g>
<!-- Node141 -->
<g id="node21" class="node"><title>Node141</title>
<g id="a_node21"><a xlink:href="MultiviewPanoramaBuilder_8cpp.html" target="_top" xlink:title="src/Geometry/MultiviewPanorama\lBuilder.cpp">
<polygon fill="white" stroke="black" points="794.5,-268.5 794.5,-298.5 958.5,-298.5 958.5,-268.5 794.5,-268.5"/>
<text text-anchor="start" x="802.5" y="-286.5" font-family="FreeSans" font-size="10.00">src/Geometry/MultiviewPanorama</text>
<text text-anchor="middle" x="876.5" y="-275.5" font-family="FreeSans" font-size="10.00">Builder.cpp</text>
</a>
</g>
</g>
<!-- Node122&#45;&gt;Node141 -->
<g id="edge24" class="edge"><title>Node122&#45;&gt;Node141</title>
<path fill="none" stroke="midnightblue" d="M637.779,-333.449C689.964,-322.749 757.905,-308.818 807.956,-298.555"/>
<polygon fill="midnightblue" stroke="midnightblue" points="636.987,-330.039 627.894,-335.476 638.393,-336.896 636.987,-330.039"/>
</g>
<!-- Node124 -->
<g id="node4" class="node"><title>Node124</title>
<g id="a_node4"><a xlink:href="InterfaceMultiviewPanoramaBuilder_8h.html" target="_top" xlink:title="src/ApplicationInterface\l/InterfaceMultiviewPanoramaBuilder.h">
<polygon fill="white" stroke="black" points="360,-201.5 360,-231.5 541,-231.5 541,-201.5 360,-201.5"/>
<text text-anchor="start" x="368" y="-219.5" font-family="FreeSans" font-size="10.00">src/ApplicationInterface</text>
<text text-anchor="middle" x="450.5" y="-208.5" font-family="FreeSans" font-size="10.00">/InterfaceMultiviewPanoramaBuilder.h</text>
</a>
</g>
</g>
<!-- Node123&#45;&gt;Node124 -->
<g id="edge3" class="edge"><title>Node123&#45;&gt;Node124</title>
<path fill="none" stroke="midnightblue" d="M450.5,-258.108C450.5,-249.154 450.5,-239.323 450.5,-231.577"/>
<polygon fill="midnightblue" stroke="midnightblue" points="447,-258.396 450.5,-268.396 454,-258.396 447,-258.396"/>
</g>
<!-- Node125 -->
<g id="node5" class="node"><title>Node125</title>
<g id="a_node5"><a xlink:href="InterfacePfMPipeline_8ipp.html" target="_top" xlink:title="src/ApplicationInterface\l/InterfacePfMPipeline.ipp">
<polygon fill="white" stroke="black" points="212,-134.5 212,-164.5 337,-164.5 337,-134.5 212,-134.5"/>
<text text-anchor="start" x="220" y="-152.5" font-family="FreeSans" font-size="10.00">src/ApplicationInterface</text>
<text text-anchor="middle" x="274.5" y="-141.5" font-family="FreeSans" font-size="10.00">/InterfacePfMPipeline.ipp</text>
</a>
</g>
</g>
<!-- Node124&#45;&gt;Node125 -->
<g id="edge4" class="edge"><title>Node124&#45;&gt;Node125</title>
<path fill="none" stroke="midnightblue" d="M402.624,-197.819C374.334,-187.371 339.006,-174.323 312.615,-164.577"/>
<polygon fill="midnightblue" stroke="midnightblue" points="401.717,-201.215 412.311,-201.396 404.143,-194.648 401.717,-201.215"/>
</g>
<!-- Node129 -->
<g id="node9" class="node"><title>Node129</title>
<g id="a_node9"><a xlink:href="InterfaceSparseUnitSphereReconstruction_8ipp.html" target="_top" xlink:title="src/ApplicationInterface\l/InterfaceSparseUnitSphereReconstruction.ipp">
<polygon fill="white" stroke="black" points="564.5,-134.5 564.5,-164.5 782.5,-164.5 782.5,-134.5 564.5,-134.5"/>
<text text-anchor="start" x="572.5" y="-152.5" font-family="FreeSans" font-size="10.00">src/ApplicationInterface</text>
<text text-anchor="middle" x="673.5" y="-141.5" font-family="FreeSans" font-size="10.00">/InterfaceSparseUnitSphereReconstruction.ipp</text>
</a>
</g>
</g>
<!-- Node124&#45;&gt;Node129 -->
<g id="edge8" class="edge"><title>Node124&#45;&gt;Node129</title>
<path fill="none" stroke="midnightblue" d="M508.549,-198.58C544.769,-188.022 590.845,-174.592 625.089,-164.611"/>
<polygon fill="midnightblue" stroke="midnightblue" points="507.234,-195.317 498.613,-201.476 509.193,-202.038 507.234,-195.317"/>
</g>
<!-- Node133 -->
<g id="node13" class="node"><title>Node133</title>
<g id="a_node13"><a xlink:href="InterfaceMultiviewPanoramaBuilder_8cpp.html" target="_top" xlink:title="src/ApplicationInterface\l/InterfaceMultiviewPanoramaBuilder.cpp">
<polygon fill="white" stroke="black" points="355,-134.5 355,-164.5 546,-164.5 546,-134.5 355,-134.5"/>
<text text-anchor="start" x="363" y="-152.5" font-family="FreeSans" font-size="10.00">src/ApplicationInterface</text>
<text text-anchor="middle" x="450.5" y="-141.5" font-family="FreeSans" font-size="10.00">/InterfaceMultiviewPanoramaBuilder.cpp</text>
</a>
</g>
</g>
<!-- Node124&#45;&gt;Node133 -->
<g id="edge12" class="edge"><title>Node124&#45;&gt;Node133</title>
<path fill="none" stroke="midnightblue" d="M450.5,-191.108C450.5,-182.154 450.5,-172.323 450.5,-164.577"/>
<polygon fill="midnightblue" stroke="midnightblue" points="447,-191.396 450.5,-201.396 454,-191.396 447,-191.396"/>
</g>
<!-- Node126 -->
<g id="node6" class="node"><title>Node126</title>
<g id="a_node6"><a xlink:href="InterfacePfMPipeline_8h.html" target="_top" xlink:title="src/ApplicationInterface\l/InterfacePfMPipeline.h">
<polygon fill="white" stroke="black" points="215,-67.5 215,-97.5 334,-97.5 334,-67.5 215,-67.5"/>
<text text-anchor="start" x="223" y="-85.5" font-family="FreeSans" font-size="10.00">src/ApplicationInterface</text>
<text text-anchor="middle" x="274.5" y="-74.5" font-family="FreeSans" font-size="10.00">/InterfacePfMPipeline.h</text>
</a>
</g>
</g>
<!-- Node125&#45;&gt;Node126 -->
<g id="edge5" class="edge"><title>Node125&#45;&gt;Node126</title>
<path fill="none" stroke="midnightblue" d="M274.5,-124.108C274.5,-115.154 274.5,-105.323 274.5,-97.5765"/>
<polygon fill="midnightblue" stroke="midnightblue" points="271,-124.396 274.5,-134.396 278,-124.396 271,-124.396"/>
</g>
<!-- Node127 -->
<g id="node7" class="node"><title>Node127</title>
<g id="a_node7"><a xlink:href="AppPfM_8cpp.html" target="_top" xlink:title="src/Application/AppPfM.cpp">
<polygon fill="white" stroke="black" points="115,-6 115,-25 252,-25 252,-6 115,-6"/>
<text text-anchor="middle" x="183.5" y="-13" font-family="FreeSans" font-size="10.00">src/Application/AppPfM.cpp</text>
</a>
</g>
</g>
<!-- Node126&#45;&gt;Node127 -->
<g id="edge6" class="edge"><title>Node126&#45;&gt;Node127</title>
<path fill="none" stroke="midnightblue" d="M246.228,-61.3056C229.14,-49.0999 208.248,-34.1772 195.41,-25.007"/>
<polygon fill="midnightblue" stroke="midnightblue" points="244.583,-64.4316 254.754,-67.396 248.651,-58.7355 244.583,-64.4316"/>
</g>
<!-- Node128 -->
<g id="node8" class="node"><title>Node128</title>
<g id="a_node8"><a xlink:href="InterfacePfMPipeline_8cpp.html" target="_top" xlink:title="src/ApplicationInterface\l/InterfacePfMPipeline.cpp">
<polygon fill="white" stroke="black" points="270.5,-0.5 270.5,-30.5 398.5,-30.5 398.5,-0.5 270.5,-0.5"/>
<text text-anchor="start" x="278.5" y="-18.5" font-family="FreeSans" font-size="10.00">src/ApplicationInterface</text>
<text text-anchor="middle" x="334.5" y="-7.5" font-family="FreeSans" font-size="10.00">/InterfacePfMPipeline.cpp</text>
</a>
</g>
</g>
<!-- Node126&#45;&gt;Node128 -->
<g id="edge7" class="edge"><title>Node126&#45;&gt;Node128</title>
<path fill="none" stroke="midnightblue" d="M294.324,-60.0243C303.263,-50.3398 313.57,-39.1739 321.506,-30.5765"/>
<polygon fill="midnightblue" stroke="midnightblue" points="291.73,-57.6739 287.519,-67.396 296.874,-62.4219 291.73,-57.6739"/>
</g>
<!-- Node130 -->
<g id="node10" class="node"><title>Node130</title>
<g id="a_node10"><a xlink:href="InterfaceSparseUnitSphereReconstruction_8h.html" target="_top" xlink:title="src/ApplicationInterface\l/InterfaceSparseUnitSphereReconstruction.h">
<polygon fill="white" stroke="black" points="638.5,-67.5 638.5,-97.5 848.5,-97.5 848.5,-67.5 638.5,-67.5"/>
<text text-anchor="start" x="646.5" y="-85.5" font-family="FreeSans" font-size="10.00">src/ApplicationInterface</text>
<text text-anchor="middle" x="743.5" y="-74.5" font-family="FreeSans" font-size="10.00">/InterfaceSparseUnitSphereReconstruction.h</text>
</a>
</g>
</g>
<!-- Node129&#45;&gt;Node130 -->
<g id="edge9" class="edge"><title>Node129&#45;&gt;Node130</title>
<path fill="none" stroke="midnightblue" d="M696.318,-127.311C706.819,-117.561 718.99,-106.259 728.341,-97.5765"/>
<polygon fill="midnightblue" stroke="midnightblue" points="693.635,-125.027 688.689,-134.396 698.399,-130.156 693.635,-125.027"/>
</g>
<!-- Node131 -->
<g id="node11" class="node"><title>Node131</title>
<g id="a_node11"><a xlink:href="AppSparseUnitSphereBuilder_8cpp.html" target="_top" xlink:title="src/Application/AppSparse\lUnitSphereBuilder.cpp">
<polygon fill="white" stroke="black" points="907.5,-0.5 907.5,-30.5 1039.5,-30.5 1039.5,-0.5 907.5,-0.5"/>
<text text-anchor="start" x="915.5" y="-18.5" font-family="FreeSans" font-size="10.00">src/Application/AppSparse</text>
<text text-anchor="middle" x="973.5" y="-7.5" font-family="FreeSans" font-size="10.00">UnitSphereBuilder.cpp</text>
</a>
</g>
</g>
<!-- Node130&#45;&gt;Node131 -->
<g id="edge10" class="edge"><title>Node130&#45;&gt;Node131</title>
<path fill="none" stroke="midnightblue" d="M802.893,-64.7149C840.322,-54.1373 888.1,-40.6348 923.569,-30.6109"/>
<polygon fill="midnightblue" stroke="midnightblue" points="801.795,-61.3883 793.123,-67.476 803.698,-68.1244 801.795,-61.3883"/>
</g>
<!-- Node132 -->
<g id="node12" class="node"><title>Node132</title>
<g id="a_node12"><a xlink:href="InterfaceSparseUnitSphereReconstruction_8cpp.html" target="_top" xlink:title="src/ApplicationInterface\l/InterfaceSparseUnitSphereReconstruction.cpp">
<polygon fill="white" stroke="black" points="633,-0.5 633,-30.5 854,-30.5 854,-0.5 633,-0.5"/>
<text text-anchor="start" x="641" y="-18.5" font-family="FreeSans" font-size="10.00">src/ApplicationInterface</text>
<text text-anchor="middle" x="743.5" y="-7.5" font-family="FreeSans" font-size="10.00">/InterfaceSparseUnitSphereReconstruction.cpp</text>
</a>
</g>
</g>
<!-- Node130&#45;&gt;Node132 -->
<g id="edge11" class="edge"><title>Node130&#45;&gt;Node132</title>
<path fill="none" stroke="midnightblue" d="M743.5,-57.1081C743.5,-48.1539 743.5,-38.3227 743.5,-30.5765"/>
<polygon fill="midnightblue" stroke="midnightblue" points="740,-57.3959 743.5,-67.396 747,-57.396 740,-57.3959"/>
</g>
<!-- Node135 -->
<g id="node15" class="node"><title>Node135</title>
<g id="a_node15"><a xlink:href="PfMPipeline_8h.html" target="_top" xlink:title="src/GeometryEstimationPipeline\l/PfMPipeline.h">
<polygon fill="white" stroke="black" points="126,-201.5 126,-231.5 281,-231.5 281,-201.5 126,-201.5"/>
<text text-anchor="start" x="134" y="-219.5" font-family="FreeSans" font-size="10.00">src/GeometryEstimationPipeline</text>
<text text-anchor="middle" x="203.5" y="-208.5" font-family="FreeSans" font-size="10.00">/PfMPipeline.h</text>
</a>
</g>
</g>
<!-- Node134&#45;&gt;Node135 -->
<g id="edge14" class="edge"><title>Node134&#45;&gt;Node135</title>
<path fill="none" stroke="midnightblue" d="M228.098,-259.576C222.641,-250.241 216.507,-239.748 211.729,-231.577"/>
<polygon fill="midnightblue" stroke="midnightblue" points="225.186,-261.529 233.255,-268.396 231.229,-257.997 225.186,-261.529"/>
</g>
<!-- Node135&#45;&gt;Node125 -->
<g id="edge15" class="edge"><title>Node135&#45;&gt;Node125</title>
<path fill="none" stroke="midnightblue" d="M226.332,-194.598C237.052,-184.783 249.547,-173.344 259.124,-164.577"/>
<polygon fill="midnightblue" stroke="midnightblue" points="223.918,-192.062 218.906,-201.396 228.645,-197.225 223.918,-192.062"/>
</g>
<!-- Node135&#45;&gt;Node127 -->
<g id="edge16" class="edge"><title>Node135&#45;&gt;Node127</title>
<path fill="none" stroke="midnightblue" d="M201.034,-190.962C196.559,-146.433 187.294,-54.2528 184.39,-25.3601"/>
<polygon fill="midnightblue" stroke="midnightblue" points="197.579,-191.589 202.062,-201.188 204.544,-190.889 197.579,-191.589"/>
</g>
<!-- Node136 -->
<g id="node16" class="node"><title>Node136</title>
<g id="a_node16"><a xlink:href="PfMPipeline_8cpp.html" target="_top" xlink:title="src/GeometryEstimationPipeline\l/PfMPipeline.cpp">
<polygon fill="white" stroke="black" points="0,-134.5 0,-164.5 155,-164.5 155,-134.5 0,-134.5"/>
<text text-anchor="start" x="8" y="-152.5" font-family="FreeSans" font-size="10.00">src/GeometryEstimationPipeline</text>
<text text-anchor="middle" x="77.5" y="-141.5" font-family="FreeSans" font-size="10.00">/PfMPipeline.cpp</text>
</a>
</g>
</g>
<!-- Node135&#45;&gt;Node136 -->
<g id="edge17" class="edge"><title>Node135&#45;&gt;Node136</title>
<path fill="none" stroke="midnightblue" d="M167.085,-196.714C147.213,-186.463 123.02,-173.983 104.787,-164.577"/>
<polygon fill="midnightblue" stroke="midnightblue" points="165.668,-199.922 176.16,-201.396 168.877,-193.701 165.668,-199.922"/>
</g>
<!-- Node138 -->
<g id="node18" class="node"><title>Node138</title>
<g id="a_node18"><a xlink:href="SparseUnitSphereReconstructionPipeline_8h.html" target="_top" xlink:title="src/GeometryEstimationPipeline\l/SparseUnitSphereReconstructionPipeline.h">
<polygon fill="white" stroke="black" points="787.5,-201.5 787.5,-231.5 993.5,-231.5 993.5,-201.5 787.5,-201.5"/>
<text text-anchor="start" x="795.5" y="-219.5" font-family="FreeSans" font-size="10.00">src/GeometryEstimationPipeline</text>
<text text-anchor="middle" x="890.5" y="-208.5" font-family="FreeSans" font-size="10.00">/SparseUnitSphereReconstructionPipeline.h</text>
</a>
</g>
</g>
<!-- Node137&#45;&gt;Node138 -->
<g id="edge19" class="edge"><title>Node137&#45;&gt;Node138</title>
<path fill="none" stroke="midnightblue" d="M727.029,-265.58C762.924,-255.022 808.587,-241.592 842.523,-231.611"/>
<polygon fill="midnightblue" stroke="midnightblue" points="725.788,-262.296 717.182,-268.476 727.763,-269.012 725.788,-262.296"/>
</g>
<!-- Node138&#45;&gt;Node129 -->
<g id="edge21" class="edge"><title>Node138&#45;&gt;Node129</title>
<path fill="none" stroke="midnightblue" d="M834.012,-198.58C798.767,-188.022 753.931,-174.592 720.609,-164.611"/>
<polygon fill="midnightblue" stroke="midnightblue" points="833.098,-201.959 843.681,-201.476 835.106,-195.254 833.098,-201.959"/>
</g>
<!-- Node138&#45;&gt;Node131 -->
<g id="edge20" class="edge"><title>Node138&#45;&gt;Node131</title>
<path fill="none" stroke="midnightblue" d="M951.745,-197.129C966.641,-189.622 980.779,-179.239 989.5,-165 1015.77,-122.102 993.038,-58.9407 980.484,-30.8631"/>
<polygon fill="midnightblue" stroke="midnightblue" points="950.024,-194.068 942.414,-201.44 952.96,-200.423 950.024,-194.068"/>
</g>
<!-- Node139 -->
<g id="node19" class="node"><title>Node139</title>
<g id="a_node19"><a xlink:href="SparseUnitSphereReconstructionPipeline_8cpp.html" target="_top" xlink:title="src/GeometryEstimationPipeline\l/SparseUnitSphereReconstructionPipeline.cpp">
<polygon fill="white" stroke="black" points="1037,-134.5 1037,-164.5 1254,-164.5 1254,-134.5 1037,-134.5"/>
<text text-anchor="start" x="1045" y="-152.5" font-family="FreeSans" font-size="10.00">src/GeometryEstimationPipeline</text>
<text text-anchor="middle" x="1145.5" y="-141.5" font-family="FreeSans" font-size="10.00">/SparseUnitSphereReconstructionPipeline.cpp</text>
</a>
</g>
</g>
<!-- Node138&#45;&gt;Node139 -->
<g id="edge22" class="edge"><title>Node138&#45;&gt;Node139</title>
<path fill="none" stroke="midnightblue" d="M955.292,-198.984C996.943,-188.367 1050.48,-174.72 1090.14,-164.611"/>
<polygon fill="midnightblue" stroke="midnightblue" points="954.343,-195.614 945.517,-201.476 956.072,-202.397 954.343,-195.614"/>
</g>
<!-- Node140 -->
<g id="node20" class="node"><title>Node140</title>
<g id="a_node20"><a xlink:href="TestGeometryEstimationPipeline_8cpp.html" target="_top" xlink:title="src/GeometryEstimationPipeline\l/TestGeometryEstimationPipeline.cpp">
<polygon fill="white" stroke="black" points="801,-134.5 801,-164.5 980,-164.5 980,-134.5 801,-134.5"/>
<text text-anchor="start" x="809" y="-152.5" font-family="FreeSans" font-size="10.00">src/GeometryEstimationPipeline</text>
<text text-anchor="middle" x="890.5" y="-141.5" font-family="FreeSans" font-size="10.00">/TestGeometryEstimationPipeline.cpp</text>
</a>
</g>
</g>
<!-- Node138&#45;&gt;Node140 -->
<g id="edge23" class="edge"><title>Node138&#45;&gt;Node140</title>
<path fill="none" stroke="midnightblue" d="M890.5,-191.108C890.5,-182.154 890.5,-172.323 890.5,-164.577"/>
<polygon fill="midnightblue" stroke="midnightblue" points="887,-191.396 890.5,-201.396 894,-191.396 887,-191.396"/>
</g>
</g>
</svg>
        <g id="navigator" transform="translate(0 0)" fill="#404254">
                <rect fill="#f2f5e9" fill-opacity="0.5" stroke="#606060" stroke-width=".5" x="0" y="0" width="60" height="60"/>
                <use id="zoomplus" xlink:href="#zoomPlus" x="17" y="9" onmousedown="handleZoom(evt,'in')"/>
                <use id="zoomminus" xlink:href="#zoomMin" x="42" y="9" onmousedown="handleZoom(evt,'out')"/>
                <use id="reset" xlink:href="#resetDef" x="30" y="36" onmousedown="handleReset()"/>
                <g id="arrowUp" xlink:href="#dirArrow" transform="translate(30 24)" onmousedown="handlePan(0,-1)">
                  <use xlink:href="#rim" fill="#404040">
                        <set attributeName="fill" to="#808080" begin="arrowUp.mouseover" end="arrowUp.mouseout"/>
                  </use>
                  <path fill="none" stroke="white" stroke-width="1.5" d="M0,-3.0v7 M-2.5,-0.5L0,-3.0L2.5,-0.5"/>
                </g>
                <g id="arrowRight" xlink:href="#dirArrow" transform="rotate(90) translate(36 -43)" onmousedown="handlePan(1,0)">
                  <use xlink:href="#rim" fill="#404040">
                        <set attributeName="fill" to="#808080" begin="arrowRight.mouseover" end="arrowRight.mouseout"/>
                  </use>
                  <path fill="none" stroke="white" stroke-width="1.5" d="M0,-3.0v7 M-2.5,-0.5L0,-3.0L2.5,-0.5"/>
                </g>
                <g id="arrowDown" xlink:href="#dirArrow" transform="rotate(180) translate(-30 -48)" onmousedown="handlePan(0,1)">
                  <use xlink:href="#rim" fill="#404040">
                        <set attributeName="fill" to="#808080" begin="arrowDown.mouseover" end="arrowDown.mouseout"/>
                  </use>
                  <path fill="none" stroke="white" stroke-width="1.5" d="M0,-3.0v7 M-2.5,-0.5L0,-3.0L2.5,-0.5"/>
                </g>
                <g id="arrowLeft" xlink:href="#dirArrow" transform="rotate(270) translate(-36 17)" onmousedown="handlePan(-1,0)">
                  <use xlink:href="#rim" fill="#404040">
                        <set attributeName="fill" to="#808080" begin="arrowLeft.mouseover" end="arrowLeft.mouseout"/>
                  </use>
                  <path fill="none" stroke="white" stroke-width="1.5" d="M0,-3.0v7 M-2.5,-0.5L0,-3.0L2.5,-0.5"/>
                </g>
        </g>
        <svg viewBox="0 0 15 15" width="100%" height="30px" preserveAspectRatio="xMaxYMin meet">
         <g id="arrow_out" transform="scale(0.3 0.3)">
          <a xlink:href="MultiviewPanoramaBuilder_8ipp__dep__incl_org.svg" target="_base">
           <rect id="button" ry="5" rx="5" y="6" x="6" height="38" width="38"
                fill="#f2f5e9" fill-opacity="0.5" stroke="#606060" stroke-width="1.0"/>
           <path id="arrow"
             d="M 11.500037,31.436501 C 11.940474,20.09759 22.043105,11.32322 32.158766,21.979434 L 37.068811,17.246167 C 37.068811,17.246167 37.088388,32 37.088388,32 L 22.160133,31.978069 C 22.160133,31.978069 26.997745,27.140456 26.997745,27.140456 C 18.528582,18.264221 13.291696,25.230495 11.500037,31.436501 z"
             style="fill:#404040;"/>
          </a>
         </g>
        </svg>
</svg>
