<?xml version="1.0" encoding="UTF-8" standalone="no"?>
<!DOCTYPE svg PUBLIC "-//W3C//DTD SVG 1.1//EN"
 "http://www.w3.org/Graphics/SVG/1.1/DTD/svg11.dtd">
<!-- Generated by graphviz version 2.38.0 (20140413.2041)
 -->
<!-- Title: SeeSawN::GeometryN::MakeGeometryEstimationPipelineFundamental8Problem Pages: 1 -->
<svg width="682pt" height="230pt"
 viewBox="0.00 0.00 682.00 230.00" xmlns="http://www.w3.org/2000/svg" xmlns:xlink="http://www.w3.org/1999/xlink">
<g id="graph0" class="graph" transform="scale(1 1) rotate(0) translate(4 226)">
<title>SeeSawN::GeometryN::MakeGeometryEstimationPipelineFundamental8Problem</title>
<polygon fill="white" stroke="none" points="-4,4 -4,-226 678,-226 678,4 -4,4"/>
<!-- Node78 -->
<g id="node1" class="node"><title>Node78</title>
<polygon fill="#bfbfbf" stroke="black" points="0,-90.5 0,-131.5 167,-131.5 167,-90.5 0,-90.5"/>
<text text-anchor="start" x="8" y="-119.5" font-family="FreeSans" font-size="10.00">SeeSawN::GeometryN</text>
<text text-anchor="start" x="8" y="-108.5" font-family="FreeSans" font-size="10.00">::MakeGeometryEstimationPipeline</text>
<text text-anchor="middle" x="83.5" y="-97.5" font-family="FreeSans" font-size="10.00">Fundamental8Problem</text>
</g>
<!-- Node79 -->
<g id="node2" class="node"><title>Node79</title>
<g id="a_node2"><a xlink:href="group__Fundamental7.html#gab208648dd6b26ce5aa35335d212f90c3" target="_top" xlink:title="Makes a RANSAC problem for 8&#45;point fundamental matrix estimation. ">
<polygon fill="white" stroke="black" points="203,-96 203,-126 387,-126 387,-96 203,-96"/>
<text text-anchor="start" x="211" y="-114" font-family="FreeSans" font-size="10.00">SeeSawN::GeometryN</text>
<text text-anchor="middle" x="295" y="-103" font-family="FreeSans" font-size="10.00">::MakeRANSACFundamental8Problem</text>
</a>
</g>
</g>
<!-- Node78&#45;&gt;Node79 -->
<g id="edge1" class="edge"><title>Node78&#45;&gt;Node79</title>
<path fill="none" stroke="midnightblue" d="M177.497,-111C185.911,-111 194.427,-111 202.824,-111"/>
<polygon fill="midnightblue" stroke="midnightblue" points="177.3,-107.5 167.3,-111 177.3,-114.5 177.3,-107.5"/>
</g>
<!-- Node80 -->
<g id="node3" class="node"><title>Node80</title>
<g id="a_node3"><a xlink:href="classSeeSawN_1_1AppMultimodelGeometryEstimator22N_1_1AppMultimodelGeometryEstimator22ImplementationC.html#ab03ab92c9a3d864079fb9b9474f7be91" target="_top" xlink:title="Runs the essential matrix estimation pipeline. ">
<polygon fill="white" stroke="black" points="423,-180.5 423,-221.5 674,-221.5 674,-180.5 423,-180.5"/>
<text text-anchor="start" x="431" y="-209.5" font-family="FreeSans" font-size="10.00">SeeSawN::AppMultimodelGeometry</text>
<text text-anchor="start" x="431" y="-198.5" font-family="FreeSans" font-size="10.00">Estimator22N::AppMultimodelGeometry</text>
<text text-anchor="middle" x="548.5" y="-187.5" font-family="FreeSans" font-size="10.00">Estimator22ImplementationC::ComputeEssentialMatrix</text>
</a>
</g>
</g>
<!-- Node79&#45;&gt;Node80 -->
<g id="edge2" class="edge"><title>Node79&#45;&gt;Node80</title>
<path fill="none" stroke="midnightblue" d="M332.633,-130.767C357.558,-143.597 391.595,-159.929 423,-171 432.646,-174.4 442.845,-177.547 453.087,-180.422"/>
<polygon fill="midnightblue" stroke="midnightblue" points="334.037,-127.552 323.551,-126.039 330.805,-133.761 334.037,-127.552"/>
</g>
<!-- Node81 -->
<g id="node4" class="node"><title>Node81</title>
<g id="a_node4"><a xlink:href="classSeeSawN_1_1AppGeometryEstimator22N_1_1GeometryEstimator22ImplementationC.html#a6985afd1f2ed1f609e05d8ef61510aef" target="_top" xlink:title="Runs the essential matrix estimation pipeline. ">
<polygon fill="white" stroke="black" points="454,-120.5 454,-161.5 643,-161.5 643,-120.5 454,-120.5"/>
<text text-anchor="start" x="462" y="-149.5" font-family="FreeSans" font-size="10.00">SeeSawN::AppGeometryEstimator22</text>
<text text-anchor="start" x="462" y="-138.5" font-family="FreeSans" font-size="10.00">N::GeometryEstimator22Implementation</text>
<text text-anchor="middle" x="548.5" y="-127.5" font-family="FreeSans" font-size="10.00">C::ComputeEssentialMatrix</text>
</a>
</g>
</g>
<!-- Node79&#45;&gt;Node81 -->
<g id="edge3" class="edge"><title>Node79&#45;&gt;Node81</title>
<path fill="none" stroke="midnightblue" d="M397.14,-123.064C415.818,-125.292 435.249,-127.61 453.698,-129.811"/>
<polygon fill="midnightblue" stroke="midnightblue" points="397.497,-119.582 387.153,-121.873 396.668,-126.533 397.497,-119.582"/>
</g>
<!-- Node82 -->
<g id="node5" class="node"><title>Node82</title>
<g id="a_node5"><a xlink:href="classSeeSawN_1_1AppGeometryEstimator22N_1_1GeometryEstimator22ImplementationC.html#a99becb13b443e05aba08a38af830ee97" target="_top" xlink:title="Runs the one&#45;sided fundamental matrix estimation pipeline, with known first camera. ">
<polygon fill="white" stroke="black" points="452.5,-60.5 452.5,-101.5 644.5,-101.5 644.5,-60.5 452.5,-60.5"/>
<text text-anchor="start" x="460.5" y="-89.5" font-family="FreeSans" font-size="10.00">SeeSawN::AppGeometryEstimator22</text>
<text text-anchor="start" x="460.5" y="-78.5" font-family="FreeSans" font-size="10.00">N::GeometryEstimator22Implementation</text>
<text text-anchor="middle" x="548.5" y="-67.5" font-family="FreeSans" font-size="10.00">C::ComputeOneSidedFundamentalMatrix</text>
</a>
</g>
</g>
<!-- Node79&#45;&gt;Node82 -->
<g id="edge4" class="edge"><title>Node79&#45;&gt;Node82</title>
<path fill="none" stroke="midnightblue" d="M397.197,-98.9288C415.428,-96.7541 434.376,-94.494 452.425,-92.341"/>
<polygon fill="midnightblue" stroke="midnightblue" points="396.668,-95.467 387.153,-100.127 397.497,-102.418 396.668,-95.467"/>
</g>
<!-- Node83 -->
<g id="node6" class="node"><title>Node83</title>
<g id="a_node6"><a xlink:href="classSeeSawN_1_1GeometryN_1_1VisionGraphPipelineC.html#a813ab5581d53eef94b2244e1591223a5" target="_top" xlink:title="Essential matrix estimation. ">
<polygon fill="white" stroke="black" points="490.5,-0.5 490.5,-41.5 606.5,-41.5 606.5,-0.5 490.5,-0.5"/>
<text text-anchor="start" x="498.5" y="-29.5" font-family="FreeSans" font-size="10.00">SeeSawN::GeometryN</text>
<text text-anchor="start" x="498.5" y="-18.5" font-family="FreeSans" font-size="10.00">::VisionGraphPipelineC</text>
<text text-anchor="middle" x="548.5" y="-7.5" font-family="FreeSans" font-size="10.00">::EstimateGeometry</text>
</a>
</g>
</g>
<!-- Node79&#45;&gt;Node83 -->
<g id="edge5" class="edge"><title>Node79&#45;&gt;Node83</title>
<path fill="none" stroke="midnightblue" d="M332.633,-91.2332C357.558,-78.4027 391.595,-62.0706 423,-51 444.598,-43.3867 468.97,-37.0433 490.388,-32.1804"/>
<polygon fill="midnightblue" stroke="midnightblue" points="330.805,-88.239 323.551,-95.9609 334.037,-94.4481 330.805,-88.239"/>
</g>
</g>
</svg>
