<?xml version="1.0" encoding="UTF-8" standalone="no"?>
<!DOCTYPE svg PUBLIC "-//W3C//DTD SVG 1.1//EN"
 "http://www.w3.org/Graphics/SVG/1.1/DTD/svg11.dtd">
<!-- Generated by graphviz version 2.38.0 (20140413.2041)
 -->
<!-- Title: SeeSawN::UnitTestsN::TestGeometryN::BOOST_AUTO_TEST_CASE Pages: 1 -->
<svg width="531pt" height="500pt"
 viewBox="0.00 0.00 531.00 500.00" xmlns="http://www.w3.org/2000/svg" xmlns:xlink="http://www.w3.org/1999/xlink">
<g id="graph0" class="graph" transform="scale(1 1) rotate(0) translate(4 496)">
<title>SeeSawN::UnitTestsN::TestGeometryN::BOOST_AUTO_TEST_CASE</title>
<polygon fill="white" stroke="none" points="-4,4 -4,-496 527,-496 527,4 -4,4"/>
<!-- Node183 -->
<g id="node1" class="node"><title>Node183</title>
<polygon fill="#bfbfbf" stroke="black" points="0,-210.5 0,-251.5 129,-251.5 129,-210.5 0,-210.5"/>
<text text-anchor="start" x="8" y="-239.5" font-family="FreeSans" font-size="10.00">SeeSawN::UnitTestsN</text>
<text text-anchor="start" x="8" y="-228.5" font-family="FreeSans" font-size="10.00">::TestGeometryN::BOOST</text>
<text text-anchor="middle" x="64.5" y="-217.5" font-family="FreeSans" font-size="10.00">_AUTO_TEST_CASE</text>
</g>
<!-- Node184 -->
<g id="node2" class="node"><title>Node184</title>
<g id="a_node2"><a xlink:href="classSeeSawN_1_1GeometryN_1_1Rotation3DSolverC.html#a5002329b102cc22f5de23daeacb322ee" target="_top" xlink:title="Computes the distance between two models. ">
<polygon fill="white" stroke="black" points="188,-360.5 188,-401.5 303,-401.5 303,-360.5 188,-360.5"/>
<text text-anchor="start" x="196" y="-389.5" font-family="FreeSans" font-size="10.00">SeeSawN::GeometryN</text>
<text text-anchor="start" x="196" y="-378.5" font-family="FreeSans" font-size="10.00">::Rotation3DSolverC</text>
<text text-anchor="middle" x="245.5" y="-367.5" font-family="FreeSans" font-size="10.00">::ComputeDistance</text>
</a>
</g>
</g>
<!-- Node183&#45;&gt;Node184 -->
<g id="edge1" class="edge"><title>Node183&#45;&gt;Node184</title>
<path fill="none" stroke="midnightblue" d="M77.7868,-251.631C94.4754,-278.043 126.665,-323.651 165,-351 169.244,-354.028 173.832,-356.792 178.588,-359.307"/>
<polygon fill="midnightblue" stroke="midnightblue" points="177.37,-362.607 187.893,-363.84 180.436,-356.314 177.37,-362.607"/>
</g>
<!-- Node186 -->
<g id="node4" class="node"><title>Node186</title>
<g id="a_node4"><a xlink:href="structSeeSawN_1_1UncertaintyEstimationN_1_1MultivariateGaussianC.html#ae747d560b5913f0090ad08d9b734f12a" target="_top" xlink:title="Computes the Mahalonobis distance between the mean and a sample. ">
<polygon fill="white" stroke="black" points="165,-420.5 165,-461.5 326,-461.5 326,-420.5 165,-420.5"/>
<text text-anchor="start" x="173" y="-449.5" font-family="FreeSans" font-size="10.00">SeeSawN::UncertaintyEstimation</text>
<text text-anchor="start" x="173" y="-438.5" font-family="FreeSans" font-size="10.00">N::MultivariateGaussianC</text>
<text text-anchor="middle" x="245.5" y="-427.5" font-family="FreeSans" font-size="10.00">::ComputeMahalonobisDistance</text>
</a>
</g>
</g>
<!-- Node183&#45;&gt;Node186 -->
<g id="edge3" class="edge"><title>Node183&#45;&gt;Node186</title>
<path fill="none" stroke="midnightblue" d="M71.6061,-251.579C83.5812,-288.549 113.563,-366.49 165,-411 166.506,-412.303 168.074,-413.552 169.694,-414.75"/>
<polygon fill="midnightblue" stroke="midnightblue" points="167.891,-417.753 178.172,-420.312 171.731,-411.9 167.891,-417.753"/>
</g>
<!-- Node189 -->
<g id="node7" class="node"><title>Node189</title>
<g id="a_node7"><a xlink:href="classSeeSawN_1_1GeometryN_1_1Rotation3DSolverC.html#abf62c49182b116e716cf7ccfee04105b" target="_top" xlink:title="Computes the sample statistics for a set of rotations. ">
<polygon fill="white" stroke="black" points="178.5,-300.5 178.5,-341.5 312.5,-341.5 312.5,-300.5 178.5,-300.5"/>
<text text-anchor="start" x="186.5" y="-329.5" font-family="FreeSans" font-size="10.00">SeeSawN::GeometryN</text>
<text text-anchor="start" x="186.5" y="-318.5" font-family="FreeSans" font-size="10.00">::Rotation3DSolverC</text>
<text text-anchor="middle" x="245.5" y="-307.5" font-family="FreeSans" font-size="10.00">::ComputeSampleStatistics</text>
</a>
</g>
</g>
<!-- Node183&#45;&gt;Node189 -->
<g id="edge6" class="edge"><title>Node183&#45;&gt;Node189</title>
<path fill="none" stroke="midnightblue" d="M96.4964,-251.695C115.728,-264.024 141.225,-279.465 165,-291 168.807,-292.847 172.76,-294.657 176.777,-296.415"/>
<polygon fill="midnightblue" stroke="midnightblue" points="175.657,-299.742 186.23,-300.416 178.385,-293.295 175.657,-299.742"/>
</g>
<!-- Node190 -->
<g id="node8" class="node"><title>Node190</title>
<g id="a_node8"><a xlink:href="structSeeSawN_1_1UncertaintyEstimationN_1_1MultivariateGaussianC.html#a4d5857641cf89f71dd418a939b0efcc0" target="_top" xlink:title="Returns a constant reference to mean. ">
<polygon fill="white" stroke="black" points="165,-240.5 165,-281.5 326,-281.5 326,-240.5 165,-240.5"/>
<text text-anchor="start" x="173" y="-269.5" font-family="FreeSans" font-size="10.00">SeeSawN::UncertaintyEstimation</text>
<text text-anchor="start" x="173" y="-258.5" font-family="FreeSans" font-size="10.00">N::MultivariateGaussianC</text>
<text text-anchor="middle" x="245.5" y="-247.5" font-family="FreeSans" font-size="10.00">::GetMean</text>
</a>
</g>
</g>
<!-- Node183&#45;&gt;Node190 -->
<g id="edge7" class="edge"><title>Node183&#45;&gt;Node190</title>
<path fill="none" stroke="midnightblue" d="M129.113,-241.661C137.419,-243.053 146.05,-244.5 154.685,-245.947"/>
<polygon fill="midnightblue" stroke="midnightblue" points="154.364,-249.442 164.805,-247.643 155.521,-242.538 154.364,-249.442"/>
</g>
<!-- Node191 -->
<g id="node9" class="node"><title>Node191</title>
<g id="a_node9"><a xlink:href="classSeeSawN_1_1GeometryN_1_1Rotation3DSolverC.html#a5214f411c7e084b9c6037574f712514e" target="_top" xlink:title="Converts a model to the minimal form. ">
<polygon fill="white" stroke="black" points="188,-180.5 188,-221.5 303,-221.5 303,-180.5 188,-180.5"/>
<text text-anchor="start" x="196" y="-209.5" font-family="FreeSans" font-size="10.00">SeeSawN::GeometryN</text>
<text text-anchor="start" x="196" y="-198.5" font-family="FreeSans" font-size="10.00">::Rotation3DSolverC</text>
<text text-anchor="middle" x="245.5" y="-187.5" font-family="FreeSans" font-size="10.00">::MakeMinimal</text>
</a>
</g>
</g>
<!-- Node183&#45;&gt;Node191 -->
<g id="edge8" class="edge"><title>Node183&#45;&gt;Node191</title>
<path fill="none" stroke="midnightblue" d="M129.113,-220.339C144.857,-217.7 161.771,-214.865 177.664,-212.202"/>
<polygon fill="midnightblue" stroke="midnightblue" points="178.654,-215.584 187.938,-210.48 177.497,-208.681 178.654,-215.584"/>
</g>
<!-- Node192 -->
<g id="node10" class="node"><title>Node192</title>
<g id="a_node10"><a xlink:href="classSeeSawN_1_1GeometryN_1_1Rotation3DSolverC.html#ab7832332977d46c82815656a5d78aed5" target="_top" xlink:title="Converts a vector to a model. ">
<polygon fill="white" stroke="black" points="188,-120.5 188,-161.5 303,-161.5 303,-120.5 188,-120.5"/>
<text text-anchor="start" x="196" y="-149.5" font-family="FreeSans" font-size="10.00">SeeSawN::GeometryN</text>
<text text-anchor="start" x="196" y="-138.5" font-family="FreeSans" font-size="10.00">::Rotation3DSolverC</text>
<text text-anchor="middle" x="245.5" y="-127.5" font-family="FreeSans" font-size="10.00">::MakeModel</text>
</a>
</g>
</g>
<!-- Node183&#45;&gt;Node192 -->
<g id="edge9" class="edge"><title>Node183&#45;&gt;Node192</title>
<path fill="none" stroke="midnightblue" d="M96.4964,-210.305C115.728,-197.976 141.225,-182.535 165,-171 169.334,-168.897 173.856,-166.842 178.448,-164.858"/>
<polygon fill="midnightblue" stroke="midnightblue" points="180.058,-167.979 187.932,-160.89 177.356,-161.521 180.058,-167.979"/>
</g>
<!-- Node193 -->
<g id="node11" class="node"><title>Node193</title>
<g id="a_node11"><a xlink:href="classSeeSawN_1_1GeometryN_1_1Rotation3DSolverC.html#a77e155e42330d5bee60ba3b7aad31fcb" target="_top" xlink:title="Minimal form to matrix conversion. ">
<polygon fill="white" stroke="black" points="181.5,-0.5 181.5,-41.5 309.5,-41.5 309.5,-0.5 181.5,-0.5"/>
<text text-anchor="start" x="189.5" y="-29.5" font-family="FreeSans" font-size="10.00">SeeSawN::GeometryN</text>
<text text-anchor="start" x="189.5" y="-18.5" font-family="FreeSans" font-size="10.00">::Rotation3DSolverC</text>
<text text-anchor="middle" x="245.5" y="-7.5" font-family="FreeSans" font-size="10.00">::MakeModelFromMinimal</text>
</a>
</g>
</g>
<!-- Node183&#45;&gt;Node193 -->
<g id="edge10" class="edge"><title>Node183&#45;&gt;Node193</title>
<path fill="none" stroke="midnightblue" d="M71.6061,-210.421C83.5812,-173.451 113.563,-95.51 165,-51 167.377,-48.9427 169.91,-47.02 172.556,-45.2238"/>
<polygon fill="midnightblue" stroke="midnightblue" points="174.595,-48.0807 181.337,-39.9075 170.969,-42.0926 174.595,-48.0807"/>
</g>
<!-- Node195 -->
<g id="node13" class="node"><title>Node195</title>
<g id="a_node13"><a xlink:href="classSeeSawN_1_1GeometryN_1_1Rotation3DSolverC.html#a0ca9990c84efbb83fb66f2d65a004b34" target="_top" xlink:title="Converts a model to a vector. ">
<polygon fill="white" stroke="black" points="188,-60.5 188,-101.5 303,-101.5 303,-60.5 188,-60.5"/>
<text text-anchor="start" x="196" y="-89.5" font-family="FreeSans" font-size="10.00">SeeSawN::GeometryN</text>
<text text-anchor="start" x="196" y="-78.5" font-family="FreeSans" font-size="10.00">::Rotation3DSolverC</text>
<text text-anchor="middle" x="245.5" y="-67.5" font-family="FreeSans" font-size="10.00">::MakeVector</text>
</a>
</g>
</g>
<!-- Node183&#45;&gt;Node195 -->
<g id="edge12" class="edge"><title>Node183&#45;&gt;Node195</title>
<path fill="none" stroke="midnightblue" d="M77.7868,-210.369C94.4754,-183.957 126.665,-138.349 165,-111 169.244,-107.972 173.832,-105.208 178.588,-102.693"/>
<polygon fill="midnightblue" stroke="midnightblue" points="180.436,-105.686 187.893,-98.1602 177.37,-99.3931 180.436,-105.686"/>
</g>
<!-- Node185 -->
<g id="node3" class="node"><title>Node185</title>
<g id="a_node3"><a xlink:href="classSeeSawN_1_1GeometryN_1_1Rotation3DSolverC.html#a0a2b6c0c106ad9ecd19f455fc39293ab" target="_top" xlink:title="Extracts the rotation component from a model. ">
<polygon fill="white" stroke="black" points="385,-195.5 385,-236.5 500,-236.5 500,-195.5 385,-195.5"/>
<text text-anchor="start" x="393" y="-224.5" font-family="FreeSans" font-size="10.00">SeeSawN::GeometryN</text>
<text text-anchor="start" x="393" y="-213.5" font-family="FreeSans" font-size="10.00">::Rotation3DSolverC</text>
<text text-anchor="middle" x="442.5" y="-202.5" font-family="FreeSans" font-size="10.00">::ExtractRotation</text>
</a>
</g>
</g>
<!-- Node184&#45;&gt;Node185 -->
<g id="edge2" class="edge"><title>Node184&#45;&gt;Node185</title>
<path fill="none" stroke="midnightblue" d="M303.038,-363.743C311.086,-360.143 318.997,-355.915 326,-351 367.132,-322.132 402.689,-275.331 423.109,-245.115"/>
<polygon fill="midnightblue" stroke="midnightblue" points="426.09,-246.952 428.704,-236.684 420.258,-243.081 426.09,-246.952"/>
</g>
<!-- Node187 -->
<g id="node5" class="node"><title>Node187</title>
<g id="a_node5"><a xlink:href="structSeeSawN_1_1UncertaintyEstimationN_1_1MultivariateGaussianC.html#ae849d1b5fab0ddcd465d8046f4c734c2" target="_top" xlink:title="Initialises inverseCovariance and related variables. ">
<polygon fill="white" stroke="black" points="362,-450.5 362,-491.5 523,-491.5 523,-450.5 362,-450.5"/>
<text text-anchor="start" x="370" y="-479.5" font-family="FreeSans" font-size="10.00">SeeSawN::UncertaintyEstimation</text>
<text text-anchor="start" x="370" y="-468.5" font-family="FreeSans" font-size="10.00">N::MultivariateGaussianC</text>
<text text-anchor="middle" x="442.5" y="-457.5" font-family="FreeSans" font-size="10.00">::InitialiseInverse</text>
</a>
</g>
</g>
<!-- Node186&#45;&gt;Node187 -->
<g id="edge4" class="edge"><title>Node186&#45;&gt;Node187</title>
<path fill="none" stroke="midnightblue" d="M326.095,-453.245C334.573,-454.55 343.237,-455.883 351.821,-457.203"/>
<polygon fill="midnightblue" stroke="midnightblue" points="351.427,-460.684 361.843,-458.745 352.492,-453.765 351.427,-460.684"/>
</g>
<!-- Node188 -->
<g id="node6" class="node"><title>Node188</title>
<g id="a_node6"><a xlink:href="structSeeSawN_1_1UncertaintyEstimationN_1_1MultivariateGaussianC.html#ae1ebc044c789ead55486e00b49c28b26" target="_top" xlink:title="true if the mean and the covariance are set ">
<polygon fill="white" stroke="black" points="362,-390.5 362,-431.5 523,-431.5 523,-390.5 362,-390.5"/>
<text text-anchor="start" x="370" y="-419.5" font-family="FreeSans" font-size="10.00">SeeSawN::UncertaintyEstimation</text>
<text text-anchor="start" x="370" y="-408.5" font-family="FreeSans" font-size="10.00">N::MultivariateGaussianC</text>
<text text-anchor="middle" x="442.5" y="-397.5" font-family="FreeSans" font-size="10.00">::IsValid</text>
</a>
</g>
</g>
<!-- Node186&#45;&gt;Node188 -->
<g id="edge5" class="edge"><title>Node186&#45;&gt;Node188</title>
<path fill="none" stroke="midnightblue" d="M326.095,-428.755C334.573,-427.45 343.237,-426.117 351.821,-424.797"/>
<polygon fill="midnightblue" stroke="midnightblue" points="352.492,-428.235 361.843,-423.255 351.427,-421.316 352.492,-428.235"/>
</g>
<!-- Node194 -->
<g id="node12" class="node"><title>Node194</title>
<g id="a_node12"><a xlink:href="group__Utility.html#gaf5928fe176f13d5147a804449d60e1e6" target="_top" xlink:title="Converts a rotation vector to an axis&#45;angle object. ">
<polygon fill="white" stroke="black" points="372.5,-6 372.5,-36 512.5,-36 512.5,-6 372.5,-6"/>
<text text-anchor="start" x="380.5" y="-24" font-family="FreeSans" font-size="10.00">SeeSawN::GeometryN</text>
<text text-anchor="middle" x="442.5" y="-13" font-family="FreeSans" font-size="10.00">::RotationVectorToAxisAngle</text>
</a>
</g>
</g>
<!-- Node193&#45;&gt;Node194 -->
<g id="edge11" class="edge"><title>Node193&#45;&gt;Node194</title>
<path fill="none" stroke="midnightblue" d="M309.542,-21C326.285,-21 344.584,-21 362.078,-21"/>
<polygon fill="midnightblue" stroke="midnightblue" points="362.268,-24.5001 372.268,-21 362.268,-17.5001 362.268,-24.5001"/>
</g>
<!-- Node195&#45;&gt;Node185 -->
<g id="edge13" class="edge"><title>Node195&#45;&gt;Node185</title>
<path fill="none" stroke="midnightblue" d="M303.351,-99.4236C311.187,-102.825 318.954,-106.687 326,-111 360.678,-132.229 394.382,-164.642 416.341,-187.836"/>
<polygon fill="midnightblue" stroke="midnightblue" points="413.941,-190.395 423.322,-195.319 419.06,-185.62 413.941,-190.395"/>
</g>
</g>
</svg>
