<?xml version="1.0" encoding="UTF-8" standalone="no"?>
<!DOCTYPE svg PUBLIC "-//W3C//DTD SVG 1.1//EN"
 "http://www.w3.org/Graphics/SVG/1.1/DTD/svg11.dtd">
<!-- Generated by graphviz version 2.38.0 (20140413.2041)
 -->
<!-- Title: SeeSawN::UnitTestsN::TestGeometryN::BOOST_AUTO_TEST_CASE Pages: 1 -->
<!--zoomable 149 -->
<svg id="main" version="1.1" xmlns="http://www.w3.org/2000/svg" xmlns:xlink="http://www.w3.org/1999/xlink" xml:space="preserve" onload="init(evt)">
<style type="text/css"><![CDATA[
.edge:hover path { stroke: red; }
.edge:hover polygon { stroke: red; fill: red; }
]]></style>
<script type="text/javascript"><![CDATA[
var edges = document.getElementsByTagName('g');
if (edges && edges.length) {
  for (var i=0;i<edges.length;i++) {
    if (edges[i].id.substr(0,4)=='edge') {
      edges[i].setAttribute('class','edge');
    }
  }
}
]]></script>
        <defs>
                <circle id="rim" cx="0" cy="0" r="7"/>
                <circle id="rim2" cx="0" cy="0" r="3.5"/>
                <g id="zoomPlus">
                        <use xlink:href="#rim" fill="#404040">
                                <set attributeName="fill" to="#808080" begin="zoomplus.mouseover" end="zoomplus.mouseout"/>
                        </use>
                        <path d="M-4,0h8M0,-4v8" fill="none" stroke="white" stroke-width="1.5" pointer-events="none"/>
                </g>
                <g id="zoomMin">
                        <use xlink:href="#rim" fill="#404040">
                                <set attributeName="fill" to="#808080" begin="zoomminus.mouseover" end="zoomminus.mouseout"/>
                        </use>
                        <path d="M-4,0h8" fill="none" stroke="white" stroke-width="1.5" pointer-events="none"/>
                </g>
                <g id="dirArrow">
                        <path fill="none" stroke="white" stroke-width="1.5" d="M0,-3.0v7 M-2.5,-0.5L0,-3.0L2.5,-0.5"/>
                </g>
               <g id="resetDef">
                       <use xlink:href="#rim2" fill="#404040">
                               <set attributeName="fill" to="#808080" begin="reset.mouseover" end="reset.mouseout"/>
                       </use>
               </g>
        </defs>

<script type="text/javascript">
var viewWidth = 503;
var viewHeight = 149;
var sectionId = 'dynsection-24';
</script>
<script xlink:href="svgpan.js"/>
<svg id="graph" class="graph">
<g id="viewport">
<title>SeeSawN::UnitTestsN::TestGeometryN::BOOST_AUTO_TEST_CASE</title>
<polygon fill="white" stroke="none" points="-4,4 -4,-144.5 499,-144.5 499,4 -4,4"/>
<!-- Node353 -->
<g id="node1" class="node"><title>Node353</title>
<polygon fill="#bfbfbf" stroke="black" points="0,-79.5 0,-120.5 129,-120.5 129,-79.5 0,-79.5"/>
<text text-anchor="start" x="8" y="-108.5" font-family="FreeSans" font-size="10.00">SeeSawN::UnitTestsN</text>
<text text-anchor="start" x="8" y="-97.5" font-family="FreeSans" font-size="10.00">::TestGeometryN::BOOST</text>
<text text-anchor="middle" x="64.5" y="-86.5" font-family="FreeSans" font-size="10.00">_AUTO_TEST_CASE</text>
</g>
<!-- Node354 -->
<g id="node2" class="node"><title>Node354</title>
<g id="a_node2"><a xlink:href="group__Elements.html#gaed97416c6eb370835de21c7c7d9942dd" target="_top" xlink:title="Composes a camera matrix. ">
<polygon fill="white" stroke="black" points="169.5,-110 169.5,-140 291.5,-140 291.5,-110 169.5,-110"/>
<text text-anchor="start" x="177.5" y="-128" font-family="FreeSans" font-size="10.00">SeeSawN::ElementsN</text>
<text text-anchor="middle" x="230.5" y="-117" font-family="FreeSans" font-size="10.00">::ComposeCameraMatrix</text>
</a>
</g>
</g>
<!-- Node353&#45;&gt;Node354 -->
<g id="edge1" class="edge"><title>Node353&#45;&gt;Node354</title>
<path fill="none" stroke="midnightblue" d="M129.376,-109.737C139.122,-111.223 149.227,-112.763 159.103,-114.269"/>
<polygon fill="midnightblue" stroke="midnightblue" points="158.874,-117.774 169.287,-115.821 159.929,-110.854 158.874,-117.774"/>
</g>
<!-- Node355 -->
<g id="node3" class="node"><title>Node355</title>
<g id="a_node3"><a xlink:href="classSeeSawN_1_1GeometryN_1_1TriangulatorC.html#aa79e87218bf7af60ec8dca394d60359f" target="_top" xlink:title="Optimal triangulation. ">
<polygon fill="white" stroke="black" points="165,-61 165,-91 296,-91 296,-61 165,-61"/>
<text text-anchor="start" x="173" y="-79" font-family="FreeSans" font-size="10.00">SeeSawN::GeometryN</text>
<text text-anchor="middle" x="230.5" y="-68" font-family="FreeSans" font-size="10.00">::TriangulatorC::Triangulate</text>
</a>
</g>
</g>
<!-- Node353&#45;&gt;Node355 -->
<g id="edge2" class="edge"><title>Node353&#45;&gt;Node355</title>
<path fill="none" stroke="midnightblue" d="M129.376,-90.6523C137.78,-89.4225 146.451,-88.1535 155.012,-86.9007"/>
<polygon fill="midnightblue" stroke="midnightblue" points="155.6,-90.352 164.988,-85.4408 154.587,-83.4257 155.6,-90.352"/>
</g>
<!-- Node356 -->
<g id="node4" class="node"><title>Node356</title>
<g id="a_node4"><a xlink:href="classSeeSawN_1_1GeometryN_1_1TriangulatorC.html#a617ff091b073b5723c571f86a442fe6d" target="_top" xlink:title="Eigen triangulation. ">
<polygon fill="white" stroke="black" points="332,-110 332,-140 495,-140 495,-110 332,-110"/>
<text text-anchor="start" x="340" y="-128" font-family="FreeSans" font-size="10.00">SeeSawN::GeometryN</text>
<text text-anchor="middle" x="413.5" y="-117" font-family="FreeSans" font-size="10.00">::TriangulatorC::EigenTriangulation</text>
</a>
</g>
</g>
<!-- Node355&#45;&gt;Node356 -->
<g id="edge3" class="edge"><title>Node355&#45;&gt;Node356</title>
<path fill="none" stroke="midnightblue" d="M287.283,-91.1014C306.21,-96.2253 327.525,-101.996 347.13,-107.303"/>
<polygon fill="midnightblue" stroke="midnightblue" points="346.334,-110.714 356.901,-109.948 348.163,-103.957 346.334,-110.714"/>
</g>
<!-- Node357 -->
<g id="node5" class="node"><title>Node357</title>
<g id="a_node5"><a xlink:href="namespaceSeeSawN_1_1GeometryN.html#aa10dc98c6d315aede280319397c26122" target="_top" xlink:title="Projects a 2D correspondence to the epipolar manifold defined by a fundamental matrix. ">
<polygon fill="white" stroke="black" points="336.5,-61 336.5,-91 490.5,-91 490.5,-61 336.5,-61"/>
<text text-anchor="start" x="344.5" y="-79" font-family="FreeSans" font-size="10.00">SeeSawN::GeometryN</text>
<text text-anchor="middle" x="413.5" y="-68" font-family="FreeSans" font-size="10.00">::FastProjectToEpipolarManifold</text>
</a>
</g>
</g>
<!-- Node355&#45;&gt;Node357 -->
<g id="edge4" class="edge"><title>Node355&#45;&gt;Node357</title>
<path fill="none" stroke="midnightblue" d="M296.079,-76C305.825,-76 316.009,-76 326.125,-76"/>
<polygon fill="midnightblue" stroke="midnightblue" points="326.199,-79.5001 336.199,-76 326.199,-72.5001 326.199,-79.5001"/>
</g>
<!-- Node358 -->
<g id="node6" class="node"><title>Node358</title>
<g id="a_node6"><a xlink:href="namespaceSeeSawN_1_1GeometryN.html#a1eca736101f6ea54f29b54b133361cfc" target="_top" xlink:title="Projects a 2D correspondence to the epipolar manifold defined by a fundamental matrix. ">
<polygon fill="white" stroke="black" points="348,-0.5 348,-41.5 479,-41.5 479,-0.5 348,-0.5"/>
<text text-anchor="start" x="356" y="-29.5" font-family="FreeSans" font-size="10.00">SeeSawN::GeometryN</text>
<text text-anchor="start" x="356" y="-18.5" font-family="FreeSans" font-size="10.00">::OptimalProjectToEpipolar</text>
<text text-anchor="middle" x="413.5" y="-7.5" font-family="FreeSans" font-size="10.00">Manifold</text>
</a>
</g>
</g>
<!-- Node355&#45;&gt;Node358 -->
<g id="edge5" class="edge"><title>Node355&#45;&gt;Node358</title>
<path fill="none" stroke="midnightblue" d="M280.959,-60.971C298.599,-55.6109 318.878,-49.4488 338.147,-43.5934"/>
<polygon fill="midnightblue" stroke="midnightblue" points="339.259,-46.9136 347.81,-40.6573 337.224,-40.2159 339.259,-46.9136"/>
</g>
</g>
</svg>
        <g id="navigator" transform="translate(0 0)" fill="#404254">
                <rect fill="#f2f5e9" fill-opacity="0.5" stroke="#606060" stroke-width=".5" x="0" y="0" width="60" height="60"/>
                <use id="zoomplus" xlink:href="#zoomPlus" x="17" y="9" onmousedown="handleZoom(evt,'in')"/>
                <use id="zoomminus" xlink:href="#zoomMin" x="42" y="9" onmousedown="handleZoom(evt,'out')"/>
                <use id="reset" xlink:href="#resetDef" x="30" y="36" onmousedown="handleReset()"/>
                <g id="arrowUp" xlink:href="#dirArrow" transform="translate(30 24)" onmousedown="handlePan(0,-1)">
                  <use xlink:href="#rim" fill="#404040">
                        <set attributeName="fill" to="#808080" begin="arrowUp.mouseover" end="arrowUp.mouseout"/>
                  </use>
                  <path fill="none" stroke="white" stroke-width="1.5" d="M0,-3.0v7 M-2.5,-0.5L0,-3.0L2.5,-0.5"/>
                </g>
                <g id="arrowRight" xlink:href="#dirArrow" transform="rotate(90) translate(36 -43)" onmousedown="handlePan(1,0)">
                  <use xlink:href="#rim" fill="#404040">
                        <set attributeName="fill" to="#808080" begin="arrowRight.mouseover" end="arrowRight.mouseout"/>
                  </use>
                  <path fill="none" stroke="white" stroke-width="1.5" d="M0,-3.0v7 M-2.5,-0.5L0,-3.0L2.5,-0.5"/>
                </g>
                <g id="arrowDown" xlink:href="#dirArrow" transform="rotate(180) translate(-30 -48)" onmousedown="handlePan(0,1)">
                  <use xlink:href="#rim" fill="#404040">
                        <set attributeName="fill" to="#808080" begin="arrowDown.mouseover" end="arrowDown.mouseout"/>
                  </use>
                  <path fill="none" stroke="white" stroke-width="1.5" d="M0,-3.0v7 M-2.5,-0.5L0,-3.0L2.5,-0.5"/>
                </g>
                <g id="arrowLeft" xlink:href="#dirArrow" transform="rotate(270) translate(-36 17)" onmousedown="handlePan(-1,0)">
                  <use xlink:href="#rim" fill="#404040">
                        <set attributeName="fill" to="#808080" begin="arrowLeft.mouseover" end="arrowLeft.mouseout"/>
                  </use>
                  <path fill="none" stroke="white" stroke-width="1.5" d="M0,-3.0v7 M-2.5,-0.5L0,-3.0L2.5,-0.5"/>
                </g>
        </g>
        <svg viewBox="0 0 15 15" width="100%" height="30px" preserveAspectRatio="xMaxYMin meet">
         <g id="arrow_out" transform="scale(0.3 0.3)">
          <a xlink:href="namespaceSeeSawN_1_1UnitTestsN_1_1TestGeometryN_ab5530b5543697573fe792edf1c36bbd9_cgraph_org.svg" target="_base">
           <rect id="button" ry="5" rx="5" y="6" x="6" height="38" width="38"
                fill="#f2f5e9" fill-opacity="0.5" stroke="#606060" stroke-width="1.0"/>
           <path id="arrow"
             d="M 11.500037,31.436501 C 11.940474,20.09759 22.043105,11.32322 32.158766,21.979434 L 37.068811,17.246167 C 37.068811,17.246167 37.088388,32 37.088388,32 L 22.160133,31.978069 C 22.160133,31.978069 26.997745,27.140456 26.997745,27.140456 C 18.528582,18.264221 13.291696,25.230495 11.500037,31.436501 z"
             style="fill:#404040;"/>
          </a>
         </g>
        </svg>
</svg>
