<?xml version="1.0" encoding="UTF-8" standalone="no"?>
<!DOCTYPE svg PUBLIC "-//W3C//DTD SVG 1.1//EN"
 "http://www.w3.org/Graphics/SVG/1.1/DTD/svg11.dtd">
<!-- Generated by graphviz version 2.38.0 (20140413.2041)
 -->
<!-- Title: SeeSawN::ElementsN::DecomposeLine2D Pages: 1 -->
<svg width="1560pt" height="306pt"
 viewBox="0.00 0.00 1560.00 306.00" xmlns="http://www.w3.org/2000/svg" xmlns:xlink="http://www.w3.org/1999/xlink">
<g id="graph0" class="graph" transform="scale(1 1) rotate(0) translate(4 302)">
<title>SeeSawN::ElementsN::DecomposeLine2D</title>
<polygon fill="white" stroke="none" points="-4,4 -4,-302 1556,-302 1556,4 -4,4"/>
<!-- Node65 -->
<g id="node1" class="node"><title>Node65</title>
<polygon fill="#bfbfbf" stroke="black" points="0,-175 0,-205 113,-205 113,-175 0,-175"/>
<text text-anchor="start" x="8" y="-193" font-family="FreeSans" font-size="10.00">SeeSawN::ElementsN</text>
<text text-anchor="middle" x="56.5" y="-182" font-family="FreeSans" font-size="10.00">::DecomposeLine2D</text>
</g>
<!-- Node66 -->
<g id="node2" class="node"><title>Node66</title>
<g id="a_node2"><a xlink:href="namespaceSeeSawN_1_1UnitTestsN_1_1TestElementsN.html#ab6ba968ed02ea6551b27d45ccc1b4a46" target="_top" xlink:title="SeeSawN::UnitTestsN\l::TestElementsN::BOOST\l_AUTO_TEST_CASE">
<polygon fill="white" stroke="black" points="155,-256.5 155,-297.5 283,-297.5 283,-256.5 155,-256.5"/>
<text text-anchor="start" x="163" y="-285.5" font-family="FreeSans" font-size="10.00">SeeSawN::UnitTestsN</text>
<text text-anchor="start" x="163" y="-274.5" font-family="FreeSans" font-size="10.00">::TestElementsN::BOOST</text>
<text text-anchor="middle" x="219" y="-263.5" font-family="FreeSans" font-size="10.00">_AUTO_TEST_CASE</text>
</a>
</g>
</g>
<!-- Node65&#45;&gt;Node66 -->
<g id="edge1" class="edge"><title>Node65&#45;&gt;Node66</title>
<path fill="none" stroke="midnightblue" d="M92.3559,-210.323C109.339,-220.093 130.124,-231.856 149,-242 157.874,-246.769 167.471,-251.747 176.605,-256.404"/>
<polygon fill="midnightblue" stroke="midnightblue" points="93.7587,-207.091 83.3482,-205.123 90.259,-213.154 93.7587,-207.091"/>
</g>
<!-- Node67 -->
<g id="node3" class="node"><title>Node67</title>
<g id="a_node3"><a xlink:href="classSeeSawN_1_1SynchronisationN_1_1RelativeSynchronisationC.html#ac56302099bffa3c1ed3d64776d714089" target="_top" xlink:title="Fits a broken line model to the correspondences. ">
<polygon fill="white" stroke="black" points="528.5,-120.5 528.5,-161.5 668.5,-161.5 668.5,-120.5 528.5,-120.5"/>
<text text-anchor="start" x="536.5" y="-149.5" font-family="FreeSans" font-size="10.00">SeeSawN::Synchronisation</text>
<text text-anchor="start" x="536.5" y="-138.5" font-family="FreeSans" font-size="10.00">N::RelativeSynchronisationC</text>
<text text-anchor="middle" x="598.5" y="-127.5" font-family="FreeSans" font-size="10.00">::FitBrokenLine</text>
</a>
</g>
</g>
<!-- Node65&#45;&gt;Node67 -->
<g id="edge2" class="edge"><title>Node65&#45;&gt;Node67</title>
<path fill="none" stroke="midnightblue" d="M123.176,-190.482C203.983,-190.261 345.199,-187.227 465,-171 485.801,-168.183 508.154,-163.698 528.465,-159.046"/>
<polygon fill="midnightblue" stroke="midnightblue" points="123.141,-186.982 113.145,-190.496 123.15,-193.982 123.141,-186.982"/>
</g>
<!-- Node72 -->
<g id="node8" class="node"><title>Node72</title>
<g id="a_node8"><a xlink:href="classSeeSawN_1_1SynchronisationN_1_1RelativeSynchronisationC.html#a6c3f7d1b295e15418dd85c645ebbf515" target="_top" xlink:title="Prepares a parameter object for the guided synchronisation pass. ">
<polygon fill="white" stroke="black" points="501,-193.5 501,-234.5 696,-234.5 696,-193.5 501,-193.5"/>
<text text-anchor="start" x="509" y="-222.5" font-family="FreeSans" font-size="10.00">SeeSawN::Synchronisation</text>
<text text-anchor="start" x="509" y="-211.5" font-family="FreeSans" font-size="10.00">N::RelativeSynchronisationC</text>
<text text-anchor="middle" x="598.5" y="-200.5" font-family="FreeSans" font-size="10.00">::MakeGuidedSynchronisationParameters</text>
</a>
</g>
</g>
<!-- Node65&#45;&gt;Node72 -->
<g id="edge7" class="edge"><title>Node65&#45;&gt;Node72</title>
<path fill="none" stroke="midnightblue" d="M123.116,-201.087C131.8,-202.246 140.6,-203.267 149,-204 269.845,-214.547 409.658,-215.962 500.628,-215.453"/>
<polygon fill="midnightblue" stroke="midnightblue" points="123.395,-197.592 113.007,-199.67 122.424,-204.524 123.395,-197.592"/>
</g>
<!-- Node73 -->
<g id="node9" class="node"><title>Node73</title>
<g id="a_node9"><a xlink:href="classSeeSawN_1_1SynchronisationN_1_1RelativeSynchronisationC.html#aacb14f4a57df4da22b21cf9227a43470" target="_top" xlink:title="Quantises the offset values and returns the best representatives. ">
<polygon fill="white" stroke="black" points="149,-30.5 149,-71.5 289,-71.5 289,-30.5 149,-30.5"/>
<text text-anchor="start" x="157" y="-59.5" font-family="FreeSans" font-size="10.00">SeeSawN::Synchronisation</text>
<text text-anchor="start" x="157" y="-48.5" font-family="FreeSans" font-size="10.00">N::RelativeSynchronisationC</text>
<text text-anchor="middle" x="219" y="-37.5" font-family="FreeSans" font-size="10.00">::QuantiseOffsets</text>
</a>
</g>
</g>
<!-- Node65&#45;&gt;Node73 -->
<g id="edge9" class="edge"><title>Node65&#45;&gt;Node73</title>
<path fill="none" stroke="midnightblue" d="M82.6537,-168.216C113.226,-141.739 164.422,-97.4009 194.315,-71.5123"/>
<polygon fill="midnightblue" stroke="midnightblue" points="80.2498,-165.668 74.9818,-174.86 84.8324,-170.959 80.2498,-165.668"/>
</g>
<!-- Node75 -->
<g id="node11" class="node"><title>Node75</title>
<g id="a_node11"><a xlink:href="classSeeSawN_1_1SynchronisationN_1_1RelativeSynchronisationC.html#ae46bed28639a0977e5f00f8bd399f60d" target="_top" xlink:title="Validates a line. ">
<polygon fill="white" stroke="black" points="149,-120.5 149,-161.5 289,-161.5 289,-120.5 149,-120.5"/>
<text text-anchor="start" x="157" y="-149.5" font-family="FreeSans" font-size="10.00">SeeSawN::Synchronisation</text>
<text text-anchor="start" x="157" y="-138.5" font-family="FreeSans" font-size="10.00">N::RelativeSynchronisationC</text>
<text text-anchor="middle" x="219" y="-127.5" font-family="FreeSans" font-size="10.00">::ValidateLine</text>
</a>
</g>
</g>
<!-- Node65&#45;&gt;Node75 -->
<g id="edge12" class="edge"><title>Node65&#45;&gt;Node75</title>
<path fill="none" stroke="midnightblue" d="M116.553,-171.971C127.661,-168.58 139.353,-165.011 150.691,-161.549"/>
<polygon fill="midnightblue" stroke="midnightblue" points="115.507,-168.631 106.965,-174.899 117.551,-175.326 115.507,-168.631"/>
</g>
<!-- Node68 -->
<g id="node4" class="node"><title>Node68</title>
<g id="a_node4"><a xlink:href="classSeeSawN_1_1SynchronisationN_1_1RelativeSynchronisationC.html#a5bef63bba38b800f441eadc1ed40a536" target="_top" xlink:title="Runs the synchronisation pipeline. ">
<polygon fill="white" stroke="black" points="732,-132.5 732,-173.5 872,-173.5 872,-132.5 732,-132.5"/>
<text text-anchor="start" x="740" y="-161.5" font-family="FreeSans" font-size="10.00">SeeSawN::Synchronisation</text>
<text text-anchor="start" x="740" y="-150.5" font-family="FreeSans" font-size="10.00">N::RelativeSynchronisationC</text>
<text text-anchor="middle" x="802" y="-139.5" font-family="FreeSans" font-size="10.00">::Synchronise</text>
</a>
</g>
</g>
<!-- Node67&#45;&gt;Node68 -->
<g id="edge3" class="edge"><title>Node67&#45;&gt;Node68</title>
<path fill="none" stroke="midnightblue" d="M678.739,-145.719C696.228,-146.76 714.625,-147.856 731.685,-148.872"/>
<polygon fill="midnightblue" stroke="midnightblue" points="678.753,-142.214 668.563,-145.113 678.337,-149.201 678.753,-142.214"/>
</g>
<!-- Node69 -->
<g id="node5" class="node"><title>Node69</title>
<g id="a_node5"><a xlink:href="classSeeSawN_1_1SynchronisationN_1_1RelativeSynchronisationC.html#a23ad32056f941388856c20ffecca138b" target="_top" xlink:title="Runs the algorithm. ">
<polygon fill="white" stroke="black" points="908,-165 908,-195 1069,-195 1069,-165 908,-165"/>
<text text-anchor="start" x="916" y="-183" font-family="FreeSans" font-size="10.00">SeeSawN::Synchronisation</text>
<text text-anchor="middle" x="988.5" y="-172" font-family="FreeSans" font-size="10.00">N::RelativeSynchronisationC::Run</text>
</a>
</g>
</g>
<!-- Node68&#45;&gt;Node69 -->
<g id="edge4" class="edge"><title>Node68&#45;&gt;Node69</title>
<path fill="none" stroke="midnightblue" d="M882.167,-164.585C890.711,-165.836 899.408,-167.109 907.956,-168.359"/>
<polygon fill="midnightblue" stroke="midnightblue" points="882.627,-161.116 872.226,-163.131 881.614,-168.042 882.627,-161.116"/>
</g>
<!-- Node70 -->
<g id="node6" class="node"><title>Node70</title>
<g id="a_node6"><a xlink:href="classSeeSawN_1_1SynchronisationN_1_1MulticameraSynchonisationC.html#a75a116defe53be4d2d177a2188f909bf" target="_top" xlink:title="Runs the synchronisation algorithm. ">
<polygon fill="white" stroke="black" points="1105,-159.5 1105,-200.5 1253,-200.5 1253,-159.5 1105,-159.5"/>
<text text-anchor="start" x="1113" y="-188.5" font-family="FreeSans" font-size="10.00">SeeSawN::Synchronisation</text>
<text text-anchor="start" x="1113" y="-177.5" font-family="FreeSans" font-size="10.00">N::MulticameraSynchonisation</text>
<text text-anchor="middle" x="1179" y="-166.5" font-family="FreeSans" font-size="10.00">C::Run</text>
</a>
</g>
</g>
<!-- Node69&#45;&gt;Node70 -->
<g id="edge5" class="edge"><title>Node69&#45;&gt;Node70</title>
<path fill="none" stroke="midnightblue" d="M1079.23,-180C1087.83,-180 1096.49,-180 1104.91,-180"/>
<polygon fill="midnightblue" stroke="midnightblue" points="1079.17,-176.5 1069.17,-180 1079.17,-183.5 1079.17,-176.5"/>
</g>
<!-- Node71 -->
<g id="node7" class="node"><title>Node71</title>
<g id="a_node7"><a xlink:href="classSeeSawN_1_1AppMulticameraSynchronisationN_1_1AppMulticameraSynchronisationImplementationC.html#a74cf8f1a5ba9bb9ddb48089b2d43bd58" target="_top" xlink:title="Runs the application. ">
<polygon fill="white" stroke="black" points="1289,-165 1289,-195 1552,-195 1552,-165 1289,-165"/>
<text text-anchor="start" x="1297" y="-183" font-family="FreeSans" font-size="10.00">SeeSawN::AppMulticameraSynchronisation</text>
<text text-anchor="middle" x="1420.5" y="-172" font-family="FreeSans" font-size="10.00">N::AppMulticameraSynchronisationImplementationC::Run</text>
</a>
</g>
</g>
<!-- Node70&#45;&gt;Node71 -->
<g id="edge6" class="edge"><title>Node70&#45;&gt;Node71</title>
<path fill="none" stroke="midnightblue" d="M1263.22,-180C1271.58,-180 1280.2,-180 1288.9,-180"/>
<polygon fill="midnightblue" stroke="midnightblue" points="1263.16,-176.5 1253.16,-180 1263.16,-183.5 1263.16,-176.5"/>
</g>
<!-- Node72&#45;&gt;Node69 -->
<g id="edge8" class="edge"><title>Node72&#45;&gt;Node69</title>
<path fill="none" stroke="midnightblue" d="M706.488,-204.625C770.177,-199.044 849.647,-192.08 907.809,-186.983"/>
<polygon fill="midnightblue" stroke="midnightblue" points="706.064,-201.148 696.408,-205.508 706.675,-208.122 706.064,-201.148"/>
</g>
<!-- Node74 -->
<g id="node10" class="node"><title>Node74</title>
<g id="a_node10"><a xlink:href="classSeeSawN_1_1SynchronisationN_1_1RelativeSynchronisationC.html#a162e0309d0a7095f8587f414d496423a" target="_top" xlink:title="Identifies the dominant segments in the set. ">
<polygon fill="white" stroke="black" points="325,-0.5 325,-41.5 465,-41.5 465,-0.5 325,-0.5"/>
<text text-anchor="start" x="333" y="-29.5" font-family="FreeSans" font-size="10.00">SeeSawN::Synchronisation</text>
<text text-anchor="start" x="333" y="-18.5" font-family="FreeSans" font-size="10.00">N::RelativeSynchronisationC</text>
<text text-anchor="middle" x="395" y="-7.5" font-family="FreeSans" font-size="10.00">::IdentifyDominantSegments</text>
</a>
</g>
</g>
<!-- Node73&#45;&gt;Node74 -->
<g id="edge10" class="edge"><title>Node73&#45;&gt;Node74</title>
<path fill="none" stroke="midnightblue" d="M299.035,-37.3733C307.625,-35.8923 316.319,-34.3932 324.779,-32.9346"/>
<polygon fill="midnightblue" stroke="midnightblue" points="298.279,-33.9519 289.019,-39.1001 299.469,-40.8501 298.279,-33.9519"/>
</g>
<!-- Node74&#45;&gt;Node67 -->
<g id="edge11" class="edge"><title>Node74&#45;&gt;Node67</title>
<path fill="none" stroke="midnightblue" d="M455.511,-46.0192C458.75,-47.6457 461.932,-49.3105 465,-51 503.243,-72.0612 544.414,-101.14 570.537,-120.48"/>
<polygon fill="midnightblue" stroke="midnightblue" points="456.807,-42.7577 446.281,-41.5473 453.754,-49.0573 456.807,-42.7577"/>
</g>
<!-- Node76 -->
<g id="node12" class="node"><title>Node76</title>
<g id="a_node12"><a xlink:href="classSeeSawN_1_1SynchronisationN_1_1RelativeSynchronisationC.html#a844c77ebd2712ae8121f27c5ba51ded8" target="_top" xlink:title="Exhaustively instantiates and ranks all feasible line segments implied by the index correspondences...">
<polygon fill="white" stroke="black" points="325,-120.5 325,-161.5 465,-161.5 465,-120.5 325,-120.5"/>
<text text-anchor="start" x="333" y="-149.5" font-family="FreeSans" font-size="10.00">SeeSawN::Synchronisation</text>
<text text-anchor="start" x="333" y="-138.5" font-family="FreeSans" font-size="10.00">N::RelativeSynchronisationC</text>
<text text-anchor="middle" x="395" y="-127.5" font-family="FreeSans" font-size="10.00">::ComputeLineSegments</text>
</a>
</g>
</g>
<!-- Node75&#45;&gt;Node76 -->
<g id="edge13" class="edge"><title>Node75&#45;&gt;Node76</title>
<path fill="none" stroke="midnightblue" d="M299.035,-141C307.625,-141 316.319,-141 324.779,-141"/>
<polygon fill="midnightblue" stroke="midnightblue" points="299.019,-137.5 289.019,-141 299.019,-144.5 299.019,-137.5"/>
</g>
<!-- Node77 -->
<g id="node13" class="node"><title>Node77</title>
<g id="a_node13"><a xlink:href="classSeeSawN_1_1SynchronisationN_1_1RelativeSynchronisationC.html#a5b78e780d6de340ab6cf99fc1d2dd281" target="_top" xlink:title="Computes the main segment for unconstrained alpha. ">
<polygon fill="white" stroke="black" points="325,-60.5 325,-101.5 465,-101.5 465,-60.5 325,-60.5"/>
<text text-anchor="start" x="333" y="-89.5" font-family="FreeSans" font-size="10.00">SeeSawN::Synchronisation</text>
<text text-anchor="start" x="333" y="-78.5" font-family="FreeSans" font-size="10.00">N::RelativeSynchronisationC</text>
<text text-anchor="middle" x="395" y="-67.5" font-family="FreeSans" font-size="10.00">::IdentifyMainSegment</text>
</a>
</g>
</g>
<!-- Node75&#45;&gt;Node77 -->
<g id="edge15" class="edge"><title>Node75&#45;&gt;Node77</title>
<path fill="none" stroke="midnightblue" d="M289.507,-117.032C304.339,-111.918 319.878,-106.559 334.304,-101.585"/>
<polygon fill="midnightblue" stroke="midnightblue" points="288.194,-113.783 279.881,-120.351 290.476,-120.4 288.194,-113.783"/>
</g>
<!-- Node76&#45;&gt;Node67 -->
<g id="edge14" class="edge"><title>Node76&#45;&gt;Node67</title>
<path fill="none" stroke="midnightblue" d="M475.239,-141C492.728,-141 511.125,-141 528.185,-141"/>
<polygon fill="midnightblue" stroke="midnightblue" points="475.063,-137.5 465.063,-141 475.063,-144.5 475.063,-137.5"/>
</g>
<!-- Node77&#45;&gt;Node67 -->
<g id="edge16" class="edge"><title>Node77&#45;&gt;Node67</title>
<path fill="none" stroke="midnightblue" d="M474.803,-104.465C492.54,-109.746 511.23,-115.312 528.527,-120.462"/>
<polygon fill="midnightblue" stroke="midnightblue" points="475.646,-101.064 465.063,-101.565 473.648,-107.773 475.646,-101.064"/>
</g>
</g>
</svg>
