<?xml version="1.0" encoding="UTF-8" standalone="no"?>
<!DOCTYPE svg PUBLIC "-//W3C//DTD SVG 1.1//EN"
 "http://www.w3.org/Graphics/SVG/1.1/DTD/svg11.dtd">
<!-- Generated by graphviz version 2.38.0 (20140413.2041)
 -->
<!-- Title: SeeSawN::UnitTestsN::TestOptimisationN::BOOST_AUTO_TEST_CASE Pages: 1 -->
<!--zoomable 584 -->
<svg id="main" version="1.1" xmlns="http://www.w3.org/2000/svg" xmlns:xlink="http://www.w3.org/1999/xlink" xml:space="preserve" onload="init(evt)">
<style type="text/css"><![CDATA[
.edge:hover path { stroke: red; }
.edge:hover polygon { stroke: red; fill: red; }
]]></style>
<script type="text/javascript"><![CDATA[
var edges = document.getElementsByTagName('g');
if (edges && edges.length) {
  for (var i=0;i<edges.length;i++) {
    if (edges[i].id.substr(0,4)=='edge') {
      edges[i].setAttribute('class','edge');
    }
  }
}
]]></script>
        <defs>
                <circle id="rim" cx="0" cy="0" r="7"/>
                <circle id="rim2" cx="0" cy="0" r="3.5"/>
                <g id="zoomPlus">
                        <use xlink:href="#rim" fill="#404040">
                                <set attributeName="fill" to="#808080" begin="zoomplus.mouseover" end="zoomplus.mouseout"/>
                        </use>
                        <path d="M-4,0h8M0,-4v8" fill="none" stroke="white" stroke-width="1.5" pointer-events="none"/>
                </g>
                <g id="zoomMin">
                        <use xlink:href="#rim" fill="#404040">
                                <set attributeName="fill" to="#808080" begin="zoomminus.mouseover" end="zoomminus.mouseout"/>
                        </use>
                        <path d="M-4,0h8" fill="none" stroke="white" stroke-width="1.5" pointer-events="none"/>
                </g>
                <g id="dirArrow">
                        <path fill="none" stroke="white" stroke-width="1.5" d="M0,-3.0v7 M-2.5,-0.5L0,-3.0L2.5,-0.5"/>
                </g>
               <g id="resetDef">
                       <use xlink:href="#rim2" fill="#404040">
                               <set attributeName="fill" to="#808080" begin="reset.mouseover" end="reset.mouseout"/>
                       </use>
               </g>
        </defs>

<script type="text/javascript">
var viewWidth = 800;
var viewHeight = 584;
var sectionId = 'dynsection-4';
</script>
<script xlink:href="svgpan.js"/>
<svg id="graph" class="graph">
<g id="viewport">
<title>SeeSawN::UnitTestsN::TestOptimisationN::BOOST_AUTO_TEST_CASE</title>
<polygon fill="white" stroke="none" points="-4,4 -4,-580 796,-580 796,4 -4,4"/>
<!-- Node24 -->
<g id="node1" class="node"><title>Node24</title>
<polygon fill="#bfbfbf" stroke="black" points="0,-267.5 0,-308.5 150,-308.5 150,-267.5 0,-267.5"/>
<text text-anchor="start" x="8" y="-296.5" font-family="FreeSans" font-size="10.00">SeeSawN::UnitTestsN</text>
<text text-anchor="start" x="8" y="-285.5" font-family="FreeSans" font-size="10.00">::TestOptimisationN</text>
<text text-anchor="middle" x="75" y="-274.5" font-family="FreeSans" font-size="10.00">::BOOST_AUTO_TEST_CASE</text>
</g>
<!-- Node25 -->
<g id="node2" class="node"><title>Node25</title>
<g id="a_node2"><a xlink:href="classSeeSawN_1_1OptimisationN_1_1PDLHomographyKRKDecompositionProblemC.html#a5054d65b2e1b8489f577f37180c0e15c" target="_top" xlink:title="Computes the error vector. ">
<polygon fill="white" stroke="black" points="197.5,-534.5 197.5,-575.5 377.5,-575.5 377.5,-534.5 197.5,-534.5"/>
<text text-anchor="start" x="205.5" y="-563.5" font-family="FreeSans" font-size="10.00">SeeSawN::OptimisationN</text>
<text text-anchor="start" x="205.5" y="-552.5" font-family="FreeSans" font-size="10.00">::PDLHomographyKRKDecomposition</text>
<text text-anchor="middle" x="287.5" y="-541.5" font-family="FreeSans" font-size="10.00">ProblemC::ComputeError</text>
</a>
</g>
</g>
<!-- Node24&#45;&gt;Node25 -->
<g id="edge1" class="edge"><title>Node24&#45;&gt;Node25</title>
<path fill="none" stroke="midnightblue" d="M80.1145,-308.569C90.1371,-353.422 119.993,-460.74 186,-520 189.854,-523.46 194.069,-526.582 198.519,-529.398"/>
<polygon fill="midnightblue" stroke="midnightblue" points="196.918,-532.514 207.335,-534.446 200.396,-526.44 196.918,-532.514"/>
</g>
<!-- Node26 -->
<g id="node3" class="node"><title>Node26</title>
<g id="a_node3"><a xlink:href="classSeeSawN_1_1OptimisationN_1_1PDLHomographyKRKDecompositionProblemC.html#a648006695b874d95b5437aab6451d119" target="_top" xlink:title="Converts a parameter vector to a model. ">
<polygon fill="white" stroke="black" points="425,-460.5 425,-501.5 605,-501.5 605,-460.5 425,-460.5"/>
<text text-anchor="start" x="433" y="-489.5" font-family="FreeSans" font-size="10.00">SeeSawN::OptimisationN</text>
<text text-anchor="start" x="433" y="-478.5" font-family="FreeSans" font-size="10.00">::PDLHomographyKRKDecomposition</text>
<text text-anchor="middle" x="515" y="-467.5" font-family="FreeSans" font-size="10.00">ProblemC::MakeResult</text>
</a>
</g>
</g>
<!-- Node24&#45;&gt;Node26 -->
<g id="edge17" class="edge"><title>Node24&#45;&gt;Node26</title>
<path fill="none" stroke="midnightblue" d="M80.1616,-308.542C89.9856,-350.945 119.017,-447.491 186,-487 262.096,-531.885 366.403,-520.171 436.792,-503.97"/>
<polygon fill="midnightblue" stroke="midnightblue" points="438.009,-507.278 446.924,-501.553 436.385,-500.469 438.009,-507.278"/>
</g>
<!-- Node27 -->
<g id="node4" class="node"><title>Node27</title>
<g id="a_node4"><a xlink:href="classSeeSawN_1_1OptimisationN_1_1PDLHomographyKRKDecompositionProblemC.html#a14b846ec16c908009e23d5240f5b1f95" target="_top" xlink:title="Computes the Jacobian at the current solution. ">
<polygon fill="white" stroke="black" points="197.5,-376.5 197.5,-417.5 377.5,-417.5 377.5,-376.5 197.5,-376.5"/>
<text text-anchor="start" x="205.5" y="-405.5" font-family="FreeSans" font-size="10.00">SeeSawN::OptimisationN</text>
<text text-anchor="start" x="205.5" y="-394.5" font-family="FreeSans" font-size="10.00">::PDLHomographyKRKDecomposition</text>
<text text-anchor="middle" x="287.5" y="-383.5" font-family="FreeSans" font-size="10.00">ProblemC::ComputeJacobian</text>
</a>
</g>
</g>
<!-- Node24&#45;&gt;Node27 -->
<g id="edge3" class="edge"><title>Node24&#45;&gt;Node27</title>
<path fill="none" stroke="midnightblue" d="M99.8295,-308.722C121.156,-326.351 153.921,-351.248 186,-367 190.063,-368.995 194.285,-370.886 198.596,-372.673"/>
<polygon fill="midnightblue" stroke="midnightblue" points="197.563,-376.027 208.15,-376.422 200.12,-369.511 197.563,-376.027"/>
</g>
<!-- Node29 -->
<g id="node6" class="node"><title>Node29</title>
<g id="a_node6"><a xlink:href="classSeeSawN_1_1OptimisationN_1_1PDLHomographyKRKDecompositionProblemC.html#a6c73ae93ba393ff0ddae7ba2c8b1f999" target="_top" xlink:title="Computes the model&#45;space distance after an update. ">
<polygon fill="white" stroke="black" points="186,-436.5 186,-477.5 389,-477.5 389,-436.5 186,-436.5"/>
<text text-anchor="start" x="194" y="-465.5" font-family="FreeSans" font-size="10.00">SeeSawN::OptimisationN</text>
<text text-anchor="start" x="194" y="-454.5" font-family="FreeSans" font-size="10.00">::PDLHomographyKRKDecomposition</text>
<text text-anchor="middle" x="287.5" y="-443.5" font-family="FreeSans" font-size="10.00">ProblemC::ComputeRelativeModelDistance</text>
</a>
</g>
</g>
<!-- Node24&#45;&gt;Node29 -->
<g id="edge6" class="edge"><title>Node24&#45;&gt;Node29</title>
<path fill="none" stroke="midnightblue" d="M86.7789,-308.501C103.798,-338.889 139.766,-395.66 186,-427 188.437,-428.652 190.968,-430.215 193.57,-431.694"/>
<polygon fill="midnightblue" stroke="midnightblue" points="192.173,-434.912 202.662,-436.404 195.393,-428.697 192.173,-434.912"/>
</g>
<!-- Node30 -->
<g id="node7" class="node"><title>Node30</title>
<g id="a_node7"><a xlink:href="classSeeSawN_1_1OptimisationN_1_1PDLHomographyKRKDecompositionProblemC.html#a0bf3d46c141e5353237c90f71fdc1605" target="_top" xlink:title="Configures the problem. ">
<polygon fill="white" stroke="black" points="197.5,-316.5 197.5,-357.5 377.5,-357.5 377.5,-316.5 197.5,-316.5"/>
<text text-anchor="start" x="205.5" y="-345.5" font-family="FreeSans" font-size="10.00">SeeSawN::OptimisationN</text>
<text text-anchor="start" x="205.5" y="-334.5" font-family="FreeSans" font-size="10.00">::PDLHomographyKRKDecomposition</text>
<text text-anchor="middle" x="287.5" y="-323.5" font-family="FreeSans" font-size="10.00">ProblemC::Configure</text>
</a>
</g>
</g>
<!-- Node24&#45;&gt;Node30 -->
<g id="edge8" class="edge"><title>Node24&#45;&gt;Node30</title>
<path fill="none" stroke="midnightblue" d="M150.214,-305.276C162.571,-308.152 175.554,-311.174 188.395,-314.163"/>
<polygon fill="midnightblue" stroke="midnightblue" points="187.641,-317.581 198.174,-316.439 189.228,-310.763 187.641,-317.581"/>
</g>
<!-- Node31 -->
<g id="node8" class="node"><title>Node31</title>
<g id="a_node8"><a xlink:href="group__Utility.html#gac00c69c0fb26c317d86636ddf4f542fb" target="_top" xlink:title="Extract the focal lengths and relative rotation from the 2D homography due to a change in rotation an...">
<polygon fill="white" stroke="black" points="458.5,-273 458.5,-303 571.5,-303 571.5,-273 458.5,-273"/>
<text text-anchor="start" x="466.5" y="-291" font-family="FreeSans" font-size="10.00">SeeSawN::ElementsN</text>
<text text-anchor="middle" x="515" y="-280" font-family="FreeSans" font-size="10.00">::DecomposeK2RK1i</text>
</a>
</g>
</g>
<!-- Node24&#45;&gt;Node31 -->
<g id="edge12" class="edge"><title>Node24&#45;&gt;Node31</title>
<path fill="none" stroke="midnightblue" d="M150.301,-288C233.806,-288 368.116,-288 448.043,-288"/>
<polygon fill="midnightblue" stroke="midnightblue" points="448.47,-291.5 458.47,-288 448.47,-284.5 448.47,-291.5"/>
</g>
<!-- Node34 -->
<g id="node11" class="node"><title>Node34</title>
<g id="a_node11"><a xlink:href="classSeeSawN_1_1OptimisationN_1_1PDLHomographyKRKDecompositionProblemC.html#a1dcb92bf84c104d4579a1080291e37d4" target="_top" xlink:title="Returns the initial estimate vector. ">
<polygon fill="white" stroke="black" points="197.5,-218.5 197.5,-259.5 377.5,-259.5 377.5,-218.5 197.5,-218.5"/>
<text text-anchor="start" x="205.5" y="-247.5" font-family="FreeSans" font-size="10.00">SeeSawN::OptimisationN</text>
<text text-anchor="start" x="205.5" y="-236.5" font-family="FreeSans" font-size="10.00">::PDLHomographyKRKDecomposition</text>
<text text-anchor="middle" x="287.5" y="-225.5" font-family="FreeSans" font-size="10.00">ProblemC::InitialEstimate</text>
</a>
</g>
</g>
<!-- Node24&#45;&gt;Node34 -->
<g id="edge13" class="edge"><title>Node24&#45;&gt;Node34</title>
<path fill="none" stroke="midnightblue" d="M150.214,-270.724C162.571,-267.848 175.554,-264.826 188.395,-261.837"/>
<polygon fill="midnightblue" stroke="midnightblue" points="189.228,-265.237 198.174,-259.561 187.641,-258.419 189.228,-265.237"/>
</g>
<!-- Node35 -->
<g id="node12" class="node"><title>Node35</title>
<g id="a_node12"><a xlink:href="namespaceSeeSawN_1_1WrappersN.html#a54a51c45d116657bc4879fb4e29f59c9" target="_top" xlink:title="SeeSawN::WrappersN\l::QuaternionToVector">
<polygon fill="white" stroke="black" points="458,-200 458,-230 572,-230 572,-200 458,-200"/>
<text text-anchor="start" x="466" y="-218" font-family="FreeSans" font-size="10.00">SeeSawN::WrappersN</text>
<text text-anchor="middle" x="515" y="-207" font-family="FreeSans" font-size="10.00">::QuaternionToVector</text>
</a>
</g>
</g>
<!-- Node24&#45;&gt;Node35 -->
<g id="edge19" class="edge"><title>Node24&#45;&gt;Node35</title>
<path fill="none" stroke="midnightblue" d="M96.4716,-267.137C117.025,-247.807 150.638,-220.383 186,-209 273.149,-180.948 380.178,-190.491 447.76,-201.475"/>
<polygon fill="midnightblue" stroke="midnightblue" points="447.405,-204.965 457.848,-203.174 448.567,-198.062 447.405,-204.965"/>
</g>
<!-- Node36 -->
<g id="node13" class="node"><title>Node36</title>
<g id="a_node13"><a xlink:href="classSeeSawN_1_1OptimisationN_1_1PDLHomographyKRKDecompositionProblemC.html#a37887777cc71c42f84e13dda18eee39a" target="_top" xlink:title="Returns flagValid. ">
<polygon fill="white" stroke="black" points="197.5,-120.5 197.5,-161.5 377.5,-161.5 377.5,-120.5 197.5,-120.5"/>
<text text-anchor="start" x="205.5" y="-149.5" font-family="FreeSans" font-size="10.00">SeeSawN::OptimisationN</text>
<text text-anchor="start" x="205.5" y="-138.5" font-family="FreeSans" font-size="10.00">::PDLHomographyKRKDecomposition</text>
<text text-anchor="middle" x="287.5" y="-127.5" font-family="FreeSans" font-size="10.00">ProblemC::IsValid</text>
</a>
</g>
</g>
<!-- Node24&#45;&gt;Node36 -->
<g id="edge16" class="edge"><title>Node24&#45;&gt;Node36</title>
<path fill="none" stroke="midnightblue" d="M91.3075,-267.407C110.777,-242.537 146.632,-200.944 186,-176 192.009,-172.193 198.483,-168.739 205.147,-165.619"/>
<polygon fill="midnightblue" stroke="midnightblue" points="206.59,-168.808 214.326,-161.569 203.764,-162.404 206.59,-168.808"/>
</g>
<!-- Node37 -->
<g id="node14" class="node"><title>Node37</title>
<g id="a_node14"><a xlink:href="classSeeSawN_1_1OptimisationN_1_1PDLHomographyKRKDecompositionProblemC.html#a5b1f364e12939fe874ebd970f6517d2d" target="_top" xlink:title="Returns a constant reference to mW. ">
<polygon fill="white" stroke="black" points="197.5,-60.5 197.5,-101.5 377.5,-101.5 377.5,-60.5 197.5,-60.5"/>
<text text-anchor="start" x="205.5" y="-89.5" font-family="FreeSans" font-size="10.00">SeeSawN::OptimisationN</text>
<text text-anchor="start" x="205.5" y="-78.5" font-family="FreeSans" font-size="10.00">::PDLHomographyKRKDecomposition</text>
<text text-anchor="middle" x="287.5" y="-67.5" font-family="FreeSans" font-size="10.00">ProblemC::ObservationWeights</text>
</a>
</g>
</g>
<!-- Node24&#45;&gt;Node37 -->
<g id="edge18" class="edge"><title>Node24&#45;&gt;Node37</title>
<path fill="none" stroke="midnightblue" d="M83.1623,-267.386C97.0625,-230.425 131.233,-152.843 186,-111 187.881,-109.563 189.83,-108.194 191.836,-106.891"/>
<polygon fill="midnightblue" stroke="midnightblue" points="194.07,-109.64 200.953,-101.586 190.55,-103.59 194.07,-109.64"/>
</g>
<!-- Node38 -->
<g id="node15" class="node"><title>Node38</title>
<g id="a_node15"><a xlink:href="classSeeSawN_1_1OptimisationN_1_1PDLHomographyKRKDecompositionProblemC.html#aa4f99203ab655e52f03079a55ddd39e6" target="_top" xlink:title="Updates the current solution. ">
<polygon fill="white" stroke="black" points="197.5,-0.5 197.5,-41.5 377.5,-41.5 377.5,-0.5 197.5,-0.5"/>
<text text-anchor="start" x="205.5" y="-29.5" font-family="FreeSans" font-size="10.00">SeeSawN::OptimisationN</text>
<text text-anchor="start" x="205.5" y="-18.5" font-family="FreeSans" font-size="10.00">::PDLHomographyKRKDecomposition</text>
<text text-anchor="middle" x="287.5" y="-7.5" font-family="FreeSans" font-size="10.00">ProblemC::Update</text>
</a>
</g>
</g>
<!-- Node24&#45;&gt;Node38 -->
<g id="edge20" class="edge"><title>Node24&#45;&gt;Node38</title>
<path fill="none" stroke="midnightblue" d="M79.6384,-267.46C88.8429,-221.621 117.387,-110.354 186,-51 187.549,-49.6598 189.156,-48.3795 190.813,-47.1563"/>
<polygon fill="midnightblue" stroke="midnightblue" points="193.013,-49.9001 199.476,-41.5047 189.189,-44.0374 193.013,-49.9001"/>
</g>
<!-- Node25&#45;&gt;Node26 -->
<g id="edge2" class="edge"><title>Node25&#45;&gt;Node26</title>
<path fill="none" stroke="midnightblue" d="M351.015,-534.485C379.12,-525.262 412.46,-514.321 441.641,-504.745"/>
<polygon fill="midnightblue" stroke="midnightblue" points="442.953,-507.998 451.364,-501.555 440.771,-501.347 442.953,-507.998"/>
</g>
<!-- Node27&#45;&gt;Node26 -->
<g id="edge5" class="edge"><title>Node27&#45;&gt;Node26</title>
<path fill="none" stroke="midnightblue" d="M361.023,-417.536C370.491,-420.542 380.017,-423.732 389,-427 412.909,-435.699 438.808,-446.628 460.798,-456.374"/>
<polygon fill="midnightblue" stroke="midnightblue" points="459.408,-459.586 469.966,-460.469 462.262,-453.195 459.408,-459.586"/>
</g>
<!-- Node28 -->
<g id="node5" class="node"><title>Node28</title>
<g id="a_node5"><a xlink:href="group__Jacobian.html#ga4573f986eeb5d160384fdeaa6ab1cc85" target="_top" xlink:title="Jacobian for the quaternion to rotation matrix conversion. ">
<polygon fill="white" stroke="black" points="437.5,-376.5 437.5,-417.5 592.5,-417.5 592.5,-376.5 437.5,-376.5"/>
<text text-anchor="start" x="445.5" y="-405.5" font-family="FreeSans" font-size="10.00">SeeSawN::GeometryN</text>
<text text-anchor="start" x="445.5" y="-394.5" font-family="FreeSans" font-size="10.00">::JacobianQuaternionToRotation</text>
<text text-anchor="middle" x="515" y="-383.5" font-family="FreeSans" font-size="10.00">Matrix</text>
</a>
</g>
</g>
<!-- Node27&#45;&gt;Node28 -->
<g id="edge4" class="edge"><title>Node27&#45;&gt;Node28</title>
<path fill="none" stroke="midnightblue" d="M377.624,-397C393.935,-397 410.938,-397 427.181,-397"/>
<polygon fill="midnightblue" stroke="midnightblue" points="427.184,-400.5 437.184,-397 427.184,-393.5 427.184,-400.5"/>
</g>
<!-- Node29&#45;&gt;Node26 -->
<g id="edge7" class="edge"><title>Node29&#45;&gt;Node26</title>
<path fill="none" stroke="midnightblue" d="M389.049,-467.701C397.66,-468.618 406.366,-469.545 414.965,-470.46"/>
<polygon fill="midnightblue" stroke="midnightblue" points="414.682,-473.949 424.997,-471.527 415.423,-466.989 414.682,-473.949"/>
</g>
<!-- Node30&#45;&gt;Node31 -->
<g id="edge9" class="edge"><title>Node30&#45;&gt;Node31</title>
<path fill="none" stroke="midnightblue" d="M377.624,-317.634C401.217,-312.507 426.255,-307.066 448.352,-302.265"/>
<polygon fill="midnightblue" stroke="midnightblue" points="449.252,-305.651 458.281,-300.107 447.766,-298.811 449.252,-305.651"/>
</g>
<!-- Node32 -->
<g id="node9" class="node"><title>Node32</title>
<g id="a_node9"><a xlink:href="namespaceSeeSawN_1_1NumericN.html#a4212174cae82d3ad9bee75e2c1046e81" target="_top" xlink:title="SeeSawN::NumericN::\lComputeClosestRotationMatrix">
<polygon fill="white" stroke="black" points="641,-298 641,-328 792,-328 792,-298 641,-298"/>
<text text-anchor="start" x="649" y="-316" font-family="FreeSans" font-size="10.00">SeeSawN::NumericN::</text>
<text text-anchor="middle" x="716.5" y="-305" font-family="FreeSans" font-size="10.00">ComputeClosestRotationMatrix</text>
</a>
</g>
</g>
<!-- Node31&#45;&gt;Node32 -->
<g id="edge10" class="edge"><title>Node31&#45;&gt;Node32</title>
<path fill="none" stroke="midnightblue" d="M571.572,-294.964C589.917,-297.263 610.761,-299.875 630.778,-302.383"/>
<polygon fill="midnightblue" stroke="midnightblue" points="630.479,-305.873 640.837,-303.644 631.35,-298.927 630.479,-305.873"/>
</g>
<!-- Node33 -->
<g id="node10" class="node"><title>Node33</title>
<g id="a_node10"><a xlink:href="namespaceSeeSawN_1_1ElementsN.html#aabefe01f66e07e040c532830489fd251" target="_top" xlink:title="SeeSawN::ElementsN\l::DecomposeEssential">
<polygon fill="white" stroke="black" points="660,-249 660,-279 773,-279 773,-249 660,-249"/>
<text text-anchor="start" x="668" y="-267" font-family="FreeSans" font-size="10.00">SeeSawN::ElementsN</text>
<text text-anchor="middle" x="716.5" y="-256" font-family="FreeSans" font-size="10.00">::DecomposeEssential</text>
</a>
</g>
</g>
<!-- Node31&#45;&gt;Node33 -->
<g id="edge11" class="edge"><title>Node31&#45;&gt;Node33</title>
<path fill="none" stroke="midnightblue" d="M571.572,-281.315C595.79,-278.401 624.363,-274.964 649.64,-271.923"/>
<polygon fill="midnightblue" stroke="midnightblue" points="650.37,-275.36 659.88,-270.691 649.534,-268.411 650.37,-275.36"/>
</g>
<!-- Node34&#45;&gt;Node31 -->
<g id="edge14" class="edge"><title>Node34&#45;&gt;Node31</title>
<path fill="none" stroke="midnightblue" d="M377.624,-258.366C401.217,-263.493 426.255,-268.934 448.352,-273.735"/>
<polygon fill="midnightblue" stroke="midnightblue" points="447.766,-277.189 458.281,-275.893 449.252,-270.349 447.766,-277.189"/>
</g>
<!-- Node34&#45;&gt;Node35 -->
<g id="edge15" class="edge"><title>Node34&#45;&gt;Node35</title>
<path fill="none" stroke="midnightblue" d="M377.624,-229.515C401.004,-227.026 425.804,-224.387 447.754,-222.051"/>
<polygon fill="midnightblue" stroke="midnightblue" points="448.377,-225.504 457.951,-220.965 447.636,-218.543 448.377,-225.504"/>
</g>
</g>
</svg>
        <g id="navigator" transform="translate(0 0)" fill="#404254">
                <rect fill="#f2f5e9" fill-opacity="0.5" stroke="#606060" stroke-width=".5" x="0" y="0" width="60" height="60"/>
                <use id="zoomplus" xlink:href="#zoomPlus" x="17" y="9" onmousedown="handleZoom(evt,'in')"/>
                <use id="zoomminus" xlink:href="#zoomMin" x="42" y="9" onmousedown="handleZoom(evt,'out')"/>
                <use id="reset" xlink:href="#resetDef" x="30" y="36" onmousedown="handleReset()"/>
                <g id="arrowUp" xlink:href="#dirArrow" transform="translate(30 24)" onmousedown="handlePan(0,-1)">
                  <use xlink:href="#rim" fill="#404040">
                        <set attributeName="fill" to="#808080" begin="arrowUp.mouseover" end="arrowUp.mouseout"/>
                  </use>
                  <path fill="none" stroke="white" stroke-width="1.5" d="M0,-3.0v7 M-2.5,-0.5L0,-3.0L2.5,-0.5"/>
                </g>
                <g id="arrowRight" xlink:href="#dirArrow" transform="rotate(90) translate(36 -43)" onmousedown="handlePan(1,0)">
                  <use xlink:href="#rim" fill="#404040">
                        <set attributeName="fill" to="#808080" begin="arrowRight.mouseover" end="arrowRight.mouseout"/>
                  </use>
                  <path fill="none" stroke="white" stroke-width="1.5" d="M0,-3.0v7 M-2.5,-0.5L0,-3.0L2.5,-0.5"/>
                </g>
                <g id="arrowDown" xlink:href="#dirArrow" transform="rotate(180) translate(-30 -48)" onmousedown="handlePan(0,1)">
                  <use xlink:href="#rim" fill="#404040">
                        <set attributeName="fill" to="#808080" begin="arrowDown.mouseover" end="arrowDown.mouseout"/>
                  </use>
                  <path fill="none" stroke="white" stroke-width="1.5" d="M0,-3.0v7 M-2.5,-0.5L0,-3.0L2.5,-0.5"/>
                </g>
                <g id="arrowLeft" xlink:href="#dirArrow" transform="rotate(270) translate(-36 17)" onmousedown="handlePan(-1,0)">
                  <use xlink:href="#rim" fill="#404040">
                        <set attributeName="fill" to="#808080" begin="arrowLeft.mouseover" end="arrowLeft.mouseout"/>
                  </use>
                  <path fill="none" stroke="white" stroke-width="1.5" d="M0,-3.0v7 M-2.5,-0.5L0,-3.0L2.5,-0.5"/>
                </g>
        </g>
        <svg viewBox="0 0 15 15" width="100%" height="30px" preserveAspectRatio="xMaxYMin meet">
         <g id="arrow_out" transform="scale(0.3 0.3)">
          <a xlink:href="namespaceSeeSawN_1_1UnitTestsN_1_1TestOptimisationN_a227f13935ba80a39eaf1cd5e03355c2f_cgraph_org.svg" target="_base">
           <rect id="button" ry="5" rx="5" y="6" x="6" height="38" width="38"
                fill="#f2f5e9" fill-opacity="0.5" stroke="#606060" stroke-width="1.0"/>
           <path id="arrow"
             d="M 11.500037,31.436501 C 11.940474,20.09759 22.043105,11.32322 32.158766,21.979434 L 37.068811,17.246167 C 37.068811,17.246167 37.088388,32 37.088388,32 L 22.160133,31.978069 C 22.160133,31.978069 26.997745,27.140456 26.997745,27.140456 C 18.528582,18.264221 13.291696,25.230495 11.500037,31.436501 z"
             style="fill:#404040;"/>
          </a>
         </g>
        </svg>
</svg>
