<?xml version="1.0" encoding="UTF-8" standalone="no"?>
<!DOCTYPE svg PUBLIC "-//W3C//DTD SVG 1.1//EN"
 "http://www.w3.org/Graphics/SVG/1.1/DTD/svg11.dtd">
<!-- Generated by graphviz version 2.38.0 (20140413.2041)
 -->
<!-- Title: SeeSawN::UnitTestsN::TestGeometryN::BOOST_AUTO_TEST_CASE Pages: 1 -->
<svg width="567pt" height="451pt"
 viewBox="0.00 0.00 567.00 450.50" xmlns="http://www.w3.org/2000/svg" xmlns:xlink="http://www.w3.org/1999/xlink">
<g id="graph0" class="graph" transform="scale(1 1) rotate(0) translate(4 446.5)">
<title>SeeSawN::UnitTestsN::TestGeometryN::BOOST_AUTO_TEST_CASE</title>
<polygon fill="white" stroke="none" points="-4,4 -4,-446.5 563,-446.5 563,4 -4,4"/>
<!-- Node212 -->
<g id="node1" class="node"><title>Node212</title>
<polygon fill="#bfbfbf" stroke="black" points="0,-191 0,-232 129,-232 129,-191 0,-191"/>
<text text-anchor="start" x="8" y="-220" font-family="FreeSans" font-size="10.00">SeeSawN::UnitTestsN</text>
<text text-anchor="start" x="8" y="-209" font-family="FreeSans" font-size="10.00">::TestGeometryN::BOOST</text>
<text text-anchor="middle" x="64.5" y="-198" font-family="FreeSans" font-size="10.00">_AUTO_TEST_CASE</text>
</g>
<!-- Node213 -->
<g id="node2" class="node"><title>Node213</title>
<g id="a_node2"><a xlink:href="structSeeSawN_1_1UncertaintyEstimationN_1_1MultivariateGaussianC.html#ae747d560b5913f0090ad08d9b734f12a" target="_top" xlink:title="Computes the Mahalonobis distance between the mean and a sample. ">
<polygon fill="white" stroke="black" points="174,-371 174,-412 335,-412 335,-371 174,-371"/>
<text text-anchor="start" x="182" y="-400" font-family="FreeSans" font-size="10.00">SeeSawN::UncertaintyEstimation</text>
<text text-anchor="start" x="182" y="-389" font-family="FreeSans" font-size="10.00">N::MultivariateGaussianC</text>
<text text-anchor="middle" x="254.5" y="-378" font-family="FreeSans" font-size="10.00">::ComputeMahalonobisDistance</text>
</a>
</g>
</g>
<!-- Node212&#45;&gt;Node213 -->
<g id="edge1" class="edge"><title>Node212&#45;&gt;Node213</title>
<path fill="none" stroke="midnightblue" d="M73.8714,-232.099C87.9669,-264.282 119.433,-326.429 165,-361.5 166.828,-362.907 168.726,-364.25 170.68,-365.532"/>
<polygon fill="midnightblue" stroke="midnightblue" points="169.178,-368.71 179.571,-370.772 172.733,-362.679 169.178,-368.71"/>
</g>
<!-- Node216 -->
<g id="node5" class="node"><title>Node216</title>
<g id="a_node5"><a xlink:href="classSeeSawN_1_1GeometryN_1_1Homography3DSolverC.html#ae907cfe23d411cf390fe414eebc7d5eb" target="_top" xlink:title="Computes the sample statistics for a set of homographies. ">
<polygon fill="white" stroke="black" points="187.5,-311 187.5,-352 321.5,-352 321.5,-311 187.5,-311"/>
<text text-anchor="start" x="195.5" y="-340" font-family="FreeSans" font-size="10.00">SeeSawN::GeometryN</text>
<text text-anchor="start" x="195.5" y="-329" font-family="FreeSans" font-size="10.00">::Homography3DSolverC</text>
<text text-anchor="middle" x="254.5" y="-318" font-family="FreeSans" font-size="10.00">::ComputeSampleStatistics</text>
</a>
</g>
</g>
<!-- Node212&#45;&gt;Node216 -->
<g id="edge4" class="edge"><title>Node212&#45;&gt;Node216</title>
<path fill="none" stroke="midnightblue" d="M83.4255,-232.014C102.032,-252.188 132.865,-282.625 165,-301.5 169.153,-303.939 173.533,-306.216 178.031,-308.336"/>
<polygon fill="midnightblue" stroke="midnightblue" points="176.834,-311.633 187.396,-312.467 179.66,-305.228 176.834,-311.633"/>
</g>
<!-- Node217 -->
<g id="node6" class="node"><title>Node217</title>
<g id="a_node6"><a xlink:href="structSeeSawN_1_1UncertaintyEstimationN_1_1MultivariateGaussianC.html#a4d5857641cf89f71dd418a939b0efcc0" target="_top" xlink:title="Returns a constant reference to mean. ">
<polygon fill="white" stroke="black" points="174,-251 174,-292 335,-292 335,-251 174,-251"/>
<text text-anchor="start" x="182" y="-280" font-family="FreeSans" font-size="10.00">SeeSawN::UncertaintyEstimation</text>
<text text-anchor="start" x="182" y="-269" font-family="FreeSans" font-size="10.00">N::MultivariateGaussianC</text>
<text text-anchor="middle" x="254.5" y="-258" font-family="FreeSans" font-size="10.00">::GetMean</text>
</a>
</g>
</g>
<!-- Node212&#45;&gt;Node217 -->
<g id="edge5" class="edge"><title>Node212&#45;&gt;Node217</title>
<path fill="none" stroke="midnightblue" d="M129.148,-231.813C145.266,-236.957 162.717,-242.527 179.306,-247.821"/>
<polygon fill="midnightblue" stroke="midnightblue" points="178.367,-251.195 188.957,-250.901 180.495,-244.526 178.367,-251.195"/>
</g>
<!-- Node218 -->
<g id="node7" class="node"><title>Node218</title>
<g id="a_node7"><a xlink:href="classSeeSawN_1_1GeometryN_1_1Homography3DSolverC.html#a47765b350a0a447e6469512d270c9b98" target="_top" xlink:title="Converts a model to the minimal form. ">
<polygon fill="white" stroke="black" points="193.5,-191 193.5,-232 315.5,-232 315.5,-191 193.5,-191"/>
<text text-anchor="start" x="201.5" y="-220" font-family="FreeSans" font-size="10.00">SeeSawN::GeometryN</text>
<text text-anchor="start" x="201.5" y="-209" font-family="FreeSans" font-size="10.00">::Homography3DSolverC</text>
<text text-anchor="middle" x="254.5" y="-198" font-family="FreeSans" font-size="10.00">::MakeMinimal</text>
</a>
</g>
</g>
<!-- Node212&#45;&gt;Node218 -->
<g id="edge6" class="edge"><title>Node212&#45;&gt;Node218</title>
<path fill="none" stroke="midnightblue" d="M129.148,-211.5C146.512,-211.5 165.425,-211.5 183.139,-211.5"/>
<polygon fill="midnightblue" stroke="midnightblue" points="183.41,-215 193.41,-211.5 183.41,-208 183.41,-215"/>
</g>
<!-- Node219 -->
<g id="node8" class="node"><title>Node219</title>
<g id="a_node8"><a xlink:href="classSeeSawN_1_1GeometryN_1_1GeometrySolverBaseC.html#aabb34f99b307ff90276ca54b5378a21c" target="_top" xlink:title="Converts a vector to a model. ">
<polygon fill="white" stroke="black" points="380,-101.5 380,-175.5 559,-175.5 559,-101.5 380,-101.5"/>
<text text-anchor="start" x="388" y="-163.5" font-family="FreeSans" font-size="10.00">SeeSawN::GeometryN</text>
<text text-anchor="start" x="388" y="-152.5" font-family="FreeSans" font-size="10.00">::GeometrySolverBaseC</text>
<text text-anchor="start" x="388" y="-141.5" font-family="FreeSans" font-size="10.00">&lt; Homography3DSolverC,</text>
<text text-anchor="start" x="388" y="-130.5" font-family="FreeSans" font-size="10.00"> Homography3DT, SymmetricTransfer</text>
<text text-anchor="start" x="388" y="-119.5" font-family="FreeSans" font-size="10.00">ErrorC&lt; Homography3DT &gt;, 3, 3,</text>
<text text-anchor="middle" x="469.5" y="-108.5" font-family="FreeSans" font-size="10.00"> 5, true, 1, 16, 15 &gt;::MakeModel</text>
</a>
</g>
</g>
<!-- Node212&#45;&gt;Node219 -->
<g id="edge7" class="edge"><title>Node212&#45;&gt;Node219</title>
<path fill="none" stroke="midnightblue" d="M128.283,-190.995C140.382,-187.493 153.018,-184.139 165,-181.5 232.676,-166.594 310.029,-155.727 369.706,-148.646"/>
<polygon fill="midnightblue" stroke="midnightblue" points="370.355,-152.094 379.88,-147.455 369.541,-145.142 370.355,-152.094"/>
</g>
<!-- Node220 -->
<g id="node9" class="node"><title>Node220</title>
<g id="a_node9"><a xlink:href="classSeeSawN_1_1GeometryN_1_1Homography3DSolverC.html#aab1a62864cd4941bc8c7d5ddabec51d0" target="_top" xlink:title="Minimal form to matrix conversion. ">
<polygon fill="white" stroke="black" points="190.5,-93 190.5,-134 318.5,-134 318.5,-93 190.5,-93"/>
<text text-anchor="start" x="198.5" y="-122" font-family="FreeSans" font-size="10.00">SeeSawN::GeometryN</text>
<text text-anchor="start" x="198.5" y="-111" font-family="FreeSans" font-size="10.00">::Homography3DSolverC</text>
<text text-anchor="middle" x="254.5" y="-100" font-family="FreeSans" font-size="10.00">::MakeModelFromMinimal</text>
</a>
</g>
</g>
<!-- Node212&#45;&gt;Node220 -->
<g id="edge8" class="edge"><title>Node212&#45;&gt;Node220</title>
<path fill="none" stroke="midnightblue" d="M94.6842,-190.968C114.073,-177.849 140.398,-161.013 165,-148.5 172.12,-144.879 179.706,-141.377 187.33,-138.079"/>
<polygon fill="midnightblue" stroke="midnightblue" points="188.763,-141.273 196.618,-134.162 186.044,-134.823 188.763,-141.273"/>
</g>
<!-- Node221 -->
<g id="node10" class="node"><title>Node221</title>
<g id="a_node10"><a xlink:href="classSeeSawN_1_1GeometryN_1_1GeometrySolverBaseC.html#a5e22c039dfad2565a9f4b799d71f7918" target="_top" xlink:title="Converts a model to a vector. ">
<polygon fill="white" stroke="black" points="165,-0.5 165,-74.5 344,-74.5 344,-0.5 165,-0.5"/>
<text text-anchor="start" x="173" y="-62.5" font-family="FreeSans" font-size="10.00">SeeSawN::GeometryN</text>
<text text-anchor="start" x="173" y="-51.5" font-family="FreeSans" font-size="10.00">::GeometrySolverBaseC</text>
<text text-anchor="start" x="173" y="-40.5" font-family="FreeSans" font-size="10.00">&lt; Homography3DSolverC,</text>
<text text-anchor="start" x="173" y="-29.5" font-family="FreeSans" font-size="10.00"> Homography3DT, SymmetricTransfer</text>
<text text-anchor="start" x="173" y="-18.5" font-family="FreeSans" font-size="10.00">ErrorC&lt; Homography3DT &gt;, 3, 3,</text>
<text text-anchor="middle" x="254.5" y="-7.5" font-family="FreeSans" font-size="10.00"> 5, true, 1, 16, 15 &gt;::MakeVector</text>
</a>
</g>
</g>
<!-- Node212&#45;&gt;Node221 -->
<g id="edge10" class="edge"><title>Node212&#45;&gt;Node221</title>
<path fill="none" stroke="midnightblue" d="M77.7148,-190.636C94.557,-163.268 127.158,-115.031 165,-83.5 166.164,-82.5301 167.352,-81.5727 168.561,-80.6282"/>
<polygon fill="midnightblue" stroke="midnightblue" points="170.811,-83.3179 176.808,-74.5837 166.674,-77.6718 170.811,-83.3179"/>
</g>
<!-- Node214 -->
<g id="node3" class="node"><title>Node214</title>
<g id="a_node3"><a xlink:href="structSeeSawN_1_1UncertaintyEstimationN_1_1MultivariateGaussianC.html#ae849d1b5fab0ddcd465d8046f4c734c2" target="_top" xlink:title="Initialises inverseCovariance and related variables. ">
<polygon fill="white" stroke="black" points="389,-401 389,-442 550,-442 550,-401 389,-401"/>
<text text-anchor="start" x="397" y="-430" font-family="FreeSans" font-size="10.00">SeeSawN::UncertaintyEstimation</text>
<text text-anchor="start" x="397" y="-419" font-family="FreeSans" font-size="10.00">N::MultivariateGaussianC</text>
<text text-anchor="middle" x="469.5" y="-408" font-family="FreeSans" font-size="10.00">::InitialiseInverse</text>
</a>
</g>
</g>
<!-- Node213&#45;&gt;Node214 -->
<g id="edge2" class="edge"><title>Node213&#45;&gt;Node214</title>
<path fill="none" stroke="midnightblue" d="M335.116,-402.714C349.421,-404.728 364.419,-406.841 378.982,-408.892"/>
<polygon fill="midnightblue" stroke="midnightblue" points="378.59,-412.371 388.98,-410.3 379.566,-405.439 378.59,-412.371"/>
</g>
<!-- Node215 -->
<g id="node4" class="node"><title>Node215</title>
<g id="a_node4"><a xlink:href="structSeeSawN_1_1UncertaintyEstimationN_1_1MultivariateGaussianC.html#ae1ebc044c789ead55486e00b49c28b26" target="_top" xlink:title="true if the mean and the covariance are set ">
<polygon fill="white" stroke="black" points="389,-341 389,-382 550,-382 550,-341 389,-341"/>
<text text-anchor="start" x="397" y="-370" font-family="FreeSans" font-size="10.00">SeeSawN::UncertaintyEstimation</text>
<text text-anchor="start" x="397" y="-359" font-family="FreeSans" font-size="10.00">N::MultivariateGaussianC</text>
<text text-anchor="middle" x="469.5" y="-348" font-family="FreeSans" font-size="10.00">::IsValid</text>
</a>
</g>
</g>
<!-- Node213&#45;&gt;Node215 -->
<g id="edge3" class="edge"><title>Node213&#45;&gt;Node215</title>
<path fill="none" stroke="midnightblue" d="M335.116,-380.286C349.421,-378.272 364.419,-376.159 378.982,-374.108"/>
<polygon fill="midnightblue" stroke="midnightblue" points="379.566,-377.561 388.98,-372.7 378.59,-370.629 379.566,-377.561"/>
</g>
<!-- Node220&#45;&gt;Node219 -->
<g id="edge9" class="edge"><title>Node220&#45;&gt;Node219</title>
<path fill="none" stroke="midnightblue" d="M318.542,-120.899C334.642,-122.789 352.342,-124.866 369.762,-126.911"/>
<polygon fill="midnightblue" stroke="midnightblue" points="369.633,-130.42 379.973,-128.11 370.449,-123.468 369.633,-130.42"/>
</g>
</g>
</svg>
