<?xml version="1.0" encoding="UTF-8" standalone="no"?>
<!DOCTYPE svg PUBLIC "-//W3C//DTD SVG 1.1//EN"
 "http://www.w3.org/Graphics/SVG/1.1/DTD/svg11.dtd">
<!-- Generated by graphviz version 2.38.0 (20140413.2041)
 -->
<!-- Title: SeeSawN::UnitTestsN::TestGeometryN::BOOST_AUTO_TEST_CASE Pages: 1 -->
<!--zoomable 513 -->
<svg id="main" version="1.1" xmlns="http://www.w3.org/2000/svg" xmlns:xlink="http://www.w3.org/1999/xlink" xml:space="preserve" onload="init(evt)">
<style type="text/css"><![CDATA[
.edge:hover path { stroke: red; }
.edge:hover polygon { stroke: red; fill: red; }
]]></style>
<script type="text/javascript"><![CDATA[
var edges = document.getElementsByTagName('g');
if (edges && edges.length) {
  for (var i=0;i<edges.length;i++) {
    if (edges[i].id.substr(0,4)=='edge') {
      edges[i].setAttribute('class','edge');
    }
  }
}
]]></script>
        <defs>
                <circle id="rim" cx="0" cy="0" r="7"/>
                <circle id="rim2" cx="0" cy="0" r="3.5"/>
                <g id="zoomPlus">
                        <use xlink:href="#rim" fill="#404040">
                                <set attributeName="fill" to="#808080" begin="zoomplus.mouseover" end="zoomplus.mouseout"/>
                        </use>
                        <path d="M-4,0h8M0,-4v8" fill="none" stroke="white" stroke-width="1.5" pointer-events="none"/>
                </g>
                <g id="zoomMin">
                        <use xlink:href="#rim" fill="#404040">
                                <set attributeName="fill" to="#808080" begin="zoomminus.mouseover" end="zoomminus.mouseout"/>
                        </use>
                        <path d="M-4,0h8" fill="none" stroke="white" stroke-width="1.5" pointer-events="none"/>
                </g>
                <g id="dirArrow">
                        <path fill="none" stroke="white" stroke-width="1.5" d="M0,-3.0v7 M-2.5,-0.5L0,-3.0L2.5,-0.5"/>
                </g>
               <g id="resetDef">
                       <use xlink:href="#rim2" fill="#404040">
                               <set attributeName="fill" to="#808080" begin="reset.mouseover" end="reset.mouseout"/>
                       </use>
               </g>
        </defs>

<script type="text/javascript">
var viewWidth = 707;
var viewHeight = 513;
var sectionId = 'dynsection-20';
</script>
<script xlink:href="svgpan.js"/>
<svg id="graph" class="graph">
<g id="viewport">
<title>SeeSawN::UnitTestsN::TestGeometryN::BOOST_AUTO_TEST_CASE</title>
<polygon fill="white" stroke="none" points="-4,4 -4,-509 703,-509 703,4 -4,4"/>
<!-- Node271 -->
<g id="node1" class="node"><title>Node271</title>
<polygon fill="#bfbfbf" stroke="black" points="0,-225.5 0,-266.5 129,-266.5 129,-225.5 0,-225.5"/>
<text text-anchor="start" x="8" y="-254.5" font-family="FreeSans" font-size="10.00">SeeSawN::UnitTestsN</text>
<text text-anchor="start" x="8" y="-243.5" font-family="FreeSans" font-size="10.00">::TestGeometryN::BOOST</text>
<text text-anchor="middle" x="64.5" y="-232.5" font-family="FreeSans" font-size="10.00">_AUTO_TEST_CASE</text>
</g>
<!-- Node272 -->
<g id="node2" class="node"><title>Node272</title>
<g id="a_node2"><a xlink:href="group__Elements.html#gaed97416c6eb370835de21c7c7d9942dd" target="_top" xlink:title="Composes a camera matrix. ">
<polygon fill="white" stroke="black" points="381.5,-277 381.5,-307 503.5,-307 503.5,-277 381.5,-277"/>
<text text-anchor="start" x="389.5" y="-295" font-family="FreeSans" font-size="10.00">SeeSawN::ElementsN</text>
<text text-anchor="middle" x="442.5" y="-284" font-family="FreeSans" font-size="10.00">::ComposeCameraMatrix</text>
</a>
</g>
</g>
<!-- Node271&#45;&gt;Node272 -->
<g id="edge1" class="edge"><title>Node271&#45;&gt;Node272</title>
<path fill="none" stroke="midnightblue" d="M80.6843,-266.795C98.1683,-288.791 129.136,-322.186 165,-336 244.803,-366.738 345.512,-334.444 400.699,-311.239"/>
<polygon fill="midnightblue" stroke="midnightblue" points="402.335,-314.345 410.133,-307.173 399.564,-307.917 402.335,-314.345"/>
</g>
<!-- Node273 -->
<g id="node3" class="node"><title>Node273</title>
<g id="a_node3"><a xlink:href="classSeeSawN_1_1GeometryN_1_1P3PSolverC.html#a1f8e7e26ed17daa87bff7aff54d6c887" target="_top" xlink:title="Computes the distance between two models. ">
<polygon fill="white" stroke="black" points="167.5,-384 167.5,-414 323.5,-414 323.5,-384 167.5,-384"/>
<text text-anchor="start" x="175.5" y="-402" font-family="FreeSans" font-size="10.00">SeeSawN::GeometryN</text>
<text text-anchor="middle" x="245.5" y="-391" font-family="FreeSans" font-size="10.00">::P3PSolverC::ComputeDistance</text>
</a>
</g>
</g>
<!-- Node271&#45;&gt;Node273 -->
<g id="edge2" class="edge"><title>Node271&#45;&gt;Node273</title>
<path fill="none" stroke="midnightblue" d="M77.3791,-266.694C93.8497,-293.707 126.041,-340.848 165,-369 170.543,-373.006 176.686,-376.544 183.029,-379.654"/>
<polygon fill="midnightblue" stroke="midnightblue" points="181.867,-382.969 192.42,-383.907 184.755,-376.593 181.867,-382.969"/>
</g>
<!-- Node274 -->
<g id="node4" class="node"><title>Node274</title>
<g id="a_node4"><a xlink:href="structSeeSawN_1_1UncertaintyEstimationN_1_1MultivariateGaussianC.html#ae747d560b5913f0090ad08d9b734f12a" target="_top" xlink:title="Computes the Mahalonobis distance between the mean and a sample. ">
<polygon fill="white" stroke="black" points="165,-433.5 165,-474.5 326,-474.5 326,-433.5 165,-433.5"/>
<text text-anchor="start" x="173" y="-462.5" font-family="FreeSans" font-size="10.00">SeeSawN::UncertaintyEstimation</text>
<text text-anchor="start" x="173" y="-451.5" font-family="FreeSans" font-size="10.00">N::MultivariateGaussianC</text>
<text text-anchor="middle" x="245.5" y="-440.5" font-family="FreeSans" font-size="10.00">::ComputeMahalonobisDistance</text>
</a>
</g>
</g>
<!-- Node271&#45;&gt;Node274 -->
<g id="edge3" class="edge"><title>Node271&#45;&gt;Node274</title>
<path fill="none" stroke="midnightblue" d="M71.7669,-266.64C83.9098,-303.317 114.03,-380.105 165,-424 166.509,-425.3 168.08,-426.546 169.702,-427.74"/>
<polygon fill="midnightblue" stroke="midnightblue" points="167.905,-430.747 178.19,-433.291 171.737,-424.888 167.905,-430.747"/>
</g>
<!-- Node277 -->
<g id="node7" class="node"><title>Node277</title>
<g id="a_node7"><a xlink:href="classSeeSawN_1_1GeometryN_1_1P3PSolverC.html#ab77e6863f7eb81d1b790d41955fd8cd6" target="_top" xlink:title="Computes the sample statistics for a set of pose estimates. ">
<polygon fill="white" stroke="black" points="170,-285.5 170,-326.5 321,-326.5 321,-285.5 170,-285.5"/>
<text text-anchor="start" x="178" y="-314.5" font-family="FreeSans" font-size="10.00">SeeSawN::GeometryN</text>
<text text-anchor="start" x="178" y="-303.5" font-family="FreeSans" font-size="10.00">::P3PSolverC::ComputeSample</text>
<text text-anchor="middle" x="245.5" y="-292.5" font-family="FreeSans" font-size="10.00">Statistics</text>
</a>
</g>
</g>
<!-- Node271&#45;&gt;Node277 -->
<g id="edge6" class="edge"><title>Node271&#45;&gt;Node277</title>
<path fill="none" stroke="midnightblue" d="M126.851,-266.565C141.937,-271.621 158.211,-277.076 173.702,-282.269"/>
<polygon fill="midnightblue" stroke="midnightblue" points="172.635,-285.603 183.229,-285.462 174.86,-278.965 172.635,-285.603"/>
</g>
<!-- Node278 -->
<g id="node8" class="node"><title>Node278</title>
<g id="a_node8"><a xlink:href="structSeeSawN_1_1UncertaintyEstimationN_1_1MultivariateGaussianC.html#a4d5857641cf89f71dd418a939b0efcc0" target="_top" xlink:title="Returns a constant reference to mean. ">
<polygon fill="white" stroke="black" points="165,-225.5 165,-266.5 326,-266.5 326,-225.5 165,-225.5"/>
<text text-anchor="start" x="173" y="-254.5" font-family="FreeSans" font-size="10.00">SeeSawN::UncertaintyEstimation</text>
<text text-anchor="start" x="173" y="-243.5" font-family="FreeSans" font-size="10.00">N::MultivariateGaussianC</text>
<text text-anchor="middle" x="245.5" y="-232.5" font-family="FreeSans" font-size="10.00">::GetMean</text>
</a>
</g>
</g>
<!-- Node271&#45;&gt;Node278 -->
<g id="edge7" class="edge"><title>Node271&#45;&gt;Node278</title>
<path fill="none" stroke="midnightblue" d="M129.113,-246C137.419,-246 146.05,-246 154.685,-246"/>
<polygon fill="midnightblue" stroke="midnightblue" points="154.805,-249.5 164.805,-246 154.805,-242.5 154.805,-249.5"/>
</g>
<!-- Node279 -->
<g id="node9" class="node"><title>Node279</title>
<g id="a_node9"><a xlink:href="classSeeSawN_1_1GeometryN_1_1P3PSolverC.html#a86ae2f2b14dcc284db49c907c384a1ec" target="_top" xlink:title="Converts a model to the minimal form. ">
<polygon fill="white" stroke="black" points="177,-176 177,-206 314,-206 314,-176 177,-176"/>
<text text-anchor="start" x="185" y="-194" font-family="FreeSans" font-size="10.00">SeeSawN::GeometryN</text>
<text text-anchor="middle" x="245.5" y="-183" font-family="FreeSans" font-size="10.00">::P3PSolverC::MakeMinimal</text>
</a>
</g>
</g>
<!-- Node271&#45;&gt;Node279 -->
<g id="edge8" class="edge"><title>Node271&#45;&gt;Node279</title>
<path fill="none" stroke="midnightblue" d="M129.113,-226.454C147.597,-220.775 167.692,-214.6 185.856,-209.019"/>
<polygon fill="midnightblue" stroke="midnightblue" points="186.91,-212.357 195.441,-206.074 184.854,-205.665 186.91,-212.357"/>
</g>
<!-- Node280 -->
<g id="node10" class="node"><title>Node280</title>
<g id="a_node10"><a xlink:href="classSeeSawN_1_1GeometryN_1_1P3PSolverC.html#a9d842a9d3e6cae8c0404aca8fd145da6" target="_top" xlink:title="Converts a vector to a model. ">
<polygon fill="white" stroke="black" points="181,-66 181,-96 310,-96 310,-66 181,-66"/>
<text text-anchor="start" x="189" y="-84" font-family="FreeSans" font-size="10.00">SeeSawN::GeometryN</text>
<text text-anchor="middle" x="245.5" y="-73" font-family="FreeSans" font-size="10.00">::P3PSolverC::MakeModel</text>
</a>
</g>
</g>
<!-- Node271&#45;&gt;Node280 -->
<g id="edge9" class="edge"><title>Node271&#45;&gt;Node280</title>
<path fill="none" stroke="midnightblue" d="M74.7548,-225.419C89.5101,-194.9 121.23,-137.832 165,-106 167.633,-104.085 170.417,-102.314 173.305,-100.676"/>
<polygon fill="midnightblue" stroke="midnightblue" points="174.899,-103.792 182.237,-96.1497 171.735,-97.5479 174.899,-103.792"/>
</g>
<!-- Node282 -->
<g id="node12" class="node"><title>Node282</title>
<g id="a_node12"><a xlink:href="classSeeSawN_1_1GeometryN_1_1P3PSolverC.html#a33ceaba42702b31ed026d520a45bd93c" target="_top" xlink:title="Minimal form to matrix conversion. ">
<polygon fill="white" stroke="black" points="169.5,-115.5 169.5,-156.5 321.5,-156.5 321.5,-115.5 169.5,-115.5"/>
<text text-anchor="start" x="177.5" y="-144.5" font-family="FreeSans" font-size="10.00">SeeSawN::GeometryN</text>
<text text-anchor="start" x="177.5" y="-133.5" font-family="FreeSans" font-size="10.00">::P3PSolverC::MakeModelFrom</text>
<text text-anchor="middle" x="245.5" y="-122.5" font-family="FreeSans" font-size="10.00">Minimal</text>
</a>
</g>
</g>
<!-- Node271&#45;&gt;Node282 -->
<g id="edge11" class="edge"><title>Node271&#45;&gt;Node282</title>
<path fill="none" stroke="midnightblue" d="M86.9374,-225.392C106.153,-207.781 135.745,-182.712 165,-166 168.038,-164.264 171.196,-162.593 174.425,-160.989"/>
<polygon fill="midnightblue" stroke="midnightblue" points="176.108,-164.065 183.673,-156.647 173.134,-157.728 176.108,-164.065"/>
</g>
<!-- Node285 -->
<g id="node15" class="node"><title>Node285</title>
<g id="a_node15"><a xlink:href="classSeeSawN_1_1GeometryN_1_1P3PSolverC.html#a20439b78f8eb247b87ec77c5a02396d6" target="_top" xlink:title="Converts a model to a vector. ">
<polygon fill="white" stroke="black" points="180,-12 180,-42 311,-42 311,-12 180,-12"/>
<text text-anchor="start" x="188" y="-30" font-family="FreeSans" font-size="10.00">SeeSawN::GeometryN</text>
<text text-anchor="middle" x="245.5" y="-19" font-family="FreeSans" font-size="10.00">::P3PSolverC::MakeVector</text>
</a>
</g>
</g>
<!-- Node271&#45;&gt;Node285 -->
<g id="edge15" class="edge"><title>Node271&#45;&gt;Node285</title>
<path fill="none" stroke="midnightblue" d="M70.874,-225.444C81.9842,-186.855 111.068,-103.214 165,-56 168.907,-52.5797 173.25,-49.551 177.836,-46.871"/>
<polygon fill="midnightblue" stroke="midnightblue" points="179.657,-49.8686 186.899,-42.1358 176.415,-43.6642 179.657,-49.8686"/>
</g>
<!-- Node275 -->
<g id="node5" class="node"><title>Node275</title>
<g id="a_node5"><a xlink:href="structSeeSawN_1_1UncertaintyEstimationN_1_1MultivariateGaussianC.html#ae849d1b5fab0ddcd465d8046f4c734c2" target="_top" xlink:title="Initialises inverseCovariance and related variables. ">
<polygon fill="white" stroke="black" points="362,-463.5 362,-504.5 523,-504.5 523,-463.5 362,-463.5"/>
<text text-anchor="start" x="370" y="-492.5" font-family="FreeSans" font-size="10.00">SeeSawN::UncertaintyEstimation</text>
<text text-anchor="start" x="370" y="-481.5" font-family="FreeSans" font-size="10.00">N::MultivariateGaussianC</text>
<text text-anchor="middle" x="442.5" y="-470.5" font-family="FreeSans" font-size="10.00">::InitialiseInverse</text>
</a>
</g>
</g>
<!-- Node274&#45;&gt;Node275 -->
<g id="edge4" class="edge"><title>Node274&#45;&gt;Node275</title>
<path fill="none" stroke="midnightblue" d="M326.095,-466.245C334.573,-467.55 343.237,-468.883 351.821,-470.203"/>
<polygon fill="midnightblue" stroke="midnightblue" points="351.427,-473.684 361.843,-471.745 352.492,-466.765 351.427,-473.684"/>
</g>
<!-- Node276 -->
<g id="node6" class="node"><title>Node276</title>
<g id="a_node6"><a xlink:href="structSeeSawN_1_1UncertaintyEstimationN_1_1MultivariateGaussianC.html#ae1ebc044c789ead55486e00b49c28b26" target="_top" xlink:title="true if the mean and the covariance are set ">
<polygon fill="white" stroke="black" points="362,-403.5 362,-444.5 523,-444.5 523,-403.5 362,-403.5"/>
<text text-anchor="start" x="370" y="-432.5" font-family="FreeSans" font-size="10.00">SeeSawN::UncertaintyEstimation</text>
<text text-anchor="start" x="370" y="-421.5" font-family="FreeSans" font-size="10.00">N::MultivariateGaussianC</text>
<text text-anchor="middle" x="442.5" y="-410.5" font-family="FreeSans" font-size="10.00">::IsValid</text>
</a>
</g>
</g>
<!-- Node274&#45;&gt;Node276 -->
<g id="edge5" class="edge"><title>Node274&#45;&gt;Node276</title>
<path fill="none" stroke="midnightblue" d="M326.095,-441.755C334.573,-440.45 343.237,-439.117 351.821,-437.797"/>
<polygon fill="midnightblue" stroke="midnightblue" points="352.492,-441.235 361.843,-436.255 351.427,-434.316 352.492,-441.235"/>
</g>
<!-- Node281 -->
<g id="node11" class="node"><title>Node281</title>
<g id="a_node11"><a xlink:href="classSeeSawN_1_1GeometryN_1_1Similarity3DSolverC.html#a245abae4fa705e74ce9a77bf2f0ccf8b" target="_top" xlink:title="Converts a vector to a model. ">
<polygon fill="white" stroke="black" points="385,-60.5 385,-101.5 500,-101.5 500,-60.5 385,-60.5"/>
<text text-anchor="start" x="393" y="-89.5" font-family="FreeSans" font-size="10.00">SeeSawN::GeometryN</text>
<text text-anchor="start" x="393" y="-78.5" font-family="FreeSans" font-size="10.00">::Similarity3DSolverC</text>
<text text-anchor="middle" x="442.5" y="-67.5" font-family="FreeSans" font-size="10.00">::MakeModel</text>
</a>
</g>
</g>
<!-- Node280&#45;&gt;Node281 -->
<g id="edge10" class="edge"><title>Node280&#45;&gt;Node281</title>
<path fill="none" stroke="midnightblue" d="M310.08,-81C330.807,-81 353.869,-81 374.816,-81"/>
<polygon fill="midnightblue" stroke="midnightblue" points="374.91,-84.5001 384.91,-81 374.91,-77.5001 374.91,-84.5001"/>
</g>
<!-- Node282&#45;&gt;Node272 -->
<g id="edge12" class="edge"><title>Node282&#45;&gt;Node272</title>
<path fill="none" stroke="midnightblue" d="M309.525,-156.564C315.281,-159.388 320.868,-162.528 326,-166 367.694,-194.21 404.848,-240.361 425.171,-268.289"/>
<polygon fill="midnightblue" stroke="midnightblue" points="422.499,-270.57 431.162,-276.67 428.194,-266.499 422.499,-270.57"/>
</g>
<!-- Node283 -->
<g id="node13" class="node"><title>Node283</title>
<g id="a_node13"><a xlink:href="group__Utility.html#ga7b7d4c0b0b31905d15b7ec119cd1103b" target="_top" xlink:title="Converts a rotation vector to a quaternion. ">
<polygon fill="white" stroke="black" points="370.5,-121 370.5,-151 514.5,-151 514.5,-121 370.5,-121"/>
<text text-anchor="start" x="378.5" y="-139" font-family="FreeSans" font-size="10.00">SeeSawN::GeometryN</text>
<text text-anchor="middle" x="442.5" y="-128" font-family="FreeSans" font-size="10.00">::RotationVectorToQuaternion</text>
</a>
</g>
</g>
<!-- Node282&#45;&gt;Node283 -->
<g id="edge13" class="edge"><title>Node282&#45;&gt;Node283</title>
<path fill="none" stroke="midnightblue" d="M321.613,-136C334.227,-136 347.37,-136 360.133,-136"/>
<polygon fill="midnightblue" stroke="midnightblue" points="360.27,-139.5 370.27,-136 360.27,-132.5 360.27,-139.5"/>
</g>
<!-- Node284 -->
<g id="node14" class="node"><title>Node284</title>
<g id="a_node14"><a xlink:href="group__Utility.html#gaf5928fe176f13d5147a804449d60e1e6" target="_top" xlink:title="Converts a rotation vector to an axis&#45;angle object. ">
<polygon fill="white" stroke="black" points="559,-121 559,-151 699,-151 699,-121 559,-121"/>
<text text-anchor="start" x="567" y="-139" font-family="FreeSans" font-size="10.00">SeeSawN::GeometryN</text>
<text text-anchor="middle" x="629" y="-128" font-family="FreeSans" font-size="10.00">::RotationVectorToAxisAngle</text>
</a>
</g>
</g>
<!-- Node283&#45;&gt;Node284 -->
<g id="edge14" class="edge"><title>Node283&#45;&gt;Node284</title>
<path fill="none" stroke="midnightblue" d="M514.569,-136C525.683,-136 537.23,-136 548.518,-136"/>
<polygon fill="midnightblue" stroke="midnightblue" points="548.791,-139.5 558.791,-136 548.791,-132.5 548.791,-139.5"/>
</g>
<!-- Node286 -->
<g id="node16" class="node"><title>Node286</title>
<g id="a_node16"><a xlink:href="classSeeSawN_1_1GeometryN_1_1Similarity3DSolverC.html#aa809b420b1c53849081aaa12b79e75e7" target="_top" xlink:title="Converts a model to a vector. ">
<polygon fill="white" stroke="black" points="385,-0.5 385,-41.5 500,-41.5 500,-0.5 385,-0.5"/>
<text text-anchor="start" x="393" y="-29.5" font-family="FreeSans" font-size="10.00">SeeSawN::GeometryN</text>
<text text-anchor="start" x="393" y="-18.5" font-family="FreeSans" font-size="10.00">::Similarity3DSolverC</text>
<text text-anchor="middle" x="442.5" y="-7.5" font-family="FreeSans" font-size="10.00">::MakeVector</text>
</a>
</g>
</g>
<!-- Node285&#45;&gt;Node286 -->
<g id="edge16" class="edge"><title>Node285&#45;&gt;Node286</title>
<path fill="none" stroke="midnightblue" d="M311.161,-25.0104C331.552,-24.383 354.113,-23.6888 374.653,-23.0568"/>
<polygon fill="midnightblue" stroke="midnightblue" points="374.983,-26.5484 384.87,-22.7425 374.767,-19.5518 374.983,-26.5484"/>
</g>
</g>
</svg>
        <g id="navigator" transform="translate(0 0)" fill="#404254">
                <rect fill="#f2f5e9" fill-opacity="0.5" stroke="#606060" stroke-width=".5" x="0" y="0" width="60" height="60"/>
                <use id="zoomplus" xlink:href="#zoomPlus" x="17" y="9" onmousedown="handleZoom(evt,'in')"/>
                <use id="zoomminus" xlink:href="#zoomMin" x="42" y="9" onmousedown="handleZoom(evt,'out')"/>
                <use id="reset" xlink:href="#resetDef" x="30" y="36" onmousedown="handleReset()"/>
                <g id="arrowUp" xlink:href="#dirArrow" transform="translate(30 24)" onmousedown="handlePan(0,-1)">
                  <use xlink:href="#rim" fill="#404040">
                        <set attributeName="fill" to="#808080" begin="arrowUp.mouseover" end="arrowUp.mouseout"/>
                  </use>
                  <path fill="none" stroke="white" stroke-width="1.5" d="M0,-3.0v7 M-2.5,-0.5L0,-3.0L2.5,-0.5"/>
                </g>
                <g id="arrowRight" xlink:href="#dirArrow" transform="rotate(90) translate(36 -43)" onmousedown="handlePan(1,0)">
                  <use xlink:href="#rim" fill="#404040">
                        <set attributeName="fill" to="#808080" begin="arrowRight.mouseover" end="arrowRight.mouseout"/>
                  </use>
                  <path fill="none" stroke="white" stroke-width="1.5" d="M0,-3.0v7 M-2.5,-0.5L0,-3.0L2.5,-0.5"/>
                </g>
                <g id="arrowDown" xlink:href="#dirArrow" transform="rotate(180) translate(-30 -48)" onmousedown="handlePan(0,1)">
                  <use xlink:href="#rim" fill="#404040">
                        <set attributeName="fill" to="#808080" begin="arrowDown.mouseover" end="arrowDown.mouseout"/>
                  </use>
                  <path fill="none" stroke="white" stroke-width="1.5" d="M0,-3.0v7 M-2.5,-0.5L0,-3.0L2.5,-0.5"/>
                </g>
                <g id="arrowLeft" xlink:href="#dirArrow" transform="rotate(270) translate(-36 17)" onmousedown="handlePan(-1,0)">
                  <use xlink:href="#rim" fill="#404040">
                        <set attributeName="fill" to="#808080" begin="arrowLeft.mouseover" end="arrowLeft.mouseout"/>
                  </use>
                  <path fill="none" stroke="white" stroke-width="1.5" d="M0,-3.0v7 M-2.5,-0.5L0,-3.0L2.5,-0.5"/>
                </g>
        </g>
        <svg viewBox="0 0 15 15" width="100%" height="30px" preserveAspectRatio="xMaxYMin meet">
         <g id="arrow_out" transform="scale(0.3 0.3)">
          <a xlink:href="namespaceSeeSawN_1_1UnitTestsN_1_1TestGeometryN_ae02c39d1a4040baa3cd9feb187c80d47_cgraph_org.svg" target="_base">
           <rect id="button" ry="5" rx="5" y="6" x="6" height="38" width="38"
                fill="#f2f5e9" fill-opacity="0.5" stroke="#606060" stroke-width="1.0"/>
           <path id="arrow"
             d="M 11.500037,31.436501 C 11.940474,20.09759 22.043105,11.32322 32.158766,21.979434 L 37.068811,17.246167 C 37.068811,17.246167 37.088388,32 37.088388,32 L 22.160133,31.978069 C 22.160133,31.978069 26.997745,27.140456 26.997745,27.140456 C 18.528582,18.264221 13.291696,25.230495 11.500037,31.436501 z"
             style="fill:#404040;"/>
          </a>
         </g>
        </svg>
</svg>
