<?xml version="1.0" encoding="UTF-8" standalone="no"?>
<!DOCTYPE svg PUBLIC "-//W3C//DTD SVG 1.1//EN"
 "http://www.w3.org/Graphics/SVG/1.1/DTD/svg11.dtd">
<!-- Generated by graphviz version 2.38.0 (20140413.2041)
 -->
<!-- Title: SeeSawN::UnitTestsN::TestElementsN::BOOST_AUTO_TEST_CASE Pages: 1 -->
<!--zoomable 984 -->
<svg id="main" version="1.1" xmlns="http://www.w3.org/2000/svg" xmlns:xlink="http://www.w3.org/1999/xlink" xml:space="preserve" onload="init(evt)">
<style type="text/css"><![CDATA[
.edge:hover path { stroke: red; }
.edge:hover polygon { stroke: red; fill: red; }
]]></style>
<script type="text/javascript"><![CDATA[
var edges = document.getElementsByTagName('g');
if (edges && edges.length) {
  for (var i=0;i<edges.length;i++) {
    if (edges[i].id.substr(0,4)=='edge') {
      edges[i].setAttribute('class','edge');
    }
  }
}
]]></script>
        <defs>
                <circle id="rim" cx="0" cy="0" r="7"/>
                <circle id="rim2" cx="0" cy="0" r="3.5"/>
                <g id="zoomPlus">
                        <use xlink:href="#rim" fill="#404040">
                                <set attributeName="fill" to="#808080" begin="zoomplus.mouseover" end="zoomplus.mouseout"/>
                        </use>
                        <path d="M-4,0h8M0,-4v8" fill="none" stroke="white" stroke-width="1.5" pointer-events="none"/>
                </g>
                <g id="zoomMin">
                        <use xlink:href="#rim" fill="#404040">
                                <set attributeName="fill" to="#808080" begin="zoomminus.mouseover" end="zoomminus.mouseout"/>
                        </use>
                        <path d="M-4,0h8" fill="none" stroke="white" stroke-width="1.5" pointer-events="none"/>
                </g>
                <g id="dirArrow">
                        <path fill="none" stroke="white" stroke-width="1.5" d="M0,-3.0v7 M-2.5,-0.5L0,-3.0L2.5,-0.5"/>
                </g>
               <g id="resetDef">
                       <use xlink:href="#rim2" fill="#404040">
                               <set attributeName="fill" to="#808080" begin="reset.mouseover" end="reset.mouseout"/>
                       </use>
               </g>
        </defs>

<script type="text/javascript">
var viewWidth = 700;
var viewHeight = 984;
var sectionId = 'dynsection-9';
</script>
<script xlink:href="svgpan.js"/>
<svg id="graph" class="graph">
<g id="viewport">
<title>SeeSawN::UnitTestsN::TestElementsN::BOOST_AUTO_TEST_CASE</title>
<polygon fill="white" stroke="none" points="-4,4 -4,-980 696,-980 696,4 -4,4"/>
<!-- Node94 -->
<g id="node1" class="node"><title>Node94</title>
<polygon fill="#bfbfbf" stroke="black" points="0,-454 0,-495 128,-495 128,-454 0,-454"/>
<text text-anchor="start" x="8" y="-483" font-family="FreeSans" font-size="10.00">SeeSawN::UnitTestsN</text>
<text text-anchor="start" x="8" y="-472" font-family="FreeSans" font-size="10.00">::TestElementsN::BOOST</text>
<text text-anchor="middle" x="64" y="-461" font-family="FreeSans" font-size="10.00">_AUTO_TEST_CASE</text>
</g>
<!-- Node95 -->
<g id="node2" class="node"><title>Node95</title>
<g id="a_node2"><a xlink:href="classSeeSawN_1_1ElementsN_1_1CameraC.html#a6fcde6ffbdf18ccf09a81de44e8ee15e" target="_top" xlink:title="Applies a perturbation to a camera. ">
<polygon fill="white" stroke="black" points="179,-945.5 179,-975.5 322,-975.5 322,-945.5 179,-945.5"/>
<text text-anchor="start" x="187" y="-963.5" font-family="FreeSans" font-size="10.00">SeeSawN::ElementsN</text>
<text text-anchor="middle" x="250.5" y="-952.5" font-family="FreeSans" font-size="10.00">::CameraC::ApplyPerturbation</text>
</a>
</g>
</g>
<!-- Node94&#45;&gt;Node95 -->
<g id="edge1" class="edge"><title>Node94&#45;&gt;Node95</title>
<path fill="none" stroke="midnightblue" d="M66.6619,-495.097C73.5771,-575.825 102.622,-869.474 164,-935.5 165.843,-937.482 167.833,-939.31 169.942,-940.996"/>
<polygon fill="midnightblue" stroke="midnightblue" points="168.353,-944.145 178.605,-946.817 172.257,-938.335 168.353,-944.145"/>
</g>
<!-- Node96 -->
<g id="node3" class="node"><title>Node96</title>
<g id="a_node3"><a xlink:href="namespaceSeeSawN_1_1UnitTestsN_1_1TestElementsN.html#a7ab988f3068d365a04074b0663c0997b" target="_top" xlink:title="SeeSawN::UnitTestsN\l::TestElementsN::BOOST\l_AUTO_TEST_CASE">
<polygon fill="white" stroke="black" points="186.5,-885 186.5,-926 314.5,-926 314.5,-885 186.5,-885"/>
<text text-anchor="start" x="194.5" y="-914" font-family="FreeSans" font-size="10.00">SeeSawN::UnitTestsN</text>
<text text-anchor="start" x="194.5" y="-903" font-family="FreeSans" font-size="10.00">::TestElementsN::BOOST</text>
<text text-anchor="middle" x="250.5" y="-892" font-family="FreeSans" font-size="10.00">_AUTO_TEST_CASE</text>
</a>
</g>
</g>
<!-- Node94&#45;&gt;Node96 -->
<g id="edge2" class="edge"><title>Node94&#45;&gt;Node96</title>
<path fill="none" stroke="midnightblue" d="M67.485,-495.065C76.7623,-568.686 111.55,-817.791 164,-875.5 167.835,-879.72 172.299,-883.346 177.136,-886.463"/>
<polygon fill="midnightblue" stroke="midnightblue" points="175.756,-889.702 186.19,-891.539 179.179,-883.596 175.756,-889.702"/>
</g>
<!-- Node97 -->
<g id="node4" class="node"><title>Node97</title>
<g id="a_node4"><a xlink:href="namespaceSeeSawN_1_1UnitTestsN_1_1TestElementsN.html#a75fd59283ac84a27da7c1ff0c34d14f4" target="_top" xlink:title="SeeSawN::UnitTestsN\l::TestElementsN::BOOST\l_AUTO_TEST_SUITE_END">
<polygon fill="white" stroke="black" points="180.5,-825 180.5,-866 320.5,-866 320.5,-825 180.5,-825"/>
<text text-anchor="start" x="188.5" y="-854" font-family="FreeSans" font-size="10.00">SeeSawN::UnitTestsN</text>
<text text-anchor="start" x="188.5" y="-843" font-family="FreeSans" font-size="10.00">::TestElementsN::BOOST</text>
<text text-anchor="middle" x="250.5" y="-832" font-family="FreeSans" font-size="10.00">_AUTO_TEST_SUITE_END</text>
</a>
</g>
</g>
<!-- Node94&#45;&gt;Node97 -->
<g id="edge3" class="edge"><title>Node94&#45;&gt;Node97</title>
<path fill="none" stroke="midnightblue" d="M64.8295,-495.3C65.4933,-553.859 75.4313,-721.93 164,-815.5 166.453,-818.092 169.144,-820.46 172.009,-822.624"/>
<polygon fill="midnightblue" stroke="midnightblue" points="170.218,-825.635 180.498,-828.196 174.059,-819.783 170.218,-825.635"/>
</g>
<!-- Node102 -->
<g id="node9" class="node"><title>Node102</title>
<g id="a_node9"><a xlink:href="classSeeSawN_1_1ElementsN_1_1CameraC.html#a7b6e2c5c05ea12ed5d2f034c5ee5f4a1" target="_top" xlink:title="Returns a constant reference to distortion. ">
<polygon fill="white" stroke="black" points="194,-775.5 194,-805.5 307,-805.5 307,-775.5 194,-775.5"/>
<text text-anchor="start" x="202" y="-793.5" font-family="FreeSans" font-size="10.00">SeeSawN::ElementsN</text>
<text text-anchor="middle" x="250.5" y="-782.5" font-family="FreeSans" font-size="10.00">::CameraC::Distortion</text>
</a>
</g>
</g>
<!-- Node94&#45;&gt;Node102 -->
<g id="edge14" class="edge"><title>Node94&#45;&gt;Node102</title>
<path fill="none" stroke="midnightblue" d="M65.7186,-495.27C68.7127,-548.48 84.175,-690.814 164,-766.5 169.821,-772.019 176.808,-776.287 184.246,-779.583"/>
<polygon fill="midnightblue" stroke="midnightblue" points="183.265,-782.955 193.856,-783.259 185.767,-776.417 183.265,-782.955"/>
</g>
<!-- Node103 -->
<g id="node10" class="node"><title>Node103</title>
<g id="a_node10"><a xlink:href="group__Utility.html#ga69f652d97b53b12b6ea0998d35a8759e" target="_top" xlink:title="Extracts the rectifying homography from the dual absolute quadric. ">
<polygon fill="white" stroke="black" points="176,-726.5 176,-756.5 325,-756.5 325,-726.5 176,-726.5"/>
<text text-anchor="start" x="184" y="-744.5" font-family="FreeSans" font-size="10.00">SeeSawN::ElementsN</text>
<text text-anchor="middle" x="250.5" y="-733.5" font-family="FreeSans" font-size="10.00">::ExtractRectifyingHomography</text>
</a>
</g>
</g>
<!-- Node94&#45;&gt;Node103 -->
<g id="edge15" class="edge"><title>Node94&#45;&gt;Node103</title>
<path fill="none" stroke="midnightblue" d="M67.3345,-495.235C73.7297,-542.068 95.8648,-656.673 164,-717.5 165.305,-718.665 166.662,-719.773 168.064,-720.829"/>
<polygon fill="midnightblue" stroke="midnightblue" points="166.238,-723.816 176.536,-726.307 170.039,-717.938 166.238,-723.816"/>
</g>
<!-- Node104 -->
<g id="node11" class="node"><title>Node104</title>
<g id="a_node11"><a xlink:href="classSeeSawN_1_1ElementsN_1_1CameraC.html#a1022fc3bcf3a5e280332ca357d1fe394" target="_top" xlink:title="Returns a constant reference to extrinsics. ">
<polygon fill="white" stroke="black" points="194,-677.5 194,-707.5 307,-707.5 307,-677.5 194,-677.5"/>
<text text-anchor="start" x="202" y="-695.5" font-family="FreeSans" font-size="10.00">SeeSawN::ElementsN</text>
<text text-anchor="middle" x="250.5" y="-684.5" font-family="FreeSans" font-size="10.00">::CameraC::Extrinsics</text>
</a>
</g>
</g>
<!-- Node94&#45;&gt;Node104 -->
<g id="edge16" class="edge"><title>Node94&#45;&gt;Node104</title>
<path fill="none" stroke="midnightblue" d="M69.7001,-495.253C79.8013,-535.024 107.398,-622.136 164,-668.5 170.038,-673.446 177.032,-677.374 184.367,-680.494"/>
<polygon fill="midnightblue" stroke="midnightblue" points="183.202,-683.795 193.794,-684.029 185.66,-677.241 183.202,-683.795"/>
</g>
<!-- Node105 -->
<g id="node12" class="node"><title>Node105</title>
<g id="a_node12"><a xlink:href="classSeeSawN_1_1ElementsN_1_1CameraC.html#a2f8298b7b6385867841f9f75915b1e7c" target="_top" xlink:title="Returns a constant reference to the fNumber. ">
<polygon fill="white" stroke="black" points="194,-628.5 194,-658.5 307,-658.5 307,-628.5 194,-628.5"/>
<text text-anchor="start" x="202" y="-646.5" font-family="FreeSans" font-size="10.00">SeeSawN::ElementsN</text>
<text text-anchor="middle" x="250.5" y="-635.5" font-family="FreeSans" font-size="10.00">::CameraC::FNumber</text>
</a>
</g>
</g>
<!-- Node94&#45;&gt;Node105 -->
<g id="edge17" class="edge"><title>Node94&#45;&gt;Node105</title>
<path fill="none" stroke="midnightblue" d="M73.5058,-495.211C87.5692,-526.851 118.689,-586.967 164,-619.5 170.027,-623.827 176.81,-627.376 183.851,-630.285"/>
<polygon fill="midnightblue" stroke="midnightblue" points="182.972,-633.692 193.566,-633.87 185.395,-627.125 182.972,-633.692"/>
</g>
<!-- Node106 -->
<g id="node13" class="node"><title>Node106</title>
<g id="a_node13"><a xlink:href="classSeeSawN_1_1ElementsN_1_1CameraC.html#a564892648b120b927c0121ed57e70c33" target="_top" xlink:title="Returns a constant reference to frameBox. ">
<polygon fill="white" stroke="black" points="194,-579.5 194,-609.5 307,-609.5 307,-579.5 194,-579.5"/>
<text text-anchor="start" x="202" y="-597.5" font-family="FreeSans" font-size="10.00">SeeSawN::ElementsN</text>
<text text-anchor="middle" x="250.5" y="-586.5" font-family="FreeSans" font-size="10.00">::CameraC::FrameBox</text>
</a>
</g>
</g>
<!-- Node94&#45;&gt;Node106 -->
<g id="edge18" class="edge"><title>Node94&#45;&gt;Node106</title>
<path fill="none" stroke="midnightblue" d="M80.9798,-495.201C98.9056,-517.034 129.962,-550.928 164,-570.5 170.248,-574.093 177.066,-577.174 184.036,-579.81"/>
<polygon fill="midnightblue" stroke="midnightblue" points="183.003,-583.156 193.597,-583.136 185.302,-576.545 183.003,-583.156"/>
</g>
<!-- Node107 -->
<g id="node14" class="node"><title>Node107</title>
<g id="a_node14"><a xlink:href="classSeeSawN_1_1ElementsN_1_1CameraC.html#ae1d6bd0d36c351fe3703a0a62b4cd0a9" target="_top" xlink:title="Returns a constant reference to intrinsics. ">
<polygon fill="white" stroke="black" points="194,-530.5 194,-560.5 307,-560.5 307,-530.5 194,-530.5"/>
<text text-anchor="start" x="202" y="-548.5" font-family="FreeSans" font-size="10.00">SeeSawN::ElementsN</text>
<text text-anchor="middle" x="250.5" y="-537.5" font-family="FreeSans" font-size="10.00">::CameraC::Intrinsics</text>
</a>
</g>
</g>
<!-- Node94&#45;&gt;Node107 -->
<g id="edge19" class="edge"><title>Node94&#45;&gt;Node107</title>
<path fill="none" stroke="midnightblue" d="M104.315,-495.052C122.219,-503.916 143.867,-513.957 164,-521.5 170.402,-523.898 177.152,-526.186 183.936,-528.329"/>
<polygon fill="midnightblue" stroke="midnightblue" points="183.279,-531.788 193.865,-531.362 185.324,-525.094 183.279,-531.788"/>
</g>
<!-- Node108 -->
<g id="node15" class="node"><title>Node108</title>
<g id="a_node15"><a xlink:href="classSeeSawN_1_1ElementsN_1_1CameraC.html#a9ddbada1b7255147c4193add0c2aed4f" target="_top" xlink:title="Checks whether the camera is metric or projective. ">
<polygon fill="white" stroke="black" points="194,-481.5 194,-511.5 307,-511.5 307,-481.5 194,-481.5"/>
<text text-anchor="start" x="202" y="-499.5" font-family="FreeSans" font-size="10.00">SeeSawN::ElementsN</text>
<text text-anchor="middle" x="250.5" y="-488.5" font-family="FreeSans" font-size="10.00">::CameraC::IsMetric</text>
</a>
</g>
</g>
<!-- Node94&#45;&gt;Node108 -->
<g id="edge20" class="edge"><title>Node94&#45;&gt;Node108</title>
<path fill="none" stroke="midnightblue" d="M128.236,-482.04C146.108,-484.171 165.598,-486.495 183.621,-488.645"/>
<polygon fill="midnightblue" stroke="midnightblue" points="183.407,-492.144 193.751,-489.852 184.236,-485.193 183.407,-492.144"/>
</g>
<!-- Node109 -->
<g id="node16" class="node"><title>Node109</title>
<g id="a_node16"><a xlink:href="classSeeSawN_1_1ElementsN_1_1CameraC.html#ad63af5eb85128f566ecff5ef9d52be71" target="_top" xlink:title="Returns the camera matrix for the camera. ">
<polygon fill="white" stroke="black" points="175.5,-333.5 175.5,-363.5 325.5,-363.5 325.5,-333.5 175.5,-333.5"/>
<text text-anchor="start" x="183.5" y="-351.5" font-family="FreeSans" font-size="10.00">SeeSawN::ElementsN</text>
<text text-anchor="middle" x="250.5" y="-340.5" font-family="FreeSans" font-size="10.00">::CameraC::MakeCameraMatrix</text>
</a>
</g>
</g>
<!-- Node94&#45;&gt;Node109 -->
<g id="edge21" class="edge"><title>Node94&#45;&gt;Node109</title>
<path fill="none" stroke="midnightblue" d="M80.1416,-453.597C97.7916,-430.7 129.039,-394.453 164,-373.5 167.582,-371.353 171.359,-369.382 175.25,-367.571"/>
<polygon fill="midnightblue" stroke="midnightblue" points="176.67,-370.771 184.501,-363.635 173.929,-364.33 176.67,-370.771"/>
</g>
<!-- Node111 -->
<g id="node18" class="node"><title>Node111</title>
<g id="a_node18"><a xlink:href="classSeeSawN_1_1ElementsN_1_1CameraC.html#a607bbf63f9f79cded692587792940604" target="_top" xlink:title="Returns the intrinsic calibration matrix for the camera. ">
<polygon fill="white" stroke="black" points="373,-284 373,-325 543,-325 543,-284 373,-284"/>
<text text-anchor="start" x="381" y="-313" font-family="FreeSans" font-size="10.00">SeeSawN::ElementsN</text>
<text text-anchor="start" x="381" y="-302" font-family="FreeSans" font-size="10.00">::CameraC::MakeIntrinsicCalibration</text>
<text text-anchor="middle" x="458" y="-291" font-family="FreeSans" font-size="10.00">Matrix</text>
</a>
</g>
</g>
<!-- Node94&#45;&gt;Node111 -->
<g id="edge27" class="edge"><title>Node94&#45;&gt;Node111</title>
<path fill="none" stroke="midnightblue" d="M71.8121,-453.816C84.1603,-420.023 113.726,-353.807 164,-324.5 223.667,-289.717 302.226,-286.144 362.978,-290.491"/>
<polygon fill="midnightblue" stroke="midnightblue" points="362.706,-293.981 372.952,-291.287 363.262,-287.003 362.706,-293.981"/>
</g>
<!-- Node112 -->
<g id="node19" class="node"><title>Node112</title>
<g id="a_node19"><a xlink:href="classSeeSawN_1_1ElementsN_1_1CameraC.html#ab635f42103fb4359b8b5120c22f688fb" target="_top" xlink:title="Returns the rotation matrix corresponding to the orientation of the camera. ">
<polygon fill="white" stroke="black" points="382,-393.5 382,-423.5 534,-423.5 534,-393.5 382,-393.5"/>
<text text-anchor="start" x="390" y="-411.5" font-family="FreeSans" font-size="10.00">SeeSawN::ElementsN</text>
<text text-anchor="middle" x="458" y="-400.5" font-family="FreeSans" font-size="10.00">::CameraC::MakeRotationMatrix</text>
</a>
</g>
</g>
<!-- Node94&#45;&gt;Node112 -->
<g id="edge31" class="edge"><title>Node94&#45;&gt;Node112</title>
<path fill="none" stroke="midnightblue" d="M128.096,-466.006C183.329,-458.328 265.669,-446.296 337,-433.5 350.4,-431.096 364.596,-428.333 378.354,-425.539"/>
<polygon fill="midnightblue" stroke="midnightblue" points="379.184,-428.942 388.277,-423.505 377.778,-422.085 379.184,-428.942"/>
</g>
<!-- Node113 -->
<g id="node20" class="node"><title>Node113</title>
<g id="a_node20"><a xlink:href="group__Utility.html#gadd5781d8206ab2754ef5c0ac1a134df4" target="_top" xlink:title="Dual absolute quadric from the rectifying homography. ">
<polygon fill="white" stroke="black" points="194,-245.5 194,-275.5 307,-275.5 307,-245.5 194,-245.5"/>
<text text-anchor="start" x="202" y="-263.5" font-family="FreeSans" font-size="10.00">SeeSawN::ElementsN</text>
<text text-anchor="middle" x="250.5" y="-252.5" font-family="FreeSans" font-size="10.00">::MakeDAQ</text>
</a>
</g>
</g>
<!-- Node94&#45;&gt;Node113 -->
<g id="edge25" class="edge"><title>Node94&#45;&gt;Node113</title>
<path fill="none" stroke="midnightblue" d="M70.6312,-453.941C81.995,-416.207 111.198,-335.639 164,-290.5 170.053,-285.325 177.056,-281.024 184.396,-277.453"/>
<polygon fill="midnightblue" stroke="midnightblue" points="186.08,-280.536 193.828,-273.309 183.265,-274.127 186.08,-280.536"/>
</g>
<!-- Node114 -->
<g id="node21" class="node"><title>Node114</title>
<g id="a_node21"><a xlink:href="classSeeSawN_1_1ElementsN_1_1CameraC.html#af6364d33553391ee9dda6c41dece261b" target="_top" xlink:title="Returns the lens distortion object for the camera. ">
<polygon fill="white" stroke="black" points="185,-196.5 185,-226.5 316,-226.5 316,-196.5 185,-196.5"/>
<text text-anchor="start" x="193" y="-214.5" font-family="FreeSans" font-size="10.00">SeeSawN::ElementsN</text>
<text text-anchor="middle" x="250.5" y="-203.5" font-family="FreeSans" font-size="10.00">::CameraC::MakeDistortion</text>
</a>
</g>
</g>
<!-- Node94&#45;&gt;Node114 -->
<g id="edge26" class="edge"><title>Node94&#45;&gt;Node114</title>
<path fill="none" stroke="midnightblue" d="M67.5695,-453.89C74.4099,-407.892 97.3364,-296.223 164,-236.5 167.625,-233.253 171.65,-230.426 175.924,-227.965"/>
<polygon fill="midnightblue" stroke="midnightblue" points="177.627,-231.027 184.993,-223.412 174.486,-224.771 177.627,-231.027"/>
</g>
<!-- Node115 -->
<g id="node22" class="node"><title>Node115</title>
<g id="a_node22"><a xlink:href="classSeeSawN_1_1ElementsN_1_1CameraC.html#a5dea4204e093d7311a639f4d241d9173" target="_top" xlink:title="Returns the normalised camera matrix for the camera. ">
<polygon fill="white" stroke="black" points="164,-383 164,-424 337,-424 337,-383 164,-383"/>
<text text-anchor="start" x="172" y="-412" font-family="FreeSans" font-size="10.00">SeeSawN::ElementsN</text>
<text text-anchor="start" x="172" y="-401" font-family="FreeSans" font-size="10.00">::CameraC::MakeNormalisedCamera</text>
<text text-anchor="middle" x="250.5" y="-390" font-family="FreeSans" font-size="10.00">Matrix</text>
</a>
</g>
</g>
<!-- Node94&#45;&gt;Node115 -->
<g id="edge28" class="edge"><title>Node94&#45;&gt;Node115</title>
<path fill="none" stroke="midnightblue" d="M118.365,-453.964C139.69,-445.757 164.408,-436.245 186.598,-427.706"/>
<polygon fill="midnightblue" stroke="midnightblue" points="187.86,-430.971 195.936,-424.113 185.346,-424.438 187.86,-430.971"/>
</g>
<!-- Node116 -->
<g id="node23" class="node"><title>Node116</title>
<g id="a_node23"><a xlink:href="classSeeSawN_1_1ElementsN_1_1CameraC.html#a45b71a6b93d4faf8eb17767f2cf260ff" target="_top" xlink:title="Returns a constant reference to pixelSize. ">
<polygon fill="white" stroke="black" points="194,-147.5 194,-177.5 307,-177.5 307,-147.5 194,-147.5"/>
<text text-anchor="start" x="202" y="-165.5" font-family="FreeSans" font-size="10.00">SeeSawN::ElementsN</text>
<text text-anchor="middle" x="250.5" y="-154.5" font-family="FreeSans" font-size="10.00">::CameraC::PixelSize</text>
</a>
</g>
</g>
<!-- Node94&#45;&gt;Node116 -->
<g id="edge32" class="edge"><title>Node94&#45;&gt;Node116</title>
<path fill="none" stroke="midnightblue" d="M65.9106,-453.744C69.357,-401.246 85.7966,-262.059 164,-187.5 169.824,-181.947 176.813,-177.619 184.252,-174.247"/>
<polygon fill="midnightblue" stroke="midnightblue" points="185.837,-177.384 193.862,-170.467 183.275,-170.87 185.837,-177.384"/>
</g>
<!-- Node117 -->
<g id="node24" class="node"><title>Node117</title>
<g id="a_node24"><a xlink:href="classSeeSawN_1_1ElementsN_1_1CameraC.html#af37e552b7cace43604ae4c7def1b7501" target="_top" xlink:title="Sets extrinsics from a normalised camera matrix. ">
<polygon fill="white" stroke="black" points="189,-98.5 189,-128.5 312,-128.5 312,-98.5 189,-98.5"/>
<text text-anchor="start" x="197" y="-116.5" font-family="FreeSans" font-size="10.00">SeeSawN::ElementsN</text>
<text text-anchor="middle" x="250.5" y="-105.5" font-family="FreeSans" font-size="10.00">::CameraC::SetExtrinsics</text>
</a>
</g>
</g>
<!-- Node94&#45;&gt;Node117 -->
<g id="edge33" class="edge"><title>Node94&#45;&gt;Node117</title>
<path fill="none" stroke="midnightblue" d="M64.6883,-453.761C64.9805,-395.416 74.0349,-228.279 164,-138.5 168.526,-133.983 173.82,-130.274 179.516,-127.228"/>
<polygon fill="midnightblue" stroke="midnightblue" points="181.133,-130.337 188.745,-122.968 178.199,-123.981 181.133,-130.337"/>
</g>
<!-- Node119 -->
<g id="node26" class="node"><title>Node119</title>
<g id="a_node26"><a xlink:href="classSeeSawN_1_1ElementsN_1_1CameraC.html#aa08ef1058e68b3b35d2ad6f0912092ce" target="_top" xlink:title="Sets intrinsics from an internal calibration matrix. ">
<polygon fill="white" stroke="black" points="190,-49.5 190,-79.5 311,-79.5 311,-49.5 190,-49.5"/>
<text text-anchor="start" x="198" y="-67.5" font-family="FreeSans" font-size="10.00">SeeSawN::ElementsN</text>
<text text-anchor="middle" x="250.5" y="-56.5" font-family="FreeSans" font-size="10.00">::CameraC::SetIntrinsics</text>
</a>
</g>
</g>
<!-- Node94&#45;&gt;Node119 -->
<g id="edge35" class="edge"><title>Node94&#45;&gt;Node119</title>
<path fill="none" stroke="midnightblue" d="M67.6328,-453.665C77.1611,-381.424 112.046,-143.185 164,-89.5 168.769,-84.5719 174.451,-80.601 180.587,-77.4035"/>
<polygon fill="midnightblue" stroke="midnightblue" points="182.156,-80.536 189.849,-73.2508 179.292,-74.1487 182.156,-80.536"/>
</g>
<!-- Node120 -->
<g id="node27" class="node"><title>Node120</title>
<g id="a_node27"><a xlink:href="classSeeSawN_1_1ElementsN_1_1CameraC.html#aeeaac89c5982bf066dc957c59a4b26c0" target="_top" xlink:title="Returns a constant reference to tag. ">
<polygon fill="white" stroke="black" points="194,-0.5 194,-30.5 307,-30.5 307,-0.5 194,-0.5"/>
<text text-anchor="start" x="202" y="-18.5" font-family="FreeSans" font-size="10.00">SeeSawN::ElementsN</text>
<text text-anchor="middle" x="250.5" y="-7.5" font-family="FreeSans" font-size="10.00">::CameraC::Tag</text>
</a>
</g>
</g>
<!-- Node94&#45;&gt;Node120 -->
<g id="edge36" class="edge"><title>Node94&#45;&gt;Node120</title>
<path fill="none" stroke="midnightblue" d="M66.9709,-453.784C74.7804,-375.923 105.989,-102.112 164,-40.5 169.591,-34.5622 176.506,-30.0099 183.963,-26.5243"/>
<polygon fill="midnightblue" stroke="midnightblue" points="185.654,-29.6178 193.64,-22.6555 183.055,-23.118 185.654,-29.6178"/>
</g>
<!-- Node98 -->
<g id="node5" class="node"><title>Node98</title>
<g id="a_node5"><a xlink:href="classSeeSawN_1_1ElementsN_1_1FeatureC.html#a92e6ac63de8eb61e7b6ae7ae21241f68" target="_top" xlink:title="Accessor for coordinate. ">
<polygon fill="white" stroke="black" points="579,-896.5 579,-926.5 692,-926.5 692,-896.5 579,-896.5"/>
<text text-anchor="start" x="587" y="-914.5" font-family="FreeSans" font-size="10.00">SeeSawN::ElementsN</text>
<text text-anchor="middle" x="635.5" y="-903.5" font-family="FreeSans" font-size="10.00">::FeatureC::Coordinate</text>
</a>
</g>
</g>
<!-- Node97&#45;&gt;Node98 -->
<g id="edge4" class="edge"><title>Node97&#45;&gt;Node98</title>
<path fill="none" stroke="midnightblue" d="M312.512,-866.036C320.793,-869.077 329.141,-872.276 337,-875.5 353.37,-882.216 355.886,-888.005 373,-892.5 438.142,-909.61 515.34,-913.289 568.896,-913.346"/>
<polygon fill="midnightblue" stroke="midnightblue" points="568.958,-916.846 578.947,-913.315 568.936,-909.846 568.958,-916.846"/>
</g>
<!-- Node99 -->
<g id="node6" class="node"><title>Node99</title>
<g id="a_node6"><a xlink:href="classSeeSawN_1_1ElementsN_1_1FeatureC.html#adf53174d5a0ddade03f4dc94d2661a9f" target="_top" xlink:title="Accessor for descriptor. ">
<polygon fill="white" stroke="black" points="579,-847.5 579,-877.5 692,-877.5 692,-847.5 579,-847.5"/>
<text text-anchor="start" x="587" y="-865.5" font-family="FreeSans" font-size="10.00">SeeSawN::ElementsN</text>
<text text-anchor="middle" x="635.5" y="-854.5" font-family="FreeSans" font-size="10.00">::FeatureC::Descriptor</text>
</a>
</g>
</g>
<!-- Node97&#45;&gt;Node99 -->
<g id="edge5" class="edge"><title>Node97&#45;&gt;Node99</title>
<path fill="none" stroke="midnightblue" d="M320.612,-840.795C379.804,-837.776 467.232,-835.716 543,-843.5 551.352,-844.358 560.067,-845.646 568.656,-847.154"/>
<polygon fill="midnightblue" stroke="midnightblue" points="568.18,-850.625 578.651,-849.013 569.46,-843.743 568.18,-850.625"/>
</g>
<!-- Node100 -->
<g id="node7" class="node"><title>Node100</title>
<g id="a_node7"><a xlink:href="classSeeSawN_1_1ElementsN_1_1FeatureC.html#a39e53d149bbdd3ce6f399f0d84273f93" target="_top" xlink:title="Accessor for roi. ">
<polygon fill="white" stroke="black" points="579,-798.5 579,-828.5 692,-828.5 692,-798.5 579,-798.5"/>
<text text-anchor="start" x="587" y="-816.5" font-family="FreeSans" font-size="10.00">SeeSawN::ElementsN</text>
<text text-anchor="middle" x="635.5" y="-805.5" font-family="FreeSans" font-size="10.00">::FeatureC::RoI</text>
</a>
</g>
</g>
<!-- Node97&#45;&gt;Node100 -->
<g id="edge6" class="edge"><title>Node97&#45;&gt;Node100</title>
<path fill="none" stroke="midnightblue" d="M320.548,-838.413C337.68,-836.728 356.002,-834.989 373,-833.5 439.549,-827.669 515.711,-821.953 568.608,-818.135"/>
<polygon fill="midnightblue" stroke="midnightblue" points="569.144,-821.605 578.867,-817.397 568.642,-814.623 569.144,-821.605"/>
</g>
<!-- Node101 -->
<g id="node8" class="node"><title>Node101</title>
<g id="a_node8"><a xlink:href="classSeeSawN_1_1ElementsN_1_1ImageFeatureC.html#a968c311f426f4c39a1d8794c597007c1" target="_top" xlink:title="Swaps the contents of two image features. ">
<polygon fill="white" stroke="black" points="399.5,-852.5 399.5,-882.5 516.5,-882.5 516.5,-852.5 399.5,-852.5"/>
<text text-anchor="start" x="407.5" y="-870.5" font-family="FreeSans" font-size="10.00">SeeSawN::ElementsN</text>
<text text-anchor="middle" x="458" y="-859.5" font-family="FreeSans" font-size="10.00">::ImageFeatureC::Swap</text>
</a>
</g>
</g>
<!-- Node97&#45;&gt;Node101 -->
<g id="edge7" class="edge"><title>Node97&#45;&gt;Node101</title>
<path fill="none" stroke="midnightblue" d="M320.5,-852.887C342.746,-855.268 367.365,-857.904 389.501,-860.274"/>
<polygon fill="midnightblue" stroke="midnightblue" points="389.163,-863.758 399.479,-861.342 389.909,-856.797 389.163,-863.758"/>
</g>
<!-- Node101&#45;&gt;Node98 -->
<g id="edge8" class="edge"><title>Node101&#45;&gt;Node98</title>
<path fill="none" stroke="midnightblue" d="M516.952,-875.638C539.809,-880.798 565.728,-887.406 587.4,-893.632"/>
<polygon fill="midnightblue" stroke="midnightblue" points="586.452,-897.001 597.033,-896.458 588.423,-890.284 586.452,-897.001"/>
</g>
<!-- Node101&#45;&gt;Node98 -->
<g id="edge9" class="edge"><title>Node101&#45;&gt;Node98</title>
<path fill="none" stroke="midnightblue" d="M496.649,-882.596C517.717,-888.916 544.58,-895.949 568.986,-901.628"/>
<polygon fill="midnightblue" stroke="midnightblue" points="568.384,-905.081 578.912,-903.893 569.941,-898.256 568.384,-905.081"/>
</g>
<!-- Node101&#45;&gt;Node99 -->
<g id="edge10" class="edge"><title>Node101&#45;&gt;Node99</title>
<path fill="none" stroke="midnightblue" d="M516.952,-859.457C533.488,-858.574 551.626,-858 568.6,-857.817"/>
<polygon fill="midnightblue" stroke="midnightblue" points="569.015,-861.315 578.993,-857.754 568.972,-854.315 569.015,-861.315"/>
</g>
<!-- Node101&#45;&gt;Node99 -->
<g id="edge11" class="edge"><title>Node101&#45;&gt;Node99</title>
<path fill="none" stroke="midnightblue" d="M516.952,-872.24C533.488,-872.182 551.626,-871.722 568.6,-870.938"/>
<polygon fill="midnightblue" stroke="midnightblue" points="569.184,-874.413 578.993,-870.409 568.828,-867.422 569.184,-874.413"/>
</g>
<!-- Node101&#45;&gt;Node100 -->
<g id="edge12" class="edge"><title>Node101&#45;&gt;Node100</title>
<path fill="none" stroke="midnightblue" d="M490.782,-852.381C512.599,-844.375 542.339,-834.821 569.106,-827.07"/>
<polygon fill="midnightblue" stroke="midnightblue" points="570.156,-830.41 578.812,-824.302 568.236,-823.678 570.156,-830.41"/>
</g>
<!-- Node101&#45;&gt;Node100 -->
<g id="edge13" class="edge"><title>Node101&#45;&gt;Node100</title>
<path fill="none" stroke="midnightblue" d="M516.952,-856.06C541.913,-849.003 570.524,-840.01 593.269,-832.011"/>
<polygon fill="midnightblue" stroke="midnightblue" points="594.722,-835.208 602.951,-828.534 592.356,-828.62 594.722,-835.208"/>
</g>
<!-- Node110 -->
<g id="node17" class="node"><title>Node110</title>
<g id="a_node17"><a xlink:href="group__Elements.html#gaed97416c6eb370835de21c7c7d9942dd" target="_top" xlink:title="Composes a camera matrix. ">
<polygon fill="white" stroke="black" points="397,-344.5 397,-374.5 519,-374.5 519,-344.5 397,-344.5"/>
<text text-anchor="start" x="405" y="-362.5" font-family="FreeSans" font-size="10.00">SeeSawN::ElementsN</text>
<text text-anchor="middle" x="458" y="-351.5" font-family="FreeSans" font-size="10.00">::ComposeCameraMatrix</text>
</a>
</g>
</g>
<!-- Node109&#45;&gt;Node110 -->
<g id="edge22" class="edge"><title>Node109&#45;&gt;Node110</title>
<path fill="none" stroke="midnightblue" d="M325.69,-352.471C345.564,-353.535 366.987,-354.682 386.646,-355.734"/>
<polygon fill="midnightblue" stroke="midnightblue" points="386.576,-359.235 396.749,-356.275 386.95,-352.245 386.576,-359.235"/>
</g>
<!-- Node109&#45;&gt;Node111 -->
<g id="edge23" class="edge"><title>Node109&#45;&gt;Node111</title>
<path fill="none" stroke="midnightblue" d="M321.647,-333.481C334.933,-330.636 349.03,-327.618 362.915,-324.645"/>
<polygon fill="midnightblue" stroke="midnightblue" points="363.927,-328.007 372.973,-322.491 362.462,-321.163 363.927,-328.007"/>
</g>
<!-- Node109&#45;&gt;Node112 -->
<g id="edge24" class="edge"><title>Node109&#45;&gt;Node112</title>
<path fill="none" stroke="midnightblue" d="M303.526,-363.603C314.583,-366.844 326.183,-370.266 337,-373.5 353.029,-378.292 356.956,-379.757 373,-384.5 379.8,-386.51 386.917,-388.586 394.01,-390.638"/>
<polygon fill="midnightblue" stroke="midnightblue" points="393.055,-394.005 403.634,-393.411 394.994,-387.279 393.055,-394.005"/>
</g>
<!-- Node115&#45;&gt;Node110 -->
<g id="edge29" class="edge"><title>Node115&#45;&gt;Node110</title>
<path fill="none" stroke="midnightblue" d="M337.162,-385.159C353.761,-381.605 370.972,-377.92 386.996,-374.489"/>
<polygon fill="midnightblue" stroke="midnightblue" points="387.759,-377.905 396.804,-372.389 386.293,-371.06 387.759,-377.905"/>
</g>
<!-- Node115&#45;&gt;Node112 -->
<g id="edge30" class="edge"><title>Node115&#45;&gt;Node112</title>
<path fill="none" stroke="midnightblue" d="M337.162,-405.584C348.662,-405.864 360.455,-406.151 371.943,-406.43"/>
<polygon fill="midnightblue" stroke="midnightblue" points="371.864,-409.929 381.946,-406.674 372.034,-402.932 371.864,-409.929"/>
</g>
<!-- Node118 -->
<g id="node25" class="node"><title>Node118</title>
<g id="a_node25"><a xlink:href="group__Elements.html#ga0aaebf09b62c70bc194dfd23f615d120" target="_top" xlink:title="Converts a camera translation to a camera position(i.e., t&#45;&gt;C) ">
<polygon fill="white" stroke="black" points="400,-98.5 400,-128.5 516,-128.5 516,-98.5 400,-98.5"/>
<text text-anchor="start" x="408" y="-116.5" font-family="FreeSans" font-size="10.00">SeeSawN::ElementsN</text>
<text text-anchor="middle" x="458" y="-105.5" font-family="FreeSans" font-size="10.00">::TranslationToPosition</text>
</a>
</g>
</g>
<!-- Node117&#45;&gt;Node118 -->
<g id="edge34" class="edge"><title>Node117&#45;&gt;Node118</title>
<path fill="none" stroke="midnightblue" d="M312.045,-113.5C336.395,-113.5 364.571,-113.5 389.571,-113.5"/>
<polygon fill="midnightblue" stroke="midnightblue" points="389.706,-117 399.706,-113.5 389.706,-110 389.706,-117"/>
</g>
</g>
</svg>
        <g id="navigator" transform="translate(0 0)" fill="#404254">
                <rect fill="#f2f5e9" fill-opacity="0.5" stroke="#606060" stroke-width=".5" x="0" y="0" width="60" height="60"/>
                <use id="zoomplus" xlink:href="#zoomPlus" x="17" y="9" onmousedown="handleZoom(evt,'in')"/>
                <use id="zoomminus" xlink:href="#zoomMin" x="42" y="9" onmousedown="handleZoom(evt,'out')"/>
                <use id="reset" xlink:href="#resetDef" x="30" y="36" onmousedown="handleReset()"/>
                <g id="arrowUp" xlink:href="#dirArrow" transform="translate(30 24)" onmousedown="handlePan(0,-1)">
                  <use xlink:href="#rim" fill="#404040">
                        <set attributeName="fill" to="#808080" begin="arrowUp.mouseover" end="arrowUp.mouseout"/>
                  </use>
                  <path fill="none" stroke="white" stroke-width="1.5" d="M0,-3.0v7 M-2.5,-0.5L0,-3.0L2.5,-0.5"/>
                </g>
                <g id="arrowRight" xlink:href="#dirArrow" transform="rotate(90) translate(36 -43)" onmousedown="handlePan(1,0)">
                  <use xlink:href="#rim" fill="#404040">
                        <set attributeName="fill" to="#808080" begin="arrowRight.mouseover" end="arrowRight.mouseout"/>
                  </use>
                  <path fill="none" stroke="white" stroke-width="1.5" d="M0,-3.0v7 M-2.5,-0.5L0,-3.0L2.5,-0.5"/>
                </g>
                <g id="arrowDown" xlink:href="#dirArrow" transform="rotate(180) translate(-30 -48)" onmousedown="handlePan(0,1)">
                  <use xlink:href="#rim" fill="#404040">
                        <set attributeName="fill" to="#808080" begin="arrowDown.mouseover" end="arrowDown.mouseout"/>
                  </use>
                  <path fill="none" stroke="white" stroke-width="1.5" d="M0,-3.0v7 M-2.5,-0.5L0,-3.0L2.5,-0.5"/>
                </g>
                <g id="arrowLeft" xlink:href="#dirArrow" transform="rotate(270) translate(-36 17)" onmousedown="handlePan(-1,0)">
                  <use xlink:href="#rim" fill="#404040">
                        <set attributeName="fill" to="#808080" begin="arrowLeft.mouseover" end="arrowLeft.mouseout"/>
                  </use>
                  <path fill="none" stroke="white" stroke-width="1.5" d="M0,-3.0v7 M-2.5,-0.5L0,-3.0L2.5,-0.5"/>
                </g>
        </g>
        <svg viewBox="0 0 15 15" width="100%" height="30px" preserveAspectRatio="xMaxYMin meet">
         <g id="arrow_out" transform="scale(0.3 0.3)">
          <a xlink:href="namespaceSeeSawN_1_1UnitTestsN_1_1TestElementsN_a3d4c397e7f5b4625ec1d01571d649883_cgraph_org.svg" target="_base">
           <rect id="button" ry="5" rx="5" y="6" x="6" height="38" width="38"
                fill="#f2f5e9" fill-opacity="0.5" stroke="#606060" stroke-width="1.0"/>
           <path id="arrow"
             d="M 11.500037,31.436501 C 11.940474,20.09759 22.043105,11.32322 32.158766,21.979434 L 37.068811,17.246167 C 37.068811,17.246167 37.088388,32 37.088388,32 L 22.160133,31.978069 C 22.160133,31.978069 26.997745,27.140456 26.997745,27.140456 C 18.528582,18.264221 13.291696,25.230495 11.500037,31.436501 z"
             style="fill:#404040;"/>
          </a>
         </g>
        </svg>
</svg>
