<?xml version="1.0" encoding="UTF-8" standalone="no"?>
<!DOCTYPE svg PUBLIC "-//W3C//DTD SVG 1.1//EN"
 "http://www.w3.org/Graphics/SVG/1.1/DTD/svg11.dtd">
<!-- Generated by graphviz version 2.38.0 (20140413.2041)
 -->
<!-- Title: SeeSawN::UnitTestsN::TestGeometryN::BOOST_AUTO_TEST_CASE Pages: 1 -->
<svg width="889pt" height="612pt"
 viewBox="0.00 0.00 889.00 612.00" xmlns="http://www.w3.org/2000/svg" xmlns:xlink="http://www.w3.org/1999/xlink">
<g id="graph0" class="graph" transform="scale(1 1) rotate(0) translate(4 608)">
<title>SeeSawN::UnitTestsN::TestGeometryN::BOOST_AUTO_TEST_CASE</title>
<polygon fill="white" stroke="none" points="-4,4 -4,-608 885,-608 885,4 -4,4"/>
<!-- Node164 -->
<g id="node1" class="node"><title>Node164</title>
<polygon fill="#bfbfbf" stroke="black" points="0,-270.5 0,-311.5 129,-311.5 129,-270.5 0,-270.5"/>
<text text-anchor="start" x="8" y="-299.5" font-family="FreeSans" font-size="10.00">SeeSawN::UnitTestsN</text>
<text text-anchor="start" x="8" y="-288.5" font-family="FreeSans" font-size="10.00">::TestGeometryN::BOOST</text>
<text text-anchor="middle" x="64.5" y="-277.5" font-family="FreeSans" font-size="10.00">_AUTO_TEST_CASE</text>
</g>
<!-- Node165 -->
<g id="node2" class="node"><title>Node165</title>
<g id="a_node2"><a xlink:href="classSeeSawN_1_1GeometryN_1_1GeometrySolverBaseC.html#add3a4045b561dd9db50a6386eb463e8d" target="_top" xlink:title="Computes the distance between two models. ">
<polygon fill="white" stroke="black" points="165,-540.5 165,-603.5 368,-603.5 368,-540.5 165,-540.5"/>
<text text-anchor="start" x="173" y="-591.5" font-family="FreeSans" font-size="10.00">SeeSawN::GeometryN</text>
<text text-anchor="start" x="173" y="-580.5" font-family="FreeSans" font-size="10.00">::GeometrySolverBaseC</text>
<text text-anchor="start" x="173" y="-569.5" font-family="FreeSans" font-size="10.00">&lt; OneSidedFundamentalSolverC,</text>
<text text-anchor="start" x="173" y="-558.5" font-family="FreeSans" font-size="10.00"> EpipolarMatrixT, EpipolarSampsonError</text>
<text text-anchor="middle" x="266.5" y="-547.5" font-family="FreeSans" font-size="10.00">C, 2, 2, 6, true, 10, 9, 6 &gt;::ComputeDistance</text>
</a>
</g>
</g>
<!-- Node164&#45;&gt;Node165 -->
<g id="edge1" class="edge"><title>Node164&#45;&gt;Node165</title>
<path fill="none" stroke="midnightblue" d="M68.5761,-311.639C76.4074,-357.24 101.191,-467.551 165,-531 165.94,-531.934 166.903,-532.848 167.889,-533.742"/>
<polygon fill="midnightblue" stroke="midnightblue" points="165.88,-536.62 175.848,-540.211 170.295,-531.187 165.88,-536.62"/>
</g>
<!-- Node166 -->
<g id="node3" class="node"><title>Node166</title>
<g id="a_node3"><a xlink:href="structSeeSawN_1_1UncertaintyEstimationN_1_1MultivariateGaussianC.html#ae747d560b5913f0090ad08d9b734f12a" target="_top" xlink:title="Computes the Mahalonobis distance between the mean and a sample. ">
<polygon fill="white" stroke="black" points="186,-480.5 186,-521.5 347,-521.5 347,-480.5 186,-480.5"/>
<text text-anchor="start" x="194" y="-509.5" font-family="FreeSans" font-size="10.00">SeeSawN::UncertaintyEstimation</text>
<text text-anchor="start" x="194" y="-498.5" font-family="FreeSans" font-size="10.00">N::MultivariateGaussianC</text>
<text text-anchor="middle" x="266.5" y="-487.5" font-family="FreeSans" font-size="10.00">::ComputeMahalonobisDistance</text>
</a>
</g>
</g>
<!-- Node164&#45;&gt;Node166 -->
<g id="edge2" class="edge"><title>Node164&#45;&gt;Node166</title>
<path fill="none" stroke="midnightblue" d="M71.2131,-311.647C82.6389,-349.08 111.882,-428.225 165,-471 168.747,-474.018 172.791,-476.732 177.031,-479.173"/>
<polygon fill="midnightblue" stroke="midnightblue" points="175.489,-482.316 185.977,-483.811 178.71,-476.101 175.489,-482.316"/>
</g>
<!-- Node169 -->
<g id="node6" class="node"><title>Node169</title>
<g id="a_node6"><a xlink:href="classSeeSawN_1_1GeometryN_1_1OneSidedFundamentalSolverC.html#ae8e1578c6dbf05a18252cafde4b15c75" target="_top" xlink:title="Computes the sample statistics for a set of one&#45;sided fundamental matrices. ">
<polygon fill="white" stroke="black" points="192.5,-420.5 192.5,-461.5 340.5,-461.5 340.5,-420.5 192.5,-420.5"/>
<text text-anchor="start" x="200.5" y="-449.5" font-family="FreeSans" font-size="10.00">SeeSawN::GeometryN</text>
<text text-anchor="start" x="200.5" y="-438.5" font-family="FreeSans" font-size="10.00">::OneSidedFundamentalSolver</text>
<text text-anchor="middle" x="266.5" y="-427.5" font-family="FreeSans" font-size="10.00">C::ComputeSampleStatistics</text>
</a>
</g>
</g>
<!-- Node164&#45;&gt;Node169 -->
<g id="edge5" class="edge"><title>Node164&#45;&gt;Node169</title>
<path fill="none" stroke="midnightblue" d="M77.2156,-311.592C93.5052,-338.392 125.496,-384.875 165,-411 170.612,-414.712 176.699,-417.977 183.005,-420.847"/>
<polygon fill="midnightblue" stroke="midnightblue" points="181.797,-424.136 192.372,-424.776 184.504,-417.681 181.797,-424.136"/>
</g>
<!-- Node170 -->
<g id="node7" class="node"><title>Node170</title>
<g id="a_node7"><a xlink:href="classSeeSawN_1_1GeometryN_1_1OneSidedFundamentalSolverC.html#a8b2811696a0b54d2fc333dfcc8deb612" target="_top" xlink:title="Computational cost of the solver. ">
<polygon fill="white" stroke="black" points="192.5,-360.5 192.5,-401.5 340.5,-401.5 340.5,-360.5 192.5,-360.5"/>
<text text-anchor="start" x="200.5" y="-389.5" font-family="FreeSans" font-size="10.00">SeeSawN::GeometryN</text>
<text text-anchor="start" x="200.5" y="-378.5" font-family="FreeSans" font-size="10.00">::OneSidedFundamentalSolver</text>
<text text-anchor="middle" x="266.5" y="-367.5" font-family="FreeSans" font-size="10.00">C::Cost</text>
</a>
</g>
</g>
<!-- Node164&#45;&gt;Node170 -->
<g id="edge6" class="edge"><title>Node164&#45;&gt;Node170</title>
<path fill="none" stroke="midnightblue" d="M95.3436,-311.729C114.565,-324.379 140.463,-340.15 165,-351 170.683,-353.513 176.636,-355.889 182.688,-358.12"/>
<polygon fill="midnightblue" stroke="midnightblue" points="181.657,-361.468 192.252,-361.506 183.993,-354.869 181.657,-361.468"/>
</g>
<!-- Node171 -->
<g id="node8" class="node"><title>Node171</title>
<g id="a_node8"><a xlink:href="classSeeSawN_1_1GeometryN_1_1OneSidedFundamentalSolverC.html#a56c442f6af3b75bb54fe218fcd90e3bd" target="_top" xlink:title="Decomposes a normalised one&#45;sided fundamental matrix into an essential matrix and a focal length...">
<polygon fill="white" stroke="black" points="192.5,-300.5 192.5,-341.5 340.5,-341.5 340.5,-300.5 192.5,-300.5"/>
<text text-anchor="start" x="200.5" y="-329.5" font-family="FreeSans" font-size="10.00">SeeSawN::GeometryN</text>
<text text-anchor="start" x="200.5" y="-318.5" font-family="FreeSans" font-size="10.00">::OneSidedFundamentalSolver</text>
<text text-anchor="middle" x="266.5" y="-307.5" font-family="FreeSans" font-size="10.00">C::DecomposeOneSidedF</text>
</a>
</g>
</g>
<!-- Node164&#45;&gt;Node171 -->
<g id="edge7" class="edge"><title>Node164&#45;&gt;Node171</title>
<path fill="none" stroke="midnightblue" d="M129.056,-300.533C145.884,-303.058 164.308,-305.821 182.02,-308.478"/>
<polygon fill="midnightblue" stroke="midnightblue" points="181.94,-312.005 192.349,-310.027 182.979,-305.083 181.94,-312.005"/>
</g>
<!-- Node173 -->
<g id="node10" class="node"><title>Node173</title>
<g id="a_node10"><a xlink:href="classSeeSawN_1_1GeometryN_1_1GeometrySolverBaseC.html#a5b329829596d4314b8dab43ca0c762aa" target="_top" xlink:title="Evaluates the model. ">
<polygon fill="white" stroke="black" points="206.5,-240.5 206.5,-281.5 326.5,-281.5 326.5,-240.5 206.5,-240.5"/>
<text text-anchor="start" x="214.5" y="-269.5" font-family="FreeSans" font-size="10.00">SeeSawN::GeometryN</text>
<text text-anchor="start" x="214.5" y="-258.5" font-family="FreeSans" font-size="10.00">::GeometrySolverBaseC</text>
<text text-anchor="middle" x="266.5" y="-247.5" font-family="FreeSans" font-size="10.00">::EvaluateModel</text>
</a>
</g>
</g>
<!-- Node164&#45;&gt;Node173 -->
<g id="edge9" class="edge"><title>Node164&#45;&gt;Node173</title>
<path fill="none" stroke="midnightblue" d="M129.056,-281.467C150.384,-278.267 174.275,-274.684 196.033,-271.42"/>
<polygon fill="midnightblue" stroke="midnightblue" points="196.821,-274.841 206.191,-269.896 195.783,-267.919 196.821,-274.841"/>
</g>
<!-- Node174 -->
<g id="node11" class="node"><title>Node174</title>
<g id="a_node11"><a xlink:href="structSeeSawN_1_1UncertaintyEstimationN_1_1MultivariateGaussianC.html#a4d5857641cf89f71dd418a939b0efcc0" target="_top" xlink:title="Returns a constant reference to mean. ">
<polygon fill="white" stroke="black" points="186,-180.5 186,-221.5 347,-221.5 347,-180.5 186,-180.5"/>
<text text-anchor="start" x="194" y="-209.5" font-family="FreeSans" font-size="10.00">SeeSawN::UncertaintyEstimation</text>
<text text-anchor="start" x="194" y="-198.5" font-family="FreeSans" font-size="10.00">N::MultivariateGaussianC</text>
<text text-anchor="middle" x="266.5" y="-187.5" font-family="FreeSans" font-size="10.00">::GetMean</text>
</a>
</g>
</g>
<!-- Node164&#45;&gt;Node174 -->
<g id="edge10" class="edge"><title>Node164&#45;&gt;Node174</title>
<path fill="none" stroke="midnightblue" d="M95.3436,-270.271C114.565,-257.621 140.463,-241.85 165,-231 169.719,-228.913 174.624,-226.921 179.617,-225.028"/>
<polygon fill="midnightblue" stroke="midnightblue" points="181.097,-228.214 189.301,-221.51 178.707,-221.635 181.097,-228.214"/>
</g>
<!-- Node175 -->
<g id="node12" class="node"><title>Node175</title>
<g id="a_node12"><a xlink:href="classSeeSawN_1_1GeometryN_1_1OneSidedFundamentalSolverC.html#a5e9e2365e040e911f5874f9a974e9c03" target="_top" xlink:title="Converts a model to the minimal form. ">
<polygon fill="white" stroke="black" points="192.5,-120.5 192.5,-161.5 340.5,-161.5 340.5,-120.5 192.5,-120.5"/>
<text text-anchor="start" x="200.5" y="-149.5" font-family="FreeSans" font-size="10.00">SeeSawN::GeometryN</text>
<text text-anchor="start" x="200.5" y="-138.5" font-family="FreeSans" font-size="10.00">::OneSidedFundamentalSolver</text>
<text text-anchor="middle" x="266.5" y="-127.5" font-family="FreeSans" font-size="10.00">C::MakeMinimal</text>
</a>
</g>
</g>
<!-- Node164&#45;&gt;Node175 -->
<g id="edge11" class="edge"><title>Node164&#45;&gt;Node175</title>
<path fill="none" stroke="midnightblue" d="M77.2156,-270.408C93.5052,-243.608 125.496,-197.125 165,-171 170.612,-167.288 176.699,-164.023 183.005,-161.153"/>
<polygon fill="midnightblue" stroke="midnightblue" points="184.504,-164.319 192.372,-157.224 181.797,-157.864 184.504,-164.319"/>
</g>
<!-- Node176 -->
<g id="node13" class="node"><title>Node176</title>
<g id="a_node13"><a xlink:href="classSeeSawN_1_1GeometryN_1_1OneSidedFundamentalSolverC.html#a72eb0fc565bdcd11417a5360cf0503e0" target="_top" xlink:title="Minimal form to matrix conversion. ">
<polygon fill="white" stroke="black" points="192.5,-60.5 192.5,-101.5 340.5,-101.5 340.5,-60.5 192.5,-60.5"/>
<text text-anchor="start" x="200.5" y="-89.5" font-family="FreeSans" font-size="10.00">SeeSawN::GeometryN</text>
<text text-anchor="start" x="200.5" y="-78.5" font-family="FreeSans" font-size="10.00">::OneSidedFundamentalSolver</text>
<text text-anchor="middle" x="266.5" y="-67.5" font-family="FreeSans" font-size="10.00">C::MakeModelFromMinimal</text>
</a>
</g>
</g>
<!-- Node164&#45;&gt;Node176 -->
<g id="edge12" class="edge"><title>Node164&#45;&gt;Node176</title>
<path fill="none" stroke="midnightblue" d="M71.2131,-270.353C82.6389,-232.92 111.882,-153.775 165,-111 170.431,-106.626 176.487,-102.89 182.858,-99.6977"/>
<polygon fill="midnightblue" stroke="midnightblue" points="184.707,-102.703 192.382,-95.3998 181.828,-96.3227 184.707,-102.703"/>
</g>
<!-- Node181 -->
<g id="node18" class="node"><title>Node181</title>
<g id="a_node18"><a xlink:href="classSeeSawN_1_1GeometryN_1_1EssentialSolverC.html#aaa430a7168f6881490e35291dcee86d2" target="_top" xlink:title="Verifies whether a given matrix satisfies the trace constraint. ">
<polygon fill="white" stroke="black" points="209,-0.5 209,-41.5 324,-41.5 324,-0.5 209,-0.5"/>
<text text-anchor="start" x="217" y="-29.5" font-family="FreeSans" font-size="10.00">SeeSawN::GeometryN</text>
<text text-anchor="start" x="217" y="-18.5" font-family="FreeSans" font-size="10.00">::EssentialSolverC::</text>
<text text-anchor="middle" x="266.5" y="-7.5" font-family="FreeSans" font-size="10.00">VerifyTraceConstraint</text>
</a>
</g>
</g>
<!-- Node164&#45;&gt;Node181 -->
<g id="edge17" class="edge"><title>Node164&#45;&gt;Node181</title>
<path fill="none" stroke="midnightblue" d="M68.0845,-270.245C74.9637,-223.919 98.0142,-111.423 165,-51 174.697,-42.2531 186.848,-36.0526 199.318,-31.6582"/>
<polygon fill="midnightblue" stroke="midnightblue" points="200.399,-34.9873 208.88,-28.6375 198.29,-28.3124 200.399,-34.9873"/>
</g>
<!-- Node167 -->
<g id="node4" class="node"><title>Node167</title>
<g id="a_node4"><a xlink:href="structSeeSawN_1_1UncertaintyEstimationN_1_1MultivariateGaussianC.html#ae849d1b5fab0ddcd465d8046f4c734c2" target="_top" xlink:title="Initialises inverseCovariance and related variables. ">
<polygon fill="white" stroke="black" points="404,-510.5 404,-551.5 565,-551.5 565,-510.5 404,-510.5"/>
<text text-anchor="start" x="412" y="-539.5" font-family="FreeSans" font-size="10.00">SeeSawN::UncertaintyEstimation</text>
<text text-anchor="start" x="412" y="-528.5" font-family="FreeSans" font-size="10.00">N::MultivariateGaussianC</text>
<text text-anchor="middle" x="484.5" y="-517.5" font-family="FreeSans" font-size="10.00">::InitialiseInverse</text>
</a>
</g>
</g>
<!-- Node166&#45;&gt;Node167 -->
<g id="edge3" class="edge"><title>Node166&#45;&gt;Node167</title>
<path fill="none" stroke="midnightblue" d="M347.01,-512.043C362.206,-514.154 378.213,-516.377 393.705,-518.528"/>
<polygon fill="midnightblue" stroke="midnightblue" points="393.411,-522.021 403.797,-519.93 394.374,-515.088 393.411,-522.021"/>
</g>
<!-- Node168 -->
<g id="node5" class="node"><title>Node168</title>
<g id="a_node5"><a xlink:href="structSeeSawN_1_1UncertaintyEstimationN_1_1MultivariateGaussianC.html#ae1ebc044c789ead55486e00b49c28b26" target="_top" xlink:title="true if the mean and the covariance are set ">
<polygon fill="white" stroke="black" points="404,-450.5 404,-491.5 565,-491.5 565,-450.5 404,-450.5"/>
<text text-anchor="start" x="412" y="-479.5" font-family="FreeSans" font-size="10.00">SeeSawN::UncertaintyEstimation</text>
<text text-anchor="start" x="412" y="-468.5" font-family="FreeSans" font-size="10.00">N::MultivariateGaussianC</text>
<text text-anchor="middle" x="484.5" y="-457.5" font-family="FreeSans" font-size="10.00">::IsValid</text>
</a>
</g>
</g>
<!-- Node166&#45;&gt;Node168 -->
<g id="edge4" class="edge"><title>Node166&#45;&gt;Node168</title>
<path fill="none" stroke="midnightblue" d="M347.01,-489.957C362.206,-487.846 378.213,-485.623 393.705,-483.472"/>
<polygon fill="midnightblue" stroke="midnightblue" points="394.374,-486.912 403.797,-482.07 393.411,-479.979 394.374,-486.912"/>
</g>
<!-- Node172 -->
<g id="node9" class="node"><title>Node172</title>
<g id="a_node9"><a xlink:href="group__Numerical.html#gaeb0c1b9709fce53c9a70f1163d938d3a" target="_top" xlink:title="Computes the roots of a real quadratic polynomial. ">
<polygon fill="white" stroke="black" points="419,-306 419,-336 550,-336 550,-306 419,-306"/>
<text text-anchor="start" x="427" y="-324" font-family="FreeSans" font-size="10.00">SeeSawN::NumericN::</text>
<text text-anchor="middle" x="484.5" y="-313" font-family="FreeSans" font-size="10.00">QuadraticPolynomialRoots</text>
</a>
</g>
</g>
<!-- Node171&#45;&gt;Node172 -->
<g id="edge8" class="edge"><title>Node171&#45;&gt;Node172</title>
<path fill="none" stroke="midnightblue" d="M340.628,-321C362.499,-321 386.507,-321 408.496,-321"/>
<polygon fill="midnightblue" stroke="midnightblue" points="408.775,-324.5 418.775,-321 408.775,-317.5 408.775,-324.5"/>
</g>
<!-- Node177 -->
<g id="node14" class="node"><title>Node177</title>
<g id="a_node14"><a xlink:href="classSeeSawN_1_1GeometryN_1_1OneSidedFundamentalSolverC.html#a1a40d73a1050d183ee09c39075f4211e" target="_top" xlink:title="Extracts the essential matrix component from a minimal model. ">
<polygon fill="white" stroke="black" points="410.5,-90.5 410.5,-131.5 558.5,-131.5 558.5,-90.5 410.5,-90.5"/>
<text text-anchor="start" x="418.5" y="-119.5" font-family="FreeSans" font-size="10.00">SeeSawN::GeometryN</text>
<text text-anchor="start" x="418.5" y="-108.5" font-family="FreeSans" font-size="10.00">::OneSidedFundamentalSolver</text>
<text text-anchor="middle" x="484.5" y="-97.5" font-family="FreeSans" font-size="10.00">C::ExtractMinimalEssential</text>
</a>
</g>
</g>
<!-- Node176&#45;&gt;Node177 -->
<g id="edge13" class="edge"><title>Node176&#45;&gt;Node177</title>
<path fill="none" stroke="midnightblue" d="M340.628,-91.1566C359.805,-93.8201 380.625,-96.7118 400.286,-99.4425"/>
<polygon fill="midnightblue" stroke="midnightblue" points="400.061,-102.945 410.448,-100.854 401.024,-96.0113 400.061,-102.945"/>
</g>
<!-- Node178 -->
<g id="node15" class="node"><title>Node178</title>
<g id="a_node15"><a xlink:href="classSeeSawN_1_1GeometryN_1_1EssentialSolverC.html#ae8313496c41ab0152e4f2b202d113a17" target="_top" xlink:title="Minimal form to matrix conversion. ">
<polygon fill="white" stroke="black" points="423,-30.5 423,-71.5 546,-71.5 546,-30.5 423,-30.5"/>
<text text-anchor="start" x="431" y="-59.5" font-family="FreeSans" font-size="10.00">SeeSawN::GeometryN</text>
<text text-anchor="start" x="431" y="-48.5" font-family="FreeSans" font-size="10.00">::EssentialSolverC::</text>
<text text-anchor="middle" x="484.5" y="-37.5" font-family="FreeSans" font-size="10.00">MakeModelFromMinimal</text>
</a>
</g>
</g>
<!-- Node176&#45;&gt;Node178 -->
<g id="edge14" class="edge"><title>Node176&#45;&gt;Node178</title>
<path fill="none" stroke="midnightblue" d="M340.628,-70.8434C363.869,-67.6154 389.524,-64.0522 412.606,-60.8464"/>
<polygon fill="midnightblue" stroke="midnightblue" points="413.244,-64.2915 422.667,-59.449 412.281,-57.358 413.244,-64.2915"/>
</g>
<!-- Node179 -->
<g id="node16" class="node"><title>Node179</title>
<g id="a_node16"><a xlink:href="group__Utility.html#gac3b857ffaf1804a2ae1802cb86192903" target="_top" xlink:title="Essential matrix from relative calibration. ">
<polygon fill="white" stroke="black" points="601,-36 601,-66 714,-66 714,-36 601,-36"/>
<text text-anchor="start" x="609" y="-54" font-family="FreeSans" font-size="10.00">SeeSawN::ElementsN</text>
<text text-anchor="middle" x="657.5" y="-43" font-family="FreeSans" font-size="10.00">::ComposeEssential</text>
</a>
</g>
</g>
<!-- Node178&#45;&gt;Node179 -->
<g id="edge15" class="edge"><title>Node178&#45;&gt;Node179</title>
<path fill="none" stroke="midnightblue" d="M546.27,-51C560.56,-51 575.86,-51 590.373,-51"/>
<polygon fill="midnightblue" stroke="midnightblue" points="590.776,-54.5001 600.776,-51 590.776,-47.5001 590.776,-54.5001"/>
</g>
<!-- Node180 -->
<g id="node17" class="node"><title>Node180</title>
<g id="a_node17"><a xlink:href="namespaceSeeSawN_1_1WrappersN.html#a7a58341e8f21a5c2a3a8d55453ec473d" target="_top" xlink:title="SeeSawN::WrappersN\l::MakeCrossProductMatrix">
<polygon fill="white" stroke="black" points="750,-36 750,-66 881,-66 881,-36 750,-36"/>
<text text-anchor="start" x="758" y="-54" font-family="FreeSans" font-size="10.00">SeeSawN::WrappersN</text>
<text text-anchor="middle" x="815.5" y="-43" font-family="FreeSans" font-size="10.00">::MakeCrossProductMatrix</text>
</a>
</g>
</g>
<!-- Node179&#45;&gt;Node180 -->
<g id="edge16" class="edge"><title>Node179&#45;&gt;Node180</title>
<path fill="none" stroke="midnightblue" d="M714.379,-51C722.674,-51 731.332,-51 739.935,-51"/>
<polygon fill="midnightblue" stroke="midnightblue" points="739.983,-54.5001 749.983,-51 739.983,-47.5001 739.983,-54.5001"/>
</g>
</g>
</svg>
