<?xml version="1.0" encoding="UTF-8" standalone="no"?>
<!DOCTYPE svg PUBLIC "-//W3C//DTD SVG 1.1//EN"
 "http://www.w3.org/Graphics/SVG/1.1/DTD/svg11.dtd">
<!-- Generated by graphviz version 2.38.0 (20140413.2041)
 -->
<!-- Title: SeeSawN::UnitTestsN::TestMetricsN::BOOST_AUTO_TEST_CASE Pages: 1 -->
<!--zoomable 694 -->
<svg id="main" version="1.1" xmlns="http://www.w3.org/2000/svg" xmlns:xlink="http://www.w3.org/1999/xlink" xml:space="preserve" onload="init(evt)">
<style type="text/css"><![CDATA[
.edge:hover path { stroke: red; }
.edge:hover polygon { stroke: red; fill: red; }
]]></style>
<script type="text/javascript"><![CDATA[
var edges = document.getElementsByTagName('g');
if (edges && edges.length) {
  for (var i=0;i<edges.length;i++) {
    if (edges[i].id.substr(0,4)=='edge') {
      edges[i].setAttribute('class','edge');
    }
  }
}
]]></script>
        <defs>
                <circle id="rim" cx="0" cy="0" r="7"/>
                <circle id="rim2" cx="0" cy="0" r="3.5"/>
                <g id="zoomPlus">
                        <use xlink:href="#rim" fill="#404040">
                                <set attributeName="fill" to="#808080" begin="zoomplus.mouseover" end="zoomplus.mouseout"/>
                        </use>
                        <path d="M-4,0h8M0,-4v8" fill="none" stroke="white" stroke-width="1.5" pointer-events="none"/>
                </g>
                <g id="zoomMin">
                        <use xlink:href="#rim" fill="#404040">
                                <set attributeName="fill" to="#808080" begin="zoomminus.mouseover" end="zoomminus.mouseout"/>
                        </use>
                        <path d="M-4,0h8" fill="none" stroke="white" stroke-width="1.5" pointer-events="none"/>
                </g>
                <g id="dirArrow">
                        <path fill="none" stroke="white" stroke-width="1.5" d="M0,-3.0v7 M-2.5,-0.5L0,-3.0L2.5,-0.5"/>
                </g>
               <g id="resetDef">
                       <use xlink:href="#rim2" fill="#404040">
                               <set attributeName="fill" to="#808080" begin="reset.mouseover" end="reset.mouseout"/>
                       </use>
               </g>
        </defs>

<script type="text/javascript">
var viewWidth = 513;
var viewHeight = 694;
var sectionId = 'dynsection-2';
</script>
<script xlink:href="svgpan.js"/>
<svg id="graph" class="graph">
<g id="viewport">
<title>SeeSawN::UnitTestsN::TestMetricsN::BOOST_AUTO_TEST_CASE</title>
<polygon fill="white" stroke="none" points="-4,4 -4,-690 509,-690 509,4 -4,4"/>
<!-- Node19 -->
<g id="node1" class="node"><title>Node19</title>
<polygon fill="#bfbfbf" stroke="black" points="0,-270.5 0,-311.5 119,-311.5 119,-270.5 0,-270.5"/>
<text text-anchor="start" x="8" y="-299.5" font-family="FreeSans" font-size="10.00">SeeSawN::UnitTestsN</text>
<text text-anchor="start" x="8" y="-288.5" font-family="FreeSans" font-size="10.00">::TestMetricsN::BOOST</text>
<text text-anchor="middle" x="59.5" y="-277.5" font-family="FreeSans" font-size="10.00">_AUTO_TEST_CASE</text>
</g>
<!-- Node20 -->
<g id="node2" class="node"><title>Node20</title>
<g id="a_node2"><a xlink:href="namespaceSeeSawN_1_1UnitTestsN_1_1TestMetricsN.html#a88a379b65ce386dd0b7af3363b20d2ef" target="_top" xlink:title="SeeSawN::UnitTestsN\l::TestMetricsN::BOOST\l_AUTO_TEST_CASE">
<polygon fill="white" stroke="black" points="358.5,-644.5 358.5,-685.5 477.5,-685.5 477.5,-644.5 358.5,-644.5"/>
<text text-anchor="start" x="366.5" y="-673.5" font-family="FreeSans" font-size="10.00">SeeSawN::UnitTestsN</text>
<text text-anchor="start" x="366.5" y="-662.5" font-family="FreeSans" font-size="10.00">::TestMetricsN::BOOST</text>
<text text-anchor="middle" x="418" y="-651.5" font-family="FreeSans" font-size="10.00">_AUTO_TEST_CASE</text>
</a>
</g>
</g>
<!-- Node19&#45;&gt;Node20 -->
<g id="edge1" class="edge"><title>Node19&#45;&gt;Node20</title>
<path fill="none" stroke="midnightblue" d="M63.9314,-311.648C72.274,-356.321 97.3227,-463.364 155,-531 205.794,-590.563 289.64,-626.829 348.778,-646.348"/>
<polygon fill="midnightblue" stroke="midnightblue" points="347.824,-649.718 358.415,-649.454 349.971,-643.055 347.824,-649.718"/>
</g>
<!-- Node21 -->
<g id="node3" class="node"><title>Node21</title>
<g id="a_node3"><a xlink:href="namespaceSeeSawN_1_1UnitTestsN_1_1TestMetricsN.html#a0df99b5e0e4e27627ef955fdd433b029" target="_top" xlink:title="SeeSawN::UnitTestsN\l::TestMetricsN::BOOST\l_AUTO_TEST_SUITE_END">
<polygon fill="white" stroke="black" points="155,-480.5 155,-521.5 295,-521.5 295,-480.5 155,-480.5"/>
<text text-anchor="start" x="163" y="-509.5" font-family="FreeSans" font-size="10.00">SeeSawN::UnitTestsN</text>
<text text-anchor="start" x="163" y="-498.5" font-family="FreeSans" font-size="10.00">::TestMetricsN::BOOST</text>
<text text-anchor="middle" x="225" y="-487.5" font-family="FreeSans" font-size="10.00">_AUTO_TEST_SUITE_END</text>
</a>
</g>
</g>
<!-- Node19&#45;&gt;Node21 -->
<g id="edge2" class="edge"><title>Node19&#45;&gt;Node21</title>
<path fill="none" stroke="midnightblue" d="M66.3092,-311.621C77.6154,-348.311 105.875,-425.351 155,-471 156.283,-472.192 157.621,-473.342 159.004,-474.45"/>
<polygon fill="midnightblue" stroke="midnightblue" points="157.173,-477.442 167.361,-480.352 161.211,-471.724 157.173,-477.442"/>
</g>
<!-- Node29 -->
<g id="node11" class="node"><title>Node29</title>
<g id="a_node11"><a xlink:href="classSeeSawN_1_1MetricsN_1_1EpipolarSampsonErrorC.html#a9d8cf6d553510cf752ab30752053aeed" target="_top" xlink:title="Computes the distance when the epipolar lines are available. ">
<polygon fill="white" stroke="black" points="163,-420.5 163,-461.5 287,-461.5 287,-420.5 163,-420.5"/>
<text text-anchor="start" x="171" y="-449.5" font-family="FreeSans" font-size="10.00">SeeSawN::MetricsN::</text>
<text text-anchor="start" x="171" y="-438.5" font-family="FreeSans" font-size="10.00">EpipolarSampsonErrorC</text>
<text text-anchor="middle" x="225" y="-427.5" font-family="FreeSans" font-size="10.00">::ComputeFromProjected</text>
</a>
</g>
</g>
<!-- Node19&#45;&gt;Node29 -->
<g id="edge11" class="edge"><title>Node19&#45;&gt;Node29</title>
<path fill="none" stroke="midnightblue" d="M72.4035,-311.828C88.2874,-338.032 118.672,-382.984 155,-411 156.807,-412.393 158.689,-413.736 160.626,-415.029"/>
<polygon fill="midnightblue" stroke="midnightblue" points="159.061,-418.174 169.424,-420.379 162.698,-412.193 159.061,-418.174"/>
</g>
<!-- Node30 -->
<g id="node12" class="node"><title>Node30</title>
<g id="a_node12"><a xlink:href="classSeeSawN_1_1MetricsN_1_1EpipolarSampsonErrorC.html#a71982ef33db539d663436947751cb2e7" target="_top" xlink:title="Computes the Jacobian of the error wrt/projector. ">
<polygon fill="white" stroke="black" points="165.5,-360.5 165.5,-401.5 284.5,-401.5 284.5,-360.5 165.5,-360.5"/>
<text text-anchor="start" x="173.5" y="-389.5" font-family="FreeSans" font-size="10.00">SeeSawN::MetricsN::</text>
<text text-anchor="start" x="173.5" y="-378.5" font-family="FreeSans" font-size="10.00">EpipolarSampsonErrorC</text>
<text text-anchor="middle" x="225" y="-367.5" font-family="FreeSans" font-size="10.00">::ComputeJacobiandP</text>
</a>
</g>
</g>
<!-- Node19&#45;&gt;Node30 -->
<g id="edge12" class="edge"><title>Node19&#45;&gt;Node30</title>
<path fill="none" stroke="midnightblue" d="M90.4247,-311.69C108.664,-323.869 132.684,-339.157 155,-351 158.249,-352.724 161.618,-354.432 165.041,-356.106"/>
<polygon fill="midnightblue" stroke="midnightblue" points="163.649,-359.32 174.184,-360.447 166.651,-352.996 163.649,-359.32"/>
</g>
<!-- Node31 -->
<g id="node13" class="node"><title>Node31</title>
<g id="a_node13"><a xlink:href="classSeeSawN_1_1MetricsN_1_1EpipolarSampsonErrorC.html#a35340d1d47c039eae73ecb9bc73b8703" target="_top" xlink:title="Computes the Jacobian of the error wrt/Coordinates. ">
<polygon fill="white" stroke="black" points="163,-300.5 163,-341.5 287,-341.5 287,-300.5 163,-300.5"/>
<text text-anchor="start" x="171" y="-329.5" font-family="FreeSans" font-size="10.00">SeeSawN::MetricsN::</text>
<text text-anchor="start" x="171" y="-318.5" font-family="FreeSans" font-size="10.00">EpipolarSampsonErrorC</text>
<text text-anchor="middle" x="225" y="-307.5" font-family="FreeSans" font-size="10.00">::ComputeJacobiandx1x2</text>
</a>
</g>
</g>
<!-- Node19&#45;&gt;Node31 -->
<g id="edge13" class="edge"><title>Node19&#45;&gt;Node31</title>
<path fill="none" stroke="midnightblue" d="M119.065,-301.746C130.05,-303.762 141.644,-305.889 152.959,-307.965"/>
<polygon fill="midnightblue" stroke="midnightblue" points="152.341,-311.41 162.809,-309.772 153.605,-304.525 152.341,-311.41"/>
</g>
<!-- Node32 -->
<g id="node14" class="node"><title>Node32</title>
<g id="a_node14"><a xlink:href="classSeeSawN_1_1MetricsN_1_1EpipolarSampsonErrorC.html#a1c4f81e250968114aee8e30e63dcc126" target="_top" xlink:title="Computes the outlier rejection threshold for a specified inlier rejection probability and noise varia...">
<polygon fill="white" stroke="black" points="159.5,-240.5 159.5,-281.5 290.5,-281.5 290.5,-240.5 159.5,-240.5"/>
<text text-anchor="start" x="167.5" y="-269.5" font-family="FreeSans" font-size="10.00">SeeSawN::MetricsN::</text>
<text text-anchor="start" x="167.5" y="-258.5" font-family="FreeSans" font-size="10.00">EpipolarSampsonErrorC</text>
<text text-anchor="middle" x="225" y="-247.5" font-family="FreeSans" font-size="10.00">::ComputeOutlierThreshold</text>
</a>
</g>
</g>
<!-- Node19&#45;&gt;Node32 -->
<g id="edge14" class="edge"><title>Node19&#45;&gt;Node32</title>
<path fill="none" stroke="midnightblue" d="M119.065,-280.254C128.893,-278.451 139.207,-276.558 149.374,-274.693"/>
<polygon fill="midnightblue" stroke="midnightblue" points="150.263,-278.088 159.468,-272.841 149,-271.203 150.263,-278.088"/>
</g>
<!-- Node33 -->
<g id="node15" class="node"><title>Node33</title>
<g id="a_node15"><a xlink:href="classSeeSawN_1_1MetricsN_1_1EpipolarSampsonErrorC.html#ad71f024873b3c7e6d4213715758d3748" target="_top" xlink:title="Returns a constant reference to mF,matrix() ">
<polygon fill="white" stroke="black" points="165.5,-180.5 165.5,-221.5 284.5,-221.5 284.5,-180.5 165.5,-180.5"/>
<text text-anchor="start" x="173.5" y="-209.5" font-family="FreeSans" font-size="10.00">SeeSawN::MetricsN::</text>
<text text-anchor="start" x="173.5" y="-198.5" font-family="FreeSans" font-size="10.00">EpipolarSampsonErrorC</text>
<text text-anchor="middle" x="225" y="-187.5" font-family="FreeSans" font-size="10.00">::GetProjector</text>
</a>
</g>
</g>
<!-- Node19&#45;&gt;Node33 -->
<g id="edge15" class="edge"><title>Node19&#45;&gt;Node33</title>
<path fill="none" stroke="midnightblue" d="M90.4247,-270.31C108.664,-258.131 132.684,-242.843 155,-231 158.249,-229.276 161.618,-227.568 165.041,-225.894"/>
<polygon fill="midnightblue" stroke="midnightblue" points="166.651,-229.004 174.184,-221.553 163.649,-222.68 166.651,-229.004"/>
</g>
<!-- Node34 -->
<g id="node16" class="node"><title>Node34</title>
<g id="a_node16"><a xlink:href="classSeeSawN_1_1MetricsN_1_1EpipolarSampsonErrorC.html#ab6e429fd07bc502ad7b3d664d51af470" target="_top" xlink:title="Projects a range of coordinates via mF^T. ">
<polygon fill="white" stroke="black" points="165.5,-120.5 165.5,-161.5 284.5,-161.5 284.5,-120.5 165.5,-120.5"/>
<text text-anchor="start" x="173.5" y="-149.5" font-family="FreeSans" font-size="10.00">SeeSawN::MetricsN::</text>
<text text-anchor="start" x="173.5" y="-138.5" font-family="FreeSans" font-size="10.00">EpipolarSampsonErrorC</text>
<text text-anchor="middle" x="225" y="-127.5" font-family="FreeSans" font-size="10.00">::InverseProject</text>
</a>
</g>
</g>
<!-- Node19&#45;&gt;Node34 -->
<g id="edge16" class="edge"><title>Node19&#45;&gt;Node34</title>
<path fill="none" stroke="midnightblue" d="M72.4035,-270.172C88.2874,-243.968 118.672,-199.016 155,-171 156.807,-169.607 158.689,-168.264 160.626,-166.971"/>
<polygon fill="midnightblue" stroke="midnightblue" points="162.698,-169.807 169.424,-161.621 159.061,-163.826 162.698,-169.807"/>
</g>
<!-- Node35 -->
<g id="node17" class="node"><title>Node35</title>
<g id="a_node17"><a xlink:href="classSeeSawN_1_1MetricsN_1_1EpipolarSampsonErrorC.html#acc5709e06f3e4a2da861ec8bb22985ed" target="_top" xlink:title="Projects a range of coordinates via mF. ">
<polygon fill="white" stroke="black" points="165.5,-60.5 165.5,-101.5 284.5,-101.5 284.5,-60.5 165.5,-60.5"/>
<text text-anchor="start" x="173.5" y="-89.5" font-family="FreeSans" font-size="10.00">SeeSawN::MetricsN::</text>
<text text-anchor="start" x="173.5" y="-78.5" font-family="FreeSans" font-size="10.00">EpipolarSampsonErrorC</text>
<text text-anchor="middle" x="225" y="-67.5" font-family="FreeSans" font-size="10.00">::Project</text>
</a>
</g>
</g>
<!-- Node19&#45;&gt;Node35 -->
<g id="edge17" class="edge"><title>Node19&#45;&gt;Node35</title>
<path fill="none" stroke="midnightblue" d="M66.3092,-270.379C77.6154,-233.689 105.875,-156.649 155,-111 156.283,-109.808 157.621,-108.658 159.004,-107.55"/>
<polygon fill="midnightblue" stroke="midnightblue" points="161.211,-110.276 167.361,-101.648 157.173,-104.558 161.211,-110.276"/>
</g>
<!-- Node36 -->
<g id="node18" class="node"><title>Node36</title>
<g id="a_node18"><a xlink:href="classSeeSawN_1_1MetricsN_1_1EpipolarSampsonErrorC.html#abb5edd65b118f721b966a47e94a4aed9" target="_top" xlink:title="Sets mF. ">
<polygon fill="white" stroke="black" points="165.5,-0.5 165.5,-41.5 284.5,-41.5 284.5,-0.5 165.5,-0.5"/>
<text text-anchor="start" x="173.5" y="-29.5" font-family="FreeSans" font-size="10.00">SeeSawN::MetricsN::</text>
<text text-anchor="start" x="173.5" y="-18.5" font-family="FreeSans" font-size="10.00">EpipolarSampsonErrorC</text>
<text text-anchor="middle" x="225" y="-7.5" font-family="FreeSans" font-size="10.00">::SetProjector</text>
</a>
</g>
</g>
<!-- Node19&#45;&gt;Node36 -->
<g id="edge18" class="edge"><title>Node19&#45;&gt;Node36</title>
<path fill="none" stroke="midnightblue" d="M63.2094,-270.48C70.2184,-225.121 92.9452,-115.267 155,-51 156.049,-49.9135 157.144,-48.8639 158.279,-47.8502"/>
<polygon fill="midnightblue" stroke="midnightblue" points="160.506,-50.5524 166.278,-41.6678 156.225,-45.0139 160.506,-50.5524"/>
</g>
<!-- Node21&#45;&gt;Node20 -->
<g id="edge4" class="edge"><title>Node21&#45;&gt;Node20</title>
<path fill="none" stroke="midnightblue" d="M241.269,-521.78C267.549,-557.343 319.612,-626.854 331,-635 336.53,-638.956 342.629,-642.429 348.95,-645.47"/>
<polygon fill="midnightblue" stroke="midnightblue" points="347.767,-648.774 358.328,-649.623 350.601,-642.374 347.767,-648.774"/>
</g>
<!-- Node22 -->
<g id="node4" class="node"><title>Node22</title>
<g id="a_node4"><a xlink:href="classSeeSawN_1_1MetricsN_1_1DistanceToSimilarityConverterC.html#a8790a09a2d01b29e3f1ee1af1808588f" target="_top" xlink:title="Converts a similarity score to a distance. ">
<polygon fill="white" stroke="black" points="344,-584.5 344,-625.5 492,-625.5 492,-584.5 344,-584.5"/>
<text text-anchor="start" x="352" y="-613.5" font-family="FreeSans" font-size="10.00">SeeSawN::MetricsN::</text>
<text text-anchor="start" x="352" y="-602.5" font-family="FreeSans" font-size="10.00">DistanceToSimilarityConverter</text>
<text text-anchor="middle" x="418" y="-591.5" font-family="FreeSans" font-size="10.00">C::Invert</text>
</a>
</g>
</g>
<!-- Node21&#45;&gt;Node22 -->
<g id="edge3" class="edge"><title>Node21&#45;&gt;Node22</title>
<path fill="none" stroke="midnightblue" d="M251.039,-521.672C271.55,-537.838 301.843,-560.014 331,-575 334.718,-576.911 338.586,-578.747 342.532,-580.504"/>
<polygon fill="midnightblue" stroke="midnightblue" points="341.276,-583.773 351.849,-584.456 344.01,-577.329 341.276,-583.773"/>
</g>
<!-- Node23 -->
<g id="node5" class="node"><title>Node23</title>
<g id="a_node5"><a xlink:href="classSeeSawN_1_1MetricsN_1_1TransferErrorC.html#a83ec5e574e5d28a5fe32275ce095a2eb" target="_top" xlink:title="Sets the projection operator. ">
<polygon fill="white" stroke="black" points="349,-535 349,-565 487,-565 487,-535 349,-535"/>
<text text-anchor="start" x="357" y="-553" font-family="FreeSans" font-size="10.00">SeeSawN::MetricsN::</text>
<text text-anchor="middle" x="418" y="-542" font-family="FreeSans" font-size="10.00">TransferErrorC::SetProjector</text>
</a>
</g>
</g>
<!-- Node21&#45;&gt;Node23 -->
<g id="edge5" class="edge"><title>Node21&#45;&gt;Node23</title>
<path fill="none" stroke="midnightblue" d="M295.225,-518.759C312.539,-523.201 331.102,-527.963 348.385,-532.397"/>
<polygon fill="midnightblue" stroke="midnightblue" points="347.839,-535.87 358.395,-534.965 349.578,-529.09 347.839,-535.87"/>
</g>
<!-- Node24 -->
<g id="node6" class="node"><title>Node24</title>
<g id="a_node6"><a xlink:href="classSeeSawN_1_1MetricsN_1_1TransferErrorC.html#a923e0057b2dfc2cc3b0b36292600584e" target="_top" xlink:title="Returns a constant reference to the projection operator. ">
<polygon fill="white" stroke="black" points="348.5,-486 348.5,-516 487.5,-516 487.5,-486 348.5,-486"/>
<text text-anchor="start" x="356.5" y="-504" font-family="FreeSans" font-size="10.00">SeeSawN::MetricsN::</text>
<text text-anchor="middle" x="418" y="-493" font-family="FreeSans" font-size="10.00">TransferErrorC::GetProjector</text>
</a>
</g>
</g>
<!-- Node21&#45;&gt;Node24 -->
<g id="edge6" class="edge"><title>Node21&#45;&gt;Node24</title>
<path fill="none" stroke="midnightblue" d="M295.225,-501C309.143,-501 323.867,-501 338.085,-501"/>
<polygon fill="midnightblue" stroke="midnightblue" points="338.33,-504.5 348.33,-501 338.33,-497.5 338.33,-504.5"/>
</g>
<!-- Node25 -->
<g id="node7" class="node"><title>Node25</title>
<g id="a_node7"><a xlink:href="classSeeSawN_1_1MetricsN_1_1TransferErrorC.html#a29dd5b64b749fb93833e219f39742463" target="_top" xlink:title="Projects a range of coordinates via mH. ">
<polygon fill="white" stroke="black" points="360.5,-437 360.5,-467 475.5,-467 475.5,-437 360.5,-437"/>
<text text-anchor="start" x="368.5" y="-455" font-family="FreeSans" font-size="10.00">SeeSawN::MetricsN::</text>
<text text-anchor="middle" x="418" y="-444" font-family="FreeSans" font-size="10.00">TransferErrorC::Project</text>
</a>
</g>
</g>
<!-- Node21&#45;&gt;Node25 -->
<g id="edge7" class="edge"><title>Node21&#45;&gt;Node25</title>
<path fill="none" stroke="midnightblue" d="M295.225,-483.241C313.241,-478.619 332.61,-473.65 350.482,-469.065"/>
<polygon fill="midnightblue" stroke="midnightblue" points="351.423,-472.437 360.239,-466.562 349.683,-465.657 351.423,-472.437"/>
</g>
<!-- Node26 -->
<g id="node8" class="node"><title>Node26</title>
<g id="a_node8"><a xlink:href="classSeeSawN_1_1MetricsN_1_1TransferErrorC.html#aec442d4a692eb9026332b20b68292c7c" target="_top" xlink:title="Computes the distance when &#160;is available. ">
<polygon fill="white" stroke="black" points="345,-376.5 345,-417.5 491,-417.5 491,-376.5 345,-376.5"/>
<text text-anchor="start" x="353" y="-405.5" font-family="FreeSans" font-size="10.00">SeeSawN::MetricsN::</text>
<text text-anchor="start" x="353" y="-394.5" font-family="FreeSans" font-size="10.00">TransferErrorC::ComputeFrom</text>
<text text-anchor="middle" x="418" y="-383.5" font-family="FreeSans" font-size="10.00">Projected</text>
</a>
</g>
</g>
<!-- Node21&#45;&gt;Node26 -->
<g id="edge8" class="edge"><title>Node21&#45;&gt;Node26</title>
<path fill="none" stroke="midnightblue" d="M280.115,-480.434C285.337,-477.586 290.397,-474.441 295,-471 314.963,-456.076 310.569,-442.276 331,-428 333.885,-425.985 336.914,-424.086 340.043,-422.298"/>
<polygon fill="midnightblue" stroke="midnightblue" points="341.856,-425.3 349.082,-417.552 338.601,-419.102 341.856,-425.3"/>
</g>
<!-- Node27 -->
<g id="node9" class="node"><title>Node27</title>
<g id="a_node9"><a xlink:href="classSeeSawN_1_1MetricsN_1_1TransferErrorC.html#a930d104a84a2623f069f0e5f593b0eeb" target="_top" xlink:title="Computes the Jacobian of the error wrt/projector. ">
<polygon fill="white" stroke="black" points="331,-327 331,-357 505,-357 505,-327 331,-327"/>
<text text-anchor="start" x="339" y="-345" font-family="FreeSans" font-size="10.00">SeeSawN::MetricsN::</text>
<text text-anchor="middle" x="418" y="-334" font-family="FreeSans" font-size="10.00">TransferErrorC::ComputeJacobiandP</text>
</a>
</g>
</g>
<!-- Node21&#45;&gt;Node27 -->
<g id="edge9" class="edge"><title>Node21&#45;&gt;Node27</title>
<path fill="none" stroke="midnightblue" d="M283.883,-480.485C287.941,-477.694 291.716,-474.546 295,-471 328.232,-435.11 295.554,-400.705 331,-367 332.648,-365.433 334.388,-363.964 336.205,-362.585"/>
<polygon fill="midnightblue" stroke="midnightblue" points="338.142,-365.501 344.611,-357.11 334.321,-359.635 338.142,-365.501"/>
</g>
<!-- Node28 -->
<g id="node10" class="node"><title>Node28</title>
<g id="a_node10"><a xlink:href="classSeeSawN_1_1MetricsN_1_1TransferErrorC.html#aa0dad9a2ba6de6cc45560300927606c5" target="_top" xlink:title="Computes the outlier rejection threshold for a specified inlier rejection probability and noise varia...">
<polygon fill="white" stroke="black" points="342,-266.5 342,-307.5 494,-307.5 494,-266.5 342,-266.5"/>
<text text-anchor="start" x="350" y="-295.5" font-family="FreeSans" font-size="10.00">SeeSawN::MetricsN::</text>
<text text-anchor="start" x="350" y="-284.5" font-family="FreeSans" font-size="10.00">TransferErrorC::ComputeOutlier</text>
<text text-anchor="middle" x="418" y="-273.5" font-family="FreeSans" font-size="10.00">Threshold</text>
</a>
</g>
</g>
<!-- Node21&#45;&gt;Node28 -->
<g id="edge10" class="edge"><title>Node21&#45;&gt;Node28</title>
<path fill="none" stroke="midnightblue" d="M284.931,-480.374C288.65,-477.619 292.069,-474.509 295,-471 339.783,-417.385 284.521,-370.151 331,-318 332.198,-316.656 333.458,-315.37 334.774,-314.14"/>
<polygon fill="midnightblue" stroke="midnightblue" points="337.223,-316.663 342.851,-307.687 332.854,-311.194 337.223,-316.663"/>
</g>
</g>
</svg>
        <g id="navigator" transform="translate(0 0)" fill="#404254">
                <rect fill="#f2f5e9" fill-opacity="0.5" stroke="#606060" stroke-width=".5" x="0" y="0" width="60" height="60"/>
                <use id="zoomplus" xlink:href="#zoomPlus" x="17" y="9" onmousedown="handleZoom(evt,'in')"/>
                <use id="zoomminus" xlink:href="#zoomMin" x="42" y="9" onmousedown="handleZoom(evt,'out')"/>
                <use id="reset" xlink:href="#resetDef" x="30" y="36" onmousedown="handleReset()"/>
                <g id="arrowUp" xlink:href="#dirArrow" transform="translate(30 24)" onmousedown="handlePan(0,-1)">
                  <use xlink:href="#rim" fill="#404040">
                        <set attributeName="fill" to="#808080" begin="arrowUp.mouseover" end="arrowUp.mouseout"/>
                  </use>
                  <path fill="none" stroke="white" stroke-width="1.5" d="M0,-3.0v7 M-2.5,-0.5L0,-3.0L2.5,-0.5"/>
                </g>
                <g id="arrowRight" xlink:href="#dirArrow" transform="rotate(90) translate(36 -43)" onmousedown="handlePan(1,0)">
                  <use xlink:href="#rim" fill="#404040">
                        <set attributeName="fill" to="#808080" begin="arrowRight.mouseover" end="arrowRight.mouseout"/>
                  </use>
                  <path fill="none" stroke="white" stroke-width="1.5" d="M0,-3.0v7 M-2.5,-0.5L0,-3.0L2.5,-0.5"/>
                </g>
                <g id="arrowDown" xlink:href="#dirArrow" transform="rotate(180) translate(-30 -48)" onmousedown="handlePan(0,1)">
                  <use xlink:href="#rim" fill="#404040">
                        <set attributeName="fill" to="#808080" begin="arrowDown.mouseover" end="arrowDown.mouseout"/>
                  </use>
                  <path fill="none" stroke="white" stroke-width="1.5" d="M0,-3.0v7 M-2.5,-0.5L0,-3.0L2.5,-0.5"/>
                </g>
                <g id="arrowLeft" xlink:href="#dirArrow" transform="rotate(270) translate(-36 17)" onmousedown="handlePan(-1,0)">
                  <use xlink:href="#rim" fill="#404040">
                        <set attributeName="fill" to="#808080" begin="arrowLeft.mouseover" end="arrowLeft.mouseout"/>
                  </use>
                  <path fill="none" stroke="white" stroke-width="1.5" d="M0,-3.0v7 M-2.5,-0.5L0,-3.0L2.5,-0.5"/>
                </g>
        </g>
        <svg viewBox="0 0 15 15" width="100%" height="30px" preserveAspectRatio="xMaxYMin meet">
         <g id="arrow_out" transform="scale(0.3 0.3)">
          <a xlink:href="namespaceSeeSawN_1_1UnitTestsN_1_1TestMetricsN_a4194ebc805cf87c63bc851d9b3116799_cgraph_org.svg" target="_base">
           <rect id="button" ry="5" rx="5" y="6" x="6" height="38" width="38"
                fill="#f2f5e9" fill-opacity="0.5" stroke="#606060" stroke-width="1.0"/>
           <path id="arrow"
             d="M 11.500037,31.436501 C 11.940474,20.09759 22.043105,11.32322 32.158766,21.979434 L 37.068811,17.246167 C 37.068811,17.246167 37.088388,32 37.088388,32 L 22.160133,31.978069 C 22.160133,31.978069 26.997745,27.140456 26.997745,27.140456 C 18.528582,18.264221 13.291696,25.230495 11.500037,31.436501 z"
             style="fill:#404040;"/>
          </a>
         </g>
        </svg>
</svg>
