<?xml version="1.0" encoding="UTF-8" standalone="no"?>
<!DOCTYPE svg PUBLIC "-//W3C//DTD SVG 1.1//EN"
 "http://www.w3.org/Graphics/SVG/1.1/DTD/svg11.dtd">
<!-- Generated by graphviz version 2.38.0 (20140413.2041)
 -->
<!-- Title: SeeSawN::ElementsN::CameraToEssential Pages: 1 -->
<svg width="437pt" height="39pt"
 viewBox="0.00 0.00 437.00 39.00" xmlns="http://www.w3.org/2000/svg" xmlns:xlink="http://www.w3.org/1999/xlink">
<g id="graph0" class="graph" transform="scale(1 1) rotate(0) translate(4 35)">
<title>SeeSawN::ElementsN::CameraToEssential</title>
<polygon fill="white" stroke="none" points="-4,4 -4,-35 433,-35 433,4 -4,4"/>
<!-- Node13 -->
<g id="node1" class="node"><title>Node13</title>
<polygon fill="#bfbfbf" stroke="black" points="0,-0.5 0,-30.5 113,-30.5 113,-0.5 0,-0.5"/>
<text text-anchor="start" x="8" y="-18.5" font-family="FreeSans" font-size="10.00">SeeSawN::ElementsN</text>
<text text-anchor="middle" x="56.5" y="-7.5" font-family="FreeSans" font-size="10.00">::CameraToEssential</text>
</g>
<!-- Node14 -->
<g id="node2" class="node"><title>Node14</title>
<g id="a_node2"><a xlink:href="group__Utility.html#gac3b857ffaf1804a2ae1802cb86192903" target="_top" xlink:title="Essential matrix from relative calibration. ">
<polygon fill="white" stroke="black" points="149,-0.5 149,-30.5 262,-30.5 262,-0.5 149,-0.5"/>
<text text-anchor="start" x="157" y="-18.5" font-family="FreeSans" font-size="10.00">SeeSawN::ElementsN</text>
<text text-anchor="middle" x="205.5" y="-7.5" font-family="FreeSans" font-size="10.00">::ComposeEssential</text>
</a>
</g>
</g>
<!-- Node13&#45;&gt;Node14 -->
<g id="edge1" class="edge"><title>Node13&#45;&gt;Node14</title>
<path fill="none" stroke="midnightblue" d="M113.074,-15.5C121.489,-15.5 130.238,-15.5 138.842,-15.5"/>
<polygon fill="midnightblue" stroke="midnightblue" points="138.847,-19.0001 148.847,-15.5 138.847,-12.0001 138.847,-19.0001"/>
</g>
<!-- Node15 -->
<g id="node3" class="node"><title>Node15</title>
<g id="a_node3"><a xlink:href="namespaceSeeSawN_1_1WrappersN.html#a7a58341e8f21a5c2a3a8d55453ec473d" target="_top" xlink:title="SeeSawN::WrappersN\l::MakeCrossProductMatrix">
<polygon fill="white" stroke="black" points="298,-0.5 298,-30.5 429,-30.5 429,-0.5 298,-0.5"/>
<text text-anchor="start" x="306" y="-18.5" font-family="FreeSans" font-size="10.00">SeeSawN::WrappersN</text>
<text text-anchor="middle" x="363.5" y="-7.5" font-family="FreeSans" font-size="10.00">::MakeCrossProductMatrix</text>
</a>
</g>
</g>
<!-- Node14&#45;&gt;Node15 -->
<g id="edge2" class="edge"><title>Node14&#45;&gt;Node15</title>
<path fill="none" stroke="midnightblue" d="M262.379,-15.5C270.674,-15.5 279.332,-15.5 287.935,-15.5"/>
<polygon fill="midnightblue" stroke="midnightblue" points="287.983,-19.0001 297.983,-15.5 287.983,-12.0001 287.983,-19.0001"/>
</g>
</g>
</svg>
