<?xml version="1.0" encoding="UTF-8" standalone="no"?>
<!DOCTYPE svg PUBLIC "-//W3C//DTD SVG 1.1//EN"
 "http://www.w3.org/Graphics/SVG/1.1/DTD/svg11.dtd">
<!-- Generated by graphviz version 2.38.0 (20140413.2041)
 -->
<!-- Title: boost::operator| Pages: 1 -->
<svg width="842pt" height="140pt"
 viewBox="0.00 0.00 842.00 140.00" xmlns="http://www.w3.org/2000/svg" xmlns:xlink="http://www.w3.org/1999/xlink">
<g id="graph0" class="graph" transform="scale(1 1) rotate(0) translate(4 136)">
<title>boost::operator|</title>
<polygon fill="white" stroke="none" points="-4,4 -4,-136 838,-136 838,4 -4,4"/>
<!-- Node98 -->
<g id="node1" class="node"><title>Node98</title>
<polygon fill="#bfbfbf" stroke="black" points="0,-71.5 0,-90.5 83,-90.5 83,-71.5 0,-71.5"/>
<text text-anchor="middle" x="41.5" y="-78.5" font-family="FreeSans" font-size="10.00">boost::operator|</text>
</g>
<!-- Node99 -->
<g id="node2" class="node"><title>Node99</title>
<g id="a_node2"><a xlink:href="classboost_1_1dynamic__bitset.html#adb5eff0ced73dc785c2933aecaa7b5a9" target="_top" xlink:title="boost::dynamic_bitset\l::HammingDistance">
<polygon fill="white" stroke="black" points="119,-66 119,-96 229,-96 229,-66 119,-66"/>
<text text-anchor="start" x="127" y="-84" font-family="FreeSans" font-size="10.00">boost::dynamic_bitset</text>
<text text-anchor="middle" x="174" y="-73" font-family="FreeSans" font-size="10.00">::HammingDistance</text>
</a>
</g>
</g>
<!-- Node98&#45;&gt;Node99 -->
<g id="edge1" class="edge"><title>Node98&#45;&gt;Node99</title>
<path fill="none" stroke="midnightblue" d="M93.3306,-81C101.598,-81 110.19,-81 118.539,-81"/>
<polygon fill="midnightblue" stroke="midnightblue" points="93.0757,-77.5001 83.0757,-81 93.0756,-84.5001 93.0757,-77.5001"/>
</g>
<!-- Node100 -->
<g id="node3" class="node"><title>Node100</title>
<g id="a_node3"><a xlink:href="classSeeSawN_1_1ElementsN_1_1OrientedBinarySceneFeatureC.html#a215fa76a3154629caa84d510db7cdbb8" target="_top" xlink:title="Summarises a scene feature with its most representative image descriptor. ">
<polygon fill="white" stroke="black" points="265,-60.5 265,-101.5 411,-101.5 411,-60.5 265,-60.5"/>
<text text-anchor="start" x="273" y="-89.5" font-family="FreeSans" font-size="10.00">SeeSawN::ElementsN</text>
<text text-anchor="start" x="273" y="-78.5" font-family="FreeSans" font-size="10.00">::OrientedBinarySceneFeature</text>
<text text-anchor="middle" x="338" y="-67.5" font-family="FreeSans" font-size="10.00">C::MakeCompact</text>
</a>
</g>
</g>
<!-- Node99&#45;&gt;Node100 -->
<g id="edge2" class="edge"><title>Node99&#45;&gt;Node100</title>
<path fill="none" stroke="midnightblue" d="M239.451,-81C247.817,-81 256.429,-81 264.909,-81"/>
<polygon fill="midnightblue" stroke="midnightblue" points="239.394,-77.5001 229.394,-81 239.394,-84.5001 239.394,-77.5001"/>
</g>
<!-- Node101 -->
<g id="node4" class="node"><title>Node101</title>
<g id="a_node4"><a xlink:href="namespaceSeeSawN_1_1UnitTestsN_1_1TestElementsN.html#a58db68d7dbdc445dc71922acb5049108" target="_top" xlink:title="SeeSawN::UnitTestsN\l::TestElementsN::BOOST\l_AUTO_TEST_CASE">
<polygon fill="white" stroke="black" points="466,-90.5 466,-131.5 594,-131.5 594,-90.5 466,-90.5"/>
<text text-anchor="start" x="474" y="-119.5" font-family="FreeSans" font-size="10.00">SeeSawN::UnitTestsN</text>
<text text-anchor="start" x="474" y="-108.5" font-family="FreeSans" font-size="10.00">::TestElementsN::BOOST</text>
<text text-anchor="middle" x="530" y="-97.5" font-family="FreeSans" font-size="10.00">_AUTO_TEST_CASE</text>
</a>
</g>
</g>
<!-- Node100&#45;&gt;Node101 -->
<g id="edge3" class="edge"><title>Node100&#45;&gt;Node101</title>
<path fill="none" stroke="midnightblue" d="M421.364,-94.0048C436.311,-96.365 451.684,-98.7922 465.966,-101.047"/>
<polygon fill="midnightblue" stroke="midnightblue" points="421.525,-90.487 411.102,-92.3845 420.434,-97.4014 421.525,-90.487"/>
</g>
<!-- Node102 -->
<g id="node5" class="node"><title>Node102</title>
<g id="a_node5"><a xlink:href="classSeeSawN_1_1GeometryN_1_1SparseUnitSphereReconstructionPipelineC.html#ab2168d14acac87a86acc1d54f59ea0ff" target="_top" xlink:title="Runs the algorithm. ">
<polygon fill="white" stroke="black" points="447,-30.5 447,-71.5 613,-71.5 613,-30.5 447,-30.5"/>
<text text-anchor="start" x="455" y="-59.5" font-family="FreeSans" font-size="10.00">SeeSawN::GeometryN</text>
<text text-anchor="start" x="455" y="-48.5" font-family="FreeSans" font-size="10.00">::SparseUnitSphereReconstruction</text>
<text text-anchor="middle" x="530" y="-37.5" font-family="FreeSans" font-size="10.00">PipelineC::Run</text>
</a>
</g>
</g>
<!-- Node100&#45;&gt;Node102 -->
<g id="edge4" class="edge"><title>Node100&#45;&gt;Node102</title>
<path fill="none" stroke="midnightblue" d="M421.033,-68.0474C429.563,-66.7006 438.235,-65.3314 446.767,-63.9842"/>
<polygon fill="midnightblue" stroke="midnightblue" points="420.434,-64.5986 411.102,-69.6155 421.525,-71.513 420.434,-64.5986"/>
</g>
<!-- Node103 -->
<g id="node6" class="node"><title>Node103</title>
<g id="a_node6"><a xlink:href="classSeeSawN_1_1AppSparseUnitSphereBuilderN_1_1AppSparseUnitSphereBuilderImplementationC.html#a21278d448f57f45c6ab74176e677592e" target="_top" xlink:title="Runs the application. ">
<polygon fill="white" stroke="black" points="649,-60.5 649,-101.5 834,-101.5 834,-60.5 649,-60.5"/>
<text text-anchor="start" x="657" y="-89.5" font-family="FreeSans" font-size="10.00">SeeSawN::AppSparseUnitSphere</text>
<text text-anchor="start" x="657" y="-78.5" font-family="FreeSans" font-size="10.00">BuilderN::AppSparseUnitSphereBuilder</text>
<text text-anchor="middle" x="741.5" y="-67.5" font-family="FreeSans" font-size="10.00">ImplementationC::Run</text>
</a>
</g>
</g>
<!-- Node102&#45;&gt;Node103 -->
<g id="edge5" class="edge"><title>Node102&#45;&gt;Node103</title>
<path fill="none" stroke="midnightblue" d="M623.144,-64.1948C631.672,-65.416 640.313,-66.6534 648.836,-67.874"/>
<polygon fill="midnightblue" stroke="midnightblue" points="623.594,-60.7236 613.199,-62.7707 622.602,-67.653 623.594,-60.7236"/>
</g>
<!-- Node104 -->
<g id="node7" class="node"><title>Node104</title>
<g id="a_node7"><a xlink:href="classSeeSawN_1_1GeometryN_1_1SparseUnitSphereReconstructionPipelineC.html#a36e5a2830a39ac90749196f3f4cbc8eb" target="_top" xlink:title="Conversion from binary scene features to oriented scene features. ">
<polygon fill="white" stroke="black" points="658.5,-0.5 658.5,-41.5 824.5,-41.5 824.5,-0.5 658.5,-0.5"/>
<text text-anchor="start" x="666.5" y="-29.5" font-family="FreeSans" font-size="10.00">SeeSawN::GeometryN</text>
<text text-anchor="start" x="666.5" y="-18.5" font-family="FreeSans" font-size="10.00">::SparseUnitSphereReconstruction</text>
<text text-anchor="middle" x="741.5" y="-7.5" font-family="FreeSans" font-size="10.00">PipelineC::MakeOriented</text>
</a>
</g>
</g>
<!-- Node102&#45;&gt;Node104 -->
<g id="edge6" class="edge"><title>Node102&#45;&gt;Node104</title>
<path fill="none" stroke="midnightblue" d="M623.332,-37.7782C634.94,-36.116 646.755,-34.4241 658.195,-32.786"/>
<polygon fill="midnightblue" stroke="midnightblue" points="622.602,-34.347 613.199,-39.2293 623.594,-41.2764 622.602,-34.347"/>
</g>
</g>
</svg>
