<?xml version="1.0" encoding="UTF-8" standalone="no"?>
<!DOCTYPE svg PUBLIC "-//W3C//DTD SVG 1.1//EN"
 "http://www.w3.org/Graphics/SVG/1.1/DTD/svg11.dtd">
<!-- Generated by graphviz version 2.38.0 (20140413.2041)
 -->
<!-- Title: SeeSawN::UnitTestsN::TestION::BOOST_AUTO_TEST_CASE Pages: 1 -->
<svg width="1200pt" height="1073pt"
 viewBox="0.00 0.00 1200.00 1073.00" xmlns="http://www.w3.org/2000/svg" xmlns:xlink="http://www.w3.org/1999/xlink">
<g id="graph0" class="graph" transform="scale(1 1) rotate(0) translate(4 1069)">
<title>SeeSawN::UnitTestsN::TestION::BOOST_AUTO_TEST_CASE</title>
<polygon fill="white" stroke="none" points="-4,4 -4,-1069 1196,-1069 1196,4 -4,4"/>
<!-- Node81 -->
<g id="node1" class="node"><title>Node81</title>
<polygon fill="#bfbfbf" stroke="black" points="0,-159 0,-200 131,-200 131,-159 0,-159"/>
<text text-anchor="start" x="8" y="-188" font-family="FreeSans" font-size="10.00">SeeSawN::UnitTestsN</text>
<text text-anchor="start" x="8" y="-177" font-family="FreeSans" font-size="10.00">::TestION::BOOST_AUTO</text>
<text text-anchor="middle" x="65.5" y="-166" font-family="FreeSans" font-size="10.00">_TEST_CASE</text>
</g>
<!-- Node82 -->
<g id="node2" class="node"><title>Node82</title>
<g id="a_node2"><a xlink:href="namespaceSeeSawN_1_1UnitTestsN_1_1TestION.html#aa78afa93b7f0232bdea8ac2b2870a15f" target="_top" xlink:title="SeeSawN::UnitTestsN\l::TestION::BOOST_AUTO\l_TEST_CASE">
<polygon fill="white" stroke="black" points="370.5,-760 370.5,-801 501.5,-801 501.5,-760 370.5,-760"/>
<text text-anchor="start" x="378.5" y="-789" font-family="FreeSans" font-size="10.00">SeeSawN::UnitTestsN</text>
<text text-anchor="start" x="378.5" y="-778" font-family="FreeSans" font-size="10.00">::TestION::BOOST_AUTO</text>
<text text-anchor="middle" x="436" y="-767" font-family="FreeSans" font-size="10.00">_TEST_CASE</text>
</a>
</g>
</g>
<!-- Node81&#45;&gt;Node82 -->
<g id="edge1" class="edge"><title>Node81&#45;&gt;Node82</title>
<path fill="none" stroke="midnightblue" d="M70.1799,-200.206C80.24,-253.772 111.239,-400.401 167,-510.5 226.962,-628.893 238.889,-671.146 346,-749.5 350.738,-752.966 355.895,-756.069 361.262,-758.843"/>
<polygon fill="midnightblue" stroke="midnightblue" points="359.919,-762.08 370.454,-763.207 362.922,-755.756 359.919,-762.08"/>
</g>
<!-- Node97 -->
<g id="node17" class="node"><title>Node97</title>
<g id="a_node17"><a xlink:href="namespaceSeeSawN_1_1UnitTestsN_1_1TestION.html#a2aae24ec621ab1fd2c5eb24ced60d473" target="_top" xlink:title="SeeSawN::UnitTestsN\l::TestION::BOOST_AUTO\l_TEST_SUITE_END">
<polygon fill="white" stroke="black" points="173,-460 173,-501 304,-501 304,-460 173,-460"/>
<text text-anchor="start" x="181" y="-489" font-family="FreeSans" font-size="10.00">SeeSawN::UnitTestsN</text>
<text text-anchor="start" x="181" y="-478" font-family="FreeSans" font-size="10.00">::TestION::BOOST_AUTO</text>
<text text-anchor="middle" x="238.5" y="-467" font-family="FreeSans" font-size="10.00">_TEST_SUITE_END</text>
</a>
</g>
</g>
<!-- Node81&#45;&gt;Node97 -->
<g id="edge23" class="edge"><title>Node81&#45;&gt;Node97</title>
<path fill="none" stroke="midnightblue" d="M78.2535,-200.189C107.967,-252.492 186.174,-390.154 220.704,-450.935"/>
<polygon fill="midnightblue" stroke="midnightblue" points="217.681,-452.7 225.664,-459.666 223.768,-449.243 217.681,-452.7"/>
</g>
<!-- Node109 -->
<g id="node29" class="node"><title>Node109</title>
<g id="a_node29"><a xlink:href="classSeeSawN_1_1ION_1_1ArrayIOC.html#a0d036679feb428e0da66a39a1c002d2d" target="_top" xlink:title="Reads a file into an array. ">
<polygon fill="white" stroke="black" points="174.5,-235.5 174.5,-265.5 302.5,-265.5 302.5,-235.5 174.5,-235.5"/>
<text text-anchor="start" x="182.5" y="-253.5" font-family="FreeSans" font-size="10.00">SeeSawN::ION::ArrayIOC</text>
<text text-anchor="middle" x="238.5" y="-242.5" font-family="FreeSans" font-size="10.00">::ReadArray</text>
</a>
</g>
</g>
<!-- Node81&#45;&gt;Node109 -->
<g id="edge44" class="edge"><title>Node81&#45;&gt;Node109</title>
<path fill="none" stroke="midnightblue" d="M109.173,-200.043C126.905,-208.314 147.793,-217.717 167,-225.5 172.397,-227.687 178.067,-229.875 183.748,-231.997"/>
<polygon fill="midnightblue" stroke="midnightblue" points="182.68,-235.333 193.273,-235.492 185.091,-228.761 182.68,-235.333"/>
</g>
<!-- Node110 -->
<g id="node30" class="node"><title>Node110</title>
<g id="a_node30"><a xlink:href="classSeeSawN_1_1ION_1_1CameraIOC.html#a99c01490552c2b2cf3a0b82f4cef87ad" target="_top" xlink:title="Reads a camera file. ">
<polygon fill="white" stroke="black" points="169,-186.5 169,-216.5 308,-216.5 308,-186.5 169,-186.5"/>
<text text-anchor="start" x="177" y="-204.5" font-family="FreeSans" font-size="10.00">SeeSawN::ION::CameraIOC</text>
<text text-anchor="middle" x="238.5" y="-193.5" font-family="FreeSans" font-size="10.00">::ReadCameraFile</text>
</a>
</g>
</g>
<!-- Node81&#45;&gt;Node110 -->
<g id="edge45" class="edge"><title>Node81&#45;&gt;Node110</title>
<path fill="none" stroke="midnightblue" d="M131.148,-187.817C140.177,-188.979 149.537,-190.183 158.79,-191.374"/>
<polygon fill="midnightblue" stroke="midnightblue" points="158.403,-194.853 168.768,-192.657 159.296,-187.91 158.403,-194.853"/>
</g>
<!-- Node111 -->
<g id="node31" class="node"><title>Node111</title>
<g id="a_node31"><a xlink:href="classSeeSawN_1_1ION_1_1CameraIOC.html#a6e4493b5322019254901653e81ee0be1" target="_top" xlink:title="Reads a UniS calibration file. ">
<polygon fill="white" stroke="black" points="169,-98.5 169,-128.5 308,-128.5 308,-98.5 169,-98.5"/>
<text text-anchor="start" x="177" y="-116.5" font-family="FreeSans" font-size="10.00">SeeSawN::ION::CameraIOC</text>
<text text-anchor="middle" x="238.5" y="-105.5" font-family="FreeSans" font-size="10.00">::ReadUniSFile</text>
</a>
</g>
</g>
<!-- Node81&#45;&gt;Node111 -->
<g id="edge46" class="edge"><title>Node81&#45;&gt;Node111</title>
<path fill="none" stroke="midnightblue" d="M119.668,-158.979C141.873,-150.409 167.49,-140.521 189.155,-132.159"/>
<polygon fill="midnightblue" stroke="midnightblue" points="190.421,-135.422 198.49,-128.556 187.901,-128.892 190.421,-135.422"/>
</g>
<!-- Node114 -->
<g id="node34" class="node"><title>Node114</title>
<g id="a_node34"><a xlink:href="classSeeSawN_1_1ION_1_1ArrayIOC.html#aa793e397a91afe98f3a57b0e74011b12" target="_top" xlink:title="Writes an array into a file. ">
<polygon fill="white" stroke="black" points="607,-49.5 607,-79.5 735,-79.5 735,-49.5 607,-49.5"/>
<text text-anchor="start" x="615" y="-67.5" font-family="FreeSans" font-size="10.00">SeeSawN::ION::ArrayIOC</text>
<text text-anchor="middle" x="671" y="-56.5" font-family="FreeSans" font-size="10.00">::WriteArray</text>
</a>
</g>
</g>
<!-- Node81&#45;&gt;Node114 -->
<g id="edge52" class="edge"><title>Node81&#45;&gt;Node114</title>
<path fill="none" stroke="midnightblue" d="M131.221,-176.592C239.745,-171.213 453.636,-158.322 526,-137.5 567.076,-125.681 610.313,-102.039 638.56,-84.8539"/>
<polygon fill="midnightblue" stroke="midnightblue" points="640.517,-87.7592 647.183,-79.5243 636.837,-81.8047 640.517,-87.7592"/>
</g>
<!-- Node115 -->
<g id="node35" class="node"><title>Node115</title>
<g id="a_node35"><a xlink:href="classSeeSawN_1_1ION_1_1CameraIOC.html#a93013cfa209cc5989572d6cdf246d23c" target="_top" xlink:title="Writes a camera range to a UniS calibration file. ">
<polygon fill="white" stroke="black" points="366.5,-0.5 366.5,-30.5 505.5,-30.5 505.5,-0.5 366.5,-0.5"/>
<text text-anchor="start" x="374.5" y="-18.5" font-family="FreeSans" font-size="10.00">SeeSawN::ION::CameraIOC</text>
<text text-anchor="middle" x="436" y="-7.5" font-family="FreeSans" font-size="10.00">::WriteUniSFile</text>
</a>
</g>
</g>
<!-- Node81&#45;&gt;Node115 -->
<g id="edge54" class="edge"><title>Node81&#45;&gt;Node115</title>
<path fill="none" stroke="midnightblue" d="M83.9919,-158.681C102.537,-137.922 133.703,-106.594 167,-88.5 224.781,-57.1005 246.766,-68.5558 310,-50.5 326.087,-45.9064 329.921,-44.123 346,-39.5 353.165,-37.4399 360.67,-35.3348 368.153,-33.2693"/>
<polygon fill="midnightblue" stroke="midnightblue" points="369.229,-36.6035 377.948,-30.5839 367.378,-29.8526 369.229,-36.6035"/>
</g>
<!-- Node116 -->
<g id="node36" class="node"><title>Node116</title>
<g id="a_node36"><a xlink:href="namespaceSeeSawN_1_1ION.html#a880a2874c213de568464b312ab1f4526" target="_top" xlink:title="SeeSawN::ION::WriteCovFile">
<polygon fill="white" stroke="black" points="167,-22 167,-41 310,-41 310,-22 167,-22"/>
<text text-anchor="middle" x="238.5" y="-29" font-family="FreeSans" font-size="10.00">SeeSawN::ION::WriteCovFile</text>
</a>
</g>
</g>
<!-- Node81&#45;&gt;Node116 -->
<g id="edge53" class="edge"><title>Node81&#45;&gt;Node116</title>
<path fill="none" stroke="midnightblue" d="M78.0891,-158.913C94.4948,-131.544 126.995,-83.3954 167,-55.5 173.125,-51.2293 180.074,-47.664 187.164,-44.7033"/>
<polygon fill="midnightblue" stroke="midnightblue" points="188.744,-47.8475 196.855,-41.0312 186.263,-41.3017 188.744,-47.8475"/>
</g>
<!-- Node83 -->
<g id="node3" class="node"><title>Node83</title>
<g id="a_node3"><a xlink:href="classSeeSawN_1_1ElementsN_1_1FeatureC.html#a92e6ac63de8eb61e7b6ae7ae21241f68" target="_top" xlink:title="Accessor for coordinate. ">
<polygon fill="white" stroke="black" points="844.5,-486.5 844.5,-516.5 957.5,-516.5 957.5,-486.5 844.5,-486.5"/>
<text text-anchor="start" x="852.5" y="-504.5" font-family="FreeSans" font-size="10.00">SeeSawN::ElementsN</text>
<text text-anchor="middle" x="901" y="-493.5" font-family="FreeSans" font-size="10.00">::FeatureC::Coordinate</text>
</a>
</g>
</g>
<!-- Node82&#45;&gt;Node83 -->
<g id="edge2" class="edge"><title>Node82&#45;&gt;Node83</title>
<path fill="none" stroke="midnightblue" d="M501.756,-767.564C511.004,-763.186 519.55,-757.33 526,-749.5 597.652,-662.514 476.842,-572.316 562,-498.5 601.188,-464.531 747.388,-478.899 834.149,-491.05"/>
<polygon fill="midnightblue" stroke="midnightblue" points="833.77,-494.531 844.164,-492.48 834.759,-487.601 833.77,-494.531"/>
</g>
<!-- Node84 -->
<g id="node4" class="node"><title>Node84</title>
<g id="a_node4"><a xlink:href="classSeeSawN_1_1ElementsN_1_1FeatureC.html#adf53174d5a0ddade03f4dc94d2661a9f" target="_top" xlink:title="Accessor for descriptor. ">
<polygon fill="white" stroke="black" points="844.5,-683.5 844.5,-713.5 957.5,-713.5 957.5,-683.5 844.5,-683.5"/>
<text text-anchor="start" x="852.5" y="-701.5" font-family="FreeSans" font-size="10.00">SeeSawN::ElementsN</text>
<text text-anchor="middle" x="901" y="-690.5" font-family="FreeSans" font-size="10.00">::FeatureC::Descriptor</text>
</a>
</g>
</g>
<!-- Node82&#45;&gt;Node84 -->
<g id="edge3" class="edge"><title>Node82&#45;&gt;Node84</title>
<path fill="none" stroke="midnightblue" d="M501.72,-783.188C571.582,-784.433 685.537,-781.633 780,-756.5 810.993,-748.254 843.601,-731.935 866.991,-718.703"/>
<polygon fill="midnightblue" stroke="midnightblue" points="868.882,-721.653 875.793,-713.622 865.382,-715.59 868.882,-721.653"/>
</g>
<!-- Node85 -->
<g id="node5" class="node"><title>Node85</title>
<g id="a_node5"><a xlink:href="classSeeSawN_1_1ION_1_1BaseImageFeatureIOC.html#adea12720affad47a4dc22a14517cff5a" target="_top" xlink:title="Common post&#45;processing operations prior to write. ">
<polygon fill="white" stroke="black" points="816,-990.5 816,-1020.5 986,-1020.5 986,-990.5 816,-990.5"/>
<text text-anchor="start" x="824" y="-1008.5" font-family="FreeSans" font-size="10.00">SeeSawN::ION::BaseImageFeature</text>
<text text-anchor="middle" x="901" y="-997.5" font-family="FreeSans" font-size="10.00">IOC::PostprocessFeature</text>
</a>
</g>
</g>
<!-- Node82&#45;&gt;Node85 -->
<g id="edge4" class="edge"><title>Node82&#45;&gt;Node85</title>
<path fill="none" stroke="midnightblue" d="M449.788,-801.082C467.178,-829.128 499.191,-880.96 526,-925.5 542.235,-952.471 535.111,-970.129 562,-986.5 601.536,-1010.57 720.38,-1012.21 805.969,-1009.92"/>
<polygon fill="midnightblue" stroke="midnightblue" points="806.078,-1013.41 815.972,-1009.63 805.875,-1006.42 806.078,-1013.41"/>
</g>
<!-- Node86 -->
<g id="node6" class="node"><title>Node86</title>
<g id="a_node6"><a xlink:href="classSeeSawN_1_1ION_1_1BaseImageFeatureIOC.html#ad4cfb53df37bc0cb347f632ebd9bcafd" target="_top" xlink:title="Common post&#45;processing operations before writing to a file. ">
<polygon fill="white" stroke="black" points="586,-946.5 586,-976.5 756,-976.5 756,-946.5 586,-946.5"/>
<text text-anchor="start" x="594" y="-964.5" font-family="FreeSans" font-size="10.00">SeeSawN::ION::BaseImageFeature</text>
<text text-anchor="middle" x="671" y="-953.5" font-family="FreeSans" font-size="10.00">IOC::PostprocessFeatureSet</text>
</a>
</g>
</g>
<!-- Node82&#45;&gt;Node86 -->
<g id="edge5" class="edge"><title>Node82&#45;&gt;Node86</title>
<path fill="none" stroke="midnightblue" d="M448.476,-801.265C467.642,-833.99 509.312,-897.346 562,-931.5 568.733,-935.865 576.099,-939.602 583.72,-942.8"/>
<polygon fill="midnightblue" stroke="midnightblue" points="582.527,-946.091 593.116,-946.44 585.055,-939.564 582.527,-946.091"/>
</g>
<!-- Node87 -->
<g id="node7" class="node"><title>Node87</title>
<g id="a_node7"><a xlink:href="classSeeSawN_1_1ION_1_1BaseImageFeatureIOC.html#abf5ab318c2496a12a275026f014cd235" target="_top" xlink:title="Common preprocessing operations after a read. ">
<polygon fill="white" stroke="black" points="816,-907.5 816,-937.5 986,-937.5 986,-907.5 816,-907.5"/>
<text text-anchor="start" x="824" y="-925.5" font-family="FreeSans" font-size="10.00">SeeSawN::ION::BaseImageFeature</text>
<text text-anchor="middle" x="901" y="-914.5" font-family="FreeSans" font-size="10.00">IOC::PreprocessFeature</text>
</a>
</g>
</g>
<!-- Node82&#45;&gt;Node87 -->
<g id="edge7" class="edge"><title>Node82&#45;&gt;Node87</title>
<path fill="none" stroke="midnightblue" d="M451.547,-801.209C472.394,-828.984 513.634,-877.263 562,-898.5 639.009,-932.314 735.423,-935.845 805.548,-932.371"/>
<polygon fill="midnightblue" stroke="midnightblue" points="805.907,-935.857 815.699,-931.811 805.521,-928.867 805.907,-935.857"/>
</g>
<!-- Node89 -->
<g id="node9" class="node"><title>Node89</title>
<g id="a_node9"><a xlink:href="classSeeSawN_1_1ION_1_1BaseImageFeatureIOC.html#a2067646ba61ee313f15f759c4776bcd7" target="_top" xlink:title="Applies some common operations to the features. ">
<polygon fill="white" stroke="black" points="586,-858.5 586,-888.5 756,-888.5 756,-858.5 586,-858.5"/>
<text text-anchor="start" x="594" y="-876.5" font-family="FreeSans" font-size="10.00">SeeSawN::ION::BaseImageFeature</text>
<text text-anchor="middle" x="671" y="-865.5" font-family="FreeSans" font-size="10.00">IOC::PreprocessFeatureSet</text>
</a>
</g>
</g>
<!-- Node82&#45;&gt;Node89 -->
<g id="edge9" class="edge"><title>Node82&#45;&gt;Node89</title>
<path fill="none" stroke="midnightblue" d="M468.415,-801.156C492.989,-816.48 528.497,-836.831 562,-849.5 567.895,-851.729 574.053,-853.781 580.31,-855.665"/>
<polygon fill="midnightblue" stroke="midnightblue" points="579.624,-859.109 590.2,-858.488 581.545,-852.377 579.624,-859.109"/>
</g>
<!-- Node93 -->
<g id="node13" class="node"><title>Node93</title>
<g id="a_node13"><a xlink:href="classSeeSawN_1_1ION_1_1ImageFeatureIOC.html#a2f2fd5f3fea2ffce63b3671b254bbea0" target="_top" xlink:title="Reads a feature file. ">
<polygon fill="white" stroke="black" points="597,-683.5 597,-713.5 745,-713.5 745,-683.5 597,-683.5"/>
<text text-anchor="start" x="605" y="-701.5" font-family="FreeSans" font-size="10.00">SeeSawN::ION::ImageFeature</text>
<text text-anchor="middle" x="671" y="-690.5" font-family="FreeSans" font-size="10.00">IOC::ReadFeatureFile</text>
</a>
</g>
</g>
<!-- Node82&#45;&gt;Node93 -->
<g id="edge14" class="edge"><title>Node82&#45;&gt;Node93</title>
<path fill="none" stroke="midnightblue" d="M496.378,-759.866C506.273,-756.413 516.429,-752.862 526,-749.5 556.532,-738.776 590.672,-726.689 618.045,-716.974"/>
<polygon fill="midnightblue" stroke="midnightblue" points="619.551,-720.154 627.804,-713.51 617.209,-713.557 619.551,-720.154"/>
</g>
<!-- Node94 -->
<g id="node14" class="node"><title>Node94</title>
<g id="a_node14"><a xlink:href="classSeeSawN_1_1ElementsN_1_1FeatureC.html#a39e53d149bbdd3ce6f399f0d84273f93" target="_top" xlink:title="Accessor for roi. ">
<polygon fill="white" stroke="black" points="844.5,-590.5 844.5,-620.5 957.5,-620.5 957.5,-590.5 844.5,-590.5"/>
<text text-anchor="start" x="852.5" y="-608.5" font-family="FreeSans" font-size="10.00">SeeSawN::ElementsN</text>
<text text-anchor="middle" x="901" y="-597.5" font-family="FreeSans" font-size="10.00">::FeatureC::RoI</text>
</a>
</g>
</g>
<!-- Node82&#45;&gt;Node94 -->
<g id="edge17" class="edge"><title>Node82&#45;&gt;Node94</title>
<path fill="none" stroke="midnightblue" d="M501.756,-766.347C510.777,-762.119 519.251,-756.629 526,-749.5 565.746,-707.516 516.802,-660.549 562,-624.5 602.511,-592.189 747.575,-595.375 833.941,-600.487"/>
<polygon fill="midnightblue" stroke="midnightblue" points="833.975,-603.996 844.171,-601.118 834.406,-597.009 833.975,-603.996"/>
</g>
<!-- Node95 -->
<g id="node15" class="node"><title>Node95</title>
<g id="a_node15"><a xlink:href="classSeeSawN_1_1ION_1_1ImageFeatureIOC.html#a63d0e9416bdc005d26aded5a6080667e" target="_top" xlink:title="Writes a feature set to a file. ">
<polygon fill="white" stroke="black" points="597,-809.5 597,-839.5 745,-839.5 745,-809.5 597,-809.5"/>
<text text-anchor="start" x="605" y="-827.5" font-family="FreeSans" font-size="10.00">SeeSawN::ION::ImageFeature</text>
<text text-anchor="middle" x="671" y="-816.5" font-family="FreeSans" font-size="10.00">IOC::WriteFeatureFile</text>
</a>
</g>
</g>
<!-- Node82&#45;&gt;Node95 -->
<g id="edge18" class="edge"><title>Node82&#45;&gt;Node95</title>
<path fill="none" stroke="midnightblue" d="M501.594,-792.698C527.863,-797.659 558.557,-803.455 586.492,-808.73"/>
<polygon fill="midnightblue" stroke="midnightblue" points="586.171,-812.231 596.646,-810.648 587.47,-805.353 586.171,-812.231"/>
</g>
<!-- Node96 -->
<g id="node16" class="node"><title>Node96</title>
<g id="a_node16"><a xlink:href="classSeeSawN_1_1ION_1_1ImageFeatureIOC.html#a07c77b604c2ccc04dd1bfef570b7489d" target="_top" xlink:title="Writes a sample file to illustrate the format. ">
<polygon fill="white" stroke="black" points="597,-634.5 597,-664.5 745,-664.5 745,-634.5 597,-634.5"/>
<text text-anchor="start" x="605" y="-652.5" font-family="FreeSans" font-size="10.00">SeeSawN::ION::ImageFeature</text>
<text text-anchor="middle" x="671" y="-641.5" font-family="FreeSans" font-size="10.00">IOC::WriteSampleFile</text>
</a>
</g>
</g>
<!-- Node82&#45;&gt;Node96 -->
<g id="edge19" class="edge"><title>Node82&#45;&gt;Node96</title>
<path fill="none" stroke="midnightblue" d="M501.694,-764.933C510.51,-760.9 518.94,-755.841 526,-749.5 553.807,-724.525 532.787,-696.813 562,-673.5 569.465,-667.542 578.105,-662.994 587.182,-659.531"/>
<polygon fill="midnightblue" stroke="midnightblue" points="588.408,-662.812 596.768,-656.303 586.174,-656.178 588.408,-662.812"/>
</g>
<!-- Node86&#45;&gt;Node85 -->
<g id="edge6" class="edge"><title>Node86&#45;&gt;Node85</title>
<path fill="none" stroke="midnightblue" d="M749.827,-976.519C769.893,-980.392 791.627,-984.586 812.164,-988.549"/>
<polygon fill="midnightblue" stroke="midnightblue" points="811.655,-992.015 822.137,-990.474 812.981,-985.142 811.655,-992.015"/>
</g>
<!-- Node88 -->
<g id="node8" class="node"><title>Node88</title>
<g id="a_node8"><a xlink:href="classSeeSawN_1_1ION_1_1BaseImageFeatureIOC.html#aed88f408a178eee19abe430b067a1bed" target="_top" xlink:title="Default normalisation&#45; dummy. ">
<polygon fill="white" stroke="black" points="1022,-907.5 1022,-937.5 1192,-937.5 1192,-907.5 1022,-907.5"/>
<text text-anchor="start" x="1030" y="-925.5" font-family="FreeSans" font-size="10.00">SeeSawN::ION::BaseImageFeature</text>
<text text-anchor="middle" x="1107" y="-914.5" font-family="FreeSans" font-size="10.00">IOC::Normalise</text>
</a>
</g>
</g>
<!-- Node87&#45;&gt;Node88 -->
<g id="edge8" class="edge"><title>Node87&#45;&gt;Node88</title>
<path fill="none" stroke="midnightblue" d="M986.152,-922.5C994.501,-922.5 1003.02,-922.5 1011.46,-922.5"/>
<polygon fill="midnightblue" stroke="midnightblue" points="1011.71,-926 1021.71,-922.5 1011.71,-919 1011.71,-926"/>
</g>
<!-- Node89&#45;&gt;Node87 -->
<g id="edge13" class="edge"><title>Node89&#45;&gt;Node87</title>
<path fill="none" stroke="midnightblue" d="M741.957,-888.535C766.687,-893.849 794.685,-899.867 820.172,-905.344"/>
<polygon fill="midnightblue" stroke="midnightblue" points="819.663,-908.814 830.175,-907.494 821.134,-901.971 819.663,-908.814"/>
</g>
<!-- Node90 -->
<g id="node10" class="node"><title>Node90</title>
<g id="a_node10"><a xlink:href="group__Elements.html#ga58fc9cd16b6263ea0d1eff6dc70ad799" target="_top" xlink:title="Finds the bounding box for a set of 2D coordinates. ">
<polygon fill="white" stroke="black" points="836.5,-760.5 836.5,-790.5 965.5,-790.5 965.5,-760.5 836.5,-760.5"/>
<text text-anchor="start" x="844.5" y="-778.5" font-family="FreeSans" font-size="10.00">SeeSawN::ElementsN</text>
<text text-anchor="middle" x="901" y="-767.5" font-family="FreeSans" font-size="10.00">::ComputeBoundingBox2D</text>
</a>
</g>
</g>
<!-- Node89&#45;&gt;Node90 -->
<g id="edge10" class="edge"><title>Node89&#45;&gt;Node90</title>
<path fill="none" stroke="midnightblue" d="M756.13,-861.189C764.55,-858.109 772.68,-854.274 780,-849.5 802.635,-834.738 793.9,-816.052 816,-800.5 819.5,-798.037 823.244,-795.814 827.138,-793.807"/>
<polygon fill="midnightblue" stroke="midnightblue" points="828.837,-796.877 836.447,-789.506 825.901,-790.523 828.837,-796.877"/>
</g>
<!-- Node91 -->
<g id="node11" class="node"><title>Node91</title>
<g id="a_node11"><a xlink:href="group__Elements.html#ga6db6c445bf9b07138dbb9cf279c6dce3" target="_top" xlink:title="Decimates a 2D coordinate set by picking the elements closest to a specified grid. ">
<polygon fill="white" stroke="black" points="844.5,-858.5 844.5,-888.5 957.5,-888.5 957.5,-858.5 844.5,-858.5"/>
<text text-anchor="start" x="852.5" y="-876.5" font-family="FreeSans" font-size="10.00">SeeSawN::ElementsN</text>
<text text-anchor="middle" x="901" y="-865.5" font-family="FreeSans" font-size="10.00">::DecimateFeatures2D</text>
</a>
</g>
</g>
<!-- Node89&#45;&gt;Node91 -->
<g id="edge11" class="edge"><title>Node89&#45;&gt;Node91</title>
<path fill="none" stroke="midnightblue" d="M756.251,-873.5C782.002,-873.5 809.931,-873.5 834.262,-873.5"/>
<polygon fill="midnightblue" stroke="midnightblue" points="834.453,-877 844.453,-873.5 834.453,-870 834.453,-877"/>
</g>
<!-- Node92 -->
<g id="node12" class="node"><title>Node92</title>
<g id="a_node12"><a xlink:href="namespaceSeeSawN_1_1ElementsN.html#a55b8a7d70fe7cb0af19aff28cf0f0995" target="_top" xlink:title="SeeSawN::ElementsN\l::MakeCoordinateVector">
<polygon fill="white" stroke="black" points="841,-809.5 841,-839.5 961,-839.5 961,-809.5 841,-809.5"/>
<text text-anchor="start" x="849" y="-827.5" font-family="FreeSans" font-size="10.00">SeeSawN::ElementsN</text>
<text text-anchor="middle" x="901" y="-816.5" font-family="FreeSans" font-size="10.00">::MakeCoordinateVector</text>
</a>
</g>
</g>
<!-- Node89&#45;&gt;Node92 -->
<g id="edge12" class="edge"><title>Node89&#45;&gt;Node92</title>
<path fill="none" stroke="midnightblue" d="M741.957,-858.465C770.294,-852.375 802.922,-845.363 831.146,-839.298"/>
<polygon fill="midnightblue" stroke="midnightblue" points="831.89,-842.718 840.931,-837.195 830.419,-835.874 831.89,-842.718"/>
</g>
<!-- Node93&#45;&gt;Node84 -->
<g id="edge15" class="edge"><title>Node93&#45;&gt;Node84</title>
<path fill="none" stroke="midnightblue" d="M745.081,-698.5C773.735,-698.5 806.365,-698.5 834.265,-698.5"/>
<polygon fill="midnightblue" stroke="midnightblue" points="834.313,-702 844.313,-698.5 834.313,-695 834.313,-702"/>
</g>
<!-- Node93&#45;&gt;Node94 -->
<g id="edge16" class="edge"><title>Node93&#45;&gt;Node94</title>
<path fill="none" stroke="midnightblue" d="M745.197,-684.576C757.009,-681.472 768.971,-677.797 780,-673.5 812.051,-661.013 845.916,-641.129 869.468,-626.081"/>
<polygon fill="midnightblue" stroke="midnightblue" points="871.475,-628.951 877.964,-620.576 867.669,-623.076 871.475,-628.951"/>
</g>
<!-- Node96&#45;&gt;Node83 -->
<g id="edge20" class="edge"><title>Node96&#45;&gt;Node83</title>
<path fill="none" stroke="midnightblue" d="M695.117,-634.495C736.17,-607.846 821.847,-552.231 868.343,-522.049"/>
<polygon fill="midnightblue" stroke="midnightblue" points="870.34,-524.926 876.822,-516.545 866.529,-519.054 870.34,-524.926"/>
</g>
<!-- Node96&#45;&gt;Node84 -->
<g id="edge21" class="edge"><title>Node96&#45;&gt;Node84</title>
<path fill="none" stroke="midnightblue" d="M741.957,-664.535C771.348,-670.851 805.354,-678.159 834.276,-684.375"/>
<polygon fill="midnightblue" stroke="midnightblue" points="833.766,-687.845 844.278,-686.525 835.237,-681.002 833.766,-687.845"/>
</g>
<!-- Node96&#45;&gt;Node94 -->
<g id="edge22" class="edge"><title>Node96&#45;&gt;Node94</title>
<path fill="none" stroke="midnightblue" d="M745.081,-635.397C773.735,-629.867 806.365,-623.57 834.265,-618.186"/>
<polygon fill="midnightblue" stroke="midnightblue" points="835.158,-621.578 844.313,-616.247 833.831,-614.705 835.158,-621.578"/>
</g>
<!-- Node97&#45;&gt;Node82 -->
<g id="edge29" class="edge"><title>Node97&#45;&gt;Node82</title>
<path fill="none" stroke="midnightblue" d="M249.386,-501.199C263.654,-531.442 290.449,-589.642 310,-640.5 328.307,-688.121 310.218,-713.134 346,-749.5 350.519,-754.092 355.753,-758.005 361.375,-761.339"/>
<polygon fill="midnightblue" stroke="midnightblue" points="360.002,-764.571 370.483,-766.116 363.253,-758.372 360.002,-764.571"/>
</g>
<!-- Node97&#45;&gt;Node83 -->
<g id="edge30" class="edge"><title>Node97&#45;&gt;Node83</title>
<path fill="none" stroke="midnightblue" d="M258.761,-459.761C278.486,-440.182 311.122,-412.14 346,-400.5 437.484,-369.967 689.397,-367.446 780,-400.5 822.519,-416.012 860.411,-453.957 881.761,-478.666"/>
<polygon fill="midnightblue" stroke="midnightblue" points="879.23,-481.094 888.35,-486.487 884.583,-476.584 879.23,-481.094"/>
</g>
<!-- Node97&#45;&gt;Node84 -->
<g id="edge32" class="edge"><title>Node97&#45;&gt;Node84</title>
<path fill="none" stroke="midnightblue" d="M302.242,-501.028C304.955,-502.719 307.558,-504.54 310,-506.5 333.074,-525.022 323.938,-542.783 346,-562.5 412.543,-621.97 462.577,-588.713 526,-651.5 551.143,-676.391 531.852,-703.984 562,-722.5 653.497,-778.694 786.343,-742.557 855.063,-717.184"/>
<polygon fill="midnightblue" stroke="midnightblue" points="856.609,-720.342 864.725,-713.531 854.133,-713.794 856.609,-720.342"/>
</g>
<!-- Node97&#45;&gt;Node94 -->
<g id="edge31" class="edge"><title>Node97&#45;&gt;Node94</title>
<path fill="none" stroke="midnightblue" d="M298.877,-501.043C302.692,-502.777 306.431,-504.599 310,-506.5 327.42,-515.778 327.659,-525.211 346,-532.5 390.592,-550.22 697.149,-584.152 834.126,-598.653"/>
<polygon fill="midnightblue" stroke="midnightblue" points="834.167,-602.177 844.479,-599.747 834.902,-595.216 834.167,-602.177"/>
</g>
<!-- Node98 -->
<g id="node18" class="node"><title>Node98</title>
<g id="a_node18"><a xlink:href="classSeeSawN_1_1ION_1_1CoordinateCorrespondenceIOC.html#a1fde3dfb495720b7e21a09a805b91d27" target="_top" xlink:title="Writes a sample file. ">
<polygon fill="white" stroke="black" points="346,-284.5 346,-314.5 526,-314.5 526,-284.5 346,-284.5"/>
<text text-anchor="start" x="354" y="-302.5" font-family="FreeSans" font-size="10.00">SeeSawN::ION::Coordinate</text>
<text text-anchor="middle" x="436" y="-291.5" font-family="FreeSans" font-size="10.00">CorrespondenceIOC::WriteSampleFile</text>
</a>
</g>
</g>
<!-- Node97&#45;&gt;Node98 -->
<g id="edge24" class="edge"><title>Node97&#45;&gt;Node98</title>
<path fill="none" stroke="midnightblue" d="M248.806,-459.76C264.367,-427.357 298.684,-364.789 346,-329.5 351.445,-325.439 357.474,-321.906 363.754,-318.835"/>
<polygon fill="midnightblue" stroke="midnightblue" points="365.392,-321.936 373.094,-314.661 362.536,-315.546 365.392,-321.936"/>
</g>
<!-- Node99 -->
<g id="node19" class="node"><title>Node99</title>
<g id="a_node19"><a xlink:href="classSeeSawN_1_1ION_1_1CoordinateCorrespondenceIOC.html#af4ab8f488c3fe7b5f7226b6ca0197472" target="_top" xlink:title="Writes a correspondence range to a file. ">
<polygon fill="white" stroke="black" points="562,-303.5 562,-333.5 780,-333.5 780,-303.5 562,-303.5"/>
<text text-anchor="start" x="570" y="-321.5" font-family="FreeSans" font-size="10.00">SeeSawN::ION::Coordinate</text>
<text text-anchor="middle" x="671" y="-310.5" font-family="FreeSans" font-size="10.00">CorrespondenceIOC::WriteCorrespondenceFile</text>
</a>
</g>
</g>
<!-- Node97&#45;&gt;Node99 -->
<g id="edge28" class="edge"><title>Node97&#45;&gt;Node99</title>
<path fill="none" stroke="midnightblue" d="M252.491,-459.846C270.181,-433.647 304.449,-389.267 346,-367.5 381.146,-349.088 474.183,-336.193 551.59,-328.269"/>
<polygon fill="midnightblue" stroke="midnightblue" points="552.315,-331.714 561.915,-327.232 551.615,-324.749 552.315,-331.714"/>
</g>
<!-- Node100 -->
<g id="node20" class="node"><title>Node100</title>
<g id="a_node20"><a xlink:href="classSeeSawN_1_1ElementsN_1_1MatchStrengthC.html#a9097ffb4a372309bef916a136e7feebb" target="_top" xlink:title="Returns a reference to similarity. ">
<polygon fill="white" stroke="black" points="368,-235.5 368,-265.5 504,-265.5 504,-235.5 368,-235.5"/>
<text text-anchor="start" x="376" y="-253.5" font-family="FreeSans" font-size="10.00">SeeSawN::ElementsN</text>
<text text-anchor="middle" x="436" y="-242.5" font-family="FreeSans" font-size="10.00">::MatchStrengthC::Similarity</text>
</a>
</g>
</g>
<!-- Node97&#45;&gt;Node100 -->
<g id="edge26" class="edge"><title>Node97&#45;&gt;Node100</title>
<path fill="none" stroke="midnightblue" d="M244.266,-459.7C254.928,-417.988 284.725,-323.902 346,-274.5 349.847,-271.399 354.06,-268.697 358.496,-266.342"/>
<polygon fill="midnightblue" stroke="midnightblue" points="360.277,-269.374 367.866,-261.981 357.323,-263.027 360.277,-269.374"/>
</g>
<!-- Node101 -->
<g id="node21" class="node"><title>Node101</title>
<g id="a_node21"><a xlink:href="classSeeSawN_1_1ElementsN_1_1MatchStrengthC.html#a5e1a5ff443ad018c5b328a9899103e6b" target="_top" xlink:title="Returns a reference to ambiguity. ">
<polygon fill="white" stroke="black" points="366.5,-186.5 366.5,-216.5 505.5,-216.5 505.5,-186.5 366.5,-186.5"/>
<text text-anchor="start" x="374.5" y="-204.5" font-family="FreeSans" font-size="10.00">SeeSawN::ElementsN</text>
<text text-anchor="middle" x="436" y="-193.5" font-family="FreeSans" font-size="10.00">::MatchStrengthC::Ambiguity</text>
</a>
</g>
</g>
<!-- Node97&#45;&gt;Node101 -->
<g id="edge27" class="edge"><title>Node97&#45;&gt;Node101</title>
<path fill="none" stroke="midnightblue" d="M245.606,-459.645C262.068,-404.749 308.645,-258.216 346,-225.5 349.41,-222.513 353.156,-219.893 357.12,-217.596"/>
<polygon fill="midnightblue" stroke="midnightblue" points="358.752,-220.693 366.105,-213.065 355.6,-214.443 358.752,-220.693"/>
</g>
<!-- Node102 -->
<g id="node22" class="node"><title>Node102</title>
<g id="a_node22"><a xlink:href="classSeeSawN_1_1ION_1_1SceneFeatureIOC.html#a8b3feb903b9c52fa9adb245043db093e" target="_top" xlink:title="Writes a sample file to illustrate the format. ">
<polygon fill="white" stroke="black" points="596.5,-508.5 596.5,-538.5 745.5,-538.5 745.5,-508.5 596.5,-508.5"/>
<text text-anchor="start" x="604.5" y="-526.5" font-family="FreeSans" font-size="10.00">SeeSawN::ION::SceneFeature</text>
<text text-anchor="middle" x="671" y="-515.5" font-family="FreeSans" font-size="10.00">IOC::WriteSampleFile</text>
</a>
</g>
</g>
<!-- Node97&#45;&gt;Node102 -->
<g id="edge33" class="edge"><title>Node97&#45;&gt;Node102</title>
<path fill="none" stroke="midnightblue" d="M303.161,-501.052C317.139,-504.826 331.961,-508.273 346,-510.5 426.88,-523.332 520.459,-525.778 586.189,-525.499"/>
<polygon fill="midnightblue" stroke="midnightblue" points="586.516,-528.997 596.493,-525.431 586.47,-521.997 586.516,-528.997"/>
</g>
<!-- Node103 -->
<g id="node23" class="node"><title>Node103</title>
<g id="a_node23"><a xlink:href="classSeeSawN_1_1ION_1_1SceneFeatureIOC.html#acd633e0cd354f12296f0ea264365c1c1" target="_top" xlink:title="Reads a feature file. ">
<polygon fill="white" stroke="black" points="361.5,-710.5 361.5,-740.5 510.5,-740.5 510.5,-710.5 361.5,-710.5"/>
<text text-anchor="start" x="369.5" y="-728.5" font-family="FreeSans" font-size="10.00">SeeSawN::ION::SceneFeature</text>
<text text-anchor="middle" x="436" y="-717.5" font-family="FreeSans" font-size="10.00">IOC::ReadFeatureFile</text>
</a>
</g>
</g>
<!-- Node97&#45;&gt;Node103 -->
<g id="edge37" class="edge"><title>Node97&#45;&gt;Node103</title>
<path fill="none" stroke="midnightblue" d="M248.346,-501.172C270.778,-553.215 329.282,-686.507 346,-700.5 348.046,-702.213 350.202,-703.808 352.444,-705.295"/>
<polygon fill="midnightblue" stroke="midnightblue" points="351.064,-708.539 361.475,-710.505 354.562,-702.476 351.064,-708.539"/>
</g>
<!-- Node104 -->
<g id="node24" class="node"><title>Node104</title>
<g id="a_node24"><a xlink:href="classSeeSawN_1_1ION_1_1SceneFeatureIOBaseC.html#a45e4beef9a7eabfa8e823c3a19743cf4" target="_top" xlink:title="Writes a feature set to a file. ">
<polygon fill="white" stroke="black" points="361.5,-661.5 361.5,-691.5 510.5,-691.5 510.5,-661.5 361.5,-661.5"/>
<text text-anchor="start" x="369.5" y="-679.5" font-family="FreeSans" font-size="10.00">SeeSawN::ION::SceneFeature</text>
<text text-anchor="middle" x="436" y="-668.5" font-family="FreeSans" font-size="10.00">IOBaseC::WriteFeatureFile</text>
</a>
</g>
</g>
<!-- Node97&#45;&gt;Node104 -->
<g id="edge38" class="edge"><title>Node97&#45;&gt;Node104</title>
<path fill="none" stroke="midnightblue" d="M247.31,-501.031C261.605,-535.934 295.255,-606.893 346,-646.5 351.268,-650.612 357.13,-654.176 363.262,-657.262"/>
<polygon fill="midnightblue" stroke="midnightblue" points="361.851,-660.466 372.4,-661.451 364.767,-654.102 361.851,-660.466"/>
</g>
<!-- Node105 -->
<g id="node25" class="node"><title>Node105</title>
<g id="a_node25"><a xlink:href="classSeeSawN_1_1ION_1_1SceneFeatureIOBaseC.html#a9a91c8710288004a544f4e7f3f5e5ebf" target="_top" xlink:title="Common post&#45;processing operations before writing to a file. ">
<polygon fill="white" stroke="black" points="588.5,-1034.5 588.5,-1064.5 753.5,-1064.5 753.5,-1034.5 588.5,-1034.5"/>
<text text-anchor="start" x="596.5" y="-1052.5" font-family="FreeSans" font-size="10.00">SeeSawN::ION::SceneFeature</text>
<text text-anchor="middle" x="671" y="-1041.5" font-family="FreeSans" font-size="10.00">IOBaseC::PostprocessDescriptors</text>
</a>
</g>
</g>
<!-- Node97&#45;&gt;Node105 -->
<g id="edge39" class="edge"><title>Node97&#45;&gt;Node105</title>
<path fill="none" stroke="midnightblue" d="M242.496,-501.365C251.08,-555.917 279.545,-705.794 346,-810.5 416.433,-921.474 449.331,-944.811 562,-1012.5 574.355,-1019.92 588.405,-1026.11 602.19,-1031.17"/>
<polygon fill="midnightblue" stroke="midnightblue" points="601.073,-1034.49 611.668,-1034.5 603.39,-1027.89 601.073,-1034.49"/>
</g>
<!-- Node106 -->
<g id="node26" class="node"><title>Node106</title>
<g id="a_node26"><a xlink:href="classSeeSawN_1_1GeometryN_1_1LensDistortionFP1C.html#aaf7a3a4bfbf9e8172897fc90d3b1f187" target="_top" xlink:title="Applies lens distortion to a point. ">
<polygon fill="white" stroke="black" points="378.5,-460 378.5,-501 493.5,-501 493.5,-460 378.5,-460"/>
<text text-anchor="start" x="386.5" y="-489" font-family="FreeSans" font-size="10.00">SeeSawN::GeometryN</text>
<text text-anchor="start" x="386.5" y="-478" font-family="FreeSans" font-size="10.00">::LensDistortionFP1C</text>
<text text-anchor="middle" x="436" y="-467" font-family="FreeSans" font-size="10.00">::Apply</text>
</a>
</g>
</g>
<!-- Node97&#45;&gt;Node106 -->
<g id="edge41" class="edge"><title>Node97&#45;&gt;Node106</title>
<path fill="none" stroke="midnightblue" d="M304.056,-480.5C324.701,-480.5 347.588,-480.5 368.378,-480.5"/>
<polygon fill="midnightblue" stroke="midnightblue" points="368.396,-484 378.396,-480.5 368.396,-477 368.396,-484"/>
</g>
<!-- Node108 -->
<g id="node28" class="node"><title>Node108</title>
<g id="a_node28"><a xlink:href="classSeeSawN_1_1ION_1_1SceneFeatureIOBaseC.html#ade5f33b337f4a1427d57517fea23f032" target="_top" xlink:title="Common pre&#45;processing operations after a feature set is read in. ">
<polygon fill="white" stroke="black" points="356,-410.5 356,-440.5 516,-440.5 516,-410.5 356,-410.5"/>
<text text-anchor="start" x="364" y="-428.5" font-family="FreeSans" font-size="10.00">SeeSawN::ION::SceneFeature</text>
<text text-anchor="middle" x="436" y="-417.5" font-family="FreeSans" font-size="10.00">IOBaseC::PreprocessDescriptors</text>
</a>
</g>
</g>
<!-- Node97&#45;&gt;Node108 -->
<g id="edge43" class="edge"><title>Node97&#45;&gt;Node108</title>
<path fill="none" stroke="midnightblue" d="M304.265,-462.248C318.041,-458.368 332.501,-454.297 346,-450.5 354.307,-448.163 363.05,-445.706 371.68,-443.28"/>
<polygon fill="midnightblue" stroke="midnightblue" points="372.666,-446.639 381.346,-440.564 370.772,-439.9 372.666,-446.639"/>
</g>
<!-- Node98&#45;&gt;Node99 -->
<g id="edge25" class="edge"><title>Node98&#45;&gt;Node99</title>
<path fill="none" stroke="midnightblue" d="M526.085,-306.764C534.487,-307.45 543.092,-308.151 551.709,-308.854"/>
<polygon fill="midnightblue" stroke="midnightblue" points="551.569,-312.354 561.82,-309.678 552.138,-305.377 551.569,-312.354"/>
</g>
<!-- Node102&#45;&gt;Node83 -->
<g id="edge34" class="edge"><title>Node102&#45;&gt;Node83</title>
<path fill="none" stroke="midnightblue" d="M745.71,-516.388C774.215,-513.637 806.577,-510.514 834.276,-507.842"/>
<polygon fill="midnightblue" stroke="midnightblue" points="834.636,-511.323 844.253,-506.879 833.963,-504.356 834.636,-511.323"/>
</g>
<!-- Node102&#45;&gt;Node84 -->
<g id="edge35" class="edge"><title>Node102&#45;&gt;Node84</title>
<path fill="none" stroke="midnightblue" d="M691.835,-538.724C732.53,-569.96 825.553,-641.359 872.222,-677.179"/>
<polygon fill="midnightblue" stroke="midnightblue" points="870.31,-680.124 880.374,-683.436 874.572,-674.571 870.31,-680.124"/>
</g>
<!-- Node102&#45;&gt;Node94 -->
<g id="edge36" class="edge"><title>Node102&#45;&gt;Node94</title>
<path fill="none" stroke="midnightblue" d="M731.877,-538.549C747.664,-542.946 764.589,-548.05 780,-553.5 806.998,-563.048 836.52,-575.81 859.527,-586.301"/>
<polygon fill="midnightblue" stroke="midnightblue" points="858.094,-589.494 868.642,-590.493 861.019,-583.135 858.094,-589.494"/>
</g>
<!-- Node105&#45;&gt;Node85 -->
<g id="edge40" class="edge"><title>Node105&#45;&gt;Node85</title>
<path fill="none" stroke="midnightblue" d="M749.827,-1034.48C769.893,-1030.61 791.627,-1026.41 812.164,-1022.45"/>
<polygon fill="midnightblue" stroke="midnightblue" points="812.981,-1025.86 822.137,-1020.53 811.655,-1018.98 812.981,-1025.86"/>
</g>
<!-- Node107 -->
<g id="node27" class="node"><title>Node107</title>
<g id="a_node27"><a xlink:href="classSeeSawN_1_1GeometryN_1_1LensDistortionFP1C.html#af1b4bc9dce66c9fd1eccded875d0fb17" target="_top" xlink:title="Verifies whether both the distortion and the undistortion operations can be performed successfully...">
<polygon fill="white" stroke="black" points="613.5,-410 613.5,-451 728.5,-451 728.5,-410 613.5,-410"/>
<text text-anchor="start" x="621.5" y="-439" font-family="FreeSans" font-size="10.00">SeeSawN::GeometryN</text>
<text text-anchor="start" x="621.5" y="-428" font-family="FreeSans" font-size="10.00">::LensDistortionFP1C</text>
<text text-anchor="middle" x="671" y="-417" font-family="FreeSans" font-size="10.00">::Verify</text>
</a>
</g>
</g>
<!-- Node106&#45;&gt;Node107 -->
<g id="edge42" class="edge"><title>Node106&#45;&gt;Node107</title>
<path fill="none" stroke="midnightblue" d="M493.7,-468.333C526.803,-461.229 568.743,-452.229 603.411,-444.789"/>
<polygon fill="midnightblue" stroke="midnightblue" points="604.407,-448.156 613.45,-442.635 602.938,-441.311 604.407,-448.156"/>
</g>
<!-- Node112 -->
<g id="node32" class="node"><title>Node112</title>
<g id="a_node32"><a xlink:href="group__Elements.html#ga0aaebf09b62c70bc194dfd23f615d120" target="_top" xlink:title="Converts a camera translation to a camera position(i.e., t&#45;&gt;C) ">
<polygon fill="white" stroke="black" points="378,-98.5 378,-128.5 494,-128.5 494,-98.5 378,-98.5"/>
<text text-anchor="start" x="386" y="-116.5" font-family="FreeSans" font-size="10.00">SeeSawN::ElementsN</text>
<text text-anchor="middle" x="436" y="-105.5" font-family="FreeSans" font-size="10.00">::TranslationToPosition</text>
</a>
</g>
</g>
<!-- Node111&#45;&gt;Node112 -->
<g id="edge47" class="edge"><title>Node111&#45;&gt;Node112</title>
<path fill="none" stroke="midnightblue" d="M308.151,-113.5C327.456,-113.5 348.427,-113.5 367.655,-113.5"/>
<polygon fill="midnightblue" stroke="midnightblue" points="367.834,-117 377.834,-113.5 367.834,-110 367.834,-117"/>
</g>
<!-- Node113 -->
<g id="node33" class="node"><title>Node113</title>
<g id="a_node33"><a xlink:href="classSeeSawN_1_1ION_1_1CameraIOC.html#a4759dcf917cf4b01f8a6e0855f8b1089" target="_top" xlink:title="Writes a camera range to a file. ">
<polygon fill="white" stroke="black" points="366.5,-49.5 366.5,-79.5 505.5,-79.5 505.5,-49.5 366.5,-49.5"/>
<text text-anchor="start" x="374.5" y="-67.5" font-family="FreeSans" font-size="10.00">SeeSawN::ION::CameraIOC</text>
<text text-anchor="middle" x="436" y="-56.5" font-family="FreeSans" font-size="10.00">::WriteCameraFile</text>
</a>
</g>
</g>
<!-- Node111&#45;&gt;Node113 -->
<g id="edge48" class="edge"><title>Node111&#45;&gt;Node113</title>
<path fill="none" stroke="midnightblue" d="M299.485,-98.4654C320.315,-93.2446 343.848,-87.3463 365.389,-81.9474"/>
<polygon fill="midnightblue" stroke="midnightblue" points="366.279,-85.3324 375.128,-79.5062 364.577,-78.5425 366.279,-85.3324"/>
</g>
<!-- Node111&#45;&gt;Node115 -->
<g id="edge50" class="edge"><title>Node111&#45;&gt;Node115</title>
<path fill="none" stroke="midnightblue" d="M284.165,-98.3608C293.163,-94.2711 302.233,-89.3276 310,-83.5 330.211,-68.3359 324.786,-53.2248 346,-39.5 349.38,-37.3132 352.955,-35.3244 356.655,-33.5159"/>
<polygon fill="midnightblue" stroke="midnightblue" points="358.318,-36.6081 366.066,-29.3814 355.502,-30.1993 358.318,-36.6081"/>
</g>
<!-- Node113&#45;&gt;Node114 -->
<g id="edge49" class="edge"><title>Node113&#45;&gt;Node114</title>
<path fill="none" stroke="midnightblue" d="M505.647,-64.5C534.226,-64.5 567.455,-64.5 596.526,-64.5"/>
<polygon fill="midnightblue" stroke="midnightblue" points="596.62,-68.0001 606.62,-64.5 596.62,-61.0001 596.62,-68.0001"/>
</g>
<!-- Node115&#45;&gt;Node114 -->
<g id="edge51" class="edge"><title>Node115&#45;&gt;Node114</title>
<path fill="none" stroke="midnightblue" d="M505.647,-29.9366C534.226,-35.9467 567.455,-42.9348 596.526,-49.0483"/>
<polygon fill="midnightblue" stroke="midnightblue" points="596.114,-52.5382 606.62,-51.1712 597.555,-45.6881 596.114,-52.5382"/>
</g>
</g>
</svg>
