<?xml version="1.0" encoding="UTF-8" standalone="no"?>
<!DOCTYPE svg PUBLIC "-//W3C//DTD SVG 1.1//EN"
 "http://www.w3.org/Graphics/SVG/1.1/DTD/svg11.dtd">
<!-- Generated by graphviz version 2.38.0 (20140413.2041)
 -->
<!-- Title: SeeSawN::UnitTestsN::TestGeometryN::BOOST_AUTO_TEST_CASE Pages: 1 -->
<svg width="1054pt" height="1127pt"
 viewBox="0.00 0.00 1054.00 1127.00" xmlns="http://www.w3.org/2000/svg" xmlns:xlink="http://www.w3.org/1999/xlink">
<g id="graph0" class="graph" transform="scale(1 1) rotate(0) translate(4 1123)">
<title>SeeSawN::UnitTestsN::TestGeometryN::BOOST_AUTO_TEST_CASE</title>
<polygon fill="white" stroke="none" points="-4,4 -4,-1123 1050,-1123 1050,4 -4,4"/>
<!-- Node0 -->
<g id="node1" class="node"><title>Node0</title>
<polygon fill="#bfbfbf" stroke="black" points="0,-438.5 0,-479.5 129,-479.5 129,-438.5 0,-438.5"/>
<text text-anchor="start" x="8" y="-467.5" font-family="FreeSans" font-size="10.00">SeeSawN::UnitTestsN</text>
<text text-anchor="start" x="8" y="-456.5" font-family="FreeSans" font-size="10.00">::TestGeometryN::BOOST</text>
<text text-anchor="middle" x="64.5" y="-445.5" font-family="FreeSans" font-size="10.00">_AUTO_TEST_CASE</text>
</g>
<!-- Node1 -->
<g id="node2" class="node"><title>Node1</title>
<g id="a_node2"><a xlink:href="namespaceSeeSawN_1_1UnitTestsN_1_1TestGeometryN.html#a16903f96b1422e5d271c5d1cd691c355" target="_top" xlink:title="SeeSawN::UnitTestsN\l::TestGeometryN::BOOST\l_AUTO_TEST_CASE">
<polygon fill="white" stroke="black" points="409,-927.5 409,-968.5 538,-968.5 538,-927.5 409,-927.5"/>
<text text-anchor="start" x="417" y="-956.5" font-family="FreeSans" font-size="10.00">SeeSawN::UnitTestsN</text>
<text text-anchor="start" x="417" y="-945.5" font-family="FreeSans" font-size="10.00">::TestGeometryN::BOOST</text>
<text text-anchor="middle" x="473.5" y="-934.5" font-family="FreeSans" font-size="10.00">_AUTO_TEST_CASE</text>
</a>
</g>
</g>
<!-- Node0&#45;&gt;Node1 -->
<g id="edge1" class="edge"><title>Node0&#45;&gt;Node1</title>
<path fill="none" stroke="midnightblue" d="M67.3601,-479.65C74.7726,-557.238 104.769,-829.853 165,-888 226.821,-947.682 329.445,-956.553 398.969,-954.596"/>
<polygon fill="midnightblue" stroke="midnightblue" points="399.111,-958.093 408.978,-954.234 398.858,-951.098 399.111,-958.093"/>
</g>
<!-- Node8 -->
<g id="node9" class="node"><title>Node8</title>
<g id="a_node9"><a xlink:href="namespaceSeeSawN_1_1UnitTestsN_1_1TestGeometryN.html#afdcb94f2361f1220f461ba0c07e499c9" target="_top" xlink:title="SeeSawN::UnitTestsN\l::TestGeometryN::BOOST\l_AUTO_TEST_SUITE_END">
<polygon fill="white" stroke="black" points="189.5,-837.5 189.5,-878.5 329.5,-878.5 329.5,-837.5 189.5,-837.5"/>
<text text-anchor="start" x="197.5" y="-866.5" font-family="FreeSans" font-size="10.00">SeeSawN::UnitTestsN</text>
<text text-anchor="start" x="197.5" y="-855.5" font-family="FreeSans" font-size="10.00">::TestGeometryN::BOOST</text>
<text text-anchor="middle" x="259.5" y="-844.5" font-family="FreeSans" font-size="10.00">_AUTO_TEST_SUITE_END</text>
</a>
</g>
</g>
<!-- Node0&#45;&gt;Node8 -->
<g id="edge8" class="edge"><title>Node0&#45;&gt;Node8</title>
<path fill="none" stroke="midnightblue" d="M64.6846,-479.807C63.4322,-541.712 68.3635,-726.702 165,-828 169.479,-832.695 174.693,-836.657 180.324,-840"/>
<polygon fill="midnightblue" stroke="midnightblue" points="178.986,-843.249 189.472,-844.761 182.217,-837.04 178.986,-843.249"/>
</g>
<!-- Node13 -->
<g id="node14" class="node"><title>Node13</title>
<g id="a_node14"><a xlink:href="classSeeSawN_1_1GeometryN_1_1GenericGeometryEstimationProblemC.html#a2d21984989f52e5aebe798351056eae6" target="_top" xlink:title="Reconfigures the problem. ">
<polygon fill="white" stroke="black" points="188,-777.5 188,-818.5 331,-818.5 331,-777.5 188,-777.5"/>
<text text-anchor="start" x="196" y="-806.5" font-family="FreeSans" font-size="10.00">SeeSawN::GeometryN</text>
<text text-anchor="start" x="196" y="-795.5" font-family="FreeSans" font-size="10.00">::GenericGeometryEstimation</text>
<text text-anchor="middle" x="259.5" y="-784.5" font-family="FreeSans" font-size="10.00">ProblemC::Configure</text>
</a>
</g>
</g>
<!-- Node0&#45;&gt;Node13 -->
<g id="edge14" class="edge"><title>Node0&#45;&gt;Node13</title>
<path fill="none" stroke="midnightblue" d="M65.9691,-479.566C68.3489,-534.406 82.4645,-685.551 165,-768 169.172,-772.168 173.924,-775.757 179.023,-778.848"/>
<polygon fill="midnightblue" stroke="midnightblue" points="177.422,-781.961 187.891,-783.594 180.725,-775.789 177.422,-781.961"/>
</g>
<!-- Node15 -->
<g id="node16" class="node"><title>Node15</title>
<g id="a_node16"><a xlink:href="classSeeSawN_1_1GeometryN_1_1GenericGeometryEstimationProblemC.html#a9a95a54c1f5faafa0e58759c36e52346" target="_top" xlink:title="Computes the loss for a model. ">
<polygon fill="white" stroke="black" points="188,-717.5 188,-758.5 331,-758.5 331,-717.5 188,-717.5"/>
<text text-anchor="start" x="196" y="-746.5" font-family="FreeSans" font-size="10.00">SeeSawN::GeometryN</text>
<text text-anchor="start" x="196" y="-735.5" font-family="FreeSans" font-size="10.00">::GenericGeometryEstimation</text>
<text text-anchor="middle" x="259.5" y="-724.5" font-family="FreeSans" font-size="10.00">ProblemC::EvaluateModel</text>
</a>
</g>
</g>
<!-- Node0&#45;&gt;Node15 -->
<g id="edge16" class="edge"><title>Node0&#45;&gt;Node15</title>
<path fill="none" stroke="midnightblue" d="M67.829,-479.704C74.258,-527.076 96.5706,-644.18 165,-708 169.13,-711.852 173.756,-715.209 178.682,-718.135"/>
<polygon fill="midnightblue" stroke="midnightblue" points="177.349,-721.388 187.828,-722.95 180.61,-715.194 177.349,-721.388"/>
</g>
<!-- Node16 -->
<g id="node17" class="node"><title>Node16</title>
<g id="a_node17"><a xlink:href="classSeeSawN_1_1OptimisationN_1_1PDLGeometryEstimationProblemBaseC.html#aed406ab85fbb92e251f1a69346514019" target="_top" xlink:title="Returns flagValid. ">
<polygon fill="white" stroke="black" points="177.5,-657.5 177.5,-698.5 341.5,-698.5 341.5,-657.5 177.5,-657.5"/>
<text text-anchor="start" x="185.5" y="-686.5" font-family="FreeSans" font-size="10.00">SeeSawN::OptimisationN</text>
<text text-anchor="start" x="185.5" y="-675.5" font-family="FreeSans" font-size="10.00">::PDLGeometryEstimationProblem</text>
<text text-anchor="middle" x="259.5" y="-664.5" font-family="FreeSans" font-size="10.00">BaseC::IsValid</text>
</a>
</g>
</g>
<!-- Node0&#45;&gt;Node16 -->
<g id="edge17" class="edge"><title>Node0&#45;&gt;Node16</title>
<path fill="none" stroke="midnightblue" d="M70.7373,-479.646C81.6167,-518.365 110.328,-602.105 165,-648 166.567,-649.315 168.192,-650.573 169.867,-651.776"/>
<polygon fill="midnightblue" stroke="midnightblue" points="168.299,-654.927 178.614,-657.345 172.059,-649.022 168.299,-654.927"/>
</g>
<!-- Node17 -->
<g id="node18" class="node"><title>Node17</title>
<g id="a_node18"><a xlink:href="classSeeSawN_1_1GeometryN_1_1GenericGeometryEstimationProblemC.html#a27a9f54909628b26da7ecc5f4beec511" target="_top" xlink:title="Returns flagValid. ">
<polygon fill="white" stroke="black" points="188,-597.5 188,-638.5 331,-638.5 331,-597.5 188,-597.5"/>
<text text-anchor="start" x="196" y="-626.5" font-family="FreeSans" font-size="10.00">SeeSawN::GeometryN</text>
<text text-anchor="start" x="196" y="-615.5" font-family="FreeSans" font-size="10.00">::GenericGeometryEstimation</text>
<text text-anchor="middle" x="259.5" y="-604.5" font-family="FreeSans" font-size="10.00">ProblemC::IsValid</text>
</a>
</g>
</g>
<!-- Node0&#45;&gt;Node17 -->
<g id="edge18" class="edge"><title>Node0&#45;&gt;Node17</title>
<path fill="none" stroke="midnightblue" d="M76.1069,-479.572C91.7873,-508.005 123.796,-559.071 165,-588 169.251,-590.985 173.815,-593.684 178.556,-596.123"/>
<polygon fill="midnightblue" stroke="midnightblue" points="177.32,-599.41 187.859,-600.501 180.301,-593.076 177.32,-599.41"/>
</g>
<!-- Node18 -->
<g id="node19" class="node"><title>Node18</title>
<g id="a_node19"><a xlink:href="namespaceSeeSawN_1_1GeometryN.html#ac4abaa766f44942fec420a186648f6b1" target="_top" xlink:title="SeeSawN::GeometryN\l::MakeGeometryEstimationPipeline\lHomography2DProblem">
<polygon fill="white" stroke="black" points="390,-460.5 390,-501.5 557,-501.5 557,-460.5 390,-460.5"/>
<text text-anchor="start" x="398" y="-489.5" font-family="FreeSans" font-size="10.00">SeeSawN::GeometryN</text>
<text text-anchor="start" x="398" y="-478.5" font-family="FreeSans" font-size="10.00">::MakeGeometryEstimationPipeline</text>
<text text-anchor="middle" x="473.5" y="-467.5" font-family="FreeSans" font-size="10.00">Homography2DProblem</text>
</a>
</g>
</g>
<!-- Node0&#45;&gt;Node18 -->
<g id="edge19" class="edge"><title>Node0&#45;&gt;Node18</title>
<path fill="none" stroke="midnightblue" d="M129.094,-462.438C196.279,-466.069 302.897,-471.832 379.515,-475.974"/>
<polygon fill="midnightblue" stroke="midnightblue" points="379.473,-479.477 389.647,-476.521 379.85,-472.487 379.473,-479.477"/>
</g>
<!-- Node19 -->
<g id="node20" class="node"><title>Node19</title>
<g id="a_node20"><a xlink:href="classSeeSawN_1_1GeometryN_1_1GenericGeometryEstimationProblemC.html#a13354d0b9e5dcd65eeb85630f3bf6f44" target="_top" xlink:title="Prepares an optimisation problem. ">
<polygon fill="white" stroke="black" points="170,-339.5 170,-380.5 349,-380.5 349,-339.5 170,-339.5"/>
<text text-anchor="start" x="178" y="-368.5" font-family="FreeSans" font-size="10.00">SeeSawN::GeometryN</text>
<text text-anchor="start" x="178" y="-357.5" font-family="FreeSans" font-size="10.00">::GenericGeometryEstimation</text>
<text text-anchor="middle" x="259.5" y="-346.5" font-family="FreeSans" font-size="10.00">ProblemC::MakeOptimisationProblem</text>
</a>
</g>
</g>
<!-- Node0&#45;&gt;Node19 -->
<g id="edge20" class="edge"><title>Node0&#45;&gt;Node19</title>
<path fill="none" stroke="midnightblue" d="M91.2812,-438.4C110.673,-423.665 138.375,-404.185 165,-391 169.669,-388.688 174.552,-386.486 179.53,-384.403"/>
<polygon fill="midnightblue" stroke="midnightblue" points="181.204,-387.503 189.192,-380.543 178.607,-381.003 181.204,-387.503"/>
</g>
<!-- Node21 -->
<g id="node22" class="node"><title>Node21</title>
<g id="a_node22"><a xlink:href="group__Homography2D.html#gab88eb6c8b34f5f020128d3e3f10dfb29" target="_top" xlink:title="Makes a PDL problem for 2D homography estimation. ">
<polygon fill="white" stroke="black" points="176,-488 176,-518 343,-518 343,-488 176,-488"/>
<text text-anchor="start" x="184" y="-506" font-family="FreeSans" font-size="10.00">SeeSawN::GeometryN</text>
<text text-anchor="middle" x="259.5" y="-495" font-family="FreeSans" font-size="10.00">::MakePDLHomography2DProblem</text>
</a>
</g>
</g>
<!-- Node0&#45;&gt;Node21 -->
<g id="edge22" class="edge"><title>Node0&#45;&gt;Node21</title>
<path fill="none" stroke="midnightblue" d="M129.23,-473.529C146.21,-477.4 164.727,-481.622 182.302,-485.628"/>
<polygon fill="midnightblue" stroke="midnightblue" points="181.994,-489.148 192.522,-487.958 183.55,-482.323 181.994,-489.148"/>
</g>
<!-- Node22 -->
<g id="node23" class="node"><title>Node22</title>
<g id="a_node23"><a xlink:href="group__Homography2D.html#gafd5124db5ea423595fd038873d23f2b7" target="_top" xlink:title="Makes a RANSAC problem for 2D homography estimation. ">
<polygon fill="white" stroke="black" points="165,-400 165,-430 354,-430 354,-400 165,-400"/>
<text text-anchor="start" x="173" y="-418" font-family="FreeSans" font-size="10.00">SeeSawN::GeometryN</text>
<text text-anchor="middle" x="259.5" y="-407" font-family="FreeSans" font-size="10.00">::MakeRANSACHomography2DProblem</text>
</a>
</g>
</g>
<!-- Node0&#45;&gt;Node22 -->
<g id="edge24" class="edge"><title>Node0&#45;&gt;Node22</title>
<path fill="none" stroke="midnightblue" d="M129.23,-444.471C146.21,-440.6 164.727,-436.378 182.302,-432.372"/>
<polygon fill="midnightblue" stroke="midnightblue" points="183.55,-435.677 192.522,-430.042 181.994,-428.852 183.55,-435.677"/>
</g>
<!-- Node23 -->
<g id="node24" class="node"><title>Node23</title>
<g id="a_node24"><a xlink:href="classSeeSawN_1_1GeometryN_1_1GenericGeometryEstimationProblemC.html#a59803c826e1e73bc9af35c9b800bd40c" target="_top" xlink:title="Processes the RANSAC result and returns a model for refinement. ">
<polygon fill="white" stroke="black" points="175,-537.5 175,-578.5 344,-578.5 344,-537.5 175,-537.5"/>
<text text-anchor="start" x="183" y="-566.5" font-family="FreeSans" font-size="10.00">SeeSawN::GeometryN</text>
<text text-anchor="start" x="183" y="-555.5" font-family="FreeSans" font-size="10.00">::GenericGeometryEstimation</text>
<text text-anchor="middle" x="259.5" y="-544.5" font-family="FreeSans" font-size="10.00">ProblemC::ProcessRANSACResult</text>
</a>
</g>
</g>
<!-- Node0&#45;&gt;Node23 -->
<g id="edge25" class="edge"><title>Node0&#45;&gt;Node23</title>
<path fill="none" stroke="midnightblue" d="M90.7879,-479.688C110.155,-494.727 138.043,-514.698 165,-528 168.977,-529.963 173.112,-531.836 177.33,-533.618"/>
<polygon fill="midnightblue" stroke="midnightblue" points="176.088,-536.891 186.672,-537.374 178.699,-530.396 176.088,-536.891"/>
</g>
<!-- Node28 -->
<g id="node29" class="node"><title>Node28</title>
<g id="a_node29"><a xlink:href="classSeeSawN_1_1GeometryN_1_1GenericGeometryEstimationProblemC.html#a62dd883acab48b0a2138a35326049791" target="_top" xlink:title="Returns a reference to the RANSAC problem for the first RANSAC stage. ">
<polygon fill="white" stroke="black" points="186.5,-279.5 186.5,-320.5 332.5,-320.5 332.5,-279.5 186.5,-279.5"/>
<text text-anchor="start" x="194.5" y="-308.5" font-family="FreeSans" font-size="10.00">SeeSawN::GeometryN</text>
<text text-anchor="start" x="194.5" y="-297.5" font-family="FreeSans" font-size="10.00">::GenericGeometryEstimation</text>
<text text-anchor="middle" x="259.5" y="-286.5" font-family="FreeSans" font-size="10.00">ProblemC::RANSACProblem1</text>
</a>
</g>
</g>
<!-- Node0&#45;&gt;Node28 -->
<g id="edge32" class="edge"><title>Node0&#45;&gt;Node28</title>
<path fill="none" stroke="midnightblue" d="M76.1069,-438.428C91.7873,-409.995 123.796,-358.929 165,-330 168.894,-327.266 173.049,-324.772 177.364,-322.498"/>
<polygon fill="midnightblue" stroke="midnightblue" points="178.925,-325.631 186.41,-318.132 175.882,-319.326 178.925,-325.631"/>
</g>
<!-- Node29 -->
<g id="node30" class="node"><title>Node29</title>
<g id="a_node30"><a xlink:href="classSeeSawN_1_1GeometryN_1_1GenericGeometryEstimationProblemC.html#a1760b20b5dc9e63f6c0d5049811a7ade" target="_top" xlink:title="Returns a reference to the RANSAC problem for the second RANSAC stage. ">
<polygon fill="white" stroke="black" points="186.5,-219.5 186.5,-260.5 332.5,-260.5 332.5,-219.5 186.5,-219.5"/>
<text text-anchor="start" x="194.5" y="-248.5" font-family="FreeSans" font-size="10.00">SeeSawN::GeometryN</text>
<text text-anchor="start" x="194.5" y="-237.5" font-family="FreeSans" font-size="10.00">::GenericGeometryEstimation</text>
<text text-anchor="middle" x="259.5" y="-226.5" font-family="FreeSans" font-size="10.00">ProblemC::RANSACProblem2</text>
</a>
</g>
</g>
<!-- Node0&#45;&gt;Node29 -->
<g id="edge33" class="edge"><title>Node0&#45;&gt;Node29</title>
<path fill="none" stroke="midnightblue" d="M70.7373,-438.354C81.6167,-399.635 110.328,-315.895 165,-270 168.721,-266.876 172.773,-264.076 177.035,-261.566"/>
<polygon fill="midnightblue" stroke="midnightblue" points="178.832,-264.576 186.041,-256.812 175.564,-258.385 178.832,-264.576"/>
</g>
<!-- Node30 -->
<g id="node31" class="node"><title>Node30</title>
<g id="a_node31"><a xlink:href="classSeeSawN_1_1GeometryN_1_1GeometryEstimatorC.html#a29cfd9a2d5f282988b945a9c280e9672" target="_top" xlink:title="Runs the algorithm. ">
<polygon fill="white" stroke="black" points="193,-170 193,-200 326,-200 326,-170 193,-170"/>
<text text-anchor="start" x="201" y="-188" font-family="FreeSans" font-size="10.00">SeeSawN::GeometryN</text>
<text text-anchor="middle" x="259.5" y="-177" font-family="FreeSans" font-size="10.00">::GeometryEstimatorC::Run</text>
</a>
</g>
</g>
<!-- Node0&#45;&gt;Node30 -->
<g id="edge34" class="edge"><title>Node0&#45;&gt;Node30</title>
<path fill="none" stroke="midnightblue" d="M67.5702,-438.416C73.4859,-390.78 94.8471,-272.271 165,-210 170.443,-205.169 176.72,-201.257 183.394,-198.091"/>
<polygon fill="midnightblue" stroke="midnightblue" points="184.811,-201.293 192.7,-194.221 182.122,-194.829 184.811,-201.293"/>
</g>
<!-- Node31 -->
<g id="node32" class="node"><title>Node31</title>
<g id="a_node32"><a xlink:href="classSeeSawN_1_1ElementsN_1_1CorrespondenceDecimatorC.html#af5384a7ac217f1b0673e5649d0c626ee" target="_top" xlink:title="Decimates a correspondence range. ">
<polygon fill="white" stroke="black" points="177.5,-121 177.5,-151 341.5,-151 341.5,-121 177.5,-121"/>
<text text-anchor="start" x="185.5" y="-139" font-family="FreeSans" font-size="10.00">SeeSawN::ElementsN</text>
<text text-anchor="middle" x="259.5" y="-128" font-family="FreeSans" font-size="10.00">::CorrespondenceDecimatorC::Run</text>
</a>
</g>
</g>
<!-- Node0&#45;&gt;Node31 -->
<g id="edge35" class="edge"><title>Node0&#45;&gt;Node31</title>
<path fill="none" stroke="midnightblue" d="M66.0388,-438.148C68.6044,-384.036 83.1639,-237.991 165,-161 166.514,-159.575 168.101,-158.23 169.749,-156.959"/>
<polygon fill="midnightblue" stroke="midnightblue" points="172.037,-159.642 178.454,-151.212 168.18,-153.801 172.037,-159.642"/>
</g>
<!-- Node32 -->
<g id="node33" class="node"><title>Node32</title>
<g id="a_node33"><a xlink:href="classSeeSawN_1_1GeometryN_1_1CalibrationVerificationPipelineC.html#a0c7b454906987c911ced4e3eee427260" target="_top" xlink:title="Runs the algorithm. ">
<polygon fill="white" stroke="black" points="185,-60.5 185,-101.5 334,-101.5 334,-60.5 185,-60.5"/>
<text text-anchor="start" x="193" y="-89.5" font-family="FreeSans" font-size="10.00">SeeSawN::GeometryN</text>
<text text-anchor="start" x="193" y="-78.5" font-family="FreeSans" font-size="10.00">::CalibrationVerificationPipeline</text>
<text text-anchor="middle" x="259.5" y="-67.5" font-family="FreeSans" font-size="10.00">C::Run</text>
</a>
</g>
</g>
<!-- Node0&#45;&gt;Node32 -->
<g id="edge36" class="edge"><title>Node0&#45;&gt;Node32</title>
<path fill="none" stroke="midnightblue" d="M65.1564,-438.188C65.3333,-378.8 74.0778,-206.719 165,-112 168.375,-108.484 172.158,-105.366 176.215,-102.602"/>
<polygon fill="midnightblue" stroke="midnightblue" points="178.105,-105.551 184.887,-97.411 174.509,-99.5446 178.105,-105.551"/>
</g>
<!-- Node33 -->
<g id="node34" class="node"><title>Node33</title>
<g id="a_node34"><a xlink:href="classSeeSawN_1_1GeometryN_1_1GeometryEstimationPipelineC.html#a3faca7a01329f76db34c458454f8e924" target="_top" xlink:title="Solves a geometry estimation problem. ">
<polygon fill="white" stroke="black" points="188,-0.5 188,-41.5 331,-41.5 331,-0.5 188,-0.5"/>
<text text-anchor="start" x="196" y="-29.5" font-family="FreeSans" font-size="10.00">SeeSawN::GeometryN</text>
<text text-anchor="start" x="196" y="-18.5" font-family="FreeSans" font-size="10.00">::GeometryEstimationPipeline</text>
<text text-anchor="middle" x="259.5" y="-7.5" font-family="FreeSans" font-size="10.00">C::Run</text>
</a>
</g>
</g>
<!-- Node0&#45;&gt;Node33 -->
<g id="edge37" class="edge"><title>Node0&#45;&gt;Node33</title>
<path fill="none" stroke="midnightblue" d="M67.8772,-438.287C76.8471,-363.547 110.905,-109.094 165,-51 169.093,-46.604 173.831,-42.8498 178.958,-39.644"/>
<polygon fill="midnightblue" stroke="midnightblue" points="180.814,-42.6182 187.91,-34.7501 177.456,-36.4762 180.814,-42.6182"/>
</g>
<!-- Node2 -->
<g id="node3" class="node"><title>Node2</title>
<g id="a_node3"><a xlink:href="classSeeSawN_1_1GeometryN_1_1CoordinateTransformationsC.html#aab6dcee167a446cc239d350dba487b9c" target="_top" xlink:title="Applies a projective transformation to a range of coordinates. ">
<polygon fill="white" stroke="black" points="593,-1017.5 593,-1058.5 754,-1058.5 754,-1017.5 593,-1017.5"/>
<text text-anchor="start" x="601" y="-1046.5" font-family="FreeSans" font-size="10.00">SeeSawN::GeometryN</text>
<text text-anchor="start" x="601" y="-1035.5" font-family="FreeSans" font-size="10.00">::CoordinateTransformations</text>
<text text-anchor="middle" x="673.5" y="-1024.5" font-family="FreeSans" font-size="10.00">C::ApplyProjectiveTransformation</text>
</a>
</g>
</g>
<!-- Node1&#45;&gt;Node2 -->
<g id="edge2" class="edge"><title>Node1&#45;&gt;Node2</title>
<path fill="none" stroke="midnightblue" d="M512.423,-968.518C535.435,-980.636 565.564,-995.92 593,-1008 597.329,-1009.91 601.82,-1011.81 606.366,-1013.67"/>
<polygon fill="midnightblue" stroke="midnightblue" points="605.154,-1016.95 615.738,-1017.44 607.765,-1010.46 605.154,-1016.95"/>
</g>
<!-- Node3 -->
<g id="node4" class="node"><title>Node3</title>
<g id="a_node4"><a xlink:href="classSeeSawN_1_1GeometryN_1_1CoordinateTransformationsC.html#ac5db2cafc64d51264f6267b2ded8287c" target="_top" xlink:title="Applies an affine transformation to a range of coordinates. ">
<polygon fill="white" stroke="black" points="603,-957.5 603,-998.5 744,-998.5 744,-957.5 603,-957.5"/>
<text text-anchor="start" x="611" y="-986.5" font-family="FreeSans" font-size="10.00">SeeSawN::GeometryN</text>
<text text-anchor="start" x="611" y="-975.5" font-family="FreeSans" font-size="10.00">::CoordinateTransformations</text>
<text text-anchor="middle" x="673.5" y="-964.5" font-family="FreeSans" font-size="10.00">C::ApplyAffineTransformation</text>
</a>
</g>
</g>
<!-- Node1&#45;&gt;Node3 -->
<g id="edge3" class="edge"><title>Node1&#45;&gt;Node3</title>
<path fill="none" stroke="midnightblue" d="M538.238,-957.657C555.599,-960.288 574.623,-963.17 592.751,-965.917"/>
<polygon fill="midnightblue" stroke="midnightblue" points="592.303,-969.389 602.714,-967.426 593.352,-962.468 592.303,-969.389"/>
</g>
<!-- Node4 -->
<g id="node5" class="node"><title>Node4</title>
<g id="a_node5"><a xlink:href="classSeeSawN_1_1GeometryN_1_1CoordinateTransformationsC.html#a5e232eab7b6255b71811206270f7eb60" target="_top" xlink:title="Computes the normalising transformation, which transforms the coordinate set to have 0 mean and unity...">
<polygon fill="white" stroke="black" points="604.5,-897.5 604.5,-938.5 742.5,-938.5 742.5,-897.5 604.5,-897.5"/>
<text text-anchor="start" x="612.5" y="-926.5" font-family="FreeSans" font-size="10.00">SeeSawN::GeometryN</text>
<text text-anchor="start" x="612.5" y="-915.5" font-family="FreeSans" font-size="10.00">::CoordinateTransformations</text>
<text text-anchor="middle" x="673.5" y="-904.5" font-family="FreeSans" font-size="10.00">C::ComputeNormaliser</text>
</a>
</g>
</g>
<!-- Node1&#45;&gt;Node4 -->
<g id="edge4" class="edge"><title>Node1&#45;&gt;Node4</title>
<path fill="none" stroke="midnightblue" d="M538.238,-938.343C556.158,-935.628 575.851,-932.644 594.501,-929.818"/>
<polygon fill="midnightblue" stroke="midnightblue" points="595.077,-933.271 604.44,-928.312 594.028,-926.35 595.077,-933.271"/>
</g>
<!-- Node5 -->
<g id="node6" class="node"><title>Node5</title>
<g id="a_node6"><a xlink:href="classSeeSawN_1_1GeometryN_1_1CoordinateTransformationsC.html#a692a734f919badc09c4e1c55ea04114a" target="_top" xlink:title="Homogeneous projection of coordinates to a space with a possibly different dimensionality. ">
<polygon fill="white" stroke="black" points="604.5,-837.5 604.5,-878.5 742.5,-878.5 742.5,-837.5 604.5,-837.5"/>
<text text-anchor="start" x="612.5" y="-866.5" font-family="FreeSans" font-size="10.00">SeeSawN::GeometryN</text>
<text text-anchor="start" x="612.5" y="-855.5" font-family="FreeSans" font-size="10.00">::CoordinateTransformations</text>
<text text-anchor="middle" x="673.5" y="-844.5" font-family="FreeSans" font-size="10.00">C::HomogeneousProject</text>
</a>
</g>
</g>
<!-- Node1&#45;&gt;Node5 -->
<g id="edge5" class="edge"><title>Node1&#45;&gt;Node5</title>
<path fill="none" stroke="midnightblue" d="M538.131,-927.421C544.65,-924.562 551.054,-921.418 557,-918 575.056,-907.62 575.007,-898.489 593,-888 596.023,-886.238 599.168,-884.545 602.387,-882.923"/>
<polygon fill="midnightblue" stroke="midnightblue" points="604.08,-885.993 611.613,-878.543 601.078,-879.67 604.08,-885.993"/>
</g>
<!-- Node6 -->
<g id="node7" class="node"><title>Node6</title>
<g id="a_node7"><a xlink:href="classSeeSawN_1_1GeometryN_1_1CoordinateTransformationsC.html#acb41c39dad3d11161a0ebe1e2b2b0a3d" target="_top" xlink:title="Normalises a range of homogeneous vectors. ">
<polygon fill="white" stroke="black" points="604.5,-777.5 604.5,-818.5 742.5,-818.5 742.5,-777.5 604.5,-777.5"/>
<text text-anchor="start" x="612.5" y="-806.5" font-family="FreeSans" font-size="10.00">SeeSawN::GeometryN</text>
<text text-anchor="start" x="612.5" y="-795.5" font-family="FreeSans" font-size="10.00">::CoordinateTransformations</text>
<text text-anchor="middle" x="673.5" y="-784.5" font-family="FreeSans" font-size="10.00">C::NormaliseHomogeneous</text>
</a>
</g>
</g>
<!-- Node1&#45;&gt;Node6 -->
<g id="edge6" class="edge"><title>Node1&#45;&gt;Node6</title>
<path fill="none" stroke="midnightblue" d="M538.156,-931.286C545.045,-927.678 551.527,-923.302 557,-918 587.943,-888.024 562.239,-858.162 593,-828 594.119,-826.903 595.282,-825.845 596.484,-824.825"/>
<polygon fill="midnightblue" stroke="midnightblue" points="598.928,-827.372 604.914,-818.631 594.783,-821.731 598.928,-827.372"/>
</g>
<!-- Node7 -->
<g id="node8" class="node"><title>Node7</title>
<g id="a_node8"><a xlink:href="classSeeSawN_1_1GeometryN_1_1CoordinateTransformationsC.html#aa11881d9e2bc2d077bd6fb82237ac43e" target="_top" xlink:title="Applies a homogeneous transformation. ">
<polygon fill="white" stroke="black" points="604.5,-1077.5 604.5,-1118.5 742.5,-1118.5 742.5,-1077.5 604.5,-1077.5"/>
<text text-anchor="start" x="612.5" y="-1106.5" font-family="FreeSans" font-size="10.00">SeeSawN::GeometryN</text>
<text text-anchor="start" x="612.5" y="-1095.5" font-family="FreeSans" font-size="10.00">::CoordinateTransformations</text>
<text text-anchor="middle" x="673.5" y="-1084.5" font-family="FreeSans" font-size="10.00">C::TransformCoordinate</text>
</a>
</g>
</g>
<!-- Node1&#45;&gt;Node7 -->
<g id="edge7" class="edge"><title>Node1&#45;&gt;Node7</title>
<path fill="none" stroke="midnightblue" d="M490.037,-968.504C510.89,-994.779 550.282,-1040.24 593,-1068 595.576,-1069.67 598.26,-1071.27 601.016,-1072.8"/>
<polygon fill="midnightblue" stroke="midnightblue" points="599.528,-1075.97 610.022,-1077.43 602.73,-1069.75 599.528,-1075.97"/>
</g>
<!-- Node8&#45;&gt;Node1 -->
<g id="edge11" class="edge"><title>Node8&#45;&gt;Node1</title>
<path fill="none" stroke="midnightblue" d="M302.383,-878.507C327.547,-890.551 360.337,-905.761 390,-918 394.722,-919.948 399.621,-921.901 404.571,-923.822"/>
<polygon fill="midnightblue" stroke="midnightblue" points="403.528,-927.171 414.118,-927.472 406.027,-920.632 403.528,-927.171"/>
</g>
<!-- Node9 -->
<g id="node10" class="node"><title>Node9</title>
<g id="a_node10"><a xlink:href="classSeeSawN_1_1GeometryN_1_1CoordinateStatisticsC.html#a087193058a223d855ad1fa1f29a59698" target="_top" xlink:title="Computes the per&#45;dimension mean and std. ">
<polygon fill="white" stroke="black" points="414.5,-807.5 414.5,-848.5 532.5,-848.5 532.5,-807.5 414.5,-807.5"/>
<text text-anchor="start" x="422.5" y="-836.5" font-family="FreeSans" font-size="10.00">SeeSawN::GeometryN</text>
<text text-anchor="start" x="422.5" y="-825.5" font-family="FreeSans" font-size="10.00">::CoordinateStatisticsC</text>
<text text-anchor="middle" x="473.5" y="-814.5" font-family="FreeSans" font-size="10.00">::ComputeMeanAndStD</text>
</a>
</g>
</g>
<!-- Node8&#45;&gt;Node9 -->
<g id="edge9" class="edge"><title>Node8&#45;&gt;Node9</title>
<path fill="none" stroke="midnightblue" d="M329.623,-848.218C353.624,-844.822 380.505,-841.018 404.42,-837.634"/>
<polygon fill="midnightblue" stroke="midnightblue" points="405.06,-841.078 414.471,-836.212 404.079,-834.147 405.06,-841.078"/>
</g>
<!-- Node10 -->
<g id="node11" class="node"><title>Node10</title>
<g id="a_node11"><a xlink:href="classSeeSawN_1_1GeometryN_1_1CoordinateStatisticsC.html#a44f790d9805e3d0ec9ed62e2b894ec5a" target="_top" xlink:title="Computes the per&#45;dimension spatial extent. ">
<polygon fill="white" stroke="black" points="415.5,-747.5 415.5,-788.5 531.5,-788.5 531.5,-747.5 415.5,-747.5"/>
<text text-anchor="start" x="423.5" y="-776.5" font-family="FreeSans" font-size="10.00">SeeSawN::GeometryN</text>
<text text-anchor="start" x="423.5" y="-765.5" font-family="FreeSans" font-size="10.00">::CoordinateStatisticsC</text>
<text text-anchor="middle" x="473.5" y="-754.5" font-family="FreeSans" font-size="10.00">::ComputeExtent</text>
</a>
</g>
</g>
<!-- Node8&#45;&gt;Node10 -->
<g id="edge10" class="edge"><title>Node8&#45;&gt;Node10</title>
<path fill="none" stroke="midnightblue" d="M329.689,-839.155C338.087,-835.898 346.381,-832.188 354,-828 372.252,-817.967 371.944,-808.38 390,-798 395.079,-795.08 400.492,-792.361 406.025,-789.848"/>
<polygon fill="midnightblue" stroke="midnightblue" points="407.607,-792.978 415.412,-785.814 404.843,-786.547 407.607,-792.978"/>
</g>
<!-- Node11 -->
<g id="node12" class="node"><title>Node11</title>
<g id="a_node12"><a xlink:href="classSeeSawN_1_1GeometryN_1_1LensDistortionNoDC.html#a5e7f277593e0f3e6ebc4684126d369a5" target="_top" xlink:title="Applies lens distortion to a point. ">
<polygon fill="white" stroke="black" points="416,-687.5 416,-728.5 531,-728.5 531,-687.5 416,-687.5"/>
<text text-anchor="start" x="424" y="-716.5" font-family="FreeSans" font-size="10.00">SeeSawN::GeometryN</text>
<text text-anchor="start" x="424" y="-705.5" font-family="FreeSans" font-size="10.00">::LensDistortionNoDC</text>
<text text-anchor="middle" x="473.5" y="-694.5" font-family="FreeSans" font-size="10.00">::Apply</text>
</a>
</g>
</g>
<!-- Node8&#45;&gt;Node11 -->
<g id="edge12" class="edge"><title>Node8&#45;&gt;Node11</title>
<path fill="none" stroke="midnightblue" d="M329.749,-843.599C338.615,-839.608 347.017,-834.51 354,-828 385.511,-798.622 359.057,-767.976 390,-738 394.928,-733.226 400.673,-729.204 406.797,-725.816"/>
<polygon fill="midnightblue" stroke="midnightblue" points="408.561,-728.849 415.987,-721.293 405.47,-722.568 408.561,-728.849"/>
</g>
<!-- Node12 -->
<g id="node13" class="node"><title>Node12</title>
<g id="a_node13"><a xlink:href="classSeeSawN_1_1GeometryN_1_1LensDistortionNoDC.html#a4a7dbdb540cd744083ecf1943f3d24ea" target="_top" xlink:title="Corrects a distorted point. ">
<polygon fill="white" stroke="black" points="416,-867.5 416,-908.5 531,-908.5 531,-867.5 416,-867.5"/>
<text text-anchor="start" x="424" y="-896.5" font-family="FreeSans" font-size="10.00">SeeSawN::GeometryN</text>
<text text-anchor="start" x="424" y="-885.5" font-family="FreeSans" font-size="10.00">::LensDistortionNoDC</text>
<text text-anchor="middle" x="473.5" y="-874.5" font-family="FreeSans" font-size="10.00">::Correct</text>
</a>
</g>
</g>
<!-- Node8&#45;&gt;Node12 -->
<g id="edge13" class="edge"><title>Node8&#45;&gt;Node12</title>
<path fill="none" stroke="midnightblue" d="M329.623,-867.782C354.046,-871.238 381.453,-875.116 405.682,-878.545"/>
<polygon fill="midnightblue" stroke="midnightblue" points="405.461,-882.048 415.853,-879.984 406.442,-875.117 405.461,-882.048"/>
</g>
<!-- Node14 -->
<g id="node15" class="node"><title>Node14</title>
<g id="a_node15"><a xlink:href="classSeeSawN_1_1GeometryN_1_1GenericGeometryEstimationProblemC.html#a145ecb65103e466b78d273c62a44465e" target="_top" xlink:title="Identifies the indices of the inlier elements for a model. ">
<polygon fill="white" stroke="black" points="402,-622.5 402,-663.5 545,-663.5 545,-622.5 402,-622.5"/>
<text text-anchor="start" x="410" y="-651.5" font-family="FreeSans" font-size="10.00">SeeSawN::GeometryN</text>
<text text-anchor="start" x="410" y="-640.5" font-family="FreeSans" font-size="10.00">::GenericGeometryEstimation</text>
<text text-anchor="middle" x="473.5" y="-629.5" font-family="FreeSans" font-size="10.00">ProblemC::MakeInlierList</text>
</a>
</g>
</g>
<!-- Node13&#45;&gt;Node14 -->
<g id="edge15" class="edge"><title>Node13&#45;&gt;Node14</title>
<path fill="none" stroke="midnightblue" d="M331.17,-782.948C339.511,-779.057 347.391,-774.161 354,-768 385.511,-738.622 359.854,-708.777 390,-678 393.147,-674.787 396.635,-671.853 400.347,-669.177"/>
<polygon fill="midnightblue" stroke="midnightblue" points="402.289,-672.089 408.786,-663.72 398.488,-666.211 402.289,-672.089"/>
</g>
<!-- Node20 -->
<g id="node21" class="node"><title>Node20</title>
<g id="a_node21"><a xlink:href="namespaceSeeSawN_1_1WrappersN.html#af15683d7e567d982a048ba1a71efa6bc" target="_top" xlink:title="SeeSawN::WrappersN\l::FilterBimap">
<polygon fill="white" stroke="black" points="416.5,-345 416.5,-375 530.5,-375 530.5,-345 416.5,-345"/>
<text text-anchor="start" x="424.5" y="-363" font-family="FreeSans" font-size="10.00">SeeSawN::WrappersN</text>
<text text-anchor="middle" x="473.5" y="-352" font-family="FreeSans" font-size="10.00">::FilterBimap</text>
</a>
</g>
</g>
<!-- Node19&#45;&gt;Node20 -->
<g id="edge21" class="edge"><title>Node19&#45;&gt;Node20</title>
<path fill="none" stroke="midnightblue" d="M349.179,-360C368.237,-360 388.063,-360 406.102,-360"/>
<polygon fill="midnightblue" stroke="midnightblue" points="406.21,-363.5 416.21,-360 406.21,-356.5 406.21,-363.5"/>
</g>
<!-- Node21&#45;&gt;Node18 -->
<g id="edge23" class="edge"><title>Node21&#45;&gt;Node18</title>
<path fill="none" stroke="midnightblue" d="M343.072,-494.431C355.061,-493.187 367.472,-491.899 379.647,-490.636"/>
<polygon fill="midnightblue" stroke="midnightblue" points="380.22,-494.095 389.805,-489.582 379.497,-487.133 380.22,-494.095"/>
</g>
<!-- Node23&#45;&gt;Node14 -->
<g id="edge26" class="edge"><title>Node23&#45;&gt;Node14</title>
<path fill="none" stroke="midnightblue" d="M328.013,-578.557C336.814,-581.559 345.664,-584.743 354,-588 376.716,-596.877 401.257,-608 422.081,-617.917"/>
<polygon fill="midnightblue" stroke="midnightblue" points="420.838,-621.202 431.367,-622.376 423.868,-614.892 420.838,-621.202"/>
</g>
<!-- Node24 -->
<g id="node25" class="node"><title>Node24</title>
<g id="a_node25"><a xlink:href="namespaceboost.html#ab33d5e778d97f2702d840c5a8e28f5da" target="_top" xlink:title="boost::swap">
<polygon fill="white" stroke="black" points="439.5,-548.5 439.5,-567.5 507.5,-567.5 507.5,-548.5 439.5,-548.5"/>
<text text-anchor="middle" x="473.5" y="-555.5" font-family="FreeSans" font-size="10.00">boost::swap</text>
</a>
</g>
</g>
<!-- Node23&#45;&gt;Node24 -->
<g id="edge27" class="edge"><title>Node23&#45;&gt;Node24</title>
<path fill="none" stroke="midnightblue" d="M344.288,-558C373.454,-558 404.969,-558 429.455,-558"/>
<polygon fill="midnightblue" stroke="midnightblue" points="429.491,-561.5 439.491,-558 429.491,-554.5 429.491,-561.5"/>
</g>
<!-- Node25 -->
<g id="node26" class="node"><title>Node25</title>
<g id="a_node26"><a xlink:href="classboost_1_1dynamic__bitset.html#aeed52d861439697261690e501cb5ae8b" target="_top" xlink:title="boost::dynamic_bitset\l::swap">
<polygon fill="white" stroke="black" points="618.5,-543 618.5,-573 728.5,-573 728.5,-543 618.5,-543"/>
<text text-anchor="start" x="626.5" y="-561" font-family="FreeSans" font-size="10.00">boost::dynamic_bitset</text>
<text text-anchor="middle" x="673.5" y="-550" font-family="FreeSans" font-size="10.00">::swap</text>
</a>
</g>
</g>
<!-- Node24&#45;&gt;Node25 -->
<g id="edge28" class="edge"><title>Node24&#45;&gt;Node25</title>
<path fill="none" stroke="midnightblue" d="M507.641,-552.808C534.977,-551.256 574.575,-550.863 608.111,-551.631"/>
<polygon fill="midnightblue" stroke="midnightblue" points="608.213,-555.135 618.304,-551.906 608.402,-548.137 608.213,-555.135"/>
</g>
<!-- Node25&#45;&gt;Node24 -->
<g id="edge31" class="edge"><title>Node25&#45;&gt;Node24</title>
<path fill="none" stroke="midnightblue" d="M618.304,-564.094C586.633,-565.088 547.209,-564.952 517.654,-563.687"/>
<polygon fill="midnightblue" stroke="midnightblue" points="517.801,-560.19 507.641,-563.192 517.456,-567.181 517.801,-560.19"/>
</g>
<!-- Node26 -->
<g id="node27" class="node"><title>Node26</title>
<g id="a_node27"><a xlink:href="classboost_1_1dynamic__bitset.html#a8e3c3db2aa0fd4f45aaae2b6b7d96ef1" target="_top" xlink:title="boost::dynamic_bitset\l::operator=">
<polygon fill="white" stroke="black" points="790,-543 790,-573 900,-573 900,-543 790,-543"/>
<text text-anchor="start" x="798" y="-561" font-family="FreeSans" font-size="10.00">boost::dynamic_bitset</text>
<text text-anchor="middle" x="845" y="-550" font-family="FreeSans" font-size="10.00">::operator=</text>
</a>
</g>
</g>
<!-- Node25&#45;&gt;Node26 -->
<g id="edge29" class="edge"><title>Node25&#45;&gt;Node26</title>
<path fill="none" stroke="midnightblue" d="M728.597,-558C744.804,-558 762.74,-558 779.544,-558"/>
<polygon fill="midnightblue" stroke="midnightblue" points="779.836,-561.5 789.836,-558 779.836,-554.5 779.836,-561.5"/>
</g>
<!-- Node27 -->
<g id="node28" class="node"><title>Node27</title>
<g id="a_node28"><a xlink:href="classboost_1_1dynamic__bitset.html#a54b534f528507c51a4b4270825956ec0" target="_top" xlink:title="boost::dynamic_bitset\l::dynamic_bitset">
<polygon fill="white" stroke="black" points="936,-543 936,-573 1046,-573 1046,-543 936,-543"/>
<text text-anchor="start" x="944" y="-561" font-family="FreeSans" font-size="10.00">boost::dynamic_bitset</text>
<text text-anchor="middle" x="991" y="-550" font-family="FreeSans" font-size="10.00">::dynamic_bitset</text>
</a>
</g>
</g>
<!-- Node26&#45;&gt;Node27 -->
<g id="edge30" class="edge"><title>Node26&#45;&gt;Node27</title>
<path fill="none" stroke="midnightblue" d="M900.03,-558C908.314,-558 916.936,-558 925.42,-558"/>
<polygon fill="midnightblue" stroke="midnightblue" points="925.667,-561.5 935.667,-558 925.667,-554.5 925.667,-561.5"/>
</g>
</g>
</svg>
