<?xml version="1.0" encoding="UTF-8" standalone="no"?>
<!DOCTYPE svg PUBLIC "-//W3C//DTD SVG 1.1//EN"
 "http://www.w3.org/Graphics/SVG/1.1/DTD/svg11.dtd">
<!-- Generated by graphviz version 2.38.0 (20140413.2041)
 -->
<!-- Title: SeeSawN::UnitTestsN::TestUncertaintyEstimationN::BOOST_AUTO_TEST_CASE Pages: 1 -->
<!--zoomable 771 -->
<svg id="main" version="1.1" xmlns="http://www.w3.org/2000/svg" xmlns:xlink="http://www.w3.org/1999/xlink" xml:space="preserve" onload="init(evt)">
<style type="text/css"><![CDATA[
.edge:hover path { stroke: red; }
.edge:hover polygon { stroke: red; fill: red; }
]]></style>
<script type="text/javascript"><![CDATA[
var edges = document.getElementsByTagName('g');
if (edges && edges.length) {
  for (var i=0;i<edges.length;i++) {
    if (edges[i].id.substr(0,4)=='edge') {
      edges[i].setAttribute('class','edge');
    }
  }
}
]]></script>
        <defs>
                <circle id="rim" cx="0" cy="0" r="7"/>
                <circle id="rim2" cx="0" cy="0" r="3.5"/>
                <g id="zoomPlus">
                        <use xlink:href="#rim" fill="#404040">
                                <set attributeName="fill" to="#808080" begin="zoomplus.mouseover" end="zoomplus.mouseout"/>
                        </use>
                        <path d="M-4,0h8M0,-4v8" fill="none" stroke="white" stroke-width="1.5" pointer-events="none"/>
                </g>
                <g id="zoomMin">
                        <use xlink:href="#rim" fill="#404040">
                                <set attributeName="fill" to="#808080" begin="zoomminus.mouseover" end="zoomminus.mouseout"/>
                        </use>
                        <path d="M-4,0h8" fill="none" stroke="white" stroke-width="1.5" pointer-events="none"/>
                </g>
                <g id="dirArrow">
                        <path fill="none" stroke="white" stroke-width="1.5" d="M0,-3.0v7 M-2.5,-0.5L0,-3.0L2.5,-0.5"/>
                </g>
               <g id="resetDef">
                       <use xlink:href="#rim2" fill="#404040">
                               <set attributeName="fill" to="#808080" begin="reset.mouseover" end="reset.mouseout"/>
                       </use>
               </g>
        </defs>

<script type="text/javascript">
var viewWidth = 774;
var viewHeight = 771;
var sectionId = 'dynsection-1';
</script>
<script xlink:href="svgpan.js"/>
<svg id="graph" class="graph">
<g id="viewport">
<title>SeeSawN::UnitTestsN::TestUncertaintyEstimationN::BOOST_AUTO_TEST_CASE</title>
<polygon fill="white" stroke="none" points="-4,4 -4,-766.5 770,-766.5 770,4 -4,4"/>
<!-- Node10 -->
<g id="node1" class="node"><title>Node10</title>
<polygon fill="#bfbfbf" stroke="black" points="0,-415.5 0,-456.5 158,-456.5 158,-415.5 0,-415.5"/>
<text text-anchor="start" x="8" y="-444.5" font-family="FreeSans" font-size="10.00">SeeSawN::UnitTestsN</text>
<text text-anchor="start" x="8" y="-433.5" font-family="FreeSans" font-size="10.00">::TestUncertaintyEstimation</text>
<text text-anchor="middle" x="79" y="-422.5" font-family="FreeSans" font-size="10.00">N::BOOST_AUTO_TEST_CASE</text>
</g>
<!-- Node11 -->
<g id="node2" class="node"><title>Node11</title>
<g id="a_node2"><a xlink:href="classSeeSawN_1_1UncertaintyEstimationN_1_1SUTTriangulationProblemC.html#a937c5a7023b25ab5d38beb9ac949706b" target="_top" xlink:title="Computes the recommended alpha value. ">
<polygon fill="white" stroke="black" points="194,-732 194,-762 370,-762 370,-732 194,-732"/>
<text text-anchor="start" x="202" y="-750" font-family="FreeSans" font-size="10.00">SeeSawN::UncertaintyEstimation</text>
<text text-anchor="middle" x="282" y="-739" font-family="FreeSans" font-size="10.00">N::SUTTriangulationProblemC::Alpha</text>
</a>
</g>
</g>
<!-- Node10&#45;&gt;Node11 -->
<g id="edge1" class="edge"><title>Node10&#45;&gt;Node11</title>
<path fill="none" stroke="midnightblue" d="M82.4985,-456.548C89.8177,-507.884 115.868,-642.929 194,-717 198.058,-720.847 202.633,-724.203 207.507,-727.13"/>
<polygon fill="midnightblue" stroke="midnightblue" points="206.085,-730.339 216.557,-731.95 209.376,-724.16 206.085,-730.339"/>
</g>
<!-- Node12 -->
<g id="node3" class="node"><title>Node12</title>
<g id="a_node3"><a xlink:href="classSeeSawN_1_1UncertaintyEstimationN_1_1SUTTriangulationProblemC.html#a70be698c04caf0f9d058b84835710d4a" target="_top" xlink:title="Dimensionality of the input sample, which is 4. ">
<polygon fill="white" stroke="black" points="406,-704.5 406,-745.5 567,-745.5 567,-704.5 406,-704.5"/>
<text text-anchor="start" x="414" y="-733.5" font-family="FreeSans" font-size="10.00">SeeSawN::UncertaintyEstimation</text>
<text text-anchor="start" x="414" y="-722.5" font-family="FreeSans" font-size="10.00">N::SUTTriangulationProblemC</text>
<text text-anchor="middle" x="486.5" y="-711.5" font-family="FreeSans" font-size="10.00">::InputDimensionality</text>
</a>
</g>
</g>
<!-- Node10&#45;&gt;Node12 -->
<g id="edge10" class="edge"><title>Node10&#45;&gt;Node12</title>
<path fill="none" stroke="midnightblue" d="M82.8274,-456.82C90.6268,-505.48 117.213,-626.849 194,-684 225.128,-707.168 321.899,-717.277 395.481,-721.667"/>
<polygon fill="midnightblue" stroke="midnightblue" points="395.518,-725.175 405.701,-722.25 395.916,-718.186 395.518,-725.175"/>
</g>
<!-- Node13 -->
<g id="node4" class="node"><title>Node13</title>
<g id="a_node4"><a xlink:href="classSeeSawN_1_1UncertaintyEstimationN_1_1SUTTriangulationProblemC.html#ad631875c8d5b1bfc97d85bf68a6a9351" target="_top" xlink:title="Computes the transformed Gaussian. ">
<polygon fill="white" stroke="black" points="201.5,-633.5 201.5,-674.5 362.5,-674.5 362.5,-633.5 201.5,-633.5"/>
<text text-anchor="start" x="209.5" y="-662.5" font-family="FreeSans" font-size="10.00">SeeSawN::UncertaintyEstimation</text>
<text text-anchor="start" x="209.5" y="-651.5" font-family="FreeSans" font-size="10.00">N::SUTTriangulationProblemC</text>
<text text-anchor="middle" x="282" y="-640.5" font-family="FreeSans" font-size="10.00">::ComputeTransformedGaussian</text>
</a>
</g>
</g>
<!-- Node10&#45;&gt;Node13 -->
<g id="edge3" class="edge"><title>Node10&#45;&gt;Node13</title>
<path fill="none" stroke="midnightblue" d="M87.1178,-456.746C101.356,-495.241 136.962,-577.981 194,-624 195.768,-625.426 197.608,-626.787 199.507,-628.085"/>
<polygon fill="midnightblue" stroke="midnightblue" points="197.807,-631.148 208.164,-633.379 201.459,-625.176 197.807,-631.148"/>
</g>
<!-- Node14 -->
<g id="node5" class="node"><title>Node14</title>
<g id="a_node5"><a xlink:href="classSeeSawN_1_1UncertaintyEstimationN_1_1SUTTriangulationProblemC.html#a8f7c071891ed512c1481d018edad3885" target="_top" xlink:title="Decomposes the covariance into two symmetric factors. ">
<polygon fill="white" stroke="black" points="201.5,-573.5 201.5,-614.5 362.5,-614.5 362.5,-573.5 201.5,-573.5"/>
<text text-anchor="start" x="209.5" y="-602.5" font-family="FreeSans" font-size="10.00">SeeSawN::UncertaintyEstimation</text>
<text text-anchor="start" x="209.5" y="-591.5" font-family="FreeSans" font-size="10.00">N::SUTTriangulationProblemC</text>
<text text-anchor="middle" x="282" y="-580.5" font-family="FreeSans" font-size="10.00">::DecomposeCovariance</text>
</a>
</g>
</g>
<!-- Node10&#45;&gt;Node14 -->
<g id="edge4" class="edge"><title>Node10&#45;&gt;Node14</title>
<path fill="none" stroke="midnightblue" d="M94.7522,-456.933C114.602,-483.774 152.271,-530.273 194,-559 199.192,-562.574 204.804,-565.868 210.59,-568.885"/>
<polygon fill="midnightblue" stroke="midnightblue" points="209.27,-572.136 219.789,-573.397 212.352,-565.851 209.27,-572.136"/>
</g>
<!-- Node15 -->
<g id="node6" class="node"><title>Node15</title>
<g id="a_node6"><a xlink:href="classSeeSawN_1_1UncertaintyEstimationN_1_1SUTTriangulationProblemC.html#a909fd46a9af65f9b5498e0fe8e1aba84" target="_top" xlink:title="Returns the input covariance. ">
<polygon fill="white" stroke="black" points="406,-548.5 406,-589.5 567,-589.5 567,-548.5 406,-548.5"/>
<text text-anchor="start" x="414" y="-577.5" font-family="FreeSans" font-size="10.00">SeeSawN::UncertaintyEstimation</text>
<text text-anchor="start" x="414" y="-566.5" font-family="FreeSans" font-size="10.00">N::SUTTriangulationProblemC</text>
<text text-anchor="middle" x="486.5" y="-555.5" font-family="FreeSans" font-size="10.00">::GetCovariance</text>
</a>
</g>
</g>
<!-- Node10&#45;&gt;Node15 -->
<g id="edge6" class="edge"><title>Node10&#45;&gt;Node15</title>
<path fill="none" stroke="midnightblue" d="M99.2623,-456.556C120.364,-477.681 156.261,-509.715 194,-526 229.327,-541.244 323.784,-553.42 395.684,-560.87"/>
<polygon fill="midnightblue" stroke="midnightblue" points="395.368,-564.356 405.672,-561.89 396.079,-557.392 395.368,-564.356"/>
</g>
<!-- Node16 -->
<g id="node7" class="node"><title>Node16</title>
<g id="a_node7"><a xlink:href="structSeeSawN_1_1UncertaintyEstimationN_1_1MultivariateGaussianC.html#a139b0c31c9b90216bd6ba5eb73310b7a" target="_top" xlink:title="Returns a constant reference to covariance. ">
<polygon fill="white" stroke="black" points="201.5,-475.5 201.5,-516.5 362.5,-516.5 362.5,-475.5 201.5,-475.5"/>
<text text-anchor="start" x="209.5" y="-504.5" font-family="FreeSans" font-size="10.00">SeeSawN::UncertaintyEstimation</text>
<text text-anchor="start" x="209.5" y="-493.5" font-family="FreeSans" font-size="10.00">N::MultivariateGaussianC</text>
<text text-anchor="middle" x="282" y="-482.5" font-family="FreeSans" font-size="10.00">::GetCovariance</text>
</a>
</g>
</g>
<!-- Node10&#45;&gt;Node16 -->
<g id="edge7" class="edge"><title>Node10&#45;&gt;Node16</title>
<path fill="none" stroke="midnightblue" d="M148.892,-456.565C166.151,-461.717 184.796,-467.282 202.484,-472.563"/>
<polygon fill="midnightblue" stroke="midnightblue" points="201.615,-475.956 212.198,-475.462 203.617,-469.248 201.615,-475.956"/>
</g>
<!-- Node17 -->
<g id="node8" class="node"><title>Node17</title>
<g id="a_node8"><a xlink:href="classSeeSawN_1_1UncertaintyEstimationN_1_1SUTTriangulationProblemC.html#ae4db29d0174e7445113ce3bf02def9a3" target="_top" xlink:title="Returns the 2D projections as an vector. ">
<polygon fill="white" stroke="black" points="201.5,-415.5 201.5,-456.5 362.5,-456.5 362.5,-415.5 201.5,-415.5"/>
<text text-anchor="start" x="209.5" y="-444.5" font-family="FreeSans" font-size="10.00">SeeSawN::UncertaintyEstimation</text>
<text text-anchor="start" x="209.5" y="-433.5" font-family="FreeSans" font-size="10.00">N::SUTTriangulationProblemC</text>
<text text-anchor="middle" x="282" y="-422.5" font-family="FreeSans" font-size="10.00">::GetInputVector</text>
</a>
</g>
</g>
<!-- Node10&#45;&gt;Node17 -->
<g id="edge8" class="edge"><title>Node10&#45;&gt;Node17</title>
<path fill="none" stroke="midnightblue" d="M158.287,-436C169.09,-436 180.253,-436 191.242,-436"/>
<polygon fill="midnightblue" stroke="midnightblue" points="191.271,-439.5 201.271,-436 191.271,-432.5 191.271,-439.5"/>
</g>
<!-- Node18 -->
<g id="node9" class="node"><title>Node18</title>
<g id="a_node9"><a xlink:href="structSeeSawN_1_1UncertaintyEstimationN_1_1MultivariateGaussianC.html#a4d5857641cf89f71dd418a939b0efcc0" target="_top" xlink:title="Returns a constant reference to mean. ">
<polygon fill="white" stroke="black" points="201.5,-355.5 201.5,-396.5 362.5,-396.5 362.5,-355.5 201.5,-355.5"/>
<text text-anchor="start" x="209.5" y="-384.5" font-family="FreeSans" font-size="10.00">SeeSawN::UncertaintyEstimation</text>
<text text-anchor="start" x="209.5" y="-373.5" font-family="FreeSans" font-size="10.00">N::MultivariateGaussianC</text>
<text text-anchor="middle" x="282" y="-362.5" font-family="FreeSans" font-size="10.00">::GetMean</text>
</a>
</g>
</g>
<!-- Node10&#45;&gt;Node18 -->
<g id="edge9" class="edge"><title>Node10&#45;&gt;Node18</title>
<path fill="none" stroke="midnightblue" d="M148.892,-415.435C166.151,-410.283 184.796,-404.718 202.484,-399.437"/>
<polygon fill="midnightblue" stroke="midnightblue" points="203.617,-402.752 212.198,-396.538 201.615,-396.044 203.617,-402.752"/>
</g>
<!-- Node19 -->
<g id="node10" class="node"><title>Node19</title>
<g id="a_node10"><a xlink:href="classSeeSawN_1_1UncertaintyEstimationN_1_1SUTTriangulationProblemC.html#ad11204ad9a60a8c63efa2e92112f4485" target="_top" xlink:title="Returns flagValid. ">
<polygon fill="white" stroke="black" points="201.5,-295.5 201.5,-336.5 362.5,-336.5 362.5,-295.5 201.5,-295.5"/>
<text text-anchor="start" x="209.5" y="-324.5" font-family="FreeSans" font-size="10.00">SeeSawN::UncertaintyEstimation</text>
<text text-anchor="start" x="209.5" y="-313.5" font-family="FreeSans" font-size="10.00">N::SUTTriangulationProblemC</text>
<text text-anchor="middle" x="282" y="-302.5" font-family="FreeSans" font-size="10.00">::IsValid</text>
</a>
</g>
</g>
<!-- Node10&#45;&gt;Node19 -->
<g id="edge11" class="edge"><title>Node10&#45;&gt;Node19</title>
<path fill="none" stroke="midnightblue" d="M101.545,-415.31C123.362,-395.289 158.818,-365.228 194,-346 197.45,-344.114 201.041,-342.314 204.714,-340.6"/>
<polygon fill="midnightblue" stroke="midnightblue" points="206.238,-343.753 213.977,-336.518 203.415,-337.348 206.238,-343.753"/>
</g>
<!-- Node20 -->
<g id="node11" class="node"><title>Node20</title>
<g id="a_node11"><a xlink:href="classSeeSawN_1_1UncertaintyEstimationN_1_1SUTTriangulationProblemC.html#a4b73bd4dd2022777c9491bc3e87db15d" target="_top" xlink:title="Converts a transformed sample into a vector. ">
<polygon fill="white" stroke="black" points="201.5,-235.5 201.5,-276.5 362.5,-276.5 362.5,-235.5 201.5,-235.5"/>
<text text-anchor="start" x="209.5" y="-264.5" font-family="FreeSans" font-size="10.00">SeeSawN::UncertaintyEstimation</text>
<text text-anchor="start" x="209.5" y="-253.5" font-family="FreeSans" font-size="10.00">N::SUTTriangulationProblemC</text>
<text text-anchor="middle" x="282" y="-242.5" font-family="FreeSans" font-size="10.00">::MakeOutputVector</text>
</a>
</g>
</g>
<!-- Node10&#45;&gt;Node20 -->
<g id="edge12" class="edge"><title>Node10&#45;&gt;Node20</title>
<path fill="none" stroke="midnightblue" d="M90.4106,-415.452C107.683,-383.339 145.245,-321.287 194,-286 196.095,-284.484 198.273,-283.039 200.515,-281.663"/>
<polygon fill="midnightblue" stroke="midnightblue" points="202.408,-284.616 209.441,-276.692 199.001,-278.5 202.408,-284.616"/>
</g>
<!-- Node21 -->
<g id="node12" class="node"><title>Node21</title>
<g id="a_node12"><a xlink:href="classSeeSawN_1_1UncertaintyEstimationN_1_1SUTTriangulationProblemC.html#a6c397bfcb21f70ba29af4b4b98b9fe27" target="_top" xlink:title="Returns false. ">
<polygon fill="white" stroke="black" points="201.5,-175.5 201.5,-216.5 362.5,-216.5 362.5,-175.5 201.5,-175.5"/>
<text text-anchor="start" x="209.5" y="-204.5" font-family="FreeSans" font-size="10.00">SeeSawN::UncertaintyEstimation</text>
<text text-anchor="start" x="209.5" y="-193.5" font-family="FreeSans" font-size="10.00">N::SUTTriangulationProblemC</text>
<text text-anchor="middle" x="282" y="-182.5" font-family="FreeSans" font-size="10.00">::NeedValidator</text>
</a>
</g>
</g>
<!-- Node10&#45;&gt;Node21 -->
<g id="edge13" class="edge"><title>Node10&#45;&gt;Node21</title>
<path fill="none" stroke="midnightblue" d="M85.6267,-415.461C98.0923,-373.732 131.956,-278.552 194,-226 195.554,-224.683 197.17,-223.424 198.836,-222.218"/>
<polygon fill="midnightblue" stroke="midnightblue" points="201.019,-224.976 207.548,-216.632 197.24,-219.084 201.019,-224.976"/>
</g>
<!-- Node22 -->
<g id="node13" class="node"><title>Node22</title>
<g id="a_node13"><a xlink:href="classSeeSawN_1_1UncertaintyEstimationN_1_1ScaledUnscentedTransformationC.html#ad8228f30447897569ade041b9e4ff60d" target="_top" xlink:title="Applies SUT. ">
<polygon fill="white" stroke="black" points="196.5,-115.5 196.5,-156.5 367.5,-156.5 367.5,-115.5 196.5,-115.5"/>
<text text-anchor="start" x="204.5" y="-144.5" font-family="FreeSans" font-size="10.00">SeeSawN::UncertaintyEstimation</text>
<text text-anchor="start" x="204.5" y="-133.5" font-family="FreeSans" font-size="10.00">N::ScaledUnscentedTransformation</text>
<text text-anchor="middle" x="282" y="-122.5" font-family="FreeSans" font-size="10.00">C::Run</text>
</a>
</g>
</g>
<!-- Node10&#45;&gt;Node22 -->
<g id="edge14" class="edge"><title>Node10&#45;&gt;Node22</title>
<path fill="none" stroke="midnightblue" d="M82.9326,-415.143C91.0722,-364.981 118.541,-236.533 194,-166 195.284,-164.8 196.618,-163.648 197.996,-162.541"/>
<polygon fill="midnightblue" stroke="midnightblue" points="200.149,-165.306 206.317,-156.692 196.123,-159.579 200.149,-165.306"/>
</g>
<!-- Node23 -->
<g id="node14" class="node"><title>Node23</title>
<g id="a_node14"><a xlink:href="classSeeSawN_1_1UncertaintyEstimationN_1_1SUTTriangulationProblemC.html#aef734d4b1e925f89e4fe5307c7b2a8f8" target="_top" xlink:title="Transforms a perturbed sample. ">
<polygon fill="white" stroke="black" points="201.5,-55.5 201.5,-96.5 362.5,-96.5 362.5,-55.5 201.5,-55.5"/>
<text text-anchor="start" x="209.5" y="-84.5" font-family="FreeSans" font-size="10.00">SeeSawN::UncertaintyEstimation</text>
<text text-anchor="start" x="209.5" y="-73.5" font-family="FreeSans" font-size="10.00">N::SUTTriangulationProblemC</text>
<text text-anchor="middle" x="282" y="-62.5" font-family="FreeSans" font-size="10.00">::TransformPerturbed</text>
</a>
</g>
</g>
<!-- Node10&#45;&gt;Node23 -->
<g id="edge15" class="edge"><title>Node10&#45;&gt;Node23</title>
<path fill="none" stroke="midnightblue" d="M81.0854,-415.36C85.2082,-358.053 104.611,-195.339 194,-106 195.095,-104.906 196.231,-103.852 197.405,-102.836"/>
<polygon fill="midnightblue" stroke="midnightblue" points="199.729,-105.468 205.637,-96.673 195.534,-99.8642 199.729,-105.468"/>
</g>
<!-- Node11&#45;&gt;Node12 -->
<g id="edge2" class="edge"><title>Node11&#45;&gt;Node12</title>
<path fill="none" stroke="midnightblue" d="M370.053,-737.542C378.606,-736.613 387.296,-735.669 395.873,-734.737"/>
<polygon fill="midnightblue" stroke="midnightblue" points="396.312,-738.21 405.875,-733.651 395.556,-731.251 396.312,-738.21"/>
</g>
<!-- Node14&#45;&gt;Node15 -->
<g id="edge5" class="edge"><title>Node14&#45;&gt;Node15</title>
<path fill="none" stroke="midnightblue" d="M362.743,-584.155C373.589,-582.816 384.781,-581.434 395.788,-580.076"/>
<polygon fill="midnightblue" stroke="midnightblue" points="396.334,-583.535 405.83,-578.836 395.476,-576.588 396.334,-583.535"/>
</g>
<!-- Node24 -->
<g id="node15" class="node"><title>Node24</title>
<g id="a_node15"><a xlink:href="classSeeSawN_1_1GeometryN_1_1TriangulatorC.html#aa79e87218bf7af60ec8dca394d60359f" target="_top" xlink:title="Optimal triangulation. ">
<polygon fill="white" stroke="black" points="421,-61 421,-91 552,-91 552,-61 421,-61"/>
<text text-anchor="start" x="429" y="-79" font-family="FreeSans" font-size="10.00">SeeSawN::GeometryN</text>
<text text-anchor="middle" x="486.5" y="-68" font-family="FreeSans" font-size="10.00">::TriangulatorC::Triangulate</text>
</a>
</g>
</g>
<!-- Node23&#45;&gt;Node24 -->
<g id="edge16" class="edge"><title>Node23&#45;&gt;Node24</title>
<path fill="none" stroke="midnightblue" d="M362.743,-76C378.54,-76 395.07,-76 410.696,-76"/>
<polygon fill="midnightblue" stroke="midnightblue" points="410.818,-79.5001 420.818,-76 410.818,-72.5001 410.818,-79.5001"/>
</g>
<!-- Node25 -->
<g id="node16" class="node"><title>Node25</title>
<g id="a_node16"><a xlink:href="classSeeSawN_1_1GeometryN_1_1TriangulatorC.html#a617ff091b073b5723c571f86a442fe6d" target="_top" xlink:title="Eigen triangulation. ">
<polygon fill="white" stroke="black" points="603,-110 603,-140 766,-140 766,-110 603,-110"/>
<text text-anchor="start" x="611" y="-128" font-family="FreeSans" font-size="10.00">SeeSawN::GeometryN</text>
<text text-anchor="middle" x="684.5" y="-117" font-family="FreeSans" font-size="10.00">::TriangulatorC::EigenTriangulation</text>
</a>
</g>
</g>
<!-- Node24&#45;&gt;Node25 -->
<g id="edge17" class="edge"><title>Node24&#45;&gt;Node25</title>
<path fill="none" stroke="midnightblue" d="M547.638,-91.0346C568.521,-96.2554 592.115,-102.154 613.71,-107.553"/>
<polygon fill="midnightblue" stroke="midnightblue" points="612.925,-110.964 623.475,-109.994 614.623,-104.173 612.925,-110.964"/>
</g>
<!-- Node26 -->
<g id="node17" class="node"><title>Node26</title>
<g id="a_node17"><a xlink:href="namespaceSeeSawN_1_1GeometryN.html#aa10dc98c6d315aede280319397c26122" target="_top" xlink:title="Projects a 2D correspondence to the epipolar manifold defined by a fundamental matrix. ">
<polygon fill="white" stroke="black" points="607.5,-61 607.5,-91 761.5,-91 761.5,-61 607.5,-61"/>
<text text-anchor="start" x="615.5" y="-79" font-family="FreeSans" font-size="10.00">SeeSawN::GeometryN</text>
<text text-anchor="middle" x="684.5" y="-68" font-family="FreeSans" font-size="10.00">::FastProjectToEpipolarManifold</text>
</a>
</g>
</g>
<!-- Node24&#45;&gt;Node26 -->
<g id="edge18" class="edge"><title>Node24&#45;&gt;Node26</title>
<path fill="none" stroke="midnightblue" d="M552.221,-76C566.535,-76 581.925,-76 596.95,-76"/>
<polygon fill="midnightblue" stroke="midnightblue" points="597.276,-79.5001 607.276,-76 597.276,-72.5001 597.276,-79.5001"/>
</g>
<!-- Node27 -->
<g id="node18" class="node"><title>Node27</title>
<g id="a_node18"><a xlink:href="namespaceSeeSawN_1_1GeometryN.html#a1eca736101f6ea54f29b54b133361cfc" target="_top" xlink:title="Projects a 2D correspondence to the epipolar manifold defined by a fundamental matrix. ">
<polygon fill="white" stroke="black" points="619,-0.5 619,-41.5 750,-41.5 750,-0.5 619,-0.5"/>
<text text-anchor="start" x="627" y="-29.5" font-family="FreeSans" font-size="10.00">SeeSawN::GeometryN</text>
<text text-anchor="start" x="627" y="-18.5" font-family="FreeSans" font-size="10.00">::OptimalProjectToEpipolar</text>
<text text-anchor="middle" x="684.5" y="-7.5" font-family="FreeSans" font-size="10.00">Manifold</text>
</a>
</g>
</g>
<!-- Node24&#45;&gt;Node27 -->
<g id="edge19" class="edge"><title>Node24&#45;&gt;Node27</title>
<path fill="none" stroke="midnightblue" d="M541.058,-60.971C561.989,-55.0974 586.352,-48.2608 608.948,-41.9201"/>
<polygon fill="midnightblue" stroke="midnightblue" points="610.165,-45.2141 618.847,-39.1424 608.273,-38.4744 610.165,-45.2141"/>
</g>
</g>
</svg>
        <g id="navigator" transform="translate(0 0)" fill="#404254">
                <rect fill="#f2f5e9" fill-opacity="0.5" stroke="#606060" stroke-width=".5" x="0" y="0" width="60" height="60"/>
                <use id="zoomplus" xlink:href="#zoomPlus" x="17" y="9" onmousedown="handleZoom(evt,'in')"/>
                <use id="zoomminus" xlink:href="#zoomMin" x="42" y="9" onmousedown="handleZoom(evt,'out')"/>
                <use id="reset" xlink:href="#resetDef" x="30" y="36" onmousedown="handleReset()"/>
                <g id="arrowUp" xlink:href="#dirArrow" transform="translate(30 24)" onmousedown="handlePan(0,-1)">
                  <use xlink:href="#rim" fill="#404040">
                        <set attributeName="fill" to="#808080" begin="arrowUp.mouseover" end="arrowUp.mouseout"/>
                  </use>
                  <path fill="none" stroke="white" stroke-width="1.5" d="M0,-3.0v7 M-2.5,-0.5L0,-3.0L2.5,-0.5"/>
                </g>
                <g id="arrowRight" xlink:href="#dirArrow" transform="rotate(90) translate(36 -43)" onmousedown="handlePan(1,0)">
                  <use xlink:href="#rim" fill="#404040">
                        <set attributeName="fill" to="#808080" begin="arrowRight.mouseover" end="arrowRight.mouseout"/>
                  </use>
                  <path fill="none" stroke="white" stroke-width="1.5" d="M0,-3.0v7 M-2.5,-0.5L0,-3.0L2.5,-0.5"/>
                </g>
                <g id="arrowDown" xlink:href="#dirArrow" transform="rotate(180) translate(-30 -48)" onmousedown="handlePan(0,1)">
                  <use xlink:href="#rim" fill="#404040">
                        <set attributeName="fill" to="#808080" begin="arrowDown.mouseover" end="arrowDown.mouseout"/>
                  </use>
                  <path fill="none" stroke="white" stroke-width="1.5" d="M0,-3.0v7 M-2.5,-0.5L0,-3.0L2.5,-0.5"/>
                </g>
                <g id="arrowLeft" xlink:href="#dirArrow" transform="rotate(270) translate(-36 17)" onmousedown="handlePan(-1,0)">
                  <use xlink:href="#rim" fill="#404040">
                        <set attributeName="fill" to="#808080" begin="arrowLeft.mouseover" end="arrowLeft.mouseout"/>
                  </use>
                  <path fill="none" stroke="white" stroke-width="1.5" d="M0,-3.0v7 M-2.5,-0.5L0,-3.0L2.5,-0.5"/>
                </g>
        </g>
        <svg viewBox="0 0 15 15" width="100%" height="30px" preserveAspectRatio="xMaxYMin meet">
         <g id="arrow_out" transform="scale(0.3 0.3)">
          <a xlink:href="namespaceSeeSawN_1_1UnitTestsN_1_1TestUncertaintyEstimationN_a50e92ae5353eb4fc5ac7741caa87a793_cgraph_org.svg" target="_base">
           <rect id="button" ry="5" rx="5" y="6" x="6" height="38" width="38"
                fill="#f2f5e9" fill-opacity="0.5" stroke="#606060" stroke-width="1.0"/>
           <path id="arrow"
             d="M 11.500037,31.436501 C 11.940474,20.09759 22.043105,11.32322 32.158766,21.979434 L 37.068811,17.246167 C 37.068811,17.246167 37.088388,32 37.088388,32 L 22.160133,31.978069 C 22.160133,31.978069 26.997745,27.140456 26.997745,27.140456 C 18.528582,18.264221 13.291696,25.230495 11.500037,31.436501 z"
             style="fill:#404040;"/>
          </a>
         </g>
        </svg>
</svg>
