<?xml version="1.0" encoding="UTF-8" standalone="no"?>
<!DOCTYPE svg PUBLIC "-//W3C//DTD SVG 1.1//EN"
 "http://www.w3.org/Graphics/SVG/1.1/DTD/svg11.dtd">
<!-- Generated by graphviz version 2.38.0 (20140413.2041)
 -->
<!-- Title: SeeSawN::UnitTestsN::TestRandomSpanningTreeSamplerN::BOOST_AUTO_TEST_SUITE_END Pages: 1 -->
<svg width="381pt" height="50pt"
 viewBox="0.00 0.00 381.00 50.00" xmlns="http://www.w3.org/2000/svg" xmlns:xlink="http://www.w3.org/1999/xlink">
<g id="graph0" class="graph" transform="scale(1 1) rotate(0) translate(4 46)">
<title>SeeSawN::UnitTestsN::TestRandomSpanningTreeSamplerN::BOOST_AUTO_TEST_SUITE_END</title>
<polygon fill="white" stroke="none" points="-4,4 -4,-46 377,-46 377,4 -4,4"/>
<!-- Node27 -->
<g id="node1" class="node"><title>Node27</title>
<polygon fill="#bfbfbf" stroke="black" points="0,-0.5 0,-41.5 186,-41.5 186,-0.5 0,-0.5"/>
<text text-anchor="start" x="8" y="-29.5" font-family="FreeSans" font-size="10.00">SeeSawN::UnitTestsN</text>
<text text-anchor="start" x="8" y="-18.5" font-family="FreeSans" font-size="10.00">::TestRandomSpanningTreeSampler</text>
<text text-anchor="middle" x="93" y="-7.5" font-family="FreeSans" font-size="10.00">N::BOOST_AUTO_TEST_SUITE_END</text>
</g>
<!-- Node28 -->
<g id="node2" class="node"><title>Node28</title>
<g id="a_node2"><a xlink:href="namespaceSeeSawN_1_1NumericN.html#a4212174cae82d3ad9bee75e2c1046e81" target="_top" xlink:title="SeeSawN::NumericN::\lComputeClosestRotationMatrix">
<polygon fill="white" stroke="black" points="222,-6 222,-36 373,-36 373,-6 222,-6"/>
<text text-anchor="start" x="230" y="-24" font-family="FreeSans" font-size="10.00">SeeSawN::NumericN::</text>
<text text-anchor="middle" x="297.5" y="-13" font-family="FreeSans" font-size="10.00">ComputeClosestRotationMatrix</text>
</a>
</g>
</g>
<!-- Node27&#45;&gt;Node28 -->
<g id="edge1" class="edge"><title>Node27&#45;&gt;Node28</title>
<path fill="none" stroke="midnightblue" d="M186.066,-21C194.608,-21 203.238,-21 211.71,-21"/>
<polygon fill="midnightblue" stroke="midnightblue" points="211.949,-24.5001 221.949,-21 211.948,-17.5001 211.949,-24.5001"/>
</g>
</g>
</svg>
