<?xml version="1.0" encoding="UTF-8" standalone="no"?>
<!DOCTYPE svg PUBLIC "-//W3C//DTD SVG 1.1//EN"
 "http://www.w3.org/Graphics/SVG/1.1/DTD/svg11.dtd">
<!-- Generated by graphviz version 2.38.0 (20140413.2041)
 -->
<!-- Title: src/Matcher/NearestNeighbourMatcher.ipp Pages: 1 -->
<!--zoomable 430 -->
<svg id="main" version="1.1" xmlns="http://www.w3.org/2000/svg" xmlns:xlink="http://www.w3.org/1999/xlink" xml:space="preserve" onload="init(evt)">
<style type="text/css"><![CDATA[
.edge:hover path { stroke: red; }
.edge:hover polygon { stroke: red; fill: red; }
]]></style>
<script type="text/javascript"><![CDATA[
var edges = document.getElementsByTagName('g');
if (edges && edges.length) {
  for (var i=0;i<edges.length;i++) {
    if (edges[i].id.substr(0,4)=='edge') {
      edges[i].setAttribute('class','edge');
    }
  }
}
]]></script>
        <defs>
                <circle id="rim" cx="0" cy="0" r="7"/>
                <circle id="rim2" cx="0" cy="0" r="3.5"/>
                <g id="zoomPlus">
                        <use xlink:href="#rim" fill="#404040">
                                <set attributeName="fill" to="#808080" begin="zoomplus.mouseover" end="zoomplus.mouseout"/>
                        </use>
                        <path d="M-4,0h8M0,-4v8" fill="none" stroke="white" stroke-width="1.5" pointer-events="none"/>
                </g>
                <g id="zoomMin">
                        <use xlink:href="#rim" fill="#404040">
                                <set attributeName="fill" to="#808080" begin="zoomminus.mouseover" end="zoomminus.mouseout"/>
                        </use>
                        <path d="M-4,0h8" fill="none" stroke="white" stroke-width="1.5" pointer-events="none"/>
                </g>
                <g id="dirArrow">
                        <path fill="none" stroke="white" stroke-width="1.5" d="M0,-3.0v7 M-2.5,-0.5L0,-3.0L2.5,-0.5"/>
                </g>
               <g id="resetDef">
                       <use xlink:href="#rim2" fill="#404040">
                               <set attributeName="fill" to="#808080" begin="reset.mouseover" end="reset.mouseout"/>
                       </use>
               </g>
        </defs>

<script type="text/javascript">
var viewWidth = 3821;
var viewHeight = 430;
var sectionId = 'dynsection-0';
</script>
<script xlink:href="svgpan.js"/>
<svg id="graph" class="graph">
<g id="viewport">
<title>src/Matcher/NearestNeighbourMatcher.ipp</title>
<polygon fill="white" stroke="none" points="-4,4 -4,-426 3816.5,-426 3816.5,4 -4,4"/>
<!-- Node0 -->
<g id="node1" class="node"><title>Node0</title>
<polygon fill="#bfbfbf" stroke="black" points="1695.5,-391.5 1695.5,-421.5 1845.5,-421.5 1845.5,-391.5 1695.5,-391.5"/>
<text text-anchor="start" x="1703.5" y="-409.5" font-family="FreeSans" font-size="10.00">src/Matcher/NearestNeighbour</text>
<text text-anchor="middle" x="1770.5" y="-398.5" font-family="FreeSans" font-size="10.00">Matcher.ipp</text>
</g>
<!-- Node1 -->
<g id="node2" class="node"><title>Node1</title>
<polygon fill="white" stroke="#bfbfbf" points="2121.5,-6 2121.5,-25 2249.5,-25 2249.5,-6 2121.5,-6"/>
<text text-anchor="middle" x="2185.5" y="-13" font-family="FreeSans" font-size="10.00">boost/concept_check.hpp</text>
</g>
<!-- Node0&#45;&gt;Node1 -->
<g id="edge1" class="edge"><title>Node0&#45;&gt;Node1</title>
<path fill="none" stroke="midnightblue" d="M1782.38,-391.31C1789.96,-381.62 1799.46,-368.192 1805.5,-355 1821.06,-320.986 1826.5,-310.905 1826.5,-273.5 1826.5,-273.5 1826.5,-273.5 1826.5,-148.5 1826.5,-111.306 1817.98,-92.0212 1845.5,-67 1889.8,-26.7236 2053.44,-40.8368 2112.5,-31 2119.86,-29.7748 2127.6,-28.3651 2135.2,-26.9164"/>
<polygon fill="midnightblue" stroke="midnightblue" points="2135.89,-30.3469 2145.04,-25.0016 2134.55,-23.4757 2135.89,-30.3469"/>
</g>
<!-- Node2 -->
<g id="node3" class="node"><title>Node2</title>
<polygon fill="white" stroke="#bfbfbf" points="1035,-330 1035,-349 1148,-349 1148,-330 1035,-330"/>
<text text-anchor="middle" x="1091.5" y="-337" font-family="FreeSans" font-size="10.00">boost/lexical_cast.hpp</text>
</g>
<!-- Node0&#45;&gt;Node2 -->
<g id="edge2" class="edge"><title>Node0&#45;&gt;Node2</title>
<path fill="none" stroke="midnightblue" d="M1695.3,-402.127C1580.13,-396.314 1353.33,-382.313 1162.5,-355 1154.79,-353.897 1146.67,-352.48 1138.77,-350.966"/>
<polygon fill="midnightblue" stroke="midnightblue" points="1139.43,-347.529 1128.94,-349.011 1138.06,-354.394 1139.43,-347.529"/>
</g>
<!-- Node3 -->
<g id="node4" class="node"><title>Node3</title>
<polygon fill="white" stroke="#bfbfbf" points="1541,-201.5 1541,-220.5 1636,-220.5 1636,-201.5 1541,-201.5"/>
<text text-anchor="middle" x="1588.5" y="-208.5" font-family="FreeSans" font-size="10.00">boost/optional.hpp</text>
</g>
<!-- Node0&#45;&gt;Node3 -->
<g id="edge3" class="edge"><title>Node0&#45;&gt;Node3</title>
<path fill="none" stroke="midnightblue" d="M1695.27,-395.794C1668.24,-388.67 1639.71,-376.338 1620.5,-355 1589.09,-320.119 1586.33,-261.235 1587.24,-231.067"/>
<polygon fill="midnightblue" stroke="midnightblue" points="1590.76,-230.851 1587.74,-220.695 1583.77,-230.516 1590.76,-230.851"/>
</g>
<!-- Node4 -->
<g id="node5" class="node"><title>Node4</title>
<polygon fill="white" stroke="#bfbfbf" points="1274.5,-324.5 1274.5,-354.5 1370.5,-354.5 1370.5,-324.5 1274.5,-324.5"/>
<text text-anchor="start" x="1282.5" y="-342.5" font-family="FreeSans" font-size="10.00">boost/heap/pairing</text>
<text text-anchor="middle" x="1322.5" y="-331.5" font-family="FreeSans" font-size="10.00">_heap.hpp</text>
</g>
<!-- Node0&#45;&gt;Node4 -->
<g id="edge4" class="edge"><title>Node0&#45;&gt;Node4</title>
<path fill="none" stroke="midnightblue" d="M1695.44,-397.921C1617.4,-389.518 1491.89,-374.532 1384.5,-355 1383.25,-354.772 1381.98,-354.535 1380.7,-354.29"/>
<polygon fill="midnightblue" stroke="midnightblue" points="1381.3,-350.84 1370.8,-352.287 1379.91,-357.701 1381.3,-350.84"/>
</g>
<!-- Node5 -->
<g id="node6" class="node"><title>Node5</title>
<polygon fill="white" stroke="#bfbfbf" points="2941.5,-140 2941.5,-159 2979.5,-159 2979.5,-140 2941.5,-140"/>
<text text-anchor="middle" x="2960.5" y="-147" font-family="FreeSans" font-size="10.00">tuple</text>
</g>
<!-- Node0&#45;&gt;Node5 -->
<g id="edge5" class="edge"><title>Node0&#45;&gt;Node5</title>
<path fill="none" stroke="midnightblue" d="M1845.62,-404.555C2063.52,-401.416 2685.72,-389.504 2770.5,-355 2861.92,-317.794 2928.14,-210.347 2951.39,-167.977"/>
<polygon fill="midnightblue" stroke="midnightblue" points="2954.5,-169.577 2956.14,-159.111 2948.33,-166.269 2954.5,-169.577"/>
</g>
<!-- Node6 -->
<g id="node7" class="node"><title>Node6</title>
<polygon fill="white" stroke="#bfbfbf" points="2065.5,-6 2065.5,-25 2103.5,-25 2103.5,-6 2065.5,-6"/>
<text text-anchor="middle" x="2084.5" y="-13" font-family="FreeSans" font-size="10.00">array</text>
</g>
<!-- Node0&#45;&gt;Node6 -->
<g id="edge6" class="edge"><title>Node0&#45;&gt;Node6</title>
<path fill="none" stroke="midnightblue" d="M1695.18,-398.685C1619.03,-387.168 1512.5,-356.266 1512.5,-273.5 1512.5,-273.5 1512.5,-273.5 1512.5,-210 1512.5,-155.929 1560.74,-161.152 1607.5,-134 1677.37,-93.4265 1698.27,-87.2155 1776.5,-67 1897.55,-35.7185 1935.91,-67.4685 2055.5,-31 2057.17,-30.492 2058.85,-29.8951 2060.53,-29.2381"/>
<polygon fill="midnightblue" stroke="midnightblue" points="2062.18,-32.3335 2069.85,-25.0197 2059.29,-25.9569 2062.18,-32.3335"/>
</g>
<!-- Node7 -->
<g id="node8" class="node"><title>Node7</title>
<polygon fill="white" stroke="#bfbfbf" points="1865.5,-6 1865.5,-25 1921.5,-25 1921.5,-6 1865.5,-6"/>
<text text-anchor="middle" x="1893.5" y="-13" font-family="FreeSans" font-size="10.00">algorithm</text>
</g>
<!-- Node0&#45;&gt;Node7 -->
<g id="edge7" class="edge"><title>Node0&#45;&gt;Node7</title>
<path fill="none" stroke="midnightblue" d="M1695.5,-403.865C1605.63,-400.366 1462.17,-389.392 1422.5,-355 1393.97,-330.265 1398.5,-311.26 1398.5,-273.5 1398.5,-273.5 1398.5,-273.5 1398.5,-148.5 1398.5,-110.74 1393.23,-90.8512 1422.5,-67 1497.35,-6.0114 1761.35,-52.4231 1855.5,-31 1858.5,-30.317 1861.58,-29.4462 1864.63,-28.4712"/>
<polygon fill="midnightblue" stroke="midnightblue" points="1865.85,-31.7509 1874.1,-25.105 1863.51,-25.1549 1865.85,-31.7509"/>
</g>
<!-- Node8 -->
<g id="node9" class="node"><title>Node8</title>
<polygon fill="white" stroke="#bfbfbf" points="2491,-6 2491,-25 2538,-25 2538,-6 2491,-6"/>
<text text-anchor="middle" x="2514.5" y="-13" font-family="FreeSans" font-size="10.00">iterator</text>
</g>
<!-- Node0&#45;&gt;Node8 -->
<g id="edge8" class="edge"><title>Node0&#45;&gt;Node8</title>
<path fill="none" stroke="midnightblue" d="M1845.53,-399.758C2031.82,-384.499 2500.5,-339.546 2500.5,-273.5 2500.5,-273.5 2500.5,-273.5 2500.5,-148.5 2500.5,-107.931 2507.12,-60.7387 2511.26,-35.2156"/>
<polygon fill="midnightblue" stroke="midnightblue" points="2514.75,-35.5561 2512.95,-25.1152 2507.84,-34.3992 2514.75,-35.5561"/>
</g>
<!-- Node9 -->
<g id="node10" class="node"><title>Node9</title>
<polygon fill="white" stroke="#bfbfbf" points="2831,-140 2831,-159 2870,-159 2870,-140 2831,-140"/>
<text text-anchor="middle" x="2850.5" y="-147" font-family="FreeSans" font-size="10.00">utility</text>
</g>
<!-- Node0&#45;&gt;Node9 -->
<g id="edge9" class="edge"><title>Node0&#45;&gt;Node9</title>
<path fill="none" stroke="midnightblue" d="M1845.81,-404.821C2053.05,-402.474 2621.38,-392.643 2696.5,-355 2776.72,-314.8 2826.19,-210.819 2843.52,-168.658"/>
<polygon fill="midnightblue" stroke="midnightblue" points="2846.78,-169.933 2847.23,-159.348 2840.28,-167.341 2846.78,-169.933"/>
</g>
<!-- Node10 -->
<g id="node11" class="node"><title>Node10</title>
<polygon fill="white" stroke="#bfbfbf" points="0,-6 0,-25 59,-25 59,-6 0,-6"/>
<text text-anchor="middle" x="29.5" y="-13" font-family="FreeSans" font-size="10.00">stdexcept</text>
</g>
<!-- Node0&#45;&gt;Node10 -->
<g id="edge10" class="edge"><title>Node0&#45;&gt;Node10</title>
<path fill="none" stroke="midnightblue" d="M1695.47,-405.51C1425.36,-404.57 518.5,-392.55 518.5,-273.5 518.5,-273.5 518.5,-273.5 518.5,-148.5 518.5,58.6355 264.781,-94.1286 67.5,-31 65.0873,-30.228 62.6046,-29.3875 60.1188,-28.5131"/>
<polygon fill="midnightblue" stroke="midnightblue" points="61.252,-25.2008 50.6583,-25.0443 58.8422,-31.7729 61.252,-25.2008"/>
</g>
<!-- Node11 -->
<g id="node12" class="node"><title>Node11</title>
<polygon fill="white" stroke="#bfbfbf" points="2888,-140 2888,-159 2923,-159 2923,-140 2888,-140"/>
<text text-anchor="middle" x="2905.5" y="-147" font-family="FreeSans" font-size="10.00">map</text>
</g>
<!-- Node0&#45;&gt;Node11 -->
<g id="edge11" class="edge"><title>Node0&#45;&gt;Node11</title>
<path fill="none" stroke="midnightblue" d="M1845.86,-404.581C2058.37,-401.564 2652.17,-390.063 2732.5,-355 2819.12,-317.189 2877.25,-210.519 2897.52,-168.159"/>
<polygon fill="midnightblue" stroke="midnightblue" points="2900.71,-169.609 2901.76,-159.067 2894.36,-166.651 2900.71,-169.609"/>
</g>
<!-- Node12 -->
<g id="node13" class="node"><title>Node12</title>
<polygon fill="white" stroke="#bfbfbf" points="1939.5,-6 1939.5,-25 1983.5,-25 1983.5,-6 1939.5,-6"/>
<text text-anchor="middle" x="1961.5" y="-13" font-family="FreeSans" font-size="10.00">vector</text>
</g>
<!-- Node0&#45;&gt;Node12 -->
<g id="edge12" class="edge"><title>Node0&#45;&gt;Node12</title>
<path fill="none" stroke="midnightblue" d="M1695.31,-397.673C1626.54,-389.424 1530.76,-374.866 1498.5,-355 1459.75,-331.133 1436.5,-319.012 1436.5,-273.5 1436.5,-273.5 1436.5,-273.5 1436.5,-148.5 1436.5,-66.7086 1522.98,-89.909 1601.5,-67 1742.71,-25.8001 1788.86,-70.6953 1930.5,-31 1932.43,-30.4589 1934.39,-29.8084 1936.34,-29.0868"/>
<polygon fill="midnightblue" stroke="midnightblue" points="1937.96,-32.1995 1945.8,-25.0634 1935.22,-25.7584 1937.96,-32.1995"/>
</g>
<!-- Node13 -->
<g id="node14" class="node"><title>Node13</title>
<polygon fill="white" stroke="#bfbfbf" points="77,-6 77,-25 118,-25 118,-6 77,-6"/>
<text text-anchor="middle" x="97.5" y="-13" font-family="FreeSans" font-size="10.00">string</text>
</g>
<!-- Node0&#45;&gt;Node13 -->
<g id="edge13" class="edge"><title>Node0&#45;&gt;Node13</title>
<path fill="none" stroke="midnightblue" d="M1695.14,-403.757C1573.62,-399.985 1340.4,-388.5 1265.5,-355 1216.54,-333.103 1176.5,-327.135 1176.5,-273.5 1176.5,-273.5 1176.5,-273.5 1176.5,-148.5 1176.5,-4.24744 675.923,-82.4443 532.5,-67 352.829,-47.6525 301.69,-79.1036 127.5,-31 125.775,-30.5236 124.029,-29.9506 122.291,-29.3113"/>
<polygon fill="midnightblue" stroke="midnightblue" points="123.22,-25.8994 112.653,-25.1355 120.438,-32.3225 123.22,-25.8994"/>
</g>
<!-- Node14 -->
<g id="node15" class="node"><title>Node14</title>
<polygon fill="white" stroke="#bfbfbf" points="3687,-140 3687,-159 3746,-159 3746,-140 3687,-140"/>
<text text-anchor="middle" x="3716.5" y="-147" font-family="FreeSans" font-size="10.00">functional</text>
</g>
<!-- Node0&#45;&gt;Node14 -->
<g id="edge14" class="edge"><title>Node0&#45;&gt;Node14</title>
<path fill="none" stroke="midnightblue" d="M1845.63,-406.301C2017.38,-407.164 2451.59,-403.843 2810.5,-355 3150.84,-308.683 3552.07,-197.859 3677.23,-161.945"/>
<polygon fill="midnightblue" stroke="midnightblue" points="3678.48,-165.227 3687.12,-159.097 3676.54,-158.5 3678.48,-165.227"/>
</g>
<!-- Node15 -->
<g id="node16" class="node"><title>Node15</title>
<polygon fill="white" stroke="#bfbfbf" points="3504,-6 3504,-25 3553,-25 3553,-6 3504,-6"/>
<text text-anchor="middle" x="3528.5" y="-13" font-family="FreeSans" font-size="10.00">cstddef</text>
</g>
<!-- Node0&#45;&gt;Node15 -->
<g id="edge15" class="edge"><title>Node0&#45;&gt;Node15</title>
<path fill="none" stroke="midnightblue" d="M1845.7,-404.557C2210.07,-399.507 3774.5,-372.081 3774.5,-273.5 3774.5,-273.5 3774.5,-273.5 3774.5,-148.5 3774.5,-101.131 3631.08,-49.1431 3563.26,-27.2056"/>
<polygon fill="midnightblue" stroke="midnightblue" points="3564.03,-23.7783 3553.44,-24.0694 3561.9,-30.4464 3564.03,-23.7783"/>
</g>
<!-- Node16 -->
<g id="node17" class="node"><title>Node16</title>
<polygon fill="white" stroke="#bfbfbf" points="3636.5,-6 3636.5,-25 3680.5,-25 3680.5,-6 3636.5,-6"/>
<text text-anchor="middle" x="3658.5" y="-13" font-family="FreeSans" font-size="10.00">cmath</text>
</g>
<!-- Node0&#45;&gt;Node16 -->
<g id="edge16" class="edge"><title>Node0&#45;&gt;Node16</title>
<path fill="none" stroke="midnightblue" d="M1845.71,-404.999C2130.29,-402.833 3141.1,-392.606 3460.5,-355 3619.98,-336.223 3812.5,-434.083 3812.5,-273.5 3812.5,-273.5 3812.5,-273.5 3812.5,-148.5 3812.5,-84.6617 3735.27,-45.0421 3690.19,-27.3541"/>
<polygon fill="midnightblue" stroke="midnightblue" points="3691.16,-23.9765 3680.56,-23.7162 3688.68,-30.5247 3691.16,-23.9765"/>
</g>
<!-- Node17 -->
<g id="node18" class="node"><title>Node17</title>
<g id="a_node18"><a xlink:href="NearestNeighbourMatcherProblemConcept_8h.html" target="_top" xlink:title="NearestNeighbourMatcherProblem\lConcept.h">
<polygon fill="white" stroke="black" points="1630,-324.5 1630,-354.5 1797,-354.5 1797,-324.5 1630,-324.5"/>
<text text-anchor="start" x="1638" y="-342.5" font-family="FreeSans" font-size="10.00">NearestNeighbourMatcherProblem</text>
<text text-anchor="middle" x="1713.5" y="-331.5" font-family="FreeSans" font-size="10.00">Concept.h</text>
</a>
</g>
</g>
<!-- Node0&#45;&gt;Node17 -->
<g id="edge17" class="edge"><title>Node0&#45;&gt;Node17</title>
<path fill="none" stroke="midnightblue" d="M1758.13,-391.396C1750.66,-382.878 1740.99,-371.847 1732.56,-362.233"/>
<polygon fill="midnightblue" stroke="midnightblue" points="1735.07,-359.787 1725.84,-354.577 1729.81,-364.403 1735.07,-359.787"/>
</g>
<!-- Node19 -->
<g id="node20" class="node"><title>Node19</title>
<g id="a_node20"><a xlink:href="Correspondence_8h.html" target="_top" xlink:title="../Elements/Correspondence.h">
<polygon fill="white" stroke="black" points="2541.5,-330 2541.5,-349 2687.5,-349 2687.5,-330 2541.5,-330"/>
<text text-anchor="middle" x="2614.5" y="-337" font-family="FreeSans" font-size="10.00">../Elements/Correspondence.h</text>
</a>
</g>
</g>
<!-- Node0&#45;&gt;Node19 -->
<g id="edge22" class="edge"><title>Node0&#45;&gt;Node19</title>
<path fill="none" stroke="midnightblue" d="M1845.64,-402.296C1980.08,-396.142 2270.54,-380.929 2514.5,-355 2526.36,-353.74 2538.97,-352.127 2551.09,-350.437"/>
<polygon fill="midnightblue" stroke="midnightblue" points="2551.73,-353.881 2561.14,-349.005 2550.75,-346.951 2551.73,-353.881"/>
</g>
<!-- Node18 -->
<g id="node19" class="node"><title>Node18</title>
<g id="a_node19"><a xlink:href="NearestNeighbourMatcherProblemConcept_8ipp.html" target="_top" xlink:title="NearestNeighbourMatcherProblem\lConcept.ipp">
<polygon fill="white" stroke="black" points="1626,-257.5 1626,-287.5 1793,-287.5 1793,-257.5 1626,-257.5"/>
<text text-anchor="start" x="1634" y="-275.5" font-family="FreeSans" font-size="10.00">NearestNeighbourMatcherProblem</text>
<text text-anchor="middle" x="1709.5" y="-264.5" font-family="FreeSans" font-size="10.00">Concept.ipp</text>
</a>
</g>
</g>
<!-- Node17&#45;&gt;Node18 -->
<g id="edge18" class="edge"><title>Node17&#45;&gt;Node18</title>
<path fill="none" stroke="midnightblue" d="M1712.63,-324.396C1712.15,-316.56 1711.54,-306.596 1710.98,-297.565"/>
<polygon fill="midnightblue" stroke="midnightblue" points="1714.47,-297.343 1710.37,-287.577 1707.49,-297.773 1714.47,-297.343"/>
</g>
<!-- Node18&#45;&gt;Node1 -->
<g id="edge19" class="edge"><title>Node18&#45;&gt;Node1</title>
<path fill="none" stroke="midnightblue" d="M1711.92,-257.363C1719.25,-219.305 1744.98,-114.377 1812.5,-67 1867.46,-28.4345 2046.19,-41.5485 2112.5,-31 2119.95,-29.8144 2127.81,-28.415 2135.49,-26.9611"/>
<polygon fill="midnightblue" stroke="midnightblue" points="2136.29,-30.3713 2145.44,-25.0319 2134.95,-23.4993 2136.29,-30.3713"/>
</g>
<!-- Node18&#45;&gt;Node3 -->
<g id="edge20" class="edge"><title>Node18&#45;&gt;Node3</title>
<path fill="none" stroke="midnightblue" d="M1680.82,-257.399C1660.98,-247.639 1634.74,-234.737 1615.31,-225.183"/>
<polygon fill="midnightblue" stroke="midnightblue" points="1616.62,-221.93 1606.11,-220.658 1613.54,-228.211 1616.62,-221.93"/>
</g>
<!-- Node18&#45;&gt;Node12 -->
<g id="edge21" class="edge"><title>Node18&#45;&gt;Node12</title>
<path fill="none" stroke="midnightblue" d="M1696.77,-257.245C1683.83,-242.854 1663.08,-220.086 1644.5,-201 1628.5,-184.56 1616.43,-186.137 1607.5,-165 1599.48,-146.009 1602.81,-77.0659 1612.5,-67 1661.82,-15.7597 1862.06,-50.32 1930.5,-31 1932.43,-30.4552 1934.39,-29.8021 1936.34,-29.0786"/>
<polygon fill="midnightblue" stroke="midnightblue" points="1937.96,-32.1905 1945.79,-25.0512 1935.22,-25.7505 1937.96,-32.1905"/>
</g>
<!-- Node20 -->
<g id="node21" class="node"><title>Node20</title>
<g id="a_node21"><a xlink:href="Correspondence_8ipp.html" target="_top" xlink:title="Correspondence.ipp">
<polygon fill="white" stroke="black" points="3108.5,-201.5 3108.5,-220.5 3210.5,-220.5 3210.5,-201.5 3108.5,-201.5"/>
<text text-anchor="middle" x="3159.5" y="-208.5" font-family="FreeSans" font-size="10.00">Correspondence.ipp</text>
</a>
</g>
</g>
<!-- Node19&#45;&gt;Node20 -->
<g id="edge23" class="edge"><title>Node19&#45;&gt;Node20</title>
<path fill="none" stroke="midnightblue" d="M2651.53,-329.905C2747.97,-307.521 3006.73,-247.461 3112.98,-222.798"/>
<polygon fill="midnightblue" stroke="midnightblue" points="3113.83,-226.194 3122.78,-220.524 3112.24,-219.376 3113.83,-226.194"/>
</g>
<!-- Node32 -->
<g id="node33" class="node"><title>Node32</title>
<polygon fill="white" stroke="#bfbfbf" points="2643,-257.5 2643,-287.5 2744,-287.5 2744,-257.5 2643,-257.5"/>
<text text-anchor="start" x="2651" y="-275.5" font-family="FreeSans" font-size="10.00">boost/range/iterator</text>
<text text-anchor="middle" x="2693.5" y="-264.5" font-family="FreeSans" font-size="10.00">_range.hpp</text>
</g>
<!-- Node19&#45;&gt;Node32 -->
<g id="edge46" class="edge"><title>Node19&#45;&gt;Node32</title>
<path fill="none" stroke="midnightblue" d="M2625.15,-329.734C2636.24,-320.611 2654,-306.004 2668.63,-293.963"/>
<polygon fill="midnightblue" stroke="midnightblue" points="2670.88,-296.645 2676.38,-287.589 2666.43,-291.24 2670.88,-296.645"/>
</g>
<!-- Node33 -->
<g id="node34" class="node"><title>Node33</title>
<g id="a_node34"><a xlink:href="Coordinate_8h.html" target="_top" xlink:title="Coordinate.h">
<polygon fill="white" stroke="black" points="2567,-140 2567,-159 2638,-159 2638,-140 2567,-140"/>
<text text-anchor="middle" x="2602.5" y="-147" font-family="FreeSans" font-size="10.00">Coordinate.h</text>
</a>
</g>
</g>
<!-- Node19&#45;&gt;Node33 -->
<g id="edge47" class="edge"><title>Node19&#45;&gt;Node33</title>
<path fill="none" stroke="midnightblue" d="M2613.95,-329.934C2612.13,-301.428 2606.25,-209.322 2603.7,-169.326"/>
<polygon fill="midnightblue" stroke="midnightblue" points="2607.18,-168.874 2603.05,-159.117 2600.19,-169.319 2607.18,-168.874"/>
</g>
<!-- Node36 -->
<g id="node37" class="node"><title>Node36</title>
<g id="a_node37"><a xlink:href="Feature_8h.html" target="_top" xlink:title="Feature.h">
<polygon fill="white" stroke="black" points="2529,-263 2529,-282 2586,-282 2586,-263 2529,-263"/>
<text text-anchor="middle" x="2557.5" y="-270" font-family="FreeSans" font-size="10.00">Feature.h</text>
</a>
</g>
</g>
<!-- Node19&#45;&gt;Node36 -->
<g id="edge62" class="edge"><title>Node19&#45;&gt;Node36</title>
<path fill="none" stroke="midnightblue" d="M2606.81,-329.734C2597.84,-319.5 2582.81,-302.364 2571.7,-289.692"/>
<polygon fill="midnightblue" stroke="midnightblue" points="2574.29,-287.338 2565.07,-282.127 2569.03,-291.954 2574.29,-287.338"/>
</g>
<!-- Node20&#45;&gt;Node1 -->
<g id="edge26" class="edge"><title>Node20&#45;&gt;Node1</title>
<path fill="none" stroke="midnightblue" d="M3148.1,-201.393C3125.43,-184.821 3072.45,-148.815 3021.5,-134 2775.63,-62.5086 2698.3,-144.496 2446.5,-98 2361.08,-82.227 2264.43,-47.363 2216.24,-28.7585"/>
<polygon fill="midnightblue" stroke="midnightblue" points="2217.3,-25.4165 2206.71,-25.048 2214.76,-31.9391 2217.3,-25.4165"/>
</g>
<!-- Node20&#45;&gt;Node5 -->
<g id="edge36" class="edge"><title>Node20&#45;&gt;Node5</title>
<path fill="none" stroke="midnightblue" d="M3121.76,-201.473C3087.79,-193.397 3036.72,-180.258 2993.5,-165 2991.84,-164.413 2990.14,-163.779 2988.44,-163.116"/>
<polygon fill="midnightblue" stroke="midnightblue" points="2989.38,-159.72 2978.81,-159.123 2986.7,-166.186 2989.38,-159.72"/>
</g>
<!-- Node20&#45;&gt;Node8 -->
<g id="edge32" class="edge"><title>Node20&#45;&gt;Node8</title>
<path fill="none" stroke="midnightblue" d="M3159.49,-201.41C3158.98,-185.511 3155.47,-151.521 3135.5,-134 3110.86,-112.38 2586.17,-39.4784 2554.5,-31 2551.53,-30.2042 2548.46,-29.2834 2545.42,-28.2994"/>
<polygon fill="midnightblue" stroke="midnightblue" points="2546.47,-24.9597 2535.87,-25.0167 2544.19,-31.5791 2546.47,-24.9597"/>
</g>
<!-- Node20&#45;&gt;Node9 -->
<g id="edge37" class="edge"><title>Node20&#45;&gt;Node9</title>
<path fill="none" stroke="midnightblue" d="M3108.35,-206.721C3051.14,-201.935 2956.28,-190.629 2878.5,-165 2877.07,-164.529 2875.62,-163.992 2874.18,-163.408"/>
<polygon fill="midnightblue" stroke="midnightblue" points="2875.48,-160.151 2864.94,-159.09 2872.52,-166.493 2875.48,-160.151"/>
</g>
<!-- Node20&#45;&gt;Node11 -->
<g id="edge34" class="edge"><title>Node20&#45;&gt;Node11</title>
<path fill="none" stroke="midnightblue" d="M3108.3,-204.268C3061.51,-198.003 2990.93,-185.95 2932.5,-165 2931.29,-164.566 2930.07,-164.084 2928.84,-163.568"/>
<polygon fill="midnightblue" stroke="midnightblue" points="2930.23,-160.353 2919.71,-159.147 2927.18,-166.654 2930.23,-160.353"/>
</g>
<!-- Node20&#45;&gt;Node12 -->
<g id="edge33" class="edge"><title>Node20&#45;&gt;Node12</title>
<path fill="none" stroke="midnightblue" d="M3117.64,-201.426C3089.19,-194.413 3051.42,-182.721 3021.5,-165 3004.19,-154.746 3007.09,-141.703 2988.5,-134 2929.81,-109.68 1889.71,-143.625 1845.5,-98 1835.91,-88.1055 1837.89,-78.486 1845.5,-67 1868.16,-32.7978 1893.02,-47.694 1930.5,-31 1931.69,-30.4696 1932.9,-29.9237 1934.13,-29.3687"/>
<polygon fill="midnightblue" stroke="midnightblue" points="1935.9,-32.4073 1943.52,-25.0469 1932.97,-26.0485 1935.9,-32.4073"/>
</g>
<!-- Node20&#45;&gt;Node14 -->
<g id="edge38" class="edge"><title>Node20&#45;&gt;Node14</title>
<path fill="none" stroke="midnightblue" d="M3210.67,-209.403C3303.59,-207.461 3505.9,-199.278 3672.5,-165 3676.38,-164.202 3680.39,-163.175 3684.34,-162.037"/>
<polygon fill="midnightblue" stroke="midnightblue" points="3685.43,-165.364 3693.93,-159.044 3683.35,-158.681 3685.43,-165.364"/>
</g>
<!-- Node20&#45;&gt;Node15 -->
<g id="edge35" class="edge"><title>Node20&#45;&gt;Node15</title>
<path fill="none" stroke="midnightblue" d="M3210.87,-208.337C3318.52,-204.321 3559.9,-192.338 3584.5,-165 3619.71,-125.869 3571.18,-62.4434 3544.29,-32.7743"/>
<polygon fill="midnightblue" stroke="midnightblue" points="3546.74,-30.2757 3537.36,-25.3494 3541.62,-35.0499 3546.74,-30.2757"/>
</g>
<!-- Node20&#45;&gt;Node16 -->
<g id="edge31" class="edge"><title>Node20&#45;&gt;Node16</title>
<path fill="none" stroke="midnightblue" d="M3210.91,-207.849C3321.39,-202.794 3573.98,-188.758 3604.5,-165 3645.18,-133.335 3655.24,-68.1383 3657.71,-35.7019"/>
<polygon fill="midnightblue" stroke="midnightblue" points="3661.22,-35.5453 3658.32,-25.3567 3654.23,-35.1334 3661.22,-35.5453"/>
</g>
<!-- Node21 -->
<g id="node22" class="node"><title>Node21</title>
<polygon fill="white" stroke="#bfbfbf" points="3302,-140 3302,-159 3419,-159 3419,-140 3302,-140"/>
<text text-anchor="middle" x="3360.5" y="-147" font-family="FreeSans" font-size="10.00">boost/bimap/bimap.hpp</text>
</g>
<!-- Node20&#45;&gt;Node21 -->
<g id="edge24" class="edge"><title>Node20&#45;&gt;Node21</title>
<path fill="none" stroke="midnightblue" d="M3188.3,-201.475C3223.37,-191.092 3282.76,-173.512 3321.81,-161.954"/>
<polygon fill="midnightblue" stroke="midnightblue" points="3323.16,-165.204 3331.76,-159.009 3321.17,-158.492 3323.16,-165.204"/>
</g>
<!-- Node22 -->
<g id="node23" class="node"><title>Node22</title>
<polygon fill="white" stroke="#bfbfbf" points="3437,-140 3437,-159 3554,-159 3554,-140 3437,-140"/>
<text text-anchor="middle" x="3495.5" y="-147" font-family="FreeSans" font-size="10.00">boost/bimap/list_of.hpp</text>
</g>
<!-- Node20&#45;&gt;Node22 -->
<g id="edge25" class="edge"><title>Node20&#45;&gt;Node22</title>
<path fill="none" stroke="midnightblue" d="M3210.7,-202.175C3264.91,-193.716 3352.93,-179.489 3428.5,-165 3434.71,-163.809 3441.23,-162.487 3447.67,-161.14"/>
<polygon fill="midnightblue" stroke="midnightblue" points="3448.6,-164.521 3457.65,-159.019 3447.14,-157.674 3448.6,-164.521"/>
</g>
<!-- Node23 -->
<g id="node24" class="node"><title>Node23</title>
<polygon fill="white" stroke="#bfbfbf" points="2563.5,-6 2563.5,-25 2691.5,-25 2691.5,-6 2563.5,-6"/>
<text text-anchor="middle" x="2627.5" y="-13" font-family="FreeSans" font-size="10.00">boost/range/concepts.hpp</text>
</g>
<!-- Node20&#45;&gt;Node23 -->
<g id="edge27" class="edge"><title>Node20&#45;&gt;Node23</title>
<path fill="none" stroke="midnightblue" d="M3165.15,-201.028C3174.01,-185.693 3188.67,-154.153 3173.5,-134 3138.73,-87.8078 3100.49,-123.278 3048.5,-98 3027.31,-87.6988 3027.46,-75.5429 3005.5,-67 2878.29,-17.5056 2835.32,-52.3129 2700.5,-31 2693.05,-29.8216 2685.19,-28.4262 2677.51,-26.9741"/>
<polygon fill="midnightblue" stroke="midnightblue" points="2678.04,-23.5121 2667.56,-25.0459 2676.71,-30.3843 2678.04,-23.5121"/>
</g>
<!-- Node24 -->
<g id="node25" class="node"><title>Node24</title>
<polygon fill="white" stroke="#bfbfbf" points="2709.5,-6 2709.5,-25 2859.5,-25 2859.5,-6 2709.5,-6"/>
<text text-anchor="middle" x="2784.5" y="-13" font-family="FreeSans" font-size="10.00">boost/range/metafunctions.hpp</text>
</g>
<!-- Node20&#45;&gt;Node24 -->
<g id="edge28" class="edge"><title>Node20&#45;&gt;Node24</title>
<path fill="none" stroke="midnightblue" d="M3175.28,-201.467C3187.7,-193.769 3204.11,-181.179 3211.5,-165 3230.61,-123.201 3215.9,-93.7151 3178.5,-67 3130.49,-32.7011 2970.61,-21.6917 2869.88,-18.1617"/>
<polygon fill="midnightblue" stroke="midnightblue" points="2869.83,-14.6582 2859.72,-17.8239 2869.6,-21.6543 2869.83,-14.6582"/>
</g>
<!-- Node25 -->
<g id="node26" class="node"><title>Node25</title>
<polygon fill="white" stroke="#bfbfbf" points="3227.5,-6 3227.5,-25 3355.5,-25 3355.5,-6 3227.5,-6"/>
<text text-anchor="middle" x="3291.5" y="-13" font-family="FreeSans" font-size="10.00">boost/range/functions.hpp</text>
</g>
<!-- Node20&#45;&gt;Node25 -->
<g id="edge29" class="edge"><title>Node20&#45;&gt;Node25</title>
<path fill="none" stroke="midnightblue" d="M3210.69,-208.041C3314.15,-203.555 3540.35,-190.869 3563.5,-165 3630.35,-90.2849 3455.75,-45.657 3355.79,-26.9038"/>
<polygon fill="midnightblue" stroke="midnightblue" points="3356.24,-23.4272 3345.77,-25.063 3354.97,-30.3121 3356.24,-23.4272"/>
</g>
<!-- Node26 -->
<g id="node27" class="node"><title>Node26</title>
<polygon fill="white" stroke="#bfbfbf" points="2335,-6 2335,-25 2406,-25 2406,-6 2335,-6"/>
<text text-anchor="middle" x="2370.5" y="-13" font-family="FreeSans" font-size="10.00">Eigen/Dense</text>
</g>
<!-- Node20&#45;&gt;Node26 -->
<g id="edge30" class="edge"><title>Node20&#45;&gt;Node26</title>
<path fill="none" stroke="midnightblue" d="M3155.52,-201.441C3147.34,-184.954 3126.89,-149.089 3097.5,-134 2983.02,-75.2177 2643.13,-133.734 2519.5,-98 2469.62,-83.5833 2417.86,-50.4376 2390.41,-31.1504"/>
<polygon fill="midnightblue" stroke="midnightblue" points="2392.24,-28.1565 2382.07,-25.1879 2388.17,-33.8509 2392.24,-28.1565"/>
</g>
<!-- Node27 -->
<g id="node28" class="node"><title>Node27</title>
<polygon fill="white" stroke="#bfbfbf" points="3082.5,-6 3082.5,-25 3144.5,-25 3144.5,-6 3082.5,-6"/>
<text text-anchor="middle" x="3113.5" y="-13" font-family="FreeSans" font-size="10.00">type_traits</text>
</g>
<!-- Node20&#45;&gt;Node27 -->
<g id="edge39" class="edge"><title>Node20&#45;&gt;Node27</title>
<path fill="none" stroke="midnightblue" d="M3196.6,-201.458C3215.94,-194.918 3237.93,-183.724 3249.5,-165 3272.4,-127.949 3274.37,-102.759 3249.5,-67 3228.38,-36.625 3186.72,-24.4814 3155.04,-19.6477"/>
<polygon fill="midnightblue" stroke="midnightblue" points="3155.1,-16.1249 3144.73,-18.2729 3154.18,-23.0635 3155.1,-16.1249"/>
</g>
<!-- Node28 -->
<g id="node29" class="node"><title>Node28</title>
<g id="a_node29"><a xlink:href="FeatureConcept_8h.html" target="_top" xlink:title="FeatureConcept.h">
<polygon fill="white" stroke="black" points="2379,-140 2379,-159 2472,-159 2472,-140 2379,-140"/>
<text text-anchor="middle" x="2425.5" y="-147" font-family="FreeSans" font-size="10.00">FeatureConcept.h</text>
</a>
</g>
</g>
<!-- Node20&#45;&gt;Node28 -->
<g id="edge40" class="edge"><title>Node20&#45;&gt;Node28</title>
<path fill="none" stroke="midnightblue" d="M3108.31,-206.777C3004.4,-200.1 2761.27,-183.802 2557.5,-165 2532.8,-162.721 2505.55,-159.797 2482.26,-157.172"/>
<polygon fill="midnightblue" stroke="midnightblue" points="2482.52,-153.68 2472.19,-156.03 2481.73,-160.636 2482.52,-153.68"/>
</g>
<!-- Node30 -->
<g id="node31" class="node"><title>Node30</title>
<g id="a_node31"><a xlink:href="EigenMetafunction_8h.html" target="_top" xlink:title="../Wrappers/EigenMetafunction.h">
<polygon fill="white" stroke="black" points="2656.5,-140 2656.5,-159 2812.5,-159 2812.5,-140 2656.5,-140"/>
<text text-anchor="middle" x="2734.5" y="-147" font-family="FreeSans" font-size="10.00">../Wrappers/EigenMetafunction.h</text>
</a>
</g>
</g>
<!-- Node20&#45;&gt;Node30 -->
<g id="edge43" class="edge"><title>Node20&#45;&gt;Node30</title>
<path fill="none" stroke="midnightblue" d="M3108.46,-203.734C3042.22,-195.481 2923.07,-180.222 2821.5,-165 2812.6,-163.667 2803.21,-162.182 2794.01,-160.685"/>
<polygon fill="midnightblue" stroke="midnightblue" points="2794.58,-157.231 2784.14,-159.063 2793.44,-164.139 2794.58,-157.231"/>
</g>
<!-- Node29 -->
<g id="node30" class="node"><title>Node29</title>
<g id="a_node30"><a xlink:href="FeatureConcept_8ipp.html" target="_top" xlink:title="FeatureConcept.ipp">
<polygon fill="white" stroke="black" points="2172,-73 2172,-92 2273,-92 2273,-73 2172,-73"/>
<text text-anchor="middle" x="2222.5" y="-80" font-family="FreeSans" font-size="10.00">FeatureConcept.ipp</text>
</a>
</g>
</g>
<!-- Node28&#45;&gt;Node29 -->
<g id="edge41" class="edge"><title>Node28&#45;&gt;Node29</title>
<path fill="none" stroke="midnightblue" d="M2398.54,-139.869C2362.65,-128.376 2299.04,-108.008 2258.91,-95.1586"/>
<polygon fill="midnightblue" stroke="midnightblue" points="2259.84,-91.7799 2249.25,-92.0637 2257.7,-98.4465 2259.84,-91.7799"/>
</g>
<!-- Node29&#45;&gt;Node1 -->
<g id="edge42" class="edge"><title>Node29&#45;&gt;Node1</title>
<path fill="none" stroke="midnightblue" d="M2217.51,-72.7338C2211.91,-62.8903 2202.67,-46.6598 2195.55,-34.1594"/>
<polygon fill="midnightblue" stroke="midnightblue" points="2198.4,-32.0865 2190.41,-25.1273 2192.32,-35.5494 2198.4,-32.0865"/>
</g>
<!-- Node31 -->
<g id="node32" class="node"><title>Node31</title>
<g id="a_node32"><a xlink:href="EigenMetafunction_8ipp.html" target="_top" xlink:title="EigenMetafunction.ipp">
<polygon fill="white" stroke="black" points="3057.5,-73 3057.5,-92 3169.5,-92 3169.5,-73 3057.5,-73"/>
<text text-anchor="middle" x="3113.5" y="-80" font-family="FreeSans" font-size="10.00">EigenMetafunction.ipp</text>
</a>
</g>
</g>
<!-- Node30&#45;&gt;Node31 -->
<g id="edge44" class="edge"><title>Node30&#45;&gt;Node31</title>
<path fill="none" stroke="midnightblue" d="M2784.44,-139.936C2853.84,-128.033 2979.27,-106.52 3053.61,-93.7707"/>
<polygon fill="midnightblue" stroke="midnightblue" points="3054.49,-97.1718 3063.75,-92.0317 3053.31,-90.2725 3054.49,-97.1718"/>
</g>
<!-- Node31&#45;&gt;Node27 -->
<g id="edge45" class="edge"><title>Node31&#45;&gt;Node27</title>
<path fill="none" stroke="midnightblue" d="M3113.5,-72.7338C3113.5,-63.1826 3113.5,-47.6183 3113.5,-35.2829"/>
<polygon fill="midnightblue" stroke="midnightblue" points="3117,-35.1273 3113.5,-25.1273 3110,-35.1273 3117,-35.1273"/>
</g>
<!-- Node34 -->
<g id="node35" class="node"><title>Node34</title>
<g id="a_node35"><a xlink:href="Coordinate_8ipp.html" target="_top" xlink:title="Coordinate.ipp">
<polygon fill="white" stroke="black" points="2528.5,-73 2528.5,-92 2606.5,-92 2606.5,-73 2528.5,-73"/>
<text text-anchor="middle" x="2567.5" y="-80" font-family="FreeSans" font-size="10.00">Coordinate.ipp</text>
</a>
</g>
</g>
<!-- Node33&#45;&gt;Node34 -->
<g id="edge48" class="edge"><title>Node33&#45;&gt;Node34</title>
<path fill="none" stroke="midnightblue" d="M2597.78,-139.734C2592.48,-129.89 2583.74,-113.66 2577.01,-101.159"/>
<polygon fill="midnightblue" stroke="midnightblue" points="2579.97,-99.2727 2572.15,-92.1273 2573.8,-102.591 2579.97,-99.2727"/>
</g>
<!-- Node34&#45;&gt;Node1 -->
<g id="edge49" class="edge"><title>Node34&#45;&gt;Node1</title>
<path fill="none" stroke="midnightblue" d="M2528.41,-74.8493C2461.63,-63.4849 2325.1,-40.2537 2245.94,-26.7848"/>
<polygon fill="midnightblue" stroke="midnightblue" points="2246.09,-23.2588 2235.64,-25.0317 2244.91,-30.1596 2246.09,-23.2588"/>
</g>
<!-- Node34&#45;&gt;Node6 -->
<g id="edge58" class="edge"><title>Node34&#45;&gt;Node6</title>
<path fill="none" stroke="midnightblue" d="M2528.5,-81.9212C2448.62,-81.7607 2261.39,-76.1113 2112.5,-31 2111.03,-30.5536 2109.54,-30.0302 2108.06,-29.4522"/>
<polygon fill="midnightblue" stroke="midnightblue" points="2109.15,-26.1009 2098.6,-25.0816 2106.21,-32.4548 2109.15,-26.1009"/>
</g>
<!-- Node34&#45;&gt;Node7 -->
<g id="edge59" class="edge"><title>Node34&#45;&gt;Node7</title>
<path fill="none" stroke="midnightblue" d="M2528.1,-79.894C2407.59,-74.7433 2045.23,-57.4165 1930.5,-31 1927.66,-30.3469 1924.76,-29.5153 1921.88,-28.5817"/>
<polygon fill="midnightblue" stroke="midnightblue" points="1922.96,-25.2491 1912.36,-25.1262 1920.57,-31.8289 1922.96,-25.2491"/>
</g>
<!-- Node34&#45;&gt;Node8 -->
<g id="edge61" class="edge"><title>Node34&#45;&gt;Node8</title>
<path fill="none" stroke="midnightblue" d="M2560.35,-72.7338C2552.09,-62.5979 2538.3,-45.6899 2528,-33.0556"/>
<polygon fill="midnightblue" stroke="midnightblue" points="2530.57,-30.6657 2521.53,-25.1273 2525.14,-35.0893 2530.57,-30.6657"/>
</g>
<!-- Node34&#45;&gt;Node12 -->
<g id="edge54" class="edge"><title>Node34&#45;&gt;Node12</title>
<path fill="none" stroke="midnightblue" d="M2528.32,-79.8397C2415.94,-74.7967 2094.12,-58.3101 1992.5,-31 1990.56,-30.4795 1988.6,-29.8443 1986.65,-29.1335"/>
<polygon fill="midnightblue" stroke="midnightblue" points="1987.76,-25.8038 1977.19,-25.1329 1985.03,-32.2512 1987.76,-25.8038"/>
</g>
<!-- Node34&#45;&gt;Node15 -->
<g id="edge56" class="edge"><title>Node34&#45;&gt;Node15</title>
<path fill="none" stroke="midnightblue" d="M2606.5,-79.3738C2722.19,-72.9932 3073.49,-53.0811 3364.5,-31 3409.12,-27.6143 3460.5,-22.9468 3493.68,-19.8314"/>
<polygon fill="midnightblue" stroke="midnightblue" points="3494.16,-23.3021 3503.79,-18.8781 3493.5,-16.3331 3494.16,-23.3021"/>
</g>
<!-- Node34&#45;&gt;Node16 -->
<g id="edge57" class="edge"><title>Node34&#45;&gt;Node16</title>
<path fill="none" stroke="midnightblue" d="M2606.95,-80.9027C2741.12,-78.5719 3192.06,-68.2834 3562.5,-31 3583.91,-28.8452 3607.84,-25.2339 3626.45,-22.1544"/>
<polygon fill="midnightblue" stroke="midnightblue" points="3627.19,-25.5799 3636.46,-20.4645 3626.02,-18.6775 3627.19,-25.5799"/>
</g>
<!-- Node34&#45;&gt;Node23 -->
<g id="edge50" class="edge"><title>Node34&#45;&gt;Node23</title>
<path fill="none" stroke="midnightblue" d="M2575.59,-72.7338C2585.04,-62.5004 2600.86,-45.3642 2612.55,-32.6924"/>
<polygon fill="midnightblue" stroke="midnightblue" points="2615.33,-34.8494 2619.54,-25.1273 2610.18,-30.1014 2615.33,-34.8494"/>
</g>
<!-- Node34&#45;&gt;Node24 -->
<g id="edge51" class="edge"><title>Node34&#45;&gt;Node24</title>
<path fill="none" stroke="midnightblue" d="M2596.32,-72.8685C2634.85,-61.3271 2703.26,-40.8354 2746.12,-27.9956"/>
<polygon fill="midnightblue" stroke="midnightblue" points="2747.34,-31.286 2755.91,-25.0637 2745.33,-24.5804 2747.34,-31.286"/>
</g>
<!-- Node34&#45;&gt;Node25 -->
<g id="edge52" class="edge"><title>Node34&#45;&gt;Node25</title>
<path fill="none" stroke="midnightblue" d="M2606.61,-78.3839C2700.8,-70.8245 2947.66,-50.6817 3153.5,-31 3174.21,-29.0196 3196.66,-26.7251 3217.3,-24.5538"/>
<polygon fill="midnightblue" stroke="midnightblue" points="3217.71,-28.0311 3227.28,-23.4997 3216.97,-21.0698 3217.71,-28.0311"/>
</g>
<!-- Node34&#45;&gt;Node26 -->
<g id="edge53" class="edge"><title>Node34&#45;&gt;Node26</title>
<path fill="none" stroke="midnightblue" d="M2541.34,-72.8685C2506.66,-61.4245 2445.3,-41.1807 2406.33,-28.3223"/>
<polygon fill="midnightblue" stroke="midnightblue" points="2407.05,-24.8733 2396.45,-25.0637 2404.85,-31.5208 2407.05,-24.8733"/>
</g>
<!-- Node34&#45;&gt;Node27 -->
<g id="edge55" class="edge"><title>Node34&#45;&gt;Node27</title>
<path fill="none" stroke="midnightblue" d="M2606.77,-76.8254C2706.66,-64.933 2969.77,-33.6102 3072.03,-21.4372"/>
<polygon fill="midnightblue" stroke="midnightblue" points="3072.75,-24.8762 3082.26,-20.2185 3071.92,-17.9253 3072.75,-24.8762"/>
</g>
<!-- Node35 -->
<g id="node36" class="node"><title>Node35</title>
<polygon fill="white" stroke="#bfbfbf" points="2002,-6 2002,-25 2047,-25 2047,-6 2002,-6"/>
<text text-anchor="middle" x="2024.5" y="-13" font-family="FreeSans" font-size="10.00">climits</text>
</g>
<!-- Node34&#45;&gt;Node35 -->
<g id="edge60" class="edge"><title>Node34&#45;&gt;Node35</title>
<path fill="none" stroke="midnightblue" d="M2528.3,-79.2843C2424.72,-73.166 2145.62,-54.8965 2056.5,-31 2054.35,-30.4224 2052.15,-29.7141 2049.98,-28.9241"/>
<polygon fill="midnightblue" stroke="midnightblue" points="2051.31,-25.6847 2040.73,-25.0903 2048.63,-32.1516 2051.31,-25.6847"/>
</g>
<!-- Node37 -->
<g id="node38" class="node"><title>Node37</title>
<g id="a_node38"><a xlink:href="Feature_8ipp.html" target="_top" xlink:title="Feature.ipp">
<polygon fill="white" stroke="black" points="2207,-201.5 2207,-220.5 2272,-220.5 2272,-201.5 2207,-201.5"/>
<text text-anchor="middle" x="2239.5" y="-208.5" font-family="FreeSans" font-size="10.00">Feature.ipp</text>
</a>
</g>
</g>
<!-- Node36&#45;&gt;Node37 -->
<g id="edge63" class="edge"><title>Node36&#45;&gt;Node37</title>
<path fill="none" stroke="midnightblue" d="M2529,-266.167C2473,-255.689 2348.33,-232.363 2282.36,-220.019"/>
<polygon fill="midnightblue" stroke="midnightblue" points="2282.76,-216.534 2272.29,-218.136 2281.48,-223.415 2282.76,-216.534"/>
</g>
<!-- Node37&#45;&gt;Node1 -->
<g id="edge64" class="edge"><title>Node37&#45;&gt;Node1</title>
<path fill="none" stroke="midnightblue" d="M2206.86,-210.52C2133.33,-210.921 1958.24,-207.309 1921.5,-165 1912.47,-154.597 1914.61,-145.933 1921.5,-134 1945.18,-92.9825 2077.53,-48.5541 2145.38,-28.0576"/>
<polygon fill="midnightblue" stroke="midnightblue" points="2146.72,-31.3112 2155.29,-25.0939 2144.71,-24.6043 2146.72,-31.3112"/>
</g>
<!-- Node37&#45;&gt;Node8 -->
<g id="edge94" class="edge"><title>Node37&#45;&gt;Node8</title>
<path fill="none" stroke="midnightblue" d="M2250.05,-201.276C2267.63,-186.835 2304.21,-157.251 2336.5,-134 2390.89,-94.8421 2457.34,-52.3238 2491.61,-30.7679"/>
<polygon fill="midnightblue" stroke="midnightblue" points="2493.78,-33.5419 2500.39,-25.2642 2490.06,-27.6113 2493.78,-33.5419"/>
</g>
<!-- Node37&#45;&gt;Node9 -->
<g id="edge97" class="edge"><title>Node37&#45;&gt;Node9</title>
<path fill="none" stroke="midnightblue" d="M2272.17,-209.125C2378.94,-206.006 2716.76,-194.034 2821.5,-165 2823.22,-164.524 2824.95,-163.945 2826.67,-163.295"/>
<polygon fill="midnightblue" stroke="midnightblue" points="2828.5,-166.312 2836.19,-159.025 2825.63,-159.925 2828.5,-166.312"/>
</g>
<!-- Node37&#45;&gt;Node11 -->
<g id="edge91" class="edge"><title>Node37&#45;&gt;Node11</title>
<path fill="none" stroke="midnightblue" d="M2272.18,-209.506C2385.79,-207.508 2762.85,-198.451 2878.5,-165 2879.97,-164.575 2881.45,-164.062 2882.92,-163.488"/>
<polygon fill="midnightblue" stroke="midnightblue" points="2884.72,-166.509 2892.24,-159.053 2881.71,-160.187 2884.72,-166.509"/>
</g>
<!-- Node37&#45;&gt;Node12 -->
<g id="edge88" class="edge"><title>Node37&#45;&gt;Node12</title>
<path fill="none" stroke="midnightblue" d="M2206.9,-209.337C2094.05,-206.245 1723.49,-189.192 1660.5,-98 1611.91,-27.6459 1690.34,-101.369 1930.5,-31 1932.38,-30.4487 1934.29,-29.7985 1936.2,-29.0842"/>
<polygon fill="midnightblue" stroke="midnightblue" points="1937.63,-32.2791 1945.45,-25.1383 1934.88,-25.8396 1937.63,-32.2791"/>
</g>
<!-- Node37&#45;&gt;Node15 -->
<g id="edge90" class="edge"><title>Node37&#45;&gt;Node15</title>
<path fill="none" stroke="midnightblue" d="M2272.26,-210.453C2377.23,-211.391 2714.44,-210.406 2988.5,-165 3184.14,-132.586 3410.81,-57.5605 3494.88,-28.3967"/>
<polygon fill="midnightblue" stroke="midnightblue" points="3496.12,-31.67 3504.42,-25.0735 3493.82,-25.06 3496.12,-31.67"/>
</g>
<!-- Node37&#45;&gt;Node23 -->
<g id="edge65" class="edge"><title>Node37&#45;&gt;Node23</title>
<path fill="none" stroke="midnightblue" d="M2260.05,-201.348C2278.94,-193.046 2307.43,-179.636 2330.5,-165 2349.2,-153.137 2349.18,-142.795 2369.5,-134 2470.91,-90.1108 2537.33,-176.099 2615.5,-98 2631.75,-81.7601 2632.33,-53.8057 2630.51,-35.2358"/>
<polygon fill="midnightblue" stroke="midnightblue" points="2633.95,-34.5374 2629.18,-25.0749 2627.01,-35.4439 2633.95,-34.5374"/>
</g>
<!-- Node37&#45;&gt;Node24 -->
<g id="edge66" class="edge"><title>Node37&#45;&gt;Node24</title>
<path fill="none" stroke="midnightblue" d="M2272,-206.227C2318.81,-200.281 2407.58,-187.076 2480.5,-165 2498.65,-159.504 2620.46,-106.332 2637.5,-98 2682.25,-76.1186 2732.68,-47.1809 2761.32,-30.3266"/>
<polygon fill="midnightblue" stroke="midnightblue" points="2763.33,-33.2039 2770.16,-25.1016 2759.77,-27.1783 2763.33,-33.2039"/>
</g>
<!-- Node37&#45;&gt;Node28 -->
<g id="edge106" class="edge"><title>Node37&#45;&gt;Node28</title>
<path fill="none" stroke="midnightblue" d="M2266.15,-201.475C2298.47,-191.136 2353.1,-173.661 2389.23,-162.102"/>
<polygon fill="midnightblue" stroke="midnightblue" points="2390.44,-165.39 2398.9,-159.009 2388.31,-158.722 2390.44,-165.39"/>
</g>
<!-- Node37&#45;&gt;Node30 -->
<g id="edge110" class="edge"><title>Node37&#45;&gt;Node30</title>
<path fill="none" stroke="midnightblue" d="M2272.02,-206.997C2341.11,-200.487 2507.58,-184.111 2646.5,-165 2655.95,-163.7 2665.95,-162.186 2675.68,-160.636"/>
<polygon fill="midnightblue" stroke="midnightblue" points="2676.38,-164.068 2685.7,-159.016 2675.26,-157.158 2676.38,-164.068"/>
</g>
<!-- Node37&#45;&gt;Node33 -->
<g id="edge98" class="edge"><title>Node37&#45;&gt;Node33</title>
<path fill="none" stroke="midnightblue" d="M2272.21,-206.817C2329.45,-200.909 2451.34,-186.828 2552.5,-165 2556.89,-164.052 2561.46,-162.926 2565.98,-161.725"/>
<polygon fill="midnightblue" stroke="midnightblue" points="2566.99,-165.077 2575.69,-159.021 2565.12,-158.333 2566.99,-165.077"/>
</g>
<!-- Node37&#45;&gt;Node35 -->
<g id="edge95" class="edge"><title>Node37&#45;&gt;Node35</title>
<path fill="none" stroke="midnightblue" d="M2206.88,-210.282C2126.41,-210.329 1921.2,-206.291 1869.5,-165 1834.46,-137.016 1817.82,-102.279 1845.5,-67 1887.02,-14.0818 1928.93,-52.9752 1992.5,-31 1994.16,-30.4246 1995.86,-29.7946 1997.56,-29.1295"/>
<polygon fill="midnightblue" stroke="midnightblue" points="1999.29,-32.1978 2007.13,-25.0743 1996.56,-25.7524 1999.29,-32.1978"/>
</g>
<!-- Node38 -->
<g id="node39" class="node"><title>Node38</title>
<g id="a_node39"><a xlink:href="boost__dynamic__bitset_8hpp.html" target="_top" xlink:title="../Modified/boost_dynamic\l_bitset.hpp">
<polygon fill="white" stroke="black" points="1242.5,-67.5 1242.5,-97.5 1370.5,-97.5 1370.5,-67.5 1242.5,-67.5"/>
<text text-anchor="start" x="1250.5" y="-85.5" font-family="FreeSans" font-size="10.00">../Modified/boost_dynamic</text>
<text text-anchor="middle" x="1306.5" y="-74.5" font-family="FreeSans" font-size="10.00">_bitset.hpp</text>
</a>
</g>
</g>
<!-- Node37&#45;&gt;Node38 -->
<g id="edge67" class="edge"><title>Node37&#45;&gt;Node38</title>
<path fill="none" stroke="midnightblue" d="M2207,-210.016C2094.06,-209.711 1719.44,-205.591 1607.5,-165 1585.35,-156.969 1586.12,-143.369 1564.5,-134 1505.59,-108.466 1433.51,-95.7454 1380.53,-89.4661"/>
<polygon fill="midnightblue" stroke="midnightblue" points="1380.86,-85.9817 1370.53,-88.3306 1380.07,-92.9369 1380.86,-85.9817"/>
</g>
<!-- Node43 -->
<g id="node44" class="node"><title>Node43</title>
<polygon fill="white" stroke="#bfbfbf" points="136.5,-6 136.5,-25 188.5,-25 188.5,-6 136.5,-6"/>
<text text-anchor="middle" x="162.5" y="-13" font-family="FreeSans" font-size="10.00">ostream</text>
</g>
<!-- Node37&#45;&gt;Node43 -->
<g id="edge89" class="edge"><title>Node37&#45;&gt;Node43</title>
<path fill="none" stroke="midnightblue" d="M2206.68,-209.359C2108.69,-207.114 1809.83,-197.858 1564.5,-165 1415.73,-145.075 1371.02,-158.129 1233.5,-98 1211.91,-88.5618 1212.79,-74.6441 1190.5,-67 981.634,4.64368 413.251,-78.0016 197.5,-31 194.821,-30.4164 192.086,-29.6383 189.385,-28.7446"/>
<polygon fill="midnightblue" stroke="midnightblue" points="190.5,-25.4241 179.909,-25.1421 188.012,-31.9672 190.5,-25.4241"/>
</g>
<!-- Node54 -->
<g id="node55" class="node"><title>Node54</title>
<polygon fill="white" stroke="#bfbfbf" points="2254.5,-140 2254.5,-159 2284.5,-159 2284.5,-140 2254.5,-140"/>
<text text-anchor="middle" x="2269.5" y="-147" font-family="FreeSans" font-size="10.00">set</text>
</g>
<!-- Node37&#45;&gt;Node54 -->
<g id="edge92" class="edge"><title>Node37&#45;&gt;Node54</title>
<path fill="none" stroke="midnightblue" d="M2243.8,-201.475C2248.16,-192.815 2255.06,-179.149 2260.6,-168.145"/>
<polygon fill="midnightblue" stroke="midnightblue" points="2263.83,-169.514 2265.21,-159.009 2257.58,-166.363 2263.83,-169.514"/>
</g>
<!-- Node55 -->
<g id="node56" class="node"><title>Node55</title>
<polygon fill="white" stroke="#bfbfbf" points="1931,-140 1931,-159 1960,-159 1960,-140 1931,-140"/>
<text text-anchor="middle" x="1945.5" y="-147" font-family="FreeSans" font-size="10.00">list</text>
</g>
<!-- Node37&#45;&gt;Node55 -->
<g id="edge93" class="edge"><title>Node37&#45;&gt;Node55</title>
<path fill="none" stroke="midnightblue" d="M2206.71,-208.728C2154.64,-205.799 2050.52,-196.203 1968.5,-165 1967.77,-164.723 1967.04,-164.422 1966.31,-164.1"/>
<polygon fill="midnightblue" stroke="midnightblue" points="1967.65,-160.844 1957.2,-159.13 1964.3,-166.99 1967.65,-160.844"/>
</g>
<!-- Node56 -->
<g id="node57" class="node"><title>Node56</title>
<polygon fill="white" stroke="#bfbfbf" points="2121,-140 2121,-159 2164,-159 2164,-140 2121,-140"/>
<text text-anchor="middle" x="2142.5" y="-147" font-family="FreeSans" font-size="10.00">queue</text>
</g>
<!-- Node37&#45;&gt;Node56 -->
<g id="edge96" class="edge"><title>Node37&#45;&gt;Node56</title>
<path fill="none" stroke="midnightblue" d="M2225.6,-201.475C2209.83,-191.799 2183.86,-175.872 2165.15,-164.394"/>
<polygon fill="midnightblue" stroke="midnightblue" points="2166.73,-161.254 2156.37,-159.009 2163.07,-167.221 2166.73,-161.254"/>
</g>
<!-- Node57 -->
<g id="node58" class="node"><title>Node57</title>
<g id="a_node58"><a xlink:href="Descriptor_8h.html" target="_top" xlink:title="Descriptor.h">
<polygon fill="white" stroke="black" points="1616.5,-140 1616.5,-159 1684.5,-159 1684.5,-140 1616.5,-140"/>
<text text-anchor="middle" x="1650.5" y="-147" font-family="FreeSans" font-size="10.00">Descriptor.h</text>
</a>
</g>
</g>
<!-- Node37&#45;&gt;Node57 -->
<g id="edge99" class="edge"><title>Node37&#45;&gt;Node57</title>
<path fill="none" stroke="midnightblue" d="M2206.86,-209.667C2122.17,-208.292 1888.76,-201.231 1698.5,-165 1694.05,-164.153 1689.43,-163.051 1684.88,-161.833"/>
<polygon fill="midnightblue" stroke="midnightblue" points="1685.74,-158.438 1675.17,-159.035 1683.81,-165.165 1685.74,-158.438"/>
</g>
<!-- Node58 -->
<g id="node59" class="node"><title>Node58</title>
<g id="a_node59"><a xlink:href="RoI_8h.html" target="_top" xlink:title="RoI.h">
<polygon fill="white" stroke="black" points="1855,-73 1855,-92 1894,-92 1894,-73 1855,-73"/>
<text text-anchor="middle" x="1874.5" y="-80" font-family="FreeSans" font-size="10.00">RoI.h</text>
</a>
</g>
</g>
<!-- Node37&#45;&gt;Node58 -->
<g id="edge103" class="edge"><title>Node37&#45;&gt;Node58</title>
<path fill="none" stroke="midnightblue" d="M2206.96,-210.556C2128.81,-211.175 1933.63,-208.251 1888.5,-165 1871.77,-148.967 1870.57,-120.751 1871.97,-102.09"/>
<polygon fill="midnightblue" stroke="midnightblue" points="1875.45,-102.449 1873.03,-92.1348 1868.49,-101.709 1875.45,-102.449"/>
</g>
<!-- Node59 -->
<g id="node60" class="node"><title>Node59</title>
<g id="a_node60"><a xlink:href="TaggedData_8h.html" target="_top" xlink:title="../DataStructures/Tagged\lData.h">
<polygon fill="white" stroke="black" points="1978,-134.5 1978,-164.5 2103,-164.5 2103,-134.5 1978,-134.5"/>
<text text-anchor="start" x="1986" y="-152.5" font-family="FreeSans" font-size="10.00">../DataStructures/Tagged</text>
<text text-anchor="middle" x="2040.5" y="-141.5" font-family="FreeSans" font-size="10.00">Data.h</text>
</a>
</g>
</g>
<!-- Node37&#45;&gt;Node59 -->
<g id="edge107" class="edge"><title>Node37&#45;&gt;Node59</title>
<path fill="none" stroke="midnightblue" d="M2210.99,-201.475C2181.39,-192.626 2134.31,-178.549 2097.12,-167.428"/>
<polygon fill="midnightblue" stroke="midnightblue" points="2097.98,-164.034 2087.4,-164.523 2095.98,-170.741 2097.98,-164.034"/>
</g>
<!-- Node61 -->
<g id="node62" class="node"><title>Node61</title>
<polygon fill="white" stroke="#bfbfbf" points="2182.5,-140 2182.5,-159 2236.5,-159 2236.5,-140 2182.5,-140"/>
<text text-anchor="middle" x="2209.5" y="-147" font-family="FreeSans" font-size="10.00">iostream</text>
</g>
<!-- Node37&#45;&gt;Node61 -->
<g id="edge111" class="edge"><title>Node37&#45;&gt;Node61</title>
<path fill="none" stroke="midnightblue" d="M2235.2,-201.475C2230.84,-192.815 2223.94,-179.149 2218.4,-168.145"/>
<polygon fill="midnightblue" stroke="midnightblue" points="2221.42,-166.363 2213.79,-159.009 2215.17,-169.514 2221.42,-166.363"/>
</g>
<!-- Node38&#45;&gt;Node7 -->
<g id="edge71" class="edge"><title>Node38&#45;&gt;Node7</title>
<path fill="none" stroke="midnightblue" d="M1370.69,-69.0025C1375.35,-68.2678 1379.99,-67.5894 1384.5,-67 1592.67,-39.7753 1650.63,-76.899 1855.5,-31 1858.5,-30.327 1861.59,-29.4628 1864.63,-28.4919"/>
<polygon fill="midnightblue" stroke="midnightblue" points="1865.86,-31.7725 1874.11,-25.1311 1863.52,-25.1751 1865.86,-31.7725"/>
</g>
<!-- Node38&#45;&gt;Node10 -->
<g id="edge70" class="edge"><title>Node38&#45;&gt;Node10</title>
<path fill="none" stroke="midnightblue" d="M1242.35,-80.0993C1004.79,-74.7451 182.758,-54.6799 67.5,-31 64.4177,-30.3667 61.2571,-29.5146 58.1388,-28.5389"/>
<polygon fill="midnightblue" stroke="midnightblue" points="59.0644,-25.1539 48.4697,-25.1183 56.7298,-31.7531 59.0644,-25.1539"/>
</g>
<!-- Node38&#45;&gt;Node12 -->
<g id="edge72" class="edge"><title>Node38&#45;&gt;Node12</title>
<path fill="none" stroke="midnightblue" d="M1370.55,-72.8699C1387.43,-70.767 1405.63,-68.6506 1422.5,-67 1647.77,-44.9548 1711.43,-87.9034 1930.5,-31 1932.48,-30.4847 1934.5,-29.8449 1936.49,-29.1236"/>
<polygon fill="midnightblue" stroke="midnightblue" points="1938.3,-32.158 1946.15,-25.036 1935.57,-25.712 1938.3,-32.158"/>
</g>
<!-- Node38&#45;&gt;Node13 -->
<g id="edge69" class="edge"><title>Node38&#45;&gt;Node13</title>
<path fill="none" stroke="midnightblue" d="M1242.48,-72.4457C1225.61,-70.3474 1207.39,-68.3392 1190.5,-67 954.881,-48.3226 356.968,-87.651 127.5,-31 125.52,-30.5113 123.517,-29.8822 121.534,-29.1607"/>
<polygon fill="midnightblue" stroke="midnightblue" points="122.56,-25.7898 111.994,-25.005 119.764,-32.2074 122.56,-25.7898"/>
</g>
<!-- Node38&#45;&gt;Node35 -->
<g id="edge73" class="edge"><title>Node38&#45;&gt;Node35</title>
<path fill="none" stroke="midnightblue" d="M1370.68,-79.647C1517.85,-74.9343 1875.91,-60.7042 1992.5,-31 1994.71,-30.4372 1996.96,-29.7297 1999.18,-28.9316"/>
<polygon fill="midnightblue" stroke="midnightblue" points="2000.72,-32.0815 2008.62,-25.0223 1998.04,-25.6139 2000.72,-32.0815"/>
</g>
<!-- Node39 -->
<g id="node40" class="node"><title>Node39</title>
<polygon fill="white" stroke="#bfbfbf" points="1541,-6 1541,-25 1592,-25 1592,-6 1541,-6"/>
<text text-anchor="middle" x="1566.5" y="-13" font-family="FreeSans" font-size="10.00">assert.h</text>
</g>
<!-- Node38&#45;&gt;Node39 -->
<g id="edge68" class="edge"><title>Node38&#45;&gt;Node39</title>
<path fill="none" stroke="midnightblue" d="M1370.66,-68.3837C1426.17,-56.7995 1502.02,-40.3393 1531.5,-31 1533.64,-30.3222 1535.83,-29.5675 1538.02,-28.7683"/>
<polygon fill="midnightblue" stroke="midnightblue" points="1539.42,-31.9788 1547.46,-25.0816 1536.88,-25.4582 1539.42,-31.9788"/>
</g>
<!-- Node40 -->
<g id="node41" class="node"><title>Node40</title>
<polygon fill="white" stroke="#bfbfbf" points="1610,-0.5 1610,-30.5 1719,-30.5 1719,-0.5 1610,-0.5"/>
<text text-anchor="start" x="1618" y="-18.5" font-family="FreeSans" font-size="10.00">boost/dynamic_bitset</text>
<text text-anchor="middle" x="1664.5" y="-7.5" font-family="FreeSans" font-size="10.00">/config.hpp</text>
</g>
<!-- Node38&#45;&gt;Node40 -->
<g id="edge74" class="edge"><title>Node38&#45;&gt;Node40</title>
<path fill="none" stroke="midnightblue" d="M1370.76,-69.4569C1375.41,-68.6156 1380.02,-67.789 1384.5,-67 1477.26,-50.6499 1503.34,-49.7997 1599.85,-31.0596"/>
<polygon fill="midnightblue" stroke="midnightblue" points="1600.59,-34.4815 1609.73,-29.1268 1599.25,-27.6117 1600.59,-34.4815"/>
</g>
<!-- Node41 -->
<g id="node42" class="node"><title>Node41</title>
<polygon fill="white" stroke="#bfbfbf" points="1737.5,-6 1737.5,-25 1779.5,-25 1779.5,-6 1737.5,-6"/>
<text text-anchor="middle" x="1758.5" y="-13" font-family="FreeSans" font-size="10.00">locale</text>
</g>
<!-- Node38&#45;&gt;Node41 -->
<g id="edge75" class="edge"><title>Node38&#45;&gt;Node41</title>
<path fill="none" stroke="midnightblue" d="M1370.71,-69.1474C1375.37,-68.3788 1380,-67.6531 1384.5,-67 1536.19,-44.9754 1579.81,-72.0389 1727.5,-31 1729.43,-30.4631 1731.39,-29.8158 1733.34,-29.0964"/>
<polygon fill="midnightblue" stroke="midnightblue" points="1734.97,-32.2101 1742.8,-25.0777 1732.23,-25.7677 1734.97,-32.2101"/>
</g>
<!-- Node42 -->
<g id="node43" class="node"><title>Node42</title>
<polygon fill="white" stroke="#bfbfbf" points="1798,-6 1798,-25 1847,-25 1847,-6 1798,-6"/>
<text text-anchor="middle" x="1822.5" y="-13" font-family="FreeSans" font-size="10.00">istream</text>
</g>
<!-- Node38&#45;&gt;Node42 -->
<g id="edge76" class="edge"><title>Node38&#45;&gt;Node42</title>
<path fill="none" stroke="midnightblue" d="M1370.69,-69.067C1375.36,-68.3172 1380,-67.6178 1384.5,-67 1563.09,-42.499 1613.66,-74.8989 1788.5,-31 1790.86,-30.4067 1793.27,-29.6704 1795.66,-28.8466"/>
<polygon fill="midnightblue" stroke="midnightblue" points="1797.18,-32.012 1805.22,-25.1096 1794.63,-25.4929 1797.18,-32.012"/>
</g>
<!-- Node38&#45;&gt;Node43 -->
<g id="edge77" class="edge"><title>Node38&#45;&gt;Node43</title>
<path fill="none" stroke="midnightblue" d="M1242.34,-68.7899C1237.67,-68.1051 1233.02,-67.496 1228.5,-67 1000.62,-41.981 421.53,-79.6484 197.5,-31 194.821,-30.4182 192.086,-29.6413 189.384,-28.7484"/>
<polygon fill="midnightblue" stroke="midnightblue" points="190.499,-25.4278 179.908,-25.147 188.012,-31.9712 190.499,-25.4278"/>
</g>
<!-- Node44 -->
<g id="node45" class="node"><title>Node44</title>
<polygon fill="white" stroke="#bfbfbf" points="207,-0.5 207,-30.5 316,-30.5 316,-0.5 207,-0.5"/>
<text text-anchor="start" x="215" y="-18.5" font-family="FreeSans" font-size="10.00">boost/dynamic_bitset</text>
<text text-anchor="middle" x="261.5" y="-7.5" font-family="FreeSans" font-size="10.00">_fwd.hpp</text>
</g>
<!-- Node38&#45;&gt;Node44 -->
<g id="edge78" class="edge"><title>Node38&#45;&gt;Node44</title>
<path fill="none" stroke="midnightblue" d="M1242.34,-68.8153C1237.67,-68.1246 1233.02,-67.5072 1228.5,-67 832.67,-22.5518 725.468,-82.5827 326.279,-30.9045"/>
<polygon fill="midnightblue" stroke="midnightblue" points="326.564,-27.4119 316.194,-29.5832 325.654,-34.3526 326.564,-27.4119"/>
</g>
<!-- Node45 -->
<g id="node46" class="node"><title>Node45</title>
<polygon fill="white" stroke="#bfbfbf" points="334.5,-0.5 334.5,-30.5 440.5,-30.5 440.5,-0.5 334.5,-0.5"/>
<text text-anchor="start" x="342.5" y="-18.5" font-family="FreeSans" font-size="10.00">boost/detail/dynamic</text>
<text text-anchor="middle" x="387.5" y="-7.5" font-family="FreeSans" font-size="10.00">_bitset.hpp</text>
</g>
<!-- Node38&#45;&gt;Node45 -->
<g id="edge79" class="edge"><title>Node38&#45;&gt;Node45</title>
<path fill="none" stroke="midnightblue" d="M1242.33,-68.8479C1237.66,-68.1495 1233.02,-67.5215 1228.5,-67 887.475,-27.6119 794.562,-77.6935 450.801,-30.9982"/>
<polygon fill="midnightblue" stroke="midnightblue" points="451.201,-27.5203 440.818,-29.6245 450.247,-34.455 451.201,-27.5203"/>
</g>
<!-- Node46 -->
<g id="node47" class="node"><title>Node46</title>
<polygon fill="white" stroke="#bfbfbf" points="458.5,-6 458.5,-25 576.5,-25 576.5,-6 458.5,-6"/>
<text text-anchor="middle" x="517.5" y="-13" font-family="FreeSans" font-size="10.00">boost/detail/iterator.hpp</text>
</g>
<!-- Node38&#45;&gt;Node46 -->
<g id="edge80" class="edge"><title>Node38&#45;&gt;Node46</title>
<path fill="none" stroke="midnightblue" d="M1242.33,-68.898C1237.66,-68.1879 1233.01,-67.5435 1228.5,-67 944.328,-32.7739 869.197,-68.9584 585.5,-31 578.013,-29.9982 570.123,-28.6198 562.474,-27.1087"/>
<polygon fill="midnightblue" stroke="midnightblue" points="563.115,-23.6672 552.613,-25.0663 561.695,-30.5217 563.115,-23.6672"/>
</g>
<!-- Node47 -->
<g id="node48" class="node"><title>Node47</title>
<polygon fill="white" stroke="#bfbfbf" points="595,-6 595,-25 708,-25 708,-6 595,-6"/>
<text text-anchor="middle" x="651.5" y="-13" font-family="FreeSans" font-size="10.00">boost/move/move.hpp</text>
</g>
<!-- Node38&#45;&gt;Node47 -->
<g id="edge81" class="edge"><title>Node38&#45;&gt;Node47</title>
<path fill="none" stroke="midnightblue" d="M1242.32,-68.9712C1237.65,-68.2439 1233.01,-67.5757 1228.5,-67 1002.22,-38.1073 942.229,-63.9251 716.5,-31 709.659,-30.0021 702.467,-28.6793 695.462,-27.2377"/>
<polygon fill="midnightblue" stroke="midnightblue" points="695.908,-23.7535 685.394,-25.0648 694.431,-30.5959 695.908,-23.7535"/>
</g>
<!-- Node48 -->
<g id="node49" class="node"><title>Node48</title>
<polygon fill="white" stroke="#bfbfbf" points="726,-6 726,-25 811,-25 811,-6 726,-6"/>
<text text-anchor="middle" x="768.5" y="-13" font-family="FreeSans" font-size="10.00">boost/limits.hpp</text>
</g>
<!-- Node38&#45;&gt;Node48 -->
<g id="edge82" class="edge"><title>Node38&#45;&gt;Node48</title>
<path fill="none" stroke="midnightblue" d="M1242.31,-69.0615C1237.64,-68.313 1233,-67.6153 1228.5,-67 1047.7,-42.2959 998.953,-64.1 819.5,-31 814.716,-30.1177 809.735,-28.9818 804.84,-27.7346"/>
<polygon fill="midnightblue" stroke="midnightblue" points="805.576,-24.3077 795.008,-25.0638 803.741,-31.0629 805.576,-24.3077"/>
</g>
<!-- Node49 -->
<g id="node50" class="node"><title>Node49</title>
<polygon fill="white" stroke="#bfbfbf" points="829,-0.5 829,-30.5 938,-30.5 938,-0.5 829,-0.5"/>
<text text-anchor="start" x="837" y="-18.5" font-family="FreeSans" font-size="10.00">boost/pending/lowest</text>
<text text-anchor="middle" x="883.5" y="-7.5" font-family="FreeSans" font-size="10.00">_bit.hpp</text>
</g>
<!-- Node38&#45;&gt;Node49 -->
<g id="edge83" class="edge"><title>Node38&#45;&gt;Node49</title>
<path fill="none" stroke="midnightblue" d="M1242.28,-69.2643C1237.62,-68.4682 1232.99,-67.7044 1228.5,-67 1107.27,-47.9817 1073.2,-52.675 948.201,-31.0114"/>
<polygon fill="midnightblue" stroke="midnightblue" points="948.698,-27.5452 938.243,-29.2637 947.488,-34.4398 948.698,-27.5452"/>
</g>
<!-- Node50 -->
<g id="node51" class="node"><title>Node50</title>
<polygon fill="white" stroke="#bfbfbf" points="956.5,-6 956.5,-25 1074.5,-25 1074.5,-6 956.5,-6"/>
<text text-anchor="middle" x="1015.5" y="-13" font-family="FreeSans" font-size="10.00">boost/static_assert.hpp</text>
</g>
<!-- Node38&#45;&gt;Node50 -->
<g id="edge84" class="edge"><title>Node38&#45;&gt;Node50</title>
<path fill="none" stroke="midnightblue" d="M1243.72,-67.476C1189.63,-55.3953 1112.71,-38.2145 1063.45,-27.2112"/>
<polygon fill="midnightblue" stroke="midnightblue" points="1064.2,-23.7929 1053.68,-25.0287 1062.68,-30.6245 1064.2,-23.7929"/>
</g>
<!-- Node51 -->
<g id="node52" class="node"><title>Node51</title>
<polygon fill="white" stroke="#bfbfbf" points="1092.5,-6 1092.5,-25 1222.5,-25 1222.5,-6 1092.5,-6"/>
<text text-anchor="middle" x="1157.5" y="-13" font-family="FreeSans" font-size="10.00">boost/utility/addressof.hpp</text>
</g>
<!-- Node38&#45;&gt;Node51 -->
<g id="edge85" class="edge"><title>Node38&#45;&gt;Node51</title>
<path fill="none" stroke="midnightblue" d="M1274.17,-67.396C1248.03,-55.991 1211.55,-40.0794 1186.38,-29.0976"/>
<polygon fill="midnightblue" stroke="midnightblue" points="1187.57,-25.7975 1177,-25.007 1184.77,-32.2136 1187.57,-25.7975"/>
</g>
<!-- Node52 -->
<g id="node53" class="node"><title>Node52</title>
<polygon fill="white" stroke="#bfbfbf" points="1240.5,-0.5 1240.5,-30.5 1372.5,-30.5 1372.5,-0.5 1240.5,-0.5"/>
<text text-anchor="start" x="1248.5" y="-18.5" font-family="FreeSans" font-size="10.00">boost/detail/no_exceptions</text>
<text text-anchor="middle" x="1306.5" y="-7.5" font-family="FreeSans" font-size="10.00">_support.hpp</text>
</g>
<!-- Node38&#45;&gt;Node52 -->
<g id="edge86" class="edge"><title>Node38&#45;&gt;Node52</title>
<path fill="none" stroke="midnightblue" d="M1306.5,-67.396C1306.5,-59.6448 1306.5,-49.8122 1306.5,-40.8601"/>
<polygon fill="midnightblue" stroke="midnightblue" points="1310,-40.5765 1306.5,-30.5765 1303,-40.5765 1310,-40.5765"/>
</g>
<!-- Node53 -->
<g id="node54" class="node"><title>Node53</title>
<polygon fill="white" stroke="#bfbfbf" points="1390.5,-6 1390.5,-25 1522.5,-25 1522.5,-6 1390.5,-6"/>
<text text-anchor="middle" x="1456.5" y="-13" font-family="FreeSans" font-size="10.00">boost/throw_exception.hpp</text>
</g>
<!-- Node38&#45;&gt;Node53 -->
<g id="edge87" class="edge"><title>Node38&#45;&gt;Node53</title>
<path fill="none" stroke="midnightblue" d="M1339.05,-67.396C1365.37,-55.991 1402.09,-40.0794 1427.43,-29.0976"/>
<polygon fill="midnightblue" stroke="midnightblue" points="1429.08,-32.1946 1436.87,-25.007 1426.3,-25.7717 1429.08,-32.1946"/>
</g>
<!-- Node57&#45;&gt;Node12 -->
<g id="edge102" class="edge"><title>Node57&#45;&gt;Node12</title>
<path fill="none" stroke="midnightblue" d="M1642.54,-139.789C1628.7,-123.573 1603.4,-88.4585 1622.5,-67 1668.31,-15.5222 1864.22,-49.8405 1930.5,-31 1932.43,-30.4517 1934.39,-29.796 1936.34,-29.0707"/>
<polygon fill="midnightblue" stroke="midnightblue" points="1937.96,-32.1817 1945.79,-25.0395 1935.22,-25.7428 1937.96,-32.1817"/>
</g>
<!-- Node57&#45;&gt;Node26 -->
<g id="edge101" class="edge"><title>Node57&#45;&gt;Node26</title>
<path fill="none" stroke="midnightblue" d="M1684.8,-141.941C1733.35,-132.587 1824.85,-114.692 1902.5,-98 1962.69,-85.0617 1977.02,-78.5122 2037.5,-67 2139.52,-47.5786 2260.27,-30.7978 2324.65,-22.3421"/>
<polygon fill="midnightblue" stroke="midnightblue" points="2325.4,-25.7736 2334.87,-21.0083 2324.5,-18.8326 2325.4,-25.7736"/>
</g>
<!-- Node57&#45;&gt;Node38 -->
<g id="edge100" class="edge"><title>Node57&#45;&gt;Node38</title>
<path fill="none" stroke="midnightblue" d="M1624.25,-139.928C1617.23,-137.813 1609.62,-135.675 1602.5,-134 1527.79,-116.414 1441.11,-102.352 1380.93,-93.5782"/>
<polygon fill="midnightblue" stroke="midnightblue" points="1381.16,-90.075 1370.76,-92.1089 1380.16,-97.003 1381.16,-90.075"/>
</g>
<!-- Node58&#45;&gt;Node12 -->
<g id="edge105" class="edge"><title>Node58&#45;&gt;Node12</title>
<path fill="none" stroke="midnightblue" d="M1886.23,-72.7338C1900.45,-62.1106 1924.63,-44.0485 1941.74,-31.2642"/>
<polygon fill="midnightblue" stroke="midnightblue" points="1944.04,-33.9165 1949.95,-25.1273 1939.85,-28.3087 1944.04,-33.9165"/>
</g>
<!-- Node58&#45;&gt;Node26 -->
<g id="edge104" class="edge"><title>Node58&#45;&gt;Node26</title>
<path fill="none" stroke="midnightblue" d="M1894.14,-77.8147C1911.14,-74.6968 1936.39,-70.2329 1958.5,-67 2091.38,-47.572 2125.24,-47.6211 2258.5,-31 2280.39,-28.2701 2304.67,-25.1394 2325.01,-22.4874"/>
<polygon fill="midnightblue" stroke="midnightblue" points="2325.49,-25.9545 2334.95,-21.1884 2324.58,-19.0135 2325.49,-25.9545"/>
</g>
<!-- Node60 -->
<g id="node61" class="node"><title>Node60</title>
<g id="a_node61"><a xlink:href="TaggedData_8ipp.html" target="_top" xlink:title="TaggedData.ipp">
<polygon fill="white" stroke="black" points="2046.5,-73 2046.5,-92 2130.5,-92 2130.5,-73 2046.5,-73"/>
<text text-anchor="middle" x="2088.5" y="-80" font-family="FreeSans" font-size="10.00">TaggedData.ipp</text>
</a>
</g>
</g>
<!-- Node59&#45;&gt;Node60 -->
<g id="edge108" class="edge"><title>Node59&#45;&gt;Node60</title>
<path fill="none" stroke="midnightblue" d="M2050.92,-134.396C2058.33,-124.361 2068.31,-110.838 2076.13,-100.253"/>
<polygon fill="midnightblue" stroke="midnightblue" points="2078.95,-102.318 2082.08,-92.1945 2073.32,-98.1597 2078.95,-102.318"/>
</g>
<!-- Node60&#45;&gt;Node1 -->
<g id="edge109" class="edge"><title>Node60&#45;&gt;Node1</title>
<path fill="none" stroke="midnightblue" d="M2101.58,-72.7338C2117.65,-61.9644 2145.13,-43.55 2164.25,-30.7395"/>
<polygon fill="midnightblue" stroke="midnightblue" points="2166.27,-33.6017 2172.63,-25.1273 2162.37,-27.7865 2166.27,-33.6017"/>
</g>
</g>
</svg>
        <g id="navigator" transform="translate(0 0)" fill="#404254">
                <rect fill="#f2f5e9" fill-opacity="0.5" stroke="#606060" stroke-width=".5" x="0" y="0" width="60" height="60"/>
                <use id="zoomplus" xlink:href="#zoomPlus" x="17" y="9" onmousedown="handleZoom(evt,'in')"/>
                <use id="zoomminus" xlink:href="#zoomMin" x="42" y="9" onmousedown="handleZoom(evt,'out')"/>
                <use id="reset" xlink:href="#resetDef" x="30" y="36" onmousedown="handleReset()"/>
                <g id="arrowUp" xlink:href="#dirArrow" transform="translate(30 24)" onmousedown="handlePan(0,-1)">
                  <use xlink:href="#rim" fill="#404040">
                        <set attributeName="fill" to="#808080" begin="arrowUp.mouseover" end="arrowUp.mouseout"/>
                  </use>
                  <path fill="none" stroke="white" stroke-width="1.5" d="M0,-3.0v7 M-2.5,-0.5L0,-3.0L2.5,-0.5"/>
                </g>
                <g id="arrowRight" xlink:href="#dirArrow" transform="rotate(90) translate(36 -43)" onmousedown="handlePan(1,0)">
                  <use xlink:href="#rim" fill="#404040">
                        <set attributeName="fill" to="#808080" begin="arrowRight.mouseover" end="arrowRight.mouseout"/>
                  </use>
                  <path fill="none" stroke="white" stroke-width="1.5" d="M0,-3.0v7 M-2.5,-0.5L0,-3.0L2.5,-0.5"/>
                </g>
                <g id="arrowDown" xlink:href="#dirArrow" transform="rotate(180) translate(-30 -48)" onmousedown="handlePan(0,1)">
                  <use xlink:href="#rim" fill="#404040">
                        <set attributeName="fill" to="#808080" begin="arrowDown.mouseover" end="arrowDown.mouseout"/>
                  </use>
                  <path fill="none" stroke="white" stroke-width="1.5" d="M0,-3.0v7 M-2.5,-0.5L0,-3.0L2.5,-0.5"/>
                </g>
                <g id="arrowLeft" xlink:href="#dirArrow" transform="rotate(270) translate(-36 17)" onmousedown="handlePan(-1,0)">
                  <use xlink:href="#rim" fill="#404040">
                        <set attributeName="fill" to="#808080" begin="arrowLeft.mouseover" end="arrowLeft.mouseout"/>
                  </use>
                  <path fill="none" stroke="white" stroke-width="1.5" d="M0,-3.0v7 M-2.5,-0.5L0,-3.0L2.5,-0.5"/>
                </g>
        </g>
        <svg viewBox="0 0 15 15" width="100%" height="30px" preserveAspectRatio="xMaxYMin meet">
         <g id="arrow_out" transform="scale(0.3 0.3)">
          <a xlink:href="NearestNeighbourMatcher_8ipp__incl_org.svg" target="_base">
           <rect id="button" ry="5" rx="5" y="6" x="6" height="38" width="38"
                fill="#f2f5e9" fill-opacity="0.5" stroke="#606060" stroke-width="1.0"/>
           <path id="arrow"
             d="M 11.500037,31.436501 C 11.940474,20.09759 22.043105,11.32322 32.158766,21.979434 L 37.068811,17.246167 C 37.068811,17.246167 37.088388,32 37.088388,32 L 22.160133,31.978069 C 22.160133,31.978069 26.997745,27.140456 26.997745,27.140456 C 18.528582,18.264221 13.291696,25.230495 11.500037,31.436501 z"
             style="fill:#404040;"/>
          </a>
         </g>
        </svg>
</svg>
