<?xml version="1.0" encoding="UTF-8" standalone="no"?>
<!DOCTYPE svg PUBLIC "-//W3C//DTD SVG 1.1//EN"
 "http://www.w3.org/Graphics/SVG/1.1/DTD/svg11.dtd">
<!-- Generated by graphviz version 2.38.0 (20140413.2041)
 -->
<!-- Title: src/Numeric/NumericalApproximations.h Pages: 1 -->
<svg width="1126pt" height="151pt"
 viewBox="0.00 0.00 1126.00 151.00" xmlns="http://www.w3.org/2000/svg" xmlns:xlink="http://www.w3.org/1999/xlink">
<g id="graph0" class="graph" transform="scale(1 1) rotate(0) translate(4 147)">
<title>src/Numeric/NumericalApproximations.h</title>
<polygon fill="white" stroke="none" points="-4,4 -4,-147 1122,-147 1122,4 -4,4"/>
<!-- Node0 -->
<g id="node1" class="node"><title>Node0</title>
<polygon fill="#bfbfbf" stroke="black" points="615.5,-123.5 615.5,-142.5 806.5,-142.5 806.5,-123.5 615.5,-123.5"/>
<text text-anchor="middle" x="711" y="-130.5" font-family="FreeSans" font-size="10.00">src/Numeric/NumericalApproximations.h</text>
</g>
<!-- Node1 -->
<g id="node2" class="node"><title>Node1</title>
<g id="a_node2"><a xlink:href="NumericalApproximations_8ipp.html" target="_top" xlink:title="NumericalApproximations.ipp">
<polygon fill="white" stroke="black" points="639.5,-67.5 639.5,-86.5 782.5,-86.5 782.5,-67.5 639.5,-67.5"/>
<text text-anchor="middle" x="711" y="-74.5" font-family="FreeSans" font-size="10.00">NumericalApproximations.ipp</text>
</a>
</g>
</g>
<!-- Node0&#45;&gt;Node1 -->
<g id="edge1" class="edge"><title>Node0&#45;&gt;Node1</title>
<path fill="none" stroke="midnightblue" d="M711,-123.083C711,-116.006 711,-105.861 711,-96.9865"/>
<polygon fill="midnightblue" stroke="midnightblue" points="714.5,-96.751 711,-86.7511 707.5,-96.7511 714.5,-96.751"/>
</g>
<!-- Node2 -->
<g id="node3" class="node"><title>Node2</title>
<polygon fill="white" stroke="#bfbfbf" points="0,-6 0,-25 128,-25 128,-6 0,-6"/>
<text text-anchor="middle" x="64" y="-13" font-family="FreeSans" font-size="10.00">boost/concept_check.hpp</text>
</g>
<!-- Node1&#45;&gt;Node2 -->
<g id="edge2" class="edge"><title>Node1&#45;&gt;Node2</title>
<path fill="none" stroke="midnightblue" d="M639.119,-73.0874C530.129,-68.0574 316.721,-55.8058 137,-31 128.992,-29.8947 120.538,-28.4637 112.335,-26.9321"/>
<polygon fill="midnightblue" stroke="midnightblue" points="112.982,-23.4925 102.5,-25.0292 111.653,-30.3651 112.982,-23.4925"/>
</g>
<!-- Node3 -->
<g id="node4" class="node"><title>Node3</title>
<polygon fill="white" stroke="#bfbfbf" points="146.5,-0.5 146.5,-30.5 257.5,-30.5 257.5,-0.5 146.5,-0.5"/>
<text text-anchor="start" x="154.5" y="-18.5" font-family="FreeSans" font-size="10.00">boost/math/constants</text>
<text text-anchor="middle" x="202" y="-7.5" font-family="FreeSans" font-size="10.00">/constants.hpp</text>
</g>
<!-- Node1&#45;&gt;Node3 -->
<g id="edge3" class="edge"><title>Node1&#45;&gt;Node3</title>
<path fill="none" stroke="midnightblue" d="M639.143,-71.3477C553.207,-65.1943 404.871,-52.7069 267.85,-31.0013"/>
<polygon fill="midnightblue" stroke="midnightblue" points="268.014,-27.4829 257.585,-29.3544 266.905,-34.3945 268.014,-27.4829"/>
</g>
<!-- Node4 -->
<g id="node5" class="node"><title>Node4</title>
<polygon fill="white" stroke="#bfbfbf" points="276,-6 276,-25 426,-25 426,-6 276,-6"/>
<text text-anchor="middle" x="351" y="-13" font-family="FreeSans" font-size="10.00">boost/range/metafunctions.hpp</text>
</g>
<!-- Node1&#45;&gt;Node4 -->
<g id="edge4" class="edge"><title>Node1&#45;&gt;Node4</title>
<path fill="none" stroke="midnightblue" d="M657.807,-67.4779C602.209,-58.5352 512.446,-43.9975 435,-31 426.818,-29.6268 418.191,-28.1596 409.706,-26.7055"/>
<polygon fill="midnightblue" stroke="midnightblue" points="410.295,-23.2555 399.847,-25.011 409.109,-30.1543 410.295,-23.2555"/>
</g>
<!-- Node5 -->
<g id="node6" class="node"><title>Node5</title>
<polygon fill="white" stroke="#bfbfbf" points="444,-6 444,-25 572,-25 572,-6 444,-6"/>
<text text-anchor="middle" x="508" y="-13" font-family="FreeSans" font-size="10.00">boost/range/functions.hpp</text>
</g>
<!-- Node1&#45;&gt;Node5 -->
<g id="edge5" class="edge"><title>Node1&#45;&gt;Node5</title>
<path fill="none" stroke="midnightblue" d="M681.915,-67.4751C646.415,-57.0699 586.255,-39.4367 546.826,-27.8801"/>
<polygon fill="midnightblue" stroke="midnightblue" points="547.612,-24.4632 537.031,-25.0091 545.643,-31.1806 547.612,-24.4632"/>
</g>
<!-- Node6 -->
<g id="node7" class="node"><title>Node6</title>
<polygon fill="white" stroke="#bfbfbf" points="590,-6 590,-25 634,-25 634,-6 590,-6"/>
<text text-anchor="middle" x="612" y="-13" font-family="FreeSans" font-size="10.00">cmath</text>
</g>
<!-- Node1&#45;&gt;Node6 -->
<g id="edge6" class="edge"><title>Node1&#45;&gt;Node6</title>
<path fill="none" stroke="midnightblue" d="M696.816,-67.4751C680.642,-57.7548 653.974,-41.7266 634.857,-30.2372"/>
<polygon fill="midnightblue" stroke="midnightblue" points="636.532,-27.1606 626.158,-25.0091 632.926,-33.1603 636.532,-27.1606"/>
</g>
<!-- Node7 -->
<g id="node8" class="node"><title>Node7</title>
<polygon fill="white" stroke="#bfbfbf" points="652.5,-6 652.5,-25 697.5,-25 697.5,-6 652.5,-6"/>
<text text-anchor="middle" x="675" y="-13" font-family="FreeSans" font-size="10.00">climits</text>
</g>
<!-- Node1&#45;&gt;Node7 -->
<g id="edge7" class="edge"><title>Node1&#45;&gt;Node7</title>
<path fill="none" stroke="midnightblue" d="M705.842,-67.4751C700.549,-58.7268 692.165,-44.8691 685.473,-33.8093"/>
<polygon fill="midnightblue" stroke="midnightblue" points="688.32,-31.7531 680.148,-25.0091 682.33,-35.3768 688.32,-31.7531"/>
</g>
<!-- Node8 -->
<g id="node9" class="node"><title>Node8</title>
<polygon fill="white" stroke="#bfbfbf" points="716,-6 716,-25 778,-25 778,-6 716,-6"/>
<text text-anchor="middle" x="747" y="-13" font-family="FreeSans" font-size="10.00">type_traits</text>
</g>
<!-- Node1&#45;&gt;Node8 -->
<g id="edge8" class="edge"><title>Node1&#45;&gt;Node8</title>
<path fill="none" stroke="midnightblue" d="M716.158,-67.4751C721.451,-58.7268 729.835,-44.8691 736.527,-33.8093"/>
<polygon fill="midnightblue" stroke="midnightblue" points="739.67,-35.3768 741.852,-25.0091 733.68,-31.7531 739.67,-35.3768"/>
</g>
<!-- Node9 -->
<g id="node10" class="node"><title>Node9</title>
<polygon fill="white" stroke="#bfbfbf" points="796,-6 796,-25 840,-25 840,-6 796,-6"/>
<text text-anchor="middle" x="818" y="-13" font-family="FreeSans" font-size="10.00">vector</text>
</g>
<!-- Node1&#45;&gt;Node9 -->
<g id="edge9" class="edge"><title>Node1&#45;&gt;Node9</title>
<path fill="none" stroke="midnightblue" d="M726.33,-67.4751C743.97,-57.6664 773.16,-41.4346 793.858,-29.925"/>
<polygon fill="midnightblue" stroke="midnightblue" points="795.659,-32.9279 802.698,-25.0091 792.257,-26.8102 795.659,-32.9279"/>
</g>
<!-- Node10 -->
<g id="node11" class="node"><title>Node10</title>
<polygon fill="white" stroke="#bfbfbf" points="858.5,-6 858.5,-25 893.5,-25 893.5,-6 858.5,-6"/>
<text text-anchor="middle" x="876" y="-13" font-family="FreeSans" font-size="10.00">map</text>
</g>
<!-- Node1&#45;&gt;Node10 -->
<g id="edge10" class="edge"><title>Node1&#45;&gt;Node10</title>
<path fill="none" stroke="midnightblue" d="M742.548,-67.4482C770.903,-59.3562 813.433,-46.2067 849,-31 850.003,-30.5712 851.018,-30.1181 852.038,-29.6473"/>
<polygon fill="midnightblue" stroke="midnightblue" points="853.721,-32.7191 861.096,-25.1128 850.587,-26.4596 853.721,-32.7191"/>
</g>
<!-- Node11 -->
<g id="node12" class="node"><title>Node11</title>
<polygon fill="white" stroke="#bfbfbf" points="912,-6 912,-25 968,-25 968,-6 912,-6"/>
<text text-anchor="middle" x="940" y="-13" font-family="FreeSans" font-size="10.00">algorithm</text>
</g>
<!-- Node1&#45;&gt;Node11 -->
<g id="edge11" class="edge"><title>Node1&#45;&gt;Node11</title>
<path fill="none" stroke="midnightblue" d="M755.329,-67.4926C794.558,-59.5198 853.15,-46.522 903,-31 905.421,-30.2462 907.909,-29.41 910.396,-28.5306"/>
<polygon fill="midnightblue" stroke="midnightblue" points="911.686,-31.7848 919.83,-25.0078 909.238,-25.2271 911.686,-31.7848"/>
</g>
<!-- Node12 -->
<g id="node13" class="node"><title>Node12</title>
<polygon fill="white" stroke="#bfbfbf" points="986.5,-6 986.5,-25 1045.5,-25 1045.5,-6 986.5,-6"/>
<text text-anchor="middle" x="1016" y="-13" font-family="FreeSans" font-size="10.00">functional</text>
</g>
<!-- Node1&#45;&gt;Node12 -->
<g id="edge12" class="edge"><title>Node1&#45;&gt;Node12</title>
<path fill="none" stroke="midnightblue" d="M782.63,-67.6063C836.624,-60.385 912.192,-48.3633 977,-31 979.813,-30.2464 982.707,-29.3706 985.587,-28.4297"/>
<polygon fill="midnightblue" stroke="midnightblue" points="986.907,-31.6757 995.185,-25.0634 984.591,-25.0702 986.907,-31.6757"/>
</g>
<!-- Node13 -->
<g id="node14" class="node"><title>Node13</title>
<polygon fill="white" stroke="#bfbfbf" points="1064,-6 1064,-25 1118,-25 1118,-6 1064,-6"/>
<text text-anchor="middle" x="1091" y="-13" font-family="FreeSans" font-size="10.00">iostream</text>
</g>
<!-- Node1&#45;&gt;Node13 -->
<g id="edge13" class="edge"><title>Node1&#45;&gt;Node13</title>
<path fill="none" stroke="midnightblue" d="M782.503,-71.9286C852.793,-66.6976 962.657,-55.2183 1055,-31 1057.51,-30.3419 1060.08,-29.5538 1062.63,-28.6897"/>
<polygon fill="midnightblue" stroke="midnightblue" points="1064.11,-31.875 1072.25,-25.0944 1061.65,-25.3183 1064.11,-31.875"/>
</g>
</g>
</svg>
