<?xml version="1.0" encoding="UTF-8" standalone="no"?>
<!DOCTYPE svg PUBLIC "-//W3C//DTD SVG 1.1//EN"
 "http://www.w3.org/Graphics/SVG/1.1/DTD/svg11.dtd">
<!-- Generated by graphviz version 2.38.0 (20140413.2041)
 -->
<!-- Title: src/Numeric/NumericFunctor.cpp Pages: 1 -->
<svg width="169pt" height="196pt"
 viewBox="0.00 0.00 169.00 196.00" xmlns="http://www.w3.org/2000/svg" xmlns:xlink="http://www.w3.org/1999/xlink">
<g id="graph0" class="graph" transform="scale(1 1) rotate(0) translate(4 192)">
<title>src/Numeric/NumericFunctor.cpp</title>
<polygon fill="white" stroke="none" points="-4,4 -4,-192 165,-192 165,4 -4,4"/>
<!-- Node0 -->
<g id="node1" class="node"><title>Node0</title>
<polygon fill="#bfbfbf" stroke="black" points="0,-168.5 0,-187.5 161,-187.5 161,-168.5 0,-168.5"/>
<text text-anchor="middle" x="80.5" y="-175.5" font-family="FreeSans" font-size="10.00">src/Numeric/NumericFunctor.cpp</text>
</g>
<!-- Node1 -->
<g id="node2" class="node"><title>Node1</title>
<g id="a_node2"><a xlink:href="NumericFunctor_8h.html" target="_top" xlink:title="NumericFunctor.h">
<polygon fill="white" stroke="black" points="33.5,-112.5 33.5,-131.5 127.5,-131.5 127.5,-112.5 33.5,-112.5"/>
<text text-anchor="middle" x="80.5" y="-119.5" font-family="FreeSans" font-size="10.00">NumericFunctor.h</text>
</a>
</g>
</g>
<!-- Node0&#45;&gt;Node1 -->
<g id="edge1" class="edge"><title>Node0&#45;&gt;Node1</title>
<path fill="none" stroke="midnightblue" d="M80.5,-168.083C80.5,-161.006 80.5,-150.861 80.5,-141.986"/>
<polygon fill="midnightblue" stroke="midnightblue" points="84.0001,-141.751 80.5,-131.751 77.0001,-141.751 84.0001,-141.751"/>
</g>
<!-- Node2 -->
<g id="node3" class="node"><title>Node2</title>
<g id="a_node3"><a xlink:href="NumericFunctor_8ipp.html" target="_top" xlink:title="NumericFunctor.ipp">
<polygon fill="white" stroke="black" points="30,-56.5 30,-75.5 131,-75.5 131,-56.5 30,-56.5"/>
<text text-anchor="middle" x="80.5" y="-63.5" font-family="FreeSans" font-size="10.00">NumericFunctor.ipp</text>
</a>
</g>
</g>
<!-- Node1&#45;&gt;Node2 -->
<g id="edge2" class="edge"><title>Node1&#45;&gt;Node2</title>
<path fill="none" stroke="midnightblue" d="M80.5,-112.083C80.5,-105.006 80.5,-94.8611 80.5,-85.9865"/>
<polygon fill="midnightblue" stroke="midnightblue" points="84.0001,-85.751 80.5,-75.7511 77.0001,-85.7511 84.0001,-85.751"/>
</g>
<!-- Node3 -->
<g id="node4" class="node"><title>Node3</title>
<polygon fill="white" stroke="#bfbfbf" points="49.5,-0.5 49.5,-19.5 111.5,-19.5 111.5,-0.5 49.5,-0.5"/>
<text text-anchor="middle" x="80.5" y="-7.5" font-family="FreeSans" font-size="10.00">type_traits</text>
</g>
<!-- Node2&#45;&gt;Node3 -->
<g id="edge3" class="edge"><title>Node2&#45;&gt;Node3</title>
<path fill="none" stroke="midnightblue" d="M80.5,-56.083C80.5,-49.0059 80.5,-38.8611 80.5,-29.9865"/>
<polygon fill="midnightblue" stroke="midnightblue" points="84.0001,-29.751 80.5,-19.7511 77.0001,-29.7511 84.0001,-29.751"/>
</g>
</g>
</svg>
