<?xml version="1.0" encoding="UTF-8" standalone="no"?>
<!DOCTYPE svg PUBLIC "-//W3C//DTD SVG 1.1//EN"
 "http://www.w3.org/Graphics/SVG/1.1/DTD/svg11.dtd">
<!-- Generated by graphviz version 2.38.0 (20140413.2041)
 -->
<!-- Title: src/Numeric/NumericFunctor.ipp Pages: 1 -->
<svg width="166pt" height="84pt"
 viewBox="0.00 0.00 166.00 84.00" xmlns="http://www.w3.org/2000/svg" xmlns:xlink="http://www.w3.org/1999/xlink">
<g id="graph0" class="graph" transform="scale(1 1) rotate(0) translate(4 80)">
<title>src/Numeric/NumericFunctor.ipp</title>
<polygon fill="white" stroke="none" points="-4,4 -4,-80 162,-80 162,4 -4,4"/>
<!-- Node0 -->
<g id="node1" class="node"><title>Node0</title>
<polygon fill="#bfbfbf" stroke="black" points="-1.42109e-14,-56.5 -1.42109e-14,-75.5 158,-75.5 158,-56.5 -1.42109e-14,-56.5"/>
<text text-anchor="middle" x="79" y="-63.5" font-family="FreeSans" font-size="10.00">src/Numeric/NumericFunctor.ipp</text>
</g>
<!-- Node1 -->
<g id="node2" class="node"><title>Node1</title>
<polygon fill="white" stroke="#bfbfbf" points="48,-0.5 48,-19.5 110,-19.5 110,-0.5 48,-0.5"/>
<text text-anchor="middle" x="79" y="-7.5" font-family="FreeSans" font-size="10.00">type_traits</text>
</g>
<!-- Node0&#45;&gt;Node1 -->
<g id="edge1" class="edge"><title>Node0&#45;&gt;Node1</title>
<path fill="none" stroke="midnightblue" d="M79,-56.083C79,-49.0059 79,-38.8611 79,-29.9865"/>
<polygon fill="midnightblue" stroke="midnightblue" points="82.5001,-29.751 79,-19.7511 75.5001,-29.7511 82.5001,-29.751"/>
</g>
</g>
</svg>
