<?xml version="1.0" encoding="UTF-8" standalone="no"?>
<!DOCTYPE svg PUBLIC "-//W3C//DTD SVG 1.1//EN"
 "http://www.w3.org/Graphics/SVG/1.1/DTD/svg11.dtd">
<!-- Generated by graphviz version 2.38.0 (20140413.2041)
 -->
<!-- Title: src/Geometry/P2PSolver.ipp Pages: 1 -->
<svg width="1875pt" height="899pt"
 viewBox="0.00 0.00 1875.00 899.00" xmlns="http://www.w3.org/2000/svg" xmlns:xlink="http://www.w3.org/1999/xlink">
<g id="graph0" class="graph" transform="scale(1 1) rotate(0) translate(4 895)">
<title>src/Geometry/P2PSolver.ipp</title>
<polygon fill="white" stroke="none" points="-4,4 -4,-895 1871,-895 1871,4 -4,4"/>
<!-- Node111 -->
<g id="node1" class="node"><title>Node111</title>
<polygon fill="#bfbfbf" stroke="black" points="731,-871.5 731,-890.5 871,-890.5 871,-871.5 731,-871.5"/>
<text text-anchor="middle" x="801" y="-878.5" font-family="FreeSans" font-size="10.00">src/Geometry/P2PSolver.ipp</text>
</g>
<!-- Node112 -->
<g id="node2" class="node"><title>Node112</title>
<g id="a_node2"><a xlink:href="P2PSolver_8h.html" target="_top" xlink:title="src/Geometry/P2PSolver.h">
<polygon fill="white" stroke="black" points="735,-815.5 735,-834.5 867,-834.5 867,-815.5 735,-815.5"/>
<text text-anchor="middle" x="801" y="-822.5" font-family="FreeSans" font-size="10.00">src/Geometry/P2PSolver.h</text>
</a>
</g>
</g>
<!-- Node111&#45;&gt;Node112 -->
<g id="edge1" class="edge"><title>Node111&#45;&gt;Node112</title>
<path fill="none" stroke="midnightblue" d="M801,-860.805C801,-851.91 801,-841.78 801,-834.751"/>
<polygon fill="midnightblue" stroke="midnightblue" points="797.5,-861.083 801,-871.083 804.5,-861.083 797.5,-861.083"/>
</g>
<!-- Node113 -->
<g id="node3" class="node"><title>Node113</title>
<g id="a_node3"><a xlink:href="P2PComponents_8ipp.html" target="_top" xlink:title="src/GeometryEstimationComponents\l/P2PComponents.ipp">
<polygon fill="white" stroke="black" points="189,-502.5 189,-532.5 365,-532.5 365,-502.5 189,-502.5"/>
<text text-anchor="start" x="197" y="-520.5" font-family="FreeSans" font-size="10.00">src/GeometryEstimationComponents</text>
<text text-anchor="middle" x="277" y="-509.5" font-family="FreeSans" font-size="10.00">/P2PComponents.ipp</text>
</a>
</g>
</g>
<!-- Node112&#45;&gt;Node113 -->
<g id="edge2" class="edge"><title>Node112&#45;&gt;Node113</title>
<path fill="none" stroke="midnightblue" d="M724.501,-820.336C599.444,-812.234 365,-787.274 365,-714 365,-714 365,-714 365,-650.5 365,-600.373 320.522,-554.803 294.808,-532.647"/>
<polygon fill="midnightblue" stroke="midnightblue" points="724.582,-823.848 734.781,-820.981 725.019,-816.862 724.582,-823.848"/>
</g>
<!-- Node145 -->
<g id="node35" class="node"><title>Node145</title>
<g id="a_node35"><a xlink:href="PDLP2PProblem_8ipp.html" target="_top" xlink:title="src/Optimisation/PDLP2PProblem.ipp">
<polygon fill="white" stroke="black" points="433,-703.5 433,-722.5 613,-722.5 613,-703.5 433,-703.5"/>
<text text-anchor="middle" x="523" y="-710.5" font-family="FreeSans" font-size="10.00">src/Optimisation/PDLP2PProblem.ipp</text>
</a>
</g>
</g>
<!-- Node112&#45;&gt;Node145 -->
<g id="edge38" class="edge"><title>Node112&#45;&gt;Node145</title>
<path fill="none" stroke="midnightblue" d="M769.627,-811.586C712.672,-789.05 593.641,-741.951 544.713,-722.591"/>
<polygon fill="midnightblue" stroke="midnightblue" points="768.599,-814.944 779.186,-815.368 771.175,-808.435 768.599,-814.944"/>
</g>
<!-- Node149 -->
<g id="node39" class="node"><title>Node149</title>
<g id="a_node39"><a xlink:href="P2PfSolver_8ipp.html" target="_top" xlink:title="src/Geometry/P2PfSolver.ipp">
<polygon fill="white" stroke="black" points="729.5,-759.5 729.5,-778.5 872.5,-778.5 872.5,-759.5 729.5,-759.5"/>
<text text-anchor="middle" x="801" y="-766.5" font-family="FreeSans" font-size="10.00">src/Geometry/P2PfSolver.ipp</text>
</a>
</g>
</g>
<!-- Node112&#45;&gt;Node149 -->
<g id="edge43" class="edge"><title>Node112&#45;&gt;Node149</title>
<path fill="none" stroke="midnightblue" d="M801,-804.805C801,-795.91 801,-785.78 801,-778.751"/>
<polygon fill="midnightblue" stroke="midnightblue" points="797.5,-805.083 801,-815.083 804.5,-805.083 797.5,-805.083"/>
</g>
<!-- Node158 -->
<g id="node48" class="node"><title>Node158</title>
<g id="a_node48"><a xlink:href="TestGeometry_8cpp.html" target="_top" xlink:title="src/Geometry/TestGeometry.cpp">
<polygon fill="white" stroke="black" points="1051,-642 1051,-661 1209,-661 1209,-642 1051,-642"/>
<text text-anchor="middle" x="1130" y="-649" font-family="FreeSans" font-size="10.00">src/Geometry/TestGeometry.cpp</text>
</a>
</g>
</g>
<!-- Node112&#45;&gt;Node158 -->
<g id="edge60" class="edge"><title>Node112&#45;&gt;Node158</title>
<path fill="none" stroke="midnightblue" d="M825.085,-810.563C849.041,-797.265 886.9,-776.428 920,-759 991.077,-721.577 1076.77,-678.857 1112.76,-661.02"/>
<polygon fill="midnightblue" stroke="midnightblue" points="823.362,-807.516 816.323,-815.435 826.764,-813.634 823.362,-807.516"/>
</g>
<!-- Node159 -->
<g id="node49" class="node"><title>Node159</title>
<g id="a_node49"><a xlink:href="P2PSolver_8cpp.html" target="_top" xlink:title="src/Geometry/P2PSolver.cpp">
<polygon fill="white" stroke="black" points="929.5,-759.5 929.5,-778.5 1072.5,-778.5 1072.5,-759.5 929.5,-759.5"/>
<text text-anchor="middle" x="1001" y="-766.5" font-family="FreeSans" font-size="10.00">src/Geometry/P2PSolver.cpp</text>
</a>
</g>
</g>
<!-- Node112&#45;&gt;Node159 -->
<g id="edge59" class="edge"><title>Node112&#45;&gt;Node159</title>
<path fill="none" stroke="midnightblue" d="M842.374,-812.829C880.136,-802.633 935.14,-787.782 969.458,-778.516"/>
<polygon fill="midnightblue" stroke="midnightblue" points="841.433,-809.458 832.691,-815.444 843.257,-816.216 841.433,-809.458"/>
</g>
<!-- Node114 -->
<g id="node4" class="node"><title>Node114</title>
<g id="a_node4"><a xlink:href="P2PComponents_8h.html" target="_top" xlink:title="src/GeometryEstimationComponents\l/P2PComponents.h">
<polygon fill="white" stroke="black" points="243,-435.5 243,-465.5 419,-465.5 419,-435.5 243,-435.5"/>
<text text-anchor="start" x="251" y="-453.5" font-family="FreeSans" font-size="10.00">src/GeometryEstimationComponents</text>
<text text-anchor="middle" x="331" y="-442.5" font-family="FreeSans" font-size="10.00">/P2PComponents.h</text>
</a>
</g>
</g>
<!-- Node113&#45;&gt;Node114 -->
<g id="edge3" class="edge"><title>Node113&#45;&gt;Node114</title>
<path fill="none" stroke="midnightblue" d="M295.321,-494.447C303.253,-484.899 312.305,-474.004 319.306,-465.577"/>
<polygon fill="midnightblue" stroke="midnightblue" points="292.415,-492.467 288.717,-502.396 297.8,-496.941 292.415,-492.467"/>
</g>
<!-- Node115 -->
<g id="node5" class="node"><title>Node115</title>
<g id="a_node5"><a xlink:href="AppGeometryEstimator32_8cpp.html" target="_top" xlink:title="src/Application/AppGeometry\lEstimator32.cpp">
<polygon fill="white" stroke="black" points="524.5,-368.5 524.5,-398.5 667.5,-398.5 667.5,-368.5 524.5,-368.5"/>
<text text-anchor="start" x="532.5" y="-386.5" font-family="FreeSans" font-size="10.00">src/Application/AppGeometry</text>
<text text-anchor="middle" x="596" y="-375.5" font-family="FreeSans" font-size="10.00">Estimator32.cpp</text>
</a>
</g>
</g>
<!-- Node114&#45;&gt;Node115 -->
<g id="edge4" class="edge"><title>Node114&#45;&gt;Node115</title>
<path fill="none" stroke="midnightblue" d="M398.059,-433.052C441.383,-422.425 497.17,-408.741 538.471,-398.611"/>
<polygon fill="midnightblue" stroke="midnightblue" points="397.053,-429.694 388.175,-435.476 398.721,-436.493 397.053,-429.694"/>
</g>
<!-- Node116 -->
<g id="node6" class="node"><title>Node116</title>
<g id="a_node6"><a xlink:href="GenericPnPComponents_8h.html" target="_top" xlink:title="src/GeometryEstimationComponents\l/GenericPnPComponents.h">
<polygon fill="white" stroke="black" points="757,-368.5 757,-398.5 933,-398.5 933,-368.5 757,-368.5"/>
<text text-anchor="start" x="765" y="-386.5" font-family="FreeSans" font-size="10.00">src/GeometryEstimationComponents</text>
<text text-anchor="middle" x="845" y="-375.5" font-family="FreeSans" font-size="10.00">/GenericPnPComponents.h</text>
</a>
</g>
</g>
<!-- Node114&#45;&gt;Node116 -->
<g id="edge5" class="edge"><title>Node114&#45;&gt;Node116</title>
<path fill="none" stroke="midnightblue" d="M429.22,-437.079C523.857,-425.111 665.727,-407.171 756.83,-395.65"/>
<polygon fill="midnightblue" stroke="midnightblue" points="428.549,-433.636 419.068,-438.363 429.428,-440.581 428.549,-433.636"/>
</g>
<!-- Node121 -->
<g id="node11" class="node"><title>Node121</title>
<g id="a_node11"><a xlink:href="AppNodalCameraTracker_8cpp.html" target="_top" xlink:title="src/Application/AppNodal\lCameraTracker.cpp">
<polygon fill="white" stroke="black" points="732.5,-6 732.5,-36 859.5,-36 859.5,-6 732.5,-6"/>
<text text-anchor="start" x="740.5" y="-24" font-family="FreeSans" font-size="10.00">src/Application/AppNodal</text>
<text text-anchor="middle" x="796" y="-13" font-family="FreeSans" font-size="10.00">CameraTracker.cpp</text>
</a>
</g>
</g>
<!-- Node114&#45;&gt;Node121 -->
<g id="edge28" class="edge"><title>Node114&#45;&gt;Node121</title>
<path fill="none" stroke="midnightblue" d="M289.058,-430.666C274.148,-422.497 258.083,-411.833 246,-399 218.067,-369.331 204,-358.249 204,-317.5 204,-317.5 204,-317.5 204,-176 204,-131.633 190.188,-107.862 223,-78 260.077,-44.2569 590.961,-29.0085 732.372,-23.9906"/>
<polygon fill="midnightblue" stroke="midnightblue" points="287.664,-433.887 298.146,-435.427 290.912,-427.686 287.664,-433.887"/>
</g>
<!-- Node137 -->
<g id="node27" class="node"><title>Node137</title>
<g id="a_node27"><a xlink:href="PfMPipeline_8ipp.html" target="_top" xlink:title="src/GeometryEstimationPipeline\l/PfMPipeline.ipp">
<polygon fill="white" stroke="black" points="255.5,-368.5 255.5,-398.5 410.5,-398.5 410.5,-368.5 255.5,-368.5"/>
<text text-anchor="start" x="263.5" y="-386.5" font-family="FreeSans" font-size="10.00">src/GeometryEstimationPipeline</text>
<text text-anchor="middle" x="333" y="-375.5" font-family="FreeSans" font-size="10.00">/PfMPipeline.ipp</text>
</a>
</g>
</g>
<!-- Node114&#45;&gt;Node137 -->
<g id="edge29" class="edge"><title>Node114&#45;&gt;Node137</title>
<path fill="none" stroke="midnightblue" d="M331.751,-425.108C332.026,-416.154 332.329,-406.323 332.567,-398.577"/>
<polygon fill="midnightblue" stroke="midnightblue" points="328.243,-425.293 331.434,-435.396 335.24,-425.508 328.243,-425.293"/>
</g>
<!-- Node144 -->
<g id="node34" class="node"><title>Node144</title>
<g id="a_node34"><a xlink:href="P2PComponents_8cpp.html" target="_top" xlink:title="src/GeometryEstimationComponents\l/P2PComponents.cpp">
<polygon fill="white" stroke="black" points="0,-368.5 0,-398.5 176,-398.5 176,-368.5 0,-368.5"/>
<text text-anchor="start" x="8" y="-386.5" font-family="FreeSans" font-size="10.00">src/GeometryEstimationComponents</text>
<text text-anchor="middle" x="88" y="-375.5" font-family="FreeSans" font-size="10.00">/P2PComponents.cpp</text>
</a>
</g>
</g>
<!-- Node114&#45;&gt;Node144 -->
<g id="edge37" class="edge"><title>Node114&#45;&gt;Node144</title>
<path fill="none" stroke="midnightblue" d="M268.754,-432.85C229.136,-422.252 178.386,-408.677 140.753,-398.611"/>
<polygon fill="midnightblue" stroke="midnightblue" points="268.007,-436.273 278.572,-435.476 269.816,-429.511 268.007,-436.273"/>
</g>
<!-- Node117 -->
<g id="node7" class="node"><title>Node117</title>
<g id="a_node7"><a xlink:href="NodalCameraTrackingPipeline_8ipp.html" target="_top" xlink:title="src/GeometryEstimationPipeline\l/NodalCameraTrackingPipeline.ipp">
<polygon fill="white" stroke="black" points="762,-301.5 762,-331.5 928,-331.5 928,-301.5 762,-301.5"/>
<text text-anchor="start" x="770" y="-319.5" font-family="FreeSans" font-size="10.00">src/GeometryEstimationPipeline</text>
<text text-anchor="middle" x="845" y="-308.5" font-family="FreeSans" font-size="10.00">/NodalCameraTrackingPipeline.ipp</text>
</a>
</g>
</g>
<!-- Node116&#45;&gt;Node117 -->
<g id="edge6" class="edge"><title>Node116&#45;&gt;Node117</title>
<path fill="none" stroke="midnightblue" d="M845,-358.108C845,-349.154 845,-339.323 845,-331.577"/>
<polygon fill="midnightblue" stroke="midnightblue" points="841.5,-358.396 845,-368.396 848.5,-358.396 841.5,-358.396"/>
</g>
<!-- Node116&#45;&gt;Node121 -->
<g id="edge14" class="edge"><title>Node116&#45;&gt;Node121</title>
<path fill="none" stroke="midnightblue" d="M746.628,-371.383C668.811,-361.574 571.25,-346.603 559,-332 550.145,-321.445 555.835,-314.409 559,-301 563.11,-283.59 569.841,-281.394 577,-265 597.713,-217.567 586.981,-197.433 618,-156 659.495,-100.574 729.987,-57.144 768.639,-36.0328"/>
<polygon fill="midnightblue" stroke="midnightblue" points="746.624,-374.909 756.98,-372.672 747.49,-367.963 746.624,-374.909"/>
</g>
<!-- Node124 -->
<g id="node14" class="node"><title>Node124</title>
<g id="a_node14"><a xlink:href="RoamingCameraTrackingPipeline_8ipp.html" target="_top" xlink:title="src/GeometryEstimationPipeline\l/RoamingCameraTrackingPipeline.ipp">
<polygon fill="white" stroke="black" points="946.5,-301.5 946.5,-331.5 1125.5,-331.5 1125.5,-301.5 946.5,-301.5"/>
<text text-anchor="start" x="954.5" y="-319.5" font-family="FreeSans" font-size="10.00">src/GeometryEstimationPipeline</text>
<text text-anchor="middle" x="1036" y="-308.5" font-family="FreeSans" font-size="10.00">/RoamingCameraTrackingPipeline.ipp</text>
</a>
</g>
</g>
<!-- Node116&#45;&gt;Node124 -->
<g id="edge15" class="edge"><title>Node116&#45;&gt;Node124</title>
<path fill="none" stroke="midnightblue" d="M896.154,-365.092C926.987,-354.599 965.747,-341.408 994.637,-331.577"/>
<polygon fill="midnightblue" stroke="midnightblue" points="894.783,-361.861 886.444,-368.396 897.039,-368.488 894.783,-361.861"/>
</g>
<!-- Node130 -->
<g id="node20" class="node"><title>Node130</title>
<g id="a_node20"><a xlink:href="SfMPipeline_8ipp.html" target="_top" xlink:title="src/GeometryEstimationPipeline\l/SfMPipeline.ipp">
<polygon fill="white" stroke="black" points="1375.5,-301.5 1375.5,-331.5 1530.5,-331.5 1530.5,-301.5 1375.5,-301.5"/>
<text text-anchor="start" x="1383.5" y="-319.5" font-family="FreeSans" font-size="10.00">src/GeometryEstimationPipeline</text>
<text text-anchor="middle" x="1453" y="-308.5" font-family="FreeSans" font-size="10.00">/SfMPipeline.ipp</text>
</a>
</g>
</g>
<!-- Node116&#45;&gt;Node130 -->
<g id="edge21" class="edge"><title>Node116&#45;&gt;Node130</title>
<path fill="none" stroke="midnightblue" d="M943.044,-372.018C1063.47,-359.143 1265.31,-337.566 1375.48,-325.788"/>
<polygon fill="midnightblue" stroke="midnightblue" points="942.655,-368.54 933.084,-373.083 943.399,-375.5 942.655,-368.54"/>
</g>
<!-- Node136 -->
<g id="node26" class="node"><title>Node136</title>
<g id="a_node26"><a xlink:href="GenericPnPComponents_8cpp.html" target="_top" xlink:title="src/GeometryEstimationComponents\l/GenericPnPComponents.cpp">
<polygon fill="white" stroke="black" points="568,-301.5 568,-331.5 744,-331.5 744,-301.5 568,-301.5"/>
<text text-anchor="start" x="576" y="-319.5" font-family="FreeSans" font-size="10.00">src/GeometryEstimationComponents</text>
<text text-anchor="middle" x="656" y="-308.5" font-family="FreeSans" font-size="10.00">/GenericPnPComponents.cpp</text>
</a>
</g>
</g>
<!-- Node116&#45;&gt;Node136 -->
<g id="edge27" class="edge"><title>Node116&#45;&gt;Node136</title>
<path fill="none" stroke="midnightblue" d="M794.382,-365.092C763.872,-354.599 725.518,-341.408 696.93,-331.577"/>
<polygon fill="midnightblue" stroke="midnightblue" points="793.395,-368.453 803.99,-368.396 795.672,-361.834 793.395,-368.453"/>
</g>
<!-- Node118 -->
<g id="node8" class="node"><title>Node118</title>
<g id="a_node8"><a xlink:href="NodalCameraTrackingPipeline_8h.html" target="_top" xlink:title="src/GeometryEstimationPipeline\l/NodalCameraTrackingPipeline.h">
<polygon fill="white" stroke="black" points="752,-234.5 752,-264.5 910,-264.5 910,-234.5 752,-234.5"/>
<text text-anchor="start" x="760" y="-252.5" font-family="FreeSans" font-size="10.00">src/GeometryEstimationPipeline</text>
<text text-anchor="middle" x="831" y="-241.5" font-family="FreeSans" font-size="10.00">/NodalCameraTrackingPipeline.h</text>
</a>
</g>
</g>
<!-- Node117&#45;&gt;Node118 -->
<g id="edge7" class="edge"><title>Node117&#45;&gt;Node118</title>
<path fill="none" stroke="midnightblue" d="M839.81,-291.403C837.864,-282.37 835.719,-272.408 834.032,-264.577"/>
<polygon fill="midnightblue" stroke="midnightblue" points="836.435,-292.357 841.962,-301.396 843.278,-290.883 836.435,-292.357"/>
</g>
<!-- Node119 -->
<g id="node9" class="node"><title>Node119</title>
<g id="a_node9"><a xlink:href="InterfaceNodalCameraTrackingPipeline_8ipp.html" target="_top" xlink:title="src/ApplicationInterface\l/InterfaceNodalCameraTrackingPipeline.ipp">
<polygon fill="white" stroke="black" points="852,-162 852,-192 1056,-192 1056,-162 852,-162"/>
<text text-anchor="start" x="860" y="-180" font-family="FreeSans" font-size="10.00">src/ApplicationInterface</text>
<text text-anchor="middle" x="954" y="-169" font-family="FreeSans" font-size="10.00">/InterfaceNodalCameraTrackingPipeline.ipp</text>
</a>
</g>
</g>
<!-- Node118&#45;&gt;Node119 -->
<g id="edge8" class="edge"><title>Node118&#45;&gt;Node119</title>
<path fill="none" stroke="midnightblue" d="M864.325,-229.399C884.871,-217.622 910.771,-202.778 929.447,-192.073"/>
<polygon fill="midnightblue" stroke="midnightblue" points="862.531,-226.393 855.595,-234.403 866.012,-232.466 862.531,-226.393"/>
</g>
<!-- Node118&#45;&gt;Node121 -->
<g id="edge12" class="edge"><title>Node118&#45;&gt;Node121</title>
<path fill="none" stroke="midnightblue" d="M827.272,-224.377C819.977,-177.168 804.019,-73.8939 798.189,-36.1632"/>
<polygon fill="midnightblue" stroke="midnightblue" points="823.824,-224.983 828.811,-234.331 830.742,-223.914 823.824,-224.983"/>
</g>
<!-- Node123 -->
<g id="node13" class="node"><title>Node123</title>
<g id="a_node13"><a xlink:href="NodalCameraTrackingPipeline_8cpp.html" target="_top" xlink:title="src/GeometryEstimationPipeline\l/NodalCameraTrackingPipeline.cpp">
<polygon fill="white" stroke="black" points="627.5,-162 627.5,-192 796.5,-192 796.5,-162 627.5,-162"/>
<text text-anchor="start" x="635.5" y="-180" font-family="FreeSans" font-size="10.00">src/GeometryEstimationPipeline</text>
<text text-anchor="middle" x="712" y="-169" font-family="FreeSans" font-size="10.00">/NodalCameraTrackingPipeline.cpp</text>
</a>
</g>
</g>
<!-- Node118&#45;&gt;Node123 -->
<g id="edge13" class="edge"><title>Node118&#45;&gt;Node123</title>
<path fill="none" stroke="midnightblue" d="M798.491,-229.241C778.656,-217.489 753.742,-202.73 735.754,-192.073"/>
<polygon fill="midnightblue" stroke="midnightblue" points="796.817,-232.317 807.205,-234.403 800.385,-226.294 796.817,-232.317"/>
</g>
<!-- Node120 -->
<g id="node10" class="node"><title>Node120</title>
<g id="a_node10"><a xlink:href="InterfaceNodalCameraTrackingPipeline_8h.html" target="_top" xlink:title="src/ApplicationInterface\l/InterfaceNodalCameraTrackingPipeline.h">
<polygon fill="white" stroke="black" points="855.5,-84 855.5,-114 1052.5,-114 1052.5,-84 855.5,-84"/>
<text text-anchor="start" x="863.5" y="-102" font-family="FreeSans" font-size="10.00">src/ApplicationInterface</text>
<text text-anchor="middle" x="954" y="-91" font-family="FreeSans" font-size="10.00">/InterfaceNodalCameraTrackingPipeline.h</text>
</a>
</g>
</g>
<!-- Node119&#45;&gt;Node120 -->
<g id="edge9" class="edge"><title>Node119&#45;&gt;Node120</title>
<path fill="none" stroke="midnightblue" d="M954,-151.59C954,-139.257 954,-124.724 954,-114.231"/>
<polygon fill="midnightblue" stroke="midnightblue" points="950.5,-151.705 954,-161.705 957.5,-151.705 950.5,-151.705"/>
</g>
<!-- Node120&#45;&gt;Node121 -->
<g id="edge10" class="edge"><title>Node120&#45;&gt;Node121</title>
<path fill="none" stroke="midnightblue" d="M915.59,-79.5244C887.737,-66.1265 850.64,-48.2827 825.191,-36.0413"/>
<polygon fill="midnightblue" stroke="midnightblue" points="914.123,-82.7024 924.652,-83.8831 917.157,-76.3942 914.123,-82.7024"/>
</g>
<!-- Node122 -->
<g id="node12" class="node"><title>Node122</title>
<g id="a_node12"><a xlink:href="InterfaceNodalCameraTrackingPipeline_8cpp.html" target="_top" xlink:title="src/ApplicationInterface\l/InterfaceNodalCameraTrackingPipeline.cpp">
<polygon fill="white" stroke="black" points="877.5,-6 877.5,-36 1084.5,-36 1084.5,-6 877.5,-6"/>
<text text-anchor="start" x="885.5" y="-24" font-family="FreeSans" font-size="10.00">src/ApplicationInterface</text>
<text text-anchor="middle" x="981" y="-13" font-family="FreeSans" font-size="10.00">/InterfaceNodalCameraTrackingPipeline.cpp</text>
</a>
</g>
</g>
<!-- Node120&#45;&gt;Node122 -->
<g id="edge11" class="edge"><title>Node120&#45;&gt;Node122</title>
<path fill="none" stroke="midnightblue" d="M962.54,-73.9628C966.949,-61.5505 972.179,-46.8296 975.944,-36.2309"/>
<polygon fill="midnightblue" stroke="midnightblue" points="959.128,-73.1103 959.078,-83.705 965.724,-75.4537 959.128,-73.1103"/>
</g>
<!-- Node125 -->
<g id="node15" class="node"><title>Node125</title>
<g id="a_node15"><a xlink:href="RoamingCameraTrackingPipeline_8h.html" target="_top" xlink:title="src/GeometryEstimationPipeline\l/RoamingCameraTrackingPipeline.h">
<polygon fill="white" stroke="black" points="1187.5,-234.5 1187.5,-264.5 1358.5,-264.5 1358.5,-234.5 1187.5,-234.5"/>
<text text-anchor="start" x="1195.5" y="-252.5" font-family="FreeSans" font-size="10.00">src/GeometryEstimationPipeline</text>
<text text-anchor="middle" x="1273" y="-241.5" font-family="FreeSans" font-size="10.00">/RoamingCameraTrackingPipeline.h</text>
</a>
</g>
</g>
<!-- Node124&#45;&gt;Node125 -->
<g id="edge16" class="edge"><title>Node124&#45;&gt;Node125</title>
<path fill="none" stroke="midnightblue" d="M1097.2,-298.715C1135.77,-288.137 1185,-274.635 1221.55,-264.611"/>
<polygon fill="midnightblue" stroke="midnightblue" points="1095.85,-295.456 1087.13,-301.476 1097.7,-302.206 1095.85,-295.456"/>
</g>
<!-- Node126 -->
<g id="node16" class="node"><title>Node126</title>
<g id="a_node16"><a xlink:href="InterfaceRoamingCameraTrackingPipeline_8ipp.html" target="_top" xlink:title="src/ApplicationInterface\l/InterfaceRoamingCameraTracking\lPipeline.ipp">
<polygon fill="white" stroke="black" points="1382.5,-156.5 1382.5,-197.5 1549.5,-197.5 1549.5,-156.5 1382.5,-156.5"/>
<text text-anchor="start" x="1390.5" y="-185.5" font-family="FreeSans" font-size="10.00">src/ApplicationInterface</text>
<text text-anchor="start" x="1390.5" y="-174.5" font-family="FreeSans" font-size="10.00">/InterfaceRoamingCameraTracking</text>
<text text-anchor="middle" x="1466" y="-163.5" font-family="FreeSans" font-size="10.00">Pipeline.ipp</text>
</a>
</g>
</g>
<!-- Node125&#45;&gt;Node126 -->
<g id="edge17" class="edge"><title>Node125&#45;&gt;Node126</title>
<path fill="none" stroke="midnightblue" d="M1321.09,-230.933C1348.86,-220.789 1383.85,-208.008 1412.49,-197.546"/>
<polygon fill="midnightblue" stroke="midnightblue" points="1319.78,-227.684 1311.59,-234.403 1322.19,-234.259 1319.78,-227.684"/>
</g>
<!-- Node129 -->
<g id="node19" class="node"><title>Node129</title>
<g id="a_node19"><a xlink:href="RoamingCameraTrackingPipeline_8cpp.html" target="_top" xlink:title="src/GeometryEstimationPipeline\l/RoamingCameraTrackingPipeline.cpp">
<polygon fill="white" stroke="black" points="1182,-162 1182,-192 1364,-192 1364,-162 1182,-162"/>
<text text-anchor="start" x="1190" y="-180" font-family="FreeSans" font-size="10.00">src/GeometryEstimationPipeline</text>
<text text-anchor="middle" x="1273" y="-169" font-family="FreeSans" font-size="10.00">/RoamingCameraTrackingPipeline.cpp</text>
</a>
</g>
</g>
<!-- Node125&#45;&gt;Node129 -->
<g id="edge20" class="edge"><title>Node125&#45;&gt;Node129</title>
<path fill="none" stroke="midnightblue" d="M1273,-224.232C1273,-213.568 1273,-201.414 1273,-192.246"/>
<polygon fill="midnightblue" stroke="midnightblue" points="1269.5,-224.233 1273,-234.233 1276.5,-224.233 1269.5,-224.233"/>
</g>
<!-- Node127 -->
<g id="node17" class="node"><title>Node127</title>
<g id="a_node17"><a xlink:href="InterfaceRoamingCameraTrackingPipeline_8h.html" target="_top" xlink:title="src/ApplicationInterface\l/InterfaceRoamingCameraTracking\lPipeline.h">
<polygon fill="white" stroke="black" points="1382.5,-78.5 1382.5,-119.5 1549.5,-119.5 1549.5,-78.5 1382.5,-78.5"/>
<text text-anchor="start" x="1390.5" y="-107.5" font-family="FreeSans" font-size="10.00">src/ApplicationInterface</text>
<text text-anchor="start" x="1390.5" y="-96.5" font-family="FreeSans" font-size="10.00">/InterfaceRoamingCameraTracking</text>
<text text-anchor="middle" x="1466" y="-85.5" font-family="FreeSans" font-size="10.00">Pipeline.h</text>
</a>
</g>
</g>
<!-- Node126&#45;&gt;Node127 -->
<g id="edge18" class="edge"><title>Node126&#45;&gt;Node127</title>
<path fill="none" stroke="midnightblue" d="M1466,-146.297C1466,-137.301 1466,-127.653 1466,-119.506"/>
<polygon fill="midnightblue" stroke="midnightblue" points="1462.5,-146.428 1466,-156.428 1469.5,-146.428 1462.5,-146.428"/>
</g>
<!-- Node128 -->
<g id="node18" class="node"><title>Node128</title>
<g id="a_node18"><a xlink:href="InterfaceRoamingCameraTrackingPipeline_8cpp.html" target="_top" xlink:title="src/ApplicationInterface\l/InterfaceRoamingCameraTracking\lPipeline.cpp">
<polygon fill="white" stroke="black" points="1382.5,-0.5 1382.5,-41.5 1549.5,-41.5 1549.5,-0.5 1382.5,-0.5"/>
<text text-anchor="start" x="1390.5" y="-29.5" font-family="FreeSans" font-size="10.00">src/ApplicationInterface</text>
<text text-anchor="start" x="1390.5" y="-18.5" font-family="FreeSans" font-size="10.00">/InterfaceRoamingCameraTracking</text>
<text text-anchor="middle" x="1466" y="-7.5" font-family="FreeSans" font-size="10.00">Pipeline.cpp</text>
</a>
</g>
</g>
<!-- Node127&#45;&gt;Node128 -->
<g id="edge19" class="edge"><title>Node127&#45;&gt;Node128</title>
<path fill="none" stroke="midnightblue" d="M1466,-68.2965C1466,-59.3009 1466,-49.6532 1466,-41.5056"/>
<polygon fill="midnightblue" stroke="midnightblue" points="1462.5,-68.4281 1466,-78.4281 1469.5,-68.4281 1462.5,-68.4281"/>
</g>
<!-- Node131 -->
<g id="node21" class="node"><title>Node131</title>
<g id="a_node21"><a xlink:href="SfMPipeline_8h.html" target="_top" xlink:title="src/GeometryEstimationPipeline\l/SfMPipeline.h">
<polygon fill="white" stroke="black" points="1567.5,-234.5 1567.5,-264.5 1722.5,-264.5 1722.5,-234.5 1567.5,-234.5"/>
<text text-anchor="start" x="1575.5" y="-252.5" font-family="FreeSans" font-size="10.00">src/GeometryEstimationPipeline</text>
<text text-anchor="middle" x="1645" y="-241.5" font-family="FreeSans" font-size="10.00">/SfMPipeline.h</text>
</a>
</g>
</g>
<!-- Node130&#45;&gt;Node131 -->
<g id="edge22" class="edge"><title>Node130&#45;&gt;Node131</title>
<path fill="none" stroke="midnightblue" d="M1504.42,-298.092C1535.42,-287.599 1574.38,-274.408 1603.42,-264.577"/>
<polygon fill="midnightblue" stroke="midnightblue" points="1503.01,-294.874 1494.66,-301.396 1505.26,-301.504 1503.01,-294.874"/>
</g>
<!-- Node132 -->
<g id="node22" class="node"><title>Node132</title>
<g id="a_node22"><a xlink:href="InterfaceSfMPipeline_8ipp.html" target="_top" xlink:title="src/ApplicationInterface\l/InterfaceSfMPipeline.ipp">
<polygon fill="white" stroke="black" points="1740.5,-162 1740.5,-192 1865.5,-192 1865.5,-162 1740.5,-162"/>
<text text-anchor="start" x="1748.5" y="-180" font-family="FreeSans" font-size="10.00">src/ApplicationInterface</text>
<text text-anchor="middle" x="1803" y="-169" font-family="FreeSans" font-size="10.00">/InterfaceSfMPipeline.ipp</text>
</a>
</g>
</g>
<!-- Node131&#45;&gt;Node132 -->
<g id="edge23" class="edge"><title>Node131&#45;&gt;Node132</title>
<path fill="none" stroke="midnightblue" d="M1686.04,-230.187C1712.7,-218.29 1746.93,-203.018 1771.46,-192.073"/>
<polygon fill="midnightblue" stroke="midnightblue" points="1684.3,-227.132 1676.59,-234.403 1687.15,-233.524 1684.3,-227.132"/>
</g>
<!-- Node135 -->
<g id="node25" class="node"><title>Node135</title>
<g id="a_node25"><a xlink:href="SfMPipeline_8cpp.html" target="_top" xlink:title="src/GeometryEstimationPipeline\l/SfMPipeline.cpp">
<polygon fill="white" stroke="black" points="1567.5,-162 1567.5,-192 1722.5,-192 1722.5,-162 1567.5,-162"/>
<text text-anchor="start" x="1575.5" y="-180" font-family="FreeSans" font-size="10.00">src/GeometryEstimationPipeline</text>
<text text-anchor="middle" x="1645" y="-169" font-family="FreeSans" font-size="10.00">/SfMPipeline.cpp</text>
</a>
</g>
</g>
<!-- Node131&#45;&gt;Node135 -->
<g id="edge26" class="edge"><title>Node131&#45;&gt;Node135</title>
<path fill="none" stroke="midnightblue" d="M1645,-224.232C1645,-213.568 1645,-201.414 1645,-192.246"/>
<polygon fill="midnightblue" stroke="midnightblue" points="1641.5,-224.233 1645,-234.233 1648.5,-224.233 1641.5,-224.233"/>
</g>
<!-- Node133 -->
<g id="node23" class="node"><title>Node133</title>
<g id="a_node23"><a xlink:href="InterfaceSfMPipeline_8h.html" target="_top" xlink:title="src/ApplicationInterface\l/InterfaceSfMPipeline.h">
<polygon fill="white" stroke="black" points="1743.5,-84 1743.5,-114 1862.5,-114 1862.5,-84 1743.5,-84"/>
<text text-anchor="start" x="1751.5" y="-102" font-family="FreeSans" font-size="10.00">src/ApplicationInterface</text>
<text text-anchor="middle" x="1803" y="-91" font-family="FreeSans" font-size="10.00">/InterfaceSfMPipeline.h</text>
</a>
</g>
</g>
<!-- Node132&#45;&gt;Node133 -->
<g id="edge24" class="edge"><title>Node132&#45;&gt;Node133</title>
<path fill="none" stroke="midnightblue" d="M1803,-151.59C1803,-139.257 1803,-124.724 1803,-114.231"/>
<polygon fill="midnightblue" stroke="midnightblue" points="1799.5,-151.705 1803,-161.705 1806.5,-151.705 1799.5,-151.705"/>
</g>
<!-- Node134 -->
<g id="node24" class="node"><title>Node134</title>
<g id="a_node24"><a xlink:href="InterfaceSfMPipeline_8cpp.html" target="_top" xlink:title="src/ApplicationInterface\l/InterfaceSfMPipeline.cpp">
<polygon fill="white" stroke="black" points="1739,-6 1739,-36 1867,-36 1867,-6 1739,-6"/>
<text text-anchor="start" x="1747" y="-24" font-family="FreeSans" font-size="10.00">src/ApplicationInterface</text>
<text text-anchor="middle" x="1803" y="-13" font-family="FreeSans" font-size="10.00">/InterfaceSfMPipeline.cpp</text>
</a>
</g>
</g>
<!-- Node133&#45;&gt;Node134 -->
<g id="edge25" class="edge"><title>Node133&#45;&gt;Node134</title>
<path fill="none" stroke="midnightblue" d="M1803,-73.5898C1803,-61.2565 1803,-46.7237 1803,-36.2309"/>
<polygon fill="midnightblue" stroke="midnightblue" points="1799.5,-73.7049 1803,-83.705 1806.5,-73.705 1799.5,-73.7049"/>
</g>
<!-- Node138 -->
<g id="node28" class="node"><title>Node138</title>
<g id="a_node28"><a xlink:href="PfMPipeline_8h.html" target="_top" xlink:title="src/GeometryEstimationPipeline\l/PfMPipeline.h">
<polygon fill="white" stroke="black" points="255.5,-301.5 255.5,-331.5 410.5,-331.5 410.5,-301.5 255.5,-301.5"/>
<text text-anchor="start" x="263.5" y="-319.5" font-family="FreeSans" font-size="10.00">src/GeometryEstimationPipeline</text>
<text text-anchor="middle" x="333" y="-308.5" font-family="FreeSans" font-size="10.00">/PfMPipeline.h</text>
</a>
</g>
</g>
<!-- Node137&#45;&gt;Node138 -->
<g id="edge30" class="edge"><title>Node137&#45;&gt;Node138</title>
<path fill="none" stroke="midnightblue" d="M333,-358.108C333,-349.154 333,-339.323 333,-331.577"/>
<polygon fill="midnightblue" stroke="midnightblue" points="329.5,-358.396 333,-368.396 336.5,-358.396 329.5,-358.396"/>
</g>
<!-- Node139 -->
<g id="node29" class="node"><title>Node139</title>
<g id="a_node29"><a xlink:href="InterfacePfMPipeline_8ipp.html" target="_top" xlink:title="src/ApplicationInterface\l/InterfacePfMPipeline.ipp">
<polygon fill="white" stroke="black" points="270.5,-234.5 270.5,-264.5 395.5,-264.5 395.5,-234.5 270.5,-234.5"/>
<text text-anchor="start" x="278.5" y="-252.5" font-family="FreeSans" font-size="10.00">src/ApplicationInterface</text>
<text text-anchor="middle" x="333" y="-241.5" font-family="FreeSans" font-size="10.00">/InterfacePfMPipeline.ipp</text>
</a>
</g>
</g>
<!-- Node138&#45;&gt;Node139 -->
<g id="edge31" class="edge"><title>Node138&#45;&gt;Node139</title>
<path fill="none" stroke="midnightblue" d="M333,-291.108C333,-282.154 333,-272.323 333,-264.577"/>
<polygon fill="midnightblue" stroke="midnightblue" points="329.5,-291.396 333,-301.396 336.5,-291.396 329.5,-291.396"/>
</g>
<!-- Node141 -->
<g id="node31" class="node"><title>Node141</title>
<g id="a_node31"><a xlink:href="AppPfM_8cpp.html" target="_top" xlink:title="src/Application/AppPfM.cpp">
<polygon fill="white" stroke="black" points="232.5,-89.5 232.5,-108.5 369.5,-108.5 369.5,-89.5 232.5,-89.5"/>
<text text-anchor="middle" x="301" y="-96.5" font-family="FreeSans" font-size="10.00">src/Application/AppPfM.cpp</text>
</a>
</g>
</g>
<!-- Node138&#45;&gt;Node141 -->
<g id="edge35" class="edge"><title>Node138&#45;&gt;Node141</title>
<path fill="none" stroke="midnightblue" d="M291.615,-296.158C279.519,-288.304 267.746,-277.971 261,-265 254.075,-251.684 251.092,-196.135 264,-156 269.994,-137.364 284.055,-119.07 293.014,-108.696"/>
<polygon fill="midnightblue" stroke="midnightblue" points="290.037,-299.293 300.412,-301.441 293.641,-293.292 290.037,-299.293"/>
</g>
<!-- Node143 -->
<g id="node33" class="node"><title>Node143</title>
<g id="a_node33"><a xlink:href="PfMPipeline_8cpp.html" target="_top" xlink:title="src/GeometryEstimationPipeline\l/PfMPipeline.cpp">
<polygon fill="white" stroke="black" points="413.5,-234.5 413.5,-264.5 568.5,-264.5 568.5,-234.5 413.5,-234.5"/>
<text text-anchor="start" x="421.5" y="-252.5" font-family="FreeSans" font-size="10.00">src/GeometryEstimationPipeline</text>
<text text-anchor="middle" x="491" y="-241.5" font-family="FreeSans" font-size="10.00">/PfMPipeline.cpp</text>
</a>
</g>
</g>
<!-- Node138&#45;&gt;Node143 -->
<g id="edge36" class="edge"><title>Node138&#45;&gt;Node143</title>
<path fill="none" stroke="midnightblue" d="M376.646,-297.544C401.929,-287.143 433.298,-274.238 456.783,-264.577"/>
<polygon fill="midnightblue" stroke="midnightblue" points="375.2,-294.355 367.284,-301.396 377.863,-300.828 375.2,-294.355"/>
</g>
<!-- Node140 -->
<g id="node30" class="node"><title>Node140</title>
<g id="a_node30"><a xlink:href="InterfacePfMPipeline_8h.html" target="_top" xlink:title="src/ApplicationInterface\l/InterfacePfMPipeline.h">
<polygon fill="white" stroke="black" points="273.5,-162 273.5,-192 392.5,-192 392.5,-162 273.5,-162"/>
<text text-anchor="start" x="281.5" y="-180" font-family="FreeSans" font-size="10.00">src/ApplicationInterface</text>
<text text-anchor="middle" x="333" y="-169" font-family="FreeSans" font-size="10.00">/InterfacePfMPipeline.h</text>
</a>
</g>
</g>
<!-- Node139&#45;&gt;Node140 -->
<g id="edge32" class="edge"><title>Node139&#45;&gt;Node140</title>
<path fill="none" stroke="midnightblue" d="M333,-224.232C333,-213.568 333,-201.414 333,-192.246"/>
<polygon fill="midnightblue" stroke="midnightblue" points="329.5,-224.233 333,-234.233 336.5,-224.233 329.5,-224.233"/>
</g>
<!-- Node140&#45;&gt;Node141 -->
<g id="edge33" class="edge"><title>Node140&#45;&gt;Node141</title>
<path fill="none" stroke="midnightblue" d="M322.935,-152.095C316.682,-137.245 309.021,-119.049 304.606,-108.564"/>
<polygon fill="midnightblue" stroke="midnightblue" points="319.875,-153.847 326.981,-161.705 326.326,-151.13 319.875,-153.847"/>
</g>
<!-- Node142 -->
<g id="node32" class="node"><title>Node142</title>
<g id="a_node32"><a xlink:href="InterfacePfMPipeline_8cpp.html" target="_top" xlink:title="src/ApplicationInterface\l/InterfacePfMPipeline.cpp">
<polygon fill="white" stroke="black" points="388,-84 388,-114 516,-114 516,-84 388,-84"/>
<text text-anchor="start" x="396" y="-102" font-family="FreeSans" font-size="10.00">src/ApplicationInterface</text>
<text text-anchor="middle" x="452" y="-91" font-family="FreeSans" font-size="10.00">/InterfacePfMPipeline.cpp</text>
</a>
</g>
</g>
<!-- Node140&#45;&gt;Node142 -->
<g id="edge34" class="edge"><title>Node140&#45;&gt;Node142</title>
<path fill="none" stroke="midnightblue" d="M363.585,-156.467C384.359,-143.199 411.347,-125.963 430.014,-114.041"/>
<polygon fill="midnightblue" stroke="midnightblue" points="361.648,-153.551 355.104,-161.883 365.416,-159.45 361.648,-153.551"/>
</g>
<!-- Node146 -->
<g id="node36" class="node"><title>Node146</title>
<g id="a_node36"><a xlink:href="PDLP2PProblem_8h.html" target="_top" xlink:title="src/Optimisation/PDLP2PProblem.h">
<polygon fill="white" stroke="black" points="412.5,-575 412.5,-594 585.5,-594 585.5,-575 412.5,-575"/>
<text text-anchor="middle" x="499" y="-582" font-family="FreeSans" font-size="10.00">src/Optimisation/PDLP2PProblem.h</text>
</a>
</g>
</g>
<!-- Node145&#45;&gt;Node146 -->
<g id="edge39" class="edge"><title>Node145&#45;&gt;Node146</title>
<path fill="none" stroke="midnightblue" d="M519.453,-693.306C514.192,-665.576 504.526,-614.628 500.661,-594.256"/>
<polygon fill="midnightblue" stroke="midnightblue" points="516.048,-694.133 521.35,-703.305 522.925,-692.828 516.048,-694.133"/>
</g>
<!-- Node146&#45;&gt;Node113 -->
<g id="edge40" class="edge"><title>Node146&#45;&gt;Node113</title>
<path fill="none" stroke="midnightblue" d="M459.919,-572.058C422.28,-561.037 365.268,-544.344 324.911,-532.528"/>
<polygon fill="midnightblue" stroke="midnightblue" points="458.94,-575.417 469.52,-574.869 460.907,-568.699 458.94,-575.417"/>
</g>
<!-- Node147 -->
<g id="node37" class="node"><title>Node147</title>
<g id="a_node37"><a xlink:href="PDLP2PProblem_8cpp.html" target="_top" xlink:title="src/Optimisation/PDLP2PProblem.cpp">
<polygon fill="white" stroke="black" points="383.5,-508 383.5,-527 566.5,-527 566.5,-508 383.5,-508"/>
<text text-anchor="middle" x="475" y="-515" font-family="FreeSans" font-size="10.00">src/Optimisation/PDLP2PProblem.cpp</text>
</a>
</g>
</g>
<!-- Node146&#45;&gt;Node147 -->
<g id="edge41" class="edge"><title>Node146&#45;&gt;Node147</title>
<path fill="none" stroke="midnightblue" d="M492.276,-565.29C487.667,-552.808 481.762,-536.814 478.185,-527.127"/>
<polygon fill="midnightblue" stroke="midnightblue" points="489.016,-566.565 495.763,-574.734 495.583,-564.141 489.016,-566.565"/>
</g>
<!-- Node148 -->
<g id="node38" class="node"><title>Node148</title>
<g id="a_node38"><a xlink:href="TestOptimisation_8cpp.html" target="_top" xlink:title="src/Optimisation/TestOptimisation.cpp">
<polygon fill="white" stroke="black" points="584.5,-508 584.5,-527 767.5,-527 767.5,-508 584.5,-508"/>
<text text-anchor="middle" x="676" y="-515" font-family="FreeSans" font-size="10.00">src/Optimisation/TestOptimisation.cpp</text>
</a>
</g>
</g>
<!-- Node146&#45;&gt;Node148 -->
<g id="edge42" class="edge"><title>Node146&#45;&gt;Node148</title>
<path fill="none" stroke="midnightblue" d="M532.301,-571.271C567.431,-558.37 621.877,-538.376 652.68,-527.064"/>
<polygon fill="midnightblue" stroke="midnightblue" points="530.685,-568.136 522.504,-574.869 533.098,-574.707 530.685,-568.136"/>
</g>
<!-- Node150 -->
<g id="node40" class="node"><title>Node150</title>
<g id="a_node40"><a xlink:href="P2PfSolver_8h.html" target="_top" xlink:title="src/Geometry/P2PfSolver.h">
<polygon fill="white" stroke="black" points="735.5,-703.5 735.5,-722.5 870.5,-722.5 870.5,-703.5 735.5,-703.5"/>
<text text-anchor="middle" x="803" y="-710.5" font-family="FreeSans" font-size="10.00">src/Geometry/P2PfSolver.h</text>
</a>
</g>
</g>
<!-- Node149&#45;&gt;Node150 -->
<g id="edge44" class="edge"><title>Node149&#45;&gt;Node150</title>
<path fill="none" stroke="midnightblue" d="M801.711,-748.805C802.04,-739.91 802.416,-729.78 802.676,-722.751"/>
<polygon fill="midnightblue" stroke="midnightblue" points="798.203,-748.96 801.33,-759.083 805.198,-749.219 798.203,-748.96"/>
</g>
<!-- Node151 -->
<g id="node41" class="node"><title>Node151</title>
<g id="a_node41"><a xlink:href="P2PfComponents_8ipp.html" target="_top" xlink:title="src/GeometryEstimationComponents\l/P2PfComponents.ipp">
<polygon fill="white" stroke="black" points="786,-502.5 786,-532.5 962,-532.5 962,-502.5 786,-502.5"/>
<text text-anchor="start" x="794" y="-520.5" font-family="FreeSans" font-size="10.00">src/GeometryEstimationComponents</text>
<text text-anchor="middle" x="874" y="-509.5" font-family="FreeSans" font-size="10.00">/P2PfComponents.ipp</text>
</a>
</g>
</g>
<!-- Node150&#45;&gt;Node151 -->
<g id="edge45" class="edge"><title>Node150&#45;&gt;Node151</title>
<path fill="none" stroke="midnightblue" d="M766.287,-699.268C751.662,-692.181 736.347,-681.742 728,-667 721.212,-655.011 723.851,-649.138 728,-636 738.953,-601.314 747.543,-592.858 775,-569 792.914,-553.434 816.468,-541.168 836.107,-532.624"/>
<polygon fill="midnightblue" stroke="midnightblue" points="765.158,-702.596 775.718,-703.453 767.997,-696.197 765.158,-702.596"/>
</g>
<!-- Node154 -->
<g id="node44" class="node"><title>Node154</title>
<g id="a_node44"><a xlink:href="PDLP2PfProblem_8ipp.html" target="_top" xlink:title="src/Optimisation/PDLP2Pf\lProblem.ipp">
<polygon fill="white" stroke="black" points="737,-636.5 737,-666.5 869,-666.5 869,-636.5 737,-636.5"/>
<text text-anchor="start" x="745" y="-654.5" font-family="FreeSans" font-size="10.00">src/Optimisation/PDLP2Pf</text>
<text text-anchor="middle" x="803" y="-643.5" font-family="FreeSans" font-size="10.00">Problem.ipp</text>
</a>
</g>
</g>
<!-- Node150&#45;&gt;Node154 -->
<g id="edge52" class="edge"><title>Node150&#45;&gt;Node154</title>
<path fill="none" stroke="midnightblue" d="M803,-693.235C803,-684.586 803,-674.497 803,-666.523"/>
<polygon fill="midnightblue" stroke="midnightblue" points="799.5,-693.475 803,-703.475 806.5,-693.475 799.5,-693.475"/>
</g>
<!-- Node157 -->
<g id="node47" class="node"><title>Node157</title>
<g id="a_node47"><a xlink:href="P2PfSolver_8cpp.html" target="_top" xlink:title="src/Geometry/P2PfSolver.cpp">
<polygon fill="white" stroke="black" points="887,-642 887,-661 1033,-661 1033,-642 887,-642"/>
<text text-anchor="middle" x="960" y="-649" font-family="FreeSans" font-size="10.00">src/Geometry/P2PfSolver.cpp</text>
</a>
</g>
</g>
<!-- Node150&#45;&gt;Node157 -->
<g id="edge57" class="edge"><title>Node150&#45;&gt;Node157</title>
<path fill="none" stroke="midnightblue" d="M835.238,-699.782C865.748,-688.22 910.752,-671.164 937.547,-661.009"/>
<polygon fill="midnightblue" stroke="midnightblue" points="833.605,-696.658 825.494,-703.475 836.086,-703.204 833.605,-696.658"/>
</g>
<!-- Node150&#45;&gt;Node158 -->
<g id="edge58" class="edge"><title>Node150&#45;&gt;Node158</title>
<path fill="none" stroke="midnightblue" d="M860.063,-701.617C923.39,-690.094 1024.39,-671.716 1083.24,-661.009"/>
<polygon fill="midnightblue" stroke="midnightblue" points="859.063,-698.241 849.851,-703.475 860.316,-705.128 859.063,-698.241"/>
</g>
<!-- Node152 -->
<g id="node42" class="node"><title>Node152</title>
<g id="a_node42"><a xlink:href="P2PfComponents_8h.html" target="_top" xlink:title="src/GeometryEstimationComponents\l/P2PfComponents.h">
<polygon fill="white" stroke="black" points="784,-435.5 784,-465.5 960,-465.5 960,-435.5 784,-435.5"/>
<text text-anchor="start" x="792" y="-453.5" font-family="FreeSans" font-size="10.00">src/GeometryEstimationComponents</text>
<text text-anchor="middle" x="872" y="-442.5" font-family="FreeSans" font-size="10.00">/P2PfComponents.h</text>
</a>
</g>
</g>
<!-- Node151&#45;&gt;Node152 -->
<g id="edge46" class="edge"><title>Node151&#45;&gt;Node152</title>
<path fill="none" stroke="midnightblue" d="M873.249,-492.108C872.974,-483.154 872.671,-473.323 872.433,-465.577"/>
<polygon fill="midnightblue" stroke="midnightblue" points="869.76,-492.508 873.566,-502.396 876.757,-492.293 869.76,-492.508"/>
</g>
<!-- Node152&#45;&gt;Node115 -->
<g id="edge47" class="edge"><title>Node152&#45;&gt;Node115</title>
<path fill="none" stroke="midnightblue" d="M802.442,-433.119C757.28,-422.483 699.023,-408.763 655.917,-398.611"/>
<polygon fill="midnightblue" stroke="midnightblue" points="801.916,-436.59 812.452,-435.476 803.521,-429.777 801.916,-436.59"/>
</g>
<!-- Node152&#45;&gt;Node116 -->
<g id="edge48" class="edge"><title>Node152&#45;&gt;Node116</title>
<path fill="none" stroke="midnightblue" d="M862.235,-425.991C858.419,-416.804 854.171,-406.578 850.847,-398.577"/>
<polygon fill="midnightblue" stroke="midnightblue" points="859.073,-427.504 866.141,-435.396 865.538,-424.818 859.073,-427.504"/>
</g>
<!-- Node152&#45;&gt;Node121 -->
<g id="edge49" class="edge"><title>Node152&#45;&gt;Node121</title>
<path fill="none" stroke="midnightblue" d="M970.382,-443.014C1051.74,-431.668 1154,-400.832 1154,-317.5 1154,-317.5 1154,-317.5 1154,-176 1154,-35.6287 1004.75,-73.6841 868,-42 860.291,-40.2137 852.167,-38.1432 844.265,-36.0253"/>
<polygon fill="midnightblue" stroke="midnightblue" points="969.527,-439.596 960.067,-444.366 970.437,-446.537 969.527,-439.596"/>
</g>
<!-- Node152&#45;&gt;Node137 -->
<g id="edge50" class="edge"><title>Node152&#45;&gt;Node137</title>
<path fill="none" stroke="midnightblue" d="M773.668,-437.642C669.254,-425.05 506.355,-405.406 410.605,-393.859"/>
<polygon fill="midnightblue" stroke="midnightblue" points="773.553,-441.153 783.9,-438.876 774.391,-434.204 773.553,-441.153"/>
</g>
<!-- Node153 -->
<g id="node43" class="node"><title>Node153</title>
<g id="a_node43"><a xlink:href="P2PfComponents_8cpp.html" target="_top" xlink:title="src/GeometryEstimationComponents\l/P2PfComponents.cpp">
<polygon fill="white" stroke="black" points="1182,-368.5 1182,-398.5 1358,-398.5 1358,-368.5 1182,-368.5"/>
<text text-anchor="start" x="1190" y="-386.5" font-family="FreeSans" font-size="10.00">src/GeometryEstimationComponents</text>
<text text-anchor="middle" x="1270" y="-375.5" font-family="FreeSans" font-size="10.00">/P2PfComponents.cpp</text>
</a>
</g>
</g>
<!-- Node152&#45;&gt;Node153 -->
<g id="edge51" class="edge"><title>Node152&#45;&gt;Node153</title>
<path fill="none" stroke="midnightblue" d="M967.838,-433.848C1033.67,-423.097 1120.32,-408.946 1183.94,-398.555"/>
<polygon fill="midnightblue" stroke="midnightblue" points="967.175,-430.41 957.87,-435.476 968.303,-437.318 967.175,-430.41"/>
</g>
<!-- Node155 -->
<g id="node45" class="node"><title>Node155</title>
<g id="a_node45"><a xlink:href="PDLP2PfProblem_8h.html" target="_top" xlink:title="src/Optimisation/PDLP2Pf\lProblem.h">
<polygon fill="white" stroke="black" points="784,-569.5 784,-599.5 916,-599.5 916,-569.5 784,-569.5"/>
<text text-anchor="start" x="792" y="-587.5" font-family="FreeSans" font-size="10.00">src/Optimisation/PDLP2Pf</text>
<text text-anchor="middle" x="850" y="-576.5" font-family="FreeSans" font-size="10.00">Problem.h</text>
</a>
</g>
</g>
<!-- Node154&#45;&gt;Node155 -->
<g id="edge53" class="edge"><title>Node154&#45;&gt;Node155</title>
<path fill="none" stroke="midnightblue" d="M819.155,-628.157C826.009,-618.679 833.79,-607.919 839.822,-599.577"/>
<polygon fill="midnightblue" stroke="midnightblue" points="816.222,-626.242 813.198,-636.396 821.894,-630.343 816.222,-626.242"/>
</g>
<!-- Node155&#45;&gt;Node148 -->
<g id="edge56" class="edge"><title>Node155&#45;&gt;Node148</title>
<path fill="none" stroke="midnightblue" d="M802.575,-565.784C768.837,-553.181 725.01,-536.808 698.773,-527.007"/>
<polygon fill="midnightblue" stroke="midnightblue" points="801.652,-569.175 812.245,-569.396 804.102,-562.618 801.652,-569.175"/>
</g>
<!-- Node155&#45;&gt;Node151 -->
<g id="edge54" class="edge"><title>Node155&#45;&gt;Node151</title>
<path fill="none" stroke="midnightblue" d="M858.68,-559.991C862.072,-550.804 865.848,-540.578 868.803,-532.577"/>
<polygon fill="midnightblue" stroke="midnightblue" points="855.388,-558.803 855.208,-569.396 861.955,-561.227 855.388,-558.803"/>
</g>
<!-- Node156 -->
<g id="node46" class="node"><title>Node156</title>
<g id="a_node46"><a xlink:href="PDLP2PfProblem_8cpp.html" target="_top" xlink:title="src/Optimisation/PDLP2Pf\lProblem.cpp">
<polygon fill="white" stroke="black" points="980,-502.5 980,-532.5 1112,-532.5 1112,-502.5 980,-502.5"/>
<text text-anchor="start" x="988" y="-520.5" font-family="FreeSans" font-size="10.00">src/Optimisation/PDLP2Pf</text>
<text text-anchor="middle" x="1046" y="-509.5" font-family="FreeSans" font-size="10.00">Problem.cpp</text>
</a>
</g>
</g>
<!-- Node155&#45;&gt;Node156 -->
<g id="edge55" class="edge"><title>Node155&#45;&gt;Node156</title>
<path fill="none" stroke="midnightblue" d="M902.082,-566.228C933.788,-555.713 973.779,-542.451 1003.55,-532.577"/>
<polygon fill="midnightblue" stroke="midnightblue" points="900.919,-562.926 892.529,-569.396 903.122,-569.57 900.919,-562.926"/>
</g>
</g>
</svg>
