<?xml version="1.0" encoding="UTF-8" standalone="no"?>
<!DOCTYPE svg PUBLIC "-//W3C//DTD SVG 1.1//EN"
 "http://www.w3.org/Graphics/SVG/1.1/DTD/svg11.dtd">
<!-- Generated by graphviz version 2.38.0 (20140413.2041)
 -->
<!-- Title: src/Geometry/P3PSolver.ipp Pages: 1 -->
<svg width="1182pt" height="777pt"
 viewBox="0.00 0.00 1181.50 777.00" xmlns="http://www.w3.org/2000/svg" xmlns:xlink="http://www.w3.org/1999/xlink">
<g id="graph0" class="graph" transform="scale(1 1) rotate(0) translate(4 773)">
<title>src/Geometry/P3PSolver.ipp</title>
<polygon fill="white" stroke="none" points="-4,4 -4,-773 1177.5,-773 1177.5,4 -4,4"/>
<!-- Node131 -->
<g id="node1" class="node"><title>Node131</title>
<polygon fill="#bfbfbf" stroke="black" points="749,-749.5 749,-768.5 889,-768.5 889,-749.5 749,-749.5"/>
<text text-anchor="middle" x="819" y="-756.5" font-family="FreeSans" font-size="10.00">src/Geometry/P3PSolver.ipp</text>
</g>
<!-- Node132 -->
<g id="node2" class="node"><title>Node132</title>
<g id="a_node2"><a xlink:href="P3PSolver_8h.html" target="_top" xlink:title="src/Geometry/P3PSolver.h">
<polygon fill="white" stroke="black" points="753,-693.5 753,-712.5 885,-712.5 885,-693.5 753,-693.5"/>
<text text-anchor="middle" x="819" y="-700.5" font-family="FreeSans" font-size="10.00">src/Geometry/P3PSolver.h</text>
</a>
</g>
</g>
<!-- Node131&#45;&gt;Node132 -->
<g id="edge1" class="edge"><title>Node131&#45;&gt;Node132</title>
<path fill="none" stroke="midnightblue" d="M819,-738.805C819,-729.91 819,-719.78 819,-712.751"/>
<polygon fill="midnightblue" stroke="midnightblue" points="815.5,-739.083 819,-749.083 822.5,-739.083 815.5,-739.083"/>
</g>
<!-- Node133 -->
<g id="node3" class="node"><title>Node133</title>
<g id="a_node3"><a xlink:href="P3PComponents_8ipp.html" target="_top" xlink:title="src/GeometryEstimationComponents\l/P3PComponents.ipp">
<polygon fill="white" stroke="black" points="0,-402.5 0,-432.5 176,-432.5 176,-402.5 0,-402.5"/>
<text text-anchor="start" x="8" y="-420.5" font-family="FreeSans" font-size="10.00">src/GeometryEstimationComponents</text>
<text text-anchor="middle" x="88" y="-409.5" font-family="FreeSans" font-size="10.00">/P3PComponents.ipp</text>
</a>
</g>
</g>
<!-- Node132&#45;&gt;Node133 -->
<g id="edge2" class="edge"><title>Node132&#45;&gt;Node133</title>
<path fill="none" stroke="midnightblue" d="M742.676,-697.733C563.12,-686.677 129,-653.58 129,-592 129,-592 129,-592 129,-534 129,-495.487 108.504,-453.696 96.4952,-432.515"/>
<polygon fill="midnightblue" stroke="midnightblue" points="742.646,-701.238 752.84,-698.352 743.071,-694.251 742.646,-701.238"/>
</g>
<!-- Node136 -->
<g id="node6" class="node"><title>Node136</title>
<g id="a_node6"><a xlink:href="SfMPipeline_8ipp.html" target="_top" xlink:title="src/GeometryEstimationPipeline\l/SfMPipeline.ipp">
<polygon fill="white" stroke="black" points="808.5,-268.5 808.5,-298.5 963.5,-298.5 963.5,-268.5 808.5,-268.5"/>
<text text-anchor="start" x="816.5" y="-286.5" font-family="FreeSans" font-size="10.00">src/GeometryEstimationPipeline</text>
<text text-anchor="middle" x="886" y="-275.5" font-family="FreeSans" font-size="10.00">/SfMPipeline.ipp</text>
</a>
</g>
</g>
<!-- Node132&#45;&gt;Node136 -->
<g id="edge31" class="edge"><title>Node132&#45;&gt;Node136</title>
<path fill="none" stroke="midnightblue" d="M881.487,-691.098C934.498,-677.836 1002,-649.634 1002,-592 1002,-592 1002,-592 1002,-416.5 1002,-379.306 1005.8,-364.385 983,-335 969.964,-318.2 949.768,-306.434 931.172,-298.513"/>
<polygon fill="midnightblue" stroke="midnightblue" points="880.363,-687.767 871.44,-693.479 881.978,-694.578 880.363,-687.767"/>
</g>
<!-- Node143 -->
<g id="node13" class="node"><title>Node143</title>
<g id="a_node13"><a xlink:href="PDLP3PProblem_8ipp.html" target="_top" xlink:title="src/Optimisation/PDLP3PProblem.ipp">
<polygon fill="white" stroke="black" points="348,-581.5 348,-600.5 528,-600.5 528,-581.5 348,-581.5"/>
<text text-anchor="middle" x="438" y="-588.5" font-family="FreeSans" font-size="10.00">src/Optimisation/PDLP3PProblem.ipp</text>
</a>
</g>
</g>
<!-- Node132&#45;&gt;Node143 -->
<g id="edge12" class="edge"><title>Node132&#45;&gt;Node143</title>
<path fill="none" stroke="midnightblue" d="M779.674,-690.646C703.103,-668.539 535.56,-620.167 467.561,-600.535"/>
<polygon fill="midnightblue" stroke="midnightblue" points="778.842,-694.049 789.421,-693.46 780.784,-687.323 778.842,-694.049"/>
</g>
<!-- Node147 -->
<g id="node17" class="node"><title>Node147</title>
<g id="a_node17"><a xlink:href="P4PSolver_8ipp.html" target="_top" xlink:title="src/Geometry/P4PSolver.ipp">
<polygon fill="white" stroke="black" points="691,-637.5 691,-656.5 831,-656.5 831,-637.5 691,-637.5"/>
<text text-anchor="middle" x="761" y="-644.5" font-family="FreeSans" font-size="10.00">src/Geometry/P4PSolver.ipp</text>
</a>
</g>
</g>
<!-- Node132&#45;&gt;Node147 -->
<g id="edge17" class="edge"><title>Node132&#45;&gt;Node147</title>
<path fill="none" stroke="midnightblue" d="M802.087,-686.253C791.797,-676.673 779.034,-664.791 770.488,-656.834"/>
<polygon fill="midnightblue" stroke="midnightblue" points="799.977,-689.071 809.681,-693.324 804.747,-683.948 799.977,-689.071"/>
</g>
<!-- Node156 -->
<g id="node26" class="node"><title>Node156</title>
<g id="a_node26"><a xlink:href="TestGeometry_8cpp.html" target="_top" xlink:title="src/Geometry/TestGeometry.cpp">
<polygon fill="white" stroke="black" points="816,-525.5 816,-544.5 974,-544.5 974,-525.5 816,-525.5"/>
<text text-anchor="middle" x="895" y="-532.5" font-family="FreeSans" font-size="10.00">src/Geometry/TestGeometry.cpp</text>
</a>
</g>
</g>
<!-- Node132&#45;&gt;Node156 -->
<g id="edge33" class="edge"><title>Node132&#45;&gt;Node156</title>
<path fill="none" stroke="midnightblue" d="M827.302,-684.317C831.179,-676.031 835.846,-666.019 840,-657 859.404,-614.873 882.243,-564.305 891.162,-544.522"/>
<polygon fill="midnightblue" stroke="midnightblue" points="824.126,-682.845 823.051,-693.385 830.465,-685.816 824.126,-682.845"/>
</g>
<!-- Node157 -->
<g id="node27" class="node"><title>Node157</title>
<g id="a_node27"><a xlink:href="P3PSolver_8cpp.html" target="_top" xlink:title="src/Geometry/P3PSolver.cpp">
<polygon fill="white" stroke="black" points="1030.5,-637.5 1030.5,-656.5 1173.5,-656.5 1173.5,-637.5 1030.5,-637.5"/>
<text text-anchor="middle" x="1102" y="-644.5" font-family="FreeSans" font-size="10.00">src/Geometry/P3PSolver.cpp</text>
</a>
</g>
</g>
<!-- Node132&#45;&gt;Node157 -->
<g id="edge32" class="edge"><title>Node132&#45;&gt;Node157</title>
<path fill="none" stroke="midnightblue" d="M873.833,-691.537C927.318,-681.332 1007.67,-665.999 1057.37,-656.516"/>
<polygon fill="midnightblue" stroke="midnightblue" points="873.009,-688.131 863.842,-693.444 874.321,-695.007 873.009,-688.131"/>
</g>
<!-- Node134 -->
<g id="node4" class="node"><title>Node134</title>
<g id="a_node4"><a xlink:href="P3PComponents_8h.html" target="_top" xlink:title="src/GeometryEstimationComponents\l/P3PComponents.h">
<polygon fill="white" stroke="black" points="528,-335.5 528,-365.5 704,-365.5 704,-335.5 528,-335.5"/>
<text text-anchor="start" x="536" y="-353.5" font-family="FreeSans" font-size="10.00">src/GeometryEstimationComponents</text>
<text text-anchor="middle" x="616" y="-342.5" font-family="FreeSans" font-size="10.00">/P3PComponents.h</text>
</a>
</g>
</g>
<!-- Node133&#45;&gt;Node134 -->
<g id="edge3" class="edge"><title>Node133&#45;&gt;Node134</title>
<path fill="none" stroke="midnightblue" d="M186.119,-401.876C310.754,-385.378 443.109,-370.322 527.986,-360.985"/>
<polygon fill="midnightblue" stroke="midnightblue" points="185.463,-398.432 176.011,-403.219 186.385,-405.371 185.463,-398.432"/>
</g>
<!-- Node135 -->
<g id="node5" class="node"><title>Node135</title>
<g id="a_node5"><a xlink:href="AppGeometryEstimator32_8cpp.html" target="_top" xlink:title="src/Application/AppGeometry\lEstimator32.cpp">
<polygon fill="white" stroke="black" points="647.5,-268.5 647.5,-298.5 790.5,-298.5 790.5,-268.5 647.5,-268.5"/>
<text text-anchor="start" x="655.5" y="-286.5" font-family="FreeSans" font-size="10.00">src/Application/AppGeometry</text>
<text text-anchor="middle" x="719" y="-275.5" font-family="FreeSans" font-size="10.00">Estimator32.cpp</text>
</a>
</g>
</g>
<!-- Node134&#45;&gt;Node135 -->
<g id="edge4" class="edge"><title>Node134&#45;&gt;Node135</title>
<path fill="none" stroke="midnightblue" d="M646.876,-330.015C662.905,-319.9 682.126,-307.77 696.694,-298.577"/>
<polygon fill="midnightblue" stroke="midnightblue" points="644.938,-327.099 638.349,-335.396 648.674,-333.019 644.938,-327.099"/>
</g>
<!-- Node134&#45;&gt;Node136 -->
<g id="edge5" class="edge"><title>Node134&#45;&gt;Node136</title>
<path fill="none" stroke="midnightblue" d="M684.046,-333.119C728.226,-322.483 785.216,-308.763 827.385,-298.611"/>
<polygon fill="midnightblue" stroke="midnightblue" points="683.157,-329.733 674.254,-335.476 684.795,-336.538 683.157,-329.733"/>
</g>
<!-- Node142 -->
<g id="node12" class="node"><title>Node142</title>
<g id="a_node12"><a xlink:href="P3PComponents_8cpp.html" target="_top" xlink:title="src/GeometryEstimationComponents\l/P3PComponents.cpp">
<polygon fill="white" stroke="black" points="453,-268.5 453,-298.5 629,-298.5 629,-268.5 453,-268.5"/>
<text text-anchor="start" x="461" y="-286.5" font-family="FreeSans" font-size="10.00">src/GeometryEstimationComponents</text>
<text text-anchor="middle" x="541" y="-275.5" font-family="FreeSans" font-size="10.00">/P3PComponents.cpp</text>
</a>
</g>
</g>
<!-- Node134&#45;&gt;Node142 -->
<g id="edge11" class="edge"><title>Node134&#45;&gt;Node142</title>
<path fill="none" stroke="midnightblue" d="M591.882,-328.598C580.557,-318.783 567.359,-307.344 557.242,-298.577"/>
<polygon fill="midnightblue" stroke="midnightblue" points="589.877,-331.492 599.726,-335.396 594.461,-326.202 589.877,-331.492"/>
</g>
<!-- Node137 -->
<g id="node7" class="node"><title>Node137</title>
<g id="a_node7"><a xlink:href="SfMPipeline_8h.html" target="_top" xlink:title="src/GeometryEstimationPipeline\l/SfMPipeline.h">
<polygon fill="white" stroke="black" points="808.5,-201.5 808.5,-231.5 963.5,-231.5 963.5,-201.5 808.5,-201.5"/>
<text text-anchor="start" x="816.5" y="-219.5" font-family="FreeSans" font-size="10.00">src/GeometryEstimationPipeline</text>
<text text-anchor="middle" x="886" y="-208.5" font-family="FreeSans" font-size="10.00">/SfMPipeline.h</text>
</a>
</g>
</g>
<!-- Node136&#45;&gt;Node137 -->
<g id="edge6" class="edge"><title>Node136&#45;&gt;Node137</title>
<path fill="none" stroke="midnightblue" d="M886,-258.108C886,-249.154 886,-239.323 886,-231.577"/>
<polygon fill="midnightblue" stroke="midnightblue" points="882.5,-258.396 886,-268.396 889.5,-258.396 882.5,-258.396"/>
</g>
<!-- Node138 -->
<g id="node8" class="node"><title>Node138</title>
<g id="a_node8"><a xlink:href="InterfaceSfMPipeline_8ipp.html" target="_top" xlink:title="src/ApplicationInterface\l/InterfaceSfMPipeline.ipp">
<polygon fill="white" stroke="black" points="744.5,-134.5 744.5,-164.5 869.5,-164.5 869.5,-134.5 744.5,-134.5"/>
<text text-anchor="start" x="752.5" y="-152.5" font-family="FreeSans" font-size="10.00">src/ApplicationInterface</text>
<text text-anchor="middle" x="807" y="-141.5" font-family="FreeSans" font-size="10.00">/InterfaceSfMPipeline.ipp</text>
</a>
</g>
</g>
<!-- Node137&#45;&gt;Node138 -->
<g id="edge7" class="edge"><title>Node137&#45;&gt;Node138</title>
<path fill="none" stroke="midnightblue" d="M860.943,-194.883C848.937,-185.005 834.868,-173.429 824.108,-164.577"/>
<polygon fill="midnightblue" stroke="midnightblue" points="858.912,-197.745 868.858,-201.396 863.36,-192.34 858.912,-197.745"/>
</g>
<!-- Node141 -->
<g id="node11" class="node"><title>Node141</title>
<g id="a_node11"><a xlink:href="SfMPipeline_8cpp.html" target="_top" xlink:title="src/GeometryEstimationPipeline\l/SfMPipeline.cpp">
<polygon fill="white" stroke="black" points="887.5,-134.5 887.5,-164.5 1042.5,-164.5 1042.5,-134.5 887.5,-134.5"/>
<text text-anchor="start" x="895.5" y="-152.5" font-family="FreeSans" font-size="10.00">src/GeometryEstimationPipeline</text>
<text text-anchor="middle" x="965" y="-141.5" font-family="FreeSans" font-size="10.00">/SfMPipeline.cpp</text>
</a>
</g>
</g>
<!-- Node137&#45;&gt;Node141 -->
<g id="edge10" class="edge"><title>Node137&#45;&gt;Node141</title>
<path fill="none" stroke="midnightblue" d="M911.057,-194.883C923.063,-185.005 937.132,-173.429 947.892,-164.577"/>
<polygon fill="midnightblue" stroke="midnightblue" points="908.64,-192.34 903.142,-201.396 913.088,-197.745 908.64,-192.34"/>
</g>
<!-- Node139 -->
<g id="node9" class="node"><title>Node139</title>
<g id="a_node9"><a xlink:href="InterfaceSfMPipeline_8h.html" target="_top" xlink:title="src/ApplicationInterface\l/InterfaceSfMPipeline.h">
<polygon fill="white" stroke="black" points="747.5,-67.5 747.5,-97.5 866.5,-97.5 866.5,-67.5 747.5,-67.5"/>
<text text-anchor="start" x="755.5" y="-85.5" font-family="FreeSans" font-size="10.00">src/ApplicationInterface</text>
<text text-anchor="middle" x="807" y="-74.5" font-family="FreeSans" font-size="10.00">/InterfaceSfMPipeline.h</text>
</a>
</g>
</g>
<!-- Node138&#45;&gt;Node139 -->
<g id="edge8" class="edge"><title>Node138&#45;&gt;Node139</title>
<path fill="none" stroke="midnightblue" d="M807,-124.108C807,-115.154 807,-105.323 807,-97.5765"/>
<polygon fill="midnightblue" stroke="midnightblue" points="803.5,-124.396 807,-134.396 810.5,-124.396 803.5,-124.396"/>
</g>
<!-- Node140 -->
<g id="node10" class="node"><title>Node140</title>
<g id="a_node10"><a xlink:href="InterfaceSfMPipeline_8cpp.html" target="_top" xlink:title="src/ApplicationInterface\l/InterfaceSfMPipeline.cpp">
<polygon fill="white" stroke="black" points="743,-0.5 743,-30.5 871,-30.5 871,-0.5 743,-0.5"/>
<text text-anchor="start" x="751" y="-18.5" font-family="FreeSans" font-size="10.00">src/ApplicationInterface</text>
<text text-anchor="middle" x="807" y="-7.5" font-family="FreeSans" font-size="10.00">/InterfaceSfMPipeline.cpp</text>
</a>
</g>
</g>
<!-- Node139&#45;&gt;Node140 -->
<g id="edge9" class="edge"><title>Node139&#45;&gt;Node140</title>
<path fill="none" stroke="midnightblue" d="M807,-57.1081C807,-48.1539 807,-38.3227 807,-30.5765"/>
<polygon fill="midnightblue" stroke="midnightblue" points="803.5,-57.3959 807,-67.396 810.5,-57.396 803.5,-57.3959"/>
</g>
<!-- Node144 -->
<g id="node14" class="node"><title>Node144</title>
<g id="a_node14"><a xlink:href="PDLP3PProblem_8h.html" target="_top" xlink:title="src/Optimisation/PDLP3PProblem.h">
<polygon fill="white" stroke="black" points="215.5,-469.5 215.5,-488.5 388.5,-488.5 388.5,-469.5 215.5,-469.5"/>
<text text-anchor="middle" x="302" y="-476.5" font-family="FreeSans" font-size="10.00">src/Optimisation/PDLP3PProblem.h</text>
</a>
</g>
</g>
<!-- Node143&#45;&gt;Node144 -->
<g id="edge13" class="edge"><title>Node143&#45;&gt;Node144</title>
<path fill="none" stroke="midnightblue" d="M419.227,-574.816C390.261,-551.387 335.616,-507.19 312.622,-488.591"/>
<polygon fill="midnightblue" stroke="midnightblue" points="417.352,-577.801 427.328,-581.368 421.754,-572.358 417.352,-577.801"/>
</g>
<!-- Node144&#45;&gt;Node133 -->
<g id="edge14" class="edge"><title>Node144&#45;&gt;Node133</title>
<path fill="none" stroke="midnightblue" d="M261.481,-466.734C226.555,-457.023 175.976,-442.961 138.436,-432.523"/>
<polygon fill="midnightblue" stroke="midnightblue" points="260.767,-470.168 271.339,-469.475 262.642,-463.424 260.767,-470.168"/>
</g>
<!-- Node145 -->
<g id="node15" class="node"><title>Node145</title>
<g id="a_node15"><a xlink:href="PDLP3PProblem_8cpp.html" target="_top" xlink:title="src/Optimisation/PDLP3PProblem.cpp">
<polygon fill="white" stroke="black" points="194.5,-408 194.5,-427 377.5,-427 377.5,-408 194.5,-408"/>
<text text-anchor="middle" x="286" y="-415" font-family="FreeSans" font-size="10.00">src/Optimisation/PDLP3PProblem.cpp</text>
</a>
</g>
</g>
<!-- Node144&#45;&gt;Node145 -->
<g id="edge15" class="edge"><title>Node144&#45;&gt;Node145</title>
<path fill="none" stroke="midnightblue" d="M297.068,-459.657C294.14,-448.772 290.568,-435.486 288.288,-427.009"/>
<polygon fill="midnightblue" stroke="midnightblue" points="293.731,-460.727 299.708,-469.475 300.491,-458.909 293.731,-460.727"/>
</g>
<!-- Node146 -->
<g id="node16" class="node"><title>Node146</title>
<g id="a_node16"><a xlink:href="TestOptimisation_8cpp.html" target="_top" xlink:title="src/Optimisation/TestOptimisation.cpp">
<polygon fill="white" stroke="black" points="395.5,-408 395.5,-427 578.5,-427 578.5,-408 395.5,-408"/>
<text text-anchor="middle" x="487" y="-415" font-family="FreeSans" font-size="10.00">src/Optimisation/TestOptimisation.cpp</text>
</a>
</g>
</g>
<!-- Node144&#45;&gt;Node146 -->
<g id="edge16" class="edge"><title>Node144&#45;&gt;Node146</title>
<path fill="none" stroke="midnightblue" d="M338.128,-466.381C374.087,-454.815 428.42,-437.341 460.543,-427.009"/>
<polygon fill="midnightblue" stroke="midnightblue" points="336.954,-463.081 328.506,-469.475 339.097,-469.745 336.954,-463.081"/>
</g>
<!-- Node148 -->
<g id="node18" class="node"><title>Node148</title>
<g id="a_node18"><a xlink:href="P4PSolver_8h.html" target="_top" xlink:title="src/Geometry/P4PSolver.h">
<polygon fill="white" stroke="black" points="660,-581.5 660,-600.5 792,-600.5 792,-581.5 660,-581.5"/>
<text text-anchor="middle" x="726" y="-588.5" font-family="FreeSans" font-size="10.00">src/Geometry/P4PSolver.h</text>
</a>
</g>
</g>
<!-- Node147&#45;&gt;Node148 -->
<g id="edge18" class="edge"><title>Node147&#45;&gt;Node148</title>
<path fill="none" stroke="midnightblue" d="M749.7,-628.566C743.678,-619.275 736.531,-608.248 731.672,-600.751"/>
<polygon fill="midnightblue" stroke="midnightblue" points="746.844,-630.595 755.22,-637.083 752.719,-626.788 746.844,-630.595"/>
</g>
<!-- Node149 -->
<g id="node19" class="node"><title>Node149</title>
<g id="a_node19"><a xlink:href="P4PComponents_8ipp.html" target="_top" xlink:title="src/GeometryEstimationComponents\l/P4PComponents.ipp">
<polygon fill="white" stroke="black" points="798,-402.5 798,-432.5 974,-432.5 974,-402.5 798,-402.5"/>
<text text-anchor="start" x="806" y="-420.5" font-family="FreeSans" font-size="10.00">src/GeometryEstimationComponents</text>
<text text-anchor="middle" x="886" y="-409.5" font-family="FreeSans" font-size="10.00">/P4PComponents.ipp</text>
</a>
</g>
</g>
<!-- Node148&#45;&gt;Node149 -->
<g id="edge19" class="edge"><title>Node148&#45;&gt;Node149</title>
<path fill="none" stroke="midnightblue" d="M688.896,-577.719C661.063,-566.371 630.123,-547.84 645,-525 678.83,-473.064 744.365,-446.271 798.565,-432.554"/>
<polygon fill="midnightblue" stroke="midnightblue" points="687.941,-581.101 698.531,-581.428 690.456,-574.569 687.941,-581.101"/>
</g>
<!-- Node152 -->
<g id="node22" class="node"><title>Node152</title>
<g id="a_node22"><a xlink:href="PDLP4PProblem_8ipp.html" target="_top" xlink:title="src/Optimisation/PDLP4PProblem.ipp">
<polygon fill="white" stroke="black" points="418,-525.5 418,-544.5 598,-544.5 598,-525.5 418,-525.5"/>
<text text-anchor="middle" x="508" y="-532.5" font-family="FreeSans" font-size="10.00">src/Optimisation/PDLP4PProblem.ipp</text>
</a>
</g>
</g>
<!-- Node148&#45;&gt;Node152 -->
<g id="edge24" class="edge"><title>Node148&#45;&gt;Node152</title>
<path fill="none" stroke="midnightblue" d="M681.688,-579.024C640.508,-568.823 580.027,-553.841 542.381,-544.516"/>
<polygon fill="midnightblue" stroke="midnightblue" points="680.909,-582.436 691.457,-581.444 682.592,-575.642 680.909,-582.436"/>
</g>
<!-- Node155 -->
<g id="node25" class="node"><title>Node155</title>
<g id="a_node25"><a xlink:href="P4PSolver_8cpp.html" target="_top" xlink:title="src/Geometry/P4PSolver.cpp">
<polygon fill="white" stroke="black" points="654.5,-525.5 654.5,-544.5 797.5,-544.5 797.5,-525.5 654.5,-525.5"/>
<text text-anchor="middle" x="726" y="-532.5" font-family="FreeSans" font-size="10.00">src/Geometry/P4PSolver.cpp</text>
</a>
</g>
</g>
<!-- Node148&#45;&gt;Node155 -->
<g id="edge29" class="edge"><title>Node148&#45;&gt;Node155</title>
<path fill="none" stroke="midnightblue" d="M726,-570.805C726,-561.91 726,-551.78 726,-544.751"/>
<polygon fill="midnightblue" stroke="midnightblue" points="722.5,-571.083 726,-581.083 729.5,-571.083 722.5,-571.083"/>
</g>
<!-- Node148&#45;&gt;Node156 -->
<g id="edge30" class="edge"><title>Node148&#45;&gt;Node156</title>
<path fill="none" stroke="midnightblue" d="M762.603,-578.304C794.447,-568.129 839.842,-553.625 868.347,-544.516"/>
<polygon fill="midnightblue" stroke="midnightblue" points="761.239,-575.066 752.779,-581.444 763.369,-581.734 761.239,-575.066"/>
</g>
<!-- Node150 -->
<g id="node20" class="node"><title>Node150</title>
<g id="a_node20"><a xlink:href="P4PComponents_8h.html" target="_top" xlink:title="src/GeometryEstimationComponents\l/P4PComponents.h">
<polygon fill="white" stroke="black" points="798,-335.5 798,-365.5 974,-365.5 974,-335.5 798,-335.5"/>
<text text-anchor="start" x="806" y="-353.5" font-family="FreeSans" font-size="10.00">src/GeometryEstimationComponents</text>
<text text-anchor="middle" x="886" y="-342.5" font-family="FreeSans" font-size="10.00">/P4PComponents.h</text>
</a>
</g>
</g>
<!-- Node149&#45;&gt;Node150 -->
<g id="edge20" class="edge"><title>Node149&#45;&gt;Node150</title>
<path fill="none" stroke="midnightblue" d="M886,-392.108C886,-383.154 886,-373.323 886,-365.577"/>
<polygon fill="midnightblue" stroke="midnightblue" points="882.5,-392.396 886,-402.396 889.5,-392.396 882.5,-392.396"/>
</g>
<!-- Node150&#45;&gt;Node135 -->
<g id="edge21" class="edge"><title>Node150&#45;&gt;Node135</title>
<path fill="none" stroke="midnightblue" d="M840.22,-331.682C813.437,-321.257 780.098,-308.281 755.166,-298.577"/>
<polygon fill="midnightblue" stroke="midnightblue" points="839.175,-335.03 849.763,-335.396 841.714,-328.507 839.175,-335.03"/>
</g>
<!-- Node150&#45;&gt;Node136 -->
<g id="edge22" class="edge"><title>Node150&#45;&gt;Node136</title>
<path fill="none" stroke="midnightblue" d="M886,-325.108C886,-316.154 886,-306.323 886,-298.577"/>
<polygon fill="midnightblue" stroke="midnightblue" points="882.5,-325.396 886,-335.396 889.5,-325.396 882.5,-325.396"/>
</g>
<!-- Node151 -->
<g id="node21" class="node"><title>Node151</title>
<g id="a_node21"><a xlink:href="P4PComponents_8cpp.html" target="_top" xlink:title="src/GeometryEstimationComponents\l/P4PComponents.cpp">
<polygon fill="white" stroke="black" points="982,-268.5 982,-298.5 1158,-298.5 1158,-268.5 982,-268.5"/>
<text text-anchor="start" x="990" y="-286.5" font-family="FreeSans" font-size="10.00">src/GeometryEstimationComponents</text>
<text text-anchor="middle" x="1070" y="-275.5" font-family="FreeSans" font-size="10.00">/P4PComponents.cpp</text>
</a>
</g>
</g>
<!-- Node150&#45;&gt;Node151 -->
<g id="edge23" class="edge"><title>Node150&#45;&gt;Node151</title>
<path fill="none" stroke="midnightblue" d="M935.665,-331.955C965.305,-321.485 1002.44,-308.366 1030.15,-298.577"/>
<polygon fill="midnightblue" stroke="midnightblue" points="934.188,-328.765 925.925,-335.396 936.52,-335.365 934.188,-328.765"/>
</g>
<!-- Node153 -->
<g id="node23" class="node"><title>Node153</title>
<g id="a_node23"><a xlink:href="PDLP4PProblem_8h.html" target="_top" xlink:title="src/Optimisation/PDLP4PProblem.h">
<polygon fill="white" stroke="black" points="423.5,-469.5 423.5,-488.5 596.5,-488.5 596.5,-469.5 423.5,-469.5"/>
<text text-anchor="middle" x="510" y="-476.5" font-family="FreeSans" font-size="10.00">src/Optimisation/PDLP4PProblem.h</text>
</a>
</g>
</g>
<!-- Node152&#45;&gt;Node153 -->
<g id="edge25" class="edge"><title>Node152&#45;&gt;Node153</title>
<path fill="none" stroke="midnightblue" d="M508.711,-514.805C509.04,-505.91 509.416,-495.78 509.676,-488.751"/>
<polygon fill="midnightblue" stroke="midnightblue" points="505.203,-514.96 508.33,-525.083 512.198,-515.219 505.203,-514.96"/>
</g>
<!-- Node153&#45;&gt;Node146 -->
<g id="edge28" class="edge"><title>Node153&#45;&gt;Node146</title>
<path fill="none" stroke="midnightblue" d="M503.041,-459.997C498.809,-449.05 493.6,-435.575 490.289,-427.009"/>
<polygon fill="midnightblue" stroke="midnightblue" points="499.834,-461.41 506.705,-469.475 506.364,-458.886 499.834,-461.41"/>
</g>
<!-- Node153&#45;&gt;Node149 -->
<g id="edge26" class="edge"><title>Node153&#45;&gt;Node149</title>
<path fill="none" stroke="midnightblue" d="M573.843,-467.897C635.398,-458.156 729.071,-443.333 797.746,-432.466"/>
<polygon fill="midnightblue" stroke="midnightblue" points="573.202,-464.455 563.872,-469.475 574.296,-471.369 573.202,-464.455"/>
</g>
<!-- Node154 -->
<g id="node24" class="node"><title>Node154</title>
<g id="a_node24"><a xlink:href="PDLP4PProblem_8cpp.html" target="_top" xlink:title="src/Optimisation/PDLP4PProblem.cpp">
<polygon fill="white" stroke="black" points="596.5,-408 596.5,-427 779.5,-427 779.5,-408 596.5,-408"/>
<text text-anchor="middle" x="688" y="-415" font-family="FreeSans" font-size="10.00">src/Optimisation/PDLP4PProblem.cpp</text>
</a>
</g>
</g>
<!-- Node153&#45;&gt;Node154 -->
<g id="edge27" class="edge"><title>Node153&#45;&gt;Node154</title>
<path fill="none" stroke="midnightblue" d="M545.205,-466.232C579.806,-454.666 631.768,-437.297 662.544,-427.009"/>
<polygon fill="midnightblue" stroke="midnightblue" points="543.878,-462.985 535.503,-469.475 546.097,-469.624 543.878,-462.985"/>
</g>
</g>
</svg>
