<?xml version="1.0" encoding="UTF-8" standalone="no"?>
<!DOCTYPE svg PUBLIC "-//W3C//DTD SVG 1.1//EN"
 "http://www.w3.org/Graphics/SVG/1.1/DTD/svg11.dtd">
<!-- Generated by graphviz version 2.38.0 (20140413.2041)
 -->
<!-- Title: src/Geometry/P6PSolver.h Pages: 1 -->
<svg width="595pt" height="229pt"
 viewBox="0.00 0.00 594.50 229.00" xmlns="http://www.w3.org/2000/svg" xmlns:xlink="http://www.w3.org/1999/xlink">
<g id="graph0" class="graph" transform="scale(1 1) rotate(0) translate(4 225)">
<title>src/Geometry/P6PSolver.h</title>
<polygon fill="white" stroke="none" points="-4,4 -4,-225 590.5,-225 590.5,4 -4,4"/>
<!-- Node132 -->
<g id="node1" class="node"><title>Node132</title>
<polygon fill="#bfbfbf" stroke="black" points="272.5,-201.5 272.5,-220.5 404.5,-220.5 404.5,-201.5 272.5,-201.5"/>
<text text-anchor="middle" x="338.5" y="-208.5" font-family="FreeSans" font-size="10.00">src/Geometry/P6PSolver.h</text>
</g>
<!-- Node133 -->
<g id="node2" class="node"><title>Node133</title>
<g id="a_node2"><a xlink:href="P6PComponents_8ipp.html" target="_top" xlink:title="src/GeometryEstimationComponents\l/P6PComponents.ipp">
<polygon fill="white" stroke="black" points="72.5,-134.5 72.5,-164.5 248.5,-164.5 248.5,-134.5 72.5,-134.5"/>
<text text-anchor="start" x="80.5" y="-152.5" font-family="FreeSans" font-size="10.00">src/GeometryEstimationComponents</text>
<text text-anchor="middle" x="160.5" y="-141.5" font-family="FreeSans" font-size="10.00">/P6PComponents.ipp</text>
</a>
</g>
</g>
<!-- Node132&#45;&gt;Node133 -->
<g id="edge1" class="edge"><title>Node132&#45;&gt;Node133</title>
<path fill="none" stroke="midnightblue" d="M303.29,-198.23C274.305,-188.542 233.141,-174.782 202.451,-164.523"/>
<polygon fill="midnightblue" stroke="midnightblue" points="302.403,-201.624 312.997,-201.475 304.622,-194.985 302.403,-201.624"/>
</g>
<!-- Node137 -->
<g id="node6" class="node"><title>Node137</title>
<g id="a_node6"><a xlink:href="P6PSolver_8cpp.html" target="_top" xlink:title="src/Geometry/P6PSolver.cpp">
<polygon fill="white" stroke="black" points="267,-140 267,-159 410,-159 410,-140 267,-140"/>
<text text-anchor="middle" x="338.5" y="-147" font-family="FreeSans" font-size="10.00">src/Geometry/P6PSolver.cpp</text>
</a>
</g>
</g>
<!-- Node132&#45;&gt;Node137 -->
<g id="edge5" class="edge"><title>Node132&#45;&gt;Node137</title>
<path fill="none" stroke="midnightblue" d="M338.5,-191.317C338.5,-180.496 338.5,-167.398 338.5,-159.009"/>
<polygon fill="midnightblue" stroke="midnightblue" points="335,-191.475 338.5,-201.475 342,-191.475 335,-191.475"/>
</g>
<!-- Node138 -->
<g id="node7" class="node"><title>Node138</title>
<g id="a_node7"><a xlink:href="TestGeometry_8cpp.html" target="_top" xlink:title="src/Geometry/TestGeometry.cpp">
<polygon fill="white" stroke="black" points="428.5,-140 428.5,-159 586.5,-159 586.5,-140 428.5,-140"/>
<text text-anchor="middle" x="507.5" y="-147" font-family="FreeSans" font-size="10.00">src/Geometry/TestGeometry.cpp</text>
</a>
</g>
</g>
<!-- Node132&#45;&gt;Node138 -->
<g id="edge6" class="edge"><title>Node132&#45;&gt;Node138</title>
<path fill="none" stroke="midnightblue" d="M372.349,-198.083C405.2,-186.517 454.237,-169.252 483.331,-159.009"/>
<polygon fill="midnightblue" stroke="midnightblue" points="370.984,-194.853 362.714,-201.475 373.308,-201.456 370.984,-194.853"/>
</g>
<!-- Node134 -->
<g id="node3" class="node"><title>Node134</title>
<g id="a_node3"><a xlink:href="P6PComponents_8h.html" target="_top" xlink:title="src/GeometryEstimationComponents\l/P6PComponents.h">
<polygon fill="white" stroke="black" points="72.5,-67.5 72.5,-97.5 248.5,-97.5 248.5,-67.5 72.5,-67.5"/>
<text text-anchor="start" x="80.5" y="-85.5" font-family="FreeSans" font-size="10.00">src/GeometryEstimationComponents</text>
<text text-anchor="middle" x="160.5" y="-74.5" font-family="FreeSans" font-size="10.00">/P6PComponents.h</text>
</a>
</g>
</g>
<!-- Node133&#45;&gt;Node134 -->
<g id="edge2" class="edge"><title>Node133&#45;&gt;Node134</title>
<path fill="none" stroke="midnightblue" d="M160.5,-124.108C160.5,-115.154 160.5,-105.323 160.5,-97.5765"/>
<polygon fill="midnightblue" stroke="midnightblue" points="157,-124.396 160.5,-134.396 164,-124.396 157,-124.396"/>
</g>
<!-- Node135 -->
<g id="node4" class="node"><title>Node135</title>
<g id="a_node4"><a xlink:href="AppGeometryEstimator32_8cpp.html" target="_top" xlink:title="src/Application/AppGeometry\lEstimator32.cpp">
<polygon fill="white" stroke="black" points="0,-0.5 0,-30.5 143,-30.5 143,-0.5 0,-0.5"/>
<text text-anchor="start" x="8" y="-18.5" font-family="FreeSans" font-size="10.00">src/Application/AppGeometry</text>
<text text-anchor="middle" x="71.5" y="-7.5" font-family="FreeSans" font-size="10.00">Estimator32.cpp</text>
</a>
</g>
</g>
<!-- Node134&#45;&gt;Node135 -->
<g id="edge3" class="edge"><title>Node134&#45;&gt;Node135</title>
<path fill="none" stroke="midnightblue" d="M133.048,-61.4511C119.357,-51.4517 103.129,-39.5995 90.774,-30.5765"/>
<polygon fill="midnightblue" stroke="midnightblue" points="131.048,-64.3245 141.188,-67.396 135.177,-58.6716 131.048,-64.3245"/>
</g>
<!-- Node136 -->
<g id="node5" class="node"><title>Node136</title>
<g id="a_node5"><a xlink:href="P6PComponents_8cpp.html" target="_top" xlink:title="src/GeometryEstimationComponents\l/P6PComponents.cpp">
<polygon fill="white" stroke="black" points="161.5,-0.5 161.5,-30.5 337.5,-30.5 337.5,-0.5 161.5,-0.5"/>
<text text-anchor="start" x="169.5" y="-18.5" font-family="FreeSans" font-size="10.00">src/GeometryEstimationComponents</text>
<text text-anchor="middle" x="249.5" y="-7.5" font-family="FreeSans" font-size="10.00">/P6PComponents.cpp</text>
</a>
</g>
</g>
<!-- Node134&#45;&gt;Node136 -->
<g id="edge4" class="edge"><title>Node134&#45;&gt;Node136</title>
<path fill="none" stroke="midnightblue" d="M187.952,-61.4511C201.643,-51.4517 217.871,-39.5995 230.226,-30.5765"/>
<polygon fill="midnightblue" stroke="midnightblue" points="185.823,-58.6716 179.812,-67.396 189.952,-64.3245 185.823,-58.6716"/>
</g>
</g>
</svg>
