<?xml version="1.0" encoding="UTF-8" standalone="no"?>
<!DOCTYPE svg PUBLIC "-//W3C//DTD SVG 1.1//EN"
 "http://www.w3.org/Graphics/SVG/1.1/DTD/svg11.dtd">
<!-- Generated by graphviz version 2.38.0 (20140413.2041)
 -->
<!-- Title: src/Optimisation/PDLHomographyXDEstimationProblem.ipp Pages: 1 -->
<svg width="2362pt" height="742pt"
 viewBox="0.00 0.00 2361.50 742.00" xmlns="http://www.w3.org/2000/svg" xmlns:xlink="http://www.w3.org/1999/xlink">
<g id="graph0" class="graph" transform="scale(1 1) rotate(0) translate(4 738)">
<title>src/Optimisation/PDLHomographyXDEstimationProblem.ipp</title>
<polygon fill="white" stroke="none" points="-4,4 -4,-738 2357.5,-738 2357.5,4 -4,4"/>
<!-- Node92 -->
<g id="node1" class="node"><title>Node92</title>
<polygon fill="#bfbfbf" stroke="black" points="1661.5,-703.5 1661.5,-733.5 1826.5,-733.5 1826.5,-703.5 1661.5,-703.5"/>
<text text-anchor="start" x="1669.5" y="-721.5" font-family="FreeSans" font-size="10.00">src/Optimisation/PDLHomography</text>
<text text-anchor="middle" x="1744" y="-710.5" font-family="FreeSans" font-size="10.00">XDEstimationProblem.ipp</text>
</g>
<!-- Node93 -->
<g id="node2" class="node"><title>Node93</title>
<g id="a_node2"><a xlink:href="PDLHomographyXDEstimationProblem_8h.html" target="_top" xlink:title="src/Optimisation/PDLHomography\lXDEstimationProblem.h">
<polygon fill="white" stroke="black" points="1661.5,-636.5 1661.5,-666.5 1826.5,-666.5 1826.5,-636.5 1661.5,-636.5"/>
<text text-anchor="start" x="1669.5" y="-654.5" font-family="FreeSans" font-size="10.00">src/Optimisation/PDLHomography</text>
<text text-anchor="middle" x="1744" y="-643.5" font-family="FreeSans" font-size="10.00">XDEstimationProblem.h</text>
</a>
</g>
</g>
<!-- Node92&#45;&gt;Node93 -->
<g id="edge1" class="edge"><title>Node92&#45;&gt;Node93</title>
<path fill="none" stroke="midnightblue" d="M1744,-693.108C1744,-684.154 1744,-674.323 1744,-666.577"/>
<polygon fill="midnightblue" stroke="midnightblue" points="1740.5,-693.396 1744,-703.396 1747.5,-693.396 1740.5,-693.396"/>
</g>
<!-- Node94 -->
<g id="node3" class="node"><title>Node94</title>
<g id="a_node3"><a xlink:href="Homography2DComponents_8ipp.html" target="_top" xlink:title="src/GeometryEstimationComponents\l/Homography2DComponents.ipp">
<polygon fill="white" stroke="black" points="1196,-569.5 1196,-599.5 1372,-599.5 1372,-569.5 1196,-569.5"/>
<text text-anchor="start" x="1204" y="-587.5" font-family="FreeSans" font-size="10.00">src/GeometryEstimationComponents</text>
<text text-anchor="middle" x="1284" y="-576.5" font-family="FreeSans" font-size="10.00">/Homography2DComponents.ipp</text>
</a>
</g>
</g>
<!-- Node93&#45;&gt;Node94 -->
<g id="edge2" class="edge"><title>Node93&#45;&gt;Node94</title>
<path fill="none" stroke="midnightblue" d="M1651.25,-637.394C1569.79,-625.883 1452.12,-609.256 1372.08,-597.947"/>
<polygon fill="midnightblue" stroke="midnightblue" points="1651.1,-640.908 1661.5,-638.842 1652.08,-633.977 1651.1,-640.908"/>
</g>
<!-- Node127 -->
<g id="node36" class="node"><title>Node127</title>
<g id="a_node36"><a xlink:href="P6PComponents_8ipp.html" target="_top" xlink:title="src/GeometryEstimationComponents\l/P6PComponents.ipp">
<polygon fill="white" stroke="black" points="1753,-569.5 1753,-599.5 1929,-599.5 1929,-569.5 1753,-569.5"/>
<text text-anchor="start" x="1761" y="-587.5" font-family="FreeSans" font-size="10.00">src/GeometryEstimationComponents</text>
<text text-anchor="middle" x="1841" y="-576.5" font-family="FreeSans" font-size="10.00">/P6PComponents.ipp</text>
</a>
</g>
</g>
<!-- Node93&#45;&gt;Node127 -->
<g id="edge40" class="edge"><title>Node93&#45;&gt;Node127</title>
<path fill="none" stroke="midnightblue" d="M1773.5,-630.734C1788.51,-620.676 1806.4,-608.685 1819.99,-599.577"/>
<polygon fill="midnightblue" stroke="midnightblue" points="1771.41,-627.922 1765.05,-636.396 1775.3,-633.737 1771.41,-627.922"/>
</g>
<!-- Node131 -->
<g id="node40" class="node"><title>Node131</title>
<g id="a_node40"><a xlink:href="Homography3DComponents_8ipp.html" target="_top" xlink:title="src/GeometryEstimationComponents\l/Homography3DComponents.ipp">
<polygon fill="white" stroke="black" points="1559,-569.5 1559,-599.5 1735,-599.5 1735,-569.5 1559,-569.5"/>
<text text-anchor="start" x="1567" y="-587.5" font-family="FreeSans" font-size="10.00">src/GeometryEstimationComponents</text>
<text text-anchor="middle" x="1647" y="-576.5" font-family="FreeSans" font-size="10.00">/Homography3DComponents.ipp</text>
</a>
</g>
</g>
<!-- Node93&#45;&gt;Node131 -->
<g id="edge44" class="edge"><title>Node93&#45;&gt;Node131</title>
<path fill="none" stroke="midnightblue" d="M1714.5,-630.734C1699.49,-620.676 1681.6,-608.685 1668.01,-599.577"/>
<polygon fill="midnightblue" stroke="midnightblue" points="1712.7,-633.737 1722.95,-636.396 1716.59,-627.922 1712.7,-633.737"/>
</g>
<!-- Node141 -->
<g id="node50" class="node"><title>Node141</title>
<g id="a_node50"><a xlink:href="TestOptimisation_8cpp.html" target="_top" xlink:title="src/Optimisation/TestOptimisation.cpp">
<polygon fill="white" stroke="black" points="1947.5,-575 1947.5,-594 2130.5,-594 2130.5,-575 1947.5,-575"/>
<text text-anchor="middle" x="2039" y="-582" font-family="FreeSans" font-size="10.00">src/Optimisation/TestOptimisation.cpp</text>
</a>
</g>
</g>
<!-- Node93&#45;&gt;Node141 -->
<g id="edge57" class="edge"><title>Node93&#45;&gt;Node141</title>
<path fill="none" stroke="midnightblue" d="M1817.49,-634.307C1875.45,-621.537 1953.98,-604.233 2000.29,-594.029"/>
<polygon fill="midnightblue" stroke="midnightblue" points="1816.66,-630.906 1807.65,-636.476 1818.17,-637.742 1816.66,-630.906"/>
</g>
<!-- Node95 -->
<g id="node4" class="node"><title>Node95</title>
<g id="a_node4"><a xlink:href="Homography2DComponents_8h.html" target="_top" xlink:title="src/GeometryEstimationComponents\l/Homography2DComponents.h">
<polygon fill="white" stroke="black" points="884,-502.5 884,-532.5 1060,-532.5 1060,-502.5 884,-502.5"/>
<text text-anchor="start" x="892" y="-520.5" font-family="FreeSans" font-size="10.00">src/GeometryEstimationComponents</text>
<text text-anchor="middle" x="972" y="-509.5" font-family="FreeSans" font-size="10.00">/Homography2DComponents.h</text>
</a>
</g>
</g>
<!-- Node94&#45;&gt;Node95 -->
<g id="edge3" class="edge"><title>Node94&#45;&gt;Node95</title>
<path fill="none" stroke="midnightblue" d="M1206.64,-567.382C1155.32,-556.691 1088.62,-542.796 1039.46,-532.555"/>
<polygon fill="midnightblue" stroke="midnightblue" points="1206.18,-570.863 1216.68,-569.476 1207.61,-564.01 1206.18,-570.863"/>
</g>
<!-- Node96 -->
<g id="node5" class="node"><title>Node96</title>
<g id="a_node5"><a xlink:href="AppGeometryEstimator22_8cpp.html" target="_top" xlink:title="src/Application/AppGeometry\lEstimator22.cpp">
<polygon fill="white" stroke="black" points="1120.5,-435.5 1120.5,-465.5 1263.5,-465.5 1263.5,-435.5 1120.5,-435.5"/>
<text text-anchor="start" x="1128.5" y="-453.5" font-family="FreeSans" font-size="10.00">src/Application/AppGeometry</text>
<text text-anchor="middle" x="1192" y="-442.5" font-family="FreeSans" font-size="10.00">Estimator22.cpp</text>
</a>
</g>
</g>
<!-- Node95&#45;&gt;Node96 -->
<g id="edge4" class="edge"><title>Node95&#45;&gt;Node96</title>
<path fill="none" stroke="midnightblue" d="M1029.27,-499.58C1065,-489.022 1110.46,-475.592 1144.24,-465.611"/>
<polygon fill="midnightblue" stroke="midnightblue" points="1028.06,-496.286 1019.47,-502.476 1030.05,-502.999 1028.06,-496.286"/>
</g>
<!-- Node97 -->
<g id="node6" class="node"><title>Node97</title>
<g id="a_node6"><a xlink:href="AppMultimodelGeometryEstimator22_8cpp.html" target="_top" xlink:title="src/Application/AppMultimodel\lGeometryEstimator22.cpp">
<polygon fill="white" stroke="black" points="1281.5,-435.5 1281.5,-465.5 1430.5,-465.5 1430.5,-435.5 1281.5,-435.5"/>
<text text-anchor="start" x="1289.5" y="-453.5" font-family="FreeSans" font-size="10.00">src/Application/AppMultimodel</text>
<text text-anchor="middle" x="1356" y="-442.5" font-family="FreeSans" font-size="10.00">GeometryEstimator22.cpp</text>
</a>
</g>
</g>
<!-- Node95&#45;&gt;Node97 -->
<g id="edge5" class="edge"><title>Node95&#45;&gt;Node97</title>
<path fill="none" stroke="midnightblue" d="M1065.82,-500.81C1124.98,-490.891 1202.97,-477.768 1272,-466 1275.06,-465.478 1278.19,-464.944 1281.35,-464.403"/>
<polygon fill="midnightblue" stroke="midnightblue" points="1065.03,-497.393 1055.75,-502.498 1066.19,-504.297 1065.03,-497.393"/>
</g>
<!-- Node98 -->
<g id="node7" class="node"><title>Node98</title>
<g id="a_node7"><a xlink:href="VisionGraphPipeline_8ipp.html" target="_top" xlink:title="src/GeometryEstimationPipeline\l/VisionGraphPipeline.ipp">
<polygon fill="white" stroke="black" points="947.5,-435.5 947.5,-465.5 1102.5,-465.5 1102.5,-435.5 947.5,-435.5"/>
<text text-anchor="start" x="955.5" y="-453.5" font-family="FreeSans" font-size="10.00">src/GeometryEstimationPipeline</text>
<text text-anchor="middle" x="1025" y="-442.5" font-family="FreeSans" font-size="10.00">/VisionGraphPipeline.ipp</text>
</a>
</g>
</g>
<!-- Node95&#45;&gt;Node98 -->
<g id="edge6" class="edge"><title>Node95&#45;&gt;Node98</title>
<path fill="none" stroke="midnightblue" d="M989.981,-494.447C997.767,-484.899 1006.65,-474.004 1013.52,-465.577"/>
<polygon fill="midnightblue" stroke="midnightblue" points="987.107,-492.434 983.5,-502.396 992.532,-496.858 987.107,-492.434"/>
</g>
<!-- Node110 -->
<g id="node19" class="node"><title>Node110</title>
<g id="a_node19"><a xlink:href="PfMPipeline_8ipp.html" target="_top" xlink:title="src/GeometryEstimationPipeline\l/PfMPipeline.ipp">
<polygon fill="white" stroke="black" points="844.5,-296 844.5,-326 999.5,-326 999.5,-296 844.5,-296"/>
<text text-anchor="start" x="852.5" y="-314" font-family="FreeSans" font-size="10.00">src/GeometryEstimationPipeline</text>
<text text-anchor="middle" x="922" y="-303" font-family="FreeSans" font-size="10.00">/PfMPipeline.ipp</text>
</a>
</g>
</g>
<!-- Node95&#45;&gt;Node110 -->
<g id="edge29" class="edge"><title>Node95&#45;&gt;Node110</title>
<path fill="none" stroke="midnightblue" d="M953.429,-494.028C947.516,-485.707 941.585,-475.881 938,-466 920.215,-416.979 920.197,-353.817 921.231,-326.097"/>
<polygon fill="midnightblue" stroke="midnightblue" points="950.683,-496.2 959.486,-502.095 956.28,-491.997 950.683,-496.2"/>
</g>
<!-- Node116 -->
<g id="node25" class="node"><title>Node116</title>
<g id="a_node25"><a xlink:href="TestGeometryEstimationPipeline_8cpp.html" target="_top" xlink:title="src/GeometryEstimationPipeline\l/TestGeometryEstimationPipeline.cpp">
<polygon fill="white" stroke="black" points="647.5,-296 647.5,-326 826.5,-326 826.5,-296 647.5,-296"/>
<text text-anchor="start" x="655.5" y="-314" font-family="FreeSans" font-size="10.00">src/GeometryEstimationPipeline</text>
<text text-anchor="middle" x="737" y="-303" font-family="FreeSans" font-size="10.00">/TestGeometryEstimationPipeline.cpp</text>
</a>
</g>
</g>
<!-- Node95&#45;&gt;Node116 -->
<g id="edge39" class="edge"><title>Node95&#45;&gt;Node116</title>
<path fill="none" stroke="midnightblue" d="M873.677,-510.695C807.023,-504.468 727.315,-491.742 706,-466 671.735,-424.618 708.564,-355.73 727.359,-326.175"/>
<polygon fill="midnightblue" stroke="midnightblue" points="873.557,-514.198 883.829,-511.603 874.181,-507.226 873.557,-514.198"/>
</g>
<!-- Node118 -->
<g id="node27" class="node"><title>Node118</title>
<g id="a_node27"><a xlink:href="ImageFeatureTrackingPipeline_8ipp.html" target="_top" xlink:title="src/Tracker/ImageFeature\lTrackingPipeline.ipp">
<polygon fill="white" stroke="black" points="434.5,-435.5 434.5,-465.5 563.5,-465.5 563.5,-435.5 434.5,-435.5"/>
<text text-anchor="start" x="442.5" y="-453.5" font-family="FreeSans" font-size="10.00">src/Tracker/ImageFeature</text>
<text text-anchor="middle" x="499" y="-442.5" font-family="FreeSans" font-size="10.00">TrackingPipeline.ipp</text>
</a>
</g>
</g>
<!-- Node95&#45;&gt;Node118 -->
<g id="edge30" class="edge"><title>Node95&#45;&gt;Node118</title>
<path fill="none" stroke="midnightblue" d="M873.869,-503.015C780.776,-490.222 643.564,-471.366 563.536,-460.369"/>
<polygon fill="midnightblue" stroke="midnightblue" points="873.481,-506.494 883.864,-504.388 874.434,-499.559 873.481,-506.494"/>
</g>
<!-- Node126 -->
<g id="node35" class="node"><title>Node126</title>
<g id="a_node35"><a xlink:href="Homography2DComponents_8cpp.html" target="_top" xlink:title="src/GeometryEstimationComponents\l/Homography2DComponents.cpp">
<polygon fill="white" stroke="black" points="715,-435.5 715,-465.5 891,-465.5 891,-435.5 715,-435.5"/>
<text text-anchor="start" x="723" y="-453.5" font-family="FreeSans" font-size="10.00">src/GeometryEstimationComponents</text>
<text text-anchor="middle" x="803" y="-442.5" font-family="FreeSans" font-size="10.00">/Homography2DComponents.cpp</text>
</a>
</g>
</g>
<!-- Node95&#45;&gt;Node126 -->
<g id="edge38" class="edge"><title>Node95&#45;&gt;Node126</title>
<path fill="none" stroke="midnightblue" d="M925.672,-498.682C898.568,-488.257 864.829,-475.281 839.599,-465.577"/>
<polygon fill="midnightblue" stroke="midnightblue" points="924.74,-502.073 935.33,-502.396 927.253,-495.539 924.74,-502.073"/>
</g>
<!-- Node99 -->
<g id="node8" class="node"><title>Node99</title>
<g id="a_node8"><a xlink:href="VisionGraphPipeline_8h.html" target="_top" xlink:title="src/GeometryEstimationPipeline\l/VisionGraphPipeline.h">
<polygon fill="white" stroke="black" points="980.5,-368.5 980.5,-398.5 1135.5,-398.5 1135.5,-368.5 980.5,-368.5"/>
<text text-anchor="start" x="988.5" y="-386.5" font-family="FreeSans" font-size="10.00">src/GeometryEstimationPipeline</text>
<text text-anchor="middle" x="1058" y="-375.5" font-family="FreeSans" font-size="10.00">/VisionGraphPipeline.h</text>
</a>
</g>
</g>
<!-- Node98&#45;&gt;Node99 -->
<g id="edge7" class="edge"><title>Node98&#45;&gt;Node99</title>
<path fill="none" stroke="midnightblue" d="M1036.79,-426.283C1041.49,-417.022 1046.75,-406.663 1050.85,-398.577"/>
<polygon fill="midnightblue" stroke="midnightblue" points="1033.57,-424.895 1032.16,-435.396 1039.81,-428.064 1033.57,-424.895"/>
</g>
<!-- Node100 -->
<g id="node9" class="node"><title>Node100</title>
<g id="a_node9"><a xlink:href="InterfaceVisionGraphPipeline_8ipp.html" target="_top" xlink:title="src/ApplicationInterface\l/InterfaceVisionGraphPipeline.ipp">
<polygon fill="white" stroke="black" points="1190.5,-296 1190.5,-326 1351.5,-326 1351.5,-296 1190.5,-296"/>
<text text-anchor="start" x="1198.5" y="-314" font-family="FreeSans" font-size="10.00">src/ApplicationInterface</text>
<text text-anchor="middle" x="1271" y="-303" font-family="FreeSans" font-size="10.00">/InterfaceVisionGraphPipeline.ipp</text>
</a>
</g>
</g>
<!-- Node99&#45;&gt;Node100 -->
<g id="edge8" class="edge"><title>Node99&#45;&gt;Node100</title>
<path fill="none" stroke="midnightblue" d="M1110.25,-365.205C1146.57,-353.184 1194.37,-337.364 1228.38,-326.107"/>
<polygon fill="midnightblue" stroke="midnightblue" points="1108.73,-362.022 1100.34,-368.487 1110.93,-368.668 1108.73,-362.022"/>
</g>
<!-- Node99&#45;&gt;Node110 -->
<g id="edge18" class="edge"><title>Node99&#45;&gt;Node110</title>
<path fill="none" stroke="midnightblue" d="M1021.76,-363.715C998.949,-351.889 969.983,-336.874 949.148,-326.073"/>
<polygon fill="midnightblue" stroke="midnightblue" points="1020.32,-366.908 1030.81,-368.403 1023.54,-360.693 1020.32,-366.908"/>
</g>
<!-- Node113 -->
<g id="node22" class="node"><title>Node113</title>
<g id="a_node22"><a xlink:href="SfMPipeline_8ipp.html" target="_top" xlink:title="src/GeometryEstimationPipeline\l/SfMPipeline.ipp">
<polygon fill="white" stroke="black" points="1373.5,-296 1373.5,-326 1528.5,-326 1528.5,-296 1373.5,-296"/>
<text text-anchor="start" x="1381.5" y="-314" font-family="FreeSans" font-size="10.00">src/GeometryEstimationPipeline</text>
<text text-anchor="middle" x="1451" y="-303" font-family="FreeSans" font-size="10.00">/SfMPipeline.ipp</text>
</a>
</g>
</g>
<!-- Node99&#45;&gt;Node113 -->
<g id="edge23" class="edge"><title>Node99&#45;&gt;Node113</title>
<path fill="none" stroke="midnightblue" d="M1145.66,-369.044C1206.05,-359.48 1288.07,-345.91 1360,-332 1369.37,-330.188 1379.25,-328.149 1388.92,-326.084"/>
<polygon fill="midnightblue" stroke="midnightblue" points="1145.11,-365.587 1135.78,-370.604 1146.2,-372.502 1145.11,-365.587"/>
</g>
<!-- Node99&#45;&gt;Node116 -->
<g id="edge27" class="edge"><title>Node99&#45;&gt;Node116</title>
<path fill="none" stroke="midnightblue" d="M984.098,-366.269C928.737,-354.111 853.756,-337.643 800.957,-326.047"/>
<polygon fill="midnightblue" stroke="midnightblue" points="983.679,-369.76 994.197,-368.487 985.181,-362.923 983.679,-369.76"/>
</g>
<!-- Node117 -->
<g id="node26" class="node"><title>Node117</title>
<g id="a_node26"><a xlink:href="VisionGraphPipeline_8cpp.html" target="_top" xlink:title="src/GeometryEstimationPipeline\l/VisionGraphPipeline.cpp">
<polygon fill="white" stroke="black" points="1017.5,-296 1017.5,-326 1172.5,-326 1172.5,-296 1017.5,-296"/>
<text text-anchor="start" x="1025.5" y="-314" font-family="FreeSans" font-size="10.00">src/GeometryEstimationPipeline</text>
<text text-anchor="middle" x="1095" y="-303" font-family="FreeSans" font-size="10.00">/VisionGraphPipeline.cpp</text>
</a>
</g>
</g>
<!-- Node99&#45;&gt;Node117 -->
<g id="edge28" class="edge"><title>Node99&#45;&gt;Node117</title>
<path fill="none" stroke="midnightblue" d="M1070.21,-359.227C1075.93,-348.33 1082.56,-335.701 1087.52,-326.246"/>
<polygon fill="midnightblue" stroke="midnightblue" points="1067.04,-357.752 1065.49,-368.233 1073.23,-361.005 1067.04,-357.752"/>
</g>
<!-- Node101 -->
<g id="node10" class="node"><title>Node101</title>
<g id="a_node10"><a xlink:href="InterfaceVisionGraphPipeline_8h.html" target="_top" xlink:title="src/ApplicationInterface\l/InterfaceVisionGraphPipeline.h">
<polygon fill="white" stroke="black" points="1194.5,-218 1194.5,-248 1347.5,-248 1347.5,-218 1194.5,-218"/>
<text text-anchor="start" x="1202.5" y="-236" font-family="FreeSans" font-size="10.00">src/ApplicationInterface</text>
<text text-anchor="middle" x="1271" y="-225" font-family="FreeSans" font-size="10.00">/InterfaceVisionGraphPipeline.h</text>
</a>
</g>
</g>
<!-- Node100&#45;&gt;Node101 -->
<g id="edge9" class="edge"><title>Node100&#45;&gt;Node101</title>
<path fill="none" stroke="midnightblue" d="M1271,-285.59C1271,-273.257 1271,-258.724 1271,-248.231"/>
<polygon fill="midnightblue" stroke="midnightblue" points="1267.5,-285.705 1271,-295.705 1274.5,-285.705 1267.5,-285.705"/>
</g>
<!-- Node102 -->
<g id="node11" class="node"><title>Node102</title>
<g id="a_node11"><a xlink:href="InterfacePfMPipeline_8ipp.html" target="_top" xlink:title="src/ApplicationInterface\l/InterfacePfMPipeline.ipp">
<polygon fill="white" stroke="black" points="1013.5,-140 1013.5,-170 1138.5,-170 1138.5,-140 1013.5,-140"/>
<text text-anchor="start" x="1021.5" y="-158" font-family="FreeSans" font-size="10.00">src/ApplicationInterface</text>
<text text-anchor="middle" x="1076" y="-147" font-family="FreeSans" font-size="10.00">/InterfacePfMPipeline.ipp</text>
</a>
</g>
</g>
<!-- Node101&#45;&gt;Node102 -->
<g id="edge10" class="edge"><title>Node101&#45;&gt;Node102</title>
<path fill="none" stroke="midnightblue" d="M1225.38,-214.219C1190.82,-200.749 1143.98,-182.496 1112.03,-170.041"/>
<polygon fill="midnightblue" stroke="midnightblue" points="1224.19,-217.513 1234.78,-217.883 1226.73,-210.991 1224.19,-217.513"/>
</g>
<!-- Node106 -->
<g id="node15" class="node"><title>Node106</title>
<g id="a_node15"><a xlink:href="InterfaceSfMPipeline_8ipp.html" target="_top" xlink:title="src/ApplicationInterface\l/InterfaceSfMPipeline.ipp">
<polygon fill="white" stroke="black" points="1379.5,-140 1379.5,-170 1504.5,-170 1504.5,-140 1379.5,-140"/>
<text text-anchor="start" x="1387.5" y="-158" font-family="FreeSans" font-size="10.00">src/ApplicationInterface</text>
<text text-anchor="middle" x="1442" y="-147" font-family="FreeSans" font-size="10.00">/InterfaceSfMPipeline.ipp</text>
</a>
</g>
</g>
<!-- Node101&#45;&gt;Node106 -->
<g id="edge14" class="edge"><title>Node101&#45;&gt;Node106</title>
<path fill="none" stroke="midnightblue" d="M1312.18,-213.699C1342.37,-200.282 1382.74,-182.336 1410.41,-170.041"/>
<polygon fill="midnightblue" stroke="midnightblue" points="1310.48,-210.623 1302.76,-217.883 1313.32,-217.02 1310.48,-210.623"/>
</g>
<!-- Node109 -->
<g id="node18" class="node"><title>Node109</title>
<g id="a_node18"><a xlink:href="InterfaceVisionGraphPipeline_8cpp.html" target="_top" xlink:title="src/ApplicationInterface\l/InterfaceVisionGraphPipeline.cpp">
<polygon fill="white" stroke="black" points="1189,-140 1189,-170 1353,-170 1353,-140 1189,-140"/>
<text text-anchor="start" x="1197" y="-158" font-family="FreeSans" font-size="10.00">src/ApplicationInterface</text>
<text text-anchor="middle" x="1271" y="-147" font-family="FreeSans" font-size="10.00">/InterfaceVisionGraphPipeline.cpp</text>
</a>
</g>
</g>
<!-- Node101&#45;&gt;Node109 -->
<g id="edge17" class="edge"><title>Node101&#45;&gt;Node109</title>
<path fill="none" stroke="midnightblue" d="M1271,-207.59C1271,-195.257 1271,-180.724 1271,-170.231"/>
<polygon fill="midnightblue" stroke="midnightblue" points="1267.5,-207.705 1271,-217.705 1274.5,-207.705 1267.5,-207.705"/>
</g>
<!-- Node103 -->
<g id="node12" class="node"><title>Node103</title>
<g id="a_node12"><a xlink:href="InterfacePfMPipeline_8h.html" target="_top" xlink:title="src/ApplicationInterface\l/InterfacePfMPipeline.h">
<polygon fill="white" stroke="black" points="1016.5,-67.5 1016.5,-97.5 1135.5,-97.5 1135.5,-67.5 1016.5,-67.5"/>
<text text-anchor="start" x="1024.5" y="-85.5" font-family="FreeSans" font-size="10.00">src/ApplicationInterface</text>
<text text-anchor="middle" x="1076" y="-74.5" font-family="FreeSans" font-size="10.00">/InterfacePfMPipeline.h</text>
</a>
</g>
</g>
<!-- Node102&#45;&gt;Node103 -->
<g id="edge11" class="edge"><title>Node102&#45;&gt;Node103</title>
<path fill="none" stroke="midnightblue" d="M1076,-129.732C1076,-119.068 1076,-106.914 1076,-97.7455"/>
<polygon fill="midnightblue" stroke="midnightblue" points="1072.5,-129.733 1076,-139.733 1079.5,-129.733 1072.5,-129.733"/>
</g>
<!-- Node104 -->
<g id="node13" class="node"><title>Node104</title>
<g id="a_node13"><a xlink:href="AppPfM_8cpp.html" target="_top" xlink:title="src/Application/AppPfM.cpp">
<polygon fill="white" stroke="black" points="886.5,-6 886.5,-25 1023.5,-25 1023.5,-6 886.5,-6"/>
<text text-anchor="middle" x="955" y="-13" font-family="FreeSans" font-size="10.00">src/Application/AppPfM.cpp</text>
</a>
</g>
</g>
<!-- Node103&#45;&gt;Node104 -->
<g id="edge12" class="edge"><title>Node103&#45;&gt;Node104</title>
<path fill="none" stroke="midnightblue" d="M1040.89,-62.638C1017.74,-50.2028 988.533,-34.5137 970.836,-25.007"/>
<polygon fill="midnightblue" stroke="midnightblue" points="1039.28,-65.7469 1049.74,-67.396 1042.59,-59.5803 1039.28,-65.7469"/>
</g>
<!-- Node105 -->
<g id="node14" class="node"><title>Node105</title>
<g id="a_node14"><a xlink:href="InterfacePfMPipeline_8cpp.html" target="_top" xlink:title="src/ApplicationInterface\l/InterfacePfMPipeline.cpp">
<polygon fill="white" stroke="black" points="1042,-0.5 1042,-30.5 1170,-30.5 1170,-0.5 1042,-0.5"/>
<text text-anchor="start" x="1050" y="-18.5" font-family="FreeSans" font-size="10.00">src/ApplicationInterface</text>
<text text-anchor="middle" x="1106" y="-7.5" font-family="FreeSans" font-size="10.00">/InterfacePfMPipeline.cpp</text>
</a>
</g>
</g>
<!-- Node103&#45;&gt;Node105 -->
<g id="edge13" class="edge"><title>Node103&#45;&gt;Node105</title>
<path fill="none" stroke="midnightblue" d="M1086.72,-58.2835C1090.99,-49.0223 1095.77,-38.6632 1099.5,-30.5765"/>
<polygon fill="midnightblue" stroke="midnightblue" points="1083.52,-56.8496 1082.51,-67.396 1089.88,-59.7831 1083.52,-56.8496"/>
</g>
<!-- Node107 -->
<g id="node16" class="node"><title>Node107</title>
<g id="a_node16"><a xlink:href="InterfaceSfMPipeline_8h.html" target="_top" xlink:title="src/ApplicationInterface\l/InterfaceSfMPipeline.h">
<polygon fill="white" stroke="black" points="1382.5,-67.5 1382.5,-97.5 1501.5,-97.5 1501.5,-67.5 1382.5,-67.5"/>
<text text-anchor="start" x="1390.5" y="-85.5" font-family="FreeSans" font-size="10.00">src/ApplicationInterface</text>
<text text-anchor="middle" x="1442" y="-74.5" font-family="FreeSans" font-size="10.00">/InterfaceSfMPipeline.h</text>
</a>
</g>
</g>
<!-- Node106&#45;&gt;Node107 -->
<g id="edge15" class="edge"><title>Node106&#45;&gt;Node107</title>
<path fill="none" stroke="midnightblue" d="M1442,-129.732C1442,-119.068 1442,-106.914 1442,-97.7455"/>
<polygon fill="midnightblue" stroke="midnightblue" points="1438.5,-129.733 1442,-139.733 1445.5,-129.733 1438.5,-129.733"/>
</g>
<!-- Node108 -->
<g id="node17" class="node"><title>Node108</title>
<g id="a_node17"><a xlink:href="InterfaceSfMPipeline_8cpp.html" target="_top" xlink:title="src/ApplicationInterface\l/InterfaceSfMPipeline.cpp">
<polygon fill="white" stroke="black" points="1378,-0.5 1378,-30.5 1506,-30.5 1506,-0.5 1378,-0.5"/>
<text text-anchor="start" x="1386" y="-18.5" font-family="FreeSans" font-size="10.00">src/ApplicationInterface</text>
<text text-anchor="middle" x="1442" y="-7.5" font-family="FreeSans" font-size="10.00">/InterfaceSfMPipeline.cpp</text>
</a>
</g>
</g>
<!-- Node107&#45;&gt;Node108 -->
<g id="edge16" class="edge"><title>Node107&#45;&gt;Node108</title>
<path fill="none" stroke="midnightblue" d="M1442,-57.1081C1442,-48.1539 1442,-38.3227 1442,-30.5765"/>
<polygon fill="midnightblue" stroke="midnightblue" points="1438.5,-57.3959 1442,-67.396 1445.5,-57.396 1438.5,-57.3959"/>
</g>
<!-- Node111 -->
<g id="node20" class="node"><title>Node111</title>
<g id="a_node20"><a xlink:href="PfMPipeline_8h.html" target="_top" xlink:title="src/GeometryEstimationPipeline\l/PfMPipeline.h">
<polygon fill="white" stroke="black" points="860.5,-218 860.5,-248 1015.5,-248 1015.5,-218 860.5,-218"/>
<text text-anchor="start" x="868.5" y="-236" font-family="FreeSans" font-size="10.00">src/GeometryEstimationPipeline</text>
<text text-anchor="middle" x="938" y="-225" font-family="FreeSans" font-size="10.00">/PfMPipeline.h</text>
</a>
</g>
</g>
<!-- Node110&#45;&gt;Node111 -->
<g id="edge19" class="edge"><title>Node110&#45;&gt;Node111</title>
<path fill="none" stroke="midnightblue" d="M927.139,-285.59C929.735,-273.257 932.795,-258.724 935.004,-248.231"/>
<polygon fill="midnightblue" stroke="midnightblue" points="923.645,-285.198 925.009,-295.705 930.495,-286.641 923.645,-285.198"/>
</g>
<!-- Node111&#45;&gt;Node102 -->
<g id="edge20" class="edge"><title>Node111&#45;&gt;Node102</title>
<path fill="none" stroke="midnightblue" d="M972.504,-212.998C996.719,-199.662 1028.57,-182.123 1050.5,-170.041"/>
<polygon fill="midnightblue" stroke="midnightblue" points="970.704,-209.993 963.633,-217.883 974.081,-216.125 970.704,-209.993"/>
</g>
<!-- Node111&#45;&gt;Node104 -->
<g id="edge21" class="edge"><title>Node111&#45;&gt;Node104</title>
<path fill="none" stroke="midnightblue" d="M939.907,-207.821C943.664,-160.206 951.865,-56.2367 954.303,-25.3327"/>
<polygon fill="midnightblue" stroke="midnightblue" points="936.413,-207.616 939.115,-217.86 943.391,-208.167 936.413,-207.616"/>
</g>
<!-- Node112 -->
<g id="node21" class="node"><title>Node112</title>
<g id="a_node21"><a xlink:href="PfMPipeline_8cpp.html" target="_top" xlink:title="src/GeometryEstimationPipeline\l/PfMPipeline.cpp">
<polygon fill="white" stroke="black" points="771.5,-140 771.5,-170 926.5,-170 926.5,-140 771.5,-140"/>
<text text-anchor="start" x="779.5" y="-158" font-family="FreeSans" font-size="10.00">src/GeometryEstimationPipeline</text>
<text text-anchor="middle" x="849" y="-147" font-family="FreeSans" font-size="10.00">/PfMPipeline.cpp</text>
</a>
</g>
</g>
<!-- Node111&#45;&gt;Node112 -->
<g id="edge22" class="edge"><title>Node111&#45;&gt;Node112</title>
<path fill="none" stroke="midnightblue" d="M913.284,-210.894C898.105,-197.932 879.07,-181.678 865.665,-170.231"/>
<polygon fill="midnightblue" stroke="midnightblue" points="911.382,-213.873 921.26,-217.705 915.928,-208.549 911.382,-213.873"/>
</g>
<!-- Node114 -->
<g id="node23" class="node"><title>Node114</title>
<g id="a_node23"><a xlink:href="SfMPipeline_8h.html" target="_top" xlink:title="src/GeometryEstimationPipeline\l/SfMPipeline.h">
<polygon fill="white" stroke="black" points="1373.5,-218 1373.5,-248 1528.5,-248 1528.5,-218 1373.5,-218"/>
<text text-anchor="start" x="1381.5" y="-236" font-family="FreeSans" font-size="10.00">src/GeometryEstimationPipeline</text>
<text text-anchor="middle" x="1451" y="-225" font-family="FreeSans" font-size="10.00">/SfMPipeline.h</text>
</a>
</g>
</g>
<!-- Node113&#45;&gt;Node114 -->
<g id="edge24" class="edge"><title>Node113&#45;&gt;Node114</title>
<path fill="none" stroke="midnightblue" d="M1451,-285.59C1451,-273.257 1451,-258.724 1451,-248.231"/>
<polygon fill="midnightblue" stroke="midnightblue" points="1447.5,-285.705 1451,-295.705 1454.5,-285.705 1447.5,-285.705"/>
</g>
<!-- Node114&#45;&gt;Node106 -->
<g id="edge25" class="edge"><title>Node114&#45;&gt;Node106</title>
<path fill="none" stroke="midnightblue" d="M1448.11,-207.59C1446.65,-195.257 1444.93,-180.724 1443.69,-170.231"/>
<polygon fill="midnightblue" stroke="midnightblue" points="1444.66,-208.186 1449.31,-217.705 1451.61,-207.363 1444.66,-208.186"/>
</g>
<!-- Node115 -->
<g id="node24" class="node"><title>Node115</title>
<g id="a_node24"><a xlink:href="SfMPipeline_8cpp.html" target="_top" xlink:title="src/GeometryEstimationPipeline\l/SfMPipeline.cpp">
<polygon fill="white" stroke="black" points="1522.5,-140 1522.5,-170 1677.5,-170 1677.5,-140 1522.5,-140"/>
<text text-anchor="start" x="1530.5" y="-158" font-family="FreeSans" font-size="10.00">src/GeometryEstimationPipeline</text>
<text text-anchor="middle" x="1600" y="-147" font-family="FreeSans" font-size="10.00">/SfMPipeline.cpp</text>
</a>
</g>
</g>
<!-- Node114&#45;&gt;Node115 -->
<g id="edge26" class="edge"><title>Node114&#45;&gt;Node115</title>
<path fill="none" stroke="midnightblue" d="M1487.91,-213.174C1514.1,-199.817 1548.68,-182.176 1572.47,-170.041"/>
<polygon fill="midnightblue" stroke="midnightblue" points="1485.99,-210.221 1478.68,-217.883 1489.18,-216.457 1485.99,-210.221"/>
</g>
<!-- Node119 -->
<g id="node28" class="node"><title>Node119</title>
<g id="a_node28"><a xlink:href="ImageFeatureTrackingPipeline_8h.html" target="_top" xlink:title="src/Tracker/ImageFeature\lTrackingPipeline.h">
<polygon fill="white" stroke="black" points="341.5,-368.5 341.5,-398.5 470.5,-398.5 470.5,-368.5 341.5,-368.5"/>
<text text-anchor="start" x="349.5" y="-386.5" font-family="FreeSans" font-size="10.00">src/Tracker/ImageFeature</text>
<text text-anchor="middle" x="406" y="-375.5" font-family="FreeSans" font-size="10.00">TrackingPipeline.h</text>
</a>
</g>
</g>
<!-- Node118&#45;&gt;Node119 -->
<g id="edge31" class="edge"><title>Node118&#45;&gt;Node119</title>
<path fill="none" stroke="midnightblue" d="M470.315,-429.451C456.008,-419.452 439.05,-407.6 426.14,-398.577"/>
<polygon fill="midnightblue" stroke="midnightblue" points="468.619,-432.536 478.82,-435.396 472.629,-426.798 468.619,-432.536"/>
</g>
<!-- Node120 -->
<g id="node29" class="node"><title>Node120</title>
<g id="a_node29"><a xlink:href="AppStalker_8cpp.html" target="_top" xlink:title="src/Application/AppStalker.cpp">
<polygon fill="white" stroke="black" points="0,-301.5 0,-320.5 150,-320.5 150,-301.5 0,-301.5"/>
<text text-anchor="middle" x="75" y="-308.5" font-family="FreeSans" font-size="10.00">src/Application/AppStalker.cpp</text>
</a>
</g>
</g>
<!-- Node119&#45;&gt;Node120 -->
<g id="edge32" class="edge"><title>Node119&#45;&gt;Node120</title>
<path fill="none" stroke="midnightblue" d="M331.491,-367.913C282.408,-358.145 216.773,-344.78 159,-332 142.753,-328.406 124.803,-324.168 109.681,-320.521"/>
<polygon fill="midnightblue" stroke="midnightblue" points="330.901,-371.365 341.392,-369.88 332.265,-364.499 330.901,-371.365"/>
</g>
<!-- Node121 -->
<g id="node30" class="node"><title>Node121</title>
<g id="a_node30"><a xlink:href="InterfaceImageFeatureTrackingPipeline_8ipp.html" target="_top" xlink:title="src/ApplicationInterface\l/InterfaceImageFeatureTracking\lPipeline.ipp">
<polygon fill="white" stroke="black" points="168.5,-290.5 168.5,-331.5 323.5,-331.5 323.5,-290.5 168.5,-290.5"/>
<text text-anchor="start" x="176.5" y="-319.5" font-family="FreeSans" font-size="10.00">src/ApplicationInterface</text>
<text text-anchor="start" x="176.5" y="-308.5" font-family="FreeSans" font-size="10.00">/InterfaceImageFeatureTracking</text>
<text text-anchor="middle" x="246" y="-297.5" font-family="FreeSans" font-size="10.00">Pipeline.ipp</text>
</a>
</g>
</g>
<!-- Node119&#45;&gt;Node121 -->
<g id="edge33" class="edge"><title>Node119&#45;&gt;Node121</title>
<path fill="none" stroke="midnightblue" d="M364.614,-364.265C341.845,-354.232 313.584,-341.779 290.361,-331.546"/>
<polygon fill="midnightblue" stroke="midnightblue" points="363.444,-367.573 374.006,-368.403 366.266,-361.168 363.444,-367.573"/>
</g>
<!-- Node124 -->
<g id="node33" class="node"><title>Node124</title>
<g id="a_node33"><a xlink:href="ImageFeatureTrackingPipeline_8cpp.html" target="_top" xlink:title="src/Tracker/ImageFeature\lTrackingPipeline.cpp">
<polygon fill="white" stroke="black" points="341.5,-296 341.5,-326 470.5,-326 470.5,-296 341.5,-296"/>
<text text-anchor="start" x="349.5" y="-314" font-family="FreeSans" font-size="10.00">src/Tracker/ImageFeature</text>
<text text-anchor="middle" x="406" y="-303" font-family="FreeSans" font-size="10.00">TrackingPipeline.cpp</text>
</a>
</g>
</g>
<!-- Node119&#45;&gt;Node124 -->
<g id="edge36" class="edge"><title>Node119&#45;&gt;Node124</title>
<path fill="none" stroke="midnightblue" d="M406,-358.232C406,-347.568 406,-335.414 406,-326.246"/>
<polygon fill="midnightblue" stroke="midnightblue" points="402.5,-358.233 406,-368.233 409.5,-358.233 402.5,-358.233"/>
</g>
<!-- Node125 -->
<g id="node34" class="node"><title>Node125</title>
<g id="a_node34"><a xlink:href="TestTracker_8cpp.html" target="_top" xlink:title="src/Tracker/TestTracker.cpp">
<polygon fill="white" stroke="black" points="489,-301.5 489,-320.5 629,-320.5 629,-301.5 489,-301.5"/>
<text text-anchor="middle" x="559" y="-308.5" font-family="FreeSans" font-size="10.00">src/Tracker/TestTracker.cpp</text>
</a>
</g>
</g>
<!-- Node119&#45;&gt;Node125 -->
<g id="edge37" class="edge"><title>Node119&#45;&gt;Node125</title>
<path fill="none" stroke="midnightblue" d="M445.717,-364.199C476.275,-350.119 517.108,-331.303 540.48,-320.534"/>
<polygon fill="midnightblue" stroke="midnightblue" points="444.212,-361.039 436.594,-368.403 447.141,-367.396 444.212,-361.039"/>
</g>
<!-- Node122 -->
<g id="node31" class="node"><title>Node122</title>
<g id="a_node31"><a xlink:href="InterfaceImageFeatureTrackingPipeline_8h.html" target="_top" xlink:title="src/ApplicationInterface\l/InterfaceImageFeatureTracking\lPipeline.h">
<polygon fill="white" stroke="black" points="168.5,-212.5 168.5,-253.5 323.5,-253.5 323.5,-212.5 168.5,-212.5"/>
<text text-anchor="start" x="176.5" y="-241.5" font-family="FreeSans" font-size="10.00">src/ApplicationInterface</text>
<text text-anchor="start" x="176.5" y="-230.5" font-family="FreeSans" font-size="10.00">/InterfaceImageFeatureTracking</text>
<text text-anchor="middle" x="246" y="-219.5" font-family="FreeSans" font-size="10.00">Pipeline.h</text>
</a>
</g>
</g>
<!-- Node121&#45;&gt;Node122 -->
<g id="edge34" class="edge"><title>Node121&#45;&gt;Node122</title>
<path fill="none" stroke="midnightblue" d="M246,-280.297C246,-271.301 246,-261.653 246,-253.506"/>
<polygon fill="midnightblue" stroke="midnightblue" points="242.5,-280.428 246,-290.428 249.5,-280.428 242.5,-280.428"/>
</g>
<!-- Node123 -->
<g id="node32" class="node"><title>Node123</title>
<g id="a_node32"><a xlink:href="InterfaceImageFeatureTrackingPipeline_8cpp.html" target="_top" xlink:title="src/ApplicationInterface\l/InterfaceImageFeatureTracking\lPipeline.cpp">
<polygon fill="white" stroke="black" points="168.5,-134.5 168.5,-175.5 323.5,-175.5 323.5,-134.5 168.5,-134.5"/>
<text text-anchor="start" x="176.5" y="-163.5" font-family="FreeSans" font-size="10.00">src/ApplicationInterface</text>
<text text-anchor="start" x="176.5" y="-152.5" font-family="FreeSans" font-size="10.00">/InterfaceImageFeatureTracking</text>
<text text-anchor="middle" x="246" y="-141.5" font-family="FreeSans" font-size="10.00">Pipeline.cpp</text>
</a>
</g>
</g>
<!-- Node122&#45;&gt;Node123 -->
<g id="edge35" class="edge"><title>Node122&#45;&gt;Node123</title>
<path fill="none" stroke="midnightblue" d="M246,-202.297C246,-193.301 246,-183.653 246,-175.506"/>
<polygon fill="midnightblue" stroke="midnightblue" points="242.5,-202.428 246,-212.428 249.5,-202.428 242.5,-202.428"/>
</g>
<!-- Node128 -->
<g id="node37" class="node"><title>Node128</title>
<g id="a_node37"><a xlink:href="P6PComponents_8h.html" target="_top" xlink:title="src/GeometryEstimationComponents\l/P6PComponents.h">
<polygon fill="white" stroke="black" points="2016,-502.5 2016,-532.5 2192,-532.5 2192,-502.5 2016,-502.5"/>
<text text-anchor="start" x="2024" y="-520.5" font-family="FreeSans" font-size="10.00">src/GeometryEstimationComponents</text>
<text text-anchor="middle" x="2104" y="-509.5" font-family="FreeSans" font-size="10.00">/P6PComponents.h</text>
</a>
</g>
</g>
<!-- Node127&#45;&gt;Node128 -->
<g id="edge41" class="edge"><title>Node127&#45;&gt;Node128</title>
<path fill="none" stroke="midnightblue" d="M1907.55,-567.052C1950.55,-556.425 2005.92,-542.741 2046.91,-532.611"/>
<polygon fill="midnightblue" stroke="midnightblue" points="1906.61,-563.679 1897.74,-569.476 1908.29,-570.474 1906.61,-563.679"/>
</g>
<!-- Node129 -->
<g id="node38" class="node"><title>Node129</title>
<g id="a_node38"><a xlink:href="AppGeometryEstimator32_8cpp.html" target="_top" xlink:title="src/Application/AppGeometry\lEstimator32.cpp">
<polygon fill="white" stroke="black" points="2210.5,-435.5 2210.5,-465.5 2353.5,-465.5 2353.5,-435.5 2210.5,-435.5"/>
<text text-anchor="start" x="2218.5" y="-453.5" font-family="FreeSans" font-size="10.00">src/Application/AppGeometry</text>
<text text-anchor="middle" x="2282" y="-442.5" font-family="FreeSans" font-size="10.00">Estimator32.cpp</text>
</a>
</g>
</g>
<!-- Node128&#45;&gt;Node129 -->
<g id="edge42" class="edge"><title>Node128&#45;&gt;Node129</title>
<path fill="none" stroke="midnightblue" d="M2152.05,-498.955C2180.72,-488.485 2216.64,-475.366 2243.45,-465.577"/>
<polygon fill="midnightblue" stroke="midnightblue" points="2150.82,-495.678 2142.62,-502.396 2153.22,-502.253 2150.82,-495.678"/>
</g>
<!-- Node130 -->
<g id="node39" class="node"><title>Node130</title>
<g id="a_node39"><a xlink:href="P6PComponents_8cpp.html" target="_top" xlink:title="src/GeometryEstimationComponents\l/P6PComponents.cpp">
<polygon fill="white" stroke="black" points="2016,-435.5 2016,-465.5 2192,-465.5 2192,-435.5 2016,-435.5"/>
<text text-anchor="start" x="2024" y="-453.5" font-family="FreeSans" font-size="10.00">src/GeometryEstimationComponents</text>
<text text-anchor="middle" x="2104" y="-442.5" font-family="FreeSans" font-size="10.00">/P6PComponents.cpp</text>
</a>
</g>
</g>
<!-- Node128&#45;&gt;Node130 -->
<g id="edge43" class="edge"><title>Node128&#45;&gt;Node130</title>
<path fill="none" stroke="midnightblue" d="M2104,-492.108C2104,-483.154 2104,-473.323 2104,-465.577"/>
<polygon fill="midnightblue" stroke="midnightblue" points="2100.5,-492.396 2104,-502.396 2107.5,-492.396 2100.5,-492.396"/>
</g>
<!-- Node132 -->
<g id="node41" class="node"><title>Node132</title>
<g id="a_node41"><a xlink:href="Homography3DComponents_8h.html" target="_top" xlink:title="src/GeometryEstimationComponents\l/Homography3DComponents.h">
<polygon fill="white" stroke="black" points="1559,-502.5 1559,-532.5 1735,-532.5 1735,-502.5 1559,-502.5"/>
<text text-anchor="start" x="1567" y="-520.5" font-family="FreeSans" font-size="10.00">src/GeometryEstimationComponents</text>
<text text-anchor="middle" x="1647" y="-509.5" font-family="FreeSans" font-size="10.00">/Homography3DComponents.h</text>
</a>
</g>
</g>
<!-- Node131&#45;&gt;Node132 -->
<g id="edge45" class="edge"><title>Node131&#45;&gt;Node132</title>
<path fill="none" stroke="midnightblue" d="M1647,-559.108C1647,-550.154 1647,-540.323 1647,-532.577"/>
<polygon fill="midnightblue" stroke="midnightblue" points="1643.5,-559.396 1647,-569.396 1650.5,-559.396 1643.5,-559.396"/>
</g>
<!-- Node132&#45;&gt;Node113 -->
<g id="edge55" class="edge"><title>Node132&#45;&gt;Node113</title>
<path fill="none" stroke="midnightblue" d="M1548.78,-506.604C1522.07,-499.258 1495.45,-486.839 1477,-466 1441.59,-426.006 1445.28,-356.37 1448.86,-326.396"/>
<polygon fill="midnightblue" stroke="midnightblue" points="1548.06,-510.032 1558.62,-509.088 1549.78,-503.245 1548.06,-510.032"/>
</g>
<!-- Node133 -->
<g id="node42" class="node"><title>Node133</title>
<g id="a_node42"><a xlink:href="AppGeometryEstimator33_8cpp.html" target="_top" xlink:title="src/Application/AppGeometry\lEstimator33.cpp">
<polygon fill="white" stroke="black" points="1486.5,-435.5 1486.5,-465.5 1629.5,-465.5 1629.5,-435.5 1486.5,-435.5"/>
<text text-anchor="start" x="1494.5" y="-453.5" font-family="FreeSans" font-size="10.00">src/Application/AppGeometry</text>
<text text-anchor="middle" x="1558" y="-442.5" font-family="FreeSans" font-size="10.00">Estimator33.cpp</text>
</a>
</g>
</g>
<!-- Node132&#45;&gt;Node133 -->
<g id="edge46" class="edge"><title>Node132&#45;&gt;Node133</title>
<path fill="none" stroke="midnightblue" d="M1619.55,-496.451C1605.86,-486.452 1589.63,-474.6 1577.27,-465.577"/>
<polygon fill="midnightblue" stroke="midnightblue" points="1617.55,-499.324 1627.69,-502.396 1621.68,-493.672 1617.55,-499.324"/>
</g>
<!-- Node134 -->
<g id="node43" class="node"><title>Node134</title>
<g id="a_node43"><a xlink:href="PoseGraphPipeline_8ipp.html" target="_top" xlink:title="src/GeometryEstimationPipeline\l/PoseGraphPipeline.ipp">
<polygon fill="white" stroke="black" points="1842.5,-435.5 1842.5,-465.5 1997.5,-465.5 1997.5,-435.5 1842.5,-435.5"/>
<text text-anchor="start" x="1850.5" y="-453.5" font-family="FreeSans" font-size="10.00">src/GeometryEstimationPipeline</text>
<text text-anchor="middle" x="1920" y="-442.5" font-family="FreeSans" font-size="10.00">/PoseGraphPipeline.ipp</text>
</a>
</g>
</g>
<!-- Node132&#45;&gt;Node134 -->
<g id="edge47" class="edge"><title>Node132&#45;&gt;Node134</title>
<path fill="none" stroke="midnightblue" d="M1715.8,-500.119C1760.47,-489.483 1818.1,-475.763 1860.73,-465.611"/>
<polygon fill="midnightblue" stroke="midnightblue" points="1714.82,-496.755 1705.9,-502.476 1716.44,-503.565 1714.82,-496.755"/>
</g>
<!-- Node140 -->
<g id="node49" class="node"><title>Node140</title>
<g id="a_node49"><a xlink:href="Homography3DComponents_8cpp.html" target="_top" xlink:title="src/GeometryEstimationComponents\l/Homography3DComponents.cpp">
<polygon fill="white" stroke="black" points="1648,-435.5 1648,-465.5 1824,-465.5 1824,-435.5 1648,-435.5"/>
<text text-anchor="start" x="1656" y="-453.5" font-family="FreeSans" font-size="10.00">src/GeometryEstimationComponents</text>
<text text-anchor="middle" x="1736" y="-442.5" font-family="FreeSans" font-size="10.00">/Homography3DComponents.cpp</text>
</a>
</g>
</g>
<!-- Node132&#45;&gt;Node140 -->
<g id="edge56" class="edge"><title>Node132&#45;&gt;Node140</title>
<path fill="none" stroke="midnightblue" d="M1674.45,-496.451C1688.14,-486.452 1704.37,-474.6 1716.73,-465.577"/>
<polygon fill="midnightblue" stroke="midnightblue" points="1672.32,-493.672 1666.31,-502.396 1676.45,-499.324 1672.32,-493.672"/>
</g>
<!-- Node135 -->
<g id="node44" class="node"><title>Node135</title>
<g id="a_node44"><a xlink:href="PoseGraphPipeline_8h.html" target="_top" xlink:title="src/GeometryEstimationPipeline\l/PoseGraphPipeline.h">
<polygon fill="white" stroke="black" points="1633.5,-368.5 1633.5,-398.5 1788.5,-398.5 1788.5,-368.5 1633.5,-368.5"/>
<text text-anchor="start" x="1641.5" y="-386.5" font-family="FreeSans" font-size="10.00">src/GeometryEstimationPipeline</text>
<text text-anchor="middle" x="1711" y="-375.5" font-family="FreeSans" font-size="10.00">/PoseGraphPipeline.h</text>
</a>
</g>
</g>
<!-- Node134&#45;&gt;Node135 -->
<g id="edge48" class="edge"><title>Node134&#45;&gt;Node135</title>
<path fill="none" stroke="midnightblue" d="M1865.16,-432.444C1831.28,-421.908 1788.33,-408.549 1756.37,-398.611"/>
<polygon fill="midnightblue" stroke="midnightblue" points="1864.32,-435.848 1874.91,-435.476 1866.4,-429.164 1864.32,-435.848"/>
</g>
<!-- Node135&#45;&gt;Node113 -->
<g id="edge53" class="edge"><title>Node135&#45;&gt;Node113</title>
<path fill="none" stroke="midnightblue" d="M1649.48,-365.818C1604.89,-353.727 1545.25,-337.557 1503.03,-326.107"/>
<polygon fill="midnightblue" stroke="midnightblue" points="1648.75,-369.248 1659.32,-368.487 1650.59,-362.492 1648.75,-369.248"/>
</g>
<!-- Node136 -->
<g id="node45" class="node"><title>Node136</title>
<g id="a_node45"><a xlink:href="InterfacePoseGraphPipeline_8ipp.html" target="_top" xlink:title="src/ApplicationInterface\l/InterfacePoseGraphPipeline.ipp">
<polygon fill="white" stroke="black" points="1720,-296 1720,-326 1876,-326 1876,-296 1720,-296"/>
<text text-anchor="start" x="1728" y="-314" font-family="FreeSans" font-size="10.00">src/ApplicationInterface</text>
<text text-anchor="middle" x="1798" y="-303" font-family="FreeSans" font-size="10.00">/InterfacePoseGraphPipeline.ipp</text>
</a>
</g>
</g>
<!-- Node135&#45;&gt;Node136 -->
<g id="edge49" class="edge"><title>Node135&#45;&gt;Node136</title>
<path fill="none" stroke="midnightblue" d="M1736.56,-361.788C1750.78,-350.266 1768.1,-336.233 1780.72,-326.005"/>
<polygon fill="midnightblue" stroke="midnightblue" points="1734.17,-359.218 1728.61,-368.233 1738.58,-364.657 1734.17,-359.218"/>
</g>
<!-- Node139 -->
<g id="node48" class="node"><title>Node139</title>
<g id="a_node48"><a xlink:href="PoseGraphPipeline_8cpp.html" target="_top" xlink:title="src/GeometryEstimationPipeline\l/PoseGraphPipeline.cpp">
<polygon fill="white" stroke="black" points="1546.5,-296 1546.5,-326 1701.5,-326 1701.5,-296 1546.5,-296"/>
<text text-anchor="start" x="1554.5" y="-314" font-family="FreeSans" font-size="10.00">src/GeometryEstimationPipeline</text>
<text text-anchor="middle" x="1624" y="-303" font-family="FreeSans" font-size="10.00">/PoseGraphPipeline.cpp</text>
</a>
</g>
</g>
<!-- Node135&#45;&gt;Node139 -->
<g id="edge54" class="edge"><title>Node135&#45;&gt;Node139</title>
<path fill="none" stroke="midnightblue" d="M1685.44,-361.788C1671.22,-350.266 1653.9,-336.233 1641.28,-326.005"/>
<polygon fill="midnightblue" stroke="midnightblue" points="1683.42,-364.657 1693.39,-368.233 1687.83,-359.218 1683.42,-364.657"/>
</g>
<!-- Node137 -->
<g id="node46" class="node"><title>Node137</title>
<g id="a_node46"><a xlink:href="InterfacePoseGraphPipeline_8h.html" target="_top" xlink:title="src/ApplicationInterface\l/InterfacePoseGraphPipeline.h">
<polygon fill="white" stroke="black" points="1711.5,-218 1711.5,-248 1860.5,-248 1860.5,-218 1711.5,-218"/>
<text text-anchor="start" x="1719.5" y="-236" font-family="FreeSans" font-size="10.00">src/ApplicationInterface</text>
<text text-anchor="middle" x="1786" y="-225" font-family="FreeSans" font-size="10.00">/InterfacePoseGraphPipeline.h</text>
</a>
</g>
</g>
<!-- Node136&#45;&gt;Node137 -->
<g id="edge50" class="edge"><title>Node136&#45;&gt;Node137</title>
<path fill="none" stroke="midnightblue" d="M1794.15,-285.59C1792.2,-273.257 1789.9,-258.724 1788.25,-248.231"/>
<polygon fill="midnightblue" stroke="midnightblue" points="1790.73,-286.373 1795.74,-295.705 1797.64,-285.281 1790.73,-286.373"/>
</g>
<!-- Node137&#45;&gt;Node106 -->
<g id="edge52" class="edge"><title>Node137&#45;&gt;Node106</title>
<path fill="none" stroke="midnightblue" d="M1701.34,-216.27C1647.25,-205.817 1575.74,-191.25 1513,-176 1505.53,-174.185 1497.67,-172.122 1490,-170.028"/>
<polygon fill="midnightblue" stroke="midnightblue" points="1700.75,-219.721 1711.23,-218.174 1702.07,-212.847 1700.75,-219.721"/>
</g>
<!-- Node138 -->
<g id="node47" class="node"><title>Node138</title>
<g id="a_node47"><a xlink:href="InterfacePoseGraphPipeline_8cpp.html" target="_top" xlink:title="src/ApplicationInterface\l/InterfacePoseGraphPipeline.cpp">
<polygon fill="white" stroke="black" points="1706.5,-140 1706.5,-170 1865.5,-170 1865.5,-140 1706.5,-140"/>
<text text-anchor="start" x="1714.5" y="-158" font-family="FreeSans" font-size="10.00">src/ApplicationInterface</text>
<text text-anchor="middle" x="1786" y="-147" font-family="FreeSans" font-size="10.00">/InterfacePoseGraphPipeline.cpp</text>
</a>
</g>
</g>
<!-- Node137&#45;&gt;Node138 -->
<g id="edge51" class="edge"><title>Node137&#45;&gt;Node138</title>
<path fill="none" stroke="midnightblue" d="M1786,-207.59C1786,-195.257 1786,-180.724 1786,-170.231"/>
<polygon fill="midnightblue" stroke="midnightblue" points="1782.5,-207.705 1786,-217.705 1789.5,-207.705 1782.5,-207.705"/>
</g>
</g>
</svg>
