<?xml version="1.0" encoding="UTF-8" standalone="no"?>
<!DOCTYPE svg PUBLIC "-//W3C//DTD SVG 1.1//EN"
 "http://www.w3.org/Graphics/SVG/1.1/DTD/svg11.dtd">
<!-- Generated by graphviz version 2.38.0 (20140413.2041)
 -->
<!-- Title: src/Optimisation/PDLHomographyKRKDecompositionProblem.ipp Pages: 1 -->
<svg width="374pt" height="173pt"
 viewBox="0.00 0.00 374.00 173.00" xmlns="http://www.w3.org/2000/svg" xmlns:xlink="http://www.w3.org/1999/xlink">
<g id="graph0" class="graph" transform="scale(1 1) rotate(0) translate(4 169)">
<title>src/Optimisation/PDLHomographyKRKDecompositionProblem.ipp</title>
<polygon fill="white" stroke="none" points="-4,4 -4,-169 370,-169 370,4 -4,4"/>
<!-- Node89 -->
<g id="node1" class="node"><title>Node89</title>
<polygon fill="#bfbfbf" stroke="black" points="96,-134.5 96,-164.5 261,-164.5 261,-134.5 96,-134.5"/>
<text text-anchor="start" x="104" y="-152.5" font-family="FreeSans" font-size="10.00">src/Optimisation/PDLHomography</text>
<text text-anchor="middle" x="178.5" y="-141.5" font-family="FreeSans" font-size="10.00">KRKDecompositionProblem.ipp</text>
</g>
<!-- Node90 -->
<g id="node2" class="node"><title>Node90</title>
<g id="a_node2"><a xlink:href="PDLHomographyKRKDecompositionProblem_8h.html" target="_top" xlink:title="src/Optimisation/PDLHomography\lKRKDecompositionProblem.h">
<polygon fill="white" stroke="black" points="96,-67.5 96,-97.5 261,-97.5 261,-67.5 96,-67.5"/>
<text text-anchor="start" x="104" y="-85.5" font-family="FreeSans" font-size="10.00">src/Optimisation/PDLHomography</text>
<text text-anchor="middle" x="178.5" y="-74.5" font-family="FreeSans" font-size="10.00">KRKDecompositionProblem.h</text>
</a>
</g>
</g>
<!-- Node89&#45;&gt;Node90 -->
<g id="edge1" class="edge"><title>Node89&#45;&gt;Node90</title>
<path fill="none" stroke="midnightblue" d="M178.5,-124.108C178.5,-115.154 178.5,-105.323 178.5,-97.5765"/>
<polygon fill="midnightblue" stroke="midnightblue" points="175,-124.396 178.5,-134.396 182,-124.396 175,-124.396"/>
</g>
<!-- Node91 -->
<g id="node3" class="node"><title>Node91</title>
<g id="a_node3"><a xlink:href="PDLHomographyKRKDecompositionProblem_8cpp.html" target="_top" xlink:title="src/Optimisation/PDLHomography\lKRKDecompositionProblem.cpp">
<polygon fill="white" stroke="black" points="0,-0.5 0,-30.5 165,-30.5 165,-0.5 0,-0.5"/>
<text text-anchor="start" x="8" y="-18.5" font-family="FreeSans" font-size="10.00">src/Optimisation/PDLHomography</text>
<text text-anchor="middle" x="82.5" y="-7.5" font-family="FreeSans" font-size="10.00">KRKDecompositionProblem.cpp</text>
</a>
</g>
</g>
<!-- Node90&#45;&gt;Node91 -->
<g id="edge2" class="edge"><title>Node90&#45;&gt;Node91</title>
<path fill="none" stroke="midnightblue" d="M149.307,-61.7337C134.452,-51.6755 116.742,-39.6847 103.29,-30.5765"/>
<polygon fill="midnightblue" stroke="midnightblue" points="147.427,-64.6875 157.669,-67.396 151.351,-58.8912 147.427,-64.6875"/>
</g>
<!-- Node92 -->
<g id="node4" class="node"><title>Node92</title>
<g id="a_node4"><a xlink:href="TestOptimisation_8cpp.html" target="_top" xlink:title="src/Optimisation/TestOptimisation.cpp">
<polygon fill="white" stroke="black" points="183,-6 183,-25 366,-25 366,-6 183,-6"/>
<text text-anchor="middle" x="274.5" y="-13" font-family="FreeSans" font-size="10.00">src/Optimisation/TestOptimisation.cpp</text>
</a>
</g>
</g>
<!-- Node90&#45;&gt;Node92 -->
<g id="edge3" class="edge"><title>Node90&#45;&gt;Node92</title>
<path fill="none" stroke="midnightblue" d="M207.83,-61.6409C225.947,-49.3742 248.268,-34.2613 261.936,-25.007"/>
<polygon fill="midnightblue" stroke="midnightblue" points="205.649,-58.8912 199.331,-67.396 209.573,-64.6875 205.649,-58.8912"/>
</g>
</g>
</svg>
