<?xml version="1.0" encoding="UTF-8" standalone="no"?>
<!DOCTYPE svg PUBLIC "-//W3C//DTD SVG 1.1//EN"
 "http://www.w3.org/Graphics/SVG/1.1/DTD/svg11.dtd">
<!-- Generated by graphviz version 2.38.0 (20140413.2041)
 -->
<!-- Title: src/Optimisation/PDLRotation3DEstimationProblem.ipp Pages: 1 -->
<svg width="628pt" height="307pt"
 viewBox="0.00 0.00 628.00 307.00" xmlns="http://www.w3.org/2000/svg" xmlns:xlink="http://www.w3.org/1999/xlink">
<g id="graph0" class="graph" transform="scale(1 1) rotate(0) translate(4 303)">
<title>src/Optimisation/PDLRotation3DEstimationProblem.ipp</title>
<polygon fill="white" stroke="none" points="-4,4 -4,-303 624,-303 624,4 -4,4"/>
<!-- Node116 -->
<g id="node1" class="node"><title>Node116</title>
<polygon fill="#bfbfbf" stroke="black" points="266.5,-268.5 266.5,-298.5 418.5,-298.5 418.5,-268.5 266.5,-268.5"/>
<text text-anchor="start" x="274.5" y="-286.5" font-family="FreeSans" font-size="10.00">src/Optimisation/PDLRotation3</text>
<text text-anchor="middle" x="342.5" y="-275.5" font-family="FreeSans" font-size="10.00">DEstimationProblem.ipp</text>
</g>
<!-- Node117 -->
<g id="node2" class="node"><title>Node117</title>
<g id="a_node2"><a xlink:href="PDLRotation3DEstimationProblem_8h.html" target="_top" xlink:title="src/Optimisation/PDLRotation3\lDEstimationProblem.h">
<polygon fill="white" stroke="black" points="266.5,-201.5 266.5,-231.5 418.5,-231.5 418.5,-201.5 266.5,-201.5"/>
<text text-anchor="start" x="274.5" y="-219.5" font-family="FreeSans" font-size="10.00">src/Optimisation/PDLRotation3</text>
<text text-anchor="middle" x="342.5" y="-208.5" font-family="FreeSans" font-size="10.00">DEstimationProblem.h</text>
</a>
</g>
</g>
<!-- Node116&#45;&gt;Node117 -->
<g id="edge1" class="edge"><title>Node116&#45;&gt;Node117</title>
<path fill="none" stroke="midnightblue" d="M342.5,-258.108C342.5,-249.154 342.5,-239.323 342.5,-231.577"/>
<polygon fill="midnightblue" stroke="midnightblue" points="339,-258.396 342.5,-268.396 346,-258.396 339,-258.396"/>
</g>
<!-- Node118 -->
<g id="node3" class="node"><title>Node118</title>
<g id="a_node3"><a xlink:href="Rotation3DComponents_8ipp.html" target="_top" xlink:title="src/GeometryEstimationComponents\l/Rotation3DComponents.ipp">
<polygon fill="white" stroke="black" points="72.5,-134.5 72.5,-164.5 248.5,-164.5 248.5,-134.5 72.5,-134.5"/>
<text text-anchor="start" x="80.5" y="-152.5" font-family="FreeSans" font-size="10.00">src/GeometryEstimationComponents</text>
<text text-anchor="middle" x="160.5" y="-141.5" font-family="FreeSans" font-size="10.00">/Rotation3DComponents.ipp</text>
</a>
</g>
</g>
<!-- Node117&#45;&gt;Node118 -->
<g id="edge2" class="edge"><title>Node117&#45;&gt;Node118</title>
<path fill="none" stroke="midnightblue" d="M293.375,-197.955C264.057,-187.485 227.324,-174.366 199.914,-164.577"/>
<polygon fill="midnightblue" stroke="midnightblue" points="292.414,-201.329 303.009,-201.396 294.768,-194.736 292.414,-201.329"/>
</g>
<!-- Node122 -->
<g id="node7" class="node"><title>Node122</title>
<g id="a_node7"><a xlink:href="PDLRotation3DEstimationProblem_8cpp.html" target="_top" xlink:title="src/Optimisation/PDLRotation3\lDEstimationProblem.cpp">
<polygon fill="white" stroke="black" points="266.5,-134.5 266.5,-164.5 418.5,-164.5 418.5,-134.5 266.5,-134.5"/>
<text text-anchor="start" x="274.5" y="-152.5" font-family="FreeSans" font-size="10.00">src/Optimisation/PDLRotation3</text>
<text text-anchor="middle" x="342.5" y="-141.5" font-family="FreeSans" font-size="10.00">DEstimationProblem.cpp</text>
</a>
</g>
</g>
<!-- Node117&#45;&gt;Node122 -->
<g id="edge6" class="edge"><title>Node117&#45;&gt;Node122</title>
<path fill="none" stroke="midnightblue" d="M342.5,-191.108C342.5,-182.154 342.5,-172.323 342.5,-164.577"/>
<polygon fill="midnightblue" stroke="midnightblue" points="339,-191.396 342.5,-201.396 346,-191.396 339,-191.396"/>
</g>
<!-- Node123 -->
<g id="node8" class="node"><title>Node123</title>
<g id="a_node8"><a xlink:href="TestOptimisation_8cpp.html" target="_top" xlink:title="src/Optimisation/TestOptimisation.cpp">
<polygon fill="white" stroke="black" points="437,-140 437,-159 620,-159 620,-140 437,-140"/>
<text text-anchor="middle" x="528.5" y="-147" font-family="FreeSans" font-size="10.00">src/Optimisation/TestOptimisation.cpp</text>
</a>
</g>
</g>
<!-- Node117&#45;&gt;Node123 -->
<g id="edge7" class="edge"><title>Node117&#45;&gt;Node123</title>
<path fill="none" stroke="midnightblue" d="M392.732,-197.946C428.857,-185.321 475.99,-168.85 504.157,-159.007"/>
<polygon fill="midnightblue" stroke="midnightblue" points="391.145,-194.793 382.859,-201.396 393.454,-201.401 391.145,-194.793"/>
</g>
<!-- Node119 -->
<g id="node4" class="node"><title>Node119</title>
<g id="a_node4"><a xlink:href="Rotation3DComponents_8h.html" target="_top" xlink:title="src/GeometryEstimationComponents\l/Rotation3DComponents.h">
<polygon fill="white" stroke="black" points="72.5,-67.5 72.5,-97.5 248.5,-97.5 248.5,-67.5 72.5,-67.5"/>
<text text-anchor="start" x="80.5" y="-85.5" font-family="FreeSans" font-size="10.00">src/GeometryEstimationComponents</text>
<text text-anchor="middle" x="160.5" y="-74.5" font-family="FreeSans" font-size="10.00">/Rotation3DComponents.h</text>
</a>
</g>
</g>
<!-- Node118&#45;&gt;Node119 -->
<g id="edge3" class="edge"><title>Node118&#45;&gt;Node119</title>
<path fill="none" stroke="midnightblue" d="M160.5,-124.108C160.5,-115.154 160.5,-105.323 160.5,-97.5765"/>
<polygon fill="midnightblue" stroke="midnightblue" points="157,-124.396 160.5,-134.396 164,-124.396 157,-124.396"/>
</g>
<!-- Node120 -->
<g id="node5" class="node"><title>Node120</title>
<g id="a_node5"><a xlink:href="AppGeometryEstimator33_8cpp.html" target="_top" xlink:title="src/Application/AppGeometry\lEstimator33.cpp">
<polygon fill="white" stroke="black" points="0,-0.5 0,-30.5 143,-30.5 143,-0.5 0,-0.5"/>
<text text-anchor="start" x="8" y="-18.5" font-family="FreeSans" font-size="10.00">src/Application/AppGeometry</text>
<text text-anchor="middle" x="71.5" y="-7.5" font-family="FreeSans" font-size="10.00">Estimator33.cpp</text>
</a>
</g>
</g>
<!-- Node119&#45;&gt;Node120 -->
<g id="edge4" class="edge"><title>Node119&#45;&gt;Node120</title>
<path fill="none" stroke="midnightblue" d="M133.048,-61.4511C119.357,-51.4517 103.129,-39.5995 90.774,-30.5765"/>
<polygon fill="midnightblue" stroke="midnightblue" points="131.048,-64.3245 141.188,-67.396 135.177,-58.6716 131.048,-64.3245"/>
</g>
<!-- Node121 -->
<g id="node6" class="node"><title>Node121</title>
<g id="a_node6"><a xlink:href="Rotation3DComponents_8cpp.html" target="_top" xlink:title="src/GeometryEstimationComponents\l/Rotation3DComponents.cpp">
<polygon fill="white" stroke="black" points="161.5,-0.5 161.5,-30.5 337.5,-30.5 337.5,-0.5 161.5,-0.5"/>
<text text-anchor="start" x="169.5" y="-18.5" font-family="FreeSans" font-size="10.00">src/GeometryEstimationComponents</text>
<text text-anchor="middle" x="249.5" y="-7.5" font-family="FreeSans" font-size="10.00">/Rotation3DComponents.cpp</text>
</a>
</g>
</g>
<!-- Node119&#45;&gt;Node121 -->
<g id="edge5" class="edge"><title>Node119&#45;&gt;Node121</title>
<path fill="none" stroke="midnightblue" d="M187.952,-61.4511C201.643,-51.4517 217.871,-39.5995 230.226,-30.5765"/>
<polygon fill="midnightblue" stroke="midnightblue" points="185.823,-58.6716 179.812,-67.396 189.952,-64.3245 185.823,-58.6716"/>
</g>
</g>
</svg>
