<?xml version="1.0" encoding="UTF-8" standalone="no"?>
<!DOCTYPE svg PUBLIC "-//W3C//DTD SVG 1.1//EN"
 "http://www.w3.org/Graphics/SVG/1.1/DTD/svg11.dtd">
<!-- Generated by graphviz version 2.38.0 (20140413.2041)
 -->
<!-- Title: src/Numeric/Polynomial.cpp Pages: 1 -->
<!--zoomable 207 -->
<svg id="main" version="1.1" xmlns="http://www.w3.org/2000/svg" xmlns:xlink="http://www.w3.org/1999/xlink" xml:space="preserve" onload="init(evt)">
<style type="text/css"><![CDATA[
.edge:hover path { stroke: red; }
.edge:hover polygon { stroke: red; fill: red; }
]]></style>
<script type="text/javascript"><![CDATA[
var edges = document.getElementsByTagName('g');
if (edges && edges.length) {
  for (var i=0;i<edges.length;i++) {
    if (edges[i].id.substr(0,4)=='edge') {
      edges[i].setAttribute('class','edge');
    }
  }
}
]]></script>
        <defs>
                <circle id="rim" cx="0" cy="0" r="7"/>
                <circle id="rim2" cx="0" cy="0" r="3.5"/>
                <g id="zoomPlus">
                        <use xlink:href="#rim" fill="#404040">
                                <set attributeName="fill" to="#808080" begin="zoomplus.mouseover" end="zoomplus.mouseout"/>
                        </use>
                        <path d="M-4,0h8M0,-4v8" fill="none" stroke="white" stroke-width="1.5" pointer-events="none"/>
                </g>
                <g id="zoomMin">
                        <use xlink:href="#rim" fill="#404040">
                                <set attributeName="fill" to="#808080" begin="zoomminus.mouseover" end="zoomminus.mouseout"/>
                        </use>
                        <path d="M-4,0h8" fill="none" stroke="white" stroke-width="1.5" pointer-events="none"/>
                </g>
                <g id="dirArrow">
                        <path fill="none" stroke="white" stroke-width="1.5" d="M0,-3.0v7 M-2.5,-0.5L0,-3.0L2.5,-0.5"/>
                </g>
               <g id="resetDef">
                       <use xlink:href="#rim2" fill="#404040">
                               <set attributeName="fill" to="#808080" begin="reset.mouseover" end="reset.mouseout"/>
                       </use>
               </g>
        </defs>

<script type="text/javascript">
var viewWidth = 814;
var viewHeight = 207;
var sectionId = 'dynsection-0';
</script>
<script xlink:href="svgpan.js"/>
<svg id="graph" class="graph">
<g id="viewport">
<title>src/Numeric/Polynomial.cpp</title>
<polygon fill="white" stroke="none" points="-4,4 -4,-203 809.5,-203 809.5,4 -4,4"/>
<!-- Node0 -->
<g id="node1" class="node"><title>Node0</title>
<polygon fill="#bfbfbf" stroke="black" points="437.5,-179.5 437.5,-198.5 575.5,-198.5 575.5,-179.5 437.5,-179.5"/>
<text text-anchor="middle" x="506.5" y="-186.5" font-family="FreeSans" font-size="10.00">src/Numeric/Polynomial.cpp</text>
</g>
<!-- Node1 -->
<g id="node2" class="node"><title>Node1</title>
<g id="a_node2"><a xlink:href="Polynomial_8h.html" target="_top" xlink:title="Polynomial.h">
<polygon fill="white" stroke="black" points="471,-123.5 471,-142.5 542,-142.5 542,-123.5 471,-123.5"/>
<text text-anchor="middle" x="506.5" y="-130.5" font-family="FreeSans" font-size="10.00">Polynomial.h</text>
</a>
</g>
</g>
<!-- Node0&#45;&gt;Node1 -->
<g id="edge1" class="edge"><title>Node0&#45;&gt;Node1</title>
<path fill="none" stroke="midnightblue" d="M506.5,-179.083C506.5,-172.006 506.5,-161.861 506.5,-152.986"/>
<polygon fill="midnightblue" stroke="midnightblue" points="510,-152.751 506.5,-142.751 503,-152.751 510,-152.751"/>
</g>
<!-- Node2 -->
<g id="node3" class="node"><title>Node2</title>
<g id="a_node3"><a xlink:href="Polynomial_8ipp.html" target="_top" xlink:title="Polynomial.ipp">
<polygon fill="white" stroke="black" points="467,-67.5 467,-86.5 546,-86.5 546,-67.5 467,-67.5"/>
<text text-anchor="middle" x="506.5" y="-74.5" font-family="FreeSans" font-size="10.00">Polynomial.ipp</text>
</a>
</g>
</g>
<!-- Node1&#45;&gt;Node2 -->
<g id="edge2" class="edge"><title>Node1&#45;&gt;Node2</title>
<path fill="none" stroke="midnightblue" d="M506.5,-123.083C506.5,-116.006 506.5,-105.861 506.5,-96.9865"/>
<polygon fill="midnightblue" stroke="midnightblue" points="510,-96.751 506.5,-86.7511 503,-96.7511 510,-96.751"/>
</g>
<!-- Node3 -->
<g id="node4" class="node"><title>Node3</title>
<polygon fill="white" stroke="#bfbfbf" points="0,-0.5 0,-30.5 101,-30.5 101,-0.5 0,-0.5"/>
<text text-anchor="start" x="8" y="-18.5" font-family="FreeSans" font-size="10.00">boost/math/special</text>
<text text-anchor="middle" x="50.5" y="-7.5" font-family="FreeSans" font-size="10.00">_functions/pow.hpp</text>
</g>
<!-- Node2&#45;&gt;Node3 -->
<g id="edge3" class="edge"><title>Node2&#45;&gt;Node3</title>
<path fill="none" stroke="midnightblue" d="M466.813,-73.1946C396.831,-67.8815 246.795,-54.8533 111.397,-31.208"/>
<polygon fill="midnightblue" stroke="midnightblue" points="111.718,-27.7105 101.261,-29.4128 110.497,-34.6032 111.718,-27.7105"/>
</g>
<!-- Node4 -->
<g id="node5" class="node"><title>Node4</title>
<polygon fill="white" stroke="#bfbfbf" points="119,-0.5 119,-30.5 220,-30.5 220,-0.5 119,-0.5"/>
<text text-anchor="start" x="127" y="-18.5" font-family="FreeSans" font-size="10.00">boost/math/special</text>
<text text-anchor="middle" x="169.5" y="-7.5" font-family="FreeSans" font-size="10.00">_functions/sign.hpp</text>
</g>
<!-- Node2&#45;&gt;Node4 -->
<g id="edge4" class="edge"><title>Node2&#45;&gt;Node4</title>
<path fill="none" stroke="midnightblue" d="M466.726,-70.5895C414.556,-63.2673 319.973,-49.2199 230.346,-31.2902"/>
<polygon fill="midnightblue" stroke="midnightblue" points="230.785,-27.8082 220.29,-29.2575 229.399,-34.6695 230.785,-27.8082"/>
</g>
<!-- Node5 -->
<g id="node6" class="node"><title>Node5</title>
<polygon fill="white" stroke="#bfbfbf" points="238,-0.5 238,-30.5 349,-30.5 349,-0.5 238,-0.5"/>
<text text-anchor="start" x="246" y="-18.5" font-family="FreeSans" font-size="10.00">boost/math/constants</text>
<text text-anchor="middle" x="293.5" y="-7.5" font-family="FreeSans" font-size="10.00">/constants.hpp</text>
</g>
<!-- Node2&#45;&gt;Node5 -->
<g id="edge5" class="edge"><title>Node2&#45;&gt;Node5</title>
<path fill="none" stroke="midnightblue" d="M475.982,-67.4751C444.101,-58.5694 393.266,-44.3688 353.337,-33.2151"/>
<polygon fill="midnightblue" stroke="midnightblue" points="354.273,-29.8425 343.7,-30.523 352.389,-36.5844 354.273,-29.8425"/>
</g>
<!-- Node6 -->
<g id="node7" class="node"><title>Node6</title>
<polygon fill="white" stroke="#bfbfbf" points="367,-6 367,-25 438,-25 438,-6 367,-6"/>
<text text-anchor="middle" x="402.5" y="-13" font-family="FreeSans" font-size="10.00">Eigen/Dense</text>
</g>
<!-- Node2&#45;&gt;Node6 -->
<g id="edge6" class="edge"><title>Node2&#45;&gt;Node6</title>
<path fill="none" stroke="midnightblue" d="M491.599,-67.4751C474.532,-57.7106 446.339,-41.5807 426.238,-30.0808"/>
<polygon fill="midnightblue" stroke="midnightblue" points="427.791,-26.9371 417.373,-25.0091 424.315,-33.013 427.791,-26.9371"/>
</g>
<!-- Node7 -->
<g id="node8" class="node"><title>Node7</title>
<polygon fill="white" stroke="#bfbfbf" points="456,-0.5 456,-30.5 557,-30.5 557,-0.5 456,-0.5"/>
<text text-anchor="start" x="464" y="-18.5" font-family="FreeSans" font-size="10.00">eigen3/unsupported</text>
<text text-anchor="middle" x="506.5" y="-7.5" font-family="FreeSans" font-size="10.00">/Eigen/Polynomials</text>
</g>
<!-- Node2&#45;&gt;Node7 -->
<g id="edge7" class="edge"><title>Node2&#45;&gt;Node7</title>
<path fill="none" stroke="midnightblue" d="M506.5,-67.4751C506.5,-60.471 506.5,-50.1919 506.5,-40.6956"/>
<polygon fill="midnightblue" stroke="midnightblue" points="510,-40.5229 506.5,-30.523 503,-40.523 510,-40.5229"/>
</g>
<!-- Node8 -->
<g id="node9" class="node"><title>Node8</title>
<polygon fill="white" stroke="#bfbfbf" points="575.5,-6 575.5,-25 613.5,-25 613.5,-6 575.5,-6"/>
<text text-anchor="middle" x="594.5" y="-13" font-family="FreeSans" font-size="10.00">array</text>
</g>
<!-- Node2&#45;&gt;Node8 -->
<g id="edge8" class="edge"><title>Node2&#45;&gt;Node8</title>
<path fill="none" stroke="midnightblue" d="M519.108,-67.4751C533.223,-57.9315 556.331,-42.3073 573.249,-30.8683"/>
<polygon fill="midnightblue" stroke="midnightblue" points="575.591,-33.5098 581.915,-25.0091 571.671,-27.7109 575.591,-33.5098"/>
</g>
<!-- Node9 -->
<g id="node10" class="node"><title>Node9</title>
<polygon fill="white" stroke="#bfbfbf" points="632,-6 632,-25 685,-25 685,-6 632,-6"/>
<text text-anchor="middle" x="658.5" y="-13" font-family="FreeSans" font-size="10.00">complex</text>
</g>
<!-- Node2&#45;&gt;Node9 -->
<g id="edge9" class="edge"><title>Node2&#45;&gt;Node9</title>
<path fill="none" stroke="midnightblue" d="M528.771,-67.4578C552.149,-58.4684 589.957,-43.8654 622.5,-31 624.137,-30.3528 625.815,-29.6867 627.508,-29.0123"/>
<polygon fill="midnightblue" stroke="midnightblue" points="629.215,-32.099 637.198,-25.1326 626.613,-25.6005 629.215,-32.099"/>
</g>
<!-- Node10 -->
<g id="node11" class="node"><title>Node10</title>
<polygon fill="white" stroke="#bfbfbf" points="703.5,-6 703.5,-25 747.5,-25 747.5,-6 703.5,-6"/>
<text text-anchor="middle" x="725.5" y="-13" font-family="FreeSans" font-size="10.00">cmath</text>
</g>
<!-- Node2&#45;&gt;Node10 -->
<g id="edge10" class="edge"><title>Node2&#45;&gt;Node10</title>
<path fill="none" stroke="midnightblue" d="M546.051,-68.9566C584.562,-61.5358 644.443,-48.4947 694.5,-31 696.12,-30.434 697.768,-29.8112 699.419,-29.1516"/>
<polygon fill="midnightblue" stroke="midnightblue" points="700.93,-32.3108 708.703,-25.1111 698.137,-25.8923 700.93,-32.3108"/>
</g>
<!-- Node11 -->
<g id="node12" class="node"><title>Node11</title>
<polygon fill="white" stroke="#bfbfbf" points="765.5,-6 765.5,-25 805.5,-25 805.5,-6 765.5,-6"/>
<text text-anchor="middle" x="785.5" y="-13" font-family="FreeSans" font-size="10.00">limits</text>
</g>
<!-- Node2&#45;&gt;Node11 -->
<g id="edge11" class="edge"><title>Node2&#45;&gt;Node11</title>
<path fill="none" stroke="midnightblue" d="M546.336,-72.3718C596.408,-67.0134 684.519,-54.9233 756.5,-31 758.116,-30.463 759.755,-29.8504 761.389,-29.1876"/>
<polygon fill="midnightblue" stroke="midnightblue" points="762.861,-32.3631 770.498,-25.0193 759.948,-25.9978 762.861,-32.3631"/>
</g>
</g>
</svg>
        <g id="navigator" transform="translate(0 0)" fill="#404254">
                <rect fill="#f2f5e9" fill-opacity="0.5" stroke="#606060" stroke-width=".5" x="0" y="0" width="60" height="60"/>
                <use id="zoomplus" xlink:href="#zoomPlus" x="17" y="9" onmousedown="handleZoom(evt,'in')"/>
                <use id="zoomminus" xlink:href="#zoomMin" x="42" y="9" onmousedown="handleZoom(evt,'out')"/>
                <use id="reset" xlink:href="#resetDef" x="30" y="36" onmousedown="handleReset()"/>
                <g id="arrowUp" xlink:href="#dirArrow" transform="translate(30 24)" onmousedown="handlePan(0,-1)">
                  <use xlink:href="#rim" fill="#404040">
                        <set attributeName="fill" to="#808080" begin="arrowUp.mouseover" end="arrowUp.mouseout"/>
                  </use>
                  <path fill="none" stroke="white" stroke-width="1.5" d="M0,-3.0v7 M-2.5,-0.5L0,-3.0L2.5,-0.5"/>
                </g>
                <g id="arrowRight" xlink:href="#dirArrow" transform="rotate(90) translate(36 -43)" onmousedown="handlePan(1,0)">
                  <use xlink:href="#rim" fill="#404040">
                        <set attributeName="fill" to="#808080" begin="arrowRight.mouseover" end="arrowRight.mouseout"/>
                  </use>
                  <path fill="none" stroke="white" stroke-width="1.5" d="M0,-3.0v7 M-2.5,-0.5L0,-3.0L2.5,-0.5"/>
                </g>
                <g id="arrowDown" xlink:href="#dirArrow" transform="rotate(180) translate(-30 -48)" onmousedown="handlePan(0,1)">
                  <use xlink:href="#rim" fill="#404040">
                        <set attributeName="fill" to="#808080" begin="arrowDown.mouseover" end="arrowDown.mouseout"/>
                  </use>
                  <path fill="none" stroke="white" stroke-width="1.5" d="M0,-3.0v7 M-2.5,-0.5L0,-3.0L2.5,-0.5"/>
                </g>
                <g id="arrowLeft" xlink:href="#dirArrow" transform="rotate(270) translate(-36 17)" onmousedown="handlePan(-1,0)">
                  <use xlink:href="#rim" fill="#404040">
                        <set attributeName="fill" to="#808080" begin="arrowLeft.mouseover" end="arrowLeft.mouseout"/>
                  </use>
                  <path fill="none" stroke="white" stroke-width="1.5" d="M0,-3.0v7 M-2.5,-0.5L0,-3.0L2.5,-0.5"/>
                </g>
        </g>
        <svg viewBox="0 0 15 15" width="100%" height="30px" preserveAspectRatio="xMaxYMin meet">
         <g id="arrow_out" transform="scale(0.3 0.3)">
          <a xlink:href="Polynomial_8cpp__incl_org.svg" target="_base">
           <rect id="button" ry="5" rx="5" y="6" x="6" height="38" width="38"
                fill="#f2f5e9" fill-opacity="0.5" stroke="#606060" stroke-width="1.0"/>
           <path id="arrow"
             d="M 11.500037,31.436501 C 11.940474,20.09759 22.043105,11.32322 32.158766,21.979434 L 37.068811,17.246167 C 37.068811,17.246167 37.088388,32 37.088388,32 L 22.160133,31.978069 C 22.160133,31.978069 26.997745,27.140456 26.997745,27.140456 C 18.528582,18.264221 13.291696,25.230495 11.500037,31.436501 z"
             style="fill:#404040;"/>
          </a>
         </g>
        </svg>
</svg>
