<?xml version="1.0" encoding="UTF-8" standalone="no"?>
<!DOCTYPE svg PUBLIC "-//W3C//DTD SVG 1.1//EN"
 "http://www.w3.org/Graphics/SVG/1.1/DTD/svg11.dtd">
<!-- Generated by graphviz version 2.38.0 (20140413.2041)
 -->
<!-- Title: src/Optimisation/PowellDogLeg.ipp Pages: 1 -->
<!--zoomable 531 -->
<svg id="main" version="1.1" xmlns="http://www.w3.org/2000/svg" xmlns:xlink="http://www.w3.org/1999/xlink" xml:space="preserve" onload="init(evt)">
<style type="text/css"><![CDATA[
.edge:hover path { stroke: red; }
.edge:hover polygon { stroke: red; fill: red; }
]]></style>
<script type="text/javascript"><![CDATA[
var edges = document.getElementsByTagName('g');
if (edges && edges.length) {
  for (var i=0;i<edges.length;i++) {
    if (edges[i].id.substr(0,4)=='edge') {
      edges[i].setAttribute('class','edge');
    }
  }
}
]]></script>
        <defs>
                <circle id="rim" cx="0" cy="0" r="7"/>
                <circle id="rim2" cx="0" cy="0" r="3.5"/>
                <g id="zoomPlus">
                        <use xlink:href="#rim" fill="#404040">
                                <set attributeName="fill" to="#808080" begin="zoomplus.mouseover" end="zoomplus.mouseout"/>
                        </use>
                        <path d="M-4,0h8M0,-4v8" fill="none" stroke="white" stroke-width="1.5" pointer-events="none"/>
                </g>
                <g id="zoomMin">
                        <use xlink:href="#rim" fill="#404040">
                                <set attributeName="fill" to="#808080" begin="zoomminus.mouseover" end="zoomminus.mouseout"/>
                        </use>
                        <path d="M-4,0h8" fill="none" stroke="white" stroke-width="1.5" pointer-events="none"/>
                </g>
                <g id="dirArrow">
                        <path fill="none" stroke="white" stroke-width="1.5" d="M0,-3.0v7 M-2.5,-0.5L0,-3.0L2.5,-0.5"/>
                </g>
               <g id="resetDef">
                       <use xlink:href="#rim2" fill="#404040">
                               <set attributeName="fill" to="#808080" begin="reset.mouseover" end="reset.mouseout"/>
                       </use>
               </g>
        </defs>

<script type="text/javascript">
var viewWidth = 4354;
var viewHeight = 531;
var sectionId = 'dynsection-0';
</script>
<script xlink:href="svgpan.js"/>
<svg id="graph" class="graph">
<g id="viewport">
<title>src/Optimisation/PowellDogLeg.ipp</title>
<polygon fill="white" stroke="none" points="-4,4 -4,-527 4349.5,-527 4349.5,4 -4,4"/>
<!-- Node0 -->
<g id="node1" class="node"><title>Node0</title>
<polygon fill="#bfbfbf" stroke="black" points="2861,-492.5 2861,-522.5 2998,-522.5 2998,-492.5 2861,-492.5"/>
<text text-anchor="start" x="2869" y="-510.5" font-family="FreeSans" font-size="10.00">src/Optimisation/PowellDog</text>
<text text-anchor="middle" x="2929.5" y="-499.5" font-family="FreeSans" font-size="10.00">Leg.ipp</text>
</g>
<!-- Node1 -->
<g id="node2" class="node"><title>Node1</title>
<polygon fill="white" stroke="#bfbfbf" points="2063.5,-6 2063.5,-25 2191.5,-25 2191.5,-6 2063.5,-6"/>
<text text-anchor="middle" x="2127.5" y="-13" font-family="FreeSans" font-size="10.00">boost/concept_check.hpp</text>
</g>
<!-- Node0&#45;&gt;Node1 -->
<g id="edge1" class="edge"><title>Node0&#45;&gt;Node1</title>
<path fill="none" stroke="midnightblue" d="M2860.86,-505.629C2537.12,-501.08 1178.5,-476.874 1178.5,-391 1178.5,-391 1178.5,-391 1178.5,-210 1178.5,-141.919 1249.15,-161.344 1311.5,-134 1616.81,-0.101495 1724.01,-74.8197 2054.5,-31 2062.6,-29.9254 2071.16,-28.4962 2079.45,-26.9533"/>
<polygon fill="midnightblue" stroke="midnightblue" points="2080.24,-30.3672 2089.39,-25.0312 2078.91,-23.4947 2080.24,-30.3672"/>
</g>
<!-- Node2 -->
<g id="node3" class="node"><title>Node2</title>
<polygon fill="white" stroke="#bfbfbf" points="1584,-263 1584,-282 1679,-282 1679,-263 1584,-263"/>
<text text-anchor="middle" x="1631.5" y="-270" font-family="FreeSans" font-size="10.00">boost/optional.hpp</text>
</g>
<!-- Node0&#45;&gt;Node2 -->
<g id="edge2" class="edge"><title>Node0&#45;&gt;Node2</title>
<path fill="none" stroke="midnightblue" d="M2860.88,-501.598C2756.8,-493.845 2552.9,-477.41 2380.5,-456 2061.3,-416.36 1923.8,-535.678 1665.5,-344 1648.65,-331.499 1639.76,-308.438 1635.36,-292.099"/>
<polygon fill="midnightblue" stroke="midnightblue" points="1638.69,-290.997 1632.98,-282.074 1631.88,-292.611 1638.69,-290.997"/>
</g>
<!-- Node3 -->
<g id="node4" class="node"><title>Node3</title>
<polygon fill="white" stroke="#bfbfbf" points="913,-436.5 913,-455.5 1026,-455.5 1026,-436.5 913,-436.5"/>
<text text-anchor="middle" x="969.5" y="-443.5" font-family="FreeSans" font-size="10.00">boost/lexical_cast.hpp</text>
</g>
<!-- Node0&#45;&gt;Node3 -->
<g id="edge3" class="edge"><title>Node0&#45;&gt;Node3</title>
<path fill="none" stroke="midnightblue" d="M2860.62,-505.577C2565.31,-501.479 1404.82,-483.891 1040.5,-456 1039.03,-455.887 1037.54,-455.766 1036.04,-455.636"/>
<polygon fill="midnightblue" stroke="midnightblue" points="1036.32,-452.147 1026.03,-454.68 1035.65,-459.115 1036.32,-452.147"/>
</g>
<!-- Node4 -->
<g id="node5" class="node"><title>Node4</title>
<polygon fill="white" stroke="#bfbfbf" points="3715,-257.5 3715,-287.5 3816,-287.5 3816,-257.5 3715,-257.5"/>
<text text-anchor="start" x="3723" y="-275.5" font-family="FreeSans" font-size="10.00">boost/math/special</text>
<text text-anchor="middle" x="3765.5" y="-264.5" font-family="FreeSans" font-size="10.00">_functions/pow.hpp</text>
</g>
<!-- Node0&#45;&gt;Node4 -->
<g id="edge4" class="edge"><title>Node0&#45;&gt;Node4</title>
<path fill="none" stroke="midnightblue" d="M2998.19,-505.693C3135.24,-503.282 3437.67,-493.721 3533.5,-456 3625.18,-419.916 3710,-335.101 3746.56,-295.099"/>
<polygon fill="midnightblue" stroke="midnightblue" points="3749.32,-297.27 3753.42,-287.501 3744.12,-292.581 3749.32,-297.27"/>
</g>
<!-- Node5 -->
<g id="node6" class="node"><title>Node5</title>
<polygon fill="white" stroke="#bfbfbf" points="3015,-6 3015,-25 3086,-25 3086,-6 3015,-6"/>
<text text-anchor="middle" x="3050.5" y="-13" font-family="FreeSans" font-size="10.00">Eigen/Dense</text>
</g>
<!-- Node0&#45;&gt;Node5 -->
<g id="edge5" class="edge"><title>Node0&#45;&gt;Node5</title>
<path fill="none" stroke="midnightblue" d="M2929.5,-492.275C2929.5,-470.476 2929.5,-427.495 2929.5,-391 2929.5,-391 2929.5,-391 2929.5,-333 2929.5,-214.699 3025.63,-212.724 3054.5,-98 3059.78,-77.0152 3057.34,-52.0566 3054.5,-35.3376"/>
<polygon fill="midnightblue" stroke="midnightblue" points="3057.89,-34.3946 3052.57,-25.2293 3051.01,-35.7086 3057.89,-34.3946"/>
</g>
<!-- Node6 -->
<g id="node7" class="node"><title>Node6</title>
<polygon fill="white" stroke="#bfbfbf" points="2957.5,-263 2957.5,-282 3021.5,-282 3021.5,-263 2957.5,-263"/>
<text text-anchor="middle" x="2989.5" y="-270" font-family="FreeSans" font-size="10.00">Eigen/SVD</text>
</g>
<!-- Node0&#45;&gt;Node6 -->
<g id="edge6" class="edge"><title>Node0&#45;&gt;Node6</title>
<path fill="none" stroke="midnightblue" d="M2933.51,-492.375C2936.36,-482.262 2940.24,-468.313 2943.5,-456 2959.28,-396.379 2976.79,-325.468 2984.91,-292.324"/>
<polygon fill="midnightblue" stroke="midnightblue" points="2988.4,-292.801 2987.37,-282.256 2981.6,-291.14 2988.4,-292.801"/>
</g>
<!-- Node7 -->
<g id="node8" class="node"><title>Node7</title>
<polygon fill="white" stroke="#bfbfbf" points="0,-6 0,-25 59,-25 59,-6 0,-6"/>
<text text-anchor="middle" x="29.5" y="-13" font-family="FreeSans" font-size="10.00">stdexcept</text>
</g>
<!-- Node0&#45;&gt;Node7 -->
<g id="edge7" class="edge"><title>Node0&#45;&gt;Node7</title>
<path fill="none" stroke="midnightblue" d="M2860.79,-506.062C2532.9,-503.802 1125.23,-492.134 687.5,-456 484.356,-439.23 233.5,-594.835 233.5,-391 233.5,-391 233.5,-391 233.5,-148.5 233.5,-107.725 117.171,-53.2604 60.203,-29.0327"/>
<polygon fill="midnightblue" stroke="midnightblue" points="61.5209,-25.7901 50.946,-25.14 58.8074,-32.2428 61.5209,-25.7901"/>
</g>
<!-- Node8 -->
<g id="node9" class="node"><title>Node8</title>
<polygon fill="white" stroke="#bfbfbf" points="77,-6 77,-25 118,-25 118,-6 77,-6"/>
<text text-anchor="middle" x="97.5" y="-13" font-family="FreeSans" font-size="10.00">string</text>
</g>
<!-- Node0&#45;&gt;Node8 -->
<g id="edge8" class="edge"><title>Node0&#45;&gt;Node8</title>
<path fill="none" stroke="midnightblue" d="M2860.92,-505.829C2529.32,-502.444 1100.04,-486.204 903.5,-456 800.196,-440.124 677.5,-495.516 677.5,-391 677.5,-391 677.5,-391 677.5,-148.5 677.5,-23.5198 245.722,-71.5402 127.5,-31 125.882,-30.4453 124.238,-29.8253 122.595,-29.1626"/>
<polygon fill="midnightblue" stroke="midnightblue" points="123.951,-25.9347 113.392,-25.0554 121.098,-32.327 123.951,-25.9347"/>
</g>
<!-- Node9 -->
<g id="node10" class="node"><title>Node9</title>
<polygon fill="white" stroke="#bfbfbf" points="3572.5,-6 3572.5,-25 3634.5,-25 3634.5,-6 3572.5,-6"/>
<text text-anchor="middle" x="3603.5" y="-13" font-family="FreeSans" font-size="10.00">type_traits</text>
</g>
<!-- Node0&#45;&gt;Node9 -->
<g id="edge9" class="edge"><title>Node0&#45;&gt;Node9</title>
<path fill="none" stroke="midnightblue" d="M2998.2,-507.214C3169.33,-508.139 3628.09,-505.384 4006.5,-456 4142.21,-438.29 4307.5,-527.861 4307.5,-391 4307.5,-391 4307.5,-391 4307.5,-333 4307.5,-298.183 4311.85,-282.822 4288.5,-257 4197.86,-156.785 3778.53,-55.7307 3644.68,-25.5438"/>
<polygon fill="midnightblue" stroke="midnightblue" points="3645.33,-22.1038 3634.81,-23.33 3643.8,-28.934 3645.33,-22.1038"/>
</g>
<!-- Node10 -->
<g id="node11" class="node"><title>Node10</title>
<polygon fill="white" stroke="#bfbfbf" points="3841.5,-140 3841.5,-159 3879.5,-159 3879.5,-140 3841.5,-140"/>
<text text-anchor="middle" x="3860.5" y="-147" font-family="FreeSans" font-size="10.00">tuple</text>
</g>
<!-- Node0&#45;&gt;Node10 -->
<g id="edge10" class="edge"><title>Node0&#45;&gt;Node10</title>
<path fill="none" stroke="midnightblue" d="M2998.05,-507.323C3153.52,-507.345 3519.5,-496.223 3519.5,-391 3519.5,-391 3519.5,-391 3519.5,-333 3519.5,-290.778 3541.8,-281.05 3576.5,-257 3623.32,-224.556 3645.97,-240.464 3699.5,-221 3747.84,-203.424 3802.32,-178.429 3833.9,-163.404"/>
<polygon fill="midnightblue" stroke="midnightblue" points="3835.43,-166.555 3842.93,-159.081 3832.4,-160.241 3835.43,-166.555"/>
</g>
<!-- Node11 -->
<g id="node12" class="node"><title>Node11</title>
<polygon fill="white" stroke="#bfbfbf" points="4178.5,-6 4178.5,-25 4216.5,-25 4216.5,-6 4178.5,-6"/>
<text text-anchor="middle" x="4197.5" y="-13" font-family="FreeSans" font-size="10.00">array</text>
</g>
<!-- Node0&#45;&gt;Node11 -->
<g id="edge11" class="edge"><title>Node0&#45;&gt;Node11</title>
<path fill="none" stroke="midnightblue" d="M2998.2,-506.445C3223.64,-505.834 3939.34,-500.36 4165.5,-456 4248.97,-439.629 4345.5,-476.056 4345.5,-391 4345.5,-391 4345.5,-391 4345.5,-148.5 4345.5,-85.0966 4268.91,-44.606 4225.93,-26.8728"/>
<polygon fill="midnightblue" stroke="midnightblue" points="4227.13,-23.585 4216.55,-23.143 4224.54,-30.0898 4227.13,-23.585"/>
</g>
<!-- Node12 -->
<g id="node13" class="node"><title>Node12</title>
<polygon fill="white" stroke="#bfbfbf" points="4226,-263 4226,-282 4279,-282 4279,-263 4226,-263"/>
<text text-anchor="middle" x="4252.5" y="-270" font-family="FreeSans" font-size="10.00">complex</text>
</g>
<!-- Node0&#45;&gt;Node12 -->
<g id="edge12" class="edge"><title>Node0&#45;&gt;Node12</title>
<path fill="none" stroke="midnightblue" d="M2998.31,-505.217C3215.36,-500.884 3876.7,-485.393 3968.5,-456 4081.82,-419.719 4194.01,-326.21 4235.6,-289.056"/>
<polygon fill="midnightblue" stroke="midnightblue" points="4238.1,-291.518 4243.17,-282.216 4233.4,-286.325 4238.1,-291.518"/>
</g>
<!-- Node13 -->
<g id="node14" class="node"><title>Node13</title>
<polygon fill="white" stroke="#bfbfbf" points="1083,-140 1083,-159 1112,-159 1112,-140 1083,-140"/>
<text text-anchor="middle" x="1097.5" y="-147" font-family="FreeSans" font-size="10.00">list</text>
</g>
<!-- Node0&#45;&gt;Node13 -->
<g id="edge13" class="edge"><title>Node0&#45;&gt;Node13</title>
<path fill="none" stroke="midnightblue" d="M2860.93,-506.264C2544.82,-504.956 1240.25,-497.079 1164.5,-456 1133.61,-439.25 1119.5,-426.136 1119.5,-391 1119.5,-391 1119.5,-391 1119.5,-271.5 1119.5,-234.636 1109.49,-192.458 1102.98,-168.902"/>
<polygon fill="midnightblue" stroke="midnightblue" points="1106.32,-167.855 1100.2,-159.207 1099.59,-169.784 1106.32,-167.855"/>
</g>
<!-- Node14 -->
<g id="node15" class="node"><title>Node14</title>
<polygon fill="white" stroke="#bfbfbf" points="1864,-6 1864,-25 1909,-25 1909,-6 1864,-6"/>
<text text-anchor="middle" x="1886.5" y="-13" font-family="FreeSans" font-size="10.00">climits</text>
</g>
<!-- Node0&#45;&gt;Node14 -->
<g id="edge14" class="edge"><title>Node0&#45;&gt;Node14</title>
<path fill="none" stroke="midnightblue" d="M2860.93,-505.841C2541.76,-502.611 1213.6,-487.333 1131.5,-456 1089.66,-440.031 1054.5,-435.785 1054.5,-391 1054.5,-391 1054.5,-391 1054.5,-210 1054.5,-175.183 1049.36,-159.089 1073.5,-134 1147.32,-57.279 1198.64,-85.4695 1303.5,-67 1545.19,-24.4286 1616.44,-90.6084 1854.5,-31 1856.71,-30.4463 1858.96,-29.7452 1861.19,-28.9516"/>
<polygon fill="midnightblue" stroke="midnightblue" points="1862.72,-32.103 1870.63,-25.0499 1860.05,-25.6333 1862.72,-32.103"/>
</g>
<!-- Node15 -->
<g id="node16" class="node"><title>Node15</title>
<g id="a_node16"><a xlink:href="PowellDogLegProblemConcept_8h.html" target="_top" xlink:title="PowellDogLegProblemConcept.h">
<polygon fill="white" stroke="black" points="2390,-436.5 2390,-455.5 2549,-455.5 2549,-436.5 2390,-436.5"/>
<text text-anchor="middle" x="2469.5" y="-443.5" font-family="FreeSans" font-size="10.00">PowellDogLegProblemConcept.h</text>
</a>
</g>
</g>
<!-- Node0&#45;&gt;Node15 -->
<g id="edge15" class="edge"><title>Node0&#45;&gt;Node15</title>
<path fill="none" stroke="midnightblue" d="M2860.63,-497.592C2776.13,-486.662 2633.32,-468.189 2545.63,-456.847"/>
<polygon fill="midnightblue" stroke="midnightblue" points="2545.84,-453.346 2535.48,-455.534 2544.94,-460.288 2545.84,-453.346"/>
</g>
<!-- Node64 -->
<g id="node65" class="node"><title>Node64</title>
<g id="a_node65"><a xlink:href="Polynomial_8h.html" target="_top" xlink:title="../Numeric/Polynomial.h">
<polygon fill="white" stroke="black" points="3841,-436.5 3841,-455.5 3960,-455.5 3960,-436.5 3841,-436.5"/>
<text text-anchor="middle" x="3900.5" y="-443.5" font-family="FreeSans" font-size="10.00">../Numeric/Polynomial.h</text>
</a>
</g>
</g>
<!-- Node0&#45;&gt;Node64 -->
<g id="edge110" class="edge"><title>Node0&#45;&gt;Node64</title>
<path fill="none" stroke="midnightblue" d="M2998.17,-502.292C3176.24,-491.38 3651.49,-462.259 3830.76,-451.274"/>
<polygon fill="midnightblue" stroke="midnightblue" points="3831.09,-454.76 3840.86,-450.655 3830.66,-447.773 3831.09,-454.76"/>
</g>
<!-- Node70 -->
<g id="node71" class="node"><title>Node70</title>
<g id="a_node71"><a xlink:href="LinearAlgebra_8h.html" target="_top" xlink:title="../Numeric/LinearAlgebra.h">
<polygon fill="white" stroke="black" points="3022,-380.5 3022,-399.5 3153,-399.5 3153,-380.5 3022,-380.5"/>
<text text-anchor="middle" x="3087.5" y="-387.5" font-family="FreeSans" font-size="10.00">../Numeric/LinearAlgebra.h</text>
</a>
</g>
</g>
<!-- Node0&#45;&gt;Node70 -->
<g id="edge121" class="edge"><title>Node0&#45;&gt;Node70</title>
<path fill="none" stroke="midnightblue" d="M2948.87,-492.337C2979.02,-470.297 3036.88,-428.007 3067.44,-405.664"/>
<polygon fill="midnightblue" stroke="midnightblue" points="3069.63,-408.396 3075.64,-399.669 3065.5,-402.745 3069.63,-408.396"/>
</g>
<!-- Node16 -->
<g id="node17" class="node"><title>Node16</title>
<g id="a_node17"><a xlink:href="PowellDogLegProblemConcept_8ipp.html" target="_top" xlink:title="PowellDogLegProblemConcept.ipp">
<polygon fill="white" stroke="black" points="2033,-380.5 2033,-399.5 2200,-399.5 2200,-380.5 2033,-380.5"/>
<text text-anchor="middle" x="2116.5" y="-387.5" font-family="FreeSans" font-size="10.00">PowellDogLegProblemConcept.ipp</text>
</a>
</g>
</g>
<!-- Node15&#45;&gt;Node16 -->
<g id="edge16" class="edge"><title>Node15&#45;&gt;Node16</title>
<path fill="none" stroke="midnightblue" d="M2413.57,-436.444C2350.7,-426.826 2248.73,-411.228 2182.14,-401.041"/>
<polygon fill="midnightblue" stroke="midnightblue" points="2182.59,-397.569 2172.17,-399.516 2181.53,-404.488 2182.59,-397.569"/>
</g>
<!-- Node16&#45;&gt;Node1 -->
<g id="edge17" class="edge"><title>Node16&#45;&gt;Node1</title>
<path fill="none" stroke="midnightblue" d="M2088.97,-380.388C1968.46,-342.571 1492.63,-191.921 1473.5,-165 1465.52,-153.769 1465.36,-145.114 1473.5,-134 1548.91,-31.079 2037.24,-33.5494 2054.5,-31 2062.23,-29.8582 2070.38,-28.4467 2078.32,-26.9568"/>
<polygon fill="midnightblue" stroke="midnightblue" points="2079.07,-30.3772 2088.22,-25.0419 2077.74,-23.5046 2079.07,-30.3772"/>
</g>
<!-- Node16&#45;&gt;Node2 -->
<g id="edge18" class="edge"><title>Node16&#45;&gt;Node2</title>
<path fill="none" stroke="midnightblue" d="M2032.58,-387.229C1926.47,-383.771 1750.72,-373.625 1693.5,-344 1670.51,-332.098 1652.18,-307.827 1641.58,-291.117"/>
<polygon fill="midnightblue" stroke="midnightblue" points="1644.42,-289.051 1636.25,-282.303 1638.43,-292.671 1644.42,-289.051"/>
</g>
<!-- Node16&#45;&gt;Node5 -->
<g id="edge19" class="edge"><title>Node16&#45;&gt;Node5</title>
<path fill="none" stroke="midnightblue" d="M2200.19,-386.883C2365.96,-378.823 2741.52,-340.923 2990.5,-165 3033.57,-134.571 3045.75,-67.7335 3049.18,-35.1276"/>
<polygon fill="midnightblue" stroke="midnightblue" points="3052.67,-35.4069 3050.06,-25.1378 3045.69,-34.7913 3052.67,-35.4069"/>
</g>
<!-- Node17 -->
<g id="node18" class="node"><title>Node17</title>
<g id="a_node18"><a xlink:href="Correspondence_8h.html" target="_top" xlink:title="../Elements/Correspondence.h">
<polygon fill="white" stroke="black" points="2043.5,-324.5 2043.5,-343.5 2189.5,-343.5 2189.5,-324.5 2043.5,-324.5"/>
<text text-anchor="middle" x="2116.5" y="-331.5" font-family="FreeSans" font-size="10.00">../Elements/Correspondence.h</text>
</a>
</g>
</g>
<!-- Node16&#45;&gt;Node17 -->
<g id="edge20" class="edge"><title>Node16&#45;&gt;Node17</title>
<path fill="none" stroke="midnightblue" d="M2116.5,-380.083C2116.5,-373.006 2116.5,-362.861 2116.5,-353.986"/>
<polygon fill="midnightblue" stroke="midnightblue" points="2120,-353.751 2116.5,-343.751 2113,-353.751 2120,-353.751"/>
</g>
<!-- Node18 -->
<g id="node19" class="node"><title>Node18</title>
<g id="a_node19"><a xlink:href="Correspondence_8ipp.html" target="_top" xlink:title="Correspondence.ipp">
<polygon fill="white" stroke="black" points="2633.5,-201.5 2633.5,-220.5 2735.5,-220.5 2735.5,-201.5 2633.5,-201.5"/>
<text text-anchor="middle" x="2684.5" y="-208.5" font-family="FreeSans" font-size="10.00">Correspondence.ipp</text>
</a>
</g>
</g>
<!-- Node17&#45;&gt;Node18 -->
<g id="edge21" class="edge"><title>Node17&#45;&gt;Node18</title>
<path fill="none" stroke="midnightblue" d="M2156.44,-324.492C2257.45,-302.974 2522.95,-246.415 2634.26,-222.703"/>
<polygon fill="midnightblue" stroke="midnightblue" points="2635.17,-226.087 2644.22,-220.58 2633.71,-219.24 2635.17,-226.087"/>
</g>
<!-- Node35 -->
<g id="node36" class="node"><title>Node35</title>
<polygon fill="white" stroke="#bfbfbf" points="1941,-257.5 1941,-287.5 2042,-287.5 2042,-257.5 1941,-257.5"/>
<text text-anchor="start" x="1949" y="-275.5" font-family="FreeSans" font-size="10.00">boost/range/iterator</text>
<text text-anchor="middle" x="1991.5" y="-264.5" font-family="FreeSans" font-size="10.00">_range.hpp</text>
</g>
<!-- Node17&#45;&gt;Node35 -->
<g id="edge44" class="edge"><title>Node17&#45;&gt;Node35</title>
<path fill="none" stroke="midnightblue" d="M2098.59,-324.475C2080.79,-316.002 2052.92,-302.737 2030.08,-291.863"/>
<polygon fill="midnightblue" stroke="midnightblue" points="2031.49,-288.661 2020.96,-287.523 2028.49,-294.981 2031.49,-288.661"/>
</g>
<!-- Node36 -->
<g id="node37" class="node"><title>Node36</title>
<g id="a_node37"><a xlink:href="Coordinate_8h.html" target="_top" xlink:title="Coordinate.h">
<polygon fill="white" stroke="black" points="2110,-140 2110,-159 2181,-159 2181,-140 2110,-140"/>
<text text-anchor="middle" x="2145.5" y="-147" font-family="FreeSans" font-size="10.00">Coordinate.h</text>
</a>
</g>
</g>
<!-- Node17&#45;&gt;Node36 -->
<g id="edge45" class="edge"><title>Node17&#45;&gt;Node36</title>
<path fill="none" stroke="midnightblue" d="M2118.36,-324.399C2120.28,-315.361 2123.3,-300.719 2125.5,-288 2132.79,-245.758 2139.6,-195.907 2143.08,-169.364"/>
<polygon fill="midnightblue" stroke="midnightblue" points="2146.58,-169.58 2144.4,-159.212 2139.64,-168.679 2146.58,-169.58"/>
</g>
<!-- Node39 -->
<g id="node40" class="node"><title>Node39</title>
<g id="a_node40"><a xlink:href="Feature_8h.html" target="_top" xlink:title="Feature.h">
<polygon fill="white" stroke="black" points="2060,-263 2060,-282 2117,-282 2117,-263 2060,-263"/>
<text text-anchor="middle" x="2088.5" y="-270" font-family="FreeSans" font-size="10.00">Feature.h</text>
</a>
</g>
</g>
<!-- Node17&#45;&gt;Node39 -->
<g id="edge60" class="edge"><title>Node17&#45;&gt;Node39</title>
<path fill="none" stroke="midnightblue" d="M2112.49,-324.475C2108.41,-315.815 2101.98,-302.149 2096.8,-291.145"/>
<polygon fill="midnightblue" stroke="midnightblue" points="2099.93,-289.567 2092.5,-282.009 2093.6,-292.548 2099.93,-289.567"/>
</g>
<!-- Node18&#45;&gt;Node1 -->
<g id="edge24" class="edge"><title>Node18&#45;&gt;Node1</title>
<path fill="none" stroke="midnightblue" d="M2633.29,-202.015C2591.1,-194.679 2530.03,-182.309 2478.5,-165 2472.35,-162.934 2272.5,-69.471 2266.5,-67 2231.57,-52.61 2190.87,-38.0776 2162.57,-28.321"/>
<polygon fill="midnightblue" stroke="midnightblue" points="2163.71,-25.0097 2153.11,-25.0772 2161.44,-31.6314 2163.71,-25.0097"/>
</g>
<!-- Node18&#45;&gt;Node5 -->
<g id="edge28" class="edge"><title>Node18&#45;&gt;Node5</title>
<path fill="none" stroke="midnightblue" d="M2735.78,-206.746C2805.24,-201.487 2924.69,-189.175 2960.5,-165 3007.66,-133.164 3034.2,-67.549 3044.89,-35.2704"/>
<polygon fill="midnightblue" stroke="midnightblue" points="3048.35,-35.9431 3048.02,-25.3534 3041.68,-33.8372 3048.35,-35.9431"/>
</g>
<!-- Node18&#45;&gt;Node9 -->
<g id="edge37" class="edge"><title>Node18&#45;&gt;Node9</title>
<path fill="none" stroke="midnightblue" d="M2735.64,-203.936C2796.6,-196.372 2901.42,-182.303 2990.5,-165 3208.26,-122.704 3465.24,-54.3569 3563.01,-27.6747"/>
<polygon fill="midnightblue" stroke="midnightblue" points="3564.06,-31.016 3572.78,-25.0014 3562.21,-24.264 3564.06,-31.016"/>
</g>
<!-- Node18&#45;&gt;Node10 -->
<g id="edge34" class="edge"><title>Node18&#45;&gt;Node10</title>
<path fill="none" stroke="midnightblue" d="M2735.52,-209.123C2924.65,-205.686 3585.53,-191.978 3794.5,-165 3806.7,-163.424 3819.99,-160.706 3831.42,-158.045"/>
<polygon fill="midnightblue" stroke="midnightblue" points="3832.41,-161.406 3841.31,-155.653 3830.77,-154.602 3832.41,-161.406"/>
</g>
<!-- Node19 -->
<g id="node20" class="node"><title>Node19</title>
<polygon fill="white" stroke="#bfbfbf" points="2539,-140 2539,-159 2656,-159 2656,-140 2539,-140"/>
<text text-anchor="middle" x="2597.5" y="-147" font-family="FreeSans" font-size="10.00">boost/bimap/bimap.hpp</text>
</g>
<!-- Node18&#45;&gt;Node19 -->
<g id="edge22" class="edge"><title>Node18&#45;&gt;Node19</title>
<path fill="none" stroke="midnightblue" d="M2672.04,-201.475C2658.08,-191.931 2635.24,-176.307 2618.51,-164.868"/>
<polygon fill="midnightblue" stroke="midnightblue" points="2620.17,-161.765 2609.94,-159.009 2616.22,-167.543 2620.17,-161.765"/>
</g>
<!-- Node20 -->
<g id="node21" class="node"><title>Node20</title>
<polygon fill="white" stroke="#bfbfbf" points="2713,-140 2713,-159 2830,-159 2830,-140 2713,-140"/>
<text text-anchor="middle" x="2771.5" y="-147" font-family="FreeSans" font-size="10.00">boost/bimap/list_of.hpp</text>
</g>
<!-- Node18&#45;&gt;Node20 -->
<g id="edge23" class="edge"><title>Node18&#45;&gt;Node20</title>
<path fill="none" stroke="midnightblue" d="M2696.96,-201.475C2710.92,-191.931 2733.76,-176.307 2750.49,-164.868"/>
<polygon fill="midnightblue" stroke="midnightblue" points="2752.78,-167.543 2759.06,-159.009 2748.83,-161.765 2752.78,-167.543"/>
</g>
<!-- Node21 -->
<g id="node22" class="node"><title>Node21</title>
<polygon fill="white" stroke="#bfbfbf" points="2446.5,-6 2446.5,-25 2574.5,-25 2574.5,-6 2446.5,-6"/>
<text text-anchor="middle" x="2510.5" y="-13" font-family="FreeSans" font-size="10.00">boost/range/concepts.hpp</text>
</g>
<!-- Node18&#45;&gt;Node21 -->
<g id="edge25" class="edge"><title>Node18&#45;&gt;Node21</title>
<path fill="none" stroke="midnightblue" d="M2633.2,-208.977C2598.66,-205.395 2554.91,-194.701 2529.5,-165 2498.03,-128.225 2502.29,-66.3794 2506.95,-35.3924"/>
<polygon fill="midnightblue" stroke="midnightblue" points="2510.47,-35.5873 2508.68,-25.1438 2503.57,-34.4209 2510.47,-35.5873"/>
</g>
<!-- Node22 -->
<g id="node23" class="node"><title>Node22</title>
<polygon fill="white" stroke="#bfbfbf" points="2592.5,-6 2592.5,-25 2742.5,-25 2742.5,-6 2592.5,-6"/>
<text text-anchor="middle" x="2667.5" y="-13" font-family="FreeSans" font-size="10.00">boost/range/metafunctions.hpp</text>
</g>
<!-- Node18&#45;&gt;Node22 -->
<g id="edge26" class="edge"><title>Node18&#45;&gt;Node22</title>
<path fill="none" stroke="midnightblue" d="M2683.75,-201.436C2681.19,-172.287 2672.77,-76.4675 2669.16,-35.4284"/>
<polygon fill="midnightblue" stroke="midnightblue" points="2672.64,-35.0621 2668.28,-25.4068 2665.67,-35.6748 2672.64,-35.0621"/>
</g>
<!-- Node23 -->
<g id="node24" class="node"><title>Node23</title>
<polygon fill="white" stroke="#bfbfbf" points="2781.5,-6 2781.5,-25 2909.5,-25 2909.5,-6 2781.5,-6"/>
<text text-anchor="middle" x="2845.5" y="-13" font-family="FreeSans" font-size="10.00">boost/range/functions.hpp</text>
</g>
<!-- Node18&#45;&gt;Node23 -->
<g id="edge27" class="edge"><title>Node18&#45;&gt;Node23</title>
<path fill="none" stroke="midnightblue" d="M2735.57,-207.404C2796.56,-203.11 2893.16,-192.118 2915.5,-165 2950.27,-122.798 2893.61,-60.446 2863.03,-31.8489"/>
<polygon fill="midnightblue" stroke="midnightblue" points="2865.29,-29.1745 2855.54,-25.0296 2860.58,-34.3503 2865.29,-29.1745"/>
</g>
<!-- Node24 -->
<g id="node25" class="node"><title>Node24</title>
<polygon fill="white" stroke="#bfbfbf" points="3775.5,-6 3775.5,-25 3819.5,-25 3819.5,-6 3775.5,-6"/>
<text text-anchor="middle" x="3797.5" y="-13" font-family="FreeSans" font-size="10.00">cmath</text>
</g>
<!-- Node18&#45;&gt;Node24 -->
<g id="edge29" class="edge"><title>Node18&#45;&gt;Node24</title>
<path fill="none" stroke="midnightblue" d="M2735.74,-210.556C2853.19,-211.004 3150.52,-207.438 3394.5,-165 3500.24,-146.608 3526.17,-136.104 3626.5,-98 3680.23,-77.5962 3740.28,-47.0721 3772.99,-29.7518"/>
<polygon fill="midnightblue" stroke="midnightblue" points="3774.67,-32.824 3781.85,-25.031 3771.38,-26.647 3774.67,-32.824"/>
</g>
<!-- Node25 -->
<g id="node26" class="node"><title>Node25</title>
<polygon fill="white" stroke="#bfbfbf" points="2381,-6 2381,-25 2428,-25 2428,-6 2381,-6"/>
<text text-anchor="middle" x="2404.5" y="-13" font-family="FreeSans" font-size="10.00">iterator</text>
</g>
<!-- Node18&#45;&gt;Node25 -->
<g id="edge30" class="edge"><title>Node18&#45;&gt;Node25</title>
<path fill="none" stroke="midnightblue" d="M2633.45,-206.946C2596.04,-202.464 2545.67,-191.532 2509.5,-165 2468.13,-134.656 2479,-108.25 2448.5,-67 2439.62,-54.9959 2428.58,-42.3304 2419.78,-32.6862"/>
<polygon fill="midnightblue" stroke="midnightblue" points="2422.1,-30.0376 2412.74,-25.0814 2416.96,-34.7954 2422.1,-30.0376"/>
</g>
<!-- Node26 -->
<g id="node27" class="node"><title>Node26</title>
<polygon fill="white" stroke="#bfbfbf" points="1927.5,-6 1927.5,-25 1971.5,-25 1971.5,-6 1927.5,-6"/>
<text text-anchor="middle" x="1949.5" y="-13" font-family="FreeSans" font-size="10.00">vector</text>
</g>
<!-- Node18&#45;&gt;Node26 -->
<g id="edge31" class="edge"><title>Node18&#45;&gt;Node26</title>
<path fill="none" stroke="midnightblue" d="M2633.43,-205.372C2577.76,-199.464 2486.49,-187.237 2410.5,-165 2377.06,-155.215 2372.26,-142.604 2338.5,-134 2254.59,-112.615 2009.22,-161.637 1950.5,-98 1935.09,-81.3008 1938.62,-53.4836 1943.39,-35.0671"/>
<polygon fill="midnightblue" stroke="midnightblue" points="1946.82,-35.813 1946.29,-25.2316 1940.1,-33.8357 1946.82,-35.813"/>
</g>
<!-- Node27 -->
<g id="node28" class="node"><title>Node27</title>
<polygon fill="white" stroke="#bfbfbf" points="2295,-140 2295,-159 2330,-159 2330,-140 2295,-140"/>
<text text-anchor="middle" x="2312.5" y="-147" font-family="FreeSans" font-size="10.00">map</text>
</g>
<!-- Node18&#45;&gt;Node27 -->
<g id="edge32" class="edge"><title>Node18&#45;&gt;Node27</title>
<path fill="none" stroke="midnightblue" d="M2633.33,-203.27C2573.15,-195.148 2470.31,-180.624 2382.5,-165 2368.56,-162.52 2353.15,-159.372 2340.34,-156.643"/>
<polygon fill="midnightblue" stroke="midnightblue" points="2340.8,-153.161 2330.28,-154.473 2339.32,-160.003 2340.8,-153.161"/>
</g>
<!-- Node28 -->
<g id="node29" class="node"><title>Node28</title>
<polygon fill="white" stroke="#bfbfbf" points="2948,-6 2948,-25 2997,-25 2997,-6 2948,-6"/>
<text text-anchor="middle" x="2972.5" y="-13" font-family="FreeSans" font-size="10.00">cstddef</text>
</g>
<!-- Node18&#45;&gt;Node28 -->
<g id="edge33" class="edge"><title>Node18&#45;&gt;Node28</title>
<path fill="none" stroke="midnightblue" d="M2735.76,-207.264C2800.61,-202.741 2907.25,-191.424 2935.5,-165 2971.96,-130.893 2974.83,-66.8392 2973.78,-35.1837"/>
<polygon fill="midnightblue" stroke="midnightblue" points="2977.27,-34.9125 2973.27,-25.1025 2970.28,-35.2668 2977.27,-34.9125"/>
</g>
<!-- Node29 -->
<g id="node30" class="node"><title>Node29</title>
<polygon fill="white" stroke="#bfbfbf" points="2238,-140 2238,-159 2277,-159 2277,-140 2238,-140"/>
<text text-anchor="middle" x="2257.5" y="-147" font-family="FreeSans" font-size="10.00">utility</text>
</g>
<!-- Node18&#45;&gt;Node29 -->
<g id="edge35" class="edge"><title>Node18&#45;&gt;Node29</title>
<path fill="none" stroke="midnightblue" d="M2633.23,-210.129C2556.11,-209.015 2406.39,-201.743 2285.5,-165 2284.03,-164.552 2282.54,-164.028 2281.06,-163.449"/>
<polygon fill="midnightblue" stroke="midnightblue" points="2282.15,-160.098 2271.61,-159.076 2279.21,-166.451 2282.15,-160.098"/>
</g>
<!-- Node30 -->
<g id="node31" class="node"><title>Node30</title>
<polygon fill="white" stroke="#bfbfbf" points="2848,-140 2848,-159 2907,-159 2907,-140 2848,-140"/>
<text text-anchor="middle" x="2877.5" y="-147" font-family="FreeSans" font-size="10.00">functional</text>
</g>
<!-- Node18&#45;&gt;Node30 -->
<g id="edge36" class="edge"><title>Node18&#45;&gt;Node30</title>
<path fill="none" stroke="midnightblue" d="M2716.26,-201.435C2747.55,-192.833 2796.59,-178.893 2838.5,-165 2840.9,-164.204 2843.37,-163.355 2845.85,-162.482"/>
<polygon fill="midnightblue" stroke="midnightblue" points="2847.11,-165.75 2855.32,-159.058 2844.73,-159.167 2847.11,-165.75"/>
</g>
<!-- Node31 -->
<g id="node32" class="node"><title>Node31</title>
<g id="a_node32"><a xlink:href="FeatureConcept_8h.html" target="_top" xlink:title="FeatureConcept.h">
<polygon fill="white" stroke="black" points="1922,-140 1922,-159 2015,-159 2015,-140 1922,-140"/>
<text text-anchor="middle" x="1968.5" y="-147" font-family="FreeSans" font-size="10.00">FeatureConcept.h</text>
</a>
</g>
</g>
<!-- Node18&#45;&gt;Node31 -->
<g id="edge38" class="edge"><title>Node18&#45;&gt;Node31</title>
<path fill="none" stroke="midnightblue" d="M2633.29,-206.616C2531.62,-199.774 2297.18,-183.375 2100.5,-165 2075.81,-162.693 2048.56,-159.764 2025.26,-157.144"/>
<polygon fill="midnightblue" stroke="midnightblue" points="2025.53,-153.652 2015.2,-156.004 2024.74,-160.607 2025.53,-153.652"/>
</g>
<!-- Node33 -->
<g id="node34" class="node"><title>Node33</title>
<g id="a_node34"><a xlink:href="EigenMetafunction_8h.html" target="_top" xlink:title="../Wrappers/EigenMetafunction.h">
<polygon fill="white" stroke="black" points="3229.5,-140 3229.5,-159 3385.5,-159 3385.5,-140 3229.5,-140"/>
<text text-anchor="middle" x="3307.5" y="-147" font-family="FreeSans" font-size="10.00">../Wrappers/EigenMetafunction.h</text>
</a>
</g>
</g>
<!-- Node18&#45;&gt;Node33 -->
<g id="edge41" class="edge"><title>Node18&#45;&gt;Node33</title>
<path fill="none" stroke="midnightblue" d="M2735.75,-205.106C2841.91,-194.966 3086.99,-171.56 3219.17,-158.936"/>
<polygon fill="midnightblue" stroke="midnightblue" points="3219.64,-162.407 3229.27,-157.972 3218.98,-155.438 3219.64,-162.407"/>
</g>
<!-- Node32 -->
<g id="node33" class="node"><title>Node32</title>
<g id="a_node33"><a xlink:href="FeatureConcept_8ipp.html" target="_top" xlink:title="FeatureConcept.ipp">
<polygon fill="white" stroke="black" points="1960,-73 1960,-92 2061,-92 2061,-73 1960,-73"/>
<text text-anchor="middle" x="2010.5" y="-80" font-family="FreeSans" font-size="10.00">FeatureConcept.ipp</text>
</a>
</g>
</g>
<!-- Node31&#45;&gt;Node32 -->
<g id="edge39" class="edge"><title>Node31&#45;&gt;Node32</title>
<path fill="none" stroke="midnightblue" d="M1974.16,-139.734C1980.59,-129.793 1991.22,-113.338 1999.33,-100.789"/>
<polygon fill="midnightblue" stroke="midnightblue" points="2002.44,-102.426 2004.93,-92.1273 1996.56,-98.627 2002.44,-102.426"/>
</g>
<!-- Node32&#45;&gt;Node1 -->
<g id="edge40" class="edge"><title>Node32&#45;&gt;Node1</title>
<path fill="none" stroke="midnightblue" d="M2026.28,-72.7338C2046.01,-61.7695 2080.01,-42.8809 2103.11,-30.0495"/>
<polygon fill="midnightblue" stroke="midnightblue" points="2104.93,-33.0433 2111.97,-25.1273 2101.53,-26.9242 2104.93,-33.0433"/>
</g>
<!-- Node34 -->
<g id="node35" class="node"><title>Node34</title>
<g id="a_node35"><a xlink:href="EigenMetafunction_8ipp.html" target="_top" xlink:title="EigenMetafunction.ipp">
<polygon fill="white" stroke="black" points="3505.5,-73 3505.5,-92 3617.5,-92 3617.5,-73 3505.5,-73"/>
<text text-anchor="middle" x="3561.5" y="-80" font-family="FreeSans" font-size="10.00">EigenMetafunction.ipp</text>
</a>
</g>
</g>
<!-- Node33&#45;&gt;Node34 -->
<g id="edge42" class="edge"><title>Node33&#45;&gt;Node34</title>
<path fill="none" stroke="midnightblue" d="M3340.97,-139.936C3386.46,-128.293 3467.9,-107.454 3518.06,-94.617"/>
<polygon fill="midnightblue" stroke="midnightblue" points="3519.14,-97.9534 3527.96,-92.0834 3517.4,-91.1719 3519.14,-97.9534"/>
</g>
<!-- Node34&#45;&gt;Node9 -->
<g id="edge43" class="edge"><title>Node34&#45;&gt;Node9</title>
<path fill="none" stroke="midnightblue" d="M3567.16,-72.7338C3573.59,-62.7928 3584.22,-46.3377 3592.33,-33.7892"/>
<polygon fill="midnightblue" stroke="midnightblue" points="3595.44,-35.426 3597.93,-25.1273 3589.56,-31.627 3595.44,-35.426"/>
</g>
<!-- Node37 -->
<g id="node38" class="node"><title>Node37</title>
<g id="a_node38"><a xlink:href="Coordinate_8ipp.html" target="_top" xlink:title="Coordinate.ipp">
<polygon fill="white" stroke="black" points="2549.5,-73 2549.5,-92 2627.5,-92 2627.5,-73 2549.5,-73"/>
<text text-anchor="middle" x="2588.5" y="-80" font-family="FreeSans" font-size="10.00">Coordinate.ipp</text>
</a>
</g>
</g>
<!-- Node36&#45;&gt;Node37 -->
<g id="edge46" class="edge"><title>Node36&#45;&gt;Node37</title>
<path fill="none" stroke="midnightblue" d="M2172.04,-139.979C2179.56,-137.788 2187.8,-135.601 2195.5,-134 2317.88,-108.552 2464.52,-93.7876 2539.33,-87.3613"/>
<polygon fill="midnightblue" stroke="midnightblue" points="2539.73,-90.84 2549.4,-86.5096 2539.14,-83.865 2539.73,-90.84"/>
</g>
<!-- Node37&#45;&gt;Node1 -->
<g id="edge47" class="edge"><title>Node37&#45;&gt;Node1</title>
<path fill="none" stroke="midnightblue" d="M2549.2,-75.9581C2471.28,-64.9723 2296.29,-40.2995 2197.98,-26.4375"/>
<polygon fill="midnightblue" stroke="midnightblue" points="2198.23,-22.9381 2187.84,-25.0075 2197.25,-29.8695 2198.23,-22.9381"/>
</g>
<!-- Node37&#45;&gt;Node5 -->
<g id="edge51" class="edge"><title>Node37&#45;&gt;Node5</title>
<path fill="none" stroke="midnightblue" d="M2627.72,-79.2578C2702.13,-74.4535 2868.56,-61.0638 3005.5,-31 3009.36,-30.1529 3013.36,-29.1119 3017.3,-27.9798"/>
<polygon fill="midnightblue" stroke="midnightblue" points="3018.38,-31.3125 3026.91,-25.0366 3016.32,-24.6195 3018.38,-31.3125"/>
</g>
<!-- Node37&#45;&gt;Node9 -->
<g id="edge53" class="edge"><title>Node37&#45;&gt;Node9</title>
<path fill="none" stroke="midnightblue" d="M2627.67,-78.9918C2788.45,-68.6955 3397.04,-29.7216 3562.03,-19.1559"/>
<polygon fill="midnightblue" stroke="midnightblue" points="3562.49,-22.6337 3572.24,-18.5017 3562.04,-15.648 3562.49,-22.6337"/>
</g>
<!-- Node37&#45;&gt;Node11 -->
<g id="edge56" class="edge"><title>Node37&#45;&gt;Node11</title>
<path fill="none" stroke="midnightblue" d="M2627.87,-79.9094C2852.9,-70.8189 3972.9,-25.5732 4168.37,-17.6766"/>
<polygon fill="midnightblue" stroke="midnightblue" points="4168.61,-21.1702 4178.46,-17.2693 4168.32,-14.1759 4168.61,-21.1702"/>
</g>
<!-- Node37&#45;&gt;Node14 -->
<g id="edge58" class="edge"><title>Node37&#45;&gt;Node14</title>
<path fill="none" stroke="midnightblue" d="M2549.21,-80.3373C2424.56,-76.367 2039.14,-61.8486 1918.5,-31 1916.29,-30.4353 1914.05,-29.7264 1911.82,-28.9274"/>
<polygon fill="midnightblue" stroke="midnightblue" points="1912.96,-25.6097 1902.38,-25.0164 1910.28,-32.0769 1912.96,-25.6097"/>
</g>
<!-- Node37&#45;&gt;Node21 -->
<g id="edge48" class="edge"><title>Node37&#45;&gt;Node21</title>
<path fill="none" stroke="midnightblue" d="M2577.98,-72.7338C2565.35,-62.208 2543.96,-44.3793 2528.64,-31.6174"/>
<polygon fill="midnightblue" stroke="midnightblue" points="2530.78,-28.8404 2520.85,-25.1273 2526.29,-34.218 2530.78,-28.8404"/>
</g>
<!-- Node37&#45;&gt;Node22 -->
<g id="edge49" class="edge"><title>Node37&#45;&gt;Node22</title>
<path fill="none" stroke="midnightblue" d="M2599.15,-72.7338C2611.95,-62.208 2633.62,-44.3793 2649.13,-31.6174"/>
<polygon fill="midnightblue" stroke="midnightblue" points="2651.52,-34.1837 2657.01,-25.1273 2647.07,-28.7782 2651.52,-34.1837"/>
</g>
<!-- Node37&#45;&gt;Node23 -->
<g id="edge50" class="edge"><title>Node37&#45;&gt;Node23</title>
<path fill="none" stroke="midnightblue" d="M2622.36,-72.9355C2668.49,-61.2685 2751.13,-40.3669 2801.86,-27.5367"/>
<polygon fill="midnightblue" stroke="midnightblue" points="2802.73,-30.9286 2811.56,-25.0834 2801.01,-24.1423 2802.73,-30.9286"/>
</g>
<!-- Node37&#45;&gt;Node24 -->
<g id="edge55" class="edge"><title>Node37&#45;&gt;Node24</title>
<path fill="none" stroke="midnightblue" d="M2627.82,-80.2715C2766.75,-75.7915 3247.5,-59.1055 3643.5,-31 3685.55,-28.0153 3733.94,-23.2384 3765.08,-19.9897"/>
<polygon fill="midnightblue" stroke="midnightblue" points="3765.76,-23.4378 3775.34,-18.9098 3765.03,-16.4763 3765.76,-23.4378"/>
</g>
<!-- Node37&#45;&gt;Node25 -->
<g id="edge59" class="edge"><title>Node37&#45;&gt;Node25</title>
<path fill="none" stroke="midnightblue" d="M2560.4,-72.9464C2529.87,-63.4585 2479.79,-47.3245 2437.5,-31 2435.89,-30.3803 2434.25,-29.7264 2432.6,-29.0529"/>
<polygon fill="midnightblue" stroke="midnightblue" points="2433.8,-25.7579 2423.22,-25.0807 2431.07,-32.2036 2433.8,-25.7579"/>
</g>
<!-- Node37&#45;&gt;Node26 -->
<g id="edge52" class="edge"><title>Node37&#45;&gt;Node26</title>
<path fill="none" stroke="midnightblue" d="M2549.17,-80.0486C2432.31,-75.4503 2088.61,-59.7819 1980.5,-31 1978.56,-30.4841 1976.6,-29.8522 1974.64,-29.1439"/>
<polygon fill="midnightblue" stroke="midnightblue" points="1975.76,-25.8139 1965.18,-25.1483 1973.03,-32.2626 1975.76,-25.8139"/>
</g>
<!-- Node37&#45;&gt;Node28 -->
<g id="edge54" class="edge"><title>Node37&#45;&gt;Node28</title>
<path fill="none" stroke="midnightblue" d="M2627.51,-76.0826C2702.34,-65.6003 2863.48,-42.5596 2918.5,-31 2924.86,-29.664 2931.58,-28.0353 2938.05,-26.3583"/>
<polygon fill="midnightblue" stroke="midnightblue" points="2939.15,-29.6865 2947.91,-23.7184 2937.34,-22.9249 2939.15,-29.6865"/>
</g>
<!-- Node38 -->
<g id="node39" class="node"><title>Node38</title>
<polygon fill="white" stroke="#bfbfbf" points="1989.5,-6 1989.5,-25 2045.5,-25 2045.5,-6 1989.5,-6"/>
<text text-anchor="middle" x="2017.5" y="-13" font-family="FreeSans" font-size="10.00">algorithm</text>
</g>
<!-- Node37&#45;&gt;Node38 -->
<g id="edge57" class="edge"><title>Node37&#45;&gt;Node38</title>
<path fill="none" stroke="midnightblue" d="M2549.36,-81.5072C2460.25,-80.7238 2235.9,-74.219 2054.5,-31 2051.67,-30.3254 2048.77,-29.4794 2045.89,-28.5367"/>
<polygon fill="midnightblue" stroke="midnightblue" points="2046.97,-25.205 2036.38,-25.0683 2044.57,-31.7816 2046.97,-25.205"/>
</g>
<!-- Node40 -->
<g id="node41" class="node"><title>Node40</title>
<g id="a_node41"><a xlink:href="Feature_8ipp.html" target="_top" xlink:title="Feature.ipp">
<polygon fill="white" stroke="black" points="1804,-201.5 1804,-220.5 1869,-220.5 1869,-201.5 1804,-201.5"/>
<text text-anchor="middle" x="1836.5" y="-208.5" font-family="FreeSans" font-size="10.00">Feature.ipp</text>
</a>
</g>
</g>
<!-- Node39&#45;&gt;Node40 -->
<g id="edge61" class="edge"><title>Node39&#45;&gt;Node40</title>
<path fill="none" stroke="midnightblue" d="M2067.8,-262.924C2062.24,-260.809 2056.19,-258.673 2050.5,-257 1991.99,-239.802 1922.66,-226.47 1879.12,-218.923"/>
<polygon fill="midnightblue" stroke="midnightblue" points="1879.61,-215.456 1869.16,-217.221 1878.43,-222.356 1879.61,-215.456"/>
</g>
<!-- Node40&#45;&gt;Node1 -->
<g id="edge62" class="edge"><title>Node40&#45;&gt;Node1</title>
<path fill="none" stroke="midnightblue" d="M1835.92,-201.276C1834.73,-175.442 1835.23,-99.1327 1879.5,-67 1880.5,-66.2739 2002.74,-41.5937 2075.21,-27.01"/>
<polygon fill="midnightblue" stroke="midnightblue" points="2075.97,-30.4266 2085.09,-25.0227 2074.59,-23.5641 2075.97,-30.4266"/>
</g>
<!-- Node40&#45;&gt;Node13 -->
<g id="edge91" class="edge"><title>Node40&#45;&gt;Node13</title>
<path fill="none" stroke="midnightblue" d="M1803.77,-208.445C1709.96,-203.824 1432.15,-188.98 1202.5,-165 1174.91,-162.119 1143.41,-157.604 1122.17,-154.378"/>
<polygon fill="midnightblue" stroke="midnightblue" points="1122.49,-150.886 1112.07,-152.824 1121.42,-157.804 1122.49,-150.886"/>
</g>
<!-- Node40&#45;&gt;Node14 -->
<g id="edge93" class="edge"><title>Node40&#45;&gt;Node14</title>
<path fill="none" stroke="midnightblue" d="M1803.67,-208.4C1691.31,-202.768 1328.22,-183.217 1311.5,-165 1302.18,-154.85 1306.58,-146.869 1311.5,-134 1325.77,-96.6628 1335.64,-84.6537 1371.5,-67 1468.07,-19.4655 1750.21,-57.6203 1854.5,-31 1856.71,-30.4362 1858.95,-29.7279 1861.18,-28.9294"/>
<polygon fill="midnightblue" stroke="midnightblue" points="1862.72,-32.0791 1870.62,-25.0192 1860.04,-25.6117 1862.72,-32.0791"/>
</g>
<!-- Node40&#45;&gt;Node21 -->
<g id="edge63" class="edge"><title>Node40&#45;&gt;Node21</title>
<path fill="none" stroke="midnightblue" d="M1843.1,-201.335C1866.27,-170.974 1942.88,-71.0216 1950.5,-67 2046.26,-16.43 2329.17,-45.4379 2436.5,-31 2444.62,-29.9081 2453.19,-28.4838 2461.5,-26.955"/>
<polygon fill="midnightblue" stroke="midnightblue" points="2462.31,-30.365 2471.47,-25.0534 2460.99,-23.4889 2462.31,-30.365"/>
</g>
<!-- Node40&#45;&gt;Node22 -->
<g id="edge64" class="edge"><title>Node40&#45;&gt;Node22</title>
<path fill="none" stroke="midnightblue" d="M1869.07,-207.535C1913.15,-203.276 1993.51,-192.21 2056.5,-165 2078.46,-155.514 2078.55,-143.515 2100.5,-134 2147.3,-113.712 2476.29,-51.7368 2610.6,-26.928"/>
<polygon fill="midnightblue" stroke="midnightblue" points="2611.49,-30.3223 2620.69,-25.0661 2610.22,-23.4385 2611.49,-30.3223"/>
</g>
<!-- Node40&#45;&gt;Node25 -->
<g id="edge92" class="edge"><title>Node40&#45;&gt;Node25</title>
<path fill="none" stroke="midnightblue" d="M1838.46,-201.352C1844.76,-175.728 1867.11,-99.9476 1917.5,-67 1936.5,-54.5758 2263.02,-27.7129 2370.5,-19.1674"/>
<polygon fill="midnightblue" stroke="midnightblue" points="2371.09,-22.6321 2380.78,-18.3531 2370.54,-15.654 2371.09,-22.6321"/>
</g>
<!-- Node40&#45;&gt;Node26 -->
<g id="edge86" class="edge"><title>Node40&#45;&gt;Node26</title>
<path fill="none" stroke="midnightblue" d="M1803.78,-208.375C1718.63,-203.815 1495.24,-189.596 1473.5,-165 1464.38,-154.676 1465.36,-145.114 1473.5,-134 1593.23,29.4046 1723.37,-88.8676 1917.5,-31 1919.43,-30.425 1921.39,-29.7573 1923.35,-29.0304"/>
<polygon fill="midnightblue" stroke="midnightblue" points="1925,-32.1326 1932.89,-25.0569 1922.31,-25.6707 1925,-32.1326"/>
</g>
<!-- Node40&#45;&gt;Node27 -->
<g id="edge89" class="edge"><title>Node40&#45;&gt;Node27</title>
<path fill="none" stroke="midnightblue" d="M1869.07,-208.391C1958.68,-203.701 2207.39,-188.852 2285.5,-165 2286.93,-164.563 2288.37,-164.047 2289.81,-163.475"/>
<polygon fill="midnightblue" stroke="midnightblue" points="2291.42,-166.583 2298.94,-159.12 2288.41,-160.264 2291.42,-166.583"/>
</g>
<!-- Node40&#45;&gt;Node28 -->
<g id="edge88" class="edge"><title>Node40&#45;&gt;Node28</title>
<path fill="none" stroke="midnightblue" d="M1869.04,-208.093C1945,-203.284 2131.94,-189.283 2189.5,-165 2209.9,-156.394 2207.94,-142.209 2228.5,-134 2397.57,-66.5111 2456.81,-127.116 2636.5,-98 2748.24,-79.894 2877.69,-44.2349 2938.12,-26.7108"/>
<polygon fill="midnightblue" stroke="midnightblue" points="2939.28,-30.019 2947.9,-23.8584 2937.32,-23.2991 2939.28,-30.019"/>
</g>
<!-- Node40&#45;&gt;Node29 -->
<g id="edge95" class="edge"><title>Node40&#45;&gt;Node29</title>
<path fill="none" stroke="midnightblue" d="M1869.19,-209.348C1936.58,-207.321 2095.36,-199.01 2223.5,-165 2225.85,-164.375 2228.26,-163.616 2230.65,-162.778"/>
<polygon fill="midnightblue" stroke="midnightblue" points="2232.17,-165.938 2240.19,-159.015 2229.61,-159.425 2232.17,-165.938"/>
</g>
<!-- Node40&#45;&gt;Node31 -->
<g id="edge104" class="edge"><title>Node40&#45;&gt;Node31</title>
<path fill="none" stroke="midnightblue" d="M1855.41,-201.475C1877.66,-191.445 1914.81,-174.7 1940.43,-163.155"/>
<polygon fill="midnightblue" stroke="midnightblue" points="1941.94,-166.309 1949.62,-159.009 1939.07,-159.928 1941.94,-166.309"/>
</g>
<!-- Node40&#45;&gt;Node33 -->
<g id="edge108" class="edge"><title>Node40&#45;&gt;Node33</title>
<path fill="none" stroke="midnightblue" d="M1869.29,-208.674C2050.81,-201.331 2934.69,-165.58 3219.13,-154.074"/>
<polygon fill="midnightblue" stroke="midnightblue" points="3219.55,-157.56 3229.4,-153.659 3219.27,-150.566 3219.55,-157.56"/>
</g>
<!-- Node40&#45;&gt;Node36 -->
<g id="edge96" class="edge"><title>Node40&#45;&gt;Node36</title>
<path fill="none" stroke="midnightblue" d="M1869.03,-205.524C1918.34,-198.477 2014.79,-183.654 2095.5,-165 2099.66,-164.038 2103.99,-162.938 2108.28,-161.782"/>
<polygon fill="midnightblue" stroke="midnightblue" points="2109.45,-165.09 2118.13,-159.026 2107.56,-158.349 2109.45,-165.09"/>
</g>
<!-- Node41 -->
<g id="node42" class="node"><title>Node41</title>
<g id="a_node42"><a xlink:href="boost__dynamic__bitset_8hpp.html" target="_top" xlink:title="../Modified/boost_dynamic\l_bitset.hpp">
<polygon fill="white" stroke="black" points="946.5,-67.5 946.5,-97.5 1074.5,-97.5 1074.5,-67.5 946.5,-67.5"/>
<text text-anchor="start" x="954.5" y="-85.5" font-family="FreeSans" font-size="10.00">../Modified/boost_dynamic</text>
<text text-anchor="middle" x="1010.5" y="-74.5" font-family="FreeSans" font-size="10.00">_bitset.hpp</text>
</a>
</g>
</g>
<!-- Node40&#45;&gt;Node41 -->
<g id="edge65" class="edge"><title>Node40&#45;&gt;Node41</title>
<path fill="none" stroke="midnightblue" d="M1803.96,-209.453C1699.98,-207.383 1376.87,-198.359 1278.5,-165 1254.45,-156.844 1253.9,-143.879 1230.5,-134 1183.95,-114.342 1128.47,-101.675 1084.87,-93.9434"/>
<polygon fill="midnightblue" stroke="midnightblue" points="1085.36,-90.4759 1074.91,-92.2255 1084.17,-97.374 1085.36,-90.4759"/>
</g>
<!-- Node46 -->
<g id="node47" class="node"><title>Node46</title>
<polygon fill="white" stroke="#bfbfbf" points="136.5,-6 136.5,-25 188.5,-25 188.5,-6 136.5,-6"/>
<text text-anchor="middle" x="162.5" y="-13" font-family="FreeSans" font-size="10.00">ostream</text>
</g>
<!-- Node40&#45;&gt;Node46 -->
<g id="edge87" class="edge"><title>Node40&#45;&gt;Node46</title>
<path fill="none" stroke="midnightblue" d="M1803.7,-209.866C1712.23,-209 1446.87,-203.123 1230.5,-165 1180.48,-156.186 1170.13,-144.827 1120.5,-134 931.957,-92.8645 883.229,-88.9204 691.5,-67 472.787,-41.9945 411.702,-81.7764 197.5,-31 194.832,-30.3676 192.105,-29.5566 189.409,-28.642"/>
<polygon fill="midnightblue" stroke="midnightblue" points="190.529,-25.3233 179.939,-25.0095 188.022,-31.8589 190.529,-25.3233"/>
</g>
<!-- Node57 -->
<g id="node58" class="node"><title>Node57</title>
<polygon fill="white" stroke="#bfbfbf" points="1554.5,-140 1554.5,-159 1584.5,-159 1584.5,-140 1554.5,-140"/>
<text text-anchor="middle" x="1569.5" y="-147" font-family="FreeSans" font-size="10.00">set</text>
</g>
<!-- Node40&#45;&gt;Node57 -->
<g id="edge90" class="edge"><title>Node40&#45;&gt;Node57</title>
<path fill="none" stroke="midnightblue" d="M1803.66,-207.678C1755.99,-203.48 1665.49,-192.367 1593.5,-165 1592.62,-164.667 1591.74,-164.302 1590.87,-163.912"/>
<polygon fill="midnightblue" stroke="midnightblue" points="1592.24,-160.679 1581.77,-159.071 1588.95,-166.858 1592.24,-160.679"/>
</g>
<!-- Node58 -->
<g id="node59" class="node"><title>Node58</title>
<polygon fill="white" stroke="#bfbfbf" points="1603,-140 1603,-159 1646,-159 1646,-140 1603,-140"/>
<text text-anchor="middle" x="1624.5" y="-147" font-family="FreeSans" font-size="10.00">queue</text>
</g>
<!-- Node40&#45;&gt;Node58 -->
<g id="edge94" class="edge"><title>Node40&#45;&gt;Node58</title>
<path fill="none" stroke="midnightblue" d="M1803.68,-204.025C1766.76,-196.816 1705.32,-183.34 1654.5,-165 1653.07,-164.485 1651.62,-163.922 1650.17,-163.328"/>
<polygon fill="midnightblue" stroke="midnightblue" points="1651.3,-160 1640.74,-159.107 1648.44,-166.388 1651.3,-160"/>
</g>
<!-- Node59 -->
<g id="node60" class="node"><title>Node59</title>
<g id="a_node60"><a xlink:href="Descriptor_8h.html" target="_top" xlink:title="Descriptor.h">
<polygon fill="white" stroke="black" points="1320.5,-140 1320.5,-159 1388.5,-159 1388.5,-140 1320.5,-140"/>
<text text-anchor="middle" x="1354.5" y="-147" font-family="FreeSans" font-size="10.00">Descriptor.h</text>
</a>
</g>
</g>
<!-- Node40&#45;&gt;Node59 -->
<g id="edge97" class="edge"><title>Node40&#45;&gt;Node59</title>
<path fill="none" stroke="midnightblue" d="M1803.83,-206.889C1735.99,-200.296 1574.96,-183.961 1440.5,-165 1426.88,-163.079 1412.1,-160.696 1398.69,-158.42"/>
<polygon fill="midnightblue" stroke="midnightblue" points="1399.2,-154.956 1388.75,-156.71 1398.01,-161.855 1399.2,-154.956"/>
</g>
<!-- Node60 -->
<g id="node61" class="node"><title>Node60</title>
<g id="a_node61"><a xlink:href="RoI_8h.html" target="_top" xlink:title="RoI.h">
<polygon fill="white" stroke="black" points="2079,-73 2079,-92 2118,-92 2118,-73 2079,-73"/>
<text text-anchor="middle" x="2098.5" y="-80" font-family="FreeSans" font-size="10.00">RoI.h</text>
</a>
</g>
</g>
<!-- Node40&#45;&gt;Node60 -->
<g id="edge101" class="edge"><title>Node40&#45;&gt;Node60</title>
<path fill="none" stroke="midnightblue" d="M1869.06,-207.918C1908.16,-204.175 1974.57,-193.772 2023.5,-165 2051.01,-148.825 2074.37,-119.37 2087.4,-100.651"/>
<polygon fill="midnightblue" stroke="midnightblue" points="2090.41,-102.449 2093.09,-92.1986 2084.6,-98.5395 2090.41,-102.449"/>
</g>
<!-- Node61 -->
<g id="node62" class="node"><title>Node61</title>
<g id="a_node62"><a xlink:href="TaggedData_8h.html" target="_top" xlink:title="../DataStructures/Tagged\lData.h">
<polygon fill="white" stroke="black" points="1664,-134.5 1664,-164.5 1789,-164.5 1789,-134.5 1664,-134.5"/>
<text text-anchor="start" x="1672" y="-152.5" font-family="FreeSans" font-size="10.00">../DataStructures/Tagged</text>
<text text-anchor="middle" x="1726.5" y="-141.5" font-family="FreeSans" font-size="10.00">Data.h</text>
</a>
</g>
</g>
<!-- Node40&#45;&gt;Node61 -->
<g id="edge105" class="edge"><title>Node40&#45;&gt;Node61</title>
<path fill="none" stroke="midnightblue" d="M1820.74,-201.475C1805.28,-193.115 1781.2,-180.09 1761.25,-169.299"/>
<polygon fill="midnightblue" stroke="midnightblue" points="1762.89,-166.202 1752.42,-164.523 1759.56,-172.359 1762.89,-166.202"/>
</g>
<!-- Node63 -->
<g id="node64" class="node"><title>Node63</title>
<polygon fill="white" stroke="#bfbfbf" points="1482.5,-140 1482.5,-159 1536.5,-159 1536.5,-140 1482.5,-140"/>
<text text-anchor="middle" x="1509.5" y="-147" font-family="FreeSans" font-size="10.00">iostream</text>
</g>
<!-- Node40&#45;&gt;Node63 -->
<g id="edge109" class="edge"><title>Node40&#45;&gt;Node63</title>
<path fill="none" stroke="midnightblue" d="M1803.69,-207.397C1749.26,-202.533 1637.19,-190.194 1545.5,-165 1543,-164.313 1540.44,-163.504 1537.89,-162.626"/>
<polygon fill="midnightblue" stroke="midnightblue" points="1538.87,-159.256 1528.28,-159.008 1536.4,-165.807 1538.87,-159.256"/>
</g>
<!-- Node41&#45;&gt;Node7 -->
<g id="edge68" class="edge"><title>Node41&#45;&gt;Node7</title>
<path fill="none" stroke="midnightblue" d="M946.412,-80.6543C762.576,-77.8189 235.901,-66.7197 67.5,-31 64.4218,-30.3471 61.2639,-29.4821 58.1472,-28.4987"/>
<polygon fill="midnightblue" stroke="midnightblue" points="59.0748,-25.1141 48.4801,-25.0683 56.7339,-31.7111 59.0748,-25.1141"/>
</g>
<!-- Node41&#45;&gt;Node8 -->
<g id="edge67" class="edge"><title>Node41&#45;&gt;Node8</title>
<path fill="none" stroke="midnightblue" d="M946.445,-78.5241C750.016,-69.3076 167.004,-41.242 127.5,-31 125.568,-30.4991 123.612,-29.8699 121.673,-29.1561"/>
<polygon fill="midnightblue" stroke="midnightblue" points="122.884,-25.866 112.319,-25.0835 120.09,-32.2842 122.884,-25.866"/>
</g>
<!-- Node41&#45;&gt;Node14 -->
<g id="edge71" class="edge"><title>Node41&#45;&gt;Node14</title>
<path fill="none" stroke="midnightblue" d="M1074.67,-68.8519C1079.34,-68.1526 1083.98,-67.5233 1088.5,-67 1257.78,-47.3815 1688.82,-70.8787 1854.5,-31 1856.72,-30.4665 1858.97,-29.7798 1861.2,-28.9958"/>
<polygon fill="midnightblue" stroke="midnightblue" points="1862.73,-32.1509 1870.64,-25.1112 1860.07,-25.6767 1862.73,-32.1509"/>
</g>
<!-- Node41&#45;&gt;Node26 -->
<g id="edge70" class="edge"><title>Node41&#45;&gt;Node26</title>
<path fill="none" stroke="midnightblue" d="M1074.79,-78.2376C1278.42,-67.8633 1897.04,-36.0191 1917.5,-31 1919.71,-30.4569 1921.96,-29.7634 1924.19,-28.9749"/>
<polygon fill="midnightblue" stroke="midnightblue" points="1925.73,-32.1282 1933.64,-25.0821 1923.06,-25.6561 1925.73,-32.1282"/>
</g>
<!-- Node41&#45;&gt;Node38 -->
<g id="edge69" class="edge"><title>Node41&#45;&gt;Node38</title>
<path fill="none" stroke="midnightblue" d="M1074.86,-78.7176C1284.41,-69.5832 1936.28,-40.5527 1980.5,-31 1983.51,-30.3508 1986.59,-29.4883 1989.62,-28.5063"/>
<polygon fill="midnightblue" stroke="midnightblue" points="1990.84,-31.7879 1999.04,-25.0778 1988.45,-25.2103 1990.84,-31.7879"/>
</g>
<!-- Node42 -->
<g id="node43" class="node"><title>Node42</title>
<polygon fill="white" stroke="#bfbfbf" points="1668,-6 1668,-25 1719,-25 1719,-6 1668,-6"/>
<text text-anchor="middle" x="1693.5" y="-13" font-family="FreeSans" font-size="10.00">assert.h</text>
</g>
<!-- Node41&#45;&gt;Node42 -->
<g id="edge66" class="edge"><title>Node41&#45;&gt;Node42</title>
<path fill="none" stroke="midnightblue" d="M1074.68,-68.9347C1079.35,-68.2159 1083.99,-67.5596 1088.5,-67 1340.41,-35.7466 1411.23,-88.3545 1658.5,-31 1661.17,-30.3805 1663.9,-29.5782 1666.6,-28.6692"/>
<polygon fill="midnightblue" stroke="midnightblue" points="1667.98,-31.8876 1676.07,-25.0446 1665.48,-25.3499 1667.98,-31.8876"/>
</g>
<!-- Node43 -->
<g id="node44" class="node"><title>Node43</title>
<polygon fill="white" stroke="#bfbfbf" points="1737,-0.5 1737,-30.5 1846,-30.5 1846,-0.5 1737,-0.5"/>
<text text-anchor="start" x="1745" y="-18.5" font-family="FreeSans" font-size="10.00">boost/dynamic_bitset</text>
<text text-anchor="middle" x="1791.5" y="-7.5" font-family="FreeSans" font-size="10.00">/config.hpp</text>
</g>
<!-- Node41&#45;&gt;Node43 -->
<g id="edge72" class="edge"><title>Node41&#45;&gt;Node43</title>
<path fill="none" stroke="midnightblue" d="M1074.67,-68.8998C1079.34,-68.1892 1083.99,-67.5443 1088.5,-67 1367.59,-33.336 1444.03,-69.6914 1726.66,-30.9338"/>
<polygon fill="midnightblue" stroke="midnightblue" points="1727.38,-34.3675 1736.8,-29.5231 1726.41,-27.4343 1727.38,-34.3675"/>
</g>
<!-- Node44 -->
<g id="node45" class="node"><title>Node44</title>
<polygon fill="white" stroke="#bfbfbf" points="206.5,-6 206.5,-25 248.5,-25 248.5,-6 206.5,-6"/>
<text text-anchor="middle" x="227.5" y="-13" font-family="FreeSans" font-size="10.00">locale</text>
</g>
<!-- Node41&#45;&gt;Node44 -->
<g id="edge73" class="edge"><title>Node41&#45;&gt;Node44</title>
<path fill="none" stroke="midnightblue" d="M946.329,-68.8844C941.659,-68.1774 937.013,-67.5375 932.5,-67 634.182,-31.4705 548.456,-105.837 257.5,-31 255.567,-30.5029 253.61,-29.8764 251.671,-29.1644"/>
<polygon fill="midnightblue" stroke="midnightblue" points="252.882,-25.8741 242.315,-25.0957 250.09,-32.2934 252.882,-25.8741"/>
</g>
<!-- Node45 -->
<g id="node46" class="node"><title>Node45</title>
<polygon fill="white" stroke="#bfbfbf" points="267,-6 267,-25 316,-25 316,-6 267,-6"/>
<text text-anchor="middle" x="291.5" y="-13" font-family="FreeSans" font-size="10.00">istream</text>
</g>
<!-- Node41&#45;&gt;Node45 -->
<g id="edge74" class="edge"><title>Node41&#45;&gt;Node45</title>
<path fill="none" stroke="midnightblue" d="M946.325,-68.9145C941.657,-68.2005 937.012,-67.5508 932.5,-67 663.799,-34.1993 587.656,-94.4428 324.5,-31 322.139,-30.4308 319.735,-29.7008 317.356,-28.872"/>
<polygon fill="midnightblue" stroke="midnightblue" points="318.47,-25.5479 307.887,-25.0667 315.86,-32.0431 318.47,-25.5479"/>
</g>
<!-- Node41&#45;&gt;Node46 -->
<g id="edge75" class="edge"><title>Node41&#45;&gt;Node46</title>
<path fill="none" stroke="midnightblue" d="M946.331,-68.8621C941.661,-68.1604 937.015,-67.5277 932.5,-67 607.654,-29.0261 516.615,-102.645 197.5,-31 194.825,-30.3994 192.093,-29.6098 189.393,-28.7089"/>
<polygon fill="midnightblue" stroke="midnightblue" points="190.51,-25.3889 179.919,-25.0959 188.016,-31.9295 190.51,-25.3889"/>
</g>
<!-- Node47 -->
<g id="node48" class="node"><title>Node47</title>
<polygon fill="white" stroke="#bfbfbf" points="334,-0.5 334,-30.5 443,-30.5 443,-0.5 334,-0.5"/>
<text text-anchor="start" x="342" y="-18.5" font-family="FreeSans" font-size="10.00">boost/dynamic_bitset</text>
<text text-anchor="middle" x="388.5" y="-7.5" font-family="FreeSans" font-size="10.00">_fwd.hpp</text>
</g>
<!-- Node41&#45;&gt;Node47 -->
<g id="edge76" class="edge"><title>Node41&#45;&gt;Node47</title>
<path fill="none" stroke="midnightblue" d="M946.315,-68.9952C941.649,-68.2622 937.007,-67.5862 932.5,-67 723.565,-39.8269 665.807,-62.0282 453.129,-30.9273"/>
<polygon fill="midnightblue" stroke="midnightblue" points="453.617,-27.4616 443.212,-29.4552 452.59,-34.3857 453.617,-27.4616"/>
</g>
<!-- Node48 -->
<g id="node49" class="node"><title>Node48</title>
<polygon fill="white" stroke="#bfbfbf" points="461.5,-0.5 461.5,-30.5 567.5,-30.5 567.5,-0.5 461.5,-0.5"/>
<text text-anchor="start" x="469.5" y="-18.5" font-family="FreeSans" font-size="10.00">boost/detail/dynamic</text>
<text text-anchor="middle" x="514.5" y="-7.5" font-family="FreeSans" font-size="10.00">_bitset.hpp</text>
</g>
<!-- Node41&#45;&gt;Node48 -->
<g id="edge77" class="edge"><title>Node41&#45;&gt;Node48</title>
<path fill="none" stroke="midnightblue" d="M946.297,-69.128C941.635,-68.3639 936.999,-67.6446 932.5,-67 778.306,-44.9105 735.122,-56.6553 577.559,-31.0308"/>
<polygon fill="midnightblue" stroke="midnightblue" points="577.946,-27.5474 567.509,-29.3714 576.805,-34.4539 577.946,-27.5474"/>
</g>
<!-- Node49 -->
<g id="node50" class="node"><title>Node49</title>
<polygon fill="white" stroke="#bfbfbf" points="585.5,-6 585.5,-25 703.5,-25 703.5,-6 585.5,-6"/>
<text text-anchor="middle" x="644.5" y="-13" font-family="FreeSans" font-size="10.00">boost/detail/iterator.hpp</text>
</g>
<!-- Node41&#45;&gt;Node49 -->
<g id="edge78" class="edge"><title>Node41&#45;&gt;Node49</title>
<path fill="none" stroke="midnightblue" d="M946.247,-69.4418C941.597,-68.6041 936.977,-67.7824 932.5,-67 834.901,-49.9449 809.867,-49.3365 712.5,-31 706.194,-29.8125 699.576,-28.493 693.045,-27.1475"/>
<polygon fill="midnightblue" stroke="midnightblue" points="693.42,-23.65 682.915,-25.0269 691.985,-30.5015 693.42,-23.65"/>
</g>
<!-- Node50 -->
<g id="node51" class="node"><title>Node50</title>
<polygon fill="white" stroke="#bfbfbf" points="722,-6 722,-25 835,-25 835,-6 722,-6"/>
<text text-anchor="middle" x="778.5" y="-13" font-family="FreeSans" font-size="10.00">boost/move/move.hpp</text>
</g>
<!-- Node41&#45;&gt;Node50 -->
<g id="edge79" class="edge"><title>Node41&#45;&gt;Node50</title>
<path fill="none" stroke="midnightblue" d="M960.445,-67.476C918.046,-55.5971 858.047,-38.787 818.717,-27.7676"/>
<polygon fill="midnightblue" stroke="midnightblue" points="819.514,-24.3563 808.941,-25.0287 817.626,-31.0968 819.514,-24.3563"/>
</g>
<!-- Node51 -->
<g id="node52" class="node"><title>Node51</title>
<polygon fill="white" stroke="#bfbfbf" points="853,-6 853,-25 938,-25 938,-6 853,-6"/>
<text text-anchor="middle" x="895.5" y="-13" font-family="FreeSans" font-size="10.00">boost/limits.hpp</text>
</g>
<!-- Node41&#45;&gt;Node51 -->
<g id="edge80" class="edge"><title>Node41&#45;&gt;Node51</title>
<path fill="none" stroke="midnightblue" d="M985.547,-67.396C965.904,-56.2938 938.707,-40.9211 919.354,-29.9825"/>
<polygon fill="midnightblue" stroke="midnightblue" points="920.979,-26.8807 910.551,-25.007 917.534,-32.9746 920.979,-26.8807"/>
</g>
<!-- Node52 -->
<g id="node53" class="node"><title>Node52</title>
<polygon fill="white" stroke="#bfbfbf" points="956,-0.5 956,-30.5 1065,-30.5 1065,-0.5 956,-0.5"/>
<text text-anchor="start" x="964" y="-18.5" font-family="FreeSans" font-size="10.00">boost/pending/lowest</text>
<text text-anchor="middle" x="1010.5" y="-7.5" font-family="FreeSans" font-size="10.00">_bit.hpp</text>
</g>
<!-- Node41&#45;&gt;Node52 -->
<g id="edge81" class="edge"><title>Node41&#45;&gt;Node52</title>
<path fill="none" stroke="midnightblue" d="M1010.5,-67.396C1010.5,-59.6448 1010.5,-49.8122 1010.5,-40.8601"/>
<polygon fill="midnightblue" stroke="midnightblue" points="1014,-40.5765 1010.5,-30.5765 1007,-40.5765 1014,-40.5765"/>
</g>
<!-- Node53 -->
<g id="node54" class="node"><title>Node53</title>
<polygon fill="white" stroke="#bfbfbf" points="1083.5,-6 1083.5,-25 1201.5,-25 1201.5,-6 1083.5,-6"/>
<text text-anchor="middle" x="1142.5" y="-13" font-family="FreeSans" font-size="10.00">boost/static_assert.hpp</text>
</g>
<!-- Node41&#45;&gt;Node53 -->
<g id="edge82" class="edge"><title>Node41&#45;&gt;Node53</title>
<path fill="none" stroke="midnightblue" d="M1039.14,-67.396C1062,-56.1424 1093.76,-40.501 1116.02,-29.5375"/>
<polygon fill="midnightblue" stroke="midnightblue" points="1117.8,-32.5647 1125.22,-25.007 1114.71,-26.2848 1117.8,-32.5647"/>
</g>
<!-- Node54 -->
<g id="node55" class="node"><title>Node54</title>
<polygon fill="white" stroke="#bfbfbf" points="1219.5,-6 1219.5,-25 1349.5,-25 1349.5,-6 1219.5,-6"/>
<text text-anchor="middle" x="1284.5" y="-13" font-family="FreeSans" font-size="10.00">boost/utility/addressof.hpp</text>
</g>
<!-- Node41&#45;&gt;Node54 -->
<g id="edge83" class="edge"><title>Node41&#45;&gt;Node54</title>
<path fill="none" stroke="midnightblue" d="M1069.62,-67.476C1120.33,-55.4457 1192.36,-38.3579 1238.77,-27.3493"/>
<polygon fill="midnightblue" stroke="midnightblue" points="1239.63,-30.7424 1248.55,-25.0287 1238.01,-23.9315 1239.63,-30.7424"/>
</g>
<!-- Node55 -->
<g id="node56" class="node"><title>Node55</title>
<polygon fill="white" stroke="#bfbfbf" points="1367.5,-0.5 1367.5,-30.5 1499.5,-30.5 1499.5,-0.5 1367.5,-0.5"/>
<text text-anchor="start" x="1375.5" y="-18.5" font-family="FreeSans" font-size="10.00">boost/detail/no_exceptions</text>
<text text-anchor="middle" x="1433.5" y="-7.5" font-family="FreeSans" font-size="10.00">_support.hpp</text>
</g>
<!-- Node41&#45;&gt;Node55 -->
<g id="edge84" class="edge"><title>Node41&#45;&gt;Node55</title>
<path fill="none" stroke="midnightblue" d="M1074.73,-69.2905C1079.38,-68.4883 1084.01,-67.716 1088.5,-67 1204.9,-48.4335 1237.32,-50.3779 1357.34,-31.1305"/>
<polygon fill="midnightblue" stroke="midnightblue" points="1357.97,-34.5734 1367.28,-29.5193 1356.85,-27.6634 1357.97,-34.5734"/>
</g>
<!-- Node56 -->
<g id="node57" class="node"><title>Node56</title>
<polygon fill="white" stroke="#bfbfbf" points="1517.5,-6 1517.5,-25 1649.5,-25 1649.5,-6 1517.5,-6"/>
<text text-anchor="middle" x="1583.5" y="-13" font-family="FreeSans" font-size="10.00">boost/throw_exception.hpp</text>
</g>
<!-- Node41&#45;&gt;Node56 -->
<g id="edge85" class="edge"><title>Node41&#45;&gt;Node56</title>
<path fill="none" stroke="midnightblue" d="M1074.69,-69.0498C1079.36,-68.304 1084,-67.6102 1088.5,-67 1274.16,-41.8489 1322.94,-56.8172 1508.5,-31 1516.62,-29.8697 1525.2,-28.4391 1533.54,-26.9193"/>
<polygon fill="midnightblue" stroke="midnightblue" points="1534.36,-30.326 1543.54,-25.0356 1533.06,-23.4469 1534.36,-30.326"/>
</g>
<!-- Node59&#45;&gt;Node5 -->
<g id="edge99" class="edge"><title>Node59&#45;&gt;Node5</title>
<path fill="none" stroke="midnightblue" d="M1388.53,-143.525C1412.28,-140.256 1444.76,-136.191 1473.5,-134 1989.14,-94.685 2122.23,-152.343 2636.5,-98 2802.26,-80.4842 2843.82,-71.5374 3005.5,-31 3008.95,-30.1354 3012.52,-29.1483 3016.07,-28.1049"/>
<polygon fill="midnightblue" stroke="midnightblue" points="3017.39,-31.3611 3025.91,-25.0702 3015.32,-24.6718 3017.39,-31.3611"/>
</g>
<!-- Node59&#45;&gt;Node26 -->
<g id="edge100" class="edge"><title>Node59&#45;&gt;Node26</title>
<path fill="none" stroke="midnightblue" d="M1356.66,-139.959C1361.53,-122.713 1375.13,-83.9368 1402.5,-67 1500.05,-6.62876 1806.28,-59.1184 1917.5,-31 1919.71,-30.4413 1921.96,-29.7366 1924.18,-28.9406"/>
<polygon fill="midnightblue" stroke="midnightblue" points="1925.72,-32.0911 1933.63,-25.0346 1923.05,-25.6226 1925.72,-32.0911"/>
</g>
<!-- Node59&#45;&gt;Node41 -->
<g id="edge98" class="edge"><title>Node59&#45;&gt;Node41</title>
<path fill="none" stroke="midnightblue" d="M1320.26,-142.03C1265.64,-131.71 1157.54,-111.284 1084.62,-97.5059"/>
<polygon fill="midnightblue" stroke="midnightblue" points="1085.05,-94.0251 1074.58,-95.6075 1083.75,-100.903 1085.05,-94.0251"/>
</g>
<!-- Node60&#45;&gt;Node5 -->
<g id="edge102" class="edge"><title>Node60&#45;&gt;Node5</title>
<path fill="none" stroke="midnightblue" d="M2118.15,-80.7085C2242.28,-75.6676 2915.47,-47.7242 3005.5,-31 3009.68,-30.2242 3014,-29.1695 3018.25,-27.9805"/>
<polygon fill="midnightblue" stroke="midnightblue" points="3019.36,-31.3008 3027.9,-25.0299 3017.31,-24.6067 3019.36,-31.3008"/>
</g>
<!-- Node60&#45;&gt;Node26 -->
<g id="edge103" class="edge"><title>Node60&#45;&gt;Node26</title>
<path fill="none" stroke="midnightblue" d="M2082.05,-72.9901C2077.98,-70.9635 2073.6,-68.8527 2069.5,-67 2030.61,-49.4451 2019.62,-48.0451 1980.5,-31 1979.31,-30.4793 1978.09,-29.9414 1976.86,-29.393"/>
<polygon fill="midnightblue" stroke="midnightblue" points="1978.01,-26.0698 1967.46,-25.0968 1975.1,-32.4366 1978.01,-26.0698"/>
</g>
<!-- Node62 -->
<g id="node63" class="node"><title>Node62</title>
<g id="a_node63"><a xlink:href="TaggedData_8ipp.html" target="_top" xlink:title="TaggedData.ipp">
<polygon fill="white" stroke="black" points="1694.5,-73 1694.5,-92 1778.5,-92 1778.5,-73 1694.5,-73"/>
<text text-anchor="middle" x="1736.5" y="-80" font-family="FreeSans" font-size="10.00">TaggedData.ipp</text>
</a>
</g>
</g>
<!-- Node61&#45;&gt;Node62 -->
<g id="edge106" class="edge"><title>Node61&#45;&gt;Node62</title>
<path fill="none" stroke="midnightblue" d="M1728.67,-134.396C1730.12,-124.963 1732.05,-112.448 1733.62,-102.189"/>
<polygon fill="midnightblue" stroke="midnightblue" points="1737.1,-102.61 1735.16,-92.1945 1730.18,-101.546 1737.1,-102.61"/>
</g>
<!-- Node62&#45;&gt;Node1 -->
<g id="edge107" class="edge"><title>Node62&#45;&gt;Node1</title>
<path fill="none" stroke="midnightblue" d="M1773.62,-72.9777C1783.32,-70.8854 1793.78,-68.747 1803.5,-67 1914.42,-47.0686 1943.41,-49.9849 2054.5,-31 2061.68,-29.7729 2069.24,-28.3831 2076.66,-26.9617"/>
<polygon fill="midnightblue" stroke="midnightblue" points="2077.5,-30.3639 2086.65,-25.0162 2076.16,-23.493 2077.5,-30.3639"/>
</g>
<!-- Node65 -->
<g id="node66" class="node"><title>Node65</title>
<g id="a_node66"><a xlink:href="Polynomial_8ipp.html" target="_top" xlink:title="Polynomial.ipp">
<polygon fill="white" stroke="black" points="3943,-324.5 3943,-343.5 4022,-343.5 4022,-324.5 3943,-324.5"/>
<text text-anchor="middle" x="3982.5" y="-331.5" font-family="FreeSans" font-size="10.00">Polynomial.ipp</text>
</a>
</g>
</g>
<!-- Node64&#45;&gt;Node65 -->
<g id="edge111" class="edge"><title>Node64&#45;&gt;Node65</title>
<path fill="none" stroke="midnightblue" d="M3906.93,-436.368C3920.53,-418.135 3952.36,-375.426 3970.07,-351.675"/>
<polygon fill="midnightblue" stroke="midnightblue" points="3972.92,-353.701 3976.1,-343.591 3967.31,-349.517 3972.92,-353.701"/>
</g>
<!-- Node65&#45;&gt;Node4 -->
<g id="edge112" class="edge"><title>Node65&#45;&gt;Node4</title>
<path fill="none" stroke="midnightblue" d="M3951.41,-324.475C3918.82,-315.54 3866.79,-301.274 3826.05,-290.104"/>
<polygon fill="midnightblue" stroke="midnightblue" points="3826.79,-286.677 3816.22,-287.408 3824.94,-293.428 3826.79,-286.677"/>
</g>
<!-- Node65&#45;&gt;Node5 -->
<g id="edge115" class="edge"><title>Node65&#45;&gt;Node5</title>
<path fill="none" stroke="midnightblue" d="M3980.85,-324.078C3977.3,-307.625 3967.22,-272.751 3943.5,-257 3855.31,-198.443 3562.84,-269.018 3468.5,-221 3423.26,-197.974 3436.05,-163.166 3394.5,-134 3324.97,-85.1937 3295.93,-94.3318 3215.5,-67 3173.09,-52.5867 3123.93,-37.7816 3090.37,-27.9599"/>
<polygon fill="midnightblue" stroke="midnightblue" points="3091.06,-24.5161 3080.48,-25.0778 3089.1,-31.2364 3091.06,-24.5161"/>
</g>
<!-- Node65&#45;&gt;Node11 -->
<g id="edge117" class="edge"><title>Node65&#45;&gt;Node11</title>
<path fill="none" stroke="midnightblue" d="M4022.05,-331.662C4060.15,-328.483 4117.57,-318.5 4156.5,-288 4186.71,-264.33 4197.5,-250.38 4197.5,-212 4197.5,-212 4197.5,-212 4197.5,-148.5 4197.5,-108.158 4197.5,-60.8801 4197.5,-35.2818"/>
<polygon fill="midnightblue" stroke="midnightblue" points="4201,-35.1487 4197.5,-25.1487 4194,-35.1488 4201,-35.1487"/>
</g>
<!-- Node65&#45;&gt;Node12 -->
<g id="edge118" class="edge"><title>Node65&#45;&gt;Node12</title>
<path fill="none" stroke="midnightblue" d="M4022.21,-327.004C4068.2,-319.644 4146.04,-305.905 4211.5,-288 4214.46,-287.19 4217.52,-286.27 4220.57,-285.298"/>
<polygon fill="midnightblue" stroke="midnightblue" points="4221.77,-288.585 4230.13,-282.075 4219.54,-281.951 4221.77,-288.585"/>
</g>
<!-- Node65&#45;&gt;Node24 -->
<g id="edge119" class="edge"><title>Node65&#45;&gt;Node24</title>
<path fill="none" stroke="midnightblue" d="M4022.07,-327.231C4064.04,-320.205 4126.24,-306.893 4140.5,-288 4148.8,-277.004 4145.24,-269.935 4140.5,-257 4102.39,-153.082 4072.73,-126.659 3979.5,-67 3932.67,-37.0317 3868.03,-24.6077 3829.72,-19.6344"/>
<polygon fill="midnightblue" stroke="midnightblue" points="3830,-16.1424 3819.65,-18.4209 3829.16,-23.0922 3830,-16.1424"/>
</g>
<!-- Node66 -->
<g id="node67" class="node"><title>Node66</title>
<polygon fill="white" stroke="#bfbfbf" points="3834,-257.5 3834,-287.5 3935,-287.5 3935,-257.5 3834,-257.5"/>
<text text-anchor="start" x="3842" y="-275.5" font-family="FreeSans" font-size="10.00">boost/math/special</text>
<text text-anchor="middle" x="3884.5" y="-264.5" font-family="FreeSans" font-size="10.00">_functions/sign.hpp</text>
</g>
<!-- Node65&#45;&gt;Node66 -->
<g id="edge113" class="edge"><title>Node65&#45;&gt;Node66</title>
<path fill="none" stroke="midnightblue" d="M3968.46,-324.475C3954.94,-316.266 3934.01,-303.558 3916.43,-292.885"/>
<polygon fill="midnightblue" stroke="midnightblue" points="3917.96,-289.721 3907.6,-287.523 3914.33,-295.705 3917.96,-289.721"/>
</g>
<!-- Node67 -->
<g id="node68" class="node"><title>Node67</title>
<polygon fill="white" stroke="#bfbfbf" points="3586,-257.5 3586,-287.5 3697,-287.5 3697,-257.5 3586,-257.5"/>
<text text-anchor="start" x="3594" y="-275.5" font-family="FreeSans" font-size="10.00">boost/math/constants</text>
<text text-anchor="middle" x="3641.5" y="-264.5" font-family="FreeSans" font-size="10.00">/constants.hpp</text>
</g>
<!-- Node65&#45;&gt;Node67 -->
<g id="edge114" class="edge"><title>Node65&#45;&gt;Node67</title>
<path fill="none" stroke="midnightblue" d="M3942.91,-327.355C3890.98,-319.776 3796.8,-305.441 3707.34,-288.296"/>
<polygon fill="midnightblue" stroke="midnightblue" points="3707.79,-284.818 3697.3,-286.357 3706.46,-291.69 3707.79,-284.818"/>
</g>
<!-- Node68 -->
<g id="node69" class="node"><title>Node68</title>
<polygon fill="white" stroke="#bfbfbf" points="4030,-257.5 4030,-287.5 4131,-287.5 4131,-257.5 4030,-257.5"/>
<text text-anchor="start" x="4038" y="-275.5" font-family="FreeSans" font-size="10.00">eigen3/unsupported</text>
<text text-anchor="middle" x="4080.5" y="-264.5" font-family="FreeSans" font-size="10.00">/Eigen/Polynomials</text>
</g>
<!-- Node65&#45;&gt;Node68 -->
<g id="edge116" class="edge"><title>Node65&#45;&gt;Node68</title>
<path fill="none" stroke="midnightblue" d="M3996.54,-324.475C4010.06,-316.266 4030.99,-303.558 4048.57,-292.885"/>
<polygon fill="midnightblue" stroke="midnightblue" points="4050.67,-295.705 4057.4,-287.523 4047.04,-289.721 4050.67,-295.705"/>
</g>
<!-- Node69 -->
<g id="node70" class="node"><title>Node69</title>
<polygon fill="white" stroke="#bfbfbf" points="3897.5,-140 3897.5,-159 3937.5,-159 3937.5,-140 3897.5,-140"/>
<text text-anchor="middle" x="3917.5" y="-147" font-family="FreeSans" font-size="10.00">limits</text>
</g>
<!-- Node65&#45;&gt;Node69 -->
<g id="edge120" class="edge"><title>Node65&#45;&gt;Node69</title>
<path fill="none" stroke="midnightblue" d="M3983.16,-324.348C3983.98,-310.011 3984.52,-280.572 3977.5,-257 3967.26,-222.605 3944.37,-187.181 3930.01,-167.094"/>
<polygon fill="midnightblue" stroke="midnightblue" points="3932.82,-165.005 3924.09,-159.003 3927.17,-169.14 3932.82,-165.005"/>
</g>
<!-- Node70&#45;&gt;Node5 -->
<g id="edge146" class="edge"><title>Node70&#45;&gt;Node5</title>
<path fill="none" stroke="midnightblue" d="M3094.58,-380.472C3126.29,-341.17 3250.67,-174.832 3177.5,-67 3159.41,-40.3322 3124.76,-27.7467 3096.22,-21.8073"/>
<polygon fill="midnightblue" stroke="midnightblue" points="3096.5,-18.2985 3086.03,-19.906 3095.22,-25.1799 3096.5,-18.2985"/>
</g>
<!-- Node71 -->
<g id="node72" class="node"><title>Node71</title>
<g id="a_node72"><a xlink:href="LinearAlgebra_8ipp.html" target="_top" xlink:title="LinearAlgebra.ipp">
<polygon fill="white" stroke="black" points="3257.5,-324.5 3257.5,-343.5 3349.5,-343.5 3349.5,-324.5 3257.5,-324.5"/>
<text text-anchor="middle" x="3303.5" y="-331.5" font-family="FreeSans" font-size="10.00">LinearAlgebra.ipp</text>
</a>
</g>
</g>
<!-- Node70&#45;&gt;Node71 -->
<g id="edge122" class="edge"><title>Node70&#45;&gt;Node71</title>
<path fill="none" stroke="midnightblue" d="M3121.73,-380.444C3159.01,-371.122 3218.77,-356.183 3259.51,-345.997"/>
<polygon fill="midnightblue" stroke="midnightblue" points="3260.58,-349.337 3269.43,-343.516 3258.88,-342.546 3260.58,-349.337"/>
</g>
<!-- Node71&#45;&gt;Node1 -->
<g id="edge123" class="edge"><title>Node71&#45;&gt;Node1</title>
<path fill="none" stroke="midnightblue" d="M3279.06,-324.487C3226.92,-306.455 3106.06,-265.373 3063.5,-257 2871.42,-219.211 2817.54,-253.577 2624.5,-221 2526.28,-204.425 2501.13,-198.974 2407.5,-165 2391.19,-159.084 2281.83,-106.117 2266.5,-98 2224.7,-75.8691 2177.49,-47.4233 2150.24,-30.6558"/>
<polygon fill="midnightblue" stroke="midnightblue" points="2151.82,-27.5202 2141.48,-25.2415 2148.15,-33.4753 2151.82,-27.5202"/>
</g>
<!-- Node71&#45;&gt;Node2 -->
<g id="edge124" class="edge"><title>Node71&#45;&gt;Node2</title>
<path fill="none" stroke="midnightblue" d="M3257.3,-331.745C3083.42,-326.965 2451.81,-309.106 1931.5,-288 1847.16,-284.579 1749.52,-279.686 1689.13,-276.551"/>
<polygon fill="midnightblue" stroke="midnightblue" points="1689.2,-273.05 1679.03,-276.025 1688.84,-280.041 1689.2,-273.05"/>
</g>
<!-- Node71&#45;&gt;Node4 -->
<g id="edge125" class="edge"><title>Node71&#45;&gt;Node4</title>
<path fill="none" stroke="midnightblue" d="M3349.59,-329.735C3422.76,-324.138 3570.13,-311.183 3704.77,-287.974"/>
<polygon fill="midnightblue" stroke="midnightblue" points="3705.61,-291.382 3714.86,-286.213 3704.4,-284.486 3705.61,-291.382"/>
</g>
<!-- Node71&#45;&gt;Node6 -->
<g id="edge128" class="edge"><title>Node71&#45;&gt;Node6</title>
<path fill="none" stroke="midnightblue" d="M3257.11,-327.205C3203.36,-320.032 3112.34,-306.466 3035.5,-288 3031.87,-287.127 3028.1,-286.117 3024.36,-285.046"/>
<polygon fill="midnightblue" stroke="midnightblue" points="3025.22,-281.647 3014.63,-282.115 3023.2,-288.35 3025.22,-281.647"/>
</g>
<!-- Node71&#45;&gt;Node9 -->
<g id="edge134" class="edge"><title>Node71&#45;&gt;Node9</title>
<path fill="none" stroke="midnightblue" d="M3334.4,-324.449C3359.02,-316.893 3393.82,-304.505 3421.5,-288 3439.64,-277.187 3438.59,-266.393 3457.5,-257 3525.89,-223.031 3554.01,-247.836 3625.5,-221 3642.64,-214.568 3644.54,-207.886 3661.5,-201 3718.24,-177.961 3757.28,-213.631 3794.5,-165 3802.87,-154.059 3801.22,-146.027 3794.5,-134 3789.78,-125.559 3677.33,-59.4381 3627.22,-30.2586"/>
<polygon fill="midnightblue" stroke="midnightblue" points="3628.76,-27.1041 3618.35,-25.1025 3625.24,-33.1553 3628.76,-27.1041"/>
</g>
<!-- Node71&#45;&gt;Node10 -->
<g id="edge130" class="edge"><title>Node71&#45;&gt;Node10</title>
<path fill="none" stroke="midnightblue" d="M3344.53,-324.429C3376.24,-317.001 3420.77,-304.795 3457.5,-288 3480.6,-277.439 3482.11,-266.892 3505.5,-257 3571.04,-229.283 3593.75,-242.76 3661.5,-221 3683.5,-213.932 3687.75,-208.826 3709.5,-201 3761.09,-182.433 3776.09,-184.062 3827.5,-165 3829.15,-164.387 3830.84,-163.733 3832.54,-163.054"/>
<polygon fill="midnightblue" stroke="midnightblue" points="3834.29,-166.116 3842.16,-159.018 3831.58,-159.662 3834.29,-166.116"/>
</g>
<!-- Node71&#45;&gt;Node14 -->
<g id="edge131" class="edge"><title>Node71&#45;&gt;Node14</title>
<path fill="none" stroke="midnightblue" d="M3257.27,-331.961C3207.05,-329.146 3125.68,-319.567 3063.5,-288 3045.56,-278.891 3049.1,-264.681 3030.5,-257 2852.79,-183.609 1430.54,-308.439 1302.5,-165 1280.93,-140.837 1313.63,-76.7322 1326.5,-67 1420.31,3.9346 1740.46,-59.7271 1854.5,-31 1856.71,-30.4432 1858.96,-29.7399 1861.18,-28.9447"/>
<polygon fill="midnightblue" stroke="midnightblue" points="1862.72,-32.0956 1870.63,-25.0404 1860.05,-25.6266 1862.72,-32.0956"/>
</g>
<!-- Node71&#45;&gt;Node24 -->
<g id="edge133" class="edge"><title>Node71&#45;&gt;Node24</title>
<path fill="none" stroke="midnightblue" d="M3347.41,-324.474C3386.62,-316.444 3445.42,-303.373 3495.5,-288 3532.35,-276.687 3539.73,-268.561 3576.5,-257 3738.15,-206.177 3842.13,-298.496 3946.5,-165 3989.79,-109.629 3883.79,-53.588 3828.49,-29.1751"/>
<polygon fill="midnightblue" stroke="midnightblue" points="3829.69,-25.8806 3819.13,-25.1268 3826.92,-32.3063 3829.69,-25.8806"/>
</g>
<!-- Node71&#45;&gt;Node28 -->
<g id="edge132" class="edge"><title>Node71&#45;&gt;Node28</title>
<path fill="none" stroke="midnightblue" d="M3280.03,-324.35C3260.76,-316.583 3233.36,-303.957 3212.5,-288 3108.94,-208.772 3015.76,-79.8744 2984.03,-33.6627"/>
<polygon fill="midnightblue" stroke="midnightblue" points="2986.72,-31.4053 2978.21,-25.1042 2980.93,-35.3416 2986.72,-31.4053"/>
</g>
<!-- Node71&#45;&gt;Node33 -->
<g id="edge135" class="edge"><title>Node71&#45;&gt;Node33</title>
<path fill="none" stroke="midnightblue" d="M3271.32,-324.488C3252.96,-317.801 3231.48,-306.45 3220.5,-288 3213.45,-276.161 3215.87,-269.978 3220.5,-257 3234.09,-218.883 3267.82,-184.553 3289.07,-165.705"/>
<polygon fill="midnightblue" stroke="midnightblue" points="3291.5,-168.226 3296.79,-159.045 3286.93,-162.924 3291.5,-168.226"/>
</g>
<!-- Node71&#45;&gt;Node66 -->
<g id="edge126" class="edge"><title>Node71&#45;&gt;Node66</title>
<path fill="none" stroke="midnightblue" d="M3349.79,-331.348C3439.45,-327.641 3643.13,-316.749 3823.92,-287.914"/>
<polygon fill="midnightblue" stroke="midnightblue" points="3824.56,-291.356 3833.87,-286.304 3823.44,-284.446 3824.56,-291.356"/>
</g>
<!-- Node71&#45;&gt;Node67 -->
<g id="edge127" class="edge"><title>Node71&#45;&gt;Node67</title>
<path fill="none" stroke="midnightblue" d="M3349.59,-325.805C3403.07,-317.332 3493.83,-302.56 3571.5,-288 3572.95,-287.728 3574.41,-287.451 3575.89,-287.168"/>
<polygon fill="midnightblue" stroke="midnightblue" points="3576.61,-290.595 3585.75,-285.246 3575.27,-283.724 3576.61,-290.595"/>
</g>
<!-- Node72 -->
<g id="node73" class="node"><title>Node72</title>
<polygon fill="white" stroke="#bfbfbf" points="3699.5,-140 3699.5,-159 3785.5,-159 3785.5,-140 3699.5,-140"/>
<text text-anchor="middle" x="3742.5" y="-147" font-family="FreeSans" font-size="10.00">Eigen/Geometry</text>
</g>
<!-- Node71&#45;&gt;Node72 -->
<g id="edge129" class="edge"><title>Node71&#45;&gt;Node72</title>
<path fill="none" stroke="midnightblue" d="M3320.46,-324.401C3337.27,-315.717 3363.59,-301.668 3385.5,-288 3405.8,-275.337 3407.63,-266.701 3429.5,-257 3496.13,-227.442 3520.46,-244.381 3589.5,-221 3592.71,-219.912 3671.58,-183.395 3714.79,-163.357"/>
<polygon fill="midnightblue" stroke="midnightblue" points="3716.34,-166.498 3723.94,-159.115 3713.39,-160.148 3716.34,-166.498"/>
</g>
<!-- Node73 -->
<g id="node74" class="node"><title>Node73</title>
<g id="a_node74"><a xlink:href="EigenExtensions_8h.html" target="_top" xlink:title="../Wrappers/EigenExtensions.h">
<polygon fill="white" stroke="black" points="3230,-263 3230,-282 3377,-282 3377,-263 3230,-263"/>
<text text-anchor="middle" x="3303.5" y="-270" font-family="FreeSans" font-size="10.00">../Wrappers/EigenExtensions.h</text>
</a>
</g>
</g>
<!-- Node71&#45;&gt;Node73 -->
<g id="edge136" class="edge"><title>Node71&#45;&gt;Node73</title>
<path fill="none" stroke="midnightblue" d="M3303.5,-324.475C3303.5,-316.08 3303.5,-302.981 3303.5,-292.163"/>
<polygon fill="midnightblue" stroke="midnightblue" points="3307,-292.009 3303.5,-282.009 3300,-292.009 3307,-292.009"/>
</g>
<!-- Node74 -->
<g id="node75" class="node"><title>Node74</title>
<g id="a_node75"><a xlink:href="EigenExtensions_8ipp.html" target="_top" xlink:title="EigenExtensions.ipp">
<polygon fill="white" stroke="black" points="3478,-201.5 3478,-220.5 3581,-220.5 3581,-201.5 3478,-201.5"/>
<text text-anchor="middle" x="3529.5" y="-208.5" font-family="FreeSans" font-size="10.00">EigenExtensions.ipp</text>
</a>
</g>
</g>
<!-- Node73&#45;&gt;Node74 -->
<g id="edge137" class="edge"><title>Node73&#45;&gt;Node74</title>
<path fill="none" stroke="midnightblue" d="M3335.88,-262.975C3375.74,-252.482 3443.52,-234.637 3487.39,-223.087"/>
<polygon fill="midnightblue" stroke="midnightblue" points="3488.4,-226.44 3497.18,-220.509 3486.62,-219.67 3488.4,-226.44"/>
</g>
<!-- Node74&#45;&gt;Node5 -->
<g id="edge138" class="edge"><title>Node74&#45;&gt;Node5</title>
<path fill="none" stroke="midnightblue" d="M3528.1,-201.436C3523.33,-175.376 3505.01,-96.9861 3453.5,-67 3393.72,-32.2016 3188.88,-21.0804 3096.43,-17.7832"/>
<polygon fill="midnightblue" stroke="midnightblue" points="3096.37,-14.2792 3086.25,-17.4359 3096.13,-21.2751 3096.37,-14.2792"/>
</g>
<!-- Node74&#45;&gt;Node9 -->
<g id="edge143" class="edge"><title>Node74&#45;&gt;Node9</title>
<path fill="none" stroke="midnightblue" d="M3559.18,-201.392C3577.61,-194.508 3600.25,-182.977 3613.5,-165 3639.57,-129.636 3635.82,-109.938 3626.5,-67 3623.98,-55.4007 3618.56,-43.2696 3613.61,-33.805"/>
<polygon fill="midnightblue" stroke="midnightblue" points="3616.67,-32.1014 3608.77,-25.0413 3610.54,-35.4868 3616.67,-32.1014"/>
</g>
<!-- Node74&#45;&gt;Node24 -->
<g id="edge142" class="edge"><title>Node74&#45;&gt;Node24</title>
<path fill="none" stroke="midnightblue" d="M3554.28,-201.379C3595.77,-185.964 3680.2,-150.317 3735.5,-98 3756.31,-78.3095 3775.49,-51.1123 3786.85,-33.6627"/>
<polygon fill="midnightblue" stroke="midnightblue" points="3789.89,-35.3961 3792.31,-25.0809 3783.99,-31.6367 3789.89,-35.3961"/>
</g>
<!-- Node74&#45;&gt;Node28 -->
<g id="edge140" class="edge"><title>Node74&#45;&gt;Node28</title>
<path fill="none" stroke="midnightblue" d="M3516.65,-201.285C3493.28,-185.779 3441.85,-153.23 3394.5,-134 3228.8,-66.7013 3174.32,-90.0391 3005.5,-31 3003.83,-30.4177 3002.14,-29.7879 3000.43,-29.128"/>
<polygon fill="midnightblue" stroke="midnightblue" points="3001.38,-25.7312 2990.8,-25.1423 2998.7,-32.1995 3001.38,-25.7312"/>
</g>
<!-- Node74&#45;&gt;Node33 -->
<g id="edge145" class="edge"><title>Node74&#45;&gt;Node33</title>
<path fill="none" stroke="midnightblue" d="M3497.69,-201.475C3458.62,-191.004 3392.24,-173.212 3349.14,-161.66"/>
<polygon fill="midnightblue" stroke="midnightblue" points="3349.81,-158.217 3339.25,-159.009 3348,-164.979 3349.81,-158.217"/>
</g>
<!-- Node74&#45;&gt;Node69 -->
<g id="edge144" class="edge"><title>Node74&#45;&gt;Node69</title>
<path fill="none" stroke="midnightblue" d="M3581.16,-208.976C3651.95,-206.356 3782.4,-197.146 3888.5,-165 3890.17,-164.495 3891.85,-163.9 3893.53,-163.245"/>
<polygon fill="midnightblue" stroke="midnightblue" points="3895.18,-166.341 3902.85,-159.031 3892.29,-159.964 3895.18,-166.341"/>
</g>
<!-- Node74&#45;&gt;Node72 -->
<g id="edge139" class="edge"><title>Node74&#45;&gt;Node72</title>
<path fill="none" stroke="midnightblue" d="M3560.02,-201.475C3597.42,-191.026 3660.93,-173.287 3702.29,-161.733"/>
<polygon fill="midnightblue" stroke="midnightblue" points="3703.35,-165.071 3712.04,-159.009 3701.47,-158.329 3703.35,-165.071"/>
</g>
<!-- Node75 -->
<g id="node76" class="node"><title>Node75</title>
<polygon fill="white" stroke="#bfbfbf" points="3556,-140 3556,-159 3605,-159 3605,-140 3556,-140"/>
<text text-anchor="middle" x="3580.5" y="-147" font-family="FreeSans" font-size="10.00">cassert</text>
</g>
<!-- Node74&#45;&gt;Node75 -->
<g id="edge141" class="edge"><title>Node74&#45;&gt;Node75</title>
<path fill="none" stroke="midnightblue" d="M3536.81,-201.475C3544.53,-192.462 3556.91,-178.025 3566.52,-166.812"/>
<polygon fill="midnightblue" stroke="midnightblue" points="3569.36,-168.879 3573.21,-159.009 3564.04,-164.324 3569.36,-168.879"/>
</g>
</g>
</svg>
        <g id="navigator" transform="translate(0 0)" fill="#404254">
                <rect fill="#f2f5e9" fill-opacity="0.5" stroke="#606060" stroke-width=".5" x="0" y="0" width="60" height="60"/>
                <use id="zoomplus" xlink:href="#zoomPlus" x="17" y="9" onmousedown="handleZoom(evt,'in')"/>
                <use id="zoomminus" xlink:href="#zoomMin" x="42" y="9" onmousedown="handleZoom(evt,'out')"/>
                <use id="reset" xlink:href="#resetDef" x="30" y="36" onmousedown="handleReset()"/>
                <g id="arrowUp" xlink:href="#dirArrow" transform="translate(30 24)" onmousedown="handlePan(0,-1)">
                  <use xlink:href="#rim" fill="#404040">
                        <set attributeName="fill" to="#808080" begin="arrowUp.mouseover" end="arrowUp.mouseout"/>
                  </use>
                  <path fill="none" stroke="white" stroke-width="1.5" d="M0,-3.0v7 M-2.5,-0.5L0,-3.0L2.5,-0.5"/>
                </g>
                <g id="arrowRight" xlink:href="#dirArrow" transform="rotate(90) translate(36 -43)" onmousedown="handlePan(1,0)">
                  <use xlink:href="#rim" fill="#404040">
                        <set attributeName="fill" to="#808080" begin="arrowRight.mouseover" end="arrowRight.mouseout"/>
                  </use>
                  <path fill="none" stroke="white" stroke-width="1.5" d="M0,-3.0v7 M-2.5,-0.5L0,-3.0L2.5,-0.5"/>
                </g>
                <g id="arrowDown" xlink:href="#dirArrow" transform="rotate(180) translate(-30 -48)" onmousedown="handlePan(0,1)">
                  <use xlink:href="#rim" fill="#404040">
                        <set attributeName="fill" to="#808080" begin="arrowDown.mouseover" end="arrowDown.mouseout"/>
                  </use>
                  <path fill="none" stroke="white" stroke-width="1.5" d="M0,-3.0v7 M-2.5,-0.5L0,-3.0L2.5,-0.5"/>
                </g>
                <g id="arrowLeft" xlink:href="#dirArrow" transform="rotate(270) translate(-36 17)" onmousedown="handlePan(-1,0)">
                  <use xlink:href="#rim" fill="#404040">
                        <set attributeName="fill" to="#808080" begin="arrowLeft.mouseover" end="arrowLeft.mouseout"/>
                  </use>
                  <path fill="none" stroke="white" stroke-width="1.5" d="M0,-3.0v7 M-2.5,-0.5L0,-3.0L2.5,-0.5"/>
                </g>
        </g>
        <svg viewBox="0 0 15 15" width="100%" height="30px" preserveAspectRatio="xMaxYMin meet">
         <g id="arrow_out" transform="scale(0.3 0.3)">
          <a xlink:href="PowellDogLeg_8ipp__incl_org.svg" target="_base">
           <rect id="button" ry="5" rx="5" y="6" x="6" height="38" width="38"
                fill="#f2f5e9" fill-opacity="0.5" stroke="#606060" stroke-width="1.0"/>
           <path id="arrow"
             d="M 11.500037,31.436501 C 11.940474,20.09759 22.043105,11.32322 32.158766,21.979434 L 37.068811,17.246167 C 37.068811,17.246167 37.088388,32 37.088388,32 L 22.160133,31.978069 C 22.160133,31.978069 26.997745,27.140456 26.997745,27.140456 C 18.528582,18.264221 13.291696,25.230495 11.500037,31.436501 z"
             style="fill:#404040;"/>
          </a>
         </g>
        </svg>
</svg>
