<?xml version="1.0" encoding="UTF-8" standalone="no"?>
<!DOCTYPE svg PUBLIC "-//W3C//DTD SVG 1.1//EN"
 "http://www.w3.org/Graphics/SVG/1.1/DTD/svg11.dtd">
<!-- Generated by graphviz version 2.38.0 (20140413.2041)
 -->
<!-- Title: src/Optimisation/PowellDogLegProblemConcept.ipp Pages: 1 -->
<!--zoomable 419 -->
<svg id="main" version="1.1" xmlns="http://www.w3.org/2000/svg" xmlns:xlink="http://www.w3.org/1999/xlink" xml:space="preserve" onload="init(evt)">
<style type="text/css"><![CDATA[
.edge:hover path { stroke: red; }
.edge:hover polygon { stroke: red; fill: red; }
]]></style>
<script type="text/javascript"><![CDATA[
var edges = document.getElementsByTagName('g');
if (edges && edges.length) {
  for (var i=0;i<edges.length;i++) {
    if (edges[i].id.substr(0,4)=='edge') {
      edges[i].setAttribute('class','edge');
    }
  }
}
]]></script>
        <defs>
                <circle id="rim" cx="0" cy="0" r="7"/>
                <circle id="rim2" cx="0" cy="0" r="3.5"/>
                <g id="zoomPlus">
                        <use xlink:href="#rim" fill="#404040">
                                <set attributeName="fill" to="#808080" begin="zoomplus.mouseover" end="zoomplus.mouseout"/>
                        </use>
                        <path d="M-4,0h8M0,-4v8" fill="none" stroke="white" stroke-width="1.5" pointer-events="none"/>
                </g>
                <g id="zoomMin">
                        <use xlink:href="#rim" fill="#404040">
                                <set attributeName="fill" to="#808080" begin="zoomminus.mouseover" end="zoomminus.mouseout"/>
                        </use>
                        <path d="M-4,0h8" fill="none" stroke="white" stroke-width="1.5" pointer-events="none"/>
                </g>
                <g id="dirArrow">
                        <path fill="none" stroke="white" stroke-width="1.5" d="M0,-3.0v7 M-2.5,-0.5L0,-3.0L2.5,-0.5"/>
                </g>
               <g id="resetDef">
                       <use xlink:href="#rim2" fill="#404040">
                               <set attributeName="fill" to="#808080" begin="reset.mouseover" end="reset.mouseout"/>
                       </use>
               </g>
        </defs>

<script type="text/javascript">
var viewWidth = 3649;
var viewHeight = 419;
var sectionId = 'dynsection-0';
</script>
<script xlink:href="svgpan.js"/>
<svg id="graph" class="graph">
<g id="viewport">
<title>src/Optimisation/PowellDogLegProblemConcept.ipp</title>
<polygon fill="white" stroke="none" points="-4,4 -4,-415 3645.36,-415 3645.36,4 -4,4"/>
<!-- Node0 -->
<g id="node1" class="node"><title>Node0</title>
<polygon fill="#bfbfbf" stroke="black" points="1852.5,-380.5 1852.5,-410.5 1989.5,-410.5 1989.5,-380.5 1852.5,-380.5"/>
<text text-anchor="start" x="1860.5" y="-398.5" font-family="FreeSans" font-size="10.00">src/Optimisation/PowellDog</text>
<text text-anchor="middle" x="1921" y="-387.5" font-family="FreeSans" font-size="10.00">LegProblemConcept.ipp</text>
</g>
<!-- Node1 -->
<g id="node2" class="node"><title>Node1</title>
<polygon fill="white" stroke="#bfbfbf" points="2257,-6 2257,-25 2385,-25 2385,-6 2257,-6"/>
<text text-anchor="middle" x="2321" y="-13" font-family="FreeSans" font-size="10.00">boost/concept_check.hpp</text>
</g>
<!-- Node0&#45;&gt;Node1 -->
<g id="edge1" class="edge"><title>Node0&#45;&gt;Node1</title>
<path fill="none" stroke="midnightblue" d="M1928.69,-380.247C1935.38,-366.049 1943.39,-343.599 1939,-324 1919.15,-235.41 1808.42,-205.785 1864,-134 1865.62,-131.905 2163.43,-56.3719 2277.36,-27.5351"/>
<polygon fill="midnightblue" stroke="midnightblue" points="2278.33,-30.9013 2287.16,-25.055 2276.61,-24.1152 2278.33,-30.9013"/>
</g>
<!-- Node2 -->
<g id="node3" class="node"><title>Node2</title>
<polygon fill="white" stroke="#bfbfbf" points="1835.5,-324.5 1835.5,-343.5 1930.5,-343.5 1930.5,-324.5 1835.5,-324.5"/>
<text text-anchor="middle" x="1883" y="-331.5" font-family="FreeSans" font-size="10.00">boost/optional.hpp</text>
</g>
<!-- Node0&#45;&gt;Node2 -->
<g id="edge2" class="edge"><title>Node0&#45;&gt;Node2</title>
<path fill="none" stroke="midnightblue" d="M1911.99,-380.399C1906.59,-371.932 1899.67,-361.099 1893.95,-352.139"/>
<polygon fill="midnightblue" stroke="midnightblue" points="1896.86,-350.202 1888.53,-343.658 1890.96,-353.97 1896.86,-350.202"/>
</g>
<!-- Node3 -->
<g id="node4" class="node"><title>Node3</title>
<polygon fill="white" stroke="#bfbfbf" points="2064.5,-6 2064.5,-25 2135.5,-25 2135.5,-6 2064.5,-6"/>
<text text-anchor="middle" x="2100" y="-13" font-family="FreeSans" font-size="10.00">Eigen/Dense</text>
</g>
<!-- Node0&#45;&gt;Node3 -->
<g id="edge3" class="edge"><title>Node0&#45;&gt;Node3</title>
<path fill="none" stroke="midnightblue" d="M1877.99,-380.496C1859.56,-372.49 1839.27,-360.654 1826,-344 1805.78,-318.619 1807,-305.951 1807,-273.5 1807,-273.5 1807,-273.5 1807,-210 1807,-174.578 1805.46,-158.546 1831,-134 1874.84,-91.8616 1907.72,-123.329 1963,-98 1985.41,-87.731 1987.98,-79.8823 2009,-67 2030.78,-53.6539 2056.25,-39.649 2074.7,-29.7821"/>
<polygon fill="midnightblue" stroke="midnightblue" points="2076.46,-32.8091 2083.65,-25.025 2073.18,-26.628 2076.46,-32.8091"/>
</g>
<!-- Node4 -->
<g id="node5" class="node"><title>Node4</title>
<g id="a_node5"><a xlink:href="Correspondence_8h.html" target="_top" xlink:title="../Elements/Correspondence.h">
<polygon fill="white" stroke="black" points="2339,-324.5 2339,-343.5 2485,-343.5 2485,-324.5 2339,-324.5"/>
<text text-anchor="middle" x="2412" y="-331.5" font-family="FreeSans" font-size="10.00">../Elements/Correspondence.h</text>
</a>
</g>
</g>
<!-- Node0&#45;&gt;Node4 -->
<g id="edge4" class="edge"><title>Node0&#45;&gt;Node4</title>
<path fill="none" stroke="midnightblue" d="M1989.53,-386.195C2079.22,-375.327 2236.17,-356.307 2331.45,-344.761"/>
<polygon fill="midnightblue" stroke="midnightblue" points="2332.1,-348.208 2341.61,-343.53 2331.26,-341.258 2332.1,-348.208"/>
</g>
<!-- Node5 -->
<g id="node6" class="node"><title>Node5</title>
<g id="a_node6"><a xlink:href="Correspondence_8ipp.html" target="_top" xlink:title="Correspondence.ipp">
<polygon fill="white" stroke="black" points="3034,-201.5 3034,-220.5 3136,-220.5 3136,-201.5 3034,-201.5"/>
<text text-anchor="middle" x="3085" y="-208.5" font-family="FreeSans" font-size="10.00">Correspondence.ipp</text>
</a>
</g>
</g>
<!-- Node4&#45;&gt;Node5 -->
<g id="edge5" class="edge"><title>Node4&#45;&gt;Node5</title>
<path fill="none" stroke="midnightblue" d="M2415.47,-324.486C2422.67,-308.077 2440.92,-272.343 2469,-257 2516.84,-230.858 2877.42,-217.852 3023.66,-213.609"/>
<polygon fill="midnightblue" stroke="midnightblue" points="3023.92,-217.103 3033.81,-213.319 3023.72,-210.106 3023.92,-217.103"/>
</g>
<!-- Node24 -->
<g id="node25" class="node"><title>Node24</title>
<polygon fill="white" stroke="#bfbfbf" points="2478.5,-257.5 2478.5,-287.5 2579.5,-287.5 2579.5,-257.5 2478.5,-257.5"/>
<text text-anchor="start" x="2486.5" y="-275.5" font-family="FreeSans" font-size="10.00">boost/range/iterator</text>
<text text-anchor="middle" x="2529" y="-264.5" font-family="FreeSans" font-size="10.00">_range.hpp</text>
</g>
<!-- Node4&#45;&gt;Node24 -->
<g id="edge28" class="edge"><title>Node4&#45;&gt;Node24</title>
<path fill="none" stroke="midnightblue" d="M2428.76,-324.475C2445.28,-316.078 2471.05,-302.973 2492.32,-292.153"/>
<polygon fill="midnightblue" stroke="midnightblue" points="2494.1,-295.176 2501.43,-287.523 2490.93,-288.936 2494.1,-295.176"/>
</g>
<!-- Node25 -->
<g id="node26" class="node"><title>Node25</title>
<g id="a_node26"><a xlink:href="Coordinate_8h.html" target="_top" xlink:title="Coordinate.h">
<polygon fill="white" stroke="black" points="2472.5,-140 2472.5,-159 2543.5,-159 2543.5,-140 2472.5,-140"/>
<text text-anchor="middle" x="2508" y="-147" font-family="FreeSans" font-size="10.00">Coordinate.h</text>
</a>
</g>
</g>
<!-- Node4&#45;&gt;Node25 -->
<g id="edge29" class="edge"><title>Node4&#45;&gt;Node25</title>
<path fill="none" stroke="midnightblue" d="M2413.57,-324.234C2416.38,-309.734 2423.01,-280.066 2434,-257 2450.45,-222.472 2477.65,-186.876 2494.09,-166.831"/>
<polygon fill="midnightblue" stroke="midnightblue" points="2496.9,-168.929 2500.61,-159.007 2491.52,-164.446 2496.9,-168.929"/>
</g>
<!-- Node30 -->
<g id="node31" class="node"><title>Node30</title>
<g id="a_node31"><a xlink:href="Feature_8h.html" target="_top" xlink:title="Feature.h">
<polygon fill="white" stroke="black" points="2253.5,-263 2253.5,-282 2310.5,-282 2310.5,-263 2253.5,-263"/>
<text text-anchor="middle" x="2282" y="-270" font-family="FreeSans" font-size="10.00">Feature.h</text>
</a>
</g>
</g>
<!-- Node4&#45;&gt;Node30 -->
<g id="edge44" class="edge"><title>Node4&#45;&gt;Node30</title>
<path fill="none" stroke="midnightblue" d="M2393.37,-324.475C2371.56,-314.49 2335.2,-297.848 2309.98,-286.307"/>
<polygon fill="midnightblue" stroke="midnightblue" points="2311.14,-282.988 2300.59,-282.009 2308.23,-289.353 2311.14,-282.988"/>
</g>
<!-- Node5&#45;&gt;Node1 -->
<g id="edge8" class="edge"><title>Node5&#45;&gt;Node1</title>
<path fill="none" stroke="midnightblue" d="M3072.3,-201.483C3059.52,-192.75 3039.4,-178.562 3023,-165 3007.49,-152.175 3008.41,-142.127 2990,-134 2895.18,-92.1449 2625.94,-121.494 2525,-98 2490.23,-89.9085 2397.24,-50.0764 2349.76,-29.2468"/>
<polygon fill="midnightblue" stroke="midnightblue" points="2350.92,-25.9329 2340.36,-25.1087 2348.1,-32.34 2350.92,-25.9329"/>
</g>
<!-- Node5&#45;&gt;Node3 -->
<g id="edge12" class="edge"><title>Node5&#45;&gt;Node3</title>
<path fill="none" stroke="midnightblue" d="M3033.77,-208.34C2978.19,-204.986 2887.78,-194.942 2816,-165 2794.26,-155.93 2795.12,-142.105 2773,-134 2579.62,-63.1461 2511.85,-143.585 2311,-98 2292.75,-93.8576 2184.67,-50.6905 2130.67,-28.9166"/>
<polygon fill="midnightblue" stroke="midnightblue" points="2131.84,-25.6118 2121.25,-25.1141 2129.22,-32.1029 2131.84,-25.6118"/>
</g>
<!-- Node6 -->
<g id="node7" class="node"><title>Node6</title>
<polygon fill="white" stroke="#bfbfbf" points="3323.5,-140 3323.5,-159 3440.5,-159 3440.5,-140 3323.5,-140"/>
<text text-anchor="middle" x="3382" y="-147" font-family="FreeSans" font-size="10.00">boost/bimap/bimap.hpp</text>
</g>
<!-- Node5&#45;&gt;Node6 -->
<g id="edge6" class="edge"><title>Node5&#45;&gt;Node6</title>
<path fill="none" stroke="midnightblue" d="M3127.55,-201.475C3180.81,-190.805 3272.02,-172.534 3329.54,-161.009"/>
<polygon fill="midnightblue" stroke="midnightblue" points="3330.41,-164.405 3339.53,-159.009 3329.03,-157.542 3330.41,-164.405"/>
</g>
<!-- Node7 -->
<g id="node8" class="node"><title>Node7</title>
<polygon fill="white" stroke="#bfbfbf" points="3458.5,-140 3458.5,-159 3575.5,-159 3575.5,-140 3458.5,-140"/>
<text text-anchor="middle" x="3517" y="-147" font-family="FreeSans" font-size="10.00">boost/bimap/list_of.hpp</text>
</g>
<!-- Node5&#45;&gt;Node7 -->
<g id="edge7" class="edge"><title>Node5&#45;&gt;Node7</title>
<path fill="none" stroke="midnightblue" d="M3136.14,-205.097C3206.77,-198.003 3338.01,-183.658 3449,-165 3455.72,-163.871 3462.78,-162.535 3469.71,-161.138"/>
<polygon fill="midnightblue" stroke="midnightblue" points="3470.62,-164.523 3479.7,-159.065 3469.2,-157.668 3470.62,-164.523"/>
</g>
<!-- Node8 -->
<g id="node9" class="node"><title>Node8</title>
<polygon fill="white" stroke="#bfbfbf" points="2695,-6 2695,-25 2823,-25 2823,-6 2695,-6"/>
<text text-anchor="middle" x="2759" y="-13" font-family="FreeSans" font-size="10.00">boost/range/concepts.hpp</text>
</g>
<!-- Node5&#45;&gt;Node8 -->
<g id="edge9" class="edge"><title>Node5&#45;&gt;Node8</title>
<path fill="none" stroke="midnightblue" d="M3090.54,-201.11C3099.22,-185.901 3113.64,-154.543 3099,-134 3065.1,-86.4181 2899.15,-45.6266 2812.27,-27.1143"/>
<polygon fill="midnightblue" stroke="midnightblue" points="2812.84,-23.658 2802.34,-25.0211 2811.4,-30.5076 2812.84,-23.658"/>
</g>
<!-- Node9 -->
<g id="node10" class="node"><title>Node9</title>
<polygon fill="white" stroke="#bfbfbf" points="2841,-6 2841,-25 2991,-25 2991,-6 2841,-6"/>
<text text-anchor="middle" x="2916" y="-13" font-family="FreeSans" font-size="10.00">boost/range/metafunctions.hpp</text>
</g>
<!-- Node5&#45;&gt;Node9 -->
<g id="edge10" class="edge"><title>Node5&#45;&gt;Node9</title>
<path fill="none" stroke="midnightblue" d="M3136.15,-204.965C3186.41,-198.837 3257.97,-186.537 3275,-165 3285.92,-151.189 3291.01,-87.9345 3272,-67 3254.02,-47.2025 3100.59,-31.2812 3001.11,-22.9177"/>
<polygon fill="midnightblue" stroke="midnightblue" points="3001.31,-19.4227 2991.06,-22.0829 3000.73,-26.3987 3001.31,-19.4227"/>
</g>
<!-- Node10 -->
<g id="node11" class="node"><title>Node10</title>
<polygon fill="white" stroke="#bfbfbf" points="3320,-6 3320,-25 3448,-25 3448,-6 3320,-6"/>
<text text-anchor="middle" x="3384" y="-13" font-family="FreeSans" font-size="10.00">boost/range/functions.hpp</text>
</g>
<!-- Node5&#45;&gt;Node10 -->
<g id="edge11" class="edge"><title>Node5&#45;&gt;Node10</title>
<path fill="none" stroke="midnightblue" d="M3136.03,-209.384C3260.33,-207.356 3570.91,-198.912 3602,-165 3661.35,-100.257 3509.4,-49.1712 3429.46,-27.6194"/>
<polygon fill="midnightblue" stroke="midnightblue" points="3430.18,-24.19 3419.62,-25.0174 3428.39,-30.9574 3430.18,-24.19"/>
</g>
<!-- Node11 -->
<g id="node12" class="node"><title>Node11</title>
<polygon fill="white" stroke="#bfbfbf" points="3594,-6 3594,-25 3638,-25 3638,-6 3594,-6"/>
<text text-anchor="middle" x="3616" y="-13" font-family="FreeSans" font-size="10.00">cmath</text>
</g>
<!-- Node5&#45;&gt;Node11 -->
<g id="edge13" class="edge"><title>Node5&#45;&gt;Node11</title>
<path fill="none" stroke="midnightblue" d="M3136.21,-209.569C3264.26,-207.961 3590.44,-200.397 3623,-165 3655.82,-129.316 3636.71,-66.041 3624.2,-34.8814"/>
<polygon fill="midnightblue" stroke="midnightblue" points="3627.27,-33.1454 3620.15,-25.2971 3620.82,-35.8707 3627.27,-33.1454"/>
</g>
<!-- Node12 -->
<g id="node13" class="node"><title>Node12</title>
<polygon fill="white" stroke="#bfbfbf" points="2502.5,-6 2502.5,-25 2549.5,-25 2549.5,-6 2502.5,-6"/>
<text text-anchor="middle" x="2526" y="-13" font-family="FreeSans" font-size="10.00">iterator</text>
</g>
<!-- Node5&#45;&gt;Node12 -->
<g id="edge14" class="edge"><title>Node5&#45;&gt;Node12</title>
<path fill="none" stroke="midnightblue" d="M3081.01,-201.475C3072.79,-185.046 3052.29,-149.279 3023,-134 2928.56,-84.7308 2625.89,-167.311 2545,-98 2527.1,-82.6622 2524.26,-54.0298 2524.58,-35.115"/>
<polygon fill="midnightblue" stroke="midnightblue" points="2528.08,-35.1927 2525.06,-25.037 2521.08,-34.8585 2528.08,-35.1927"/>
</g>
<!-- Node13 -->
<g id="node14" class="node"><title>Node13</title>
<polygon fill="white" stroke="#bfbfbf" points="1928,-6 1928,-25 1972,-25 1972,-6 1928,-6"/>
<text text-anchor="middle" x="1950" y="-13" font-family="FreeSans" font-size="10.00">vector</text>
</g>
<!-- Node5&#45;&gt;Node13 -->
<g id="edge15" class="edge"><title>Node5&#45;&gt;Node13</title>
<path fill="none" stroke="midnightblue" d="M3033.78,-206.276C2957.49,-200.116 2818.16,-186.328 2773,-165 2754.51,-156.267 2757.91,-141.781 2739,-134 2649.63,-97.2288 1936.9,-167.734 1870,-98 1846.61,-73.6246 1889.79,-45.5957 1921.29,-29.5728"/>
<polygon fill="midnightblue" stroke="midnightblue" points="1923.17,-32.55 1930.6,-25.0029 1920.08,-26.2656 1923.17,-32.55"/>
</g>
<!-- Node14 -->
<g id="node15" class="node"><title>Node14</title>
<polygon fill="white" stroke="#bfbfbf" points="2695.5,-140 2695.5,-159 2730.5,-159 2730.5,-140 2695.5,-140"/>
<text text-anchor="middle" x="2713" y="-147" font-family="FreeSans" font-size="10.00">map</text>
</g>
<!-- Node5&#45;&gt;Node14 -->
<g id="edge16" class="edge"><title>Node5&#45;&gt;Node14</title>
<path fill="none" stroke="midnightblue" d="M3033.94,-207.907C2966.58,-204.097 2844.9,-193.566 2745,-165 2743.06,-164.447 2741.1,-163.795 2739.14,-163.08"/>
<polygon fill="midnightblue" stroke="midnightblue" points="2740.17,-159.718 2729.59,-159.131 2737.49,-166.187 2740.17,-159.718"/>
</g>
<!-- Node15 -->
<g id="node16" class="node"><title>Node15</title>
<polygon fill="white" stroke="#bfbfbf" points="2627.5,-6 2627.5,-25 2676.5,-25 2676.5,-6 2627.5,-6"/>
<text text-anchor="middle" x="2652" y="-13" font-family="FreeSans" font-size="10.00">cstddef</text>
</g>
<!-- Node5&#45;&gt;Node15 -->
<g id="edge17" class="edge"><title>Node5&#45;&gt;Node15</title>
<path fill="none" stroke="midnightblue" d="M3084.83,-201.335C3084.03,-185.614 3080.04,-152.331 3061,-134 3029.87,-104.029 2726.8,-45.23 2686,-31 2684.14,-30.3502 2682.23,-29.6472 2680.32,-28.9133"/>
<polygon fill="midnightblue" stroke="midnightblue" points="2681.47,-25.6018 2670.88,-25.0883 2678.84,-32.0889 2681.47,-25.6018"/>
</g>
<!-- Node16 -->
<g id="node17" class="node"><title>Node16</title>
<polygon fill="white" stroke="#bfbfbf" points="3151,-140 3151,-159 3189,-159 3189,-140 3151,-140"/>
<text text-anchor="middle" x="3170" y="-147" font-family="FreeSans" font-size="10.00">tuple</text>
</g>
<!-- Node5&#45;&gt;Node16 -->
<g id="edge18" class="edge"><title>Node5&#45;&gt;Node16</title>
<path fill="none" stroke="midnightblue" d="M3097.18,-201.475C3110.81,-191.931 3133.13,-176.307 3149.47,-164.868"/>
<polygon fill="midnightblue" stroke="midnightblue" points="3151.66,-167.611 3157.84,-159.009 3147.64,-161.876 3151.66,-167.611"/>
</g>
<!-- Node17 -->
<g id="node18" class="node"><title>Node17</title>
<polygon fill="white" stroke="#bfbfbf" points="2638.5,-140 2638.5,-159 2677.5,-159 2677.5,-140 2638.5,-140"/>
<text text-anchor="middle" x="2658" y="-147" font-family="FreeSans" font-size="10.00">utility</text>
</g>
<!-- Node5&#45;&gt;Node17 -->
<g id="edge19" class="edge"><title>Node5&#45;&gt;Node17</title>
<path fill="none" stroke="midnightblue" d="M3033.73,-210.129C2956.61,-209.015 2806.89,-201.743 2686,-165 2684.53,-164.552 2683.04,-164.028 2681.56,-163.449"/>
<polygon fill="midnightblue" stroke="midnightblue" points="2682.65,-160.098 2672.11,-159.076 2679.71,-166.451 2682.65,-160.098"/>
</g>
<!-- Node18 -->
<g id="node19" class="node"><title>Node18</title>
<polygon fill="white" stroke="#bfbfbf" points="3207.5,-140 3207.5,-159 3266.5,-159 3266.5,-140 3207.5,-140"/>
<text text-anchor="middle" x="3237" y="-147" font-family="FreeSans" font-size="10.00">functional</text>
</g>
<!-- Node5&#45;&gt;Node18 -->
<g id="edge20" class="edge"><title>Node5&#45;&gt;Node18</title>
<path fill="none" stroke="midnightblue" d="M3106.78,-201.475C3132.74,-191.313 3176.31,-174.256 3205.83,-162.7"/>
<polygon fill="midnightblue" stroke="midnightblue" points="3207.23,-165.913 3215.26,-159.009 3204.67,-159.395 3207.23,-165.913"/>
</g>
<!-- Node19 -->
<g id="node20" class="node"><title>Node19</title>
<polygon fill="white" stroke="#bfbfbf" points="3176,-6 3176,-25 3238,-25 3238,-6 3176,-6"/>
<text text-anchor="middle" x="3207" y="-13" font-family="FreeSans" font-size="10.00">type_traits</text>
</g>
<!-- Node5&#45;&gt;Node19 -->
<g id="edge21" class="edge"><title>Node5&#45;&gt;Node19</title>
<path fill="none" stroke="midnightblue" d="M3136.03,-209.211C3257.17,-206.811 3554.18,-197.626 3584,-165 3593.29,-154.83 3592.17,-145.098 3584,-134 3543.5,-78.9575 3337.45,-38.3866 3248.25,-23.1276"/>
<polygon fill="midnightblue" stroke="midnightblue" points="3248.67,-19.6482 3238.23,-21.4349 3247.5,-26.5506 3248.67,-19.6482"/>
</g>
<!-- Node20 -->
<g id="node21" class="node"><title>Node20</title>
<g id="a_node21"><a xlink:href="FeatureConcept_8h.html" target="_top" xlink:title="FeatureConcept.h">
<polygon fill="white" stroke="black" points="2322.5,-140 2322.5,-159 2415.5,-159 2415.5,-140 2322.5,-140"/>
<text text-anchor="middle" x="2369" y="-147" font-family="FreeSans" font-size="10.00">FeatureConcept.h</text>
</a>
</g>
</g>
<!-- Node5&#45;&gt;Node20 -->
<g id="edge22" class="edge"><title>Node5&#45;&gt;Node20</title>
<path fill="none" stroke="midnightblue" d="M3033.67,-207.693C2927.09,-202.593 2674.13,-188.882 2463,-165 2450.95,-163.637 2438.08,-161.863 2425.85,-160.025"/>
<polygon fill="midnightblue" stroke="midnightblue" points="2426.17,-156.534 2415.76,-158.475 2425.11,-163.453 2426.17,-156.534"/>
</g>
<!-- Node22 -->
<g id="node23" class="node"><title>Node22</title>
<g id="a_node23"><a xlink:href="EigenMetafunction_8h.html" target="_top" xlink:title="../Wrappers/EigenMetafunction.h">
<polygon fill="white" stroke="black" points="2825,-140 2825,-159 2981,-159 2981,-140 2825,-140"/>
<text text-anchor="middle" x="2903" y="-147" font-family="FreeSans" font-size="10.00">../Wrappers/EigenMetafunction.h</text>
</a>
</g>
</g>
<!-- Node5&#45;&gt;Node22 -->
<g id="edge25" class="edge"><title>Node5&#45;&gt;Node22</title>
<path fill="none" stroke="midnightblue" d="M3058.92,-201.475C3027.43,-191.18 2974.3,-173.81 2938.94,-162.25"/>
<polygon fill="midnightblue" stroke="midnightblue" points="2939.62,-158.79 2929.03,-159.009 2937.45,-165.443 2939.62,-158.79"/>
</g>
<!-- Node21 -->
<g id="node22" class="node"><title>Node21</title>
<g id="a_node22"><a xlink:href="FeatureConcept_8ipp.html" target="_top" xlink:title="FeatureConcept.ipp">
<polygon fill="white" stroke="black" points="2320.5,-73 2320.5,-92 2421.5,-92 2421.5,-73 2320.5,-73"/>
<text text-anchor="middle" x="2371" y="-80" font-family="FreeSans" font-size="10.00">FeatureConcept.ipp</text>
</a>
</g>
</g>
<!-- Node20&#45;&gt;Node21 -->
<g id="edge23" class="edge"><title>Node20&#45;&gt;Node21</title>
<path fill="none" stroke="midnightblue" d="M2369.27,-139.734C2369.56,-130.183 2370.04,-114.618 2370.42,-102.283"/>
<polygon fill="midnightblue" stroke="midnightblue" points="2373.93,-102.23 2370.73,-92.1273 2366.93,-102.015 2373.93,-102.23"/>
</g>
<!-- Node21&#45;&gt;Node1 -->
<g id="edge24" class="edge"><title>Node21&#45;&gt;Node1</title>
<path fill="none" stroke="midnightblue" d="M2364.26,-72.7338C2356.46,-62.5979 2343.45,-45.6899 2333.74,-33.0556"/>
<polygon fill="midnightblue" stroke="midnightblue" points="2336.51,-30.9196 2327.64,-25.1273 2330.96,-35.1876 2336.51,-30.9196"/>
</g>
<!-- Node23 -->
<g id="node24" class="node"><title>Node23</title>
<g id="a_node24"><a xlink:href="EigenMetafunction_8ipp.html" target="_top" xlink:title="EigenMetafunction.ipp">
<polygon fill="white" stroke="black" points="3151,-73 3151,-92 3263,-92 3263,-73 3151,-73"/>
<text text-anchor="middle" x="3207" y="-80" font-family="FreeSans" font-size="10.00">EigenMetafunction.ipp</text>
</a>
</g>
</g>
<!-- Node22&#45;&gt;Node23 -->
<g id="edge26" class="edge"><title>Node22&#45;&gt;Node23</title>
<path fill="none" stroke="midnightblue" d="M2943.06,-139.936C2998.08,-128.171 3097.01,-107.018 3156.87,-94.2176"/>
<polygon fill="midnightblue" stroke="midnightblue" points="3157.81,-97.597 3166.86,-92.0834 3156.35,-90.7518 3157.81,-97.597"/>
</g>
<!-- Node23&#45;&gt;Node19 -->
<g id="edge27" class="edge"><title>Node23&#45;&gt;Node19</title>
<path fill="none" stroke="midnightblue" d="M3207,-72.7338C3207,-63.1826 3207,-47.6183 3207,-35.2829"/>
<polygon fill="midnightblue" stroke="midnightblue" points="3210.5,-35.1273 3207,-25.1273 3203.5,-35.1273 3210.5,-35.1273"/>
</g>
<!-- Node26 -->
<g id="node27" class="node"><title>Node26</title>
<g id="a_node27"><a xlink:href="Coordinate_8ipp.html" target="_top" xlink:title="Coordinate.ipp">
<polygon fill="white" stroke="black" points="2554,-73 2554,-92 2632,-92 2632,-73 2554,-73"/>
<text text-anchor="middle" x="2593" y="-80" font-family="FreeSans" font-size="10.00">Coordinate.ipp</text>
</a>
</g>
</g>
<!-- Node25&#45;&gt;Node26 -->
<g id="edge30" class="edge"><title>Node25&#45;&gt;Node26</title>
<path fill="none" stroke="midnightblue" d="M2519.46,-139.734C2533.36,-129.111 2556.98,-111.049 2573.69,-98.2642"/>
<polygon fill="midnightblue" stroke="midnightblue" points="2575.9,-100.982 2581.72,-92.1273 2571.65,-95.4216 2575.9,-100.982"/>
</g>
<!-- Node26&#45;&gt;Node1 -->
<g id="edge31" class="edge"><title>Node26&#45;&gt;Node1</title>
<path fill="none" stroke="midnightblue" d="M2557.16,-72.9355C2508.24,-61.2442 2420.51,-40.2797 2366.85,-27.4566"/>
<polygon fill="midnightblue" stroke="midnightblue" points="2367.46,-24.0036 2356.92,-25.0834 2365.83,-30.8119 2367.46,-24.0036"/>
</g>
<!-- Node26&#45;&gt;Node3 -->
<g id="edge35" class="edge"><title>Node26&#45;&gt;Node3</title>
<path fill="none" stroke="midnightblue" d="M2553.9,-76.3452C2463.81,-64.4669 2241.97,-35.2187 2145.75,-22.5324"/>
<polygon fill="midnightblue" stroke="midnightblue" points="2146.12,-19.0505 2135.75,-21.2133 2145.21,-25.9905 2146.12,-19.0505"/>
</g>
<!-- Node26&#45;&gt;Node8 -->
<g id="edge32" class="edge"><title>Node26&#45;&gt;Node8</title>
<path fill="none" stroke="midnightblue" d="M2615.04,-72.8685C2643.9,-61.5706 2694.65,-41.6961 2727.54,-28.8183"/>
<polygon fill="midnightblue" stroke="midnightblue" points="2729.09,-31.9689 2737.13,-25.0637 2726.54,-25.4508 2729.09,-31.9689"/>
</g>
<!-- Node26&#45;&gt;Node9 -->
<g id="edge33" class="edge"><title>Node26&#45;&gt;Node9</title>
<path fill="none" stroke="midnightblue" d="M2632.28,-73.5947C2690.29,-61.9209 2798.97,-40.0515 2863.67,-27.03"/>
<polygon fill="midnightblue" stroke="midnightblue" points="2864.55,-30.4232 2873.67,-25.0191 2863.17,-23.5608 2864.55,-30.4232"/>
</g>
<!-- Node26&#45;&gt;Node10 -->
<g id="edge34" class="edge"><title>Node26&#45;&gt;Node10</title>
<path fill="none" stroke="midnightblue" d="M2632.1,-78.8695C2733.63,-71.9552 3013.95,-52.3262 3247,-31 3267.38,-29.1354 3289.43,-26.8978 3309.77,-24.7447"/>
<polygon fill="midnightblue" stroke="midnightblue" points="3310.34,-28.2036 3319.92,-23.6629 3309.6,-21.2431 3310.34,-28.2036"/>
</g>
<!-- Node26&#45;&gt;Node11 -->
<g id="edge39" class="edge"><title>Node26&#45;&gt;Node11</title>
<path fill="none" stroke="midnightblue" d="M2632.21,-79.6638C2754.38,-73.8453 3138.97,-54.7893 3457,-31 3500.96,-27.712 3551.66,-22.9138 3583.76,-19.7503"/>
<polygon fill="midnightblue" stroke="midnightblue" points="3584.29,-23.2148 3593.9,-18.7447 3583.6,-16.249 3584.29,-23.2148"/>
</g>
<!-- Node26&#45;&gt;Node12 -->
<g id="edge43" class="edge"><title>Node26&#45;&gt;Node12</title>
<path fill="none" stroke="midnightblue" d="M2583.96,-72.7338C2573.32,-62.403 2555.42,-45.0371 2542.32,-32.3315"/>
<polygon fill="midnightblue" stroke="midnightblue" points="2544.51,-29.5784 2534.89,-25.1273 2539.63,-34.6026 2544.51,-29.5784"/>
</g>
<!-- Node26&#45;&gt;Node13 -->
<g id="edge36" class="edge"><title>Node26&#45;&gt;Node13</title>
<path fill="none" stroke="midnightblue" d="M2553.82,-77.9177C2520.8,-74.9229 2472.32,-70.579 2430,-67 2230.52,-50.1304 2174.53,-82.2262 1981,-31 1979.02,-30.4755 1977.01,-29.829 1975.01,-29.1029"/>
<polygon fill="midnightblue" stroke="midnightblue" points="1975.93,-25.6917 1965.36,-25.0059 1973.2,-32.1351 1975.93,-25.6917"/>
</g>
<!-- Node26&#45;&gt;Node15 -->
<g id="edge38" class="edge"><title>Node26&#45;&gt;Node15</title>
<path fill="none" stroke="midnightblue" d="M2600.96,-72.7338C2610.25,-62.5004 2625.8,-45.3642 2637.3,-32.6924"/>
<polygon fill="midnightblue" stroke="midnightblue" points="2640.04,-34.8843 2644.17,-25.1273 2634.86,-30.1795 2640.04,-34.8843"/>
</g>
<!-- Node26&#45;&gt;Node19 -->
<g id="edge37" class="edge"><title>Node26&#45;&gt;Node19</title>
<path fill="none" stroke="midnightblue" d="M2632.34,-77.3351C2742.47,-65.6766 3053.11,-32.791 3165.64,-20.8781"/>
<polygon fill="midnightblue" stroke="midnightblue" points="3166.33,-24.3255 3175.9,-19.7921 3165.59,-17.3644 3166.33,-24.3255"/>
</g>
<!-- Node27 -->
<g id="node28" class="node"><title>Node27</title>
<polygon fill="white" stroke="#bfbfbf" points="2571,-6 2571,-25 2609,-25 2609,-6 2571,-6"/>
<text text-anchor="middle" x="2590" y="-13" font-family="FreeSans" font-size="10.00">array</text>
</g>
<!-- Node26&#45;&gt;Node27 -->
<g id="edge40" class="edge"><title>Node26&#45;&gt;Node27</title>
<path fill="none" stroke="midnightblue" d="M2592.6,-72.7338C2592.15,-63.1826 2591.44,-47.6183 2590.87,-35.2829"/>
<polygon fill="midnightblue" stroke="midnightblue" points="2594.36,-34.9553 2590.4,-25.1273 2587.36,-35.2781 2594.36,-34.9553"/>
</g>
<!-- Node28 -->
<g id="node29" class="node"><title>Node28</title>
<polygon fill="white" stroke="#bfbfbf" points="1990,-6 1990,-25 2046,-25 2046,-6 1990,-6"/>
<text text-anchor="middle" x="2018" y="-13" font-family="FreeSans" font-size="10.00">algorithm</text>
</g>
<!-- Node26&#45;&gt;Node28 -->
<g id="edge41" class="edge"><title>Node26&#45;&gt;Node28</title>
<path fill="none" stroke="midnightblue" d="M2553.59,-77.9489C2431.53,-66.9309 2067.15,-33.8903 2055,-31 2052.17,-30.3264 2049.27,-29.481 2046.39,-28.5388"/>
<polygon fill="midnightblue" stroke="midnightblue" points="2047.47,-25.207 2036.88,-25.071 2045.07,-31.7838 2047.47,-25.207"/>
</g>
<!-- Node29 -->
<g id="node30" class="node"><title>Node29</title>
<polygon fill="white" stroke="#bfbfbf" points="1864.5,-6 1864.5,-25 1909.5,-25 1909.5,-6 1864.5,-6"/>
<text text-anchor="middle" x="1887" y="-13" font-family="FreeSans" font-size="10.00">climits</text>
</g>
<!-- Node26&#45;&gt;Node29 -->
<g id="edge42" class="edge"><title>Node26&#45;&gt;Node29</title>
<path fill="none" stroke="midnightblue" d="M2553.82,-77.8114C2520.82,-74.7526 2472.34,-70.3743 2430,-67 2203.05,-48.9125 2139.71,-86.8623 1919,-31 1916.79,-30.4407 1914.54,-29.7356 1912.32,-28.9393"/>
<polygon fill="midnightblue" stroke="midnightblue" points="1913.45,-25.6213 1902.87,-25.0328 1910.78,-32.0897 1913.45,-25.6213"/>
</g>
<!-- Node31 -->
<g id="node32" class="node"><title>Node31</title>
<g id="a_node32"><a xlink:href="Feature_8ipp.html" target="_top" xlink:title="Feature.ipp">
<polygon fill="white" stroke="black" points="2177.5,-201.5 2177.5,-220.5 2242.5,-220.5 2242.5,-201.5 2177.5,-201.5"/>
<text text-anchor="middle" x="2210" y="-208.5" font-family="FreeSans" font-size="10.00">Feature.ipp</text>
</a>
</g>
</g>
<!-- Node30&#45;&gt;Node31 -->
<g id="edge45" class="edge"><title>Node30&#45;&gt;Node31</title>
<path fill="none" stroke="midnightblue" d="M2271.68,-262.975C2260.35,-253.608 2241.93,-238.384 2228.16,-227.008"/>
<polygon fill="midnightblue" stroke="midnightblue" points="2230.23,-224.181 2220.3,-220.509 2225.78,-229.577 2230.23,-224.181"/>
</g>
<!-- Node31&#45;&gt;Node1 -->
<g id="edge46" class="edge"><title>Node31&#45;&gt;Node1</title>
<path fill="none" stroke="midnightblue" d="M2214.99,-201.379C2220.24,-192.326 2228.71,-177.671 2236,-165 2263.17,-117.754 2295.05,-61.9553 2310.94,-34.1292"/>
<polygon fill="midnightblue" stroke="midnightblue" points="2314.11,-35.6307 2316.03,-25.2108 2308.03,-32.1606 2314.11,-35.6307"/>
</g>
<!-- Node31&#45;&gt;Node8 -->
<g id="edge47" class="edge"><title>Node31&#45;&gt;Node8</title>
<path fill="none" stroke="midnightblue" d="M2242.87,-210.808C2305.35,-211.248 2444.62,-206.935 2552,-165 2574.28,-156.298 2575.69,-146.637 2596,-134 2624.37,-116.349 2634.41,-116.841 2662,-98 2692.22,-77.3648 2724.13,-49.1269 2742.77,-31.8848"/>
<polygon fill="midnightblue" stroke="midnightblue" points="2745.21,-34.3977 2750.13,-25.0128 2740.43,-29.2831 2745.21,-34.3977"/>
</g>
<!-- Node31&#45;&gt;Node9 -->
<g id="edge48" class="edge"><title>Node31&#45;&gt;Node9</title>
<path fill="none" stroke="midnightblue" d="M2242.71,-208.302C2322.56,-203.808 2525.47,-190.188 2588,-165 2609.19,-156.464 2609.15,-145.311 2629,-134 2713.95,-85.5893 2822.79,-46.7347 2878.89,-28.2387"/>
<polygon fill="midnightblue" stroke="midnightblue" points="2879.99,-31.562 2888.41,-25.1296 2877.81,-24.9081 2879.99,-31.562"/>
</g>
<!-- Node31&#45;&gt;Node12 -->
<g id="edge76" class="edge"><title>Node31&#45;&gt;Node12</title>
<path fill="none" stroke="midnightblue" d="M2219.22,-201.486C2236.42,-186.012 2275.1,-153.113 2313,-134 2361.58,-109.501 2382.29,-124.141 2430,-98 2462.09,-80.419 2493.25,-50.9909 2510.99,-32.7211"/>
<polygon fill="midnightblue" stroke="midnightblue" points="2513.79,-34.8532 2518.14,-25.1947 2508.72,-30.0294 2513.79,-34.8532"/>
</g>
<!-- Node31&#45;&gt;Node13 -->
<g id="edge70" class="edge"><title>Node31&#45;&gt;Node13</title>
<path fill="none" stroke="midnightblue" d="M2177.22,-210.396C2098.43,-210.657 1901.49,-206.988 1854,-165 1820.88,-135.718 1812.91,-104.066 1837,-67 1858.47,-33.9672 1882.06,-47.13 1918,-31 1919.19,-30.4662 1920.4,-29.9205 1921.63,-29.3685"/>
<polygon fill="midnightblue" stroke="midnightblue" points="1923.39,-32.4157 1931.06,-25.11 1920.5,-26.0361 1923.39,-32.4157"/>
</g>
<!-- Node31&#45;&gt;Node14 -->
<g id="edge73" class="edge"><title>Node31&#45;&gt;Node14</title>
<path fill="none" stroke="midnightblue" d="M2242.5,-208.606C2335.71,-204.344 2602.57,-190.219 2686,-165 2687.43,-164.567 2688.88,-164.054 2690.31,-163.484"/>
<polygon fill="midnightblue" stroke="midnightblue" points="2691.92,-166.594 2699.45,-159.136 2688.91,-160.273 2691.92,-166.594"/>
</g>
<!-- Node31&#45;&gt;Node15 -->
<g id="edge72" class="edge"><title>Node31&#45;&gt;Node15</title>
<path fill="none" stroke="midnightblue" d="M2242.66,-207.825C2285.95,-203.915 2363.87,-193.265 2424,-165 2444.04,-155.58 2442.93,-143.343 2463,-134 2536.18,-99.9443 2585.82,-156.908 2641,-98 2656.6,-81.3452 2657.01,-53.719 2655.11,-35.3127"/>
<polygon fill="midnightblue" stroke="midnightblue" points="2658.56,-34.6659 2653.75,-25.2241 2651.62,-35.6025 2658.56,-34.6659"/>
</g>
<!-- Node31&#45;&gt;Node17 -->
<g id="edge79" class="edge"><title>Node31&#45;&gt;Node17</title>
<path fill="none" stroke="midnightblue" d="M2242.53,-209.697C2313.15,-208.343 2485.33,-201.251 2624,-165 2626.36,-164.384 2628.76,-163.631 2631.15,-162.797"/>
<polygon fill="midnightblue" stroke="midnightblue" points="2632.68,-165.958 2640.7,-159.041 2630.11,-159.444 2632.68,-165.958"/>
</g>
<!-- Node31&#45;&gt;Node20 -->
<g id="edge88" class="edge"><title>Node31&#45;&gt;Node20</title>
<path fill="none" stroke="midnightblue" d="M2232.78,-201.475C2260.05,-191.269 2305.91,-174.108 2336.8,-162.549"/>
<polygon fill="midnightblue" stroke="midnightblue" points="2338.12,-165.792 2346.26,-159.009 2335.67,-159.236 2338.12,-165.792"/>
</g>
<!-- Node31&#45;&gt;Node22 -->
<g id="edge92" class="edge"><title>Node31&#45;&gt;Node22</title>
<path fill="none" stroke="midnightblue" d="M2242.51,-207.272C2325.33,-200.316 2550.98,-181.309 2739,-165 2763.53,-162.872 2790.12,-160.535 2814.6,-158.37"/>
<polygon fill="midnightblue" stroke="midnightblue" points="2814.94,-161.854 2824.59,-157.486 2814.32,-154.881 2814.94,-161.854"/>
</g>
<!-- Node31&#45;&gt;Node25 -->
<g id="edge80" class="edge"><title>Node31&#45;&gt;Node25</title>
<path fill="none" stroke="midnightblue" d="M2242.72,-205.162C2290.37,-197.866 2381.54,-182.974 2458,-165 2462.11,-164.034 2466.38,-162.939 2470.62,-161.793"/>
<polygon fill="midnightblue" stroke="midnightblue" points="2471.68,-165.131 2480.36,-159.064 2469.79,-158.39 2471.68,-165.131"/>
</g>
<!-- Node31&#45;&gt;Node29 -->
<g id="edge77" class="edge"><title>Node31&#45;&gt;Node29</title>
<path fill="none" stroke="midnightblue" d="M2177.3,-210.007C2059.76,-209.696 1663.61,-205.619 1626,-165 1586.49,-122.334 1662.14,-81.2888 1687,-67 1753.2,-28.947 1782.47,-54.8955 1855,-31 1856.87,-30.3845 1858.77,-29.6939 1860.68,-28.957"/>
<polygon fill="midnightblue" stroke="midnightblue" points="1862.15,-32.1348 1870,-25.0188 1859.42,-25.6866 1862.15,-32.1348"/>
</g>
<!-- Node32 -->
<g id="node33" class="node"><title>Node32</title>
<g id="a_node33"><a xlink:href="boost__dynamic__bitset_8hpp.html" target="_top" xlink:title="../Modified/boost_dynamic\l_bitset.hpp">
<polygon fill="white" stroke="black" points="1305,-67.5 1305,-97.5 1433,-97.5 1433,-67.5 1305,-67.5"/>
<text text-anchor="start" x="1313" y="-85.5" font-family="FreeSans" font-size="10.00">../Modified/boost_dynamic</text>
<text text-anchor="middle" x="1369" y="-74.5" font-family="FreeSans" font-size="10.00">_bitset.hpp</text>
</a>
</g>
</g>
<!-- Node31&#45;&gt;Node32 -->
<g id="edge49" class="edge"><title>Node31&#45;&gt;Node32</title>
<path fill="none" stroke="midnightblue" d="M2177.44,-208.811C2066.86,-204.588 1706.29,-189.252 1593,-165 1526.27,-150.716 1452.57,-121.018 1408.56,-101.69"/>
<polygon fill="midnightblue" stroke="midnightblue" points="1409.93,-98.468 1399.37,-97.6134 1407.09,-104.867 1409.93,-98.468"/>
</g>
<!-- Node39 -->
<g id="node40" class="node"><title>Node39</title>
<polygon fill="white" stroke="#bfbfbf" points="0,-6 0,-25 52,-25 52,-6 0,-6"/>
<text text-anchor="middle" x="26" y="-13" font-family="FreeSans" font-size="10.00">ostream</text>
</g>
<!-- Node31&#45;&gt;Node39 -->
<g id="edge71" class="edge"><title>Node31&#45;&gt;Node39</title>
<path fill="none" stroke="midnightblue" d="M2177.28,-208.323C2075.33,-203.018 1754.39,-185.729 1489,-165 853.481,-115.362 679.702,-184.482 61,-31 58.4864,-30.3765 55.9181,-29.6017 53.3712,-28.737"/>
<polygon fill="midnightblue" stroke="midnightblue" points="54.4074,-25.3861 43.8168,-25.0858 51.9086,-31.925 54.4074,-25.3861"/>
</g>
<!-- Node50 -->
<g id="node51" class="node"><title>Node50</title>
<polygon fill="white" stroke="#bfbfbf" points="1873,-140 1873,-159 1903,-159 1903,-140 1873,-140"/>
<text text-anchor="middle" x="1888" y="-147" font-family="FreeSans" font-size="10.00">set</text>
</g>
<!-- Node31&#45;&gt;Node50 -->
<g id="edge74" class="edge"><title>Node31&#45;&gt;Node50</title>
<path fill="none" stroke="midnightblue" d="M2177.23,-209.218C2121.24,-206.978 2004.27,-198.333 1912,-165 1911.12,-164.682 1910.23,-164.329 1909.35,-163.949"/>
<polygon fill="midnightblue" stroke="midnightblue" points="1910.72,-160.713 1900.24,-159.157 1907.46,-166.909 1910.72,-160.713"/>
</g>
<!-- Node51 -->
<g id="node52" class="node"><title>Node51</title>
<polygon fill="white" stroke="#bfbfbf" points="1921.5,-140 1921.5,-159 1950.5,-159 1950.5,-140 1921.5,-140"/>
<text text-anchor="middle" x="1936" y="-147" font-family="FreeSans" font-size="10.00">list</text>
</g>
<!-- Node31&#45;&gt;Node51 -->
<g id="edge75" class="edge"><title>Node31&#45;&gt;Node51</title>
<path fill="none" stroke="midnightblue" d="M2177.23,-208.136C2128.25,-204.471 2033.71,-193.973 1959,-165 1958.27,-164.718 1957.55,-164.413 1956.82,-164.088"/>
<polygon fill="midnightblue" stroke="midnightblue" points="1958.16,-160.833 1947.71,-159.097 1954.8,-166.972 1958.16,-160.833"/>
</g>
<!-- Node52 -->
<g id="node53" class="node"><title>Node52</title>
<polygon fill="white" stroke="#bfbfbf" points="1968.5,-140 1968.5,-159 2011.5,-159 2011.5,-140 1968.5,-140"/>
<text text-anchor="middle" x="1990" y="-147" font-family="FreeSans" font-size="10.00">queue</text>
</g>
<!-- Node31&#45;&gt;Node52 -->
<g id="edge78" class="edge"><title>Node31&#45;&gt;Node52</title>
<path fill="none" stroke="midnightblue" d="M2177.32,-204.32C2139.18,-197.211 2074.5,-183.664 2021,-165 2019.38,-164.435 2017.73,-163.813 2016.08,-163.154"/>
<polygon fill="midnightblue" stroke="midnightblue" points="2017.36,-159.894 2006.8,-159.115 2014.57,-166.313 2017.36,-159.894"/>
</g>
<!-- Node53 -->
<g id="node54" class="node"><title>Node53</title>
<g id="a_node54"><a xlink:href="Descriptor_8h.html" target="_top" xlink:title="Descriptor.h">
<polygon fill="white" stroke="black" points="1635,-140 1635,-159 1703,-159 1703,-140 1635,-140"/>
<text text-anchor="middle" x="1669" y="-147" font-family="FreeSans" font-size="10.00">Descriptor.h</text>
</a>
</g>
</g>
<!-- Node31&#45;&gt;Node53 -->
<g id="edge81" class="edge"><title>Node31&#45;&gt;Node53</title>
<path fill="none" stroke="midnightblue" d="M2177.38,-209.298C2097.91,-207.095 1888.26,-198.327 1717,-165 1712.77,-164.177 1708.38,-163.13 1704.05,-161.977"/>
<polygon fill="midnightblue" stroke="midnightblue" points="1704.75,-158.534 1694.17,-159.147 1702.82,-165.264 1704.75,-158.534"/>
</g>
<!-- Node54 -->
<g id="node55" class="node"><title>Node54</title>
<g id="a_node55"><a xlink:href="RoI_8h.html" target="_top" xlink:title="RoI.h">
<polygon fill="white" stroke="black" points="1879.5,-73 1879.5,-92 1918.5,-92 1918.5,-73 1879.5,-73"/>
<text text-anchor="middle" x="1899" y="-80" font-family="FreeSans" font-size="10.00">RoI.h</text>
</a>
</g>
</g>
<!-- Node31&#45;&gt;Node54 -->
<g id="edge85" class="edge"><title>Node31&#45;&gt;Node54</title>
<path fill="none" stroke="midnightblue" d="M2177.32,-208.167C2095.06,-203.222 1884.54,-188.382 1864,-165 1847.08,-145.737 1866.97,-117.056 1882.95,-99.3557"/>
<polygon fill="midnightblue" stroke="midnightblue" points="1885.52,-101.731 1889.87,-92.0693 1880.45,-96.9103 1885.52,-101.731"/>
</g>
<!-- Node55 -->
<g id="node56" class="node"><title>Node55</title>
<g id="a_node56"><a xlink:href="TaggedData_8h.html" target="_top" xlink:title="../DataStructures/Tagged\lData.h">
<polygon fill="white" stroke="black" points="2102.5,-134.5 2102.5,-164.5 2227.5,-164.5 2227.5,-134.5 2102.5,-134.5"/>
<text text-anchor="start" x="2110.5" y="-152.5" font-family="FreeSans" font-size="10.00">../DataStructures/Tagged</text>
<text text-anchor="middle" x="2165" y="-141.5" font-family="FreeSans" font-size="10.00">Data.h</text>
</a>
</g>
</g>
<!-- Node31&#45;&gt;Node55 -->
<g id="edge89" class="edge"><title>Node31&#45;&gt;Node55</title>
<path fill="none" stroke="midnightblue" d="M2203.55,-201.475C2197.86,-193.944 2189.3,-182.626 2181.69,-172.566"/>
<polygon fill="midnightblue" stroke="midnightblue" points="2184.43,-170.388 2175.61,-164.523 2178.85,-174.61 2184.43,-170.388"/>
</g>
<!-- Node57 -->
<g id="node58" class="node"><title>Node57</title>
<polygon fill="white" stroke="#bfbfbf" points="2030,-140 2030,-159 2084,-159 2084,-140 2030,-140"/>
<text text-anchor="middle" x="2057" y="-147" font-family="FreeSans" font-size="10.00">iostream</text>
</g>
<!-- Node31&#45;&gt;Node57 -->
<g id="edge93" class="edge"><title>Node31&#45;&gt;Node57</title>
<path fill="none" stroke="midnightblue" d="M2187.53,-201.478C2163.94,-192.504 2125.81,-177.915 2093,-165 2091.36,-164.355 2089.68,-163.691 2087.99,-163.018"/>
<polygon fill="midnightblue" stroke="midnightblue" points="2088.88,-159.606 2078.3,-159.143 2086.28,-166.106 2088.88,-159.606"/>
</g>
<!-- Node32&#45;&gt;Node13 -->
<g id="edge54" class="edge"><title>Node32&#45;&gt;Node13</title>
<path fill="none" stroke="midnightblue" d="M1433.25,-78.278C1557.86,-71.5873 1828.01,-54.8028 1918,-31 1920.16,-30.4297 1922.35,-29.7266 1924.52,-28.9402"/>
<polygon fill="midnightblue" stroke="midnightblue" points="1925.88,-32.169 1933.78,-25.113 1923.2,-25.7003 1925.88,-32.169"/>
</g>
<!-- Node32&#45;&gt;Node28 -->
<g id="edge53" class="edge"><title>Node32&#45;&gt;Node28</title>
<path fill="none" stroke="midnightblue" d="M1433.38,-82.2891C1545.95,-82.3248 1785.23,-76.4064 1981,-31 1983.84,-30.3424 1986.74,-29.5077 1989.62,-28.5722"/>
<polygon fill="midnightblue" stroke="midnightblue" points="1990.93,-31.8189 1999.13,-25.1139 1988.54,-25.2398 1990.93,-31.8189"/>
</g>
<!-- Node32&#45;&gt;Node29 -->
<g id="edge55" class="edge"><title>Node32&#45;&gt;Node29</title>
<path fill="none" stroke="midnightblue" d="M1433.3,-77.3921C1546.58,-69.7267 1777.11,-52.095 1855,-31 1857.15,-30.417 1859.34,-29.7048 1861.52,-28.9121"/>
<polygon fill="midnightblue" stroke="midnightblue" points="1862.87,-32.1388 1870.77,-25.0735 1860.19,-25.6732 1862.87,-32.1388"/>
</g>
<!-- Node33 -->
<g id="node34" class="node"><title>Node33</title>
<polygon fill="white" stroke="#bfbfbf" points="1404.5,-6 1404.5,-25 1455.5,-25 1455.5,-6 1404.5,-6"/>
<text text-anchor="middle" x="1430" y="-13" font-family="FreeSans" font-size="10.00">assert.h</text>
</g>
<!-- Node32&#45;&gt;Node33 -->
<g id="edge50" class="edge"><title>Node32&#45;&gt;Node33</title>
<path fill="none" stroke="midnightblue" d="M1382.24,-67.396C1391.84,-57.1607 1404.85,-43.2959 1414.87,-32.622"/>
<polygon fill="midnightblue" stroke="midnightblue" points="1417.55,-34.8815 1421.84,-25.1945 1412.45,-30.0913 1417.55,-34.8815"/>
</g>
<!-- Node34 -->
<g id="node35" class="node"><title>Node34</title>
<polygon fill="white" stroke="#bfbfbf" points="1473.5,-6 1473.5,-25 1514.5,-25 1514.5,-6 1473.5,-6"/>
<text text-anchor="middle" x="1494" y="-13" font-family="FreeSans" font-size="10.00">string</text>
</g>
<!-- Node32&#45;&gt;Node34 -->
<g id="edge51" class="edge"><title>Node32&#45;&gt;Node34</title>
<path fill="none" stroke="midnightblue" d="M1396.12,-67.396C1417.67,-56.1928 1447.57,-40.6412 1468.64,-29.6853"/>
<polygon fill="midnightblue" stroke="midnightblue" points="1470.38,-32.7258 1477.64,-25.007 1467.15,-26.5153 1470.38,-32.7258"/>
</g>
<!-- Node35 -->
<g id="node36" class="node"><title>Node35</title>
<polygon fill="white" stroke="#bfbfbf" points="1532.5,-6 1532.5,-25 1591.5,-25 1591.5,-6 1532.5,-6"/>
<text text-anchor="middle" x="1562" y="-13" font-family="FreeSans" font-size="10.00">stdexcept</text>
</g>
<!-- Node32&#45;&gt;Node35 -->
<g id="edge52" class="edge"><title>Node32&#45;&gt;Node35</title>
<path fill="none" stroke="midnightblue" d="M1413.3,-67.4801C1444.16,-57.5901 1486.21,-43.8641 1523,-31 1525.24,-30.2153 1527.56,-29.3928 1529.88,-28.5551"/>
<polygon fill="midnightblue" stroke="midnightblue" points="1531.18,-31.8063 1539.37,-25.0843 1528.78,-25.2322 1531.18,-31.8063"/>
</g>
<!-- Node36 -->
<g id="node37" class="node"><title>Node36</title>
<polygon fill="white" stroke="#bfbfbf" points="1609.5,-0.5 1609.5,-30.5 1718.5,-30.5 1718.5,-0.5 1609.5,-0.5"/>
<text text-anchor="start" x="1617.5" y="-18.5" font-family="FreeSans" font-size="10.00">boost/dynamic_bitset</text>
<text text-anchor="middle" x="1664" y="-7.5" font-family="FreeSans" font-size="10.00">/config.hpp</text>
</g>
<!-- Node32&#45;&gt;Node36 -->
<g id="edge56" class="edge"><title>Node32&#45;&gt;Node36</title>
<path fill="none" stroke="midnightblue" d="M1433.25,-67.5895C1477.26,-58.0302 1537.24,-44.9419 1599.23,-31.1628"/>
<polygon fill="midnightblue" stroke="midnightblue" points="1600.19,-34.5341 1609.19,-28.9458 1598.67,-27.7012 1600.19,-34.5341"/>
</g>
<!-- Node37 -->
<g id="node38" class="node"><title>Node37</title>
<polygon fill="white" stroke="#bfbfbf" points="1737,-6 1737,-25 1779,-25 1779,-6 1737,-6"/>
<text text-anchor="middle" x="1758" y="-13" font-family="FreeSans" font-size="10.00">locale</text>
</g>
<!-- Node32&#45;&gt;Node37 -->
<g id="edge57" class="edge"><title>Node32&#45;&gt;Node37</title>
<path fill="none" stroke="midnightblue" d="M1433.27,-78.1907C1505.88,-73.138 1626.97,-60.722 1727,-31 1728.88,-30.4415 1730.79,-29.7861 1732.69,-29.068"/>
<polygon fill="midnightblue" stroke="midnightblue" points="1734.13,-32.2612 1741.95,-25.1137 1731.38,-25.8241 1734.13,-32.2612"/>
</g>
<!-- Node38 -->
<g id="node39" class="node"><title>Node38</title>
<polygon fill="white" stroke="#bfbfbf" points="1797.5,-6 1797.5,-25 1846.5,-25 1846.5,-6 1797.5,-6"/>
<text text-anchor="middle" x="1822" y="-13" font-family="FreeSans" font-size="10.00">istream</text>
</g>
<!-- Node32&#45;&gt;Node38 -->
<g id="edge58" class="edge"><title>Node32&#45;&gt;Node38</title>
<path fill="none" stroke="midnightblue" d="M1433.24,-79.3871C1516.39,-75.3808 1665.2,-63.8688 1788,-31 1790.35,-30.37 1792.76,-29.6079 1795.14,-28.7668"/>
<polygon fill="midnightblue" stroke="midnightblue" points="1796.67,-31.9263 1804.69,-25 1794.1,-25.4149 1796.67,-31.9263"/>
</g>
<!-- Node32&#45;&gt;Node39 -->
<g id="edge59" class="edge"><title>Node32&#45;&gt;Node39</title>
<path fill="none" stroke="midnightblue" d="M1304.66,-80.3484C1058.34,-75.7569 182.885,-57.7029 61,-31 58.3217,-30.4132 55.5875,-29.633 52.8867,-28.738"/>
<polygon fill="midnightblue" stroke="midnightblue" points="54.0018,-25.4176 43.4107,-25.1336 51.513,-31.9602 54.0018,-25.4176"/>
</g>
<!-- Node40 -->
<g id="node41" class="node"><title>Node40</title>
<polygon fill="white" stroke="#bfbfbf" points="70.5,-0.5 70.5,-30.5 179.5,-30.5 179.5,-0.5 70.5,-0.5"/>
<text text-anchor="start" x="78.5" y="-18.5" font-family="FreeSans" font-size="10.00">boost/dynamic_bitset</text>
<text text-anchor="middle" x="125" y="-7.5" font-family="FreeSans" font-size="10.00">_fwd.hpp</text>
</g>
<!-- Node32&#45;&gt;Node40 -->
<g id="edge60" class="edge"><title>Node32&#45;&gt;Node40</title>
<path fill="none" stroke="midnightblue" d="M1304.71,-80.2746C1094.3,-76.0284 426.758,-60.6284 189.644,-30.864"/>
<polygon fill="midnightblue" stroke="midnightblue" points="190.063,-27.3891 179.695,-29.5725 189.161,-34.3308 190.063,-27.3891"/>
</g>
<!-- Node41 -->
<g id="node42" class="node"><title>Node41</title>
<polygon fill="white" stroke="#bfbfbf" points="198,-0.5 198,-30.5 304,-30.5 304,-0.5 198,-0.5"/>
<text text-anchor="start" x="206" y="-18.5" font-family="FreeSans" font-size="10.00">boost/detail/dynamic</text>
<text text-anchor="middle" x="251" y="-7.5" font-family="FreeSans" font-size="10.00">_bitset.hpp</text>
</g>
<!-- Node32&#45;&gt;Node41 -->
<g id="edge61" class="edge"><title>Node32&#45;&gt;Node41</title>
<path fill="none" stroke="midnightblue" d="M1304.97,-79.9665C1110.15,-75.0633 525.507,-58.5345 314.387,-30.9816"/>
<polygon fill="midnightblue" stroke="midnightblue" points="314.697,-27.4918 304.318,-29.619 313.759,-34.4285 314.697,-27.4918"/>
</g>
<!-- Node42 -->
<g id="node43" class="node"><title>Node42</title>
<polygon fill="white" stroke="#bfbfbf" points="322,-6 322,-25 440,-25 440,-6 322,-6"/>
<text text-anchor="middle" x="381" y="-13" font-family="FreeSans" font-size="10.00">boost/detail/iterator.hpp</text>
</g>
<!-- Node32&#45;&gt;Node42 -->
<g id="edge62" class="edge"><title>Node32&#45;&gt;Node42</title>
<path fill="none" stroke="midnightblue" d="M1304.83,-81.3946C1154.54,-80.4043 768.303,-73.5448 449,-31 441.512,-30.0023 433.622,-28.626 425.974,-27.1157"/>
<polygon fill="midnightblue" stroke="midnightblue" points="426.614,-23.6742 416.112,-25.0737 425.195,-30.5287 426.614,-23.6742"/>
</g>
<!-- Node43 -->
<g id="node44" class="node"><title>Node43</title>
<polygon fill="white" stroke="#bfbfbf" points="458.5,-6 458.5,-25 571.5,-25 571.5,-6 458.5,-6"/>
<text text-anchor="middle" x="515" y="-13" font-family="FreeSans" font-size="10.00">boost/move/move.hpp</text>
</g>
<!-- Node32&#45;&gt;Node43 -->
<g id="edge63" class="edge"><title>Node32&#45;&gt;Node43</title>
<path fill="none" stroke="midnightblue" d="M1304.99,-80.7702C1170.21,-78.4954 847.521,-69.1637 580,-31 573.079,-30.0126 565.8,-28.6827 558.72,-27.2271"/>
<polygon fill="midnightblue" stroke="midnightblue" points="559.067,-23.7213 548.553,-25.0299 557.588,-30.5633 559.067,-23.7213"/>
</g>
<!-- Node44 -->
<g id="node45" class="node"><title>Node44</title>
<polygon fill="white" stroke="#bfbfbf" points="589.5,-6 589.5,-25 674.5,-25 674.5,-6 589.5,-6"/>
<text text-anchor="middle" x="632" y="-13" font-family="FreeSans" font-size="10.00">boost/limits.hpp</text>
</g>
<!-- Node32&#45;&gt;Node44 -->
<g id="edge64" class="edge"><title>Node32&#45;&gt;Node44</title>
<path fill="none" stroke="midnightblue" d="M1304.62,-81.1114C1182.47,-79.4158 909.068,-71.0275 683,-31 678.156,-30.1424 673.113,-29.011 668.163,-27.7575"/>
<polygon fill="midnightblue" stroke="midnightblue" points="668.799,-24.3035 658.232,-25.0617 666.966,-31.0591 668.799,-24.3035"/>
</g>
<!-- Node45 -->
<g id="node46" class="node"><title>Node45</title>
<polygon fill="white" stroke="#bfbfbf" points="692.5,-0.5 692.5,-30.5 801.5,-30.5 801.5,-0.5 692.5,-0.5"/>
<text text-anchor="start" x="700.5" y="-18.5" font-family="FreeSans" font-size="10.00">boost/pending/lowest</text>
<text text-anchor="middle" x="747" y="-7.5" font-family="FreeSans" font-size="10.00">_bit.hpp</text>
</g>
<!-- Node32&#45;&gt;Node45 -->
<g id="edge65" class="edge"><title>Node32&#45;&gt;Node45</title>
<path fill="none" stroke="midnightblue" d="M1304.64,-78.4522C1202.31,-72.996 996.133,-59.5135 811.868,-30.9888"/>
<polygon fill="midnightblue" stroke="midnightblue" points="812.142,-27.489 801.721,-29.399 811.058,-34.4047 812.142,-27.489"/>
</g>
<!-- Node46 -->
<g id="node47" class="node"><title>Node46</title>
<polygon fill="white" stroke="#bfbfbf" points="820,-6 820,-25 938,-25 938,-6 820,-6"/>
<text text-anchor="middle" x="879" y="-13" font-family="FreeSans" font-size="10.00">boost/static_assert.hpp</text>
</g>
<!-- Node32&#45;&gt;Node46 -->
<g id="edge66" class="edge"><title>Node32&#45;&gt;Node46</title>
<path fill="none" stroke="midnightblue" d="M1304.76,-75.6474C1221.8,-67.6705 1073.11,-51.9462 947,-31 940.2,-29.8705 933.049,-28.5233 926.043,-27.1117"/>
<polygon fill="midnightblue" stroke="midnightblue" points="926.443,-23.6201 915.94,-25.0155 925.02,-30.4742 926.443,-23.6201"/>
</g>
<!-- Node47 -->
<g id="node48" class="node"><title>Node47</title>
<polygon fill="white" stroke="#bfbfbf" points="956,-6 956,-25 1086,-25 1086,-6 956,-6"/>
<text text-anchor="middle" x="1021" y="-13" font-family="FreeSans" font-size="10.00">boost/utility/addressof.hpp</text>
</g>
<!-- Node32&#45;&gt;Node47 -->
<g id="edge67" class="edge"><title>Node32&#45;&gt;Node47</title>
<path fill="none" stroke="midnightblue" d="M1304.74,-69.8673C1249.19,-59.7604 1166.75,-44.6419 1095,-31 1088.26,-29.7186 1081.18,-28.3542 1074.18,-26.9944"/>
<polygon fill="midnightblue" stroke="midnightblue" points="1074.51,-23.4939 1064.03,-25.0158 1073.17,-30.3645 1074.51,-23.4939"/>
</g>
<!-- Node48 -->
<g id="node49" class="node"><title>Node48</title>
<polygon fill="white" stroke="#bfbfbf" points="1104,-0.5 1104,-30.5 1236,-30.5 1236,-0.5 1104,-0.5"/>
<text text-anchor="start" x="1112" y="-18.5" font-family="FreeSans" font-size="10.00">boost/detail/no_exceptions</text>
<text text-anchor="middle" x="1170" y="-7.5" font-family="FreeSans" font-size="10.00">_support.hpp</text>
</g>
<!-- Node32&#45;&gt;Node48 -->
<g id="edge68" class="edge"><title>Node32&#45;&gt;Node48</title>
<path fill="none" stroke="midnightblue" d="M1325.82,-67.396C1295.57,-57.5154 1254.97,-44.2525 1222.79,-33.7429"/>
<polygon fill="midnightblue" stroke="midnightblue" points="1223.69,-30.3545 1213.1,-30.5765 1221.51,-37.0085 1223.69,-30.3545"/>
</g>
<!-- Node49 -->
<g id="node50" class="node"><title>Node49</title>
<polygon fill="white" stroke="#bfbfbf" points="1254,-6 1254,-25 1386,-25 1386,-6 1254,-6"/>
<text text-anchor="middle" x="1320" y="-13" font-family="FreeSans" font-size="10.00">boost/throw_exception.hpp</text>
</g>
<!-- Node32&#45;&gt;Node49 -->
<g id="edge69" class="edge"><title>Node32&#45;&gt;Node49</title>
<path fill="none" stroke="midnightblue" d="M1358.37,-67.396C1350.8,-57.3614 1340.61,-43.8382 1332.63,-33.2535"/>
<polygon fill="midnightblue" stroke="midnightblue" points="1335.37,-31.0729 1326.55,-25.1945 1329.78,-35.2867 1335.37,-31.0729"/>
</g>
<!-- Node53&#45;&gt;Node3 -->
<g id="edge83" class="edge"><title>Node53&#45;&gt;Node3</title>
<path fill="none" stroke="midnightblue" d="M1703.17,-143.626C1763.67,-134.7 1887.02,-115.071 1927,-98 1949,-88.6067 1949.93,-78.331 1971,-67 2000.77,-50.989 2036.73,-37.3372 2063.12,-28.28"/>
<polygon fill="midnightblue" stroke="midnightblue" points="2064.37,-31.5511 2072.73,-25.0384 2062.13,-24.9183 2064.37,-31.5511"/>
</g>
<!-- Node53&#45;&gt;Node13 -->
<g id="edge84" class="edge"><title>Node53&#45;&gt;Node13</title>
<path fill="none" stroke="midnightblue" d="M1671.4,-139.938C1676.62,-123.003 1690.72,-85.288 1717,-67 1791.5,-15.1673 1831.33,-57.9358 1918,-31 1919.88,-30.4162 1921.79,-29.7494 1923.7,-29.0297"/>
<polygon fill="midnightblue" stroke="midnightblue" points="1925.16,-32.2148 1933.03,-25.1307 1922.46,-25.7557 1925.16,-32.2148"/>
</g>
<!-- Node53&#45;&gt;Node32 -->
<g id="edge82" class="edge"><title>Node53&#45;&gt;Node32</title>
<path fill="none" stroke="midnightblue" d="M1634.88,-141.107C1588.54,-131.068 1504.49,-112.857 1443.27,-99.5911"/>
<polygon fill="midnightblue" stroke="midnightblue" points="1443.78,-96.1208 1433.26,-97.4238 1442.3,-102.962 1443.78,-96.1208"/>
</g>
<!-- Node54&#45;&gt;Node3 -->
<g id="edge86" class="edge"><title>Node54&#45;&gt;Node3</title>
<path fill="none" stroke="midnightblue" d="M1917.91,-72.9766C1922.78,-70.907 1928.05,-68.7797 1933,-67 1986.2,-47.8791 2000.98,-47.6705 2055,-31 2057.96,-30.0856 2061.03,-29.1252 2064.11,-28.1524"/>
<polygon fill="midnightblue" stroke="midnightblue" points="2065.4,-31.4163 2073.86,-25.0438 2063.27,-24.7471 2065.4,-31.4163"/>
</g>
<!-- Node54&#45;&gt;Node13 -->
<g id="edge87" class="edge"><title>Node54&#45;&gt;Node13</title>
<path fill="none" stroke="midnightblue" d="M1905.88,-72.7338C1913.83,-62.5979 1927.1,-45.6899 1937.01,-33.0556"/>
<polygon fill="midnightblue" stroke="midnightblue" points="1939.81,-35.1552 1943.23,-25.1273 1934.3,-30.8342 1939.81,-35.1552"/>
</g>
<!-- Node56 -->
<g id="node57" class="node"><title>Node56</title>
<g id="a_node57"><a xlink:href="TaggedData_8ipp.html" target="_top" xlink:title="TaggedData.ipp">
<polygon fill="white" stroke="black" points="2132,-73 2132,-92 2216,-92 2216,-73 2132,-73"/>
<text text-anchor="middle" x="2174" y="-80" font-family="FreeSans" font-size="10.00">TaggedData.ipp</text>
</a>
</g>
</g>
<!-- Node55&#45;&gt;Node56 -->
<g id="edge90" class="edge"><title>Node55&#45;&gt;Node56</title>
<path fill="none" stroke="midnightblue" d="M2166.95,-134.396C2168.26,-124.963 2169.99,-112.448 2171.41,-102.189"/>
<polygon fill="midnightblue" stroke="midnightblue" points="2174.89,-102.58 2172.8,-92.1945 2167.96,-101.62 2174.89,-102.58"/>
</g>
<!-- Node56&#45;&gt;Node1 -->
<g id="edge91" class="edge"><title>Node56&#45;&gt;Node1</title>
<path fill="none" stroke="midnightblue" d="M2193.52,-72.8685C2218.78,-61.699 2263,-42.1468 2292.14,-29.2602"/>
<polygon fill="midnightblue" stroke="midnightblue" points="2293.67,-32.4123 2301.4,-25.1672 2290.84,-26.0103 2293.67,-32.4123"/>
</g>
</g>
</svg>
        <g id="navigator" transform="translate(0 0)" fill="#404254">
                <rect fill="#f2f5e9" fill-opacity="0.5" stroke="#606060" stroke-width=".5" x="0" y="0" width="60" height="60"/>
                <use id="zoomplus" xlink:href="#zoomPlus" x="17" y="9" onmousedown="handleZoom(evt,'in')"/>
                <use id="zoomminus" xlink:href="#zoomMin" x="42" y="9" onmousedown="handleZoom(evt,'out')"/>
                <use id="reset" xlink:href="#resetDef" x="30" y="36" onmousedown="handleReset()"/>
                <g id="arrowUp" xlink:href="#dirArrow" transform="translate(30 24)" onmousedown="handlePan(0,-1)">
                  <use xlink:href="#rim" fill="#404040">
                        <set attributeName="fill" to="#808080" begin="arrowUp.mouseover" end="arrowUp.mouseout"/>
                  </use>
                  <path fill="none" stroke="white" stroke-width="1.5" d="M0,-3.0v7 M-2.5,-0.5L0,-3.0L2.5,-0.5"/>
                </g>
                <g id="arrowRight" xlink:href="#dirArrow" transform="rotate(90) translate(36 -43)" onmousedown="handlePan(1,0)">
                  <use xlink:href="#rim" fill="#404040">
                        <set attributeName="fill" to="#808080" begin="arrowRight.mouseover" end="arrowRight.mouseout"/>
                  </use>
                  <path fill="none" stroke="white" stroke-width="1.5" d="M0,-3.0v7 M-2.5,-0.5L0,-3.0L2.5,-0.5"/>
                </g>
                <g id="arrowDown" xlink:href="#dirArrow" transform="rotate(180) translate(-30 -48)" onmousedown="handlePan(0,1)">
                  <use xlink:href="#rim" fill="#404040">
                        <set attributeName="fill" to="#808080" begin="arrowDown.mouseover" end="arrowDown.mouseout"/>
                  </use>
                  <path fill="none" stroke="white" stroke-width="1.5" d="M0,-3.0v7 M-2.5,-0.5L0,-3.0L2.5,-0.5"/>
                </g>
                <g id="arrowLeft" xlink:href="#dirArrow" transform="rotate(270) translate(-36 17)" onmousedown="handlePan(-1,0)">
                  <use xlink:href="#rim" fill="#404040">
                        <set attributeName="fill" to="#808080" begin="arrowLeft.mouseover" end="arrowLeft.mouseout"/>
                  </use>
                  <path fill="none" stroke="white" stroke-width="1.5" d="M0,-3.0v7 M-2.5,-0.5L0,-3.0L2.5,-0.5"/>
                </g>
        </g>
        <svg viewBox="0 0 15 15" width="100%" height="30px" preserveAspectRatio="xMaxYMin meet">
         <g id="arrow_out" transform="scale(0.3 0.3)">
          <a xlink:href="PowellDogLegProblemConcept_8ipp__incl_org.svg" target="_base">
           <rect id="button" ry="5" rx="5" y="6" x="6" height="38" width="38"
                fill="#f2f5e9" fill-opacity="0.5" stroke="#606060" stroke-width="1.0"/>
           <path id="arrow"
             d="M 11.500037,31.436501 C 11.940474,20.09759 22.043105,11.32322 32.158766,21.979434 L 37.068811,17.246167 C 37.068811,17.246167 37.088388,32 37.088388,32 L 22.160133,31.978069 C 22.160133,31.978069 26.997745,27.140456 26.997745,27.140456 C 18.528582,18.264221 13.291696,25.230495 11.500037,31.436501 z"
             style="fill:#404040;"/>
          </a>
         </g>
        </svg>
</svg>
