<?xml version="1.0" encoding="UTF-8" standalone="no"?>
<!DOCTYPE svg PUBLIC "-//W3C//DTD SVG 1.1//EN"
 "http://www.w3.org/Graphics/SVG/1.1/DTD/svg11.dtd">
<!-- Generated by graphviz version 2.38.0 (20140413.2041)
 -->
<!-- Title: src/RandomSpanningTreeSampler/RandomSpanningTreeSampler.h Pages: 1 -->
<svg width="1661pt" height="285pt"
 viewBox="0.00 0.00 1661.00 285.00" xmlns="http://www.w3.org/2000/svg" xmlns:xlink="http://www.w3.org/1999/xlink">
<g id="graph0" class="graph" transform="scale(1 1) rotate(0) translate(4 281)">
<title>src/RandomSpanningTreeSampler/RandomSpanningTreeSampler.h</title>
<polygon fill="white" stroke="none" points="-4,4 -4,-281 1657,-281 1657,4 -4,4"/>
<!-- Node0 -->
<g id="node1" class="node"><title>Node0</title>
<polygon fill="#bfbfbf" stroke="black" points="901,-246.5 901,-276.5 1066,-276.5 1066,-246.5 901,-246.5"/>
<text text-anchor="start" x="909" y="-264.5" font-family="FreeSans" font-size="10.00">src/RandomSpanningTreeSampler</text>
<text text-anchor="middle" x="983.5" y="-253.5" font-family="FreeSans" font-size="10.00">/RandomSpanningTreeSampler.h</text>
</g>
<!-- Node1 -->
<g id="node2" class="node"><title>Node1</title>
<g id="a_node2"><a xlink:href="RandomSpanningTreeSampler_8ipp.html" target="_top" xlink:title="RandomSpanningTreeSampler.ipp">
<polygon fill="white" stroke="black" points="901.5,-190.5 901.5,-209.5 1065.5,-209.5 1065.5,-190.5 901.5,-190.5"/>
<text text-anchor="middle" x="983.5" y="-197.5" font-family="FreeSans" font-size="10.00">RandomSpanningTreeSampler.ipp</text>
</a>
</g>
</g>
<!-- Node0&#45;&gt;Node1 -->
<g id="edge1" class="edge"><title>Node0&#45;&gt;Node1</title>
<path fill="none" stroke="midnightblue" d="M983.5,-246.399C983.5,-238.466 983.5,-228.458 983.5,-219.858"/>
<polygon fill="midnightblue" stroke="midnightblue" points="987,-219.658 983.5,-209.658 980,-219.658 987,-219.658"/>
</g>
<!-- Node2 -->
<g id="node3" class="node"><title>Node2</title>
<polygon fill="white" stroke="#bfbfbf" points="0,-129 0,-148 95,-148 95,-129 0,-129"/>
<text text-anchor="middle" x="47.5" y="-136" font-family="FreeSans" font-size="10.00">boost/optional.hpp</text>
</g>
<!-- Node1&#45;&gt;Node2 -->
<g id="edge2" class="edge"><title>Node1&#45;&gt;Node2</title>
<path fill="none" stroke="midnightblue" d="M901.294,-196.871C713.321,-191.665 256.624,-177.011 104.5,-154 98.6143,-153.11 92.4533,-151.873 86.4476,-150.494"/>
<polygon fill="midnightblue" stroke="midnightblue" points="87.1087,-147.052 76.5632,-148.074 85.4442,-153.851 87.1087,-147.052"/>
</g>
<!-- Node3 -->
<g id="node4" class="node"><title>Node3</title>
<polygon fill="white" stroke="#bfbfbf" points="113.5,-123.5 113.5,-153.5 227.5,-153.5 227.5,-123.5 113.5,-123.5"/>
<text text-anchor="start" x="121.5" y="-141.5" font-family="FreeSans" font-size="10.00">boost/graph/adjacency</text>
<text text-anchor="middle" x="170.5" y="-130.5" font-family="FreeSans" font-size="10.00">_matrix.hpp</text>
</g>
<!-- Node1&#45;&gt;Node3 -->
<g id="edge3" class="edge"><title>Node1&#45;&gt;Node3</title>
<path fill="none" stroke="midnightblue" d="M901.411,-198.142C765.476,-195.819 485.028,-187.213 238.031,-153.899"/>
<polygon fill="midnightblue" stroke="midnightblue" points="238.161,-150.384 227.78,-152.499 237.214,-157.32 238.161,-150.384"/>
</g>
<!-- Node4 -->
<g id="node5" class="node"><title>Node4</title>
<polygon fill="white" stroke="#bfbfbf" points="246,-123.5 246,-153.5 349,-153.5 349,-123.5 246,-123.5"/>
<text text-anchor="start" x="254" y="-141.5" font-family="FreeSans" font-size="10.00">boost/graph/random</text>
<text text-anchor="middle" x="297.5" y="-130.5" font-family="FreeSans" font-size="10.00">_spanning_tree.hpp</text>
</g>
<!-- Node1&#45;&gt;Node4 -->
<g id="edge4" class="edge"><title>Node1&#45;&gt;Node4</title>
<path fill="none" stroke="midnightblue" d="M901.377,-197.307C783.437,-193.938 559.239,-184.045 359.401,-153.956"/>
<polygon fill="midnightblue" stroke="midnightblue" points="359.715,-150.464 349.302,-152.415 358.659,-157.383 359.715,-150.464"/>
</g>
<!-- Node5 -->
<g id="node6" class="node"><title>Node5</title>
<polygon fill="white" stroke="#bfbfbf" points="367.5,-123.5 367.5,-153.5 501.5,-153.5 501.5,-123.5 367.5,-123.5"/>
<text text-anchor="start" x="375.5" y="-141.5" font-family="FreeSans" font-size="10.00">boost/graph/prim_minimum</text>
<text text-anchor="middle" x="434.5" y="-130.5" font-family="FreeSans" font-size="10.00">_spanning_tree.hpp</text>
</g>
<!-- Node1&#45;&gt;Node5 -->
<g id="edge5" class="edge"><title>Node1&#45;&gt;Node5</title>
<path fill="none" stroke="midnightblue" d="M901.261,-193.126C807.611,-185.966 650.141,-172.493 515.5,-154 514.226,-153.825 512.942,-153.644 511.649,-153.459"/>
<polygon fill="midnightblue" stroke="midnightblue" points="512.027,-149.976 501.617,-151.948 510.984,-156.898 512.027,-149.976"/>
</g>
<!-- Node6 -->
<g id="node7" class="node"><title>Node6</title>
<polygon fill="white" stroke="#bfbfbf" points="394.5,-0.5 394.5,-30.5 496.5,-30.5 496.5,-0.5 394.5,-0.5"/>
<text text-anchor="start" x="402.5" y="-18.5" font-family="FreeSans" font-size="10.00">boost/property_map</text>
<text text-anchor="middle" x="445.5" y="-7.5" font-family="FreeSans" font-size="10.00">/property_map.hpp</text>
</g>
<!-- Node1&#45;&gt;Node6 -->
<g id="edge6" class="edge"><title>Node1&#45;&gt;Node6</title>
<path fill="none" stroke="midnightblue" d="M901.369,-196.229C800.534,-191.726 636.168,-180.487 581.5,-154 527.598,-127.884 482.778,-71.3973 460.557,-39.5486"/>
<polygon fill="midnightblue" stroke="midnightblue" points="463.177,-37.1785 454.651,-30.8901 457.395,-41.1234 463.177,-37.1785"/>
</g>
<!-- Node7 -->
<g id="node8" class="node"><title>Node7</title>
<polygon fill="white" stroke="#bfbfbf" points="788,-129 788,-148 901,-148 901,-129 788,-129"/>
<text text-anchor="middle" x="844.5" y="-136" font-family="FreeSans" font-size="10.00">boost/lexical_cast.hpp</text>
</g>
<!-- Node1&#45;&gt;Node7 -->
<g id="edge7" class="edge"><title>Node1&#45;&gt;Node7</title>
<path fill="none" stroke="midnightblue" d="M963.585,-190.475C940.051,-180.401 900.69,-163.553 873.707,-152.002"/>
<polygon fill="midnightblue" stroke="midnightblue" points="874.949,-148.727 864.378,-148.009 872.194,-155.162 874.949,-148.727"/>
</g>
<!-- Node8 -->
<g id="node9" class="node"><title>Node8</title>
<polygon fill="white" stroke="#bfbfbf" points="919.5,-129 919.5,-148 1047.5,-148 1047.5,-129 919.5,-129"/>
<text text-anchor="middle" x="983.5" y="-136" font-family="FreeSans" font-size="10.00">boost/range/algorithm.hpp</text>
</g>
<!-- Node1&#45;&gt;Node8 -->
<g id="edge8" class="edge"><title>Node1&#45;&gt;Node8</title>
<path fill="none" stroke="midnightblue" d="M983.5,-190.475C983.5,-182.08 983.5,-168.981 983.5,-158.163"/>
<polygon fill="midnightblue" stroke="midnightblue" points="987,-158.009 983.5,-148.009 980,-158.009 987,-158.009"/>
</g>
<!-- Node9 -->
<g id="node10" class="node"><title>Node9</title>
<polygon fill="white" stroke="#bfbfbf" points="1066,-129 1066,-148 1109,-148 1109,-129 1066,-129"/>
<text text-anchor="middle" x="1087.5" y="-136" font-family="FreeSans" font-size="10.00">omp.h</text>
</g>
<!-- Node1&#45;&gt;Node9 -->
<g id="edge9" class="edge"><title>Node1&#45;&gt;Node9</title>
<path fill="none" stroke="midnightblue" d="M998.401,-190.475C1015.47,-180.711 1043.66,-164.581 1063.76,-153.081"/>
<polygon fill="midnightblue" stroke="midnightblue" points="1065.69,-156.013 1072.63,-148.009 1062.21,-149.937 1065.69,-156.013"/>
</g>
<!-- Node10 -->
<g id="node11" class="node"><title>Node10</title>
<polygon fill="white" stroke="#bfbfbf" points="1127.5,-129 1127.5,-148 1167.5,-148 1167.5,-129 1127.5,-129"/>
<text text-anchor="middle" x="1147.5" y="-136" font-family="FreeSans" font-size="10.00">limits</text>
</g>
<!-- Node1&#45;&gt;Node10 -->
<g id="edge10" class="edge"><title>Node1&#45;&gt;Node10</title>
<path fill="none" stroke="midnightblue" d="M1013.17,-190.437C1040.82,-182.146 1083.01,-168.701 1118.5,-154 1119.7,-153.503 1120.92,-152.978 1122.14,-152.434"/>
<polygon fill="midnightblue" stroke="midnightblue" points="1123.89,-155.481 1131.43,-148.042 1120.89,-149.153 1123.89,-155.481"/>
</g>
<!-- Node11 -->
<g id="node12" class="node"><title>Node11</title>
<polygon fill="white" stroke="#bfbfbf" points="515,-6 515,-25 564,-25 564,-6 515,-6"/>
<text text-anchor="middle" x="539.5" y="-13" font-family="FreeSans" font-size="10.00">cstddef</text>
</g>
<!-- Node1&#45;&gt;Node11 -->
<g id="edge11" class="edge"><title>Node1&#45;&gt;Node11</title>
<path fill="none" stroke="midnightblue" d="M901.171,-197.43C807.483,-194.188 661.604,-184.275 616.5,-154 574.013,-125.481 552.507,-65.2411 544.004,-34.8526"/>
<polygon fill="midnightblue" stroke="midnightblue" points="547.373,-33.9023 541.444,-25.1215 540.603,-35.6829 547.373,-33.9023"/>
</g>
<!-- Node12 -->
<g id="node13" class="node"><title>Node12</title>
<polygon fill="white" stroke="#bfbfbf" points="1185.5,-129 1185.5,-148 1223.5,-148 1223.5,-129 1185.5,-129"/>
<text text-anchor="middle" x="1204.5" y="-136" font-family="FreeSans" font-size="10.00">tuple</text>
</g>
<!-- Node1&#45;&gt;Node12 -->
<g id="edge12" class="edge"><title>Node1&#45;&gt;Node12</title>
<path fill="none" stroke="midnightblue" d="M1035.72,-190.468C1075.15,-183.16 1130.18,-171.089 1176.5,-154 1177.74,-153.542 1179,-153.041 1180.26,-152.509"/>
<polygon fill="midnightblue" stroke="midnightblue" points="1182.16,-155.48 1189.7,-148.034 1179.16,-149.154 1182.16,-155.48"/>
</g>
<!-- Node13 -->
<g id="node14" class="node"><title>Node13</title>
<polygon fill="white" stroke="#bfbfbf" points="1241.5,-129 1241.5,-148 1285.5,-148 1285.5,-129 1241.5,-129"/>
<text text-anchor="middle" x="1263.5" y="-136" font-family="FreeSans" font-size="10.00">vector</text>
</g>
<!-- Node1&#45;&gt;Node13 -->
<g id="edge13" class="edge"><title>Node1&#45;&gt;Node13</title>
<path fill="none" stroke="midnightblue" d="M1059.37,-190.475C1109.34,-183.603 1175.78,-172.054 1232.5,-154 1234.17,-153.467 1235.87,-152.864 1237.57,-152.214"/>
<polygon fill="midnightblue" stroke="midnightblue" points="1239.27,-155.294 1247.09,-148.14 1236.52,-148.86 1239.27,-155.294"/>
</g>
<!-- Node14 -->
<g id="node15" class="node"><title>Node14</title>
<polygon fill="white" stroke="#bfbfbf" points="1303.5,-129 1303.5,-148 1333.5,-148 1333.5,-129 1303.5,-129"/>
<text text-anchor="middle" x="1318.5" y="-136" font-family="FreeSans" font-size="10.00">set</text>
</g>
<!-- Node1&#45;&gt;Node14 -->
<g id="edge14" class="edge"><title>Node1&#45;&gt;Node14</title>
<path fill="none" stroke="midnightblue" d="M1065.53,-196.031C1129.52,-191.62 1219.76,-180.74 1294.5,-154 1295.38,-153.684 1296.27,-153.334 1297.15,-152.956"/>
<polygon fill="midnightblue" stroke="midnightblue" points="1299.04,-155.918 1306.27,-148.173 1295.79,-149.719 1299.04,-155.918"/>
</g>
<!-- Node15 -->
<g id="node16" class="node"><title>Node15</title>
<polygon fill="white" stroke="#bfbfbf" points="1352,-129 1352,-148 1387,-148 1387,-129 1352,-129"/>
<text text-anchor="middle" x="1369.5" y="-136" font-family="FreeSans" font-size="10.00">map</text>
</g>
<!-- Node1&#45;&gt;Node15 -->
<g id="edge15" class="edge"><title>Node1&#45;&gt;Node15</title>
<path fill="none" stroke="midnightblue" d="M1065.53,-197.244C1139.51,-193.676 1250.49,-183.348 1342.5,-154 1343.93,-153.545 1345.36,-153.015 1346.79,-152.432"/>
<polygon fill="midnightblue" stroke="midnightblue" points="1348.42,-155.534 1355.92,-148.048 1345.39,-149.224 1348.42,-155.534"/>
</g>
<!-- Node16 -->
<g id="node17" class="node"><title>Node16</title>
<polygon fill="white" stroke="#bfbfbf" points="1405,-129 1405,-148 1464,-148 1464,-129 1405,-129"/>
<text text-anchor="middle" x="1434.5" y="-136" font-family="FreeSans" font-size="10.00">stdexcept</text>
</g>
<!-- Node1&#45;&gt;Node16 -->
<g id="edge16" class="edge"><title>Node1&#45;&gt;Node16</title>
<path fill="none" stroke="midnightblue" d="M1065.67,-196.23C1149.78,-191.961 1283.79,-181.169 1396.5,-154 1399.49,-153.279 1402.57,-152.383 1405.61,-151.392"/>
<polygon fill="midnightblue" stroke="midnightblue" points="1406.84,-154.668 1415.08,-148.005 1404.49,-148.077 1406.84,-154.668"/>
</g>
<!-- Node17 -->
<g id="node18" class="node"><title>Node17</title>
<polygon fill="white" stroke="#bfbfbf" points="1482,-129 1482,-148 1523,-148 1523,-129 1482,-129"/>
<text text-anchor="middle" x="1502.5" y="-136" font-family="FreeSans" font-size="10.00">string</text>
</g>
<!-- Node1&#45;&gt;Node17 -->
<g id="edge17" class="edge"><title>Node1&#45;&gt;Node17</title>
<path fill="none" stroke="midnightblue" d="M1065.88,-195.132C1184.99,-188.91 1399.15,-175.188 1473.5,-154 1475.17,-153.523 1476.87,-152.949 1478.55,-152.309"/>
<polygon fill="midnightblue" stroke="midnightblue" points="1480.18,-155.414 1487.88,-148.132 1477.32,-149.025 1480.18,-155.414"/>
</g>
<!-- Node18 -->
<g id="node19" class="node"><title>Node18</title>
<polygon fill="white" stroke="#bfbfbf" points="1541.5,-129 1541.5,-148 1585.5,-148 1585.5,-129 1541.5,-129"/>
<text text-anchor="middle" x="1563.5" y="-136" font-family="FreeSans" font-size="10.00">cmath</text>
</g>
<!-- Node1&#45;&gt;Node18 -->
<g id="edge18" class="edge"><title>Node1&#45;&gt;Node18</title>
<path fill="none" stroke="midnightblue" d="M1065.71,-195.834C1196.69,-190.188 1446.72,-176.788 1532.5,-154 1534.48,-153.474 1536.49,-152.826 1538.49,-152.099"/>
<polygon fill="midnightblue" stroke="midnightblue" points="1540.3,-155.131 1548.14,-148 1537.57,-148.688 1540.3,-155.131"/>
</g>
<!-- Node19 -->
<g id="node20" class="node"><title>Node19</title>
<polygon fill="white" stroke="#bfbfbf" points="582,-6 582,-25 629,-25 629,-6 582,-6"/>
<text text-anchor="middle" x="605.5" y="-13" font-family="FreeSans" font-size="10.00">iterator</text>
</g>
<!-- Node1&#45;&gt;Node19 -->
<g id="edge19" class="edge"><title>Node1&#45;&gt;Node19</title>
<path fill="none" stroke="midnightblue" d="M901.197,-198.269C813.065,-195.767 680.828,-186.501 643.5,-154 608.884,-123.861 604.472,-65.2997 604.675,-35.2621"/>
<polygon fill="midnightblue" stroke="midnightblue" points="608.173,-35.3496 604.925,-25.2652 601.176,-35.1745 608.173,-35.3496"/>
</g>
<!-- Node20 -->
<g id="node21" class="node"><title>Node20</title>
<polygon fill="white" stroke="#bfbfbf" points="647,-6 647,-25 686,-25 686,-6 647,-6"/>
<text text-anchor="middle" x="666.5" y="-13" font-family="FreeSans" font-size="10.00">utility</text>
</g>
<!-- Node1&#45;&gt;Node20 -->
<g id="edge20" class="edge"><title>Node1&#45;&gt;Node20</title>
<path fill="none" stroke="midnightblue" d="M901.431,-199.249C816.754,-197.548 692.872,-188.927 662.5,-154 633.597,-120.763 648.417,-64.0466 658.961,-34.9351"/>
<polygon fill="midnightblue" stroke="midnightblue" points="662.369,-35.8257 662.693,-25.2359 655.836,-33.3121 662.369,-35.8257"/>
</g>
<!-- Node21 -->
<g id="node22" class="node"><title>Node21</title>
<polygon fill="white" stroke="#bfbfbf" points="1604,-129 1604,-148 1653,-148 1653,-129 1604,-129"/>
<text text-anchor="middle" x="1628.5" y="-136" font-family="FreeSans" font-size="10.00">random</text>
</g>
<!-- Node1&#45;&gt;Node21 -->
<g id="edge21" class="edge"><title>Node1&#45;&gt;Node21</title>
<path fill="none" stroke="midnightblue" d="M1065.66,-196.294C1208.45,-191.035 1496.5,-177.806 1594.5,-154 1597.01,-153.39 1599.57,-152.614 1602.11,-151.738"/>
<polygon fill="midnightblue" stroke="midnightblue" points="1603.56,-154.929 1611.58,-148.012 1600.99,-148.415 1603.56,-154.929"/>
</g>
<!-- Node22 -->
<g id="node23" class="node"><title>Node22</title>
<g id="a_node23"><a xlink:href="Graph_8h.html" target="_top" xlink:title="../Numeric/Graph.h">
<polygon fill="white" stroke="black" points="671.5,-129 671.5,-148 769.5,-148 769.5,-129 671.5,-129"/>
<text text-anchor="middle" x="720.5" y="-136" font-family="FreeSans" font-size="10.00">../Numeric/Graph.h</text>
</a>
</g>
</g>
<!-- Node1&#45;&gt;Node22 -->
<g id="edge22" class="edge"><title>Node1&#45;&gt;Node22</title>
<path fill="none" stroke="midnightblue" d="M943.565,-190.486C902.392,-181.638 836.367,-167.258 779.5,-154 774.743,-152.891 769.776,-151.708 764.83,-150.516"/>
<polygon fill="midnightblue" stroke="midnightblue" points="765.329,-147.035 754.785,-148.073 763.675,-153.837 765.329,-147.035"/>
</g>
<!-- Node23 -->
<g id="node24" class="node"><title>Node23</title>
<g id="a_node24"><a xlink:href="Graph_8ipp.html" target="_top" xlink:title="Graph.ipp">
<polygon fill="white" stroke="black" points="700.5,-67.5 700.5,-86.5 758.5,-86.5 758.5,-67.5 700.5,-67.5"/>
<text text-anchor="middle" x="729.5" y="-74.5" font-family="FreeSans" font-size="10.00">Graph.ipp</text>
</a>
</g>
</g>
<!-- Node22&#45;&gt;Node23 -->
<g id="edge23" class="edge"><title>Node22&#45;&gt;Node23</title>
<path fill="none" stroke="midnightblue" d="M721.789,-128.975C723.059,-120.58 725.041,-107.481 726.677,-96.6631"/>
<polygon fill="midnightblue" stroke="midnightblue" points="730.178,-96.9201 728.213,-86.5091 723.257,-95.8731 730.178,-96.9201"/>
</g>
<!-- Node23&#45;&gt;Node6 -->
<g id="edge25" class="edge"><title>Node23&#45;&gt;Node6</title>
<path fill="none" stroke="midnightblue" d="M700.211,-70.4215C657.52,-62.2152 575.744,-46.2115 506.5,-31 506.4,-30.9781 506.301,-30.9562 506.201,-30.9342"/>
<polygon fill="midnightblue" stroke="midnightblue" points="507.249,-27.5824 496.726,-28.811 505.718,-34.413 507.249,-27.5824"/>
</g>
<!-- Node23&#45;&gt;Node11 -->
<g id="edge29" class="edge"><title>Node23&#45;&gt;Node11</title>
<path fill="none" stroke="midnightblue" d="M700.412,-68.7484C668.825,-60.6104 617.051,-46.5025 573.5,-31 571.641,-30.3383 569.738,-29.6263 567.828,-28.8857"/>
<polygon fill="midnightblue" stroke="midnightblue" points="568.981,-25.5758 558.399,-25.0443 566.34,-32.0585 568.981,-25.5758"/>
</g>
<!-- Node23&#45;&gt;Node19 -->
<g id="edge30" class="edge"><title>Node23&#45;&gt;Node19</title>
<path fill="none" stroke="midnightblue" d="M711.734,-67.4751C691.016,-57.5338 656.548,-40.9947 632.511,-29.461"/>
<polygon fill="midnightblue" stroke="midnightblue" points="633.763,-26.1797 623.233,-25.0091 630.735,-32.4908 633.763,-26.1797"/>
</g>
<!-- Node23&#45;&gt;Node20 -->
<g id="edge31" class="edge"><title>Node23&#45;&gt;Node20</title>
<path fill="none" stroke="midnightblue" d="M720.474,-67.4751C710.743,-58.285 695.042,-43.4563 683.077,-32.156"/>
<polygon fill="midnightblue" stroke="midnightblue" points="685.183,-29.3308 675.51,-25.0091 680.377,-34.4199 685.183,-29.3308"/>
</g>
<!-- Node24 -->
<g id="node25" class="node"><title>Node24</title>
<polygon fill="white" stroke="#bfbfbf" points="987.5,-6 987.5,-25 1145.5,-25 1145.5,-6 987.5,-6"/>
<text text-anchor="middle" x="1066.5" y="-13" font-family="FreeSans" font-size="10.00">boost/graph/graph_concepts.hpp</text>
</g>
<!-- Node23&#45;&gt;Node24 -->
<g id="edge24" class="edge"><title>Node23&#45;&gt;Node24</title>
<path fill="none" stroke="midnightblue" d="M758.524,-70.8756C813.876,-61.1028 935.477,-39.6331 1008.23,-26.7883"/>
<polygon fill="midnightblue" stroke="midnightblue" points="1008.92,-30.2206 1018.16,-25.0352 1007.7,-23.3272 1008.92,-30.2206"/>
</g>
<!-- Node25 -->
<g id="node26" class="node"><title>Node25</title>
<polygon fill="white" stroke="#bfbfbf" points="1163.5,-6 1163.5,-25 1291.5,-25 1291.5,-6 1163.5,-6"/>
<text text-anchor="middle" x="1227.5" y="-13" font-family="FreeSans" font-size="10.00">boost/concept_check.hpp</text>
</g>
<!-- Node23&#45;&gt;Node25 -->
<g id="edge26" class="edge"><title>Node23&#45;&gt;Node25</title>
<path fill="none" stroke="midnightblue" d="M758.73,-73.8233C827.817,-68.4787 1006.51,-53.4858 1154.5,-31 1162.05,-29.8529 1170,-28.4626 1177.77,-27.0025"/>
<polygon fill="midnightblue" stroke="midnightblue" points="1178.68,-30.3924 1187.83,-25.0576 1177.35,-23.5197 1178.68,-30.3924"/>
</g>
<!-- Node26 -->
<g id="node27" class="node"><title>Node26</title>
<polygon fill="white" stroke="#bfbfbf" points="704,-6 704,-25 775,-25 775,-6 704,-6"/>
<text text-anchor="middle" x="739.5" y="-13" font-family="FreeSans" font-size="10.00">Eigen/Dense</text>
</g>
<!-- Node23&#45;&gt;Node26 -->
<g id="edge27" class="edge"><title>Node23&#45;&gt;Node26</title>
<path fill="none" stroke="midnightblue" d="M730.933,-67.4751C732.344,-59.0803 734.545,-45.9806 736.363,-35.1631"/>
<polygon fill="midnightblue" stroke="midnightblue" points="739.864,-35.4509 738.07,-25.0091 732.961,-34.2906 739.864,-35.4509"/>
</g>
<!-- Node27 -->
<g id="node28" class="node"><title>Node27</title>
<polygon fill="white" stroke="#bfbfbf" points="793.5,-6 793.5,-25 889.5,-25 889.5,-6 793.5,-6"/>
<text text-anchor="middle" x="841.5" y="-13" font-family="FreeSans" font-size="10.00">Eigen/Eigenvalues</text>
</g>
<!-- Node23&#45;&gt;Node27 -->
<g id="edge28" class="edge"><title>Node23&#45;&gt;Node27</title>
<path fill="none" stroke="midnightblue" d="M745.547,-67.4751C764.093,-57.6222 794.84,-41.2883 816.522,-29.7697"/>
<polygon fill="midnightblue" stroke="midnightblue" points="818.294,-32.7916 825.483,-25.0091 815.01,-26.6098 818.294,-32.7916"/>
</g>
<!-- Node28 -->
<g id="node29" class="node"><title>Node28</title>
<polygon fill="white" stroke="#bfbfbf" points="907.5,-6 907.5,-25 969.5,-25 969.5,-6 907.5,-6"/>
<text text-anchor="middle" x="938.5" y="-13" font-family="FreeSans" font-size="10.00">type_traits</text>
</g>
<!-- Node23&#45;&gt;Node28 -->
<g id="edge32" class="edge"><title>Node23&#45;&gt;Node28</title>
<path fill="none" stroke="midnightblue" d="M758.729,-69.0426C792.6,-60.7904 849.975,-46.2236 898.5,-31 901.055,-30.1985 903.688,-29.3332 906.327,-28.4383"/>
<polygon fill="midnightblue" stroke="midnightblue" points="907.492,-31.7386 915.772,-25.1287 905.178,-25.1324 907.492,-31.7386"/>
</g>
</g>
</svg>
