<?xml version="1.0" encoding="UTF-8" standalone="no"?>
<!DOCTYPE svg PUBLIC "-//W3C//DTD SVG 1.1//EN"
 "http://www.w3.org/Graphics/SVG/1.1/DTD/svg11.dtd">
<!-- Generated by graphviz version 2.38.0 (20140413.2041)
 -->
<!-- Title: src/RANSAC/RANSAC.h Pages: 1 -->
<svg width="3989pt" height="475pt"
 viewBox="0.00 0.00 3988.50 475.00" xmlns="http://www.w3.org/2000/svg" xmlns:xlink="http://www.w3.org/1999/xlink">
<g id="graph0" class="graph" transform="scale(1 1) rotate(0) translate(4 471)">
<title>src/RANSAC/RANSAC.h</title>
<polygon fill="white" stroke="none" points="-4,4 -4,-471 3984.5,-471 3984.5,4 -4,4"/>
<!-- Node0 -->
<g id="node1" class="node"><title>Node0</title>
<polygon fill="#bfbfbf" stroke="black" points="2479,-447.5 2479,-466.5 2605,-466.5 2605,-447.5 2479,-447.5"/>
<text text-anchor="middle" x="2542" y="-454.5" font-family="FreeSans" font-size="10.00">src/RANSAC/RANSAC.h</text>
</g>
<!-- Node1 -->
<g id="node2" class="node"><title>Node1</title>
<g id="a_node2"><a xlink:href="RANSAC_8ipp.html" target="_top" xlink:title="RANSAC.ipp">
<polygon fill="white" stroke="black" points="2505.5,-391.5 2505.5,-410.5 2578.5,-410.5 2578.5,-391.5 2505.5,-391.5"/>
<text text-anchor="middle" x="2542" y="-398.5" font-family="FreeSans" font-size="10.00">RANSAC.ipp</text>
</a>
</g>
</g>
<!-- Node0&#45;&gt;Node1 -->
<g id="edge1" class="edge"><title>Node0&#45;&gt;Node1</title>
<path fill="none" stroke="midnightblue" d="M2542,-447.083C2542,-440.006 2542,-429.861 2542,-420.986"/>
<polygon fill="midnightblue" stroke="midnightblue" points="2545.5,-420.751 2542,-410.751 2538.5,-420.751 2545.5,-420.751"/>
</g>
<!-- Node2 -->
<g id="node3" class="node"><title>Node2</title>
<polygon fill="white" stroke="#bfbfbf" points="152,-6 152,-25 280,-25 280,-6 152,-6"/>
<text text-anchor="middle" x="216" y="-13" font-family="FreeSans" font-size="10.00">boost/concept_check.hpp</text>
</g>
<!-- Node1&#45;&gt;Node2 -->
<g id="edge2" class="edge"><title>Node1&#45;&gt;Node2</title>
<path fill="none" stroke="midnightblue" d="M2505.12,-399.822C2210.48,-398.334 246.842,-387.227 127,-355 64.6567,-338.235 0,-349.058 0,-284.5 0,-284.5 0,-284.5 0,-148.5 0,-76.1223 89.3934,-42.2391 153.163,-27.2761"/>
<polygon fill="midnightblue" stroke="midnightblue" points="154.169,-30.6376 163.16,-25.0341 152.637,-23.8073 154.169,-30.6376"/>
</g>
<!-- Node3 -->
<g id="node4" class="node"><title>Node3</title>
<polygon fill="white" stroke="#bfbfbf" points="2946.5,-140 2946.5,-159 3041.5,-159 3041.5,-140 2946.5,-140"/>
<text text-anchor="middle" x="2994" y="-147" font-family="FreeSans" font-size="10.00">boost/optional.hpp</text>
</g>
<!-- Node1&#45;&gt;Node3 -->
<g id="edge3" class="edge"><title>Node1&#45;&gt;Node3</title>
<path fill="none" stroke="midnightblue" d="M2578.76,-399.489C2649.52,-396.598 2806.02,-380.704 2901,-299 2944.32,-261.733 2974.14,-199.198 2986.95,-168.545"/>
<polygon fill="midnightblue" stroke="midnightblue" points="2990.25,-169.708 2990.76,-159.126 2983.76,-167.081 2990.25,-169.708"/>
</g>
<!-- Node4 -->
<g id="node5" class="node"><title>Node4</title>
<polygon fill="white" stroke="#bfbfbf" points="3348.5,-335.5 3348.5,-354.5 3461.5,-354.5 3461.5,-335.5 3348.5,-335.5"/>
<text text-anchor="middle" x="3405" y="-342.5" font-family="FreeSans" font-size="10.00">boost/lexical_cast.hpp</text>
</g>
<!-- Node1&#45;&gt;Node4 -->
<g id="edge4" class="edge"><title>Node1&#45;&gt;Node4</title>
<path fill="none" stroke="midnightblue" d="M2578.78,-398.818C2691.74,-394.992 3043.59,-381.624 3334,-355 3335.47,-354.865 3336.96,-354.724 3338.45,-354.576"/>
<polygon fill="midnightblue" stroke="midnightblue" points="3338.88,-358.051 3348.46,-353.526 3338.15,-351.089 3338.88,-358.051"/>
</g>
<!-- Node5 -->
<g id="node6" class="node"><title>Node5</title>
<polygon fill="white" stroke="#bfbfbf" points="1610.5,-268.5 1610.5,-298.5 1711.5,-298.5 1711.5,-268.5 1610.5,-268.5"/>
<text text-anchor="start" x="1618.5" y="-286.5" font-family="FreeSans" font-size="10.00">boost/range/iterator</text>
<text text-anchor="middle" x="1661" y="-275.5" font-family="FreeSans" font-size="10.00">_range.hpp</text>
</g>
<!-- Node1&#45;&gt;Node5 -->
<g id="edge5" class="edge"><title>Node1&#45;&gt;Node5</title>
<path fill="none" stroke="midnightblue" d="M2505.34,-399.798C2354.38,-398.723 1785.49,-392.216 1715,-355 1695.51,-344.711 1680.95,-323.931 1671.89,-307.584"/>
<polygon fill="midnightblue" stroke="midnightblue" points="1674.92,-305.832 1667.2,-298.585 1668.72,-309.07 1674.92,-305.832"/>
</g>
<!-- Node6 -->
<g id="node7" class="node"><title>Node6</title>
<polygon fill="white" stroke="#bfbfbf" points="3480,-335.5 3480,-354.5 3608,-354.5 3608,-335.5 3480,-335.5"/>
<text text-anchor="middle" x="3544" y="-342.5" font-family="FreeSans" font-size="10.00">boost/range/algorithm.hpp</text>
</g>
<!-- Node1&#45;&gt;Node6 -->
<g id="edge6" class="edge"><title>Node1&#45;&gt;Node6</title>
<path fill="none" stroke="midnightblue" d="M2578.8,-399.199C2702.78,-396.295 3116.71,-384.913 3469.77,-355.038"/>
<polygon fill="midnightblue" stroke="midnightblue" points="3470.27,-358.509 3479.93,-354.172 3469.67,-351.534 3470.27,-358.509"/>
</g>
<!-- Node7 -->
<g id="node8" class="node"><title>Node7</title>
<polygon fill="white" stroke="#bfbfbf" points="3626.5,-335.5 3626.5,-354.5 3749.5,-354.5 3749.5,-335.5 3626.5,-335.5"/>
<text text-anchor="middle" x="3688" y="-342.5" font-family="FreeSans" font-size="10.00">boost/range/numeric.hpp</text>
</g>
<!-- Node1&#45;&gt;Node7 -->
<g id="edge7" class="edge"><title>Node1&#45;&gt;Node7</title>
<path fill="none" stroke="midnightblue" d="M2578.73,-399.583C2714.75,-397.805 3202.8,-389.328 3616.4,-354.965"/>
<polygon fill="midnightblue" stroke="midnightblue" points="3616.79,-358.445 3626.46,-354.123 3616.2,-351.469 3616.79,-358.445"/>
</g>
<!-- Node8 -->
<g id="node9" class="node"><title>Node8</title>
<g id="a_node9"><a xlink:href="boost__dynamic__bitset_8hpp.html" target="_top" xlink:title="../Modified/boost_dynamic\l_bitset.hpp">
<polygon fill="white" stroke="black" points="2770,-67.5 2770,-97.5 2898,-97.5 2898,-67.5 2770,-67.5"/>
<text text-anchor="start" x="2778" y="-85.5" font-family="FreeSans" font-size="10.00">../Modified/boost_dynamic</text>
<text text-anchor="middle" x="2834" y="-74.5" font-family="FreeSans" font-size="10.00">_bitset.hpp</text>
</a>
</g>
</g>
<!-- Node1&#45;&gt;Node8 -->
<g id="edge8" class="edge"><title>Node1&#45;&gt;Node8</title>
<path fill="none" stroke="midnightblue" d="M2578.65,-397.541C2717.85,-387.722 3206,-348.709 3206,-284.5 3206,-284.5 3206,-284.5 3206,-215.5 3206,-178.306 3214.42,-159.132 3187,-134 3147.41,-97.7113 2999.35,-87.4149 2908.02,-84.5473"/>
<polygon fill="midnightblue" stroke="midnightblue" points="2908.1,-81.0481 2898,-84.2552 2907.9,-88.0452 2908.1,-81.0481"/>
</g>
<!-- Node10 -->
<g id="node11" class="node"><title>Node10</title>
<polygon fill="white" stroke="#bfbfbf" points="3862.5,-6 3862.5,-25 3903.5,-25 3903.5,-6 3862.5,-6"/>
<text text-anchor="middle" x="3883" y="-13" font-family="FreeSans" font-size="10.00">string</text>
</g>
<!-- Node1&#45;&gt;Node10 -->
<g id="edge33" class="edge"><title>Node1&#45;&gt;Node10</title>
<path fill="none" stroke="midnightblue" d="M2578.59,-399.258C2692.95,-396.631 3042.49,-386.191 3151,-355 3214.55,-336.735 3282,-350.618 3282,-284.5 3282,-284.5 3282,-284.5 3282,-148.5 3282,-110.74 3276.52,-90.5981 3306,-67 3353.55,-28.9348 3794.11,-46.5392 3853,-31 3854.93,-30.4908 3856.88,-29.8556 3858.82,-29.1374"/>
<polygon fill="midnightblue" stroke="midnightblue" points="3860.41,-32.2636 3868.17,-25.0563 3857.61,-25.8479 3860.41,-32.2636"/>
</g>
<!-- Node11 -->
<g id="node12" class="node"><title>Node11</title>
<polygon fill="white" stroke="#bfbfbf" points="3921.5,-6 3921.5,-25 3980.5,-25 3980.5,-6 3921.5,-6"/>
<text text-anchor="middle" x="3951" y="-13" font-family="FreeSans" font-size="10.00">stdexcept</text>
</g>
<!-- Node1&#45;&gt;Node11 -->
<g id="edge30" class="edge"><title>Node1&#45;&gt;Node11</title>
<path fill="none" stroke="midnightblue" d="M2578.91,-399.965C2701.35,-399.471 3093.14,-394.743 3212,-355 3266.36,-336.822 3320,-341.822 3320,-284.5 3320,-284.5 3320,-284.5 3320,-148.5 3320,-14.1602 3783.89,-68.1344 3913,-31 3915.58,-30.2571 3918.24,-29.4145 3920.89,-28.5184"/>
<polygon fill="midnightblue" stroke="midnightblue" points="3922.09,-31.8054 3930.31,-25.1207 3919.71,-25.2205 3922.09,-31.8054"/>
</g>
<!-- Node12 -->
<g id="node13" class="node"><title>Node12</title>
<polygon fill="white" stroke="#bfbfbf" points="3788,-6 3788,-25 3844,-25 3844,-6 3788,-6"/>
<text text-anchor="middle" x="3816" y="-13" font-family="FreeSans" font-size="10.00">algorithm</text>
</g>
<!-- Node1&#45;&gt;Node12 -->
<g id="edge40" class="edge"><title>Node1&#45;&gt;Node12</title>
<path fill="none" stroke="midnightblue" d="M2578.61,-399.907C2663.5,-399.02 2879.98,-392.886 3056,-355 3143.24,-336.223 3244,-373.737 3244,-284.5 3244,-284.5 3244,-284.5 3244,-148.5 3244,-110.74 3238.58,-90.6661 3268,-67 3312.35,-31.3264 3723.48,-43.5277 3779,-31 3782,-30.3233 3785.08,-29.4428 3788.11,-28.45"/>
<polygon fill="midnightblue" stroke="midnightblue" points="3789.33,-31.7293 3797.52,-25.0079 3786.93,-25.155 3789.33,-31.7293"/>
</g>
<!-- Node13 -->
<g id="node14" class="node"><title>Node13</title>
<polygon fill="white" stroke="#bfbfbf" points="1934,-6 1934,-25 1978,-25 1978,-6 1934,-6"/>
<text text-anchor="middle" x="1956" y="-13" font-family="FreeSans" font-size="10.00">vector</text>
</g>
<!-- Node1&#45;&gt;Node13 -->
<g id="edge31" class="edge"><title>Node1&#45;&gt;Node13</title>
<path fill="none" stroke="midnightblue" d="M2537.03,-391.337C2526.73,-372.532 2504,-326.297 2504,-284.5 2504,-284.5 2504,-284.5 2504,-148.5 2504,-102.988 2481.95,-88.808 2442,-67 2352.98,-18.3993 2085.06,-56.9017 1987,-31 1985.02,-30.4765 1983.01,-29.8308 1981.01,-29.1053"/>
<polygon fill="midnightblue" stroke="midnightblue" points="1981.93,-25.694 1971.36,-25.0093 1979.2,-32.1377 1981.93,-25.694"/>
</g>
<!-- Node14 -->
<g id="node15" class="node"><title>Node14</title>
<polygon fill="white" stroke="#bfbfbf" points="1996.5,-6 1996.5,-25 2041.5,-25 2041.5,-6 1996.5,-6"/>
<text text-anchor="middle" x="2019" y="-13" font-family="FreeSans" font-size="10.00">climits</text>
</g>
<!-- Node1&#45;&gt;Node14 -->
<g id="edge34" class="edge"><title>Node1&#45;&gt;Node14</title>
<path fill="none" stroke="midnightblue" d="M2560.31,-391.388C2612.46,-365.601 2755.22,-285.543 2711,-201 2662.6,-108.469 2616.38,-102.013 2518,-67 2321.88,2.79778 2252.64,-82.7429 2051,-31 2048.79,-30.4334 2046.55,-29.7231 2044.32,-28.9233"/>
<polygon fill="midnightblue" stroke="midnightblue" points="2045.46,-25.6057 2034.88,-25.0107 2042.78,-32.0724 2045.46,-25.6057"/>
</g>
<!-- Node29 -->
<g id="node30" class="node"><title>Node29</title>
<polygon fill="white" stroke="#bfbfbf" points="796.5,-6 796.5,-25 867.5,-25 867.5,-6 796.5,-6"/>
<text text-anchor="middle" x="832" y="-13" font-family="FreeSans" font-size="10.00">Eigen/Dense</text>
</g>
<!-- Node1&#45;&gt;Node29 -->
<g id="edge29" class="edge"><title>Node1&#45;&gt;Node29</title>
<path fill="none" stroke="midnightblue" d="M2505.15,-399.762C2237.68,-397.968 598.408,-385.766 380,-355 258.892,-337.94 114,-406.804 114,-284.5 114,-284.5 114,-284.5 114,-215.5 114,-173.686 125.983,-156.851 161,-134 222.778,-93.6856 419.26,-115.18 491,-98 528.89,-88.9261 535.392,-77.1833 573,-67 665.672,-41.9065 692.661,-53.4853 786,-31 789.633,-30.1249 793.397,-29.1142 797.136,-28.0419"/>
<polygon fill="midnightblue" stroke="midnightblue" points="798.303,-31.3459 806.868,-25.1102 796.284,-24.6434 798.303,-31.3459"/>
</g>
<!-- Node30 -->
<g id="node31" class="node"><title>Node30</title>
<polygon fill="white" stroke="#bfbfbf" points="1866.5,-6 1866.5,-25 1915.5,-25 1915.5,-6 1866.5,-6"/>
<text text-anchor="middle" x="1891" y="-13" font-family="FreeSans" font-size="10.00">cstddef</text>
</g>
<!-- Node1&#45;&gt;Node30 -->
<g id="edge32" class="edge"><title>Node1&#45;&gt;Node30</title>
<path fill="none" stroke="midnightblue" d="M2531.11,-391.425C2510.1,-373.821 2466,-331.307 2466,-284.5 2466,-284.5 2466,-284.5 2466,-215.5 2466,-177.74 2469.87,-159.476 2442,-134 2269.07,24.0733 2148.84,-100.212 1925,-31 1922.86,-30.3377 1920.67,-29.5861 1918.48,-28.7819"/>
<polygon fill="midnightblue" stroke="midnightblue" points="1919.68,-25.4905 1909.09,-25.0335 1917.08,-31.9917 1919.68,-25.4905"/>
</g>
<!-- Node31 -->
<g id="node32" class="node"><title>Node31</title>
<polygon fill="white" stroke="#bfbfbf" points="1402,-6 1402,-25 1446,-25 1446,-6 1402,-6"/>
<text text-anchor="middle" x="1424" y="-13" font-family="FreeSans" font-size="10.00">cmath</text>
</g>
<!-- Node1&#45;&gt;Node31 -->
<g id="edge35" class="edge"><title>Node1&#45;&gt;Node31</title>
<path fill="none" stroke="midnightblue" d="M2522.92,-391.476C2490.47,-375.526 2428,-337.89 2428,-284.5 2428,-284.5 2428,-284.5 2428,-215.5 2428,-178.203 2435.93,-158.719 2408,-134 2334.95,-69.3503 1619.08,-27.0311 1456.66,-18.2152"/>
<polygon fill="midnightblue" stroke="midnightblue" points="1456.53,-14.7032 1446.35,-17.6607 1456.15,-21.6931 1456.53,-14.7032"/>
</g>
<!-- Node32 -->
<g id="node33" class="node"><title>Node32</title>
<polygon fill="white" stroke="#bfbfbf" points="180,-140 180,-159 218,-159 218,-140 180,-140"/>
<text text-anchor="middle" x="199" y="-147" font-family="FreeSans" font-size="10.00">tuple</text>
</g>
<!-- Node1&#45;&gt;Node32 -->
<g id="edge36" class="edge"><title>Node1&#45;&gt;Node32</title>
<path fill="none" stroke="midnightblue" d="M2505.19,-400.092C2243.23,-400.631 665.92,-401.901 459,-355 400.025,-341.633 376.777,-342.72 335,-299 302.614,-265.108 327.428,-235.783 296,-201 295.664,-200.628 253.545,-178.763 224.925,-163.929"/>
<polygon fill="midnightblue" stroke="midnightblue" points="226.306,-160.702 215.817,-159.209 223.085,-166.917 226.306,-160.702"/>
</g>
<!-- Node33 -->
<g id="node34" class="node"><title>Node33</title>
<polygon fill="white" stroke="#bfbfbf" points="236.5,-140 236.5,-159 265.5,-159 265.5,-140 236.5,-140"/>
<text text-anchor="middle" x="251" y="-147" font-family="FreeSans" font-size="10.00">list</text>
</g>
<!-- Node1&#45;&gt;Node33 -->
<g id="edge37" class="edge"><title>Node1&#45;&gt;Node33</title>
<path fill="none" stroke="midnightblue" d="M2505.42,-399.7C2236.71,-397.433 577.371,-382.342 534,-355 497.345,-331.892 520.826,-298.451 490,-268 416.044,-194.944 373.158,-211.134 280,-165 278.405,-164.21 276.761,-163.394 275.105,-162.57"/>
<polygon fill="midnightblue" stroke="midnightblue" points="276.253,-159.231 265.742,-157.898 273.128,-165.495 276.253,-159.231"/>
</g>
<!-- Node34 -->
<g id="node35" class="node"><title>Node34</title>
<polygon fill="white" stroke="#bfbfbf" points="2532,-140 2532,-159 2562,-159 2562,-140 2532,-140"/>
<text text-anchor="middle" x="2547" y="-147" font-family="FreeSans" font-size="10.00">set</text>
</g>
<!-- Node1&#45;&gt;Node34 -->
<g id="edge38" class="edge"><title>Node1&#45;&gt;Node34</title>
<path fill="none" stroke="midnightblue" d="M2542.17,-391.412C2542.89,-355.798 2545.62,-219.252 2546.63,-169.109"/>
<polygon fill="midnightblue" stroke="midnightblue" points="2550.13,-169.12 2546.83,-159.052 2543.13,-168.98 2550.13,-169.12"/>
</g>
<!-- Node35 -->
<g id="node36" class="node"><title>Node35</title>
<polygon fill="white" stroke="#bfbfbf" points="1011.5,-140 1011.5,-159 1046.5,-159 1046.5,-140 1011.5,-140"/>
<text text-anchor="middle" x="1029" y="-147" font-family="FreeSans" font-size="10.00">map</text>
</g>
<!-- Node1&#45;&gt;Node35 -->
<g id="edge39" class="edge"><title>Node1&#45;&gt;Node35</title>
<path fill="none" stroke="midnightblue" d="M2505.15,-399.229C2362.78,-396.071 1848.72,-382.94 1688,-355 1398.61,-304.691 1325.53,-279.43 1055,-165 1054,-164.577 1052.99,-164.126 1051.98,-163.654"/>
<polygon fill="midnightblue" stroke="midnightblue" points="1053.52,-160.511 1043.02,-159.051 1050.32,-166.736 1053.52,-160.511"/>
</g>
<!-- Node36 -->
<g id="node37" class="node"><title>Node36</title>
<polygon fill="white" stroke="#bfbfbf" points="2360.5,-140 2360.5,-159 2399.5,-159 2399.5,-140 2360.5,-140"/>
<text text-anchor="middle" x="2380" y="-147" font-family="FreeSans" font-size="10.00">utility</text>
</g>
<!-- Node1&#45;&gt;Node36 -->
<g id="edge41" class="edge"><title>Node1&#45;&gt;Node36</title>
<path fill="none" stroke="midnightblue" d="M2505.44,-397.071C2476.23,-392.708 2436.58,-381.873 2414,-355 2368.28,-300.575 2372.87,-208.407 2377.35,-169.128"/>
<polygon fill="midnightblue" stroke="midnightblue" points="2380.83,-169.492 2378.63,-159.129 2373.89,-168.605 2380.83,-169.492"/>
</g>
<!-- Node37 -->
<g id="node38" class="node"><title>Node37</title>
<polygon fill="white" stroke="#bfbfbf" points="473.5,-6 473.5,-25 520.5,-25 520.5,-6 473.5,-6"/>
<text text-anchor="middle" x="497" y="-13" font-family="FreeSans" font-size="10.00">iterator</text>
</g>
<!-- Node1&#45;&gt;Node37 -->
<g id="edge42" class="edge"><title>Node1&#45;&gt;Node37</title>
<path fill="none" stroke="midnightblue" d="M2505.49,-399.817C2366.99,-398.843 1860.87,-392.75 1446,-355 1208.11,-333.354 543.714,-346.144 388,-165 359.359,-131.681 350.586,-103.529 375,-67 394.513,-37.8046 434.358,-25.4671 463.214,-20.2663"/>
<polygon fill="midnightblue" stroke="midnightblue" points="463.969,-23.6902 473.291,-18.6552 462.864,-16.7781 463.969,-23.6902"/>
</g>
<!-- Node38 -->
<g id="node39" class="node"><title>Node38</title>
<polygon fill="white" stroke="#bfbfbf" points="3059.5,-140 3059.5,-159 3110.5,-159 3110.5,-140 3059.5,-140"/>
<text text-anchor="middle" x="3085" y="-147" font-family="FreeSans" font-size="10.00">numeric</text>
</g>
<!-- Node1&#45;&gt;Node38 -->
<g id="edge43" class="edge"><title>Node1&#45;&gt;Node38</title>
<path fill="none" stroke="midnightblue" d="M2578.8,-399.417C2636.64,-397.425 2751.57,-389.081 2842,-355 2947.27,-315.327 3039.09,-208.995 3072.04,-167.457"/>
<polygon fill="midnightblue" stroke="midnightblue" points="3074.92,-169.448 3078.32,-159.412 3069.41,-165.139 3074.92,-169.448"/>
</g>
<!-- Node39 -->
<g id="node40" class="node"><title>Node39</title>
<polygon fill="white" stroke="#bfbfbf" points="934.5,-140 934.5,-159 993.5,-159 993.5,-140 934.5,-140"/>
<text text-anchor="middle" x="964" y="-147" font-family="FreeSans" font-size="10.00">functional</text>
</g>
<!-- Node1&#45;&gt;Node39 -->
<g id="edge44" class="edge"><title>Node1&#45;&gt;Node39</title>
<path fill="none" stroke="midnightblue" d="M2505.08,-400.414C2376.63,-401.399 1937.59,-400.96 1579,-355 1459.6,-339.696 1429.32,-333.52 1314,-299 1188.17,-261.335 1046.49,-192.501 989.622,-163.711"/>
<polygon fill="midnightblue" stroke="midnightblue" points="991.124,-160.548 980.624,-159.13 987.948,-166.786 991.124,-160.548"/>
</g>
<!-- Node40 -->
<g id="node41" class="node"><title>Node40</title>
<polygon fill="white" stroke="#bfbfbf" points="3128.5,-140 3128.5,-159 3177.5,-159 3177.5,-140 3128.5,-140"/>
<text text-anchor="middle" x="3153" y="-147" font-family="FreeSans" font-size="10.00">random</text>
</g>
<!-- Node1&#45;&gt;Node40 -->
<g id="edge45" class="edge"><title>Node1&#45;&gt;Node40</title>
<path fill="none" stroke="midnightblue" d="M2578.55,-399.698C2641.01,-398.175 2771.56,-390.569 2875,-355 2991.09,-315.082 3099.43,-208.071 3138.06,-166.929"/>
<polygon fill="midnightblue" stroke="midnightblue" points="3140.8,-169.12 3145.03,-159.407 3135.67,-164.361 3140.8,-169.12"/>
</g>
<!-- Node41 -->
<g id="node42" class="node"><title>Node41</title>
<polygon fill="white" stroke="#bfbfbf" points="3767.5,-335.5 3767.5,-354.5 3810.5,-354.5 3810.5,-335.5 3767.5,-335.5"/>
<text text-anchor="middle" x="3789" y="-342.5" font-family="FreeSans" font-size="10.00">omp.h</text>
</g>
<!-- Node1&#45;&gt;Node41 -->
<g id="edge46" class="edge"><title>Node1&#45;&gt;Node41</title>
<path fill="none" stroke="midnightblue" d="M2578.51,-399.9C2752.95,-399.234 3503.15,-394.191 3757.28,-354.837"/>
<polygon fill="midnightblue" stroke="midnightblue" points="3757.88,-358.285 3767.2,-353.241 3756.77,-351.374 3757.88,-358.285"/>
</g>
<!-- Node42 -->
<g id="node43" class="node"><title>Node42</title>
<g id="a_node43"><a xlink:href="RANSACProblemConcept_8h.html" target="_top" xlink:title="RANSACProblemConcept.h">
<polygon fill="white" stroke="black" points="344.5,-274 344.5,-293 481.5,-293 481.5,-274 344.5,-274"/>
<text text-anchor="middle" x="413" y="-281" font-family="FreeSans" font-size="10.00">RANSACProblemConcept.h</text>
</a>
</g>
</g>
<!-- Node1&#45;&gt;Node42 -->
<g id="edge47" class="edge"><title>Node1&#45;&gt;Node42</title>
<path fill="none" stroke="midnightblue" d="M2505.35,-399.891C2237.85,-399.008 593.616,-392.085 496,-355 467.103,-344.022 441.262,-318.31 426.36,-301.162"/>
<polygon fill="midnightblue" stroke="midnightblue" points="428.71,-298.517 419.606,-293.098 423.344,-303.012 428.71,-298.517"/>
</g>
<!-- Node45 -->
<g id="node46" class="node"><title>Node45</title>
<g id="a_node46"><a xlink:href="Combinatorics_8h.html" target="_top" xlink:title="../Numeric/Combinatorics.h">
<polygon fill="white" stroke="black" points="2758,-274 2758,-293 2892,-293 2892,-274 2758,-274"/>
<text text-anchor="middle" x="2825" y="-281" font-family="FreeSans" font-size="10.00">../Numeric/Combinatorics.h</text>
</a>
</g>
</g>
<!-- Node1&#45;&gt;Node45 -->
<g id="edge55" class="edge"><title>Node1&#45;&gt;Node45</title>
<path fill="none" stroke="midnightblue" d="M2578.85,-397.273C2620.8,-392.959 2690.44,-382.051 2744,-355 2770.64,-341.544 2795.64,-317.347 2810.63,-301.105"/>
<polygon fill="midnightblue" stroke="midnightblue" points="2813.44,-303.216 2817.51,-293.436 2808.23,-298.54 2813.44,-303.216"/>
</g>
<!-- Node48 -->
<g id="node49" class="node"><title>Node48</title>
<g id="a_node49"><a xlink:href="Correspondence_8h.html" target="_top" xlink:title="../Elements/Correspondence.h">
<polygon fill="white" stroke="black" points="1724,-335.5 1724,-354.5 1870,-354.5 1870,-335.5 1724,-335.5"/>
<text text-anchor="middle" x="1797" y="-342.5" font-family="FreeSans" font-size="10.00">../Elements/Correspondence.h</text>
</a>
</g>
</g>
<!-- Node1&#45;&gt;Node48 -->
<g id="edge67" class="edge"><title>Node1&#45;&gt;Node48</title>
<path fill="none" stroke="midnightblue" d="M2505.31,-397.341C2391.47,-389.089 2042.22,-363.774 1880.62,-352.061"/>
<polygon fill="midnightblue" stroke="midnightblue" points="1880.48,-348.542 1870.26,-351.31 1879.98,-355.524 1880.48,-348.542"/>
</g>
<!-- Node70 -->
<g id="node71" class="node"><title>Node70</title>
<g id="a_node71"><a xlink:href="BoostDynamicBitset_8h.html" target="_top" xlink:title="../Wrappers/BoostDynamic\lBitset.h">
<polygon fill="white" stroke="black" points="2570.5,-201.5 2570.5,-231.5 2701.5,-231.5 2701.5,-201.5 2570.5,-201.5"/>
<text text-anchor="start" x="2578.5" y="-219.5" font-family="FreeSans" font-size="10.00">../Wrappers/BoostDynamic</text>
<text text-anchor="middle" x="2636" y="-208.5" font-family="FreeSans" font-size="10.00">Bitset.h</text>
</a>
</g>
</g>
<!-- Node1&#45;&gt;Node70 -->
<g id="edge137" class="edge"><title>Node1&#45;&gt;Node70</title>
<path fill="none" stroke="midnightblue" d="M2546.53,-391.198C2560.49,-364.106 2603.11,-281.351 2624.09,-240.628"/>
<polygon fill="midnightblue" stroke="midnightblue" points="2627.22,-242.187 2628.69,-231.695 2621,-238.982 2627.22,-242.187"/>
</g>
<!-- Node9 -->
<g id="node10" class="node"><title>Node9</title>
<polygon fill="white" stroke="#bfbfbf" points="2578.5,-6 2578.5,-25 2629.5,-25 2629.5,-6 2578.5,-6"/>
<text text-anchor="middle" x="2604" y="-13" font-family="FreeSans" font-size="10.00">assert.h</text>
</g>
<!-- Node8&#45;&gt;Node9 -->
<g id="edge9" class="edge"><title>Node8&#45;&gt;Node9</title>
<path fill="none" stroke="midnightblue" d="M2770.56,-67.4364C2732.1,-58.3294 2682.28,-45.4895 2639,-31 2637.08,-30.3579 2635.12,-29.6608 2633.15,-28.9312"/>
<polygon fill="midnightblue" stroke="midnightblue" points="2634.03,-25.5146 2623.44,-25.1168 2631.47,-32.0302 2634.03,-25.5146"/>
</g>
<!-- Node8&#45;&gt;Node10 -->
<g id="edge10" class="edge"><title>Node8&#45;&gt;Node10</title>
<path fill="none" stroke="midnightblue" d="M2898.22,-79.0234C3114.68,-70.5829 3806.71,-42.8123 3853,-31 3854.93,-30.5065 3856.89,-29.8827 3858.83,-29.1726"/>
<polygon fill="midnightblue" stroke="midnightblue" points="3860.41,-32.3024 3868.19,-25.1077 3857.62,-25.8821 3860.41,-32.3024"/>
</g>
<!-- Node8&#45;&gt;Node11 -->
<g id="edge11" class="edge"><title>Node8&#45;&gt;Node11</title>
<path fill="none" stroke="midnightblue" d="M2898.29,-79.6792C3115.49,-73.3635 3813.98,-51.6549 3913,-31 3916.08,-30.3575 3919.24,-29.4992 3922.36,-28.5199"/>
<polygon fill="midnightblue" stroke="midnightblue" points="3923.77,-31.7332 3932.03,-25.0947 3921.43,-25.1351 3923.77,-31.7332"/>
</g>
<!-- Node8&#45;&gt;Node12 -->
<g id="edge12" class="edge"><title>Node8&#45;&gt;Node12</title>
<path fill="none" stroke="midnightblue" d="M2898.16,-68.8238C2902.84,-68.1311 2907.48,-67.5109 2912,-67 3295.22,-23.647 3401.61,-110.452 3779,-31 3782.01,-30.3666 3785.09,-29.5144 3788.13,-28.5387"/>
<polygon fill="midnightblue" stroke="midnightblue" points="3789.34,-31.8216 3797.55,-25.118 3786.95,-25.2421 3789.34,-31.8216"/>
</g>
<!-- Node8&#45;&gt;Node13 -->
<g id="edge13" class="edge"><title>Node8&#45;&gt;Node13</title>
<path fill="none" stroke="midnightblue" d="M2769.9,-78.0005C2575.71,-67.3571 2005.94,-35.8068 1987,-31 1985.01,-30.4958 1983,-29.8641 1981,-29.1485"/>
<polygon fill="midnightblue" stroke="midnightblue" points="1981.92,-25.7366 1971.34,-25.0725 1979.2,-32.1857 1981.92,-25.7366"/>
</g>
<!-- Node8&#45;&gt;Node14 -->
<g id="edge14" class="edge"><title>Node8&#45;&gt;Node14</title>
<path fill="none" stroke="midnightblue" d="M2769.83,-68.8728C2765.16,-68.1685 2760.51,-67.5324 2756,-67 2444.42,-30.2483 2355.88,-105.039 2051,-31 2048.78,-30.462 2046.53,-29.7721 2044.31,-28.986"/>
<polygon fill="midnightblue" stroke="midnightblue" points="2045.44,-25.6671 2034.86,-25.0976 2042.77,-32.1402 2045.44,-25.6671"/>
</g>
<!-- Node15 -->
<g id="node16" class="node"><title>Node15</title>
<polygon fill="white" stroke="#bfbfbf" points="2647.5,-0.5 2647.5,-30.5 2756.5,-30.5 2756.5,-0.5 2647.5,-0.5"/>
<text text-anchor="start" x="2655.5" y="-18.5" font-family="FreeSans" font-size="10.00">boost/dynamic_bitset</text>
<text text-anchor="middle" x="2702" y="-7.5" font-family="FreeSans" font-size="10.00">/config.hpp</text>
</g>
<!-- Node8&#45;&gt;Node15 -->
<g id="edge15" class="edge"><title>Node8&#45;&gt;Node15</title>
<path fill="none" stroke="midnightblue" d="M2805.36,-67.396C2786.16,-57.9413 2760.67,-45.3896 2739.81,-35.1168"/>
<polygon fill="midnightblue" stroke="midnightblue" points="2741.1,-31.8543 2730.59,-30.5765 2738.01,-38.1342 2741.1,-31.8543"/>
</g>
<!-- Node16 -->
<g id="node17" class="node"><title>Node16</title>
<polygon fill="white" stroke="#bfbfbf" points="2775,-6 2775,-25 2817,-25 2817,-6 2775,-6"/>
<text text-anchor="middle" x="2796" y="-13" font-family="FreeSans" font-size="10.00">locale</text>
</g>
<!-- Node8&#45;&gt;Node16 -->
<g id="edge16" class="edge"><title>Node8&#45;&gt;Node16</title>
<path fill="none" stroke="midnightblue" d="M2825.75,-67.396C2820.01,-57.5621 2812.3,-44.3777 2806.17,-33.892"/>
<polygon fill="midnightblue" stroke="midnightblue" points="2809.15,-32.0611 2801.08,-25.1945 2803.11,-35.594 2809.15,-32.0611"/>
</g>
<!-- Node17 -->
<g id="node18" class="node"><title>Node17</title>
<polygon fill="white" stroke="#bfbfbf" points="2835.5,-6 2835.5,-25 2884.5,-25 2884.5,-6 2835.5,-6"/>
<text text-anchor="middle" x="2860" y="-13" font-family="FreeSans" font-size="10.00">istream</text>
</g>
<!-- Node8&#45;&gt;Node17 -->
<g id="edge17" class="edge"><title>Node8&#45;&gt;Node17</title>
<path fill="none" stroke="midnightblue" d="M2839.64,-67.396C2843.49,-57.7628 2848.63,-44.9145 2852.79,-34.5373"/>
<polygon fill="midnightblue" stroke="midnightblue" points="2856.06,-35.7792 2856.52,-25.1945 2849.56,-33.1794 2856.06,-35.7792"/>
</g>
<!-- Node18 -->
<g id="node19" class="node"><title>Node18</title>
<polygon fill="white" stroke="#bfbfbf" points="2060,-6 2060,-25 2112,-25 2112,-6 2060,-6"/>
<text text-anchor="middle" x="2086" y="-13" font-family="FreeSans" font-size="10.00">ostream</text>
</g>
<!-- Node8&#45;&gt;Node18 -->
<g id="edge18" class="edge"><title>Node8&#45;&gt;Node18</title>
<path fill="none" stroke="midnightblue" d="M2769.83,-68.9016C2765.16,-68.1906 2760.51,-67.5451 2756,-67 2475.36,-33.0997 2396.57,-93.983 2121,-31 2118.33,-30.3891 2115.6,-29.5926 2112.9,-28.6873"/>
<polygon fill="midnightblue" stroke="midnightblue" points="2114.02,-25.3677 2103.43,-25.068 2111.52,-31.9067 2114.02,-25.3677"/>
</g>
<!-- Node19 -->
<g id="node20" class="node"><title>Node19</title>
<polygon fill="white" stroke="#bfbfbf" points="2902.5,-0.5 2902.5,-30.5 3011.5,-30.5 3011.5,-0.5 2902.5,-0.5"/>
<text text-anchor="start" x="2910.5" y="-18.5" font-family="FreeSans" font-size="10.00">boost/dynamic_bitset</text>
<text text-anchor="middle" x="2957" y="-7.5" font-family="FreeSans" font-size="10.00">_fwd.hpp</text>
</g>
<!-- Node8&#45;&gt;Node19 -->
<g id="edge19" class="edge"><title>Node8&#45;&gt;Node19</title>
<path fill="none" stroke="midnightblue" d="M2860.69,-67.396C2878.5,-57.9839 2902.12,-45.5026 2921.51,-35.2557"/>
<polygon fill="midnightblue" stroke="midnightblue" points="2923.16,-38.3433 2930.36,-30.5765 2919.89,-32.1543 2923.16,-38.3433"/>
</g>
<!-- Node20 -->
<g id="node21" class="node"><title>Node20</title>
<polygon fill="white" stroke="#bfbfbf" points="3030,-0.5 3030,-30.5 3136,-30.5 3136,-0.5 3030,-0.5"/>
<text text-anchor="start" x="3038" y="-18.5" font-family="FreeSans" font-size="10.00">boost/detail/dynamic</text>
<text text-anchor="middle" x="3083" y="-7.5" font-family="FreeSans" font-size="10.00">_bitset.hpp</text>
</g>
<!-- Node8&#45;&gt;Node20 -->
<g id="edge20" class="edge"><title>Node8&#45;&gt;Node20</title>
<path fill="none" stroke="midnightblue" d="M2887.72,-67.476C2926.55,-57.3395 2979.14,-43.6123 3019.96,-32.9565"/>
<polygon fill="midnightblue" stroke="midnightblue" points="3021.01,-36.2995 3029.8,-30.3871 3019.24,-29.5265 3021.01,-36.2995"/>
</g>
<!-- Node21 -->
<g id="node22" class="node"><title>Node21</title>
<polygon fill="white" stroke="#bfbfbf" points="3154,-6 3154,-25 3272,-25 3272,-6 3154,-6"/>
<text text-anchor="middle" x="3213" y="-13" font-family="FreeSans" font-size="10.00">boost/detail/iterator.hpp</text>
</g>
<!-- Node8&#45;&gt;Node21 -->
<g id="edge21" class="edge"><title>Node8&#45;&gt;Node21</title>
<path fill="none" stroke="midnightblue" d="M2898.25,-69.3964C2902.9,-68.5693 2907.52,-67.7625 2912,-67 3015.3,-49.4224 3041.94,-49.9338 3145,-31 3151.39,-29.8263 3158.1,-28.5053 3164.71,-27.1508"/>
<polygon fill="midnightblue" stroke="midnightblue" points="3165.88,-30.4814 3174.95,-25.0112 3164.45,-23.6291 3165.88,-30.4814"/>
</g>
<!-- Node22 -->
<g id="node23" class="node"><title>Node22</title>
<polygon fill="white" stroke="#bfbfbf" points="3290.5,-6 3290.5,-25 3403.5,-25 3403.5,-6 3290.5,-6"/>
<text text-anchor="middle" x="3347" y="-13" font-family="FreeSans" font-size="10.00">boost/move/move.hpp</text>
</g>
<!-- Node8&#45;&gt;Node22 -->
<g id="edge22" class="edge"><title>Node8&#45;&gt;Node22</title>
<path fill="none" stroke="midnightblue" d="M2898.2,-69.11C2902.86,-68.3501 2907.5,-67.6366 2912,-67 3075.15,-43.9204 3118.24,-56.7246 3281,-31 3287.77,-29.9294 3294.89,-28.5918 3301.85,-27.1649"/>
<polygon fill="midnightblue" stroke="midnightblue" points="3302.82,-30.538 3311.87,-25.031 3301.36,-23.6916 3302.82,-30.538"/>
</g>
<!-- Node23 -->
<g id="node24" class="node"><title>Node23</title>
<polygon fill="white" stroke="#bfbfbf" points="3421.5,-6 3421.5,-25 3506.5,-25 3506.5,-6 3421.5,-6"/>
<text text-anchor="middle" x="3464" y="-13" font-family="FreeSans" font-size="10.00">boost/limits.hpp</text>
</g>
<!-- Node8&#45;&gt;Node23 -->
<g id="edge23" class="edge"><title>Node8&#45;&gt;Node23</title>
<path fill="none" stroke="midnightblue" d="M2898.18,-68.9791C2902.85,-68.2499 2907.49,-67.5792 2912,-67 3133.42,-38.5549 3193.14,-69.7292 3413,-31 3417.84,-30.1466 3422.89,-29.0177 3427.84,-27.7655"/>
<polygon fill="midnightblue" stroke="midnightblue" points="3429.04,-31.0672 3437.77,-25.0707 3427.2,-24.3115 3429.04,-31.0672"/>
</g>
<!-- Node24 -->
<g id="node25" class="node"><title>Node24</title>
<polygon fill="white" stroke="#bfbfbf" points="3524.5,-0.5 3524.5,-30.5 3633.5,-30.5 3633.5,-0.5 3524.5,-0.5"/>
<text text-anchor="start" x="3532.5" y="-18.5" font-family="FreeSans" font-size="10.00">boost/pending/lowest</text>
<text text-anchor="middle" x="3579" y="-7.5" font-family="FreeSans" font-size="10.00">_bit.hpp</text>
</g>
<!-- Node8&#45;&gt;Node24 -->
<g id="edge24" class="edge"><title>Node8&#45;&gt;Node24</title>
<path fill="none" stroke="midnightblue" d="M2898.18,-68.9165C2902.84,-68.202 2907.49,-67.5516 2912,-67 3175.67,-34.7606 3248.06,-68.449 3514.5,-31.0554"/>
<polygon fill="midnightblue" stroke="midnightblue" points="3515.06,-34.5109 3524.47,-29.6362 3514.08,-27.5808 3515.06,-34.5109"/>
</g>
<!-- Node25 -->
<g id="node26" class="node"><title>Node25</title>
<polygon fill="white" stroke="#bfbfbf" points="3652,-6 3652,-25 3770,-25 3770,-6 3652,-6"/>
<text text-anchor="middle" x="3711" y="-13" font-family="FreeSans" font-size="10.00">boost/static_assert.hpp</text>
</g>
<!-- Node8&#45;&gt;Node25 -->
<g id="edge25" class="edge"><title>Node8&#45;&gt;Node25</title>
<path fill="none" stroke="midnightblue" d="M2898.17,-68.8635C2902.84,-68.1614 2907.49,-67.5283 2912,-67 3235.08,-29.1891 3320.45,-73.0543 3643,-31 3650.57,-30.0126 3658.56,-28.6274 3666.29,-27.1015"/>
<polygon fill="midnightblue" stroke="midnightblue" points="3667.16,-30.4943 3676.24,-25.0361 3665.74,-23.6402 3667.16,-30.4943"/>
</g>
<!-- Node26 -->
<g id="node27" class="node"><title>Node26</title>
<polygon fill="white" stroke="#bfbfbf" points="2130,-6 2130,-25 2260,-25 2260,-6 2130,-6"/>
<text text-anchor="middle" x="2195" y="-13" font-family="FreeSans" font-size="10.00">boost/utility/addressof.hpp</text>
</g>
<!-- Node8&#45;&gt;Node26 -->
<g id="edge26" class="edge"><title>Node8&#45;&gt;Node26</title>
<path fill="none" stroke="midnightblue" d="M2769.82,-68.9897C2765.15,-68.258 2760.51,-67.5838 2756,-67 2540.76,-39.1245 2484.1,-59.9185 2269,-31 2260.88,-29.9087 2252.31,-28.4848 2244,-26.956"/>
<polygon fill="midnightblue" stroke="midnightblue" points="2244.51,-23.49 2234.03,-25.0546 2243.19,-30.3661 2244.51,-23.49"/>
</g>
<!-- Node27 -->
<g id="node28" class="node"><title>Node27</title>
<polygon fill="white" stroke="#bfbfbf" points="2278,-0.5 2278,-30.5 2410,-30.5 2410,-0.5 2278,-0.5"/>
<text text-anchor="start" x="2286" y="-18.5" font-family="FreeSans" font-size="10.00">boost/detail/no_exceptions</text>
<text text-anchor="middle" x="2344" y="-7.5" font-family="FreeSans" font-size="10.00">_support.hpp</text>
</g>
<!-- Node8&#45;&gt;Node27 -->
<g id="edge27" class="edge"><title>Node8&#45;&gt;Node27</title>
<path fill="none" stroke="midnightblue" d="M2769.79,-69.1569C2765.13,-68.386 2760.5,-67.6573 2756,-67 2610.16,-45.6866 2569.69,-52.982 2420.21,-31.098"/>
<polygon fill="midnightblue" stroke="midnightblue" points="2420.61,-27.6189 2410.2,-29.6137 2419.58,-34.5432 2420.61,-27.6189"/>
</g>
<!-- Node28 -->
<g id="node29" class="node"><title>Node28</title>
<polygon fill="white" stroke="#bfbfbf" points="2428,-6 2428,-25 2560,-25 2560,-6 2428,-6"/>
<text text-anchor="middle" x="2494" y="-13" font-family="FreeSans" font-size="10.00">boost/throw_exception.hpp</text>
</g>
<!-- Node8&#45;&gt;Node28 -->
<g id="edge28" class="edge"><title>Node8&#45;&gt;Node28</title>
<path fill="none" stroke="midnightblue" d="M2769.65,-69.1976C2705.77,-56.9855 2608.92,-38.4699 2548.66,-26.9496"/>
<polygon fill="midnightblue" stroke="midnightblue" points="2549.06,-23.4631 2538.58,-25.023 2547.75,-30.3386 2549.06,-23.4631"/>
</g>
<!-- Node43 -->
<g id="node44" class="node"><title>Node43</title>
<g id="a_node44"><a xlink:href="RANSACProblemConcept_8ipp.html" target="_top" xlink:title="RANSACProblemConcept.ipp">
<polygon fill="white" stroke="black" points="142.5,-207 142.5,-226 287.5,-226 287.5,-207 142.5,-207"/>
<text text-anchor="middle" x="215" y="-214" font-family="FreeSans" font-size="10.00">RANSACProblemConcept.ipp</text>
</a>
</g>
</g>
<!-- Node42&#45;&gt;Node43 -->
<g id="edge48" class="edge"><title>Node42&#45;&gt;Node43</title>
<path fill="none" stroke="midnightblue" d="M386.707,-273.869C351.773,-262.4 289.919,-242.094 250.763,-229.24"/>
<polygon fill="midnightblue" stroke="midnightblue" points="251.679,-225.857 241.086,-226.064 249.496,-232.508 251.679,-225.857"/>
</g>
<!-- Node43&#45;&gt;Node2 -->
<g id="edge49" class="edge"><title>Node43&#45;&gt;Node2</title>
<path fill="none" stroke="midnightblue" d="M142.45,-209.809C112.5,-203.456 80.5195,-190.615 62,-165 44.255,-140.456 77.2648,-74.0675 84,-67 102.829,-47.2421 130.217,-35.1199 155.171,-27.728"/>
<polygon fill="midnightblue" stroke="midnightblue" points="156.245,-31.0623 164.953,-25.0276 154.383,-24.3147 156.245,-31.0623"/>
</g>
<!-- Node43&#45;&gt;Node30 -->
<g id="edge52" class="edge"><title>Node43&#45;&gt;Node30</title>
<path fill="none" stroke="midnightblue" d="M204.099,-206.925C185.015,-190.936 149.53,-156.185 171,-134 213.444,-90.1419 1208.7,-107.418 1269,-98 1318.76,-90.228 1328.52,-76.3936 1378,-67 1555.94,-33.2207 1773.14,-21.289 1856.33,-17.7726"/>
<polygon fill="midnightblue" stroke="midnightblue" points="1856.63,-21.2632 1866.48,-17.3576 1856.35,-14.2691 1856.63,-21.2632"/>
</g>
<!-- Node43&#45;&gt;Node32 -->
<g id="edge53" class="edge"><title>Node43&#45;&gt;Node32</title>
<path fill="none" stroke="midnightblue" d="M212.842,-206.734C210.467,-197.085 206.582,-181.3 203.531,-168.906"/>
<polygon fill="midnightblue" stroke="midnightblue" points="206.912,-168.001 201.124,-159.127 200.115,-169.674 206.912,-168.001"/>
</g>
<!-- Node43&#45;&gt;Node33 -->
<g id="edge50" class="edge"><title>Node43&#45;&gt;Node33</title>
<path fill="none" stroke="midnightblue" d="M219.855,-206.734C225.307,-196.89 234.296,-180.66 241.219,-168.159"/>
<polygon fill="midnightblue" stroke="midnightblue" points="244.439,-169.571 246.222,-159.127 238.315,-166.179 244.439,-169.571"/>
</g>
<!-- Node43&#45;&gt;Node34 -->
<g id="edge51" class="edge"><title>Node43&#45;&gt;Node34</title>
<path fill="none" stroke="midnightblue" d="M287.587,-212.147C360.473,-208.883 476,-203.991 576,-201 1390.02,-176.657 1595.17,-215.292 2408,-165 2447.76,-162.54 2493.7,-157.27 2521.54,-153.807"/>
<polygon fill="midnightblue" stroke="midnightblue" points="2522.13,-157.261 2531.61,-152.534 2521.25,-150.316 2522.13,-157.261"/>
</g>
<!-- Node44 -->
<g id="node45" class="node"><title>Node44</title>
<polygon fill="white" stroke="#bfbfbf" points="715,-6 715,-25 777,-25 777,-6 715,-6"/>
<text text-anchor="middle" x="746" y="-13" font-family="FreeSans" font-size="10.00">type_traits</text>
</g>
<!-- Node43&#45;&gt;Node44 -->
<g id="edge54" class="edge"><title>Node43&#45;&gt;Node44</title>
<path fill="none" stroke="midnightblue" d="M190.711,-206.916C172.576,-199.074 149.091,-185.537 138,-165 131.453,-152.877 129.607,-144.927 138,-134 155.583,-111.108 360.714,-72.7541 389,-67 502.248,-43.9625 637.828,-27.8882 704.629,-20.7155"/>
<polygon fill="midnightblue" stroke="midnightblue" points="705.171,-24.1777 714.746,-19.6411 704.432,-17.2169 705.171,-24.1777"/>
</g>
<!-- Node46 -->
<g id="node47" class="node"><title>Node46</title>
<g id="a_node47"><a xlink:href="Combinatorics_8ipp.html" target="_top" xlink:title="Combinatorics.ipp">
<polygon fill="white" stroke="black" points="2778,-207 2778,-226 2872,-226 2872,-207 2778,-207"/>
<text text-anchor="middle" x="2825" y="-214" font-family="FreeSans" font-size="10.00">Combinatorics.ipp</text>
</a>
</g>
</g>
<!-- Node45&#45;&gt;Node46 -->
<g id="edge56" class="edge"><title>Node45&#45;&gt;Node46</title>
<path fill="none" stroke="midnightblue" d="M2825,-273.734C2825,-264.183 2825,-248.618 2825,-236.283"/>
<polygon fill="midnightblue" stroke="midnightblue" points="2828.5,-236.127 2825,-226.127 2821.5,-236.127 2828.5,-236.127"/>
</g>
<!-- Node46&#45;&gt;Node3 -->
<g id="edge58" class="edge"><title>Node46&#45;&gt;Node3</title>
<path fill="none" stroke="midnightblue" d="M2847.44,-206.869C2876.82,-195.571 2928.49,-175.696 2961.97,-162.818"/>
<polygon fill="midnightblue" stroke="midnightblue" points="2963.66,-165.92 2971.73,-159.064 2961.14,-159.387 2963.66,-165.92"/>
</g>
<!-- Node46&#45;&gt;Node12 -->
<g id="edge61" class="edge"><title>Node46&#45;&gt;Node12</title>
<path fill="none" stroke="midnightblue" d="M2838.3,-206.844C2853.27,-197.006 2878.22,-180.32 2899,-165 2916.82,-151.862 2918.05,-143.603 2938,-134 3277.31,29.3126 3411.46,-112.991 3779,-31 3782,-30.3306 3785.08,-29.4549 3788.11,-28.4649"/>
<polygon fill="midnightblue" stroke="midnightblue" points="3789.34,-31.7448 3797.53,-25.0264 3786.93,-25.1696 3789.34,-31.7448"/>
</g>
<!-- Node46&#45;&gt;Node13 -->
<g id="edge59" class="edge"><title>Node46&#45;&gt;Node13</title>
<path fill="none" stroke="midnightblue" d="M2811.95,-206.886C2770.86,-180.276 2639.61,-99.2365 2518,-67 2289.35,-6.39243 2216.04,-90.1174 1987,-31 1985.02,-30.4877 1983,-29.8501 1981.01,-29.1304"/>
<polygon fill="midnightblue" stroke="midnightblue" points="1981.92,-25.7187 1971.35,-25.0459 1979.2,-32.1655 1981.92,-25.7187"/>
</g>
<!-- Node46&#45;&gt;Node14 -->
<g id="edge65" class="edge"><title>Node46&#45;&gt;Node14</title>
<path fill="none" stroke="midnightblue" d="M2810.59,-206.836C2796.64,-197.839 2775.64,-182.627 2762,-165 2732.78,-127.24 2757.37,-94.0118 2718,-67 2656.8,-25.0098 2123.1,-48.6193 2051,-31 2048.79,-30.4588 2046.54,-29.7666 2044.31,-28.979"/>
<polygon fill="midnightblue" stroke="midnightblue" points="2045.44,-25.6602 2034.86,-25.0878 2042.77,-32.1326 2045.44,-25.6602"/>
</g>
<!-- Node46&#45;&gt;Node30 -->
<g id="edge64" class="edge"><title>Node46&#45;&gt;Node30</title>
<path fill="none" stroke="midnightblue" d="M2800.65,-206.942C2772.66,-197.054 2725.39,-180.193 2685,-165 2608.6,-136.26 2589.5,-129.033 2514,-98 2481.78,-84.7543 2475.86,-75.2153 2442,-67 2218.16,-12.6868 2148.93,-84.9269 1925,-31 1922.49,-30.3953 1919.93,-29.6223 1917.39,-28.7488"/>
<polygon fill="midnightblue" stroke="midnightblue" points="1918.5,-25.425 1907.92,-25.0262 1915.94,-31.9403 1918.5,-25.425"/>
</g>
<!-- Node46&#45;&gt;Node34 -->
<g id="edge60" class="edge"><title>Node46&#45;&gt;Node34</title>
<path fill="none" stroke="midnightblue" d="M2788.37,-206.936C2730.95,-193.511 2621.24,-167.859 2572.01,-156.347"/>
<polygon fill="midnightblue" stroke="midnightblue" points="2572.72,-152.92 2562.19,-154.051 2571.13,-159.736 2572.72,-152.92"/>
</g>
<!-- Node46&#45;&gt;Node36 -->
<g id="edge63" class="edge"><title>Node46&#45;&gt;Node36</title>
<path fill="none" stroke="midnightblue" d="M2777.8,-208.605C2686.12,-195.215 2486.32,-166.03 2410.24,-154.917"/>
<polygon fill="midnightblue" stroke="midnightblue" points="2410.34,-151.395 2399.94,-153.413 2409.33,-158.321 2410.34,-151.395"/>
</g>
<!-- Node46&#45;&gt;Node38 -->
<g id="edge62" class="edge"><title>Node46&#45;&gt;Node38</title>
<path fill="none" stroke="midnightblue" d="M2872.42,-207.523C2918.62,-199.141 2990.53,-184.467 3051,-165 3052.92,-164.381 3054.89,-163.694 3056.86,-162.966"/>
<polygon fill="midnightblue" stroke="midnightblue" points="3058.54,-166.063 3066.53,-159.104 3055.94,-159.562 3058.54,-166.063"/>
</g>
<!-- Node46&#45;&gt;Node40 -->
<g id="edge66" class="edge"><title>Node46&#45;&gt;Node40</title>
<path fill="none" stroke="midnightblue" d="M2872.05,-211.032C2930.96,-204.627 3034.53,-190.67 3120,-165 3121.93,-164.419 3123.9,-163.755 3125.87,-163.037"/>
<polygon fill="midnightblue" stroke="midnightblue" points="3127.53,-166.139 3135.49,-159.142 3124.91,-159.651 3127.53,-166.139"/>
</g>
<!-- Node47 -->
<g id="node48" class="node"><title>Node47</title>
<polygon fill="white" stroke="#bfbfbf" points="2770.5,-134.5 2770.5,-164.5 2889.5,-164.5 2889.5,-134.5 2770.5,-134.5"/>
<text text-anchor="start" x="2778.5" y="-152.5" font-family="FreeSans" font-size="10.00">boost/math/special</text>
<text text-anchor="middle" x="2830" y="-141.5" font-family="FreeSans" font-size="10.00">_functions/binomial.hpp</text>
</g>
<!-- Node46&#45;&gt;Node47 -->
<g id="edge57" class="edge"><title>Node46&#45;&gt;Node47</title>
<path fill="none" stroke="midnightblue" d="M2825.67,-206.734C2826.3,-198.541 2827.28,-185.923 2828.14,-174.714"/>
<polygon fill="midnightblue" stroke="midnightblue" points="2831.64,-174.828 2828.92,-164.589 2824.66,-174.291 2831.64,-174.828"/>
</g>
<!-- Node48&#45;&gt;Node5 -->
<g id="edge91" class="edge"><title>Node48&#45;&gt;Node5</title>
<path fill="none" stroke="midnightblue" d="M1777.51,-335.475C1757.98,-326.927 1727.29,-313.501 1702.31,-302.573"/>
<polygon fill="midnightblue" stroke="midnightblue" points="1703.62,-299.325 1693.05,-298.523 1700.81,-305.738 1703.62,-299.325"/>
</g>
<!-- Node49 -->
<g id="node50" class="node"><title>Node49</title>
<g id="a_node50"><a xlink:href="Correspondence_8ipp.html" target="_top" xlink:title="Correspondence.ipp">
<polygon fill="white" stroke="black" points="585,-207 585,-226 687,-226 687,-207 585,-207"/>
<text text-anchor="middle" x="636" y="-214" font-family="FreeSans" font-size="10.00">Correspondence.ipp</text>
</a>
</g>
</g>
<!-- Node48&#45;&gt;Node49 -->
<g id="edge68" class="edge"><title>Node48&#45;&gt;Node49</title>
<path fill="none" stroke="midnightblue" d="M1789.79,-335.489C1774.15,-317.262 1737.12,-275.496 1720,-268 1626.4,-227.016 912.945,-219.228 697.448,-217.806"/>
<polygon fill="midnightblue" stroke="midnightblue" points="697.288,-214.305 687.266,-217.741 697.243,-221.305 697.288,-214.305"/>
</g>
<!-- Node59 -->
<g id="node60" class="node"><title>Node59</title>
<g id="a_node60"><a xlink:href="Coordinate_8h.html" target="_top" xlink:title="Coordinate.h">
<polygon fill="white" stroke="black" points="1818.5,-140 1818.5,-159 1889.5,-159 1889.5,-140 1818.5,-140"/>
<text text-anchor="middle" x="1854" y="-147" font-family="FreeSans" font-size="10.00">Coordinate.h</text>
</a>
</g>
</g>
<!-- Node48&#45;&gt;Node59 -->
<g id="edge92" class="edge"><title>Node48&#45;&gt;Node59</title>
<path fill="none" stroke="midnightblue" d="M1806.64,-335.386C1815.34,-327.01 1827.7,-313.464 1834,-299 1852.99,-255.421 1855.06,-198.388 1854.69,-169.316"/>
<polygon fill="midnightblue" stroke="midnightblue" points="1858.19,-169.225 1854.45,-159.313 1851.19,-169.395 1858.19,-169.225"/>
</g>
<!-- Node62 -->
<g id="node63" class="node"><title>Node62</title>
<g id="a_node63"><a xlink:href="Feature_8h.html" target="_top" xlink:title="Feature.h">
<polygon fill="white" stroke="black" points="1768.5,-274 1768.5,-293 1825.5,-293 1825.5,-274 1768.5,-274"/>
<text text-anchor="middle" x="1797" y="-281" font-family="FreeSans" font-size="10.00">Feature.h</text>
</a>
</g>
</g>
<!-- Node48&#45;&gt;Node62 -->
<g id="edge107" class="edge"><title>Node48&#45;&gt;Node62</title>
<path fill="none" stroke="midnightblue" d="M1797,-335.475C1797,-327.08 1797,-313.981 1797,-303.163"/>
<polygon fill="midnightblue" stroke="midnightblue" points="1800.5,-303.009 1797,-293.009 1793.5,-303.009 1800.5,-303.009"/>
</g>
<!-- Node49&#45;&gt;Node2 -->
<g id="edge71" class="edge"><title>Node49&#45;&gt;Node2</title>
<path fill="none" stroke="midnightblue" d="M589.64,-206.987C539.67,-197.596 457.896,-181.601 388,-165 336.915,-152.866 324.933,-146.759 274,-134 204.557,-116.604 161.607,-153.993 117,-98 108.415,-87.2238 109.804,-78.7491 117,-67 128.518,-48.1941 149.486,-36.1143 169.169,-28.5033"/>
<polygon fill="midnightblue" stroke="midnightblue" points="170.435,-31.7678 178.681,-25.116 168.087,-25.1734 170.435,-31.7678"/>
</g>
<!-- Node49&#45;&gt;Node13 -->
<g id="edge78" class="edge"><title>Node49&#45;&gt;Node13</title>
<path fill="none" stroke="midnightblue" d="M687.243,-215.621C933.932,-215.956 1989.27,-214.486 2037,-165 2076.28,-124.276 2010.55,-60.7349 1975.63,-31.79"/>
<polygon fill="midnightblue" stroke="midnightblue" points="1977.47,-28.7794 1967.5,-25.2114 1973.07,-34.2218 1977.47,-28.7794"/>
</g>
<!-- Node49&#45;&gt;Node29 -->
<g id="edge75" class="edge"><title>Node49&#45;&gt;Node29</title>
<path fill="none" stroke="midnightblue" d="M599.811,-206.907C553.393,-195.525 477.891,-175.649 470,-165 461.797,-153.93 461.9,-145.145 470,-134 472.492,-130.571 703.808,-57.0714 795.326,-28.0954"/>
<polygon fill="midnightblue" stroke="midnightblue" points="796.532,-31.385 805.01,-25.0305 794.42,-24.7113 796.532,-31.385"/>
</g>
<!-- Node49&#45;&gt;Node30 -->
<g id="edge80" class="edge"><title>Node49&#45;&gt;Node30</title>
<path fill="none" stroke="midnightblue" d="M635.022,-206.921C633.624,-189.955 633.277,-152.187 655,-134 713.695,-84.8606 1266.83,-105.639 1343,-98 1538,-78.4427 1769.74,-38.3895 1856.21,-22.8549"/>
<polygon fill="midnightblue" stroke="midnightblue" points="1857.03,-26.262 1866.25,-21.0423 1855.79,-19.3732 1857.03,-26.262"/>
</g>
<!-- Node49&#45;&gt;Node31 -->
<g id="edge76" class="edge"><title>Node49&#45;&gt;Node31</title>
<path fill="none" stroke="midnightblue" d="M630.41,-206.775C620.574,-190.219 602.935,-154.107 622,-134 673.753,-79.4173 1226.45,-121.209 1298,-98 1341.07,-84.0293 1383.73,-51.4647 1406.69,-31.9919"/>
<polygon fill="midnightblue" stroke="midnightblue" points="1409.22,-34.4306 1414.48,-25.2358 1404.64,-29.1412 1409.22,-34.4306"/>
</g>
<!-- Node49&#45;&gt;Node32 -->
<g id="edge81" class="edge"><title>Node49&#45;&gt;Node32</title>
<path fill="none" stroke="midnightblue" d="M584.737,-214.946C506.056,-212.821 351.556,-203.576 227,-165 225.529,-164.545 224.044,-164.014 222.564,-163.431"/>
<polygon fill="midnightblue" stroke="midnightblue" points="223.659,-160.08 213.115,-159.045 220.712,-166.43 223.659,-160.08"/>
</g>
<!-- Node49&#45;&gt;Node35 -->
<g id="edge79" class="edge"><title>Node49&#45;&gt;Node35</title>
<path fill="none" stroke="midnightblue" d="M687.297,-214.13C759.279,-210.939 893.594,-200.321 1002,-165 1003.42,-164.536 1004.86,-164 1006.29,-163.411"/>
<polygon fill="midnightblue" stroke="midnightblue" points="1007.92,-166.509 1015.41,-159.012 1004.88,-160.205 1007.92,-166.509"/>
</g>
<!-- Node49&#45;&gt;Node36 -->
<g id="edge82" class="edge"><title>Node49&#45;&gt;Node36</title>
<path fill="none" stroke="midnightblue" d="M687.213,-215.179C886.31,-213.657 1627.93,-205.436 2237,-165 2276.08,-162.406 2320.99,-157.542 2349.89,-154.167"/>
<polygon fill="midnightblue" stroke="midnightblue" points="2350.62,-157.605 2360.14,-152.954 2349.8,-150.654 2350.62,-157.605"/>
</g>
<!-- Node49&#45;&gt;Node37 -->
<g id="edge77" class="edge"><title>Node49&#45;&gt;Node37</title>
<path fill="none" stroke="midnightblue" d="M595.879,-206.956C535.833,-194.036 428.85,-170.454 422,-165 386.046,-136.373 364.327,-105.774 389,-67 405.212,-41.522 438.024,-28.682 463.249,-22.3502"/>
<polygon fill="midnightblue" stroke="midnightblue" points="464.207,-25.7217 473.18,-20.0877 462.652,-18.8966 464.207,-25.7217"/>
</g>
<!-- Node49&#45;&gt;Node39 -->
<g id="edge83" class="edge"><title>Node49&#45;&gt;Node39</title>
<path fill="none" stroke="midnightblue" d="M687.257,-209.427C745.515,-201.862 843.144,-187.168 925,-165 927.811,-164.239 930.703,-163.358 933.582,-162.414"/>
<polygon fill="midnightblue" stroke="midnightblue" points="934.905,-165.659 943.18,-159.042 932.585,-159.054 934.905,-165.659"/>
</g>
<!-- Node49&#45;&gt;Node44 -->
<g id="edge84" class="edge"><title>Node49&#45;&gt;Node44</title>
<path fill="none" stroke="midnightblue" d="M596,-206.919C538.066,-194.303 437.116,-171.537 432,-165 423.508,-154.15 424.148,-145.322 432,-134 448.462,-110.264 628.199,-52.6874 708.096,-28.0246"/>
<polygon fill="midnightblue" stroke="midnightblue" points="709.25,-31.3315 717.779,-25.046 707.192,-24.6409 709.25,-31.3315"/>
</g>
<!-- Node50 -->
<g id="node51" class="node"><title>Node50</title>
<polygon fill="white" stroke="#bfbfbf" points="664.5,-140 664.5,-159 781.5,-159 781.5,-140 664.5,-140"/>
<text text-anchor="middle" x="723" y="-147" font-family="FreeSans" font-size="10.00">boost/bimap/bimap.hpp</text>
</g>
<!-- Node49&#45;&gt;Node50 -->
<g id="edge69" class="edge"><title>Node49&#45;&gt;Node50</title>
<path fill="none" stroke="midnightblue" d="M647.733,-206.734C661.952,-196.111 686.127,-178.049 703.239,-165.264"/>
<polygon fill="midnightblue" stroke="midnightblue" points="705.536,-167.916 711.453,-159.127 701.347,-162.309 705.536,-167.916"/>
</g>
<!-- Node51 -->
<g id="node52" class="node"><title>Node51</title>
<polygon fill="white" stroke="#bfbfbf" points="799.5,-140 799.5,-159 916.5,-159 916.5,-140 799.5,-140"/>
<text text-anchor="middle" x="858" y="-147" font-family="FreeSans" font-size="10.00">boost/bimap/list_of.hpp</text>
</g>
<!-- Node49&#45;&gt;Node51 -->
<g id="edge70" class="edge"><title>Node49&#45;&gt;Node51</title>
<path fill="none" stroke="midnightblue" d="M665.48,-206.869C704.981,-195.303 775.181,-174.749 819.015,-161.914"/>
<polygon fill="midnightblue" stroke="midnightblue" points="820.138,-165.233 828.752,-159.064 818.171,-158.515 820.138,-165.233"/>
</g>
<!-- Node52 -->
<g id="node53" class="node"><title>Node52</title>
<polygon fill="white" stroke="#bfbfbf" points="886,-6 886,-25 1014,-25 1014,-6 886,-6"/>
<text text-anchor="middle" x="950" y="-13" font-family="FreeSans" font-size="10.00">boost/range/concepts.hpp</text>
</g>
<!-- Node49&#45;&gt;Node52 -->
<g id="edge72" class="edge"><title>Node49&#45;&gt;Node52</title>
<path fill="none" stroke="midnightblue" d="M598.108,-206.966C550.078,-194.477 477.034,-168.863 508,-134 553.03,-83.3037 747.817,-122.611 811,-98 832.953,-89.4487 833.97,-79.4036 854,-67 876.463,-53.0901 903.138,-39.2592 922.661,-29.5984"/>
<polygon fill="midnightblue" stroke="midnightblue" points="924.448,-32.6204 931.89,-25.0786 921.369,-26.3338 924.448,-32.6204"/>
</g>
<!-- Node53 -->
<g id="node54" class="node"><title>Node53</title>
<polygon fill="white" stroke="#bfbfbf" points="1032,-6 1032,-25 1182,-25 1182,-6 1032,-6"/>
<text text-anchor="middle" x="1107" y="-13" font-family="FreeSans" font-size="10.00">boost/range/metafunctions.hpp</text>
</g>
<!-- Node49&#45;&gt;Node53 -->
<g id="edge73" class="edge"><title>Node49&#45;&gt;Node53</title>
<path fill="none" stroke="midnightblue" d="M613.098,-206.901C578.642,-192.74 520.114,-163.166 546,-134 590.717,-83.6162 781.134,-112.135 847,-98 930.985,-79.9764 1026.64,-46.5169 1075.15,-28.5874"/>
<polygon fill="midnightblue" stroke="midnightblue" points="1076.62,-31.7768 1084.77,-25.0083 1074.18,-25.2165 1076.62,-31.7768"/>
</g>
<!-- Node54 -->
<g id="node55" class="node"><title>Node54</title>
<polygon fill="white" stroke="#bfbfbf" points="1256,-6 1256,-25 1384,-25 1384,-6 1256,-6"/>
<text text-anchor="middle" x="1320" y="-13" font-family="FreeSans" font-size="10.00">boost/range/functions.hpp</text>
</g>
<!-- Node49&#45;&gt;Node54 -->
<g id="edge74" class="edge"><title>Node49&#45;&gt;Node54</title>
<path fill="none" stroke="midnightblue" d="M623.378,-206.903C601.741,-191.177 561.935,-157.255 584,-134 636.46,-78.7109 1203.32,-136.666 1269,-98 1292.79,-83.9962 1307.12,-54.0744 1314.29,-34.6444"/>
<polygon fill="midnightblue" stroke="midnightblue" points="1317.64,-35.6916 1317.55,-25.0971 1311.01,-33.4294 1317.64,-35.6916"/>
</g>
<!-- Node55 -->
<g id="node56" class="node"><title>Node55</title>
<g id="a_node56"><a xlink:href="FeatureConcept_8h.html" target="_top" xlink:title="FeatureConcept.h">
<polygon fill="white" stroke="black" points="1064.5,-140 1064.5,-159 1157.5,-159 1157.5,-140 1064.5,-140"/>
<text text-anchor="middle" x="1111" y="-147" font-family="FreeSans" font-size="10.00">FeatureConcept.h</text>
</a>
</g>
</g>
<!-- Node49&#45;&gt;Node55 -->
<g id="edge85" class="edge"><title>Node49&#45;&gt;Node55</title>
<path fill="none" stroke="midnightblue" d="M687.291,-211.538C766.61,-204.914 923.606,-189.814 1055,-165 1060.17,-164.023 1065.57,-162.839 1070.89,-161.573"/>
<polygon fill="midnightblue" stroke="midnightblue" points="1072.08,-164.883 1080.94,-159.07 1070.39,-158.091 1072.08,-164.883"/>
</g>
<!-- Node57 -->
<g id="node58" class="node"><title>Node57</title>
<g id="a_node58"><a xlink:href="EigenMetafunction_8h.html" target="_top" xlink:title="../Wrappers/EigenMetafunction.h">
<polygon fill="white" stroke="black" points="1358,-140 1358,-159 1514,-159 1514,-140 1358,-140"/>
<text text-anchor="middle" x="1436" y="-147" font-family="FreeSans" font-size="10.00">../Wrappers/EigenMetafunction.h</text>
</a>
</g>
</g>
<!-- Node49&#45;&gt;Node57 -->
<g id="edge88" class="edge"><title>Node49&#45;&gt;Node57</title>
<path fill="none" stroke="midnightblue" d="M687.09,-213.5C804.259,-208.559 1101.24,-194.018 1348,-165 1358.03,-163.82 1368.67,-162.3 1378.95,-160.689"/>
<polygon fill="midnightblue" stroke="midnightblue" points="1379.76,-164.104 1389.07,-159.057 1378.64,-157.193 1379.76,-164.104"/>
</g>
<!-- Node56 -->
<g id="node57" class="node"><title>Node56</title>
<g id="a_node57"><a xlink:href="FeatureConcept_8ipp.html" target="_top" xlink:title="FeatureConcept.ipp">
<polygon fill="white" stroke="black" points="126.5,-73 126.5,-92 227.5,-92 227.5,-73 126.5,-73"/>
<text text-anchor="middle" x="177" y="-80" font-family="FreeSans" font-size="10.00">FeatureConcept.ipp</text>
</a>
</g>
</g>
<!-- Node55&#45;&gt;Node56 -->
<g id="edge86" class="edge"><title>Node55&#45;&gt;Node56</title>
<path fill="none" stroke="midnightblue" d="M1082.75,-139.959C1073.94,-137.628 1064.14,-135.37 1055,-134 697.31,-80.3765 600.547,-145.557 242,-98 234.75,-97.0384 227.115,-95.6669 219.728,-94.1466"/>
<polygon fill="midnightblue" stroke="midnightblue" points="220.382,-90.7071 209.867,-92.006 218.897,-97.5478 220.382,-90.7071"/>
</g>
<!-- Node56&#45;&gt;Node2 -->
<g id="edge87" class="edge"><title>Node56&#45;&gt;Node2</title>
<path fill="none" stroke="midnightblue" d="M182.26,-72.7338C188.224,-62.7928 198.097,-46.3377 205.626,-33.7892"/>
<polygon fill="midnightblue" stroke="midnightblue" points="208.68,-35.503 210.824,-25.1273 202.677,-31.9015 208.68,-35.503"/>
</g>
<!-- Node58 -->
<g id="node59" class="node"><title>Node58</title>
<g id="a_node59"><a xlink:href="EigenMetafunction_8ipp.html" target="_top" xlink:title="EigenMetafunction.ipp">
<polygon fill="white" stroke="black" points="690,-73 690,-92 802,-92 802,-73 690,-73"/>
<text text-anchor="middle" x="746" y="-80" font-family="FreeSans" font-size="10.00">EigenMetafunction.ipp</text>
</a>
</g>
</g>
<!-- Node57&#45;&gt;Node58 -->
<g id="edge89" class="edge"><title>Node57&#45;&gt;Node58</title>
<path fill="none" stroke="midnightblue" d="M1389.07,-139.96C1375.83,-137.769 1361.38,-135.586 1348,-134 1129.39,-108.078 1072.97,-120.657 854,-98 840.579,-96.6113 826.254,-94.871 812.57,-93.0827"/>
<polygon fill="midnightblue" stroke="midnightblue" points="812.63,-89.56 802.256,-91.7109 811.707,-96.4989 812.63,-89.56"/>
</g>
<!-- Node58&#45;&gt;Node44 -->
<g id="edge90" class="edge"><title>Node58&#45;&gt;Node44</title>
<path fill="none" stroke="midnightblue" d="M746,-72.7338C746,-63.1826 746,-47.6183 746,-35.2829"/>
<polygon fill="midnightblue" stroke="midnightblue" points="749.5,-35.1273 746,-25.1273 742.5,-35.1273 749.5,-35.1273"/>
</g>
<!-- Node60 -->
<g id="node61" class="node"><title>Node60</title>
<g id="a_node61"><a xlink:href="Coordinate_8ipp.html" target="_top" xlink:title="Coordinate.ipp">
<polygon fill="white" stroke="black" points="1182,-73 1182,-92 1260,-92 1260,-73 1182,-73"/>
<text text-anchor="middle" x="1221" y="-80" font-family="FreeSans" font-size="10.00">Coordinate.ipp</text>
</a>
</g>
</g>
<!-- Node59&#45;&gt;Node60 -->
<g id="edge93" class="edge"><title>Node59&#45;&gt;Node60</title>
<path fill="none" stroke="midnightblue" d="M1828.29,-139.93C1820.56,-137.656 1812.01,-135.437 1804,-134 1588.2,-95.2548 1529.79,-123.273 1312,-98 1298.45,-96.4276 1283.83,-94.2941 1270.36,-92.1477"/>
<polygon fill="midnightblue" stroke="midnightblue" points="1270.75,-88.6652 1260.32,-90.5129 1269.62,-95.5743 1270.75,-88.6652"/>
</g>
<!-- Node60&#45;&gt;Node2 -->
<g id="edge94" class="edge"><title>Node60&#45;&gt;Node2</title>
<path fill="none" stroke="midnightblue" d="M1181.93,-76.372C1157.31,-73.2887 1124.84,-69.4919 1096,-67 815.7,-42.7803 744.877,-47.2108 464,-31 405.713,-27.636 339.723,-23.7752 290.475,-20.8836"/>
<polygon fill="midnightblue" stroke="midnightblue" points="290.417,-17.3743 280.229,-20.2818 290.007,-24.3622 290.417,-17.3743"/>
</g>
<!-- Node60&#45;&gt;Node12 -->
<g id="edge104" class="edge"><title>Node60&#45;&gt;Node12</title>
<path fill="none" stroke="midnightblue" d="M1260.03,-81.1219C1571.85,-78.0528 3650.08,-56.6794 3779,-31 3782.08,-30.3863 3785.24,-29.5323 3788.34,-28.5428"/>
<polygon fill="midnightblue" stroke="midnightblue" points="3789.74,-31.7575 3797.94,-25.0487 3787.35,-25.1795 3789.74,-31.7575"/>
</g>
<!-- Node60&#45;&gt;Node13 -->
<g id="edge99" class="edge"><title>Node60&#45;&gt;Node13</title>
<path fill="none" stroke="midnightblue" d="M1260.41,-80.4944C1389.21,-76.9223 1796.8,-63.2874 1924,-31 1926.21,-30.4392 1928.46,-29.733 1930.68,-28.9359"/>
<polygon fill="midnightblue" stroke="midnightblue" points="1932.22,-32.0861 1940.12,-25.0282 1929.55,-25.618 1932.22,-32.0861"/>
</g>
<!-- Node60&#45;&gt;Node14 -->
<g id="edge105" class="edge"><title>Node60&#45;&gt;Node14</title>
<path fill="none" stroke="midnightblue" d="M1260.09,-80.7699C1395.96,-77.9448 1847.06,-66.0833 1987,-31 1989.21,-30.4456 1991.46,-29.7441 1993.69,-28.9501"/>
<polygon fill="midnightblue" stroke="midnightblue" points="1995.22,-32.1015 2003.13,-25.0479 1992.55,-25.632 1995.22,-32.1015"/>
</g>
<!-- Node60&#45;&gt;Node29 -->
<g id="edge98" class="edge"><title>Node60&#45;&gt;Node29</title>
<path fill="none" stroke="midnightblue" d="M1181.77,-76.5756C1104.35,-66.7178 934.394,-44.3621 877,-31 873.348,-30.1497 869.566,-29.141 865.817,-28.0577"/>
<polygon fill="midnightblue" stroke="midnightblue" points="866.668,-24.658 856.081,-25.0728 864.616,-31.3505 866.668,-24.658"/>
</g>
<!-- Node60&#45;&gt;Node30 -->
<g id="edge101" class="edge"><title>Node60&#45;&gt;Node30</title>
<path fill="none" stroke="midnightblue" d="M1260.21,-76.8978C1285.77,-73.9467 1319.85,-70.1017 1350,-67 1541.19,-47.3328 1770.75,-26.9821 1856.49,-19.4943"/>
<polygon fill="midnightblue" stroke="midnightblue" points="1856.79,-22.981 1866.45,-18.6255 1856.18,-16.0075 1856.79,-22.981"/>
</g>
<!-- Node60&#45;&gt;Node31 -->
<g id="edge102" class="edge"><title>Node60&#45;&gt;Node31</title>
<path fill="none" stroke="midnightblue" d="M1255.77,-72.9521C1290.88,-63.9365 1346.42,-48.6133 1393,-31 1394.42,-30.4615 1395.87,-29.8854 1397.33,-29.2848"/>
<polygon fill="midnightblue" stroke="midnightblue" points="1399.08,-32.3377 1406.82,-25.1015 1396.26,-25.9323 1399.08,-32.3377"/>
</g>
<!-- Node60&#45;&gt;Node37 -->
<g id="edge106" class="edge"><title>Node60&#45;&gt;Node37</title>
<path fill="none" stroke="midnightblue" d="M1181.9,-76.6458C1157.28,-73.667 1124.8,-69.884 1096,-67 880.992,-45.4715 621.942,-25.7327 530.74,-18.9715"/>
<polygon fill="midnightblue" stroke="midnightblue" points="530.941,-15.4768 520.71,-18.2301 530.425,-22.4578 530.941,-15.4768"/>
</g>
<!-- Node60&#45;&gt;Node44 -->
<g id="edge100" class="edge"><title>Node60&#45;&gt;Node44</title>
<path fill="none" stroke="midnightblue" d="M1181.84,-76.9582C1075.33,-64.602 788.204,-31.2791 787,-31 783.764,-30.2495 780.429,-29.3286 777.125,-28.3181"/>
<polygon fill="midnightblue" stroke="midnightblue" points="778.028,-24.9301 767.434,-25.0985 775.821,-31.5731 778.028,-24.9301"/>
</g>
<!-- Node60&#45;&gt;Node52 -->
<g id="edge95" class="edge"><title>Node60&#45;&gt;Node52</title>
<path fill="none" stroke="midnightblue" d="M1185.29,-72.9355C1136.55,-61.2442 1049.14,-40.2797 995.681,-27.4566"/>
<polygon fill="midnightblue" stroke="midnightblue" points="996.327,-24.0124 985.786,-25.0834 994.694,-30.8193 996.327,-24.0124"/>
</g>
<!-- Node60&#45;&gt;Node53 -->
<g id="edge96" class="edge"><title>Node60&#45;&gt;Node53</title>
<path fill="none" stroke="midnightblue" d="M1205.63,-72.7338C1186.48,-61.8182 1153.56,-43.0487 1131.06,-30.2209"/>
<polygon fill="midnightblue" stroke="midnightblue" points="1132.55,-27.04 1122.13,-25.1273 1129.08,-33.121 1132.55,-27.04"/>
</g>
<!-- Node60&#45;&gt;Node54 -->
<g id="edge97" class="edge"><title>Node60&#45;&gt;Node54</title>
<path fill="none" stroke="midnightblue" d="M1234.35,-72.7338C1250.75,-61.9644 1278.8,-43.55 1298.31,-30.7395"/>
<polygon fill="midnightblue" stroke="midnightblue" points="1300.42,-33.5415 1306.86,-25.1273 1296.58,-27.69 1300.42,-33.5415"/>
</g>
<!-- Node61 -->
<g id="node62" class="node"><title>Node61</title>
<polygon fill="white" stroke="#bfbfbf" points="1200,-6 1200,-25 1238,-25 1238,-6 1200,-6"/>
<text text-anchor="middle" x="1219" y="-13" font-family="FreeSans" font-size="10.00">array</text>
</g>
<!-- Node60&#45;&gt;Node61 -->
<g id="edge103" class="edge"><title>Node60&#45;&gt;Node61</title>
<path fill="none" stroke="midnightblue" d="M1220.73,-72.7338C1220.44,-63.1826 1219.96,-47.6183 1219.58,-35.2829"/>
<polygon fill="midnightblue" stroke="midnightblue" points="1223.07,-35.0149 1219.27,-25.1273 1216.07,-35.2302 1223.07,-35.0149"/>
</g>
<!-- Node63 -->
<g id="node64" class="node"><title>Node63</title>
<g id="a_node64"><a xlink:href="Feature_8ipp.html" target="_top" xlink:title="Feature.ipp">
<polygon fill="white" stroke="black" points="1738.5,-207 1738.5,-226 1803.5,-226 1803.5,-207 1738.5,-207"/>
<text text-anchor="middle" x="1771" y="-214" font-family="FreeSans" font-size="10.00">Feature.ipp</text>
</a>
</g>
</g>
<!-- Node62&#45;&gt;Node63 -->
<g id="edge108" class="edge"><title>Node62&#45;&gt;Node63</title>
<path fill="none" stroke="midnightblue" d="M1793.49,-273.734C1789.6,-263.988 1783.19,-247.981 1778.21,-235.532"/>
<polygon fill="midnightblue" stroke="midnightblue" points="1781.41,-234.112 1774.45,-226.127 1774.92,-236.712 1781.41,-234.112"/>
</g>
<!-- Node63&#45;&gt;Node2 -->
<g id="edge109" class="edge"><title>Node63&#45;&gt;Node2</title>
<path fill="none" stroke="midnightblue" d="M1738.21,-215.032C1632.68,-213.146 1303.02,-204.183 1205,-165 1184.44,-156.781 1186.73,-141.778 1166,-134 1004.16,-73.2782 556.762,-139.638 389,-98 331.517,-83.733 270.141,-49.7745 238.21,-30.4959"/>
<polygon fill="midnightblue" stroke="midnightblue" points="240.002,-27.4893 229.647,-25.249 236.345,-33.458 240.002,-27.4893"/>
</g>
<!-- Node63&#45;&gt;Node8 -->
<g id="edge112" class="edge"><title>Node63&#45;&gt;Node8</title>
<path fill="none" stroke="midnightblue" d="M1803.82,-214.661C1905.61,-211.709 2214.75,-200.016 2308,-165 2330.06,-156.718 2328.99,-142.397 2351,-134 2388.21,-119.807 2633.59,-99.0564 2759.59,-89.1588"/>
<polygon fill="midnightblue" stroke="midnightblue" points="2760.23,-92.6195 2769.93,-88.3502 2759.69,-85.6409 2760.23,-92.6195"/>
</g>
<!-- Node63&#45;&gt;Node13 -->
<g id="edge113" class="edge"><title>Node63&#45;&gt;Node13</title>
<path fill="none" stroke="midnightblue" d="M1803.6,-215.752C1880.33,-215.581 2068.86,-210.442 2108,-165 2136.42,-131.998 2134.04,-101.915 2108,-67 2074.46,-22.0235 2039.44,-50.9408 1987,-31 1985.58,-30.4589 1984.13,-29.8808 1982.67,-29.2786"/>
<polygon fill="midnightblue" stroke="midnightblue" points="1983.75,-25.9265 1973.18,-25.0901 1980.92,-32.3304 1983.75,-25.9265"/>
</g>
<!-- Node63&#45;&gt;Node14 -->
<g id="edge120" class="edge"><title>Node63&#45;&gt;Node14</title>
<path fill="none" stroke="midnightblue" d="M1803.58,-214.434C1904.68,-210.794 2208.06,-197.249 2237,-165 2276.38,-121.125 2197.38,-81.3501 2174,-67 2125.45,-37.2062 2104.41,-50.8036 2051,-31 2049.39,-30.4023 2047.74,-29.7604 2046.09,-29.0913"/>
<polygon fill="midnightblue" stroke="midnightblue" points="2047.32,-25.8114 2036.75,-25.08 2044.56,-32.243 2047.32,-25.8114"/>
</g>
<!-- Node63&#45;&gt;Node18 -->
<g id="edge114" class="edge"><title>Node63&#45;&gt;Node18</title>
<path fill="none" stroke="midnightblue" d="M1803.86,-214.579C1908.16,-211.32 2226.65,-198.669 2257,-165 2288.04,-130.565 2225.14,-77.5806 2212,-67 2178.13,-39.7176 2161.31,-47.324 2121,-31 2119.41,-30.3551 2117.78,-29.6908 2116.13,-29.0178"/>
<polygon fill="midnightblue" stroke="midnightblue" points="2117.29,-25.7092 2106.71,-25.1424 2114.62,-32.1831 2117.29,-25.7092"/>
</g>
<!-- Node63&#45;&gt;Node30 -->
<g id="edge115" class="edge"><title>Node63&#45;&gt;Node30</title>
<path fill="none" stroke="midnightblue" d="M1803.64,-214.301C1868.02,-211.179 2007.7,-200.391 2037,-165 2081.59,-111.146 1975.49,-53.9134 1920.93,-29.1393"/>
<polygon fill="midnightblue" stroke="midnightblue" points="1922.26,-25.9013 1911.7,-25.0357 1919.42,-32.2973 1922.26,-25.9013"/>
</g>
<!-- Node63&#45;&gt;Node33 -->
<g id="edge118" class="edge"><title>Node63&#45;&gt;Node33</title>
<path fill="none" stroke="midnightblue" d="M1738.2,-214.097C1535.31,-205.421 454.274,-159.193 275.923,-151.566"/>
<polygon fill="midnightblue" stroke="midnightblue" points="275.852,-148.06 265.711,-151.129 275.552,-155.053 275.852,-148.06"/>
</g>
<!-- Node63&#45;&gt;Node34 -->
<g id="edge117" class="edge"><title>Node63&#45;&gt;Node34</title>
<path fill="none" stroke="midnightblue" d="M1803.51,-213.209C1897.32,-206.537 2176.56,-186.242 2408,-165 2447.89,-161.339 2494.13,-156.37 2521.95,-153.302"/>
<polygon fill="midnightblue" stroke="midnightblue" points="2522.44,-156.769 2532,-152.189 2521.67,-149.812 2522.44,-156.769"/>
</g>
<!-- Node63&#45;&gt;Node35 -->
<g id="edge116" class="edge"><title>Node63&#45;&gt;Node35</title>
<path fill="none" stroke="midnightblue" d="M1738.23,-215.076C1615.81,-213.199 1185.62,-203.919 1055,-165 1053.58,-164.576 1052.14,-164.064 1050.72,-163.489"/>
<polygon fill="midnightblue" stroke="midnightblue" points="1052.25,-160.338 1041.73,-159.056 1049.15,-166.617 1052.25,-160.338"/>
</g>
<!-- Node63&#45;&gt;Node36 -->
<g id="edge122" class="edge"><title>Node63&#45;&gt;Node36</title>
<path fill="none" stroke="midnightblue" d="M1803.7,-216.192C1892.41,-217.311 2144.53,-215.448 2346,-165 2348.36,-164.408 2350.77,-163.673 2353.17,-162.85"/>
<polygon fill="midnightblue" stroke="midnightblue" points="2354.68,-166.015 2362.72,-159.114 2352.13,-159.496 2354.68,-166.015"/>
</g>
<!-- Node63&#45;&gt;Node37 -->
<g id="edge119" class="edge"><title>Node63&#45;&gt;Node37</title>
<path fill="none" stroke="midnightblue" d="M1738.16,-212.194C1695.47,-206.891 1619.46,-193.974 1561,-165 1541.47,-155.321 1543.37,-141.75 1523,-134 1347.96,-67.4102 863.357,-140.668 681,-98 620.053,-83.7395 554.295,-49.5233 520.309,-30.2668"/>
<polygon fill="midnightblue" stroke="midnightblue" points="522.011,-27.208 511.596,-25.2612 518.524,-33.2776 522.011,-27.208"/>
</g>
<!-- Node63&#45;&gt;Node52 -->
<g id="edge110" class="edge"><title>Node63&#45;&gt;Node52</title>
<path fill="none" stroke="midnightblue" d="M1763.36,-206.703C1745.7,-186.487 1702.92,-138.133 1694,-134 1559.72,-71.7771 1163.67,-159.362 1029,-98 998.796,-84.238 974.138,-53.3035 960.804,-33.7518"/>
<polygon fill="midnightblue" stroke="midnightblue" points="963.602,-31.6372 955.193,-25.1932 957.748,-35.4752 963.602,-31.6372"/>
</g>
<!-- Node63&#45;&gt;Node53 -->
<g id="edge111" class="edge"><title>Node63&#45;&gt;Node53</title>
<path fill="none" stroke="midnightblue" d="M1769.37,-206.951C1765.59,-189.69 1754.42,-150.888 1728,-134 1663.41,-92.7122 1091.77,-153.603 1039,-98 1017.46,-75.3041 1054.41,-46.8593 1081.74,-30.2775"/>
<polygon fill="midnightblue" stroke="midnightblue" points="1083.67,-33.2022 1090.54,-25.1344 1080.14,-27.1587 1083.67,-33.2022"/>
</g>
<!-- Node63&#45;&gt;Node55 -->
<g id="edge131" class="edge"><title>Node63&#45;&gt;Node55</title>
<path fill="none" stroke="midnightblue" d="M1738.33,-214.459C1647.81,-211.206 1386.34,-199.314 1172,-165 1165.72,-163.995 1159.13,-162.694 1152.7,-161.284"/>
<polygon fill="midnightblue" stroke="midnightblue" points="1153.33,-157.836 1142.8,-159.006 1151.76,-164.658 1153.33,-157.836"/>
</g>
<!-- Node63&#45;&gt;Node57 -->
<g id="edge135" class="edge"><title>Node63&#45;&gt;Node57</title>
<path fill="none" stroke="midnightblue" d="M1738.27,-209.149C1680.52,-197.945 1560.04,-174.567 1489.88,-160.954"/>
<polygon fill="midnightblue" stroke="midnightblue" points="1490.39,-157.487 1479.9,-159.018 1489.05,-164.359 1490.39,-157.487"/>
</g>
<!-- Node63&#45;&gt;Node59 -->
<g id="edge123" class="edge"><title>Node63&#45;&gt;Node59</title>
<path fill="none" stroke="midnightblue" d="M1782.19,-206.734C1795.63,-196.208 1818.4,-178.379 1834.7,-165.617"/>
<polygon fill="midnightblue" stroke="midnightblue" points="1837.27,-168.049 1842.98,-159.127 1832.95,-162.537 1837.27,-168.049"/>
</g>
<!-- Node64 -->
<g id="node65" class="node"><title>Node64</title>
<polygon fill="white" stroke="#bfbfbf" points="1642.5,-140 1642.5,-159 1685.5,-159 1685.5,-140 1642.5,-140"/>
<text text-anchor="middle" x="1664" y="-147" font-family="FreeSans" font-size="10.00">queue</text>
</g>
<!-- Node63&#45;&gt;Node64 -->
<g id="edge121" class="edge"><title>Node63&#45;&gt;Node64</title>
<path fill="none" stroke="midnightblue" d="M1756.57,-206.734C1738.68,-195.867 1707.98,-177.216 1686.87,-164.393"/>
<polygon fill="midnightblue" stroke="midnightblue" points="1688.57,-161.328 1678.2,-159.127 1684.93,-167.311 1688.57,-161.328"/>
</g>
<!-- Node65 -->
<g id="node66" class="node"><title>Node65</title>
<g id="a_node66"><a xlink:href="Descriptor_8h.html" target="_top" xlink:title="Descriptor.h">
<polygon fill="white" stroke="black" points="2160,-140 2160,-159 2228,-159 2228,-140 2160,-140"/>
<text text-anchor="middle" x="2194" y="-147" font-family="FreeSans" font-size="10.00">Descriptor.h</text>
</a>
</g>
</g>
<!-- Node63&#45;&gt;Node65 -->
<g id="edge124" class="edge"><title>Node63&#45;&gt;Node65</title>
<path fill="none" stroke="midnightblue" d="M1803.66,-212.868C1869.15,-207.204 2020.97,-192.121 2146,-165 2150.16,-164.097 2154.49,-163.009 2158.76,-161.84"/>
<polygon fill="midnightblue" stroke="midnightblue" points="2159.9,-165.154 2168.54,-159.015 2157.96,-158.429 2159.9,-165.154"/>
</g>
<!-- Node66 -->
<g id="node67" class="node"><title>Node66</title>
<g id="a_node67"><a xlink:href="RoI_8h.html" target="_top" xlink:title="RoI.h">
<polygon fill="white" stroke="black" points="1048.5,-73 1048.5,-92 1087.5,-92 1087.5,-73 1048.5,-73"/>
<text text-anchor="middle" x="1068" y="-80" font-family="FreeSans" font-size="10.00">RoI.h</text>
</a>
</g>
</g>
<!-- Node63&#45;&gt;Node66 -->
<g id="edge128" class="edge"><title>Node63&#45;&gt;Node66</title>
<path fill="none" stroke="midnightblue" d="M1773.7,-206.884C1778.32,-190.19 1785.52,-153.377 1766,-134 1713.57,-81.9407 1173.96,-114.747 1102,-98 1099.48,-97.4146 1096.92,-96.6548 1094.38,-95.79"/>
<polygon fill="midnightblue" stroke="midnightblue" points="1095.49,-92.4654 1084.9,-92.0805 1092.94,-98.9841 1095.49,-92.4654"/>
</g>
<!-- Node67 -->
<g id="node68" class="node"><title>Node67</title>
<g id="a_node68"><a xlink:href="TaggedData_8h.html" target="_top" xlink:title="../DataStructures/Tagged\lData.h">
<polygon fill="white" stroke="black" points="1214.5,-134.5 1214.5,-164.5 1339.5,-164.5 1339.5,-134.5 1214.5,-134.5"/>
<text text-anchor="start" x="1222.5" y="-152.5" font-family="FreeSans" font-size="10.00">../DataStructures/Tagged</text>
<text text-anchor="middle" x="1277" y="-141.5" font-family="FreeSans" font-size="10.00">Data.h</text>
</a>
</g>
</g>
<!-- Node63&#45;&gt;Node67 -->
<g id="edge132" class="edge"><title>Node63&#45;&gt;Node67</title>
<path fill="none" stroke="midnightblue" d="M1738.31,-212.484C1668.77,-205.875 1500.86,-188.899 1349.71,-165.031"/>
<polygon fill="midnightblue" stroke="midnightblue" points="1350.2,-161.565 1339.78,-163.448 1349.1,-168.478 1350.2,-161.565"/>
</g>
<!-- Node69 -->
<g id="node70" class="node"><title>Node69</title>
<polygon fill="white" stroke="#bfbfbf" points="1570,-140 1570,-159 1624,-159 1624,-140 1570,-140"/>
<text text-anchor="middle" x="1597" y="-147" font-family="FreeSans" font-size="10.00">iostream</text>
</g>
<!-- Node63&#45;&gt;Node69 -->
<g id="edge136" class="edge"><title>Node63&#45;&gt;Node69</title>
<path fill="none" stroke="midnightblue" d="M1746.98,-206.974C1719.38,-197.116 1672.77,-180.282 1633,-165 1631.16,-164.293 1629.27,-163.558 1627.37,-162.812"/>
<polygon fill="midnightblue" stroke="midnightblue" points="1628.48,-159.488 1617.9,-159.048 1625.9,-165.993 1628.48,-159.488"/>
</g>
<!-- Node65&#45;&gt;Node8 -->
<g id="edge125" class="edge"><title>Node65&#45;&gt;Node8</title>
<path fill="none" stroke="midnightblue" d="M2228.19,-144.326C2253.08,-141.331 2287.61,-137.263 2318,-134 2475.04,-117.135 2659.23,-99.6633 2759.57,-90.3405"/>
<polygon fill="midnightblue" stroke="midnightblue" points="2759.97,-93.8183 2769.6,-89.4092 2759.32,-86.8482 2759.97,-93.8183"/>
</g>
<!-- Node65&#45;&gt;Node13 -->
<g id="edge127" class="edge"><title>Node65&#45;&gt;Node13</title>
<path fill="none" stroke="midnightblue" d="M2191.44,-139.78C2186.03,-122.902 2171.73,-85.7836 2146,-67 2087.48,-24.2783 2055.54,-54.4845 1987,-31 1985.38,-30.4439 1983.73,-29.8288 1982.07,-29.1751"/>
<polygon fill="midnightblue" stroke="midnightblue" points="1983.35,-25.9142 1972.78,-25.1503 1980.57,-32.3373 1983.35,-25.9142"/>
</g>
<!-- Node65&#45;&gt;Node29 -->
<g id="edge126" class="edge"><title>Node65&#45;&gt;Node29</title>
<path fill="none" stroke="midnightblue" d="M2159.74,-144.779C2127.96,-141.459 2079.34,-136.717 2037,-134 1815.53,-119.79 1256.25,-143.3 1039,-98 1034.45,-97.0518 919.764,-51.4725 863.099,-28.8999"/>
<polygon fill="midnightblue" stroke="midnightblue" points="864.141,-25.5477 853.556,-25.0975 861.55,-32.0505 864.141,-25.5477"/>
</g>
<!-- Node66&#45;&gt;Node13 -->
<g id="edge130" class="edge"><title>Node66&#45;&gt;Node13</title>
<path fill="none" stroke="midnightblue" d="M1087.68,-78.2472C1108.73,-74.8929 1143.13,-69.7725 1173,-67 1339.37,-51.5565 1761.58,-70.1756 1924,-31 1926.22,-30.4655 1928.47,-29.778 1930.7,-28.9936"/>
<polygon fill="midnightblue" stroke="midnightblue" points="1932.23,-32.1484 1940.14,-25.1081 1929.56,-25.6745 1932.23,-32.1484"/>
</g>
<!-- Node66&#45;&gt;Node29 -->
<g id="edge129" class="edge"><title>Node66&#45;&gt;Node29</title>
<path fill="none" stroke="midnightblue" d="M1049.52,-72.9155C1044.55,-70.8002 1039.13,-68.6662 1034,-67 965.917,-44.8711 946.023,-49.9956 877,-31 873.654,-30.0791 870.186,-29.0669 866.727,-28.0186"/>
<polygon fill="midnightblue" stroke="midnightblue" points="867.702,-24.6565 857.113,-25.0148 865.614,-31.3379 867.702,-24.6565"/>
</g>
<!-- Node68 -->
<g id="node69" class="node"><title>Node68</title>
<g id="a_node69"><a xlink:href="TaggedData_8ipp.html" target="_top" xlink:title="TaggedData.ipp">
<polygon fill="white" stroke="black" points="398,-73 398,-92 482,-92 482,-73 398,-73"/>
<text text-anchor="middle" x="440" y="-80" font-family="FreeSans" font-size="10.00">TaggedData.ipp</text>
</a>
</g>
</g>
<!-- Node67&#45;&gt;Node68 -->
<g id="edge133" class="edge"><title>Node67&#45;&gt;Node68</title>
<path fill="none" stroke="midnightblue" d="M1214.49,-136.031C1209.6,-135.269 1204.73,-134.578 1200,-134 922.498,-100.061 850.599,-121.271 572,-98 545.665,-95.8003 516.45,-92.6634 492.213,-89.8696"/>
<polygon fill="midnightblue" stroke="midnightblue" points="492.491,-86.3785 482.153,-88.697 491.681,-93.3314 492.491,-86.3785"/>
</g>
<!-- Node68&#45;&gt;Node2 -->
<g id="edge134" class="edge"><title>Node68&#45;&gt;Node2</title>
<path fill="none" stroke="midnightblue" d="M410.255,-72.8685C370.397,-61.3027 299.566,-40.7489 255.336,-27.9145"/>
<polygon fill="midnightblue" stroke="midnightblue" points="256.091,-24.4892 245.512,-25.0637 254.14,-31.2119 256.091,-24.4892"/>
</g>
<!-- Node70&#45;&gt;Node8 -->
<g id="edge146" class="edge"><title>Node70&#45;&gt;Node8</title>
<path fill="none" stroke="midnightblue" d="M2657.19,-201.374C2692.69,-177.704 2764.27,-129.989 2804.61,-103.092"/>
<polygon fill="midnightblue" stroke="midnightblue" points="2806.58,-105.984 2812.96,-97.5247 2802.7,-100.16 2806.58,-105.984"/>
</g>
<!-- Node70&#45;&gt;Node34 -->
<g id="edge147" class="edge"><title>Node70&#45;&gt;Node34</title>
<path fill="none" stroke="midnightblue" d="M2616.69,-201.396C2602.04,-190.697 2581.96,-176.033 2567.12,-165.193"/>
<polygon fill="midnightblue" stroke="midnightblue" points="2568.79,-162.078 2558.65,-159.007 2564.66,-167.731 2568.79,-162.078"/>
</g>
<!-- Node71 -->
<g id="node72" class="node"><title>Node71</title>
<g id="a_node72"><a xlink:href="BoostDynamicBitset_8ipp.html" target="_top" xlink:title="BoostDynamicBitset.ipp">
<polygon fill="white" stroke="black" points="1908,-140 1908,-159 2028,-159 2028,-140 1908,-140"/>
<text text-anchor="middle" x="1968" y="-147" font-family="FreeSans" font-size="10.00">BoostDynamicBitset.ipp</text>
</a>
</g>
</g>
<!-- Node70&#45;&gt;Node71 -->
<g id="edge138" class="edge"><title>Node70&#45;&gt;Node71</title>
<path fill="none" stroke="midnightblue" d="M2570.43,-209.119C2444.17,-196.833 2168.31,-169.991 2038.36,-157.347"/>
<polygon fill="midnightblue" stroke="midnightblue" points="2038.42,-153.836 2028.13,-156.351 2037.75,-160.803 2038.42,-153.836"/>
</g>
<!-- Node71&#45;&gt;Node2 -->
<g id="edge139" class="edge"><title>Node71&#45;&gt;Node2</title>
<path fill="none" stroke="midnightblue" d="M1932.94,-139.988C1921.84,-137.628 1909.46,-135.346 1898,-134 1360.57,-70.8793 1219.34,-152.851 681,-98 640.881,-93.9123 387.616,-47.9403 272.645,-26.9003"/>
<polygon fill="midnightblue" stroke="midnightblue" points="273.09,-23.4236 262.623,-25.0653 271.829,-30.3091 273.09,-23.4236"/>
</g>
<!-- Node71&#45;&gt;Node8 -->
<g id="edge143" class="edge"><title>Node71&#45;&gt;Node8</title>
<path fill="none" stroke="midnightblue" d="M2028.16,-143.653C2063.86,-140.797 2110.01,-137.139 2151,-134 2372.4,-117.044 2634.24,-97.9525 2759.71,-88.8645"/>
<polygon fill="midnightblue" stroke="midnightblue" points="2760.24,-92.3352 2769.96,-88.122 2759.73,-85.3534 2760.24,-92.3352"/>
</g>
<!-- Node71&#45;&gt;Node30 -->
<g id="edge144" class="edge"><title>Node71&#45;&gt;Node30</title>
<path fill="none" stroke="midnightblue" d="M1962.95,-139.839C1950.44,-118.393 1917.83,-62.4894 1901.15,-33.8952"/>
<polygon fill="midnightblue" stroke="midnightblue" points="1904.03,-31.8954 1895.97,-25.0212 1897.99,-35.4225 1904.03,-31.8954"/>
</g>
<!-- Node71&#45;&gt;Node44 -->
<g id="edge145" class="edge"><title>Node71&#45;&gt;Node44</title>
<path fill="none" stroke="midnightblue" d="M1932.58,-139.987C1921.56,-137.657 1909.33,-135.393 1898,-134 1504.2,-85.598 1397.14,-164.584 1006,-98 920.45,-83.4367 823.995,-47.8934 776.196,-28.9176"/>
<polygon fill="midnightblue" stroke="midnightblue" points="777.341,-25.6057 766.756,-25.1333 774.736,-32.1031 777.341,-25.6057"/>
</g>
<!-- Node71&#45;&gt;Node52 -->
<g id="edge140" class="edge"><title>Node71&#45;&gt;Node52</title>
<path fill="none" stroke="midnightblue" d="M1932.21,-139.959C1921.29,-137.657 1909.2,-135.416 1898,-134 1729.6,-112.719 1293.9,-157.697 1135,-98 1114.27,-90.2128 1115.41,-77.6603 1096,-67 1063.9,-49.366 1024.5,-36.175 994.723,-27.7049"/>
<polygon fill="midnightblue" stroke="midnightblue" points="995.59,-24.3133 985.018,-25.0138 993.719,-31.0588 995.59,-24.3133"/>
</g>
<!-- Node71&#45;&gt;Node53 -->
<g id="edge141" class="edge"><title>Node71&#45;&gt;Node53</title>
<path fill="none" stroke="midnightblue" d="M1932.21,-139.976C1921.29,-137.675 1909.2,-135.43 1898,-134 1817.99,-123.79 1244.91,-134.517 1173,-98 1145.9,-84.2413 1126.09,-53.7797 1115.57,-34.2436"/>
<polygon fill="midnightblue" stroke="midnightblue" points="1118.6,-32.4805 1110.93,-25.1696 1112.37,-35.6668 1118.6,-32.4805"/>
</g>
<!-- Node71&#45;&gt;Node54 -->
<g id="edge142" class="edge"><title>Node71&#45;&gt;Node54</title>
<path fill="none" stroke="midnightblue" d="M1926.92,-139.964C1917.42,-137.998 1907.36,-135.921 1898,-134 1704.28,-94.2469 1473.91,-47.6051 1372.43,-27.09"/>
<polygon fill="midnightblue" stroke="midnightblue" points="1372.93,-23.6207 1362.43,-25.0701 1371.54,-30.482 1372.93,-23.6207"/>
</g>
</g>
</svg>
