<?xml version="1.0" encoding="UTF-8" standalone="no"?>
<!DOCTYPE svg PUBLIC "-//W3C//DTD SVG 1.1//EN"
 "http://www.w3.org/Graphics/SVG/1.1/DTD/svg11.dtd">
<!-- Generated by graphviz version 2.38.0 (20140413.2041)
 -->
<!-- Title: src/Numeric/RatioRegistration.h Pages: 1 -->
<!--zoomable 263 -->
<svg id="main" version="1.1" xmlns="http://www.w3.org/2000/svg" xmlns:xlink="http://www.w3.org/1999/xlink" xml:space="preserve" onload="init(evt)">
<style type="text/css"><![CDATA[
.edge:hover path { stroke: red; }
.edge:hover polygon { stroke: red; fill: red; }
]]></style>
<script type="text/javascript"><![CDATA[
var edges = document.getElementsByTagName('g');
if (edges && edges.length) {
  for (var i=0;i<edges.length;i++) {
    if (edges[i].id.substr(0,4)=='edge') {
      edges[i].setAttribute('class','edge');
    }
  }
}
]]></script>
        <defs>
                <circle id="rim" cx="0" cy="0" r="7"/>
                <circle id="rim2" cx="0" cy="0" r="3.5"/>
                <g id="zoomPlus">
                        <use xlink:href="#rim" fill="#404040">
                                <set attributeName="fill" to="#808080" begin="zoomplus.mouseover" end="zoomplus.mouseout"/>
                        </use>
                        <path d="M-4,0h8M0,-4v8" fill="none" stroke="white" stroke-width="1.5" pointer-events="none"/>
                </g>
                <g id="zoomMin">
                        <use xlink:href="#rim" fill="#404040">
                                <set attributeName="fill" to="#808080" begin="zoomminus.mouseover" end="zoomminus.mouseout"/>
                        </use>
                        <path d="M-4,0h8" fill="none" stroke="white" stroke-width="1.5" pointer-events="none"/>
                </g>
                <g id="dirArrow">
                        <path fill="none" stroke="white" stroke-width="1.5" d="M0,-3.0v7 M-2.5,-0.5L0,-3.0L2.5,-0.5"/>
                </g>
               <g id="resetDef">
                       <use xlink:href="#rim2" fill="#404040">
                               <set attributeName="fill" to="#808080" begin="reset.mouseover" end="reset.mouseout"/>
                       </use>
               </g>
        </defs>

<script type="text/javascript">
var viewWidth = 1566;
var viewHeight = 263;
var sectionId = 'dynsection-0';
</script>
<script xlink:href="svgpan.js"/>
<svg id="graph" class="graph">
<g id="viewport">
<title>src/Numeric/RatioRegistration.h</title>
<polygon fill="white" stroke="none" points="-4,4 -4,-259 1561.5,-259 1561.5,4 -4,4"/>
<!-- Node0 -->
<g id="node1" class="node"><title>Node0</title>
<polygon fill="#bfbfbf" stroke="black" points="198,-235.5 198,-254.5 353,-254.5 353,-235.5 198,-235.5"/>
<text text-anchor="middle" x="275.5" y="-242.5" font-family="FreeSans" font-size="10.00">src/Numeric/RatioRegistration.h</text>
</g>
<!-- Node1 -->
<g id="node2" class="node"><title>Node1</title>
<g id="a_node2"><a xlink:href="RatioRegistration_8ipp.html" target="_top" xlink:title="RatioRegistration.ipp">
<polygon fill="white" stroke="black" points="222.5,-179.5 222.5,-198.5 328.5,-198.5 328.5,-179.5 222.5,-179.5"/>
<text text-anchor="middle" x="275.5" y="-186.5" font-family="FreeSans" font-size="10.00">RatioRegistration.ipp</text>
</a>
</g>
</g>
<!-- Node0&#45;&gt;Node1 -->
<g id="edge1" class="edge"><title>Node0&#45;&gt;Node1</title>
<path fill="none" stroke="midnightblue" d="M275.5,-235.083C275.5,-228.006 275.5,-217.861 275.5,-208.986"/>
<polygon fill="midnightblue" stroke="midnightblue" points="279,-208.751 275.5,-198.751 272,-208.751 279,-208.751"/>
</g>
<!-- Node2 -->
<g id="node3" class="node"><title>Node2</title>
<polygon fill="white" stroke="#bfbfbf" points="0,-123.5 0,-142.5 71,-142.5 71,-123.5 0,-123.5"/>
<text text-anchor="middle" x="35.5" y="-130.5" font-family="FreeSans" font-size="10.00">Eigen/Dense</text>
</g>
<!-- Node1&#45;&gt;Node2 -->
<g id="edge2" class="edge"><title>Node1&#45;&gt;Node2</title>
<path fill="none" stroke="midnightblue" d="M237.471,-179.444C194.954,-169.877 126.14,-154.394 80.8534,-144.205"/>
<polygon fill="midnightblue" stroke="midnightblue" points="81.528,-140.769 71.0036,-141.988 79.9914,-147.598 81.528,-140.769"/>
</g>
<!-- Node3 -->
<g id="node4" class="node"><title>Node3</title>
<polygon fill="white" stroke="#bfbfbf" points="89.5,-123.5 89.5,-142.5 153.5,-142.5 153.5,-123.5 89.5,-123.5"/>
<text text-anchor="middle" x="121.5" y="-130.5" font-family="FreeSans" font-size="10.00">Eigen/SVD</text>
</g>
<!-- Node1&#45;&gt;Node3 -->
<g id="edge3" class="edge"><title>Node1&#45;&gt;Node3</title>
<path fill="none" stroke="midnightblue" d="M251.098,-179.444C225.303,-170.399 184.423,-156.064 155.482,-145.916"/>
<polygon fill="midnightblue" stroke="midnightblue" points="156.382,-142.523 145.788,-142.516 154.066,-149.128 156.382,-142.523"/>
</g>
<!-- Node4 -->
<g id="node5" class="node"><title>Node4</title>
<polygon fill="white" stroke="#bfbfbf" points="171.5,-123.5 171.5,-142.5 209.5,-142.5 209.5,-123.5 171.5,-123.5"/>
<text text-anchor="middle" x="190.5" y="-130.5" font-family="FreeSans" font-size="10.00">tuple</text>
</g>
<!-- Node1&#45;&gt;Node4 -->
<g id="edge4" class="edge"><title>Node1&#45;&gt;Node4</title>
<path fill="none" stroke="midnightblue" d="M261.843,-179.324C248.584,-170.9 228.232,-157.971 212.654,-148.074"/>
<polygon fill="midnightblue" stroke="midnightblue" points="214.44,-145.063 204.123,-142.655 210.687,-150.971 214.44,-145.063"/>
</g>
<!-- Node5 -->
<g id="node6" class="node"><title>Node5</title>
<polygon fill="white" stroke="#bfbfbf" points="191.5,-6 191.5,-25 235.5,-25 235.5,-6 191.5,-6"/>
<text text-anchor="middle" x="213.5" y="-13" font-family="FreeSans" font-size="10.00">vector</text>
</g>
<!-- Node1&#45;&gt;Node5 -->
<g id="edge5" class="edge"><title>Node1&#45;&gt;Node5</title>
<path fill="none" stroke="midnightblue" d="M272.34,-179.26C262.679,-152.536 233.39,-71.5174 220.138,-34.8618"/>
<polygon fill="midnightblue" stroke="midnightblue" points="223.271,-33.2337 216.58,-25.0194 216.688,-35.6136 223.271,-33.2337"/>
</g>
<!-- Node6 -->
<g id="node7" class="node"><title>Node6</title>
<polygon fill="white" stroke="#bfbfbf" points="254,-6 254,-25 283,-25 283,-6 254,-6"/>
<text text-anchor="middle" x="268.5" y="-13" font-family="FreeSans" font-size="10.00">list</text>
</g>
<!-- Node1&#45;&gt;Node6 -->
<g id="edge6" class="edge"><title>Node1&#45;&gt;Node6</title>
<path fill="none" stroke="midnightblue" d="M275.143,-179.26C274.057,-152.651 270.774,-72.2148 269.269,-35.3382"/>
<polygon fill="midnightblue" stroke="midnightblue" points="272.753,-34.8683 268.848,-25.0194 265.759,-35.1538 272.753,-34.8683"/>
</g>
<!-- Node7 -->
<g id="node8" class="node"><title>Node7</title>
<polygon fill="white" stroke="#bfbfbf" points="487.5,-123.5 487.5,-142.5 565.5,-142.5 565.5,-123.5 487.5,-123.5"/>
<text text-anchor="middle" x="526.5" y="-130.5" font-family="FreeSans" font-size="10.00">unordered_set</text>
</g>
<!-- Node1&#45;&gt;Node7 -->
<g id="edge7" class="edge"><title>Node1&#45;&gt;Node7</title>
<path fill="none" stroke="midnightblue" d="M315.272,-179.444C359.187,-169.996 429.928,-154.776 477.298,-144.585"/>
<polygon fill="midnightblue" stroke="midnightblue" points="478.287,-147.953 487.328,-142.428 476.815,-141.109 478.287,-147.953"/>
</g>
<!-- Node8 -->
<g id="node9" class="node"><title>Node8</title>
<polygon fill="white" stroke="#bfbfbf" points="301,-6 301,-25 340,-25 340,-6 301,-6"/>
<text text-anchor="middle" x="320.5" y="-13" font-family="FreeSans" font-size="10.00">utility</text>
</g>
<!-- Node1&#45;&gt;Node8 -->
<g id="edge8" class="edge"><title>Node1&#45;&gt;Node8</title>
<path fill="none" stroke="midnightblue" d="M277.793,-179.26C284.805,-152.536 306.064,-71.5174 315.682,-34.8618"/>
<polygon fill="midnightblue" stroke="midnightblue" points="319.112,-35.5803 318.265,-25.0194 312.341,-33.8036 319.112,-35.5803"/>
</g>
<!-- Node9 -->
<g id="node10" class="node"><title>Node9</title>
<polygon fill="white" stroke="#bfbfbf" points="583.5,-123.5 583.5,-142.5 623.5,-142.5 623.5,-123.5 583.5,-123.5"/>
<text text-anchor="middle" x="603.5" y="-130.5" font-family="FreeSans" font-size="10.00">limits</text>
</g>
<!-- Node1&#45;&gt;Node9 -->
<g id="edge9" class="edge"><title>Node1&#45;&gt;Node9</title>
<path fill="none" stroke="midnightblue" d="M328.615,-182.469C386.638,-175.88 482.402,-163.401 573.399,-142.956"/>
<polygon fill="midnightblue" stroke="midnightblue" points="574.355,-146.328 583.325,-140.69 572.797,-139.504 574.355,-146.328"/>
</g>
<!-- Node10 -->
<g id="node11" class="node"><title>Node10</title>
<g id="a_node11"><a xlink:href="BoostGraph_8h.html" target="_top" xlink:title="../Wrappers/BoostGraph.h">
<polygon fill="white" stroke="black" points="341.5,-123.5 341.5,-142.5 469.5,-142.5 469.5,-123.5 341.5,-123.5"/>
<text text-anchor="middle" x="405.5" y="-130.5" font-family="FreeSans" font-size="10.00">../Wrappers/BoostGraph.h</text>
</a>
</g>
</g>
<!-- Node1&#45;&gt;Node10 -->
<g id="edge10" class="edge"><title>Node1&#45;&gt;Node10</title>
<path fill="none" stroke="midnightblue" d="M296.099,-179.444C317.493,-170.557 351.181,-156.563 375.524,-146.451"/>
<polygon fill="midnightblue" stroke="midnightblue" points="377.105,-149.585 384.997,-142.516 374.42,-143.12 377.105,-149.585"/>
</g>
<!-- Node11 -->
<g id="node12" class="node"><title>Node11</title>
<g id="a_node12"><a xlink:href="BoostGraph_8ipp.html" target="_top" xlink:title="BoostGraph.ipp">
<polygon fill="white" stroke="black" points="651,-67.5 651,-86.5 734,-86.5 734,-67.5 651,-67.5"/>
<text text-anchor="middle" x="692.5" y="-74.5" font-family="FreeSans" font-size="10.00">BoostGraph.ipp</text>
</a>
</g>
</g>
<!-- Node10&#45;&gt;Node11 -->
<g id="edge11" class="edge"><title>Node10&#45;&gt;Node11</title>
<path fill="none" stroke="midnightblue" d="M450.976,-123.444C502.65,-113.721 586.809,-97.8862 640.898,-87.7092"/>
<polygon fill="midnightblue" stroke="midnightblue" points="641.784,-91.1039 650.964,-85.8151 640.489,-84.2246 641.784,-91.1039"/>
</g>
<!-- Node11&#45;&gt;Node5 -->
<g id="edge19" class="edge"><title>Node11&#45;&gt;Node5</title>
<path fill="none" stroke="midnightblue" d="M650.709,-76.2712C570.642,-75.8162 390.673,-70.0689 245.5,-31 243.347,-30.4205 241.156,-29.7107 238.981,-28.9197"/>
<polygon fill="midnightblue" stroke="midnightblue" points="240.307,-25.6806 229.729,-25.0842 237.627,-32.1469 240.307,-25.6806"/>
</g>
<!-- Node11&#45;&gt;Node6 -->
<g id="edge20" class="edge"><title>Node11&#45;&gt;Node6</title>
<path fill="none" stroke="midnightblue" d="M650.964,-73.5884C562.491,-68.0854 358.166,-53.3276 292.5,-31 291.613,-30.6983 290.723,-30.36 289.837,-29.9923"/>
<polygon fill="midnightblue" stroke="midnightblue" points="291.19,-26.7517 280.702,-25.2561 287.968,-32.9662 291.19,-26.7517"/>
</g>
<!-- Node11&#45;&gt;Node8 -->
<g id="edge23" class="edge"><title>Node11&#45;&gt;Node8</title>
<path fill="none" stroke="midnightblue" d="M650.908,-74.9784C585.421,-72.392 454.881,-63.2579 349.5,-31 347.835,-30.4903 346.149,-29.892 344.471,-29.234"/>
<polygon fill="midnightblue" stroke="midnightblue" points="345.71,-25.953 335.157,-25.0132 342.82,-32.3288 345.71,-25.953"/>
</g>
<!-- Node12 -->
<g id="node13" class="node"><title>Node12</title>
<polygon fill="white" stroke="#bfbfbf" points="423.5,-6 423.5,-25 551.5,-25 551.5,-6 423.5,-6"/>
<text text-anchor="middle" x="487.5" y="-13" font-family="FreeSans" font-size="10.00">boost/functional/hash.hpp</text>
</g>
<!-- Node11&#45;&gt;Node12 -->
<g id="edge12" class="edge"><title>Node11&#45;&gt;Node12</title>
<path fill="none" stroke="midnightblue" d="M663.128,-67.4751C627.203,-57.0478 566.268,-39.3618 526.456,-27.8066"/>
<polygon fill="midnightblue" stroke="midnightblue" points="527.396,-24.4353 516.817,-25.0091 525.445,-31.1578 527.396,-24.4353"/>
</g>
<!-- Node13 -->
<g id="node14" class="node"><title>Node13</title>
<polygon fill="white" stroke="#bfbfbf" points="569.5,-0.5 569.5,-30.5 683.5,-30.5 683.5,-0.5 569.5,-0.5"/>
<text text-anchor="start" x="577.5" y="-18.5" font-family="FreeSans" font-size="10.00">boost/graph/adjacency</text>
<text text-anchor="middle" x="626.5" y="-7.5" font-family="FreeSans" font-size="10.00">_matrix.hpp</text>
</g>
<!-- Node11&#45;&gt;Node13 -->
<g id="edge13" class="edge"><title>Node11&#45;&gt;Node13</title>
<path fill="none" stroke="midnightblue" d="M683.044,-67.4751C674.356,-59.6426 661.124,-47.7145 649.645,-37.3656"/>
<polygon fill="midnightblue" stroke="midnightblue" points="651.826,-34.6193 642.055,-30.523 647.139,-39.8184 651.826,-34.6193"/>
</g>
<!-- Node14 -->
<g id="node15" class="node"><title>Node14</title>
<polygon fill="white" stroke="#bfbfbf" points="701.5,-0.5 701.5,-30.5 817.5,-30.5 817.5,-0.5 701.5,-0.5"/>
<text text-anchor="start" x="709.5" y="-18.5" font-family="FreeSans" font-size="10.00">boost/graph/connected</text>
<text text-anchor="middle" x="759.5" y="-7.5" font-family="FreeSans" font-size="10.00">_components.hpp</text>
</g>
<!-- Node11&#45;&gt;Node14 -->
<g id="edge14" class="edge"><title>Node11&#45;&gt;Node14</title>
<path fill="none" stroke="midnightblue" d="M702.099,-67.4751C710.919,-59.6426 724.351,-47.7145 736.004,-37.3656"/>
<polygon fill="midnightblue" stroke="midnightblue" points="738.556,-39.7802 743.709,-30.523 733.908,-34.5462 738.556,-39.7802"/>
</g>
<!-- Node15 -->
<g id="node16" class="node"><title>Node15</title>
<polygon fill="white" stroke="#bfbfbf" points="835.5,-0.5 835.5,-30.5 963.5,-30.5 963.5,-0.5 835.5,-0.5"/>
<text text-anchor="start" x="843.5" y="-18.5" font-family="FreeSans" font-size="10.00">boost/property_map</text>
<text text-anchor="middle" x="899.5" y="-7.5" font-family="FreeSans" font-size="10.00">/vector_property_map.hpp</text>
</g>
<!-- Node11&#45;&gt;Node15 -->
<g id="edge15" class="edge"><title>Node11&#45;&gt;Node15</title>
<path fill="none" stroke="midnightblue" d="M722.158,-67.4751C753.075,-58.5882 802.336,-44.4288 841.102,-33.2859"/>
<polygon fill="midnightblue" stroke="midnightblue" points="842.07,-36.6494 850.714,-30.523 840.136,-29.9218 842.07,-36.6494"/>
</g>
<!-- Node16 -->
<g id="node17" class="node"><title>Node16</title>
<polygon fill="white" stroke="#bfbfbf" points="981.5,-6 981.5,-25 1109.5,-25 1109.5,-6 981.5,-6"/>
<text text-anchor="middle" x="1045.5" y="-13" font-family="FreeSans" font-size="10.00">boost/concept_check.hpp</text>
</g>
<!-- Node11&#45;&gt;Node16 -->
<g id="edge16" class="edge"><title>Node11&#45;&gt;Node16</title>
<path fill="none" stroke="midnightblue" d="M734.327,-69.7683C789.13,-61.4909 888.181,-46.1446 972.5,-31 979.336,-29.7722 986.519,-28.4208 993.603,-27.0518"/>
<polygon fill="midnightblue" stroke="midnightblue" points="994.716,-30.4005 1003.86,-25.0458 993.372,-23.5307 994.716,-30.4005"/>
</g>
<!-- Node17 -->
<g id="node18" class="node"><title>Node17</title>
<polygon fill="white" stroke="#bfbfbf" points="1127.5,-6 1127.5,-25 1277.5,-25 1277.5,-6 1127.5,-6"/>
<text text-anchor="middle" x="1202.5" y="-13" font-family="FreeSans" font-size="10.00">boost/range/metafunctions.hpp</text>
</g>
<!-- Node11&#45;&gt;Node17 -->
<g id="edge17" class="edge"><title>Node11&#45;&gt;Node17</title>
<path fill="none" stroke="midnightblue" d="M734.033,-72.5257C810.358,-65.9383 977.99,-50.5272 1118.5,-31 1127.54,-29.7434 1137.1,-28.2504 1146.41,-26.708"/>
<polygon fill="midnightblue" stroke="midnightblue" points="1147.09,-30.142 1156.37,-25.0237 1145.93,-23.24 1147.09,-30.142"/>
</g>
<!-- Node18 -->
<g id="node19" class="node"><title>Node18</title>
<polygon fill="white" stroke="#bfbfbf" points="1295.5,-6 1295.5,-25 1423.5,-25 1423.5,-6 1295.5,-6"/>
<text text-anchor="middle" x="1359.5" y="-13" font-family="FreeSans" font-size="10.00">boost/range/algorithm.hpp</text>
</g>
<!-- Node11&#45;&gt;Node18 -->
<g id="edge18" class="edge"><title>Node11&#45;&gt;Node18</title>
<path fill="none" stroke="midnightblue" d="M734.09,-74.5734C831.199,-70.8668 1080.28,-59.1872 1286.5,-31 1294.51,-29.9052 1302.96,-28.4795 1311.17,-26.9501"/>
<polygon fill="midnightblue" stroke="midnightblue" points="1311.85,-30.3831 1321,-25.0483 1310.52,-23.5104 1311.85,-30.3831"/>
</g>
<!-- Node19 -->
<g id="node20" class="node"><title>Node19</title>
<polygon fill="white" stroke="#bfbfbf" points="1442,-6 1442,-25 1477,-25 1477,-6 1442,-6"/>
<text text-anchor="middle" x="1459.5" y="-13" font-family="FreeSans" font-size="10.00">map</text>
</g>
<!-- Node11&#45;&gt;Node19 -->
<g id="edge21" class="edge"><title>Node11&#45;&gt;Node19</title>
<path fill="none" stroke="midnightblue" d="M734.067,-75.8096C869.923,-74.8229 1299.71,-68.7219 1432.5,-31 1433.97,-30.582 1435.45,-30.075 1436.92,-29.5043"/>
<polygon fill="midnightblue" stroke="midnightblue" points="1438.72,-32.528 1446.25,-25.081 1435.72,-26.203 1438.72,-32.528"/>
</g>
<!-- Node20 -->
<g id="node21" class="node"><title>Node20</title>
<polygon fill="white" stroke="#bfbfbf" points="1495.5,-6 1495.5,-25 1557.5,-25 1557.5,-6 1495.5,-6"/>
<text text-anchor="middle" x="1526.5" y="-13" font-family="FreeSans" font-size="10.00">type_traits</text>
</g>
<!-- Node11&#45;&gt;Node20 -->
<g id="edge22" class="edge"><title>Node11&#45;&gt;Node20</title>
<path fill="none" stroke="midnightblue" d="M734.391,-75.2307C876.667,-72.3672 1340.59,-60.9098 1486.5,-31 1489.93,-30.2963 1493.47,-29.3556 1496.95,-28.2897"/>
<polygon fill="midnightblue" stroke="midnightblue" points="1498.14,-31.5806 1506.48,-25.0477 1495.89,-24.9532 1498.14,-31.5806"/>
</g>
<!-- Node21 -->
<g id="node22" class="node"><title>Node21</title>
<polygon fill="white" stroke="#bfbfbf" points="358,-6 358,-25 405,-25 405,-6 358,-6"/>
<text text-anchor="middle" x="381.5" y="-13" font-family="FreeSans" font-size="10.00">iterator</text>
</g>
<!-- Node11&#45;&gt;Node21 -->
<g id="edge24" class="edge"><title>Node11&#45;&gt;Node21</title>
<path fill="none" stroke="midnightblue" d="M650.79,-72.5707C595.765,-67.2984 496.321,-55.1707 414.5,-31 412.354,-30.3662 410.165,-29.6266 407.985,-28.8232"/>
<polygon fill="midnightblue" stroke="midnightblue" points="409.241,-25.5556 398.659,-25.0221 406.598,-32.0378 409.241,-25.5556"/>
</g>
</g>
</svg>
        <g id="navigator" transform="translate(0 0)" fill="#404254">
                <rect fill="#f2f5e9" fill-opacity="0.5" stroke="#606060" stroke-width=".5" x="0" y="0" width="60" height="60"/>
                <use id="zoomplus" xlink:href="#zoomPlus" x="17" y="9" onmousedown="handleZoom(evt,'in')"/>
                <use id="zoomminus" xlink:href="#zoomMin" x="42" y="9" onmousedown="handleZoom(evt,'out')"/>
                <use id="reset" xlink:href="#resetDef" x="30" y="36" onmousedown="handleReset()"/>
                <g id="arrowUp" xlink:href="#dirArrow" transform="translate(30 24)" onmousedown="handlePan(0,-1)">
                  <use xlink:href="#rim" fill="#404040">
                        <set attributeName="fill" to="#808080" begin="arrowUp.mouseover" end="arrowUp.mouseout"/>
                  </use>
                  <path fill="none" stroke="white" stroke-width="1.5" d="M0,-3.0v7 M-2.5,-0.5L0,-3.0L2.5,-0.5"/>
                </g>
                <g id="arrowRight" xlink:href="#dirArrow" transform="rotate(90) translate(36 -43)" onmousedown="handlePan(1,0)">
                  <use xlink:href="#rim" fill="#404040">
                        <set attributeName="fill" to="#808080" begin="arrowRight.mouseover" end="arrowRight.mouseout"/>
                  </use>
                  <path fill="none" stroke="white" stroke-width="1.5" d="M0,-3.0v7 M-2.5,-0.5L0,-3.0L2.5,-0.5"/>
                </g>
                <g id="arrowDown" xlink:href="#dirArrow" transform="rotate(180) translate(-30 -48)" onmousedown="handlePan(0,1)">
                  <use xlink:href="#rim" fill="#404040">
                        <set attributeName="fill" to="#808080" begin="arrowDown.mouseover" end="arrowDown.mouseout"/>
                  </use>
                  <path fill="none" stroke="white" stroke-width="1.5" d="M0,-3.0v7 M-2.5,-0.5L0,-3.0L2.5,-0.5"/>
                </g>
                <g id="arrowLeft" xlink:href="#dirArrow" transform="rotate(270) translate(-36 17)" onmousedown="handlePan(-1,0)">
                  <use xlink:href="#rim" fill="#404040">
                        <set attributeName="fill" to="#808080" begin="arrowLeft.mouseover" end="arrowLeft.mouseout"/>
                  </use>
                  <path fill="none" stroke="white" stroke-width="1.5" d="M0,-3.0v7 M-2.5,-0.5L0,-3.0L2.5,-0.5"/>
                </g>
        </g>
        <svg viewBox="0 0 15 15" width="100%" height="30px" preserveAspectRatio="xMaxYMin meet">
         <g id="arrow_out" transform="scale(0.3 0.3)">
          <a xlink:href="RatioRegistration_8h__incl_org.svg" target="_base">
           <rect id="button" ry="5" rx="5" y="6" x="6" height="38" width="38"
                fill="#f2f5e9" fill-opacity="0.5" stroke="#606060" stroke-width="1.0"/>
           <path id="arrow"
             d="M 11.500037,31.436501 C 11.940474,20.09759 22.043105,11.32322 32.158766,21.979434 L 37.068811,17.246167 C 37.068811,17.246167 37.088388,32 37.088388,32 L 22.160133,31.978069 C 22.160133,31.978069 26.997745,27.140456 26.997745,27.140456 C 18.528582,18.264221 13.291696,25.230495 11.500037,31.436501 z"
             style="fill:#404040;"/>
          </a>
         </g>
        </svg>
</svg>
