<?xml version="1.0" encoding="UTF-8" standalone="no"?>
<!DOCTYPE svg PUBLIC "-//W3C//DTD SVG 1.1//EN"
 "http://www.w3.org/Graphics/SVG/1.1/DTD/svg11.dtd">
<!-- Generated by graphviz version 2.38.0 (20140413.2041)
 -->
<!-- Title: src/Geometry/Rotation.ipp Pages: 1 -->
<svg width="4772pt" height="609pt"
 viewBox="0.00 0.00 4771.50 609.00" xmlns="http://www.w3.org/2000/svg" xmlns:xlink="http://www.w3.org/1999/xlink">
<g id="graph0" class="graph" transform="scale(1 1) rotate(0) translate(4 605)">
<title>src/Geometry/Rotation.ipp</title>
<polygon fill="white" stroke="none" points="-4,4 -4,-605 4767.5,-605 4767.5,4 -4,4"/>
<!-- Node0 -->
<g id="node1" class="node"><title>Node0</title>
<polygon fill="#bfbfbf" stroke="black" points="1997.06,-581.5 1997.06,-600.5 2126.06,-600.5 2126.06,-581.5 1997.06,-581.5"/>
<text text-anchor="middle" x="2061.56" y="-588.5" font-family="FreeSans" font-size="10.00">src/Geometry/Rotation.ipp</text>
</g>
<!-- Node1 -->
<g id="node2" class="node"><title>Node1</title>
<polygon fill="white" stroke="#bfbfbf" points="1783.56,-62 1783.56,-81 1911.56,-81 1911.56,-62 1783.56,-62"/>
<text text-anchor="middle" x="1847.56" y="-69" font-family="FreeSans" font-size="10.00">boost/concept_check.hpp</text>
</g>
<!-- Node0&#45;&gt;Node1 -->
<g id="edge1" class="edge"><title>Node0&#45;&gt;Node1</title>
<path fill="none" stroke="midnightblue" d="M2060.39,-581.269C2053.48,-532.105 2014.44,-286.186 1905.56,-123 1896.08,-108.79 1881.59,-96.17 1869.46,-87.0998"/>
<polygon fill="midnightblue" stroke="midnightblue" points="1871.32,-84.1284 1861.16,-81.1507 1867.25,-89.8192 1871.32,-84.1284"/>
</g>
<!-- Node2 -->
<g id="node3" class="node"><title>Node2</title>
<polygon fill="white" stroke="#bfbfbf" points="2509.56,-62 2509.56,-81 2659.56,-81 2659.56,-62 2509.56,-62"/>
<text text-anchor="middle" x="2584.56" y="-69" font-family="FreeSans" font-size="10.00">boost/range/metafunctions.hpp</text>
</g>
<!-- Node0&#45;&gt;Node2 -->
<g id="edge2" class="edge"><title>Node0&#45;&gt;Node2</title>
<path fill="none" stroke="midnightblue" d="M2126.37,-589.927C2373.6,-588.807 3243.56,-576.816 3243.56,-463.5 3243.56,-463.5 3243.56,-463.5 3243.56,-204.5 3243.56,-73.8639 2796.47,-108.133 2667.56,-87 2659.36,-85.6564 2650.72,-84.1954 2642.23,-82.7353"/>
<polygon fill="midnightblue" stroke="midnightblue" points="2642.82,-79.2858 2632.37,-81.0288 2641.63,-86.1832 2642.82,-79.2858"/>
</g>
<!-- Node3 -->
<g id="node4" class="node"><title>Node3</title>
<polygon fill="white" stroke="#bfbfbf" points="1931.56,-62 1931.56,-81 2059.56,-81 2059.56,-62 1931.56,-62"/>
<text text-anchor="middle" x="1995.56" y="-69" font-family="FreeSans" font-size="10.00">boost/range/functions.hpp</text>
</g>
<!-- Node0&#45;&gt;Node3 -->
<g id="edge3" class="edge"><title>Node0&#45;&gt;Node3</title>
<path fill="none" stroke="midnightblue" d="M2067.81,-581.287C2081.43,-561.429 2112.56,-510.859 2112.56,-463.5 2112.56,-463.5 2112.56,-463.5 2112.56,-400 2112.56,-301.895 2242.14,-266.369 2180.56,-190 2133.17,-131.233 2068.35,-206.967 2014.56,-154 1997.93,-137.623 1994.69,-109.704 1994.58,-91.179"/>
<polygon fill="midnightblue" stroke="midnightblue" points="1998.08,-91.1282 1994.83,-81.0458 1991.09,-90.9575 1998.08,-91.1282"/>
</g>
<!-- Node4 -->
<g id="node5" class="node"><title>Node4</title>
<polygon fill="white" stroke="#bfbfbf" points="2363.56,-62 2363.56,-81 2491.56,-81 2491.56,-62 2363.56,-62"/>
<text text-anchor="middle" x="2427.56" y="-69" font-family="FreeSans" font-size="10.00">boost/range/concepts.hpp</text>
</g>
<!-- Node0&#45;&gt;Node4 -->
<g id="edge4" class="edge"><title>Node0&#45;&gt;Node4</title>
<path fill="none" stroke="midnightblue" d="M2126.36,-589.173C2357.75,-585.372 3129.56,-565.083 3129.56,-463.5 3129.56,-463.5 3129.56,-463.5 3129.56,-271.5 3129.56,-208.855 3072.09,-214.801 3014.56,-190 3011.45,-188.66 2624.04,-111.564 2480.37,-82.9977"/>
<polygon fill="midnightblue" stroke="midnightblue" points="2480.95,-79.5439 2470.46,-81.0266 2479.59,-86.4095 2480.95,-79.5439"/>
</g>
<!-- Node5 -->
<g id="node6" class="node"><title>Node5</title>
<polygon fill="white" stroke="#bfbfbf" points="652.059,-263 652.059,-282 747.059,-282 747.059,-263 652.059,-263"/>
<text text-anchor="middle" x="699.559" y="-270" font-family="FreeSans" font-size="10.00">boost/optional.hpp</text>
</g>
<!-- Node0&#45;&gt;Node5 -->
<g id="edge5" class="edge"><title>Node0&#45;&gt;Node5</title>
<path fill="none" stroke="midnightblue" d="M1996.95,-589.507C1810.96,-587.685 1276.68,-579.51 1105.56,-545 935.752,-510.755 872.648,-521.882 739.559,-411 717.364,-392.508 715.347,-382.52 706.559,-355 699.961,-334.335 698.744,-309.315 698.837,-292.494"/>
<polygon fill="midnightblue" stroke="midnightblue" points="702.34,-292.387 699.06,-282.313 695.341,-292.234 702.34,-292.387"/>
</g>
<!-- Node6 -->
<g id="node7" class="node"><title>Node6</title>
<polygon fill="white" stroke="#bfbfbf" points="3516.06,-514.5 3516.06,-544.5 3605.06,-544.5 3605.06,-514.5 3516.06,-514.5"/>
<text text-anchor="start" x="3524.06" y="-532.5" font-family="FreeSans" font-size="10.00">boost/iterator/zip</text>
<text text-anchor="middle" x="3560.56" y="-521.5" font-family="FreeSans" font-size="10.00">_iterator.hpp</text>
</g>
<!-- Node0&#45;&gt;Node6 -->
<g id="edge6" class="edge"><title>Node0&#45;&gt;Node6</title>
<path fill="none" stroke="midnightblue" d="M2126.1,-589.781C2369.29,-588.675 3230.21,-582.164 3501.56,-545 3503.03,-544.799 3504.52,-544.576 3506.01,-544.334"/>
<polygon fill="midnightblue" stroke="midnightblue" points="3506.77,-547.753 3515.97,-542.501 3505.5,-540.869 3506.77,-547.753"/>
</g>
<!-- Node7 -->
<g id="node8" class="node"><title>Node7</title>
<polygon fill="white" stroke="#bfbfbf" points="3623.06,-520 3623.06,-539 3730.06,-539 3730.06,-520 3623.06,-520"/>
<text text-anchor="middle" x="3676.56" y="-527" font-family="FreeSans" font-size="10.00">boost/tuple/tuple.hpp</text>
</g>
<!-- Node0&#45;&gt;Node7 -->
<g id="edge7" class="edge"><title>Node0&#45;&gt;Node7</title>
<path fill="none" stroke="midnightblue" d="M2126.29,-589.856C2381.69,-589.017 3319.83,-583.338 3614.56,-545 3621.41,-544.109 3628.61,-542.789 3635.58,-541.303"/>
<polygon fill="midnightblue" stroke="midnightblue" points="3636.58,-544.664 3645.56,-539.037 3635.03,-537.838 3636.58,-544.664"/>
</g>
<!-- Node8 -->
<g id="node9" class="node"><title>Node8</title>
<polygon fill="white" stroke="#bfbfbf" points="290.059,-257.5 290.059,-287.5 391.059,-287.5 391.059,-257.5 290.059,-257.5"/>
<text text-anchor="start" x="298.059" y="-275.5" font-family="FreeSans" font-size="10.00">boost/math/special</text>
<text text-anchor="middle" x="340.559" y="-264.5" font-family="FreeSans" font-size="10.00">_functions/pow.hpp</text>
</g>
<!-- Node0&#45;&gt;Node8 -->
<g id="edge8" class="edge"><title>Node0&#45;&gt;Node8</title>
<path fill="none" stroke="midnightblue" d="M1996.76,-589.676C1697.5,-588.003 456.48,-579.051 286.559,-545 188.395,-525.329 76.5594,-563.616 76.5594,-463.5 76.5594,-463.5 76.5594,-463.5 76.5594,-400 76.5594,-310.382 201.813,-284.204 279.771,-276.59"/>
<polygon fill="midnightblue" stroke="midnightblue" points="280.324,-280.055 289.97,-275.673 279.697,-273.083 280.324,-280.055"/>
</g>
<!-- Node9 -->
<g id="node10" class="node"><title>Node9</title>
<polygon fill="white" stroke="#bfbfbf" points="1272.06,-257.5 1272.06,-287.5 1383.06,-287.5 1383.06,-257.5 1272.06,-257.5"/>
<text text-anchor="start" x="1280.06" y="-275.5" font-family="FreeSans" font-size="10.00">boost/math/constants</text>
<text text-anchor="middle" x="1327.56" y="-264.5" font-family="FreeSans" font-size="10.00">/constants.hpp</text>
</g>
<!-- Node0&#45;&gt;Node9 -->
<g id="edge9" class="edge"><title>Node0&#45;&gt;Node9</title>
<path fill="none" stroke="midnightblue" d="M1996.89,-586.319C1904.9,-580.394 1741.36,-567.11 1686.56,-545 1538.71,-485.351 1398.5,-348.33 1347.66,-295.152"/>
<polygon fill="midnightblue" stroke="midnightblue" points="1349.97,-292.499 1340.55,-287.647 1344.89,-297.313 1349.97,-292.499"/>
</g>
<!-- Node10 -->
<g id="node11" class="node"><title>Node10</title>
<polygon fill="white" stroke="#bfbfbf" points="828.059,-62 828.059,-81 899.059,-81 899.059,-62 828.059,-62"/>
<text text-anchor="middle" x="863.559" y="-69" font-family="FreeSans" font-size="10.00">Eigen/Dense</text>
</g>
<!-- Node0&#45;&gt;Node10 -->
<g id="edge10" class="edge"><title>Node0&#45;&gt;Node10</title>
<path fill="none" stroke="midnightblue" d="M1996.87,-590.227C1666.02,-591.172 175.372,-592.759 90.5594,-545 53.1201,-523.918 38.5594,-506.467 38.5594,-463.5 38.5594,-463.5 38.5594,-463.5 38.5594,-400 38.5594,-256.475 79.8471,-194.038 204.559,-123 257.572,-92.8035 677.332,-77.9256 817.884,-73.7549"/>
<polygon fill="midnightblue" stroke="midnightblue" points="818.008,-77.2528 827.901,-73.4618 817.803,-70.2558 818.008,-77.2528"/>
</g>
<!-- Node11 -->
<g id="node12" class="node"><title>Node11</title>
<polygon fill="white" stroke="#bfbfbf" points="3748.56,-520 3748.56,-539 3844.56,-539 3844.56,-520 3748.56,-520"/>
<text text-anchor="middle" x="3796.56" y="-527" font-family="FreeSans" font-size="10.00">Eigen/Eigenvalues</text>
</g>
<!-- Node0&#45;&gt;Node11 -->
<g id="edge11" class="edge"><title>Node0&#45;&gt;Node11</title>
<path fill="none" stroke="midnightblue" d="M2126.44,-590.185C2394.88,-590.654 3419.51,-589.435 3739.56,-545 3745.59,-544.163 3751.89,-542.931 3758.03,-541.532"/>
<polygon fill="midnightblue" stroke="midnightblue" points="3759.22,-544.842 3768.1,-539.061 3757.56,-538.044 3759.22,-544.842"/>
</g>
<!-- Node12 -->
<g id="node13" class="node"><title>Node12</title>
<polygon fill="white" stroke="#bfbfbf" points="896.559,-0.5 896.559,-19.5 958.559,-19.5 958.559,-0.5 896.559,-0.5"/>
<text text-anchor="middle" x="927.559" y="-7.5" font-family="FreeSans" font-size="10.00">type_traits</text>
</g>
<!-- Node0&#45;&gt;Node12 -->
<g id="edge12" class="edge"><title>Node0&#45;&gt;Node12</title>
<path fill="none" stroke="midnightblue" d="M2126.07,-590.058C2349.46,-589.89 3089.16,-586.161 3322.56,-545 3649.78,-487.293 4969.12,-292.336 4735.56,-56 4700.68,-20.7034 1379.27,-12.0273 968.975,-11.0899"/>
<polygon fill="midnightblue" stroke="midnightblue" points="968.759,-7.5895 958.751,-11.0668 968.743,-14.5895 968.759,-7.5895"/>
</g>
<!-- Node13 -->
<g id="node14" class="node"><title>Node13</title>
<polygon fill="white" stroke="#bfbfbf" points="2023.56,-196 2023.56,-215 2061.56,-215 2061.56,-196 2023.56,-196"/>
<text text-anchor="middle" x="2042.56" y="-203" font-family="FreeSans" font-size="10.00">tuple</text>
</g>
<!-- Node0&#45;&gt;Node13 -->
<g id="edge13" class="edge"><title>Node0&#45;&gt;Node13</title>
<path fill="none" stroke="midnightblue" d="M2126.14,-583.77C2197.53,-572.909 2302.56,-543.359 2302.56,-463.5 2302.56,-463.5 2302.56,-463.5 2302.56,-400 2302.56,-357.51 2276.42,-352.11 2244.56,-324 2215.24,-298.137 2115.58,-244.622 2068.11,-219.747"/>
<polygon fill="midnightblue" stroke="midnightblue" points="2069.56,-216.559 2059.08,-215.032 2066.32,-222.764 2069.56,-216.559"/>
</g>
<!-- Node14 -->
<g id="node15" class="node"><title>Node14</title>
<polygon fill="white" stroke="#bfbfbf" points="2677.06,-62 2677.06,-81 2724.06,-81 2724.06,-62 2677.06,-62"/>
<text text-anchor="middle" x="2700.56" y="-69" font-family="FreeSans" font-size="10.00">iterator</text>
</g>
<!-- Node0&#45;&gt;Node14 -->
<g id="edge14" class="edge"><title>Node0&#45;&gt;Node14</title>
<path fill="none" stroke="midnightblue" d="M2126.27,-590.55C2388.43,-591.94 3357.56,-588.615 3357.56,-463.5 3357.56,-463.5 3357.56,-463.5 3357.56,-204.5 3357.56,-122.709 3271.42,-144.7 3192.56,-123 2995.27,-68.7098 2932.02,-136.859 2733.56,-87 2731.2,-86.4082 2728.8,-85.6626 2726.43,-84.8233"/>
<polygon fill="midnightblue" stroke="midnightblue" points="2727.55,-81.5002 2716.96,-81.0008 2724.92,-87.9909 2727.55,-81.5002"/>
</g>
<!-- Node15 -->
<g id="node16" class="node"><title>Node15</title>
<polygon fill="white" stroke="#bfbfbf" points="1134.56,-62 1134.56,-81 1178.56,-81 1178.56,-62 1134.56,-62"/>
<text text-anchor="middle" x="1156.56" y="-69" font-family="FreeSans" font-size="10.00">cmath</text>
</g>
<!-- Node0&#45;&gt;Node15 -->
<g id="edge15" class="edge"><title>Node0&#45;&gt;Node15</title>
<path fill="none" stroke="midnightblue" d="M2047.92,-581.39C1980.99,-539.492 1679.58,-354.989 1409.56,-257 1341.86,-232.432 1310.72,-262.074 1251.56,-221 1204.11,-188.056 1174.99,-122.966 1162.96,-91.0409"/>
<polygon fill="midnightblue" stroke="midnightblue" points="1166.11,-89.4533 1159.42,-81.2385 1159.52,-91.8328 1166.11,-89.4533"/>
</g>
<!-- Node16 -->
<g id="node17" class="node"><title>Node16</title>
<polygon fill="white" stroke="#bfbfbf" points="2817.06,-62 2817.06,-81 2862.06,-81 2862.06,-62 2817.06,-62"/>
<text text-anchor="middle" x="2839.56" y="-69" font-family="FreeSans" font-size="10.00">climits</text>
</g>
<!-- Node0&#45;&gt;Node16 -->
<g id="edge16" class="edge"><title>Node0&#45;&gt;Node16</title>
<path fill="none" stroke="midnightblue" d="M2126.4,-589.202C2357.89,-586.121 3135.65,-573.721 3243.56,-545 3317.63,-525.284 3395.56,-540.154 3395.56,-463.5 3395.56,-463.5 3395.56,-463.5 3395.56,-204.5 3395.56,-140.762 3337.51,-144.636 3277.56,-123 3106.75,-61.3575 3045.92,-134.187 2870.56,-87 2868.62,-86.4789 2866.66,-85.8432 2864.71,-85.1322"/>
<polygon fill="midnightblue" stroke="midnightblue" points="2865.82,-81.8025 2855.25,-81.1309 2863.09,-88.2497 2865.82,-81.8025"/>
</g>
<!-- Node17 -->
<g id="node18" class="node"><title>Node17</title>
<g id="a_node18"><a xlink:href="GeometricEntity_8h.html" target="_top" xlink:title="../Elements/GeometricEntity.h">
<polygon fill="white" stroke="black" points="1114.56,-520 1114.56,-539 1258.56,-539 1258.56,-520 1114.56,-520"/>
<text text-anchor="middle" x="1186.56" y="-527" font-family="FreeSans" font-size="10.00">../Elements/GeometricEntity.h</text>
</a>
</g>
</g>
<!-- Node0&#45;&gt;Node17 -->
<g id="edge17" class="edge"><title>Node0&#45;&gt;Node17</title>
<path fill="none" stroke="midnightblue" d="M1996.99,-585.645C1878.3,-577.634 1617.44,-560.006 1397.56,-545 1355.19,-542.108 1308.03,-538.87 1269.06,-536.188"/>
<polygon fill="midnightblue" stroke="midnightblue" points="1269.04,-532.678 1258.82,-535.483 1268.56,-539.662 1269.04,-532.678"/>
</g>
<!-- Node37 -->
<g id="node38" class="node"><title>Node37</title>
<g id="a_node38"><a xlink:href="EigenMetafunction_8h.html" target="_top" xlink:title="../Wrappers/EigenMetafunction.h">
<polygon fill="white" stroke="black" points="234.559,-129 234.559,-148 390.559,-148 390.559,-129 234.559,-129"/>
<text text-anchor="middle" x="312.559" y="-136" font-family="FreeSans" font-size="10.00">../Wrappers/EigenMetafunction.h</text>
</a>
</g>
</g>
<!-- Node0&#45;&gt;Node37 -->
<g id="edge156" class="edge"><title>Node0&#45;&gt;Node37</title>
<path fill="none" stroke="midnightblue" d="M1996.92,-589.613C1654.31,-587.435 64.6539,-575.686 24.5594,-545 -5.4264,-522.051 0.559392,-501.26 0.559392,-463.5 0.559392,-463.5 0.559392,-463.5 0.559392,-400 0.559392,-258.959 190.751,-179.359 274.146,-151.235"/>
<polygon fill="midnightblue" stroke="midnightblue" points="275.367,-154.518 283.766,-148.06 273.173,-147.871 275.367,-154.518"/>
</g>
<!-- Node68 -->
<g id="node69" class="node"><title>Node68</title>
<g id="a_node69"><a xlink:href="EigenExtensions_8h.html" target="_top" xlink:title="../Wrappers/EigenExtensions.h">
<polygon fill="white" stroke="black" points="448.059,-263 448.059,-282 595.059,-282 595.059,-263 448.059,-263"/>
<text text-anchor="middle" x="521.559" y="-270" font-family="FreeSans" font-size="10.00">../Wrappers/EigenExtensions.h</text>
</a>
</g>
</g>
<!-- Node0&#45;&gt;Node68 -->
<g id="edge157" class="edge"><title>Node0&#45;&gt;Node68</title>
<path fill="none" stroke="midnightblue" d="M1996.99,-588.582C1688.71,-581.396 381.559,-546.061 381.559,-463.5 381.559,-463.5 381.559,-463.5 381.559,-400 381.559,-342.531 447.308,-304.42 488.69,-286.125"/>
<polygon fill="midnightblue" stroke="midnightblue" points="490.297,-289.245 498.127,-282.107 487.555,-282.804 490.297,-289.245"/>
</g>
<!-- Node74 -->
<g id="node75" class="node"><title>Node74</title>
<g id="a_node75"><a xlink:href="LinearAlgebraJacobian_8h.html" target="_top" xlink:title="../Numeric/LinearAlgebra\lJacobian.h">
<polygon fill="white" stroke="black" points="144.559,-447.5 144.559,-477.5 268.559,-477.5 268.559,-447.5 144.559,-447.5"/>
<text text-anchor="start" x="152.559" y="-465.5" font-family="FreeSans" font-size="10.00">../Numeric/LinearAlgebra</text>
<text text-anchor="middle" x="206.559" y="-454.5" font-family="FreeSans" font-size="10.00">Jacobian.h</text>
</a>
</g>
</g>
<!-- Node0&#45;&gt;Node74 -->
<g id="edge148" class="edge"><title>Node0&#45;&gt;Node74</title>
<path fill="none" stroke="midnightblue" d="M1996.75,-589.96C1705.77,-589.551 527.377,-585.397 367.559,-545 318.352,-532.562 266.947,-503.227 235.833,-483.362"/>
<polygon fill="midnightblue" stroke="midnightblue" points="237.527,-480.289 227.233,-477.782 233.717,-486.161 237.527,-480.289"/>
</g>
<!-- Node18 -->
<g id="node19" class="node"><title>Node18</title>
<g id="a_node19"><a xlink:href="GeometricEntity_8ipp.html" target="_top" xlink:title="GeometricEntity.ipp">
<polygon fill="white" stroke="black" points="1001.06,-453 1001.06,-472 1102.06,-472 1102.06,-453 1001.06,-453"/>
<text text-anchor="middle" x="1051.56" y="-460" font-family="FreeSans" font-size="10.00">GeometricEntity.ipp</text>
</a>
</g>
</g>
<!-- Node17&#45;&gt;Node18 -->
<g id="edge18" class="edge"><title>Node17&#45;&gt;Node18</title>
<path fill="none" stroke="midnightblue" d="M1168.63,-519.869C1145.64,-508.796 1105.53,-489.486 1078.76,-476.598"/>
<polygon fill="midnightblue" stroke="midnightblue" points="1080.09,-473.352 1069.56,-472.167 1077.05,-479.659 1080.09,-473.352"/>
</g>
<!-- Node18&#45;&gt;Node1 -->
<g id="edge20" class="edge"><title>Node18&#45;&gt;Node1</title>
<path fill="none" stroke="midnightblue" d="M1102.28,-456.771C1169.59,-447.955 1288.41,-423.202 1361.56,-355 1397.03,-321.927 1436.17,-297.547 1409.56,-257 1387.5,-223.383 1348.62,-254.617 1326.56,-221 1319,-209.481 1317.96,-200.761 1326.56,-190 1381.67,-121.077 1642.86,-89.688 1773.21,-78.1211"/>
<polygon fill="midnightblue" stroke="midnightblue" points="1773.84,-81.579 1783.5,-77.2246 1773.24,-74.6054 1773.84,-81.579"/>
</g>
<!-- Node18&#45;&gt;Node5 -->
<g id="edge19" class="edge"><title>Node18&#45;&gt;Node5</title>
<path fill="none" stroke="midnightblue" d="M1000.88,-458.336C927.94,-452.855 798.102,-439.349 761.559,-411 723.216,-381.254 707.896,-322.517 702.359,-292.352"/>
<polygon fill="midnightblue" stroke="midnightblue" points="705.782,-291.6 700.689,-282.31 698.877,-292.749 705.782,-291.6"/>
</g>
<!-- Node18&#45;&gt;Node10 -->
<g id="edge21" class="edge"><title>Node18&#45;&gt;Node10</title>
<path fill="none" stroke="midnightblue" d="M1000.8,-459.839C895.286,-455.776 655.926,-443.207 581.559,-411 504.632,-377.684 473.523,-364.192 438.559,-288 410.422,-226.684 461.059,-153.94 503.559,-123 552.785,-87.1644 732.319,-76.6601 817.765,-73.6596"/>
<polygon fill="midnightblue" stroke="midnightblue" points="818.071,-77.1515 827.95,-73.3221 817.839,-70.1554 818.071,-77.1515"/>
</g>
<!-- Node18&#45;&gt;Node12 -->
<g id="edge28" class="edge"><title>Node18&#45;&gt;Node12</title>
<path fill="none" stroke="midnightblue" d="M1000.86,-460.816C851.811,-458.389 417.008,-448.224 280.559,-411 166.259,-379.818 109.559,-324.977 109.559,-206.5 109.559,-206.5 109.559,-206.5 109.559,-137.5 109.559,-62.0187 186.098,-77.1383 258.559,-56 377.308,-21.3587 759.963,-13.2205 886.505,-11.4554"/>
<polygon fill="midnightblue" stroke="midnightblue" points="886.606,-14.9545 896.559,-11.3212 886.513,-7.95512 886.606,-14.9545"/>
</g>
<!-- Node18&#45;&gt;Node13 -->
<g id="edge24" class="edge"><title>Node18&#45;&gt;Node13</title>
<path fill="none" stroke="midnightblue" d="M1102.38,-459.164C1186.32,-454.558 1358.84,-441.923 1501.56,-411 1623.54,-384.571 1646.88,-351.786 1768.56,-324 1826.93,-310.671 1994.26,-331.345 2035.56,-288 2051.37,-271.404 2050.03,-243.335 2046.87,-224.859"/>
<polygon fill="midnightblue" stroke="midnightblue" points="2050.3,-224.117 2044.87,-215.016 2043.44,-225.513 2050.3,-224.117"/>
</g>
<!-- Node18&#45;&gt;Node15 -->
<g id="edge26" class="edge"><title>Node18&#45;&gt;Node15</title>
<path fill="none" stroke="midnightblue" d="M1100.74,-452.992C1178.49,-436.601 1327.53,-392.551 1391.56,-288 1398.75,-276.25 1400.45,-267.526 1391.56,-257 1329.9,-183.983 1246.65,-289.069 1179.56,-221 1145.15,-186.082 1148.86,-122.408 1153.27,-91.0117"/>
<polygon fill="midnightblue" stroke="midnightblue" points="1156.75,-91.4433 1154.86,-81.0181 1149.83,-90.3454 1156.75,-91.4433"/>
</g>
<!-- Node19 -->
<g id="node20" class="node"><title>Node19</title>
<polygon fill="white" stroke="#bfbfbf" points="762.559,-129 762.559,-148 848.559,-148 848.559,-129 762.559,-129"/>
<text text-anchor="middle" x="805.559" y="-136" font-family="FreeSans" font-size="10.00">Eigen/Geometry</text>
</g>
<!-- Node18&#45;&gt;Node19 -->
<g id="edge22" class="edge"><title>Node18&#45;&gt;Node19</title>
<path fill="none" stroke="midnightblue" d="M1000.94,-461.135C921.258,-457.593 775.559,-437.814 775.559,-340.5 775.559,-340.5 775.559,-340.5 775.559,-271.5 775.559,-230.147 789.733,-183.279 798.595,-158.014"/>
<polygon fill="midnightblue" stroke="midnightblue" points="801.998,-158.899 802.118,-148.305 795.417,-156.512 801.998,-158.899"/>
</g>
<!-- Node20 -->
<g id="node21" class="node"><title>Node20</title>
<polygon fill="white" stroke="#bfbfbf" points="1189.56,-263 1189.56,-282 1253.56,-282 1253.56,-263 1189.56,-263"/>
<text text-anchor="middle" x="1221.56" y="-270" font-family="FreeSans" font-size="10.00">Eigen/SVD</text>
</g>
<!-- Node18&#45;&gt;Node20 -->
<g id="edge23" class="edge"><title>Node18&#45;&gt;Node20</title>
<path fill="none" stroke="midnightblue" d="M1059.31,-452.934C1085.63,-423.817 1171.97,-328.339 1206.8,-289.825"/>
<polygon fill="midnightblue" stroke="midnightblue" points="1209.66,-291.882 1213.77,-282.117 1204.46,-287.187 1209.66,-291.882"/>
</g>
<!-- Node21 -->
<g id="node22" class="node"><title>Node21</title>
<polygon fill="white" stroke="#bfbfbf" points="704.559,-129 704.559,-148 744.559,-148 744.559,-129 704.559,-129"/>
<text text-anchor="middle" x="724.559" y="-136" font-family="FreeSans" font-size="10.00">limits</text>
</g>
<!-- Node18&#45;&gt;Node21 -->
<g id="edge25" class="edge"><title>Node18&#45;&gt;Node21</title>
<path fill="none" stroke="midnightblue" d="M1000.79,-457.759C924.057,-451.365 782.893,-436.492 739.559,-411 669.839,-369.985 618.296,-334.165 642.559,-257 655.47,-215.939 688.39,-176.705 708.371,-155.587"/>
<polygon fill="midnightblue" stroke="midnightblue" points="711.114,-157.786 715.568,-148.173 706.091,-152.911 711.114,-157.786"/>
</g>
<!-- Node22 -->
<g id="node23" class="node"><title>Node22</title>
<polygon fill="white" stroke="#bfbfbf" points="2301.56,-62 2301.56,-81 2345.56,-81 2345.56,-62 2301.56,-62"/>
<text text-anchor="middle" x="2323.56" y="-69" font-family="FreeSans" font-size="10.00">vector</text>
</g>
<!-- Node18&#45;&gt;Node22 -->
<g id="edge27" class="edge"><title>Node18&#45;&gt;Node22</title>
<path fill="none" stroke="midnightblue" d="M1102.23,-461.021C1246.93,-459.192 1674.31,-450.575 2026.56,-411 2343.94,-375.342 2422.28,-354.948 2734.56,-288 2852.08,-262.805 2922.85,-315.934 2996.56,-221 3005.01,-210.118 3005.87,-200.153 2996.56,-190 2965.12,-155.73 2625.25,-162.681 2579.56,-154 2528.31,-144.262 2403.32,-105.547 2354.56,-87 2353.14,-86.4587 2351.69,-85.8805 2350.23,-85.2782"/>
<polygon fill="midnightblue" stroke="midnightblue" points="2351.31,-81.9261 2340.74,-81.0894 2348.48,-88.3299 2351.31,-81.9261"/>
</g>
<!-- Node23 -->
<g id="node24" class="node"><title>Node23</title>
<g id="a_node24"><a xlink:href="Coordinate_8h.html" target="_top" xlink:title="Coordinate.h">
<polygon fill="white" stroke="black" points="2229.06,-196 2229.06,-215 2300.06,-215 2300.06,-196 2229.06,-196"/>
<text text-anchor="middle" x="2264.56" y="-203" font-family="FreeSans" font-size="10.00">Coordinate.h</text>
</a>
</g>
</g>
<!-- Node18&#45;&gt;Node23 -->
<g id="edge29" class="edge"><title>Node18&#45;&gt;Node23</title>
<path fill="none" stroke="midnightblue" d="M1102.22,-461.318C1240.75,-460.257 1637.26,-453.436 1963.56,-411 2007.21,-405.323 2017.4,-399.671 2060.56,-391 2142.26,-374.586 2187.41,-415.644 2244.56,-355 2277.93,-319.591 2273.21,-256.657 2268.25,-225.317"/>
<polygon fill="midnightblue" stroke="midnightblue" points="2271.67,-224.548 2266.48,-215.31 2264.78,-225.767 2271.67,-224.548"/>
</g>
<!-- Node28 -->
<g id="node29" class="node"><title>Node28</title>
<g id="a_node29"><a xlink:href="Correspondence_8h.html" target="_top" xlink:title="Correspondence.h">
<polygon fill="white" stroke="black" points="1860.06,-391.5 1860.06,-410.5 1955.06,-410.5 1955.06,-391.5 1860.06,-391.5"/>
<text text-anchor="middle" x="1907.56" y="-398.5" font-family="FreeSans" font-size="10.00">Correspondence.h</text>
</a>
</g>
</g>
<!-- Node18&#45;&gt;Node28 -->
<g id="edge44" class="edge"><title>Node18&#45;&gt;Node28</title>
<path fill="none" stroke="midnightblue" d="M1102.23,-457.978C1251.94,-447.572 1691.69,-417.005 1849.97,-406.003"/>
<polygon fill="midnightblue" stroke="midnightblue" points="1850.25,-409.492 1859.98,-405.307 1849.76,-402.509 1850.25,-409.492"/>
</g>
<!-- Node18&#45;&gt;Node37 -->
<g id="edge120" class="edge"><title>Node18&#45;&gt;Node37</title>
<path fill="none" stroke="midnightblue" d="M1000.95,-459.352C823.419,-451.277 236.901,-419.835 186.559,-355 132.386,-285.231 244.339,-189.96 292.233,-154.017"/>
<polygon fill="midnightblue" stroke="midnightblue" points="294.402,-156.766 300.376,-148.015 290.249,-151.131 294.402,-156.766"/>
</g>
<!-- Node18&#45;&gt;Node68 -->
<g id="edge121" class="edge"><title>Node18&#45;&gt;Node68</title>
<path fill="none" stroke="midnightblue" d="M1000.69,-461.079C898.757,-459.377 673.784,-451.053 609.559,-411 564.581,-382.95 538.353,-322.494 527.486,-291.955"/>
<polygon fill="midnightblue" stroke="midnightblue" points="530.695,-290.52 524.17,-282.172 524.065,-292.767 530.695,-290.52"/>
</g>
<!-- Node71 -->
<g id="node72" class="node"><title>Node71</title>
<g id="a_node72"><a xlink:href="LinearAlgebra_8h.html" target="_top" xlink:title="../Numeric/LinearAlgebra.h">
<polygon fill="white" stroke="black" points="919.059,-391.5 919.059,-410.5 1050.06,-410.5 1050.06,-391.5 919.059,-391.5"/>
<text text-anchor="middle" x="984.559" y="-398.5" font-family="FreeSans" font-size="10.00">../Numeric/LinearAlgebra.h</text>
</a>
</g>
</g>
<!-- Node18&#45;&gt;Node71 -->
<g id="edge131" class="edge"><title>Node18&#45;&gt;Node71</title>
<path fill="none" stroke="midnightblue" d="M1041.96,-452.975C1031.51,-443.697 1014.59,-428.671 1001.82,-417.331"/>
<polygon fill="midnightblue" stroke="midnightblue" points="1003.94,-414.532 994.141,-410.509 999.294,-419.766 1003.94,-414.532"/>
</g>
<!-- Node24 -->
<g id="node25" class="node"><title>Node24</title>
<g id="a_node25"><a xlink:href="Coordinate_8ipp.html" target="_top" xlink:title="Coordinate.ipp">
<polygon fill="white" stroke="black" points="2221.56,-129 2221.56,-148 2299.56,-148 2299.56,-129 2221.56,-129"/>
<text text-anchor="middle" x="2260.56" y="-136" font-family="FreeSans" font-size="10.00">Coordinate.ipp</text>
</a>
</g>
</g>
<!-- Node23&#45;&gt;Node24 -->
<g id="edge30" class="edge"><title>Node23&#45;&gt;Node24</title>
<path fill="none" stroke="midnightblue" d="M2264.02,-195.734C2263.43,-186.183 2262.47,-170.618 2261.72,-158.283"/>
<polygon fill="midnightblue" stroke="midnightblue" points="2265.2,-157.893 2261.09,-148.127 2258.21,-158.323 2265.2,-157.893"/>
</g>
<!-- Node24&#45;&gt;Node1 -->
<g id="edge31" class="edge"><title>Node24&#45;&gt;Node1</title>
<path fill="none" stroke="midnightblue" d="M2235.11,-128.935C2227.89,-126.744 2219.97,-124.567 2212.56,-123 2085.49,-96.1242 2050.84,-107.338 1922.56,-87 1914.92,-85.788 1906.86,-84.3751 1898.98,-82.9158"/>
<polygon fill="midnightblue" stroke="midnightblue" points="1899.6,-79.4723 1889.13,-81.0542 1898.3,-86.3505 1899.6,-79.4723"/>
</g>
<!-- Node24&#45;&gt;Node2 -->
<g id="edge33" class="edge"><title>Node24&#45;&gt;Node2</title>
<path fill="none" stroke="midnightblue" d="M2299.64,-129.659C2357.71,-118.009 2466.91,-96.1021 2531.95,-83.0537"/>
<polygon fill="midnightblue" stroke="midnightblue" points="2532.88,-86.4371 2542,-81.0385 2531.51,-79.5739 2532.88,-86.4371"/>
</g>
<!-- Node24&#45;&gt;Node3 -->
<g id="edge34" class="edge"><title>Node24&#45;&gt;Node3</title>
<path fill="none" stroke="midnightblue" d="M2233.49,-128.987C2226.68,-126.939 2219.37,-124.82 2212.56,-123 2155.7,-107.813 2089.78,-92.8402 2045.65,-83.1914"/>
<polygon fill="midnightblue" stroke="midnightblue" points="2046.26,-79.7433 2035.75,-81.036 2044.77,-86.5831 2046.26,-79.7433"/>
</g>
<!-- Node24&#45;&gt;Node4 -->
<g id="edge32" class="edge"><title>Node24&#45;&gt;Node4</title>
<path fill="none" stroke="midnightblue" d="M2282.74,-128.869C2311.76,-117.571 2362.82,-97.6961 2395.91,-84.8183"/>
<polygon fill="midnightblue" stroke="midnightblue" points="2397.51,-87.9525 2405.56,-81.0637 2394.97,-81.4292 2397.51,-87.9525"/>
</g>
<!-- Node24&#45;&gt;Node10 -->
<g id="edge35" class="edge"><title>Node24&#45;&gt;Node10</title>
<path fill="none" stroke="midnightblue" d="M2236.43,-128.86C2228.89,-126.526 2220.46,-124.29 2212.56,-123 1951.01,-80.3136 1285.07,-103.194 1020.56,-87 983.125,-84.7083 940.79,-80.7162 909.522,-77.5003"/>
<polygon fill="midnightblue" stroke="midnightblue" points="909.674,-73.9973 899.365,-76.4431 908.949,-80.9597 909.674,-73.9973"/>
</g>
<!-- Node24&#45;&gt;Node12 -->
<g id="edge37" class="edge"><title>Node24&#45;&gt;Node12</title>
<path fill="none" stroke="midnightblue" d="M2245.76,-128.994C2214.34,-111.452 2138.17,-71.5975 2068.56,-56 1852.81,-7.65827 1146.8,-9.39475 968.662,-10.6422"/>
<polygon fill="midnightblue" stroke="midnightblue" points="968.627,-7.14226 958.653,-10.7158 968.679,-14.1421 968.627,-7.14226"/>
</g>
<!-- Node24&#45;&gt;Node14 -->
<g id="edge43" class="edge"><title>Node24&#45;&gt;Node14</title>
<path fill="none" stroke="midnightblue" d="M2299.58,-136.569C2373.1,-133.966 2536.64,-124.12 2668.56,-87 2670.71,-86.3959 2672.89,-85.6687 2675.06,-84.8657"/>
<polygon fill="midnightblue" stroke="midnightblue" points="2676.43,-88.0887 2684.31,-81.0081 2673.73,-81.6284 2676.43,-88.0887"/>
</g>
<!-- Node24&#45;&gt;Node15 -->
<g id="edge39" class="edge"><title>Node24&#45;&gt;Node15</title>
<path fill="none" stroke="midnightblue" d="M2236.42,-128.946C2228.87,-126.615 2220.45,-124.36 2212.56,-123 2008.54,-87.8577 1344.09,-75.4364 1189.09,-72.9809"/>
<polygon fill="midnightblue" stroke="midnightblue" points="1188.88,-69.4773 1178.83,-72.8212 1188.77,-76.4764 1188.88,-69.4773"/>
</g>
<!-- Node24&#45;&gt;Node16 -->
<g id="edge42" class="edge"><title>Node24&#45;&gt;Node16</title>
<path fill="none" stroke="midnightblue" d="M2299.79,-138.301C2390.72,-139.208 2622.25,-136.05 2807.56,-87 2809.72,-86.4294 2811.91,-85.726 2814.08,-84.9394"/>
<polygon fill="midnightblue" stroke="midnightblue" points="2815.43,-88.1681 2823.34,-81.1119 2812.76,-81.6995 2815.43,-88.1681"/>
</g>
<!-- Node24&#45;&gt;Node22 -->
<g id="edge36" class="edge"><title>Node24&#45;&gt;Node22</title>
<path fill="none" stroke="midnightblue" d="M2269.06,-128.734C2279.07,-118.403 2295.9,-101.037 2308.21,-88.3315"/>
<polygon fill="midnightblue" stroke="midnightblue" points="2310.75,-90.7439 2315.2,-81.1273 2305.72,-85.8721 2310.75,-90.7439"/>
</g>
<!-- Node25 -->
<g id="node26" class="node"><title>Node25</title>
<polygon fill="white" stroke="#bfbfbf" points="1030.06,-62 1030.06,-81 1079.06,-81 1079.06,-62 1030.06,-62"/>
<text text-anchor="middle" x="1054.56" y="-69" font-family="FreeSans" font-size="10.00">cstddef</text>
</g>
<!-- Node24&#45;&gt;Node25 -->
<g id="edge38" class="edge"><title>Node24&#45;&gt;Node25</title>
<path fill="none" stroke="midnightblue" d="M2236.43,-128.875C2228.88,-126.54 2220.46,-124.302 2212.56,-123 1735.61,-44.4452 1605.61,-143.561 1125.56,-87 1113.7,-85.6024 1100.87,-83.2472 1089.42,-80.8369"/>
<polygon fill="midnightblue" stroke="midnightblue" points="1089.88,-77.3549 1079.37,-78.6338 1088.38,-84.1928 1089.88,-77.3549"/>
</g>
<!-- Node26 -->
<g id="node27" class="node"><title>Node26</title>
<polygon fill="white" stroke="#bfbfbf" points="2241.56,-62 2241.56,-81 2279.56,-81 2279.56,-62 2241.56,-62"/>
<text text-anchor="middle" x="2260.56" y="-69" font-family="FreeSans" font-size="10.00">array</text>
</g>
<!-- Node24&#45;&gt;Node26 -->
<g id="edge40" class="edge"><title>Node24&#45;&gt;Node26</title>
<path fill="none" stroke="midnightblue" d="M2260.56,-128.734C2260.56,-119.183 2260.56,-103.618 2260.56,-91.2829"/>
<polygon fill="midnightblue" stroke="midnightblue" points="2264.06,-91.1273 2260.56,-81.1273 2257.06,-91.1273 2264.06,-91.1273"/>
</g>
<!-- Node27 -->
<g id="node28" class="node"><title>Node27</title>
<polygon fill="white" stroke="#bfbfbf" points="2742.56,-62 2742.56,-81 2798.56,-81 2798.56,-62 2742.56,-62"/>
<text text-anchor="middle" x="2770.56" y="-69" font-family="FreeSans" font-size="10.00">algorithm</text>
</g>
<!-- Node24&#45;&gt;Node27 -->
<g id="edge41" class="edge"><title>Node24&#45;&gt;Node27</title>
<path fill="none" stroke="midnightblue" d="M2299.68,-136.709C2381.27,-134.322 2575.09,-124.794 2732.56,-87 2735.55,-86.2816 2738.63,-85.3874 2741.67,-84.3981"/>
<polygon fill="midnightblue" stroke="midnightblue" points="2742.9,-87.6747 2751.14,-81.0128 2740.55,-81.0831 2742.9,-87.6747"/>
</g>
<!-- Node28&#45;&gt;Node23 -->
<g id="edge69" class="edge"><title>Node28&#45;&gt;Node23</title>
<path fill="none" stroke="midnightblue" d="M1923.36,-391.436C1979.68,-360.909 2170.91,-257.26 2239.67,-219.989"/>
<polygon fill="midnightblue" stroke="midnightblue" points="2241.41,-223.027 2248.54,-215.185 2238.08,-216.873 2241.41,-223.027"/>
</g>
<!-- Node29 -->
<g id="node30" class="node"><title>Node29</title>
<g id="a_node30"><a xlink:href="Correspondence_8ipp.html" target="_top" xlink:title="Correspondence.ipp">
<polygon fill="white" stroke="black" points="1680.56,-263 1680.56,-282 1782.56,-282 1782.56,-263 1680.56,-263"/>
<text text-anchor="middle" x="1731.56" y="-270" font-family="FreeSans" font-size="10.00">Correspondence.ipp</text>
</a>
</g>
</g>
<!-- Node28&#45;&gt;Node29 -->
<g id="edge45" class="edge"><title>Node28&#45;&gt;Node29</title>
<path fill="none" stroke="midnightblue" d="M1907.81,-391.206C1907.76,-375.575 1905.37,-342.834 1887.56,-324 1863.11,-298.152 1825.36,-285.506 1793.11,-279.332"/>
<polygon fill="midnightblue" stroke="midnightblue" points="1793.31,-275.814 1782.86,-277.546 1792.11,-282.71 1793.31,-275.814"/>
</g>
<!-- Node39 -->
<g id="node40" class="node"><title>Node39</title>
<polygon fill="white" stroke="#bfbfbf" points="1778.06,-324.5 1778.06,-354.5 1879.06,-354.5 1879.06,-324.5 1778.06,-324.5"/>
<text text-anchor="start" x="1786.06" y="-342.5" font-family="FreeSans" font-size="10.00">boost/range/iterator</text>
<text text-anchor="middle" x="1828.56" y="-331.5" font-family="FreeSans" font-size="10.00">_range.hpp</text>
</g>
<!-- Node28&#45;&gt;Node39 -->
<g id="edge68" class="edge"><title>Node28&#45;&gt;Node39</title>
<path fill="none" stroke="midnightblue" d="M1896.24,-391.475C1885.64,-383.492 1869.39,-371.254 1855.47,-360.77"/>
<polygon fill="midnightblue" stroke="midnightblue" points="1857.27,-357.743 1847.18,-354.523 1853.06,-363.335 1857.27,-357.743"/>
</g>
<!-- Node40 -->
<g id="node41" class="node"><title>Node40</title>
<g id="a_node41"><a xlink:href="Feature_8h.html" target="_top" xlink:title="Feature.h">
<polygon fill="white" stroke="black" points="2179.06,-330 2179.06,-349 2236.06,-349 2236.06,-330 2179.06,-330"/>
<text text-anchor="middle" x="2207.56" y="-337" font-family="FreeSans" font-size="10.00">Feature.h</text>
</a>
</g>
</g>
<!-- Node28&#45;&gt;Node40 -->
<g id="edge70" class="edge"><title>Node28&#45;&gt;Node40</title>
<path fill="none" stroke="midnightblue" d="M1955.31,-392.529C2018.34,-382.516 2125.82,-364.862 2164.56,-355 2167.77,-354.184 2171.08,-353.245 2174.37,-352.246"/>
<polygon fill="midnightblue" stroke="midnightblue" points="2175.64,-355.515 2184.1,-349.13 2173.5,-348.849 2175.64,-355.515"/>
</g>
<!-- Node29&#45;&gt;Node1 -->
<g id="edge48" class="edge"><title>Node29&#45;&gt;Node1</title>
<path fill="none" stroke="midnightblue" d="M1727.23,-262.838C1715.67,-238.378 1686.99,-167.664 1717.56,-123 1731.08,-103.243 1753.55,-91.2145 1776.04,-83.8914"/>
<polygon fill="midnightblue" stroke="midnightblue" points="1777.06,-87.2379 1785.65,-81.0322 1775.07,-80.5284 1777.06,-87.2379"/>
</g>
<!-- Node29&#45;&gt;Node2 -->
<g id="edge50" class="edge"><title>Node29&#45;&gt;Node2</title>
<path fill="none" stroke="midnightblue" d="M1782.94,-269.661C1905.25,-264.858 2210.77,-250.23 2308.56,-221 2411.99,-190.085 2520.86,-117.903 2564.63,-86.9802"/>
<polygon fill="midnightblue" stroke="midnightblue" points="2566.85,-89.696 2572.96,-81.0376 2562.78,-83.9984 2566.85,-89.696"/>
</g>
<!-- Node29&#45;&gt;Node3 -->
<g id="edge51" class="edge"><title>Node29&#45;&gt;Node3</title>
<path fill="none" stroke="midnightblue" d="M1731.9,-262.759C1733.43,-236.82 1741.72,-159.803 1786.56,-123 1798.57,-113.142 1883.37,-94.7447 1941.19,-83.0862"/>
<polygon fill="midnightblue" stroke="midnightblue" points="1942.18,-86.4586 1951.29,-81.0624 1940.8,-79.595 1942.18,-86.4586"/>
</g>
<!-- Node29&#45;&gt;Node4 -->
<g id="edge49" class="edge"><title>Node29&#45;&gt;Node4</title>
<path fill="none" stroke="midnightblue" d="M1760.15,-262.973C1826.88,-243.112 1989.18,-195.064 2014.56,-190 2153.18,-162.345 2200.7,-209.84 2330.56,-154 2365.06,-139.165 2396.69,-107.867 2413.93,-88.6637"/>
<polygon fill="midnightblue" stroke="midnightblue" points="2416.66,-90.8597 2420.6,-81.0257 2411.38,-86.2547 2416.66,-90.8597"/>
</g>
<!-- Node29&#45;&gt;Node10 -->
<g id="edge52" class="edge"><title>Node29&#45;&gt;Node10</title>
<path fill="none" stroke="midnightblue" d="M1680.3,-268.928C1563.51,-262.711 1280.61,-245.553 1188.56,-221 1068.93,-189.092 938.301,-116.68 886.529,-86.3108"/>
<polygon fill="midnightblue" stroke="midnightblue" points="888.189,-83.2265 877.8,-81.1487 884.626,-89.2517 888.189,-83.2265"/>
</g>
<!-- Node29&#45;&gt;Node12 -->
<g id="edge61" class="edge"><title>Node29&#45;&gt;Node12</title>
<path fill="none" stroke="midnightblue" d="M1680.27,-267.208C1578.27,-258.367 1357.07,-237.566 1326.56,-221 1284.43,-198.125 1229.14,-79.8657 1187.56,-56 1150.96,-34.9929 1032.37,-20.9148 968.764,-14.6732"/>
<polygon fill="midnightblue" stroke="midnightblue" points="968.965,-11.1765 958.676,-13.7038 968.295,-18.1444 968.965,-11.1765"/>
</g>
<!-- Node29&#45;&gt;Node13 -->
<g id="edge58" class="edge"><title>Node29&#45;&gt;Node13</title>
<path fill="none" stroke="midnightblue" d="M1772.54,-262.936C1836.38,-249.593 1958.01,-224.171 2013.57,-212.558"/>
<polygon fill="midnightblue" stroke="midnightblue" points="2014.39,-215.964 2023.46,-210.492 2012.95,-209.112 2014.39,-215.964"/>
</g>
<!-- Node29&#45;&gt;Node14 -->
<g id="edge54" class="edge"><title>Node29&#45;&gt;Node14</title>
<path fill="none" stroke="midnightblue" d="M1782.73,-271.215C1958.93,-269.87 2533.59,-262.328 2604.56,-221 2655.09,-191.574 2683.57,-123.731 2694.84,-90.9258"/>
<polygon fill="midnightblue" stroke="midnightblue" points="2698.22,-91.8426 2698.01,-81.2499 2691.57,-89.6636 2698.22,-91.8426"/>
</g>
<!-- Node29&#45;&gt;Node15 -->
<g id="edge53" class="edge"><title>Node29&#45;&gt;Node15</title>
<path fill="none" stroke="midnightblue" d="M1680.45,-270.178C1579.76,-266.837 1359.75,-255.684 1293.56,-221 1242.23,-194.104 1247.28,-165.19 1207.56,-123 1196.37,-111.117 1183.28,-98.1735 1173.16,-88.3656"/>
<polygon fill="midnightblue" stroke="midnightblue" points="1175.41,-85.67 1165.78,-81.2523 1170.55,-90.711 1175.41,-85.67"/>
</g>
<!-- Node29&#45;&gt;Node22 -->
<g id="edge55" class="edge"><title>Node29&#45;&gt;Node22</title>
<path fill="none" stroke="midnightblue" d="M1734.63,-262.914C1741.34,-245.584 1759.1,-206.663 1788.56,-190 1889.38,-132.969 2222.16,-231.154 2308.56,-154 2325.88,-138.532 2327.32,-110.169 2326.02,-91.3211"/>
<polygon fill="midnightblue" stroke="midnightblue" points="2329.49,-90.8532 2325.01,-81.2543 2322.53,-91.5547 2329.49,-90.8532"/>
</g>
<!-- Node29&#45;&gt;Node25 -->
<g id="edge57" class="edge"><title>Node29&#45;&gt;Node25</title>
<path fill="none" stroke="midnightblue" d="M1680.29,-269.564C1573.05,-264.956 1328.64,-251.375 1251.56,-221 1174.01,-190.441 1100.52,-120.527 1069.73,-88.7517"/>
<polygon fill="midnightblue" stroke="midnightblue" points="1071.97,-86.0213 1062.53,-81.2023 1066.9,-90.8535 1071.97,-86.0213"/>
</g>
<!-- Node30 -->
<g id="node31" class="node"><title>Node30</title>
<polygon fill="white" stroke="#bfbfbf" points="1336.06,-196 1336.06,-215 1453.06,-215 1453.06,-196 1336.06,-196"/>
<text text-anchor="middle" x="1394.56" y="-203" font-family="FreeSans" font-size="10.00">boost/bimap/bimap.hpp</text>
</g>
<!-- Node29&#45;&gt;Node30 -->
<g id="edge46" class="edge"><title>Node29&#45;&gt;Node30</title>
<path fill="none" stroke="midnightblue" d="M1683.68,-262.967C1629.65,-253.238 1539.16,-236.651 1461.56,-221 1455.66,-219.809 1449.47,-218.523 1443.34,-217.224"/>
<polygon fill="midnightblue" stroke="midnightblue" points="1443.65,-213.712 1433.14,-215.044 1442.19,-220.557 1443.65,-213.712"/>
</g>
<!-- Node31 -->
<g id="node32" class="node"><title>Node31</title>
<polygon fill="white" stroke="#bfbfbf" points="1471.06,-196 1471.06,-215 1588.06,-215 1588.06,-196 1471.06,-196"/>
<text text-anchor="middle" x="1529.56" y="-203" font-family="FreeSans" font-size="10.00">boost/bimap/list_of.hpp</text>
</g>
<!-- Node29&#45;&gt;Node31 -->
<g id="edge47" class="edge"><title>Node29&#45;&gt;Node31</title>
<path fill="none" stroke="midnightblue" d="M1704.74,-262.869C1669.02,-251.376 1605.72,-231.008 1565.79,-218.159"/>
<polygon fill="midnightblue" stroke="midnightblue" points="1566.76,-214.795 1556.17,-215.064 1564.62,-221.459 1566.76,-214.795"/>
</g>
<!-- Node32 -->
<g id="node33" class="node"><title>Node32</title>
<polygon fill="white" stroke="#bfbfbf" points="2080.06,-196 2080.06,-215 2115.06,-215 2115.06,-196 2080.06,-196"/>
<text text-anchor="middle" x="2097.56" y="-203" font-family="FreeSans" font-size="10.00">map</text>
</g>
<!-- Node29&#45;&gt;Node32 -->
<g id="edge56" class="edge"><title>Node29&#45;&gt;Node32</title>
<path fill="none" stroke="midnightblue" d="M1782.79,-269.346C1850.3,-265.283 1972.01,-253.698 2070.56,-221 2071.81,-220.585 2073.07,-220.115 2074.33,-219.604"/>
<polygon fill="midnightblue" stroke="midnightblue" points="2076.17,-222.604 2083.68,-215.133 2073.15,-216.289 2076.17,-222.604"/>
</g>
<!-- Node33 -->
<g id="node34" class="node"><title>Node33</title>
<polygon fill="white" stroke="#bfbfbf" points="2133.06,-196 2133.06,-215 2172.06,-215 2172.06,-196 2133.06,-196"/>
<text text-anchor="middle" x="2152.56" y="-203" font-family="FreeSans" font-size="10.00">utility</text>
</g>
<!-- Node29&#45;&gt;Node33 -->
<g id="edge59" class="edge"><title>Node29&#45;&gt;Node33</title>
<path fill="none" stroke="midnightblue" d="M1782.82,-270.337C1858.8,-267.407 2005.09,-257.114 2123.56,-221 2125.23,-220.492 2126.91,-219.895 2128.59,-219.238"/>
<polygon fill="midnightblue" stroke="midnightblue" points="2130.24,-222.334 2137.9,-215.02 2127.35,-215.957 2130.24,-222.334"/>
</g>
<!-- Node34 -->
<g id="node35" class="node"><title>Node34</title>
<polygon fill="white" stroke="#bfbfbf" points="1606.06,-196 1606.06,-215 1665.06,-215 1665.06,-196 1606.06,-196"/>
<text text-anchor="middle" x="1635.56" y="-203" font-family="FreeSans" font-size="10.00">functional</text>
</g>
<!-- Node29&#45;&gt;Node34 -->
<g id="edge60" class="edge"><title>Node29&#45;&gt;Node34</title>
<path fill="none" stroke="midnightblue" d="M1718.61,-262.734C1702.71,-251.964 1675.51,-233.55 1656.59,-220.739"/>
<polygon fill="midnightblue" stroke="midnightblue" points="1658.54,-217.836 1648.3,-215.127 1654.62,-223.632 1658.54,-217.836"/>
</g>
<!-- Node35 -->
<g id="node36" class="node"><title>Node35</title>
<g id="a_node36"><a xlink:href="FeatureConcept_8h.html" target="_top" xlink:title="FeatureConcept.h">
<polygon fill="white" stroke="black" points="1798.06,-196 1798.06,-215 1891.06,-215 1891.06,-196 1798.06,-196"/>
<text text-anchor="middle" x="1844.56" y="-203" font-family="FreeSans" font-size="10.00">FeatureConcept.h</text>
</a>
</g>
</g>
<!-- Node29&#45;&gt;Node35 -->
<g id="edge62" class="edge"><title>Node29&#45;&gt;Node35</title>
<path fill="none" stroke="midnightblue" d="M1746.8,-262.734C1765.78,-251.818 1798.41,-233.049 1820.71,-220.221"/>
<polygon fill="midnightblue" stroke="midnightblue" points="1822.64,-223.147 1829.56,-215.127 1819.15,-217.08 1822.64,-223.147"/>
</g>
<!-- Node29&#45;&gt;Node37 -->
<g id="edge65" class="edge"><title>Node29&#45;&gt;Node37</title>
<path fill="none" stroke="midnightblue" d="M1680.3,-269.253C1613.74,-266.35 1493.98,-261.173 1391.56,-257 1185.57,-248.608 663.492,-275.092 464.559,-221 413.42,-207.094 360.337,-173.46 332.443,-154.023"/>
<polygon fill="midnightblue" stroke="midnightblue" points="334.17,-150.957 323.989,-148.025 330.119,-156.666 334.17,-150.957"/>
</g>
<!-- Node36 -->
<g id="node37" class="node"><title>Node36</title>
<g id="a_node37"><a xlink:href="FeatureConcept_8ipp.html" target="_top" xlink:title="FeatureConcept.ipp">
<polygon fill="white" stroke="black" points="1796.06,-129 1796.06,-148 1897.06,-148 1897.06,-129 1796.06,-129"/>
<text text-anchor="middle" x="1846.56" y="-136" font-family="FreeSans" font-size="10.00">FeatureConcept.ipp</text>
</a>
</g>
</g>
<!-- Node35&#45;&gt;Node36 -->
<g id="edge63" class="edge"><title>Node35&#45;&gt;Node36</title>
<path fill="none" stroke="midnightblue" d="M1844.83,-195.734C1845.12,-186.183 1845.6,-170.618 1845.98,-158.283"/>
<polygon fill="midnightblue" stroke="midnightblue" points="1849.48,-158.23 1846.29,-148.127 1842.49,-158.015 1849.48,-158.23"/>
</g>
<!-- Node36&#45;&gt;Node1 -->
<g id="edge64" class="edge"><title>Node36&#45;&gt;Node1</title>
<path fill="none" stroke="midnightblue" d="M1846.69,-128.734C1846.84,-119.183 1847.08,-103.618 1847.27,-91.2829"/>
<polygon fill="midnightblue" stroke="midnightblue" points="1850.77,-91.18 1847.43,-81.1273 1843.77,-91.0722 1850.77,-91.18"/>
</g>
<!-- Node38 -->
<g id="node39" class="node"><title>Node38</title>
<g id="a_node39"><a xlink:href="EigenMetafunction_8ipp.html" target="_top" xlink:title="EigenMetafunction.ipp">
<polygon fill="white" stroke="black" points="267.559,-62 267.559,-81 379.559,-81 379.559,-62 267.559,-62"/>
<text text-anchor="middle" x="323.559" y="-69" font-family="FreeSans" font-size="10.00">EigenMetafunction.ipp</text>
</a>
</g>
</g>
<!-- Node37&#45;&gt;Node38 -->
<g id="edge66" class="edge"><title>Node37&#45;&gt;Node38</title>
<path fill="none" stroke="midnightblue" d="M314.043,-128.734C315.659,-119.183 318.293,-103.618 320.381,-91.2829"/>
<polygon fill="midnightblue" stroke="midnightblue" points="323.882,-91.5711 322.099,-81.1273 316.98,-90.4031 323.882,-91.5711"/>
</g>
<!-- Node38&#45;&gt;Node12 -->
<g id="edge67" class="edge"><title>Node38&#45;&gt;Node12</title>
<path fill="none" stroke="midnightblue" d="M367.164,-61.9406C379.242,-59.7757 392.379,-57.6108 404.559,-56 583.188,-32.377 797.856,-18.4016 886.349,-13.2623"/>
<polygon fill="midnightblue" stroke="midnightblue" points="886.721,-16.7467 896.504,-12.6793 886.32,-9.75825 886.721,-16.7467"/>
</g>
<!-- Node41 -->
<g id="node42" class="node"><title>Node41</title>
<g id="a_node42"><a xlink:href="Feature_8ipp.html" target="_top" xlink:title="Feature.ipp">
<polygon fill="white" stroke="black" points="2661.06,-263 2661.06,-282 2726.06,-282 2726.06,-263 2661.06,-263"/>
<text text-anchor="middle" x="2693.56" y="-270" font-family="FreeSans" font-size="10.00">Feature.ipp</text>
</a>
</g>
</g>
<!-- Node40&#45;&gt;Node41 -->
<g id="edge71" class="edge"><title>Node40&#45;&gt;Node41</title>
<path fill="none" stroke="midnightblue" d="M2236.15,-334.677C2318.01,-323.728 2553.67,-292.209 2650.86,-279.21"/>
<polygon fill="midnightblue" stroke="midnightblue" points="2651.48,-282.66 2660.92,-277.865 2650.55,-275.721 2651.48,-282.66"/>
</g>
<!-- Node41&#45;&gt;Node1 -->
<g id="edge72" class="edge"><title>Node41&#45;&gt;Node1</title>
<path fill="none" stroke="midnightblue" d="M2660.96,-267.03C2615.41,-260.199 2530.56,-245.331 2461.56,-221 2432.5,-210.755 2429.05,-198.921 2399.56,-190 2275.67,-152.518 2229.89,-204.139 2110.56,-154 2090.15,-145.423 2091.53,-132.565 2071.56,-123 2056.17,-115.629 1961.17,-95.5279 1899.93,-83.0224"/>
<polygon fill="midnightblue" stroke="midnightblue" points="1900.53,-79.5735 1890.03,-81.0079 1899.13,-86.4327 1900.53,-79.5735"/>
</g>
<!-- Node41&#45;&gt;Node2 -->
<g id="edge74" class="edge"><title>Node41&#45;&gt;Node2</title>
<path fill="none" stroke="midnightblue" d="M2726.06,-271.736C2802.57,-271.529 2990.54,-266.318 3029.56,-221 3038.55,-210.559 3037.97,-200.915 3029.56,-190 3005.39,-158.622 2751.74,-105.369 2638.56,-82.9452"/>
<polygon fill="midnightblue" stroke="midnightblue" points="2639.2,-79.5031 2628.71,-81.0006 2637.84,-86.3706 2639.2,-79.5031"/>
</g>
<!-- Node41&#45;&gt;Node4 -->
<g id="edge73" class="edge"><title>Node41&#45;&gt;Node4</title>
<path fill="none" stroke="midnightblue" d="M2726.3,-271.138C2797.37,-269.585 2962.17,-261.59 2996.56,-221 3005.47,-210.487 3005.87,-200.153 2996.56,-190 2933.68,-121.461 2667.56,-184.12 2579.56,-154 2555.53,-145.776 2553.69,-135.458 2531.56,-123 2506.8,-109.06 2477.61,-95.0927 2456.48,-85.3925"/>
<polygon fill="midnightblue" stroke="midnightblue" points="2457.64,-82.0764 2447.09,-81.1219 2454.74,-88.4482 2457.64,-82.0764"/>
</g>
<!-- Node41&#45;&gt;Node14 -->
<g id="edge102" class="edge"><title>Node41&#45;&gt;Node14</title>
<path fill="none" stroke="midnightblue" d="M2726.34,-269.505C2813.37,-263.874 3045.19,-246.591 3067.56,-221 3096.22,-188.206 3096.66,-155.407 3067.56,-123 3017.68,-67.4565 2805.69,-106.241 2733.56,-87 2731.26,-86.3876 2728.92,-85.6379 2726.6,-84.8051"/>
<polygon fill="midnightblue" stroke="midnightblue" points="2727.91,-81.5589 2717.33,-81.0526 2725.28,-88.0479 2727.91,-81.5589"/>
</g>
<!-- Node41&#45;&gt;Node16 -->
<g id="edge103" class="edge"><title>Node41&#45;&gt;Node16</title>
<path fill="none" stroke="midnightblue" d="M2726.12,-269.798C2816.85,-264.725 3067.47,-248.338 3091.56,-221 3120.35,-188.321 3119.77,-156.182 3091.56,-123 3059.33,-85.0924 2918.1,-101.681 2870.56,-87 2868.69,-86.4215 2866.78,-85.7512 2864.88,-85.0224"/>
<polygon fill="midnightblue" stroke="midnightblue" points="2866.2,-81.7807 2855.63,-81.0448 2863.44,-88.2111 2866.2,-81.7807"/>
</g>
<!-- Node41&#45;&gt;Node22 -->
<g id="edge96" class="edge"><title>Node41&#45;&gt;Node22</title>
<path fill="none" stroke="midnightblue" d="M2687.03,-262.949C2673.59,-246.032 2641.06,-208.35 2604.56,-190 2528.94,-151.985 2493.69,-190.985 2417.56,-154 2413.11,-151.839 2366.9,-111.044 2340.97,-88.0087"/>
<polygon fill="midnightblue" stroke="midnightblue" points="2343.14,-85.2554 2333.34,-81.2254 2338.49,-90.4862 2343.14,-85.2554"/>
</g>
<!-- Node41&#45;&gt;Node23 -->
<g id="edge106" class="edge"><title>Node41&#45;&gt;Node23</title>
<path fill="none" stroke="midnightblue" d="M2660.83,-268.804C2594.83,-263.001 2441.23,-247.649 2314.56,-221 2310.16,-220.075 2305.59,-218.962 2301.07,-217.77"/>
<polygon fill="midnightblue" stroke="midnightblue" points="2301.93,-214.377 2291.36,-215.073 2300.06,-221.122 2301.93,-214.377"/>
</g>
<!-- Node41&#45;&gt;Node25 -->
<g id="edge98" class="edge"><title>Node41&#45;&gt;Node25</title>
<path fill="none" stroke="midnightblue" d="M2660.8,-269.251C2584.82,-263.641 2398.79,-247.546 2342.56,-221 2324.07,-212.27 2327.36,-198.04 2308.56,-190 2201.65,-144.285 1902.42,-163.864 1786.56,-154 1492.34,-128.95 1417.47,-131.487 1125.56,-87 1113.66,-85.186 1100.73,-82.7018 1089.21,-80.3021"/>
<polygon fill="midnightblue" stroke="midnightblue" points="1089.6,-76.8076 1079.09,-78.1436 1088.14,-83.6535 1089.6,-76.8076"/>
</g>
<!-- Node41&#45;&gt;Node32 -->
<g id="edge99" class="edge"><title>Node41&#45;&gt;Node32</title>
<path fill="none" stroke="midnightblue" d="M2660.77,-270.393C2555.21,-266.548 2225.16,-252.266 2123.56,-221 2122.14,-220.563 2120.71,-220.041 2119.29,-219.459"/>
<polygon fill="midnightblue" stroke="midnightblue" points="2120.82,-216.309 2110.3,-215.006 2117.71,-222.582 2120.82,-216.309"/>
</g>
<!-- Node41&#45;&gt;Node33 -->
<g id="edge105" class="edge"><title>Node41&#45;&gt;Node33</title>
<path fill="none" stroke="midnightblue" d="M2660.93,-269.233C2583.81,-263.613 2384.4,-247.54 2219.56,-221 2207.23,-219.016 2193.76,-216.223 2182.15,-213.618"/>
<polygon fill="midnightblue" stroke="midnightblue" points="2182.63,-210.136 2172.1,-211.307 2181.06,-216.958 2182.63,-210.136"/>
</g>
<!-- Node41&#45;&gt;Node35 -->
<g id="edge114" class="edge"><title>Node41&#45;&gt;Node35</title>
<path fill="none" stroke="midnightblue" d="M2661.04,-269.207C2563.24,-262.284 2263.19,-240.848 2014.56,-221 1976.86,-217.99 1934.48,-214.376 1901.46,-211.509"/>
<polygon fill="midnightblue" stroke="midnightblue" points="1901.35,-207.986 1891.09,-210.606 1900.75,-214.96 1901.35,-207.986"/>
</g>
<!-- Node41&#45;&gt;Node37 -->
<g id="edge118" class="edge"><title>Node41&#45;&gt;Node37</title>
<path fill="none" stroke="midnightblue" d="M2660.82,-270.968C2391.65,-266.568 552.086,-235.981 497.559,-221 470.502,-213.566 467.924,-202 442.559,-190 411.119,-175.126 374.031,-161.044 347.532,-151.548"/>
<polygon fill="midnightblue" stroke="midnightblue" points="348.523,-148.186 337.929,-148.141 346.183,-154.783 348.523,-148.186"/>
</g>
<!-- Node42 -->
<g id="node43" class="node"><title>Node42</title>
<g id="a_node43"><a xlink:href="boost__dynamic__bitset_8hpp.html" target="_top" xlink:title="../Modified/boost_dynamic\l_bitset.hpp">
<polygon fill="white" stroke="black" points="3441.56,-123.5 3441.56,-153.5 3569.56,-153.5 3569.56,-123.5 3441.56,-123.5"/>
<text text-anchor="start" x="3449.56" y="-141.5" font-family="FreeSans" font-size="10.00">../Modified/boost_dynamic</text>
<text text-anchor="middle" x="3505.56" y="-130.5" font-family="FreeSans" font-size="10.00">_bitset.hpp</text>
</a>
</g>
</g>
<!-- Node41&#45;&gt;Node42 -->
<g id="edge75" class="edge"><title>Node41&#45;&gt;Node42</title>
<path fill="none" stroke="midnightblue" d="M2726.17,-270.43C2809.18,-267.261 3034.99,-255.858 3219.56,-221 3303.55,-205.137 3398.52,-175.705 3455.14,-156.889"/>
<polygon fill="midnightblue" stroke="midnightblue" points="3456.54,-160.112 3464.92,-153.62 3454.32,-153.473 3456.54,-160.112"/>
</g>
<!-- Node49 -->
<g id="node50" class="node"><title>Node49</title>
<polygon fill="white" stroke="#bfbfbf" points="4674.56,-62 4674.56,-81 4726.56,-81 4726.56,-62 4674.56,-62"/>
<text text-anchor="middle" x="4700.56" y="-69" font-family="FreeSans" font-size="10.00">ostream</text>
</g>
<!-- Node41&#45;&gt;Node49 -->
<g id="edge97" class="edge"><title>Node41&#45;&gt;Node49</title>
<path fill="none" stroke="midnightblue" d="M2726.31,-268.927C2817.08,-261.758 3079.58,-240.787 3297.56,-221 3449.66,-207.193 4517.4,-124.075 4665.56,-87 4668.07,-86.3713 4670.64,-85.593 4673.19,-84.726"/>
<polygon fill="midnightblue" stroke="midnightblue" points="4674.65,-87.9132 4682.74,-81.0711 4672.15,-81.3753 4674.65,-87.9132"/>
</g>
<!-- Node60 -->
<g id="node61" class="node"><title>Node60</title>
<polygon fill="white" stroke="#bfbfbf" points="2776.56,-196 2776.56,-215 2806.56,-215 2806.56,-196 2776.56,-196"/>
<text text-anchor="middle" x="2791.56" y="-203" font-family="FreeSans" font-size="10.00">set</text>
</g>
<!-- Node41&#45;&gt;Node60 -->
<g id="edge100" class="edge"><title>Node41&#45;&gt;Node60</title>
<path fill="none" stroke="midnightblue" d="M2706.78,-262.734C2723.01,-251.964 2750.78,-233.55 2770.09,-220.739"/>
<polygon fill="midnightblue" stroke="midnightblue" points="2772.15,-223.571 2778.55,-215.127 2768.28,-217.738 2772.15,-223.571"/>
</g>
<!-- Node61 -->
<g id="node62" class="node"><title>Node61</title>
<polygon fill="white" stroke="#bfbfbf" points="2825.06,-196 2825.06,-215 2854.06,-215 2854.06,-196 2825.06,-196"/>
<text text-anchor="middle" x="2839.56" y="-203" font-family="FreeSans" font-size="10.00">list</text>
</g>
<!-- Node41&#45;&gt;Node61 -->
<g id="edge101" class="edge"><title>Node41&#45;&gt;Node61</title>
<path fill="none" stroke="midnightblue" d="M2717.42,-262.849C2742.36,-253.524 2782.42,-237.751 2815.56,-221 2816.1,-220.726 2816.65,-220.443 2817.2,-220.155"/>
<polygon fill="midnightblue" stroke="midnightblue" points="2819.07,-223.116 2826.05,-215.146 2815.63,-217.023 2819.07,-223.116"/>
</g>
<!-- Node62 -->
<g id="node63" class="node"><title>Node62</title>
<polygon fill="white" stroke="#bfbfbf" points="2872.06,-196 2872.06,-215 2915.06,-215 2915.06,-196 2872.06,-196"/>
<text text-anchor="middle" x="2893.56" y="-203" font-family="FreeSans" font-size="10.00">queue</text>
</g>
<!-- Node41&#45;&gt;Node62 -->
<g id="edge104" class="edge"><title>Node41&#45;&gt;Node62</title>
<path fill="none" stroke="midnightblue" d="M2726.11,-263.3C2760.5,-254.287 2816.06,-238.713 2862.56,-221 2863.98,-220.458 2865.43,-219.879 2866.89,-219.277"/>
<polygon fill="midnightblue" stroke="midnightblue" points="2868.64,-222.328 2876.37,-215.086 2865.81,-215.925 2868.64,-222.328"/>
</g>
<!-- Node63 -->
<g id="node64" class="node"><title>Node63</title>
<g id="a_node64"><a xlink:href="Descriptor_8h.html" target="_top" xlink:title="Descriptor.h">
<polygon fill="white" stroke="black" points="2690.56,-196 2690.56,-215 2758.56,-215 2758.56,-196 2690.56,-196"/>
<text text-anchor="middle" x="2724.56" y="-203" font-family="FreeSans" font-size="10.00">Descriptor.h</text>
</a>
</g>
</g>
<!-- Node41&#45;&gt;Node63 -->
<g id="edge107" class="edge"><title>Node41&#45;&gt;Node63</title>
<path fill="none" stroke="midnightblue" d="M2697.74,-262.734C2702.43,-252.89 2710.18,-236.66 2716.14,-224.159"/>
<polygon fill="midnightblue" stroke="midnightblue" points="2719.3,-225.66 2720.44,-215.127 2712.98,-222.647 2719.3,-225.66"/>
</g>
<!-- Node64 -->
<g id="node65" class="node"><title>Node64</title>
<g id="a_node65"><a xlink:href="RoI_8h.html" target="_top" xlink:title="RoI.h">
<polygon fill="white" stroke="black" points="2024.06,-129 2024.06,-148 2063.06,-148 2063.06,-129 2024.06,-129"/>
<text text-anchor="middle" x="2043.56" y="-136" font-family="FreeSans" font-size="10.00">RoI.h</text>
</a>
</g>
</g>
<!-- Node41&#45;&gt;Node64 -->
<g id="edge111" class="edge"><title>Node41&#45;&gt;Node64</title>
<path fill="none" stroke="midnightblue" d="M2660.96,-266.982C2610.58,-259.621 2511,-243.563 2428.56,-221 2389.37,-210.275 2382.02,-199.677 2342.56,-190 2227.12,-161.69 2192.14,-185.597 2077.56,-154 2075.26,-153.367 2072.92,-152.612 2070.59,-151.785"/>
<polygon fill="midnightblue" stroke="midnightblue" points="2071.82,-148.51 2061.24,-148.098 2069.25,-155.022 2071.82,-148.51"/>
</g>
<!-- Node65 -->
<g id="node66" class="node"><title>Node65</title>
<g id="a_node66"><a xlink:href="TaggedData_8h.html" target="_top" xlink:title="../DataStructures/Tagged\lData.h">
<polygon fill="white" stroke="black" points="2471.06,-190.5 2471.06,-220.5 2596.06,-220.5 2596.06,-190.5 2471.06,-190.5"/>
<text text-anchor="start" x="2479.06" y="-208.5" font-family="FreeSans" font-size="10.00">../DataStructures/Tagged</text>
<text text-anchor="middle" x="2533.56" y="-197.5" font-family="FreeSans" font-size="10.00">Data.h</text>
</a>
</g>
</g>
<!-- Node41&#45;&gt;Node65 -->
<g id="edge115" class="edge"><title>Node41&#45;&gt;Node65</title>
<path fill="none" stroke="midnightblue" d="M2672.31,-262.869C2648.3,-253.115 2608.56,-236.97 2577.75,-224.452"/>
<polygon fill="midnightblue" stroke="midnightblue" points="2578.67,-221.049 2568.09,-220.528 2576.04,-227.535 2578.67,-221.049"/>
</g>
<!-- Node67 -->
<g id="node68" class="node"><title>Node67</title>
<polygon fill="white" stroke="#bfbfbf" points="2933.56,-196 2933.56,-215 2987.56,-215 2987.56,-196 2933.56,-196"/>
<text text-anchor="middle" x="2960.56" y="-203" font-family="FreeSans" font-size="10.00">iostream</text>
</g>
<!-- Node41&#45;&gt;Node67 -->
<g id="edge119" class="edge"><title>Node41&#45;&gt;Node67</title>
<path fill="none" stroke="midnightblue" d="M2726.35,-265.98C2771.35,-258.027 2854.52,-241.966 2923.56,-221 2925.99,-220.263 2928.48,-219.439 2930.97,-218.568"/>
<polygon fill="midnightblue" stroke="midnightblue" points="2932.25,-221.825 2940.41,-215.061 2929.81,-215.263 2932.25,-221.825"/>
</g>
<!-- Node42&#45;&gt;Node16 -->
<g id="edge81" class="edge"><title>Node42&#45;&gt;Node16</title>
<path fill="none" stroke="midnightblue" d="M3441.37,-127.049C3430.76,-125.539 3419.86,-124.12 3409.56,-123 3170.88,-97.0491 3103.06,-146.888 2870.56,-87 2868.57,-86.4887 2866.56,-85.8518 2864.56,-85.1326"/>
<polygon fill="midnightblue" stroke="midnightblue" points="2865.48,-81.7209 2854.91,-81.0492 2862.76,-88.168 2865.48,-81.7209"/>
</g>
<!-- Node42&#45;&gt;Node22 -->
<g id="edge80" class="edge"><title>Node42&#45;&gt;Node22</title>
<path fill="none" stroke="midnightblue" d="M3441.42,-137.978C3230.96,-139.033 2563.02,-138.163 2354.56,-87 2352.57,-86.5114 2350.55,-85.8911 2348.55,-85.1836"/>
<polygon fill="midnightblue" stroke="midnightblue" points="2349.46,-81.7712 2338.89,-81.1238 2346.75,-88.2246 2349.46,-81.7712"/>
</g>
<!-- Node42&#45;&gt;Node27 -->
<g id="edge79" class="edge"><title>Node42&#45;&gt;Node27</title>
<path fill="none" stroke="midnightblue" d="M3441.55,-129.993C3419.4,-127.55 3394.41,-124.964 3371.56,-123 3121.31,-101.484 3052.76,-141.476 2807.56,-87 2804.56,-86.3332 2801.48,-85.4592 2798.44,-84.4703"/>
<polygon fill="midnightblue" stroke="midnightblue" points="2799.62,-81.1749 2789.03,-81.033 2797.22,-87.7503 2799.62,-81.1749"/>
</g>
<!-- Node43 -->
<g id="node44" class="node"><title>Node43</title>
<polygon fill="white" stroke="#bfbfbf" points="4546.06,-62 4546.06,-81 4597.06,-81 4597.06,-62 4546.06,-62"/>
<text text-anchor="middle" x="4571.56" y="-69" font-family="FreeSans" font-size="10.00">assert.h</text>
</g>
<!-- Node42&#45;&gt;Node43 -->
<g id="edge76" class="edge"><title>Node42&#45;&gt;Node43</title>
<path fill="none" stroke="midnightblue" d="M3569.93,-135.631C3780.79,-129.329 4442.68,-108.076 4536.56,-87 4539.23,-86.3994 4541.97,-85.6098 4544.67,-84.7089"/>
<polygon fill="midnightblue" stroke="midnightblue" points="4546.04,-87.9295 4554.14,-81.0959 4543.55,-81.3889 4546.04,-87.9295"/>
</g>
<!-- Node44 -->
<g id="node45" class="node"><title>Node44</title>
<polygon fill="white" stroke="#bfbfbf" points="4615.06,-62 4615.06,-81 4656.06,-81 4656.06,-62 4615.06,-62"/>
<text text-anchor="middle" x="4635.56" y="-69" font-family="FreeSans" font-size="10.00">string</text>
</g>
<!-- Node42&#45;&gt;Node44 -->
<g id="edge77" class="edge"><title>Node42&#45;&gt;Node44</title>
<path fill="none" stroke="midnightblue" d="M3569.71,-136.111C3789.84,-131.13 4506.45,-113.068 4606.56,-87 4608.28,-86.5514 4610.02,-85.9924 4611.75,-85.357"/>
<polygon fill="midnightblue" stroke="midnightblue" points="4613.56,-88.3824 4621.27,-81.1212 4610.71,-81.9862 4613.56,-88.3824"/>
</g>
<!-- Node45 -->
<g id="node46" class="node"><title>Node45</title>
<polygon fill="white" stroke="#bfbfbf" points="2880.06,-62 2880.06,-81 2939.06,-81 2939.06,-62 2880.06,-62"/>
<text text-anchor="middle" x="2909.56" y="-69" font-family="FreeSans" font-size="10.00">stdexcept</text>
</g>
<!-- Node42&#45;&gt;Node45 -->
<g id="edge78" class="edge"><title>Node42&#45;&gt;Node45</title>
<path fill="none" stroke="midnightblue" d="M3441.35,-127.148C3430.75,-125.626 3419.86,-124.178 3409.56,-123 3204.94,-99.6053 3148.5,-132.176 2947.56,-87 2944.56,-86.3248 2941.47,-85.4591 2938.43,-84.4873"/>
<polygon fill="midnightblue" stroke="midnightblue" points="2939.55,-81.1706 2928.95,-81.1253 2937.2,-87.7677 2939.55,-81.1706"/>
</g>
<!-- Node46 -->
<g id="node47" class="node"><title>Node46</title>
<polygon fill="white" stroke="#bfbfbf" points="2957.06,-56.5 2957.06,-86.5 3066.06,-86.5 3066.06,-56.5 2957.06,-56.5"/>
<text text-anchor="start" x="2965.06" y="-74.5" font-family="FreeSans" font-size="10.00">boost/dynamic_bitset</text>
<text text-anchor="middle" x="3011.56" y="-63.5" font-family="FreeSans" font-size="10.00">/config.hpp</text>
</g>
<!-- Node42&#45;&gt;Node46 -->
<g id="edge82" class="edge"><title>Node42&#45;&gt;Node46</title>
<path fill="none" stroke="midnightblue" d="M3441.32,-127.411C3430.72,-125.858 3419.84,-124.33 3409.56,-123 3264.67,-104.258 3224.55,-111.218 3076.22,-86.979"/>
<polygon fill="midnightblue" stroke="midnightblue" points="3076.73,-83.5156 3066.29,-85.3366 3075.58,-90.4217 3076.73,-83.5156"/>
</g>
<!-- Node47 -->
<g id="node48" class="node"><title>Node47</title>
<polygon fill="white" stroke="#bfbfbf" points="3084.56,-62 3084.56,-81 3126.56,-81 3126.56,-62 3084.56,-62"/>
<text text-anchor="middle" x="3105.56" y="-69" font-family="FreeSans" font-size="10.00">locale</text>
</g>
<!-- Node42&#45;&gt;Node47 -->
<g id="edge83" class="edge"><title>Node42&#45;&gt;Node47</title>
<path fill="none" stroke="midnightblue" d="M3441.55,-127.657C3430.87,-126.065 3419.91,-124.461 3409.56,-123 3287.94,-105.827 3253.24,-122.173 3135.56,-87 3133.69,-86.4409 3131.79,-85.7772 3129.9,-85.0462"/>
<polygon fill="midnightblue" stroke="midnightblue" points="3131.31,-81.8425 3120.75,-81.003 3128.48,-88.2455 3131.31,-81.8425"/>
</g>
<!-- Node48 -->
<g id="node49" class="node"><title>Node48</title>
<polygon fill="white" stroke="#bfbfbf" points="3145.06,-62 3145.06,-81 3194.06,-81 3194.06,-62 3145.06,-62"/>
<text text-anchor="middle" x="3169.56" y="-69" font-family="FreeSans" font-size="10.00">istream</text>
</g>
<!-- Node42&#45;&gt;Node48 -->
<g id="edge84" class="edge"><title>Node42&#45;&gt;Node48</title>
<path fill="none" stroke="midnightblue" d="M3441.52,-127.696C3359.45,-114.996 3225.02,-93.6908 3202.56,-87 3200.42,-86.3612 3198.23,-85.618 3196.05,-84.8121"/>
<polygon fill="midnightblue" stroke="midnightblue" points="3197.3,-81.5449 3186.72,-81.0062 3194.66,-88.0258 3197.3,-81.5449"/>
</g>
<!-- Node42&#45;&gt;Node49 -->
<g id="edge85" class="edge"><title>Node42&#45;&gt;Node49</title>
<path fill="none" stroke="midnightblue" d="M3569.9,-136.008C3797.79,-130.542 4558.67,-110.693 4665.56,-87 4668.24,-86.4066 4670.97,-85.622 4673.67,-84.7242"/>
<polygon fill="midnightblue" stroke="midnightblue" points="4675.05,-87.9456 4683.14,-81.1157 4672.55,-81.4039 4675.05,-87.9456"/>
</g>
<!-- Node50 -->
<g id="node51" class="node"><title>Node50</title>
<polygon fill="white" stroke="#bfbfbf" points="3212.06,-56.5 3212.06,-86.5 3321.06,-86.5 3321.06,-56.5 3212.06,-56.5"/>
<text text-anchor="start" x="3220.06" y="-74.5" font-family="FreeSans" font-size="10.00">boost/dynamic_bitset</text>
<text text-anchor="middle" x="3266.56" y="-63.5" font-family="FreeSans" font-size="10.00">_fwd.hpp</text>
</g>
<!-- Node42&#45;&gt;Node50 -->
<g id="edge86" class="edge"><title>Node42&#45;&gt;Node50</title>
<path fill="none" stroke="midnightblue" d="M3453.99,-123.476C3417.05,-113.43 3367.15,-99.8564 3328.12,-89.2418"/>
<polygon fill="midnightblue" stroke="midnightblue" points="3329.01,-85.858 3318.44,-86.6109 3327.18,-92.6127 3329.01,-85.858"/>
</g>
<!-- Node51 -->
<g id="node52" class="node"><title>Node51</title>
<polygon fill="white" stroke="#bfbfbf" points="3339.56,-56.5 3339.56,-86.5 3445.56,-86.5 3445.56,-56.5 3339.56,-56.5"/>
<text text-anchor="start" x="3347.56" y="-74.5" font-family="FreeSans" font-size="10.00">boost/detail/dynamic</text>
<text text-anchor="middle" x="3392.56" y="-63.5" font-family="FreeSans" font-size="10.00">_bitset.hpp</text>
</g>
<!-- Node42&#45;&gt;Node51 -->
<g id="edge87" class="edge"><title>Node42&#45;&gt;Node51</title>
<path fill="none" stroke="midnightblue" d="M3481.04,-123.396C3464.9,-114.112 3443.57,-101.841 3425.89,-91.6742"/>
<polygon fill="midnightblue" stroke="midnightblue" points="3427.44,-88.5288 3417.03,-86.5765 3423.95,-94.5966 3427.44,-88.5288"/>
</g>
<!-- Node52 -->
<g id="node53" class="node"><title>Node52</title>
<polygon fill="white" stroke="#bfbfbf" points="3463.56,-62 3463.56,-81 3581.56,-81 3581.56,-62 3463.56,-62"/>
<text text-anchor="middle" x="3522.56" y="-69" font-family="FreeSans" font-size="10.00">boost/detail/iterator.hpp</text>
</g>
<!-- Node42&#45;&gt;Node52 -->
<g id="edge88" class="edge"><title>Node42&#45;&gt;Node52</title>
<path fill="none" stroke="midnightblue" d="M3509.25,-123.396C3511.72,-113.963 3514.99,-101.448 3517.67,-91.1891"/>
<polygon fill="midnightblue" stroke="midnightblue" points="3521.14,-91.7548 3520.29,-81.1945 3514.37,-89.9835 3521.14,-91.7548"/>
</g>
<!-- Node53 -->
<g id="node54" class="node"><title>Node53</title>
<polygon fill="white" stroke="#bfbfbf" points="3600.06,-62 3600.06,-81 3713.06,-81 3713.06,-62 3600.06,-62"/>
<text text-anchor="middle" x="3656.56" y="-69" font-family="FreeSans" font-size="10.00">boost/move/move.hpp</text>
</g>
<!-- Node42&#45;&gt;Node53 -->
<g id="edge89" class="edge"><title>Node42&#45;&gt;Node53</title>
<path fill="none" stroke="midnightblue" d="M3538.32,-123.396C3564.82,-111.991 3601.78,-96.0794 3627.29,-85.0976"/>
<polygon fill="midnightblue" stroke="midnightblue" points="3629,-88.1757 3636.8,-81.007 3626.23,-81.7461 3629,-88.1757"/>
</g>
<!-- Node54 -->
<g id="node55" class="node"><title>Node54</title>
<polygon fill="white" stroke="#bfbfbf" points="3731.06,-62 3731.06,-81 3816.06,-81 3816.06,-62 3731.06,-62"/>
<text text-anchor="middle" x="3773.56" y="-69" font-family="FreeSans" font-size="10.00">boost/limits.hpp</text>
</g>
<!-- Node42&#45;&gt;Node54 -->
<g id="edge90" class="edge"><title>Node42&#45;&gt;Node54</title>
<path fill="none" stroke="midnightblue" d="M3569.85,-123.395C3613.14,-113.688 3671.44,-100.207 3722.56,-87 3726.46,-85.9926 3730.51,-84.9061 3734.56,-83.7968"/>
<polygon fill="midnightblue" stroke="midnightblue" points="3735.81,-87.0829 3744.5,-81.025 3733.93,-80.3403 3735.81,-87.0829"/>
</g>
<!-- Node55 -->
<g id="node56" class="node"><title>Node55</title>
<polygon fill="white" stroke="#bfbfbf" points="3834.06,-56.5 3834.06,-86.5 3943.06,-86.5 3943.06,-56.5 3834.06,-56.5"/>
<text text-anchor="start" x="3842.06" y="-74.5" font-family="FreeSans" font-size="10.00">boost/pending/lowest</text>
<text text-anchor="middle" x="3888.56" y="-63.5" font-family="FreeSans" font-size="10.00">_bit.hpp</text>
</g>
<!-- Node42&#45;&gt;Node55 -->
<g id="edge91" class="edge"><title>Node42&#45;&gt;Node55</title>
<path fill="none" stroke="midnightblue" d="M3569.84,-128.699C3632.41,-119.829 3730.37,-105.137 3824.05,-87.2224"/>
<polygon fill="midnightblue" stroke="midnightblue" points="3824.82,-90.6384 3833.97,-85.3085 3823.49,-83.765 3824.82,-90.6384"/>
</g>
<!-- Node56 -->
<g id="node57" class="node"><title>Node56</title>
<polygon fill="white" stroke="#bfbfbf" points="3961.56,-62 3961.56,-81 4079.56,-81 4079.56,-62 3961.56,-62"/>
<text text-anchor="middle" x="4020.56" y="-69" font-family="FreeSans" font-size="10.00">boost/static_assert.hpp</text>
</g>
<!-- Node42&#45;&gt;Node56 -->
<g id="edge92" class="edge"><title>Node42&#45;&gt;Node56</title>
<path fill="none" stroke="midnightblue" d="M3569.86,-132.222C3656.95,-124.621 3817.08,-109.043 3952.56,-87 3959.36,-85.8929 3966.52,-84.5582 3973.52,-83.1524"/>
<polygon fill="midnightblue" stroke="midnightblue" points="3974.54,-86.5153 3983.63,-81.0603 3973.12,-79.6607 3974.54,-86.5153"/>
</g>
<!-- Node57 -->
<g id="node58" class="node"><title>Node57</title>
<polygon fill="white" stroke="#bfbfbf" points="4097.56,-62 4097.56,-81 4227.56,-81 4227.56,-62 4097.56,-62"/>
<text text-anchor="middle" x="4162.56" y="-69" font-family="FreeSans" font-size="10.00">boost/utility/addressof.hpp</text>
</g>
<!-- Node42&#45;&gt;Node57 -->
<g id="edge93" class="edge"><title>Node42&#45;&gt;Node57</title>
<path fill="none" stroke="midnightblue" d="M3569.65,-134.199C3677.27,-128.153 3900.94,-113.43 4088.56,-87 4096.58,-85.8705 4105.04,-84.4403 4113.27,-82.9208"/>
<polygon fill="midnightblue" stroke="midnightblue" points="4113.97,-86.3499 4123.14,-81.0371 4112.66,-79.474 4113.97,-86.3499"/>
</g>
<!-- Node58 -->
<g id="node59" class="node"><title>Node58</title>
<polygon fill="white" stroke="#bfbfbf" points="4245.56,-56.5 4245.56,-86.5 4377.56,-86.5 4377.56,-56.5 4245.56,-56.5"/>
<text text-anchor="start" x="4253.56" y="-74.5" font-family="FreeSans" font-size="10.00">boost/detail/no_exceptions</text>
<text text-anchor="middle" x="4311.56" y="-63.5" font-family="FreeSans" font-size="10.00">_support.hpp</text>
</g>
<!-- Node42&#45;&gt;Node58 -->
<g id="edge94" class="edge"><title>Node42&#45;&gt;Node58</title>
<path fill="none" stroke="midnightblue" d="M3569.87,-135.693C3695.79,-131.582 3983.81,-119.356 4235.32,-87.0547"/>
<polygon fill="midnightblue" stroke="midnightblue" points="4235.91,-90.5071 4245.38,-85.7493 4235.01,-83.5653 4235.91,-90.5071"/>
</g>
<!-- Node59 -->
<g id="node60" class="node"><title>Node59</title>
<polygon fill="white" stroke="#bfbfbf" points="4395.56,-62 4395.56,-81 4527.56,-81 4527.56,-62 4395.56,-62"/>
<text text-anchor="middle" x="4461.56" y="-69" font-family="FreeSans" font-size="10.00">boost/throw_exception.hpp</text>
</g>
<!-- Node42&#45;&gt;Node59 -->
<g id="edge95" class="edge"><title>Node42&#45;&gt;Node59</title>
<path fill="none" stroke="midnightblue" d="M3569.67,-136.758C3715.36,-134.43 4082.32,-124.956 4386.56,-87 4395.07,-85.9379 4404.07,-84.4868 4412.77,-82.911"/>
<polygon fill="midnightblue" stroke="midnightblue" points="4413.61,-86.3134 4422.79,-81.0198 4412.32,-79.4348 4413.61,-86.3134"/>
</g>
<!-- Node63&#45;&gt;Node10 -->
<g id="edge109" class="edge"><title>Node63&#45;&gt;Node10</title>
<path fill="none" stroke="midnightblue" d="M2690.49,-199.682C2666.51,-196.462 2633.63,-192.393 2604.56,-190 2241.88,-160.151 2149.68,-177.86 1786.56,-154 1445.55,-131.593 1360.93,-117.603 1020.56,-87 983.083,-83.6305 940.587,-79.6989 909.266,-76.7803"/>
<polygon fill="midnightblue" stroke="midnightblue" points="909.378,-73.2756 899.097,-75.8316 908.728,-80.2454 909.378,-73.2756"/>
</g>
<!-- Node63&#45;&gt;Node22 -->
<g id="edge110" class="edge"><title>Node63&#45;&gt;Node22</title>
<path fill="none" stroke="midnightblue" d="M2698.31,-195.928C2691.29,-193.813 2683.68,-191.675 2676.56,-190 2583.96,-168.203 2554.21,-188.509 2465.56,-154 2441.89,-144.788 2439.43,-135.909 2417.56,-123 2394.9,-109.628 2368.46,-95.5517 2349.4,-85.6675"/>
<polygon fill="midnightblue" stroke="midnightblue" points="2350.92,-82.5124 2340.42,-81.0402 2347.71,-88.734 2350.92,-82.5124"/>
</g>
<!-- Node63&#45;&gt;Node42 -->
<g id="edge108" class="edge"><title>Node63&#45;&gt;Node42</title>
<path fill="none" stroke="midnightblue" d="M2746.58,-195.865C2753.23,-193.59 2760.61,-191.386 2767.56,-190 2892.96,-165.001 3269.79,-148.338 3431.04,-142.168"/>
<polygon fill="midnightblue" stroke="midnightblue" points="3431.48,-145.654 3441.34,-141.777 3431.22,-138.659 3431.48,-145.654"/>
</g>
<!-- Node64&#45;&gt;Node10 -->
<g id="edge112" class="edge"><title>Node64&#45;&gt;Node10</title>
<path fill="none" stroke="midnightblue" d="M2023.94,-135.039C1997.22,-131.778 1947.85,-126.078 1905.56,-123 1512.94,-94.4172 1413.35,-113.11 1020.56,-87 983.015,-84.5043 940.524,-80.5081 909.222,-77.3424"/>
<polygon fill="midnightblue" stroke="midnightblue" points="909.364,-73.8386 899.06,-76.304 908.652,-80.8024 909.364,-73.8386"/>
</g>
<!-- Node64&#45;&gt;Node22 -->
<g id="edge113" class="edge"><title>Node64&#45;&gt;Node22</title>
<path fill="none" stroke="midnightblue" d="M2063.19,-133.179C2076.53,-130.258 2094.6,-126.341 2110.56,-123 2189.56,-106.463 2211.36,-110.556 2288.56,-87 2290.84,-86.3036 2293.18,-85.5133 2295.51,-84.6698"/>
<polygon fill="midnightblue" stroke="midnightblue" points="2296.87,-87.8989 2304.91,-81.0064 2294.32,-81.3768 2296.87,-87.8989"/>
</g>
<!-- Node66 -->
<g id="node67" class="node"><title>Node66</title>
<g id="a_node67"><a xlink:href="TaggedData_8ipp.html" target="_top" xlink:title="TaggedData.ipp">
<polygon fill="white" stroke="black" points="2119.56,-129 2119.56,-148 2203.56,-148 2203.56,-129 2119.56,-129"/>
<text text-anchor="middle" x="2161.56" y="-136" font-family="FreeSans" font-size="10.00">TaggedData.ipp</text>
</a>
</g>
</g>
<!-- Node65&#45;&gt;Node66 -->
<g id="edge116" class="edge"><title>Node65&#45;&gt;Node66</title>
<path fill="none" stroke="midnightblue" d="M2470.98,-192.501C2466.11,-191.632 2461.25,-190.788 2456.56,-190 2348.45,-171.853 2319.73,-177.038 2212.56,-154 2208.14,-153.049 2203.53,-151.929 2198.98,-150.74"/>
<polygon fill="midnightblue" stroke="midnightblue" points="2199.76,-147.324 2189.19,-148.065 2197.91,-154.076 2199.76,-147.324"/>
</g>
<!-- Node66&#45;&gt;Node1 -->
<g id="edge117" class="edge"><title>Node66&#45;&gt;Node1</title>
<path fill="none" stroke="midnightblue" d="M2129.95,-128.962C2122.01,-126.915 2113.49,-124.802 2105.56,-123 2095.62,-120.743 1973.98,-97.0559 1901.33,-82.9387"/>
<polygon fill="midnightblue" stroke="midnightblue" points="1901.9,-79.485 1891.42,-81.0134 1900.57,-86.3565 1901.9,-79.485"/>
</g>
<!-- Node69 -->
<g id="node70" class="node"><title>Node69</title>
<g id="a_node70"><a xlink:href="EigenExtensions_8ipp.html" target="_top" xlink:title="EigenExtensions.ipp">
<polygon fill="white" stroke="black" points="507.059,-196 507.059,-215 610.059,-215 610.059,-196 507.059,-196"/>
<text text-anchor="middle" x="558.559" y="-203" font-family="FreeSans" font-size="10.00">EigenExtensions.ipp</text>
</a>
</g>
</g>
<!-- Node68&#45;&gt;Node69 -->
<g id="edge122" class="edge"><title>Node68&#45;&gt;Node69</title>
<path fill="none" stroke="midnightblue" d="M526.549,-262.734C532.153,-252.89 541.392,-236.66 548.507,-224.159"/>
<polygon fill="midnightblue" stroke="midnightblue" points="551.743,-225.549 553.648,-215.127 545.66,-222.087 551.743,-225.549"/>
</g>
<!-- Node69&#45;&gt;Node10 -->
<g id="edge123" class="edge"><title>Node69&#45;&gt;Node10</title>
<path fill="none" stroke="midnightblue" d="M547.421,-195.919C528.346,-180.218 493.349,-146.336 513.559,-123 552.384,-78.1719 731.937,-72.2433 817.705,-72.0327"/>
<polygon fill="midnightblue" stroke="midnightblue" points="817.93,-75.5326 827.93,-72.0337 817.931,-68.5326 817.93,-75.5326"/>
</g>
<!-- Node69&#45;&gt;Node12 -->
<g id="edge128" class="edge"><title>Node69&#45;&gt;Node12</title>
<path fill="none" stroke="midnightblue" d="M545.184,-195.927C523.234,-180.802 483.874,-148.56 503.559,-123 550.679,-61.8175 789.361,-27.2716 886.424,-15.5657"/>
<polygon fill="midnightblue" stroke="midnightblue" points="886.935,-19.0296 896.454,-14.3769 886.111,-12.0783 886.935,-19.0296"/>
</g>
<!-- Node69&#45;&gt;Node15 -->
<g id="edge127" class="edge"><title>Node69&#45;&gt;Node15</title>
<path fill="none" stroke="midnightblue" d="M569.107,-195.93C591.07,-178.63 643.97,-139.76 695.559,-123 861.954,-68.9429 914.552,-113.033 1087.56,-87 1099.61,-85.1871 1112.72,-82.5921 1124.24,-80.0971"/>
<polygon fill="midnightblue" stroke="midnightblue" points="1125.3,-83.4468 1134.3,-77.8592 1123.78,-76.6137 1125.3,-83.4468"/>
</g>
<!-- Node69&#45;&gt;Node19 -->
<g id="edge124" class="edge"><title>Node69&#45;&gt;Node19</title>
<path fill="none" stroke="midnightblue" d="M592.428,-195.932C631.362,-186.035 697.161,-169.165 753.559,-154 757.42,-152.962 761.438,-151.867 765.453,-150.764"/>
<polygon fill="midnightblue" stroke="midnightblue" points="766.634,-154.068 775.339,-148.029 764.768,-147.322 766.634,-154.068"/>
</g>
<!-- Node69&#45;&gt;Node21 -->
<g id="edge129" class="edge"><title>Node69&#45;&gt;Node21</title>
<path fill="none" stroke="midnightblue" d="M582.031,-195.825C608.507,-185.97 652.799,-169.269 690.559,-154 692.155,-153.355 693.788,-152.686 695.436,-152.005"/>
<polygon fill="midnightblue" stroke="midnightblue" points="696.969,-155.158 704.835,-148.061 694.26,-148.703 696.969,-155.158"/>
</g>
<!-- Node69&#45;&gt;Node25 -->
<g id="edge125" class="edge"><title>Node69&#45;&gt;Node25</title>
<path fill="none" stroke="midnightblue" d="M562.719,-195.741C571.445,-178.451 593.462,-140.13 624.559,-123 641.85,-113.476 920.374,-85.5715 1019.71,-75.8703"/>
<polygon fill="midnightblue" stroke="midnightblue" points="1020.22,-79.3373 1029.83,-74.8841 1019.54,-72.3703 1020.22,-79.3373"/>
</g>
<!-- Node69&#45;&gt;Node37 -->
<g id="edge130" class="edge"><title>Node69&#45;&gt;Node37</title>
<path fill="none" stroke="midnightblue" d="M526.146,-195.936C482.175,-184.317 403.545,-163.541 354.938,-150.698"/>
<polygon fill="midnightblue" stroke="midnightblue" points="355.607,-147.254 345.044,-148.083 353.818,-154.022 355.607,-147.254"/>
</g>
<!-- Node70 -->
<g id="node71" class="node"><title>Node70</title>
<polygon fill="white" stroke="#bfbfbf" points="523.059,-129 523.059,-148 572.059,-148 572.059,-129 523.059,-129"/>
<text text-anchor="middle" x="547.559" y="-136" font-family="FreeSans" font-size="10.00">cassert</text>
</g>
<!-- Node69&#45;&gt;Node70 -->
<g id="edge126" class="edge"><title>Node69&#45;&gt;Node70</title>
<path fill="none" stroke="midnightblue" d="M557.076,-195.734C555.46,-186.183 552.826,-170.618 550.738,-158.283"/>
<polygon fill="midnightblue" stroke="midnightblue" points="554.139,-157.403 549.019,-148.127 547.237,-158.571 554.139,-157.403"/>
</g>
<!-- Node71&#45;&gt;Node10 -->
<g id="edge147" class="edge"><title>Node71&#45;&gt;Node10</title>
<path fill="none" stroke="midnightblue" d="M969.364,-391.479C956.777,-383.626 939.412,-370.811 929.559,-355 874.928,-267.334 865.471,-138.82 863.87,-91.1725"/>
<polygon fill="midnightblue" stroke="midnightblue" points="867.367,-91.0115 863.613,-81.104 860.369,-91.19 867.367,-91.0115"/>
</g>
<!-- Node72 -->
<g id="node73" class="node"><title>Node72</title>
<g id="a_node73"><a xlink:href="LinearAlgebra_8ipp.html" target="_top" xlink:title="LinearAlgebra.ipp">
<polygon fill="white" stroke="black" points="938.559,-330 938.559,-349 1030.56,-349 1030.56,-330 938.559,-330"/>
<text text-anchor="middle" x="984.559" y="-337" font-family="FreeSans" font-size="10.00">LinearAlgebra.ipp</text>
</a>
</g>
</g>
<!-- Node71&#45;&gt;Node72 -->
<g id="edge132" class="edge"><title>Node71&#45;&gt;Node72</title>
<path fill="none" stroke="midnightblue" d="M984.559,-391.475C984.559,-383.08 984.559,-369.981 984.559,-359.163"/>
<polygon fill="midnightblue" stroke="midnightblue" points="988.059,-359.009 984.559,-349.009 981.059,-359.009 988.059,-359.009"/>
</g>
<!-- Node72&#45;&gt;Node1 -->
<g id="edge133" class="edge"><title>Node72&#45;&gt;Node1</title>
<path fill="none" stroke="midnightblue" d="M1026.07,-329.938C1058.84,-322.076 1104.96,-308.501 1141.56,-288 1156.13,-279.836 1241.97,-199.715 1255.56,-190 1303.37,-155.819 1313.74,-141.392 1369.56,-123 1442.55,-98.9491 1657.96,-83.3647 1773.06,-76.5141"/>
<polygon fill="midnightblue" stroke="midnightblue" points="1773.42,-79.9989 1783.2,-75.9177 1773.01,-73.0109 1773.42,-79.9989"/>
</g>
<!-- Node72&#45;&gt;Node5 -->
<g id="edge134" class="edge"><title>Node72&#45;&gt;Node5</title>
<path fill="none" stroke="midnightblue" d="M947.008,-329.936C895.639,-318.22 803.442,-297.193 747.25,-284.377"/>
<polygon fill="midnightblue" stroke="midnightblue" points="747.722,-280.895 737.194,-282.083 746.166,-287.719 747.722,-280.895"/>
</g>
<!-- Node72&#45;&gt;Node8 -->
<g id="edge135" class="edge"><title>Node72&#45;&gt;Node8</title>
<path fill="none" stroke="midnightblue" d="M938.449,-335.091C844.321,-327.944 623.339,-310.198 438.559,-288 426.486,-286.55 413.606,-284.794 401.287,-283.013"/>
<polygon fill="midnightblue" stroke="midnightblue" points="401.502,-279.507 391.1,-281.517 400.485,-286.433 401.502,-279.507"/>
</g>
<!-- Node72&#45;&gt;Node9 -->
<g id="edge137" class="edge"><title>Node72&#45;&gt;Node9</title>
<path fill="none" stroke="midnightblue" d="M1030.9,-330.662C1084.18,-321.522 1174.48,-305.637 1262.08,-288.049"/>
<polygon fill="midnightblue" stroke="midnightblue" points="1262.81,-291.473 1271.92,-286.064 1261.43,-284.611 1262.81,-291.473"/>
</g>
<!-- Node72&#45;&gt;Node12 -->
<g id="edge144" class="edge"><title>Node72&#45;&gt;Node12</title>
<path fill="none" stroke="midnightblue" d="M977.797,-329.787C962.698,-309.433 927.559,-256.674 927.559,-206.5 927.559,-206.5 927.559,-206.5 927.559,-137.5 927.559,-99.2024 927.559,-54.3829 927.559,-29.6971"/>
<polygon fill="midnightblue" stroke="midnightblue" points="931.059,-29.5894 927.559,-19.5894 924.059,-29.5895 931.059,-29.5894"/>
</g>
<!-- Node72&#45;&gt;Node13 -->
<g id="edge140" class="edge"><title>Node72&#45;&gt;Node13</title>
<path fill="none" stroke="midnightblue" d="M1030.87,-337.6C1225.53,-333.639 1969.18,-316.681 2009.56,-288 2029.85,-273.59 2037.68,-244.487 2040.69,-225.245"/>
<polygon fill="midnightblue" stroke="midnightblue" points="2044.17,-225.603 2041.96,-215.241 2037.23,-224.718 2044.17,-225.603"/>
</g>
<!-- Node72&#45;&gt;Node15 -->
<g id="edge143" class="edge"><title>Node72&#45;&gt;Node15</title>
<path fill="none" stroke="midnightblue" d="M985.415,-329.794C988.106,-305.805 998.049,-237.391 1027.56,-190 1055.59,-144.984 1105.61,-106.59 1134.43,-86.8114"/>
<polygon fill="midnightblue" stroke="midnightblue" points="1136.64,-89.5417 1142.99,-81.059 1132.74,-83.7317 1136.64,-89.5417"/>
</g>
<!-- Node72&#45;&gt;Node16 -->
<g id="edge141" class="edge"><title>Node72&#45;&gt;Node16</title>
<path fill="none" stroke="midnightblue" d="M1030.93,-337.565C1290.81,-332.272 2560.97,-305.673 2734.56,-288 2905.61,-270.586 3005.01,-352.682 3115.56,-221 3125.95,-208.627 3135.47,-146.862 3114.56,-123 3078.43,-81.7803 2923.05,-102.778 2870.56,-87 2868.68,-86.4356 2866.77,-85.7757 2864.87,-85.0544"/>
<polygon fill="midnightblue" stroke="midnightblue" points="2866.19,-81.8112 2855.62,-81.0932 2863.43,-88.2463 2866.19,-81.8112"/>
</g>
<!-- Node72&#45;&gt;Node19 -->
<g id="edge139" class="edge"><title>Node72&#45;&gt;Node19</title>
<path fill="none" stroke="midnightblue" d="M969.635,-329.875C954.49,-320.687 930.87,-305.129 913.559,-288 871.213,-246.098 833.141,-186.24 815.668,-156.969"/>
<polygon fill="midnightblue" stroke="midnightblue" points="818.645,-155.127 810.555,-148.285 812.612,-158.679 818.645,-155.127"/>
</g>
<!-- Node72&#45;&gt;Node20 -->
<g id="edge138" class="edge"><title>Node72&#45;&gt;Node20</title>
<path fill="none" stroke="midnightblue" d="M1018.85,-329.95C1057.18,-320.272 1121.04,-303.792 1175.56,-288 1178.7,-287.091 1181.94,-286.123 1185.2,-285.135"/>
<polygon fill="midnightblue" stroke="midnightblue" points="1186.35,-288.443 1194.87,-282.147 1184.28,-281.755 1186.35,-288.443"/>
</g>
<!-- Node72&#45;&gt;Node25 -->
<g id="edge142" class="edge"><title>Node72&#45;&gt;Node25</title>
<path fill="none" stroke="midnightblue" d="M982.223,-329.648C974.633,-298.976 953.186,-195.188 989.559,-123 997.577,-107.088 1013.2,-94.6959 1027.13,-86.17"/>
<polygon fill="midnightblue" stroke="midnightblue" points="1028.99,-89.1342 1035.93,-81.1274 1025.52,-83.0597 1028.99,-89.1342"/>
</g>
<!-- Node72&#45;&gt;Node37 -->
<g id="edge145" class="edge"><title>Node72&#45;&gt;Node37</title>
<path fill="none" stroke="midnightblue" d="M965.429,-329.878C926.702,-312.835 835.871,-274.935 755.559,-257 595.174,-221.182 534.652,-294.282 387.559,-221 358.701,-206.623 335.472,-176.117 322.877,-156.777"/>
<polygon fill="midnightblue" stroke="midnightblue" points="325.698,-154.686 317.429,-148.063 319.763,-158.397 325.698,-154.686"/>
</g>
<!-- Node72&#45;&gt;Node68 -->
<g id="edge146" class="edge"><title>Node72&#45;&gt;Node68</title>
<path fill="none" stroke="midnightblue" d="M938.472,-332.03C857.287,-320.632 688.303,-296.909 592.267,-283.427"/>
<polygon fill="midnightblue" stroke="midnightblue" points="592.742,-279.959 582.352,-282.035 591.769,-286.891 592.742,-279.959"/>
</g>
<!-- Node73 -->
<g id="node74" class="node"><title>Node73</title>
<polygon fill="white" stroke="#bfbfbf" points="1032.06,-257.5 1032.06,-287.5 1133.06,-287.5 1133.06,-257.5 1032.06,-257.5"/>
<text text-anchor="start" x="1040.06" y="-275.5" font-family="FreeSans" font-size="10.00">boost/math/special</text>
<text text-anchor="middle" x="1082.56" y="-264.5" font-family="FreeSans" font-size="10.00">_functions/sign.hpp</text>
</g>
<!-- Node72&#45;&gt;Node73 -->
<g id="edge136" class="edge"><title>Node72&#45;&gt;Node73</title>
<path fill="none" stroke="midnightblue" d="M997.776,-329.734C1011.78,-320.443 1034.37,-305.461 1052.71,-293.297"/>
<polygon fill="midnightblue" stroke="midnightblue" points="1054.92,-296.033 1061.32,-287.589 1051.05,-290.2 1054.92,-296.033"/>
</g>
<!-- Node75 -->
<g id="node76" class="node"><title>Node75</title>
<g id="a_node76"><a xlink:href="LinearAlgebraJacobian_8ipp.html" target="_top" xlink:title="LinearAlgebraJacobian.ipp">
<polygon fill="white" stroke="black" points="196.059,-330 196.059,-349 327.059,-349 327.059,-330 196.059,-330"/>
<text text-anchor="middle" x="261.559" y="-337" font-family="FreeSans" font-size="10.00">LinearAlgebraJacobian.ipp</text>
</a>
</g>
</g>
<!-- Node74&#45;&gt;Node75 -->
<g id="edge149" class="edge"><title>Node74&#45;&gt;Node75</title>
<path fill="none" stroke="midnightblue" d="M213.085,-447.145C223.148,-425.005 242.438,-382.567 253.406,-358.437"/>
<polygon fill="midnightblue" stroke="midnightblue" points="256.72,-359.604 257.672,-349.052 250.348,-356.708 256.72,-359.604"/>
</g>
<!-- Node75&#45;&gt;Node8 -->
<g id="edge150" class="edge"><title>Node75&#45;&gt;Node8</title>
<path fill="none" stroke="midnightblue" d="M272.214,-329.734C283.301,-320.611 301.055,-306.004 315.689,-293.963"/>
<polygon fill="midnightblue" stroke="midnightblue" points="317.937,-296.645 323.436,-287.589 313.49,-291.24 317.937,-296.645"/>
</g>
<!-- Node75&#45;&gt;Node10 -->
<g id="edge151" class="edge"><title>Node75&#45;&gt;Node10</title>
<path fill="none" stroke="midnightblue" d="M255.706,-329.679C235.005,-297.302 169.442,-183.734 225.559,-123 265.565,-79.7028 677.69,-73.4866 817.476,-72.6268"/>
<polygon fill="midnightblue" stroke="midnightblue" points="817.855,-76.1249 827.836,-72.57 817.816,-69.125 817.855,-76.1249"/>
</g>
<!-- Node75&#45;&gt;Node22 -->
<g id="edge153" class="edge"><title>Node75&#45;&gt;Node22</title>
<path fill="none" stroke="midnightblue" d="M327.198,-337.028C610.723,-330.583 1719.28,-304.431 1791.56,-288 1897.13,-264.002 1910.04,-218.223 2014.56,-190 2082.79,-171.575 2283.5,-206.728 2330.56,-154 2345.81,-136.916 2339.07,-109.018 2331.99,-90.7079"/>
<polygon fill="midnightblue" stroke="midnightblue" points="2335.18,-89.2622 2328.06,-81.4202 2328.74,-91.9932 2335.18,-89.2622"/>
</g>
<!-- Node75&#45;&gt;Node25 -->
<g id="edge152" class="edge"><title>Node75&#45;&gt;Node25</title>
<path fill="none" stroke="midnightblue" d="M260.647,-329.759C259.42,-312.846 259.442,-275.668 280.559,-257 337.151,-206.97 552.469,-257.576 618.559,-221 667.024,-194.178 647.552,-150.633 695.559,-123 723.415,-106.966 935.377,-84.3683 1019.91,-75.8894"/>
<polygon fill="midnightblue" stroke="midnightblue" points="1020.43,-79.355 1030.03,-74.8805 1019.74,-72.3895 1020.43,-79.355"/>
</g>
<!-- Node75&#45;&gt;Node37 -->
<g id="edge154" class="edge"><title>Node75&#45;&gt;Node37</title>
<path fill="none" stroke="midnightblue" d="M257.693,-329.835C251.526,-314.837 240.813,-283.133 247.559,-257 257.604,-218.091 283.592,-178.307 299.499,-156.467"/>
<polygon fill="midnightblue" stroke="midnightblue" points="302.447,-158.368 305.622,-148.261 296.837,-154.182 302.447,-158.368"/>
</g>
<!-- Node75&#45;&gt;Node68 -->
<g id="edge155" class="edge"><title>Node75&#45;&gt;Node68</title>
<path fill="none" stroke="midnightblue" d="M295.817,-329.936C342.485,-318.268 426.092,-297.367 477.413,-284.537"/>
<polygon fill="midnightblue" stroke="midnightblue" points="478.373,-287.904 487.226,-282.083 476.675,-281.113 478.373,-287.904"/>
</g>
</g>
</svg>
