<?xml version="1.0" encoding="UTF-8" standalone="no"?>
<!DOCTYPE svg PUBLIC "-//W3C//DTD SVG 1.1//EN"
 "http://www.w3.org/Graphics/SVG/1.1/DTD/svg11.dtd">
<!-- Generated by graphviz version 2.38.0 (20140413.2041)
 -->
<!-- Title: src/RandomSpanningTreeSampler/RSTSRatioRegistrationProblem.ipp Pages: 1 -->
<!--zoomable 330 -->
<svg id="main" version="1.1" xmlns="http://www.w3.org/2000/svg" xmlns:xlink="http://www.w3.org/1999/xlink" xml:space="preserve" onload="init(evt)">
<style type="text/css"><![CDATA[
.edge:hover path { stroke: red; }
.edge:hover polygon { stroke: red; fill: red; }
]]></style>
<script type="text/javascript"><![CDATA[
var edges = document.getElementsByTagName('g');
if (edges && edges.length) {
  for (var i=0;i<edges.length;i++) {
    if (edges[i].id.substr(0,4)=='edge') {
      edges[i].setAttribute('class','edge');
    }
  }
}
]]></script>
        <defs>
                <circle id="rim" cx="0" cy="0" r="7"/>
                <circle id="rim2" cx="0" cy="0" r="3.5"/>
                <g id="zoomPlus">
                        <use xlink:href="#rim" fill="#404040">
                                <set attributeName="fill" to="#808080" begin="zoomplus.mouseover" end="zoomplus.mouseout"/>
                        </use>
                        <path d="M-4,0h8M0,-4v8" fill="none" stroke="white" stroke-width="1.5" pointer-events="none"/>
                </g>
                <g id="zoomMin">
                        <use xlink:href="#rim" fill="#404040">
                                <set attributeName="fill" to="#808080" begin="zoomminus.mouseover" end="zoomminus.mouseout"/>
                        </use>
                        <path d="M-4,0h8" fill="none" stroke="white" stroke-width="1.5" pointer-events="none"/>
                </g>
                <g id="dirArrow">
                        <path fill="none" stroke="white" stroke-width="1.5" d="M0,-3.0v7 M-2.5,-0.5L0,-3.0L2.5,-0.5"/>
                </g>
               <g id="resetDef">
                       <use xlink:href="#rim2" fill="#404040">
                               <set attributeName="fill" to="#808080" begin="reset.mouseover" end="reset.mouseout"/>
                       </use>
               </g>
        </defs>

<script type="text/javascript">
var viewWidth = 1478;
var viewHeight = 330;
var sectionId = 'dynsection-0';
</script>
<script xlink:href="svgpan.js"/>
<svg id="graph" class="graph">
<g id="viewport">
<title>src/RandomSpanningTreeSampler/RSTSRatioRegistrationProblem.ipp</title>
<polygon fill="white" stroke="none" points="-4,4 -4,-326 1474,-326 1474,4 -4,4"/>
<!-- Node0 -->
<g id="node1" class="node"><title>Node0</title>
<polygon fill="#bfbfbf" stroke="black" points="178,-291.5 178,-321.5 349,-321.5 349,-291.5 178,-291.5"/>
<text text-anchor="start" x="186" y="-309.5" font-family="FreeSans" font-size="10.00">src/RandomSpanningTreeSampler</text>
<text text-anchor="middle" x="263.5" y="-298.5" font-family="FreeSans" font-size="10.00">/RSTSRatioRegistrationProblem.ipp</text>
</g>
<!-- Node1 -->
<g id="node2" class="node"><title>Node1</title>
<polygon fill="white" stroke="#bfbfbf" points="0,-235.5 0,-254.5 95,-254.5 95,-235.5 0,-235.5"/>
<text text-anchor="middle" x="47.5" y="-242.5" font-family="FreeSans" font-size="10.00">boost/optional.hpp</text>
</g>
<!-- Node0&#45;&gt;Node1 -->
<g id="edge1" class="edge"><title>Node0&#45;&gt;Node1</title>
<path fill="none" stroke="midnightblue" d="M212.585,-291.475C174.669,-281.03 123.581,-266.958 88.329,-257.247"/>
<polygon fill="midnightblue" stroke="midnightblue" points="88.9507,-253.788 78.3803,-254.506 87.0917,-260.536 88.9507,-253.788"/>
</g>
<!-- Node2 -->
<g id="node3" class="node"><title>Node2</title>
<polygon fill="white" stroke="#bfbfbf" points="189.5,-123.5 189.5,-142.5 227.5,-142.5 227.5,-123.5 189.5,-123.5"/>
<text text-anchor="middle" x="208.5" y="-130.5" font-family="FreeSans" font-size="10.00">tuple</text>
</g>
<!-- Node0&#45;&gt;Node2 -->
<g id="edge2" class="edge"><title>Node0&#45;&gt;Node2</title>
<path fill="none" stroke="midnightblue" d="M258.999,-291.465C249.091,-260.57 225.398,-186.69 214.353,-152.251"/>
<polygon fill="midnightblue" stroke="midnightblue" points="217.632,-151.013 211.245,-142.56 210.966,-153.151 217.632,-151.013"/>
</g>
<!-- Node3 -->
<g id="node4" class="node"><title>Node3</title>
<polygon fill="white" stroke="#bfbfbf" points="156.5,-6 156.5,-25 200.5,-25 200.5,-6 156.5,-6"/>
<text text-anchor="middle" x="178.5" y="-13" font-family="FreeSans" font-size="10.00">vector</text>
</g>
<!-- Node0&#45;&gt;Node3 -->
<g id="edge3" class="edge"><title>Node0&#45;&gt;Node3</title>
<path fill="none" stroke="midnightblue" d="M238.024,-291.381C207.813,-272.546 161.5,-236.147 161.5,-190 161.5,-190 161.5,-190 161.5,-132 161.5,-97.4959 169.018,-57.8058 174.055,-35.0853"/>
<polygon fill="midnightblue" stroke="midnightblue" points="177.514,-35.6598 176.347,-25.1294 170.692,-34.0891 177.514,-35.6598"/>
</g>
<!-- Node4 -->
<g id="node5" class="node"><title>Node4</title>
<polygon fill="white" stroke="#bfbfbf" points="103,-6 103,-25 138,-25 138,-6 103,-6"/>
<text text-anchor="middle" x="120.5" y="-13" font-family="FreeSans" font-size="10.00">map</text>
</g>
<!-- Node0&#45;&gt;Node4 -->
<g id="edge4" class="edge"><title>Node0&#45;&gt;Node4</title>
<path fill="none" stroke="midnightblue" d="M222.253,-291.493C180.956,-274.543 123.5,-241.676 123.5,-190 123.5,-190 123.5,-190 123.5,-132 123.5,-97.8522 122.173,-58.0445 121.284,-35.2053"/>
<polygon fill="midnightblue" stroke="midnightblue" points="124.781,-35.0419 120.88,-25.1914 117.787,-35.3245 124.781,-35.0419"/>
</g>
<!-- Node5 -->
<g id="node6" class="node"><title>Node5</title>
<polygon fill="white" stroke="#bfbfbf" points="1431,-6 1431,-25 1470,-25 1470,-6 1431,-6"/>
<text text-anchor="middle" x="1450.5" y="-13" font-family="FreeSans" font-size="10.00">utility</text>
</g>
<!-- Node0&#45;&gt;Node5 -->
<g id="edge5" class="edge"><title>Node0&#45;&gt;Node5</title>
<path fill="none" stroke="midnightblue" d="M349.438,-304.865C597.561,-301.902 1297.5,-285.113 1297.5,-190 1297.5,-190 1297.5,-190 1297.5,-132 1297.5,-100.606 1380.59,-52.757 1424.31,-29.7553"/>
<polygon fill="midnightblue" stroke="midnightblue" points="1425.99,-32.8269 1433.25,-25.1096 1422.76,-26.6157 1425.99,-32.8269"/>
</g>
<!-- Node6 -->
<g id="node7" class="node"><title>Node6</title>
<polygon fill="white" stroke="#bfbfbf" points="266,-235.5 266,-254.5 315,-254.5 315,-235.5 266,-235.5"/>
<text text-anchor="middle" x="290.5" y="-242.5" font-family="FreeSans" font-size="10.00">cstddef</text>
</g>
<!-- Node0&#45;&gt;Node6 -->
<g id="edge6" class="edge"><title>Node0&#45;&gt;Node6</title>
<path fill="none" stroke="midnightblue" d="M269.899,-291.399C273.62,-283.199 278.347,-272.781 282.335,-263.994"/>
<polygon fill="midnightblue" stroke="midnightblue" points="285.626,-265.21 286.571,-254.658 279.252,-262.318 285.626,-265.21"/>
</g>
<!-- Node7 -->
<g id="node8" class="node"><title>Node7</title>
<polygon fill="white" stroke="#bfbfbf" points="333.5,-235.5 333.5,-254.5 379.5,-254.5 379.5,-235.5 333.5,-235.5"/>
<text text-anchor="middle" x="356.5" y="-242.5" font-family="FreeSans" font-size="10.00">math.h</text>
</g>
<!-- Node0&#45;&gt;Node7 -->
<g id="edge7" class="edge"><title>Node0&#45;&gt;Node7</title>
<path fill="none" stroke="midnightblue" d="M285.54,-291.399C300.308,-281.951 319.677,-269.559 334.447,-260.109"/>
<polygon fill="midnightblue" stroke="midnightblue" points="336.43,-262.995 342.968,-254.658 332.658,-257.099 336.43,-262.995"/>
</g>
<!-- Node8 -->
<g id="node9" class="node"><title>Node8</title>
<polygon fill="white" stroke="#bfbfbf" points="398,-235.5 398,-254.5 457,-254.5 457,-235.5 398,-235.5"/>
<text text-anchor="middle" x="427.5" y="-242.5" font-family="FreeSans" font-size="10.00">stdexcept</text>
</g>
<!-- Node0&#45;&gt;Node8 -->
<g id="edge8" class="edge"><title>Node0&#45;&gt;Node8</title>
<path fill="none" stroke="midnightblue" d="M302.366,-291.399C330.251,-281.283 367.439,-267.791 394.013,-258.149"/>
<polygon fill="midnightblue" stroke="midnightblue" points="395.43,-261.359 403.637,-254.658 393.042,-254.778 395.43,-261.359"/>
</g>
<!-- Node9 -->
<g id="node10" class="node"><title>Node9</title>
<polygon fill="white" stroke="#bfbfbf" points="245.5,-123.5 245.5,-142.5 285.5,-142.5 285.5,-123.5 245.5,-123.5"/>
<text text-anchor="middle" x="265.5" y="-130.5" font-family="FreeSans" font-size="10.00">limits</text>
</g>
<!-- Node0&#45;&gt;Node9 -->
<g id="edge9" class="edge"><title>Node0&#45;&gt;Node9</title>
<path fill="none" stroke="midnightblue" d="M261.371,-291.391C259.956,-281.285 258.23,-267.339 257.5,-255 255.351,-218.698 259.744,-176.296 262.83,-152.554"/>
<polygon fill="midnightblue" stroke="midnightblue" points="266.316,-152.888 264.205,-142.506 259.381,-151.939 266.316,-152.888"/>
</g>
<!-- Node10 -->
<g id="node11" class="node"><title>Node10</title>
<g id="a_node11"><a xlink:href="RatioRegistration_8h.html" target="_top" xlink:title="../Numeric/RatioRegistration.h">
<polygon fill="white" stroke="black" points="475.5,-235.5 475.5,-254.5 621.5,-254.5 621.5,-235.5 475.5,-235.5"/>
<text text-anchor="middle" x="548.5" y="-242.5" font-family="FreeSans" font-size="10.00">../Numeric/RatioRegistration.h</text>
</a>
</g>
</g>
<!-- Node0&#45;&gt;Node10 -->
<g id="edge10" class="edge"><title>Node0&#45;&gt;Node10</title>
<path fill="none" stroke="midnightblue" d="M330.68,-291.475C381.888,-280.784 451.307,-266.291 497.887,-256.567"/>
<polygon fill="midnightblue" stroke="midnightblue" points="498.682,-259.976 507.755,-254.506 497.251,-253.124 498.682,-259.976"/>
</g>
<!-- Node11 -->
<g id="node12" class="node"><title>Node11</title>
<g id="a_node12"><a xlink:href="RatioRegistration_8ipp.html" target="_top" xlink:title="RatioRegistration.ipp">
<polygon fill="white" stroke="black" points="440.5,-179.5 440.5,-198.5 546.5,-198.5 546.5,-179.5 440.5,-179.5"/>
<text text-anchor="middle" x="493.5" y="-186.5" font-family="FreeSans" font-size="10.00">RatioRegistration.ipp</text>
</a>
</g>
</g>
<!-- Node10&#45;&gt;Node11 -->
<g id="edge11" class="edge"><title>Node10&#45;&gt;Node11</title>
<path fill="none" stroke="midnightblue" d="M539.418,-235.083C531.329,-227.141 519.305,-215.335 509.59,-205.797"/>
<polygon fill="midnightblue" stroke="midnightblue" points="512.001,-203.26 502.413,-198.751 507.097,-208.254 512.001,-203.26"/>
</g>
<!-- Node11&#45;&gt;Node2 -->
<g id="edge14" class="edge"><title>Node11&#45;&gt;Node2</title>
<path fill="none" stroke="midnightblue" d="M440.39,-180.882C390.356,-173.688 313.185,-161.337 237.818,-143.048"/>
<polygon fill="midnightblue" stroke="midnightblue" points="238.227,-139.544 227.68,-140.549 236.551,-146.341 238.227,-139.544"/>
</g>
<!-- Node11&#45;&gt;Node3 -->
<g id="edge15" class="edge"><title>Node11&#45;&gt;Node3</title>
<path fill="none" stroke="midnightblue" d="M479.549,-179.311C458.968,-166.578 419.162,-142.272 384.5,-123 321.083,-87.7404 244.858,-49.3424 205.291,-29.7007"/>
<polygon fill="midnightblue" stroke="midnightblue" points="206.566,-26.4264 196.052,-25.1245 203.459,-32.6992 206.566,-26.4264"/>
</g>
<!-- Node11&#45;&gt;Node5 -->
<g id="edge18" class="edge"><title>Node11&#45;&gt;Node5</title>
<path fill="none" stroke="midnightblue" d="M546.653,-180.117C605.034,-171.38 701.53,-156.708 784.5,-143 926.305,-119.572 1285.02,-76.0543 1421.5,-31 1423.12,-30.4662 1424.76,-29.8561 1426.39,-29.1952"/>
<polygon fill="midnightblue" stroke="midnightblue" points="1427.86,-32.3716 1435.5,-25.0316 1424.95,-26.005 1427.86,-32.3716"/>
</g>
<!-- Node11&#45;&gt;Node9 -->
<g id="edge19" class="edge"><title>Node11&#45;&gt;Node9</title>
<path fill="none" stroke="midnightblue" d="M451.965,-179.42C411.763,-170.912 349.191,-157.137 295.5,-143 295.401,-142.974 295.303,-142.948 295.204,-142.922"/>
<polygon fill="midnightblue" stroke="midnightblue" points="296.353,-139.609 285.78,-140.288 294.469,-146.351 296.353,-139.609"/>
</g>
<!-- Node12 -->
<g id="node13" class="node"><title>Node12</title>
<polygon fill="white" stroke="#bfbfbf" points="304,-123.5 304,-142.5 375,-142.5 375,-123.5 304,-123.5"/>
<text text-anchor="middle" x="339.5" y="-130.5" font-family="FreeSans" font-size="10.00">Eigen/Dense</text>
</g>
<!-- Node11&#45;&gt;Node12 -->
<g id="edge12" class="edge"><title>Node11&#45;&gt;Node12</title>
<path fill="none" stroke="midnightblue" d="M469.098,-179.444C443.303,-170.399 402.423,-156.064 373.482,-145.916"/>
<polygon fill="midnightblue" stroke="midnightblue" points="374.382,-142.523 363.788,-142.516 372.066,-149.128 374.382,-142.523"/>
</g>
<!-- Node13 -->
<g id="node14" class="node"><title>Node13</title>
<polygon fill="white" stroke="#bfbfbf" points="431.5,-123.5 431.5,-142.5 495.5,-142.5 495.5,-123.5 431.5,-123.5"/>
<text text-anchor="middle" x="463.5" y="-130.5" font-family="FreeSans" font-size="10.00">Eigen/SVD</text>
</g>
<!-- Node11&#45;&gt;Node13 -->
<g id="edge13" class="edge"><title>Node11&#45;&gt;Node13</title>
<path fill="none" stroke="midnightblue" d="M488.546,-179.083C484.396,-171.613 478.347,-160.724 473.233,-151.52"/>
<polygon fill="midnightblue" stroke="midnightblue" points="476.278,-149.793 468.362,-142.751 470.159,-153.192 476.278,-149.793"/>
</g>
<!-- Node14 -->
<g id="node15" class="node"><title>Node14</title>
<polygon fill="white" stroke="#bfbfbf" points="219,-6 219,-25 248,-25 248,-6 219,-6"/>
<text text-anchor="middle" x="233.5" y="-13" font-family="FreeSans" font-size="10.00">list</text>
</g>
<!-- Node11&#45;&gt;Node14 -->
<g id="edge16" class="edge"><title>Node11&#45;&gt;Node14</title>
<path fill="none" stroke="midnightblue" d="M498.227,-179.43C504.708,-166.425 514.476,-141.286 504.5,-123 448.395,-20.1637 366.184,-74.7122 257.5,-31 256.789,-30.7139 256.074,-30.4081 255.359,-30.0862"/>
<polygon fill="midnightblue" stroke="midnightblue" points="256.779,-26.8772 246.306,-25.2746 253.494,-33.0584 256.779,-26.8772"/>
</g>
<!-- Node15 -->
<g id="node16" class="node"><title>Node15</title>
<polygon fill="white" stroke="#bfbfbf" points="697.5,-123.5 697.5,-142.5 775.5,-142.5 775.5,-123.5 697.5,-123.5"/>
<text text-anchor="middle" x="736.5" y="-130.5" font-family="FreeSans" font-size="10.00">unordered_set</text>
</g>
<!-- Node11&#45;&gt;Node15 -->
<g id="edge17" class="edge"><title>Node11&#45;&gt;Node15</title>
<path fill="none" stroke="midnightblue" d="M532.004,-179.444C574.306,-170.043 642.319,-154.929 688.173,-144.739"/>
<polygon fill="midnightblue" stroke="midnightblue" points="689.173,-148.102 698.176,-142.516 687.655,-141.269 689.173,-148.102"/>
</g>
<!-- Node16 -->
<g id="node17" class="node"><title>Node16</title>
<g id="a_node17"><a xlink:href="BoostGraph_8h.html" target="_top" xlink:title="../Wrappers/BoostGraph.h">
<polygon fill="white" stroke="black" points="551.5,-123.5 551.5,-142.5 679.5,-142.5 679.5,-123.5 551.5,-123.5"/>
<text text-anchor="middle" x="615.5" y="-130.5" font-family="FreeSans" font-size="10.00">../Wrappers/BoostGraph.h</text>
</a>
</g>
</g>
<!-- Node11&#45;&gt;Node16 -->
<g id="edge20" class="edge"><title>Node11&#45;&gt;Node16</title>
<path fill="none" stroke="midnightblue" d="M512.831,-179.444C532.82,-170.596 564.243,-156.687 587.064,-146.586"/>
<polygon fill="midnightblue" stroke="midnightblue" points="588.532,-149.764 596.259,-142.516 585.698,-143.363 588.532,-149.764"/>
</g>
<!-- Node17 -->
<g id="node18" class="node"><title>Node17</title>
<g id="a_node18"><a xlink:href="BoostGraph_8ipp.html" target="_top" xlink:title="BoostGraph.ipp">
<polygon fill="white" stroke="black" points="574,-67.5 574,-86.5 657,-86.5 657,-67.5 574,-67.5"/>
<text text-anchor="middle" x="615.5" y="-74.5" font-family="FreeSans" font-size="10.00">BoostGraph.ipp</text>
</a>
</g>
</g>
<!-- Node16&#45;&gt;Node17 -->
<g id="edge21" class="edge"><title>Node16&#45;&gt;Node17</title>
<path fill="none" stroke="midnightblue" d="M615.5,-123.083C615.5,-116.006 615.5,-105.861 615.5,-96.9865"/>
<polygon fill="midnightblue" stroke="midnightblue" points="619,-96.751 615.5,-86.7511 612,-96.7511 619,-96.751"/>
</g>
<!-- Node17&#45;&gt;Node3 -->
<g id="edge29" class="edge"><title>Node17&#45;&gt;Node3</title>
<path fill="none" stroke="midnightblue" d="M573.882,-75.6559C499.581,-74.1046 339.775,-66.507 210.5,-31 208.35,-30.4094 206.161,-29.6917 203.988,-28.8952"/>
<polygon fill="midnightblue" stroke="midnightblue" points="205.316,-25.6569 194.739,-25.0497 202.629,-32.1206 205.316,-25.6569"/>
</g>
<!-- Node17&#45;&gt;Node4 -->
<g id="edge31" class="edge"><title>Node17&#45;&gt;Node4</title>
<path fill="none" stroke="midnightblue" d="M573.823,-74.1029C474.607,-69.2483 226.786,-55.0358 147.5,-31 146.068,-30.5659 144.625,-30.0521 143.19,-29.4814"/>
<polygon fill="midnightblue" stroke="midnightblue" points="144.588,-26.2706 134.054,-25.1312 141.578,-32.5907 144.588,-26.2706"/>
</g>
<!-- Node17&#45;&gt;Node5 -->
<g id="edge33" class="edge"><title>Node17&#45;&gt;Node5</title>
<path fill="none" stroke="midnightblue" d="M657.17,-75.8968C800.888,-75.1951 1275.05,-69.9144 1421.5,-31 1423.22,-30.5429 1424.96,-29.9774 1426.68,-29.3373"/>
<polygon fill="midnightblue" stroke="midnightblue" points="1428.5,-32.36 1436.21,-25.0906 1425.65,-25.9669 1428.5,-32.36"/>
</g>
<!-- Node17&#45;&gt;Node14 -->
<g id="edge30" class="edge"><title>Node17&#45;&gt;Node14</title>
<path fill="none" stroke="midnightblue" d="M573.71,-70.977C480.852,-59.7852 264.925,-33.5785 257.5,-31 256.615,-30.6926 255.727,-30.3494 254.842,-29.9775"/>
<polygon fill="midnightblue" stroke="midnightblue" points="256.199,-26.7382 245.713,-25.222 252.965,-32.9463 256.199,-26.7382"/>
</g>
<!-- Node18 -->
<g id="node19" class="node"><title>Node18</title>
<polygon fill="white" stroke="#bfbfbf" points="412.5,-6 412.5,-25 540.5,-25 540.5,-6 412.5,-6"/>
<text text-anchor="middle" x="476.5" y="-13" font-family="FreeSans" font-size="10.00">boost/functional/hash.hpp</text>
</g>
<!-- Node17&#45;&gt;Node18 -->
<g id="edge22" class="edge"><title>Node17&#45;&gt;Node18</title>
<path fill="none" stroke="midnightblue" d="M595.585,-67.4751C572.051,-57.4013 532.69,-40.5525 505.707,-29.0023"/>
<polygon fill="midnightblue" stroke="midnightblue" points="506.949,-25.7267 496.378,-25.0091 504.194,-32.162 506.949,-25.7267"/>
</g>
<!-- Node19 -->
<g id="node20" class="node"><title>Node19</title>
<polygon fill="white" stroke="#bfbfbf" points="558.5,-0.5 558.5,-30.5 672.5,-30.5 672.5,-0.5 558.5,-0.5"/>
<text text-anchor="start" x="566.5" y="-18.5" font-family="FreeSans" font-size="10.00">boost/graph/adjacency</text>
<text text-anchor="middle" x="615.5" y="-7.5" font-family="FreeSans" font-size="10.00">_matrix.hpp</text>
</g>
<!-- Node17&#45;&gt;Node19 -->
<g id="edge23" class="edge"><title>Node17&#45;&gt;Node19</title>
<path fill="none" stroke="midnightblue" d="M615.5,-67.4751C615.5,-60.471 615.5,-50.1919 615.5,-40.6956"/>
<polygon fill="midnightblue" stroke="midnightblue" points="619,-40.5229 615.5,-30.523 612,-40.523 619,-40.5229"/>
</g>
<!-- Node20 -->
<g id="node21" class="node"><title>Node20</title>
<polygon fill="white" stroke="#bfbfbf" points="690.5,-0.5 690.5,-30.5 806.5,-30.5 806.5,-0.5 690.5,-0.5"/>
<text text-anchor="start" x="698.5" y="-18.5" font-family="FreeSans" font-size="10.00">boost/graph/connected</text>
<text text-anchor="middle" x="748.5" y="-7.5" font-family="FreeSans" font-size="10.00">_components.hpp</text>
</g>
<!-- Node17&#45;&gt;Node20 -->
<g id="edge24" class="edge"><title>Node17&#45;&gt;Node20</title>
<path fill="none" stroke="midnightblue" d="M634.556,-67.4751C653.579,-58.9648 683.41,-45.6193 707.777,-34.718"/>
<polygon fill="midnightblue" stroke="midnightblue" points="709.456,-37.8016 717.155,-30.523 706.597,-31.4118 709.456,-37.8016"/>
</g>
<!-- Node21 -->
<g id="node22" class="node"><title>Node21</title>
<polygon fill="white" stroke="#bfbfbf" points="824.5,-0.5 824.5,-30.5 952.5,-30.5 952.5,-0.5 824.5,-0.5"/>
<text text-anchor="start" x="832.5" y="-18.5" font-family="FreeSans" font-size="10.00">boost/property_map</text>
<text text-anchor="middle" x="888.5" y="-7.5" font-family="FreeSans" font-size="10.00">/vector_property_map.hpp</text>
</g>
<!-- Node17&#45;&gt;Node21 -->
<g id="edge25" class="edge"><title>Node17&#45;&gt;Node21</title>
<path fill="none" stroke="midnightblue" d="M654.614,-67.4751C696.236,-58.4037 763.065,-43.8385 814.649,-32.5957"/>
<polygon fill="midnightblue" stroke="midnightblue" points="815.397,-36.015 824.422,-30.4657 813.906,-29.1755 815.397,-36.015"/>
</g>
<!-- Node22 -->
<g id="node23" class="node"><title>Node22</title>
<polygon fill="white" stroke="#bfbfbf" points="970.5,-6 970.5,-25 1098.5,-25 1098.5,-6 970.5,-6"/>
<text text-anchor="middle" x="1034.5" y="-13" font-family="FreeSans" font-size="10.00">boost/concept_check.hpp</text>
</g>
<!-- Node17&#45;&gt;Node22 -->
<g id="edge26" class="edge"><title>Node17&#45;&gt;Node22</title>
<path fill="none" stroke="midnightblue" d="M657.174,-71.4899C722.308,-64.2361 852.111,-48.9568 961.5,-31 968.858,-29.7921 976.609,-28.3919 984.201,-26.9474"/>
<polygon fill="midnightblue" stroke="midnightblue" points="984.895,-30.3782 994.044,-25.0356 983.56,-23.5066 984.895,-30.3782"/>
</g>
<!-- Node23 -->
<g id="node24" class="node"><title>Node23</title>
<polygon fill="white" stroke="#bfbfbf" points="1116.5,-6 1116.5,-25 1266.5,-25 1266.5,-6 1116.5,-6"/>
<text text-anchor="middle" x="1191.5" y="-13" font-family="FreeSans" font-size="10.00">boost/range/metafunctions.hpp</text>
</g>
<!-- Node17&#45;&gt;Node23 -->
<g id="edge27" class="edge"><title>Node17&#45;&gt;Node23</title>
<path fill="none" stroke="midnightblue" d="M657.093,-73.3202C741.99,-67.6026 941.252,-52.9162 1107.5,-31 1116.66,-29.7926 1126.35,-28.312 1135.76,-26.7631"/>
<polygon fill="midnightblue" stroke="midnightblue" points="1136.55,-30.1795 1145.83,-25.0652 1135.38,-23.2769 1136.55,-30.1795"/>
</g>
<!-- Node24 -->
<g id="node25" class="node"><title>Node24</title>
<polygon fill="white" stroke="#bfbfbf" points="1284.5,-6 1284.5,-25 1412.5,-25 1412.5,-6 1284.5,-6"/>
<text text-anchor="middle" x="1348.5" y="-13" font-family="FreeSans" font-size="10.00">boost/range/algorithm.hpp</text>
</g>
<!-- Node17&#45;&gt;Node24 -->
<g id="edge28" class="edge"><title>Node17&#45;&gt;Node24</title>
<path fill="none" stroke="midnightblue" d="M657.384,-75.0034C762.041,-72.1102 1043.25,-61.8548 1275.5,-31 1283.6,-29.9233 1292.16,-28.4931 1300.45,-26.9498"/>
<polygon fill="midnightblue" stroke="midnightblue" points="1301.24,-30.3637 1310.39,-25.0275 1299.91,-23.4912 1301.24,-30.3637"/>
</g>
<!-- Node25 -->
<g id="node26" class="node"><title>Node25</title>
<polygon fill="white" stroke="#bfbfbf" points="266.5,-6 266.5,-25 328.5,-25 328.5,-6 266.5,-6"/>
<text text-anchor="middle" x="297.5" y="-13" font-family="FreeSans" font-size="10.00">type_traits</text>
</g>
<!-- Node17&#45;&gt;Node25 -->
<g id="edge32" class="edge"><title>Node17&#45;&gt;Node25</title>
<path fill="none" stroke="midnightblue" d="M573.741,-70.1518C507.715,-60.747 382.219,-42.1861 338.5,-31 335.453,-30.2204 332.312,-29.3106 329.188,-28.3336"/>
<polygon fill="midnightblue" stroke="midnightblue" points="330,-24.9144 319.406,-25.061 327.779,-31.5528 330,-24.9144"/>
</g>
<!-- Node26 -->
<g id="node27" class="node"><title>Node26</title>
<polygon fill="white" stroke="#bfbfbf" points="347,-6 347,-25 394,-25 394,-6 347,-6"/>
<text text-anchor="middle" x="370.5" y="-13" font-family="FreeSans" font-size="10.00">iterator</text>
</g>
<!-- Node17&#45;&gt;Node26 -->
<g id="edge34" class="edge"><title>Node17&#45;&gt;Node26</title>
<path fill="none" stroke="midnightblue" d="M573.808,-69.7465C530.574,-62.6622 461.339,-49.6284 403.5,-31 401.579,-30.3813 399.618,-29.6884 397.658,-28.9497"/>
<polygon fill="midnightblue" stroke="midnightblue" points="398.633,-25.5664 388.053,-25.0077 395.975,-32.0423 398.633,-25.5664"/>
</g>
</g>
</svg>
        <g id="navigator" transform="translate(0 0)" fill="#404254">
                <rect fill="#f2f5e9" fill-opacity="0.5" stroke="#606060" stroke-width=".5" x="0" y="0" width="60" height="60"/>
                <use id="zoomplus" xlink:href="#zoomPlus" x="17" y="9" onmousedown="handleZoom(evt,'in')"/>
                <use id="zoomminus" xlink:href="#zoomMin" x="42" y="9" onmousedown="handleZoom(evt,'out')"/>
                <use id="reset" xlink:href="#resetDef" x="30" y="36" onmousedown="handleReset()"/>
                <g id="arrowUp" xlink:href="#dirArrow" transform="translate(30 24)" onmousedown="handlePan(0,-1)">
                  <use xlink:href="#rim" fill="#404040">
                        <set attributeName="fill" to="#808080" begin="arrowUp.mouseover" end="arrowUp.mouseout"/>
                  </use>
                  <path fill="none" stroke="white" stroke-width="1.5" d="M0,-3.0v7 M-2.5,-0.5L0,-3.0L2.5,-0.5"/>
                </g>
                <g id="arrowRight" xlink:href="#dirArrow" transform="rotate(90) translate(36 -43)" onmousedown="handlePan(1,0)">
                  <use xlink:href="#rim" fill="#404040">
                        <set attributeName="fill" to="#808080" begin="arrowRight.mouseover" end="arrowRight.mouseout"/>
                  </use>
                  <path fill="none" stroke="white" stroke-width="1.5" d="M0,-3.0v7 M-2.5,-0.5L0,-3.0L2.5,-0.5"/>
                </g>
                <g id="arrowDown" xlink:href="#dirArrow" transform="rotate(180) translate(-30 -48)" onmousedown="handlePan(0,1)">
                  <use xlink:href="#rim" fill="#404040">
                        <set attributeName="fill" to="#808080" begin="arrowDown.mouseover" end="arrowDown.mouseout"/>
                  </use>
                  <path fill="none" stroke="white" stroke-width="1.5" d="M0,-3.0v7 M-2.5,-0.5L0,-3.0L2.5,-0.5"/>
                </g>
                <g id="arrowLeft" xlink:href="#dirArrow" transform="rotate(270) translate(-36 17)" onmousedown="handlePan(-1,0)">
                  <use xlink:href="#rim" fill="#404040">
                        <set attributeName="fill" to="#808080" begin="arrowLeft.mouseover" end="arrowLeft.mouseout"/>
                  </use>
                  <path fill="none" stroke="white" stroke-width="1.5" d="M0,-3.0v7 M-2.5,-0.5L0,-3.0L2.5,-0.5"/>
                </g>
        </g>
        <svg viewBox="0 0 15 15" width="100%" height="30px" preserveAspectRatio="xMaxYMin meet">
         <g id="arrow_out" transform="scale(0.3 0.3)">
          <a xlink:href="RSTSRatioRegistrationProblem_8ipp__incl_org.svg" target="_base">
           <rect id="button" ry="5" rx="5" y="6" x="6" height="38" width="38"
                fill="#f2f5e9" fill-opacity="0.5" stroke="#606060" stroke-width="1.0"/>
           <path id="arrow"
             d="M 11.500037,31.436501 C 11.940474,20.09759 22.043105,11.32322 32.158766,21.979434 L 37.068811,17.246167 C 37.068811,17.246167 37.088388,32 37.088388,32 L 22.160133,31.978069 C 22.160133,31.978069 26.997745,27.140456 26.997745,27.140456 C 18.528582,18.264221 13.291696,25.230495 11.500037,31.436501 z"
             style="fill:#404040;"/>
          </a>
         </g>
        </svg>
</svg>
