<?xml version="1.0" encoding="UTF-8" standalone="no"?>
<!DOCTYPE svg PUBLIC "-//W3C//DTD SVG 1.1//EN"
 "http://www.w3.org/Graphics/SVG/1.1/DTD/svg11.dtd">
<!-- Generated by graphviz version 2.38.0 (20140413.2041)
 -->
<!-- Title: src/RandomSpanningTreeSampler/RSTSRotationRegistrationProblem.ipp Pages: 1 -->
<!--zoomable 608 -->
<svg id="main" version="1.1" xmlns="http://www.w3.org/2000/svg" xmlns:xlink="http://www.w3.org/1999/xlink" xml:space="preserve" onload="init(evt)">
<style type="text/css"><![CDATA[
.edge:hover path { stroke: red; }
.edge:hover polygon { stroke: red; fill: red; }
]]></style>
<script type="text/javascript"><![CDATA[
var edges = document.getElementsByTagName('g');
if (edges && edges.length) {
  for (var i=0;i<edges.length;i++) {
    if (edges[i].id.substr(0,4)=='edge') {
      edges[i].setAttribute('class','edge');
    }
  }
}
]]></script>
        <defs>
                <circle id="rim" cx="0" cy="0" r="7"/>
                <circle id="rim2" cx="0" cy="0" r="3.5"/>
                <g id="zoomPlus">
                        <use xlink:href="#rim" fill="#404040">
                                <set attributeName="fill" to="#808080" begin="zoomplus.mouseover" end="zoomplus.mouseout"/>
                        </use>
                        <path d="M-4,0h8M0,-4v8" fill="none" stroke="white" stroke-width="1.5" pointer-events="none"/>
                </g>
                <g id="zoomMin">
                        <use xlink:href="#rim" fill="#404040">
                                <set attributeName="fill" to="#808080" begin="zoomminus.mouseover" end="zoomminus.mouseout"/>
                        </use>
                        <path d="M-4,0h8" fill="none" stroke="white" stroke-width="1.5" pointer-events="none"/>
                </g>
                <g id="dirArrow">
                        <path fill="none" stroke="white" stroke-width="1.5" d="M0,-3.0v7 M-2.5,-0.5L0,-3.0L2.5,-0.5"/>
                </g>
               <g id="resetDef">
                       <use xlink:href="#rim2" fill="#404040">
                               <set attributeName="fill" to="#808080" begin="reset.mouseover" end="reset.mouseout"/>
                       </use>
               </g>
        </defs>

<script type="text/javascript">
var viewWidth = 907;
var viewHeight = 608;
var sectionId = 'dynsection-1';
</script>
<script xlink:href="svgpan.js"/>
<svg id="graph" class="graph">
<g id="viewport">
<title>src/RandomSpanningTreeSampler/RSTSRotationRegistrationProblem.ipp</title>
<polygon fill="white" stroke="none" points="-4,4 -4,-604 902.5,-604 902.5,4 -4,4"/>
<!-- Node81 -->
<g id="node1" class="node"><title>Node81</title>
<polygon fill="#bfbfbf" stroke="black" points="504.5,-569.5 504.5,-599.5 689.5,-599.5 689.5,-569.5 504.5,-569.5"/>
<text text-anchor="start" x="512.5" y="-587.5" font-family="FreeSans" font-size="10.00">src/RandomSpanningTreeSampler</text>
<text text-anchor="middle" x="597" y="-576.5" font-family="FreeSans" font-size="10.00">/RSTSRotationRegistrationProblem.ipp</text>
</g>
<!-- Node82 -->
<g id="node2" class="node"><title>Node82</title>
<g id="a_node2"><a xlink:href="RSTSRotationRegistrationProblem_8h.html" target="_top" xlink:title="src/RandomSpanningTreeSampler\l/RSTSRotationRegistrationProblem.h">
<polygon fill="white" stroke="black" points="508.5,-502.5 508.5,-532.5 685.5,-532.5 685.5,-502.5 508.5,-502.5"/>
<text text-anchor="start" x="516.5" y="-520.5" font-family="FreeSans" font-size="10.00">src/RandomSpanningTreeSampler</text>
<text text-anchor="middle" x="597" y="-509.5" font-family="FreeSans" font-size="10.00">/RSTSRotationRegistrationProblem.h</text>
</a>
</g>
</g>
<!-- Node81&#45;&gt;Node82 -->
<g id="edge1" class="edge"><title>Node81&#45;&gt;Node82</title>
<path fill="none" stroke="midnightblue" d="M597,-559.108C597,-550.154 597,-540.323 597,-532.577"/>
<polygon fill="midnightblue" stroke="midnightblue" points="593.5,-559.396 597,-569.396 600.5,-559.396 593.5,-559.396"/>
</g>
<!-- Node83 -->
<g id="node3" class="node"><title>Node83</title>
<g id="a_node3"><a xlink:href="RotationRegistrationPipeline_8ipp.html" target="_top" xlink:title="src/GeometryEstimationPipeline\l/RotationRegistrationPipeline.ipp">
<polygon fill="white" stroke="black" points="327.5,-435.5 327.5,-465.5 484.5,-465.5 484.5,-435.5 327.5,-435.5"/>
<text text-anchor="start" x="335.5" y="-453.5" font-family="FreeSans" font-size="10.00">src/GeometryEstimationPipeline</text>
<text text-anchor="middle" x="406" y="-442.5" font-family="FreeSans" font-size="10.00">/RotationRegistrationPipeline.ipp</text>
</a>
</g>
</g>
<!-- Node82&#45;&gt;Node83 -->
<g id="edge2" class="edge"><title>Node82&#45;&gt;Node83</title>
<path fill="none" stroke="midnightblue" d="M545.846,-499.092C515.013,-488.599 476.253,-475.408 447.363,-465.577"/>
<polygon fill="midnightblue" stroke="midnightblue" points="544.961,-502.488 555.556,-502.396 547.217,-495.861 544.961,-502.488"/>
</g>
<!-- Node97 -->
<g id="node17" class="node"><title>Node97</title>
<g id="a_node17"><a xlink:href="RSTSRotationRegistrationProblem_8cpp.html" target="_top" xlink:title="src/RandomSpanningTreeSampler\l/RSTSRotationRegistrationProblem.cpp">
<polygon fill="white" stroke="black" points="503,-435.5 503,-465.5 691,-465.5 691,-435.5 503,-435.5"/>
<text text-anchor="start" x="511" y="-453.5" font-family="FreeSans" font-size="10.00">src/RandomSpanningTreeSampler</text>
<text text-anchor="middle" x="597" y="-442.5" font-family="FreeSans" font-size="10.00">/RSTSRotationRegistrationProblem.cpp</text>
</a>
</g>
</g>
<!-- Node82&#45;&gt;Node97 -->
<g id="edge18" class="edge"><title>Node82&#45;&gt;Node97</title>
<path fill="none" stroke="midnightblue" d="M597,-492.108C597,-483.154 597,-473.323 597,-465.577"/>
<polygon fill="midnightblue" stroke="midnightblue" points="593.5,-492.396 597,-502.396 600.5,-492.396 593.5,-492.396"/>
</g>
<!-- Node98 -->
<g id="node18" class="node"><title>Node98</title>
<g id="a_node18"><a xlink:href="TestRandomSpanningTreeSampler_8cpp.html" target="_top" xlink:title="src/RandomSpanningTreeSampler\l/TestRandomSpanningTreeSampler.cpp">
<polygon fill="white" stroke="black" points="709.5,-435.5 709.5,-465.5 898.5,-465.5 898.5,-435.5 709.5,-435.5"/>
<text text-anchor="start" x="717.5" y="-453.5" font-family="FreeSans" font-size="10.00">src/RandomSpanningTreeSampler</text>
<text text-anchor="middle" x="804" y="-442.5" font-family="FreeSans" font-size="10.00">/TestRandomSpanningTreeSampler.cpp</text>
</a>
</g>
</g>
<!-- Node82&#45;&gt;Node98 -->
<g id="edge19" class="edge"><title>Node82&#45;&gt;Node98</title>
<path fill="none" stroke="midnightblue" d="M651.316,-499.444C684.871,-488.908 727.412,-475.549 759.062,-465.611"/>
<polygon fill="midnightblue" stroke="midnightblue" points="650.153,-496.141 641.661,-502.476 652.25,-502.819 650.153,-496.141"/>
</g>
<!-- Node84 -->
<g id="node4" class="node"><title>Node84</title>
<g id="a_node4"><a xlink:href="RotationRegistrationPipeline_8h.html" target="_top" xlink:title="src/GeometryEstimationPipeline\l/RotationRegistrationPipeline.h">
<polygon fill="white" stroke="black" points="328.5,-368.5 328.5,-398.5 483.5,-398.5 483.5,-368.5 328.5,-368.5"/>
<text text-anchor="start" x="336.5" y="-386.5" font-family="FreeSans" font-size="10.00">src/GeometryEstimationPipeline</text>
<text text-anchor="middle" x="406" y="-375.5" font-family="FreeSans" font-size="10.00">/RotationRegistrationPipeline.h</text>
</a>
</g>
</g>
<!-- Node83&#45;&gt;Node84 -->
<g id="edge3" class="edge"><title>Node83&#45;&gt;Node84</title>
<path fill="none" stroke="midnightblue" d="M406,-425.108C406,-416.154 406,-406.323 406,-398.577"/>
<polygon fill="midnightblue" stroke="midnightblue" points="402.5,-425.396 406,-435.396 409.5,-425.396 402.5,-425.396"/>
</g>
<!-- Node85 -->
<g id="node5" class="node"><title>Node85</title>
<g id="a_node5"><a xlink:href="InterfaceRotationRegistrationPipeline_8ipp.html" target="_top" xlink:title="src/ApplicationInterface\l/InterfaceRotationRegistration\lPipeline.ipp">
<polygon fill="white" stroke="black" points="76,-290.5 76,-331.5 222,-331.5 222,-290.5 76,-290.5"/>
<text text-anchor="start" x="84" y="-319.5" font-family="FreeSans" font-size="10.00">src/ApplicationInterface</text>
<text text-anchor="start" x="84" y="-308.5" font-family="FreeSans" font-size="10.00">/InterfaceRotationRegistration</text>
<text text-anchor="middle" x="149" y="-297.5" font-family="FreeSans" font-size="10.00">Pipeline.ipp</text>
</a>
</g>
</g>
<!-- Node84&#45;&gt;Node85 -->
<g id="edge4" class="edge"><title>Node84&#45;&gt;Node85</title>
<path fill="none" stroke="midnightblue" d="M345.159,-365.81C307.748,-355.548 259.634,-342.349 220.42,-331.592"/>
<polygon fill="midnightblue" stroke="midnightblue" points="344.348,-369.217 354.918,-368.487 346.2,-362.466 344.348,-369.217"/>
</g>
<!-- Node92 -->
<g id="node12" class="node"><title>Node92</title>
<g id="a_node12"><a xlink:href="PfMPipeline_8ipp.html" target="_top" xlink:title="src/GeometryEstimationPipeline\l/PfMPipeline.ipp">
<polygon fill="white" stroke="black" points="240.5,-296 240.5,-326 395.5,-326 395.5,-296 240.5,-296"/>
<text text-anchor="start" x="248.5" y="-314" font-family="FreeSans" font-size="10.00">src/GeometryEstimationPipeline</text>
<text text-anchor="middle" x="318" y="-303" font-family="FreeSans" font-size="10.00">/PfMPipeline.ipp</text>
</a>
</g>
</g>
<!-- Node84&#45;&gt;Node92 -->
<g id="edge11" class="edge"><title>Node84&#45;&gt;Node92</title>
<path fill="none" stroke="midnightblue" d="M380.146,-361.788C365.765,-350.266 348.248,-336.233 335.481,-326.005"/>
<polygon fill="midnightblue" stroke="midnightblue" points="378.199,-364.712 388.192,-368.233 382.576,-359.249 378.199,-364.712"/>
</g>
<!-- Node95 -->
<g id="node15" class="node"><title>Node95</title>
<g id="a_node15"><a xlink:href="RotationRegistrationPipeline_8cpp.html" target="_top" xlink:title="src/GeometryEstimationPipeline\l/RotationRegistrationPipeline.cpp">
<polygon fill="white" stroke="black" points="414,-296 414,-326 574,-326 574,-296 414,-296"/>
<text text-anchor="start" x="422" y="-314" font-family="FreeSans" font-size="10.00">src/GeometryEstimationPipeline</text>
<text text-anchor="middle" x="494" y="-303" font-family="FreeSans" font-size="10.00">/RotationRegistrationPipeline.cpp</text>
</a>
</g>
</g>
<!-- Node84&#45;&gt;Node95 -->
<g id="edge16" class="edge"><title>Node84&#45;&gt;Node95</title>
<path fill="none" stroke="midnightblue" d="M431.854,-361.788C446.235,-350.266 463.752,-336.233 476.519,-326.005"/>
<polygon fill="midnightblue" stroke="midnightblue" points="429.424,-359.249 423.808,-368.233 433.801,-364.712 429.424,-359.249"/>
</g>
<!-- Node96 -->
<g id="node16" class="node"><title>Node96</title>
<g id="a_node16"><a xlink:href="TestGeometryEstimationPipeline_8cpp.html" target="_top" xlink:title="src/GeometryEstimationPipeline\l/TestGeometryEstimationPipeline.cpp">
<polygon fill="white" stroke="black" points="592.5,-296 592.5,-326 771.5,-326 771.5,-296 592.5,-296"/>
<text text-anchor="start" x="600.5" y="-314" font-family="FreeSans" font-size="10.00">src/GeometryEstimationPipeline</text>
<text text-anchor="middle" x="682" y="-303" font-family="FreeSans" font-size="10.00">/TestGeometryEstimationPipeline.cpp</text>
</a>
</g>
</g>
<!-- Node84&#45;&gt;Node96 -->
<g id="edge17" class="edge"><title>Node84&#45;&gt;Node96</title>
<path fill="none" stroke="midnightblue" d="M470.714,-365.97C518.113,-353.862 581.76,-337.605 626.773,-326.107"/>
<polygon fill="midnightblue" stroke="midnightblue" points="469.681,-362.621 460.859,-368.487 471.414,-369.403 469.681,-362.621"/>
</g>
<!-- Node86 -->
<g id="node6" class="node"><title>Node86</title>
<g id="a_node6"><a xlink:href="InterfaceRotationRegistrationPipeline_8h.html" target="_top" xlink:title="src/ApplicationInterface\l/InterfaceRotationRegistration\lPipeline.h">
<polygon fill="white" stroke="black" points="76,-212.5 76,-253.5 222,-253.5 222,-212.5 76,-212.5"/>
<text text-anchor="start" x="84" y="-241.5" font-family="FreeSans" font-size="10.00">src/ApplicationInterface</text>
<text text-anchor="start" x="84" y="-230.5" font-family="FreeSans" font-size="10.00">/InterfaceRotationRegistration</text>
<text text-anchor="middle" x="149" y="-219.5" font-family="FreeSans" font-size="10.00">Pipeline.h</text>
</a>
</g>
</g>
<!-- Node85&#45;&gt;Node86 -->
<g id="edge5" class="edge"><title>Node85&#45;&gt;Node86</title>
<path fill="none" stroke="midnightblue" d="M149,-280.297C149,-271.301 149,-261.653 149,-253.506"/>
<polygon fill="midnightblue" stroke="midnightblue" points="145.5,-280.428 149,-290.428 152.5,-280.428 145.5,-280.428"/>
</g>
<!-- Node87 -->
<g id="node7" class="node"><title>Node87</title>
<g id="a_node7"><a xlink:href="InterfacePfMPipeline_8ipp.html" target="_top" xlink:title="src/ApplicationInterface\l/InterfacePfMPipeline.ipp">
<polygon fill="white" stroke="black" points="164.5,-140 164.5,-170 289.5,-170 289.5,-140 164.5,-140"/>
<text text-anchor="start" x="172.5" y="-158" font-family="FreeSans" font-size="10.00">src/ApplicationInterface</text>
<text text-anchor="middle" x="227" y="-147" font-family="FreeSans" font-size="10.00">/InterfacePfMPipeline.ipp</text>
</a>
</g>
</g>
<!-- Node86&#45;&gt;Node87 -->
<g id="edge6" class="edge"><title>Node86&#45;&gt;Node87</title>
<path fill="none" stroke="midnightblue" d="M176.378,-205.324C188.505,-193.508 202.284,-180.083 212.4,-170.225"/>
<polygon fill="midnightblue" stroke="midnightblue" points="173.807,-202.943 169.087,-212.428 178.692,-207.956 173.807,-202.943"/>
</g>
<!-- Node91 -->
<g id="node11" class="node"><title>Node91</title>
<g id="a_node11"><a xlink:href="InterfaceRotationRegistrationPipeline_8cpp.html" target="_top" xlink:title="src/ApplicationInterface\l/InterfaceRotationRegistration\lPipeline.cpp">
<polygon fill="white" stroke="black" points="0,-134.5 0,-175.5 146,-175.5 146,-134.5 0,-134.5"/>
<text text-anchor="start" x="8" y="-163.5" font-family="FreeSans" font-size="10.00">src/ApplicationInterface</text>
<text text-anchor="start" x="8" y="-152.5" font-family="FreeSans" font-size="10.00">/InterfaceRotationRegistration</text>
<text text-anchor="middle" x="73" y="-141.5" font-family="FreeSans" font-size="10.00">Pipeline.cpp</text>
</a>
</g>
</g>
<!-- Node86&#45;&gt;Node91 -->
<g id="edge10" class="edge"><title>Node86&#45;&gt;Node91</title>
<path fill="none" stroke="midnightblue" d="M122.204,-205.204C112.416,-195.416 101.539,-184.539 92.5056,-175.506"/>
<polygon fill="midnightblue" stroke="midnightblue" points="119.882,-207.832 129.428,-212.428 124.832,-202.882 119.882,-207.832"/>
</g>
<!-- Node88 -->
<g id="node8" class="node"><title>Node88</title>
<g id="a_node8"><a xlink:href="InterfacePfMPipeline_8h.html" target="_top" xlink:title="src/ApplicationInterface\l/InterfacePfMPipeline.h">
<polygon fill="white" stroke="black" points="167.5,-67.5 167.5,-97.5 286.5,-97.5 286.5,-67.5 167.5,-67.5"/>
<text text-anchor="start" x="175.5" y="-85.5" font-family="FreeSans" font-size="10.00">src/ApplicationInterface</text>
<text text-anchor="middle" x="227" y="-74.5" font-family="FreeSans" font-size="10.00">/InterfacePfMPipeline.h</text>
</a>
</g>
</g>
<!-- Node87&#45;&gt;Node88 -->
<g id="edge7" class="edge"><title>Node87&#45;&gt;Node88</title>
<path fill="none" stroke="midnightblue" d="M227,-129.732C227,-119.068 227,-106.914 227,-97.7455"/>
<polygon fill="midnightblue" stroke="midnightblue" points="223.5,-129.733 227,-139.733 230.5,-129.733 223.5,-129.733"/>
</g>
<!-- Node89 -->
<g id="node9" class="node"><title>Node89</title>
<g id="a_node9"><a xlink:href="AppPfM_8cpp.html" target="_top" xlink:title="src/Application/AppPfM.cpp">
<polygon fill="white" stroke="black" points="249.5,-6 249.5,-25 386.5,-25 386.5,-6 249.5,-6"/>
<text text-anchor="middle" x="318" y="-13" font-family="FreeSans" font-size="10.00">src/Application/AppPfM.cpp</text>
</a>
</g>
</g>
<!-- Node88&#45;&gt;Node89 -->
<g id="edge8" class="edge"><title>Node88&#45;&gt;Node89</title>
<path fill="none" stroke="midnightblue" d="M255.272,-61.3056C272.36,-49.0999 293.252,-34.1772 306.09,-25.007"/>
<polygon fill="midnightblue" stroke="midnightblue" points="252.849,-58.7355 246.746,-67.396 256.917,-64.4316 252.849,-58.7355"/>
</g>
<!-- Node90 -->
<g id="node10" class="node"><title>Node90</title>
<g id="a_node10"><a xlink:href="InterfacePfMPipeline_8cpp.html" target="_top" xlink:title="src/ApplicationInterface\l/InterfacePfMPipeline.cpp">
<polygon fill="white" stroke="black" points="103,-0.5 103,-30.5 231,-30.5 231,-0.5 103,-0.5"/>
<text text-anchor="start" x="111" y="-18.5" font-family="FreeSans" font-size="10.00">src/ApplicationInterface</text>
<text text-anchor="middle" x="167" y="-7.5" font-family="FreeSans" font-size="10.00">/InterfacePfMPipeline.cpp</text>
</a>
</g>
</g>
<!-- Node88&#45;&gt;Node90 -->
<g id="edge9" class="edge"><title>Node88&#45;&gt;Node90</title>
<path fill="none" stroke="midnightblue" d="M207.176,-60.0243C198.237,-50.3398 187.93,-39.1739 179.994,-30.5765"/>
<polygon fill="midnightblue" stroke="midnightblue" points="204.626,-62.4219 213.981,-67.396 209.77,-57.6739 204.626,-62.4219"/>
</g>
<!-- Node93 -->
<g id="node13" class="node"><title>Node93</title>
<g id="a_node13"><a xlink:href="PfMPipeline_8h.html" target="_top" xlink:title="src/GeometryEstimationPipeline\l/PfMPipeline.h">
<polygon fill="white" stroke="black" points="240.5,-218 240.5,-248 395.5,-248 395.5,-218 240.5,-218"/>
<text text-anchor="start" x="248.5" y="-236" font-family="FreeSans" font-size="10.00">src/GeometryEstimationPipeline</text>
<text text-anchor="middle" x="318" y="-225" font-family="FreeSans" font-size="10.00">/PfMPipeline.h</text>
</a>
</g>
</g>
<!-- Node92&#45;&gt;Node93 -->
<g id="edge12" class="edge"><title>Node92&#45;&gt;Node93</title>
<path fill="none" stroke="midnightblue" d="M318,-285.59C318,-273.257 318,-258.724 318,-248.231"/>
<polygon fill="midnightblue" stroke="midnightblue" points="314.5,-285.705 318,-295.705 321.5,-285.705 314.5,-285.705"/>
</g>
<!-- Node93&#45;&gt;Node87 -->
<g id="edge13" class="edge"><title>Node93&#45;&gt;Node87</title>
<path fill="none" stroke="midnightblue" d="M293.159,-211.253C277.569,-198.234 257.872,-181.784 244.04,-170.231"/>
<polygon fill="midnightblue" stroke="midnightblue" points="290.965,-213.981 300.884,-217.705 295.452,-208.608 290.965,-213.981"/>
</g>
<!-- Node93&#45;&gt;Node89 -->
<g id="edge14" class="edge"><title>Node93&#45;&gt;Node89</title>
<path fill="none" stroke="midnightblue" d="M318,-207.821C318,-160.206 318,-56.2367 318,-25.3327"/>
<polygon fill="midnightblue" stroke="midnightblue" points="314.5,-207.86 318,-217.86 321.5,-207.86 314.5,-207.86"/>
</g>
<!-- Node94 -->
<g id="node14" class="node"><title>Node94</title>
<g id="a_node14"><a xlink:href="PfMPipeline_8cpp.html" target="_top" xlink:title="src/GeometryEstimationPipeline\l/PfMPipeline.cpp">
<polygon fill="white" stroke="black" points="346.5,-140 346.5,-170 501.5,-170 501.5,-140 346.5,-140"/>
<text text-anchor="start" x="354.5" y="-158" font-family="FreeSans" font-size="10.00">src/GeometryEstimationPipeline</text>
<text text-anchor="middle" x="424" y="-147" font-family="FreeSans" font-size="10.00">/PfMPipeline.cpp</text>
</a>
</g>
</g>
<!-- Node93&#45;&gt;Node94 -->
<g id="edge15" class="edge"><title>Node93&#45;&gt;Node94</title>
<path fill="none" stroke="midnightblue" d="M346.438,-211.611C364.674,-198.536 387.891,-181.89 404.152,-170.231"/>
<polygon fill="midnightblue" stroke="midnightblue" points="344.025,-209.034 337.938,-217.705 348.104,-214.723 344.025,-209.034"/>
</g>
</g>
</svg>
        <g id="navigator" transform="translate(0 0)" fill="#404254">
                <rect fill="#f2f5e9" fill-opacity="0.5" stroke="#606060" stroke-width=".5" x="0" y="0" width="60" height="60"/>
                <use id="zoomplus" xlink:href="#zoomPlus" x="17" y="9" onmousedown="handleZoom(evt,'in')"/>
                <use id="zoomminus" xlink:href="#zoomMin" x="42" y="9" onmousedown="handleZoom(evt,'out')"/>
                <use id="reset" xlink:href="#resetDef" x="30" y="36" onmousedown="handleReset()"/>
                <g id="arrowUp" xlink:href="#dirArrow" transform="translate(30 24)" onmousedown="handlePan(0,-1)">
                  <use xlink:href="#rim" fill="#404040">
                        <set attributeName="fill" to="#808080" begin="arrowUp.mouseover" end="arrowUp.mouseout"/>
                  </use>
                  <path fill="none" stroke="white" stroke-width="1.5" d="M0,-3.0v7 M-2.5,-0.5L0,-3.0L2.5,-0.5"/>
                </g>
                <g id="arrowRight" xlink:href="#dirArrow" transform="rotate(90) translate(36 -43)" onmousedown="handlePan(1,0)">
                  <use xlink:href="#rim" fill="#404040">
                        <set attributeName="fill" to="#808080" begin="arrowRight.mouseover" end="arrowRight.mouseout"/>
                  </use>
                  <path fill="none" stroke="white" stroke-width="1.5" d="M0,-3.0v7 M-2.5,-0.5L0,-3.0L2.5,-0.5"/>
                </g>
                <g id="arrowDown" xlink:href="#dirArrow" transform="rotate(180) translate(-30 -48)" onmousedown="handlePan(0,1)">
                  <use xlink:href="#rim" fill="#404040">
                        <set attributeName="fill" to="#808080" begin="arrowDown.mouseover" end="arrowDown.mouseout"/>
                  </use>
                  <path fill="none" stroke="white" stroke-width="1.5" d="M0,-3.0v7 M-2.5,-0.5L0,-3.0L2.5,-0.5"/>
                </g>
                <g id="arrowLeft" xlink:href="#dirArrow" transform="rotate(270) translate(-36 17)" onmousedown="handlePan(-1,0)">
                  <use xlink:href="#rim" fill="#404040">
                        <set attributeName="fill" to="#808080" begin="arrowLeft.mouseover" end="arrowLeft.mouseout"/>
                  </use>
                  <path fill="none" stroke="white" stroke-width="1.5" d="M0,-3.0v7 M-2.5,-0.5L0,-3.0L2.5,-0.5"/>
                </g>
        </g>
        <svg viewBox="0 0 15 15" width="100%" height="30px" preserveAspectRatio="xMaxYMin meet">
         <g id="arrow_out" transform="scale(0.3 0.3)">
          <a xlink:href="RSTSRotationRegistrationProblem_8ipp__dep__incl_org.svg" target="_base">
           <rect id="button" ry="5" rx="5" y="6" x="6" height="38" width="38"
                fill="#f2f5e9" fill-opacity="0.5" stroke="#606060" stroke-width="1.0"/>
           <path id="arrow"
             d="M 11.500037,31.436501 C 11.940474,20.09759 22.043105,11.32322 32.158766,21.979434 L 37.068811,17.246167 C 37.068811,17.246167 37.088388,32 37.088388,32 L 22.160133,31.978069 C 22.160133,31.978069 26.997745,27.140456 26.997745,27.140456 C 18.528582,18.264221 13.291696,25.230495 11.500037,31.436501 z"
             style="fill:#404040;"/>
          </a>
         </g>
        </svg>
</svg>
