<?xml version="1.0" encoding="UTF-8" standalone="no"?>
<!DOCTYPE svg PUBLIC "-//W3C//DTD SVG 1.1//EN"
 "http://www.w3.org/Graphics/SVG/1.1/DTD/svg11.dtd">
<!-- Generated by graphviz version 2.38.0 (20140413.2041)
 -->
<!-- Title: src/Metrics/SceneFeatureDistance.cpp Pages: 1 -->
<svg width="3190pt" height="520pt"
 viewBox="0.00 0.00 3190.00 520.00" xmlns="http://www.w3.org/2000/svg" xmlns:xlink="http://www.w3.org/1999/xlink">
<g id="graph0" class="graph" transform="scale(1 1) rotate(0) translate(4 516)">
<title>src/Metrics/SceneFeatureDistance.cpp</title>
<polygon fill="white" stroke="none" points="-4,4 -4,-516 3186,-516 3186,4 -4,4"/>
<!-- Node0 -->
<g id="node1" class="node"><title>Node0</title>
<polygon fill="#bfbfbf" stroke="black" points="2447.5,-481.5 2447.5,-511.5 2576.5,-511.5 2576.5,-481.5 2447.5,-481.5"/>
<text text-anchor="start" x="2455.5" y="-499.5" font-family="FreeSans" font-size="10.00">src/Metrics/SceneFeature</text>
<text text-anchor="middle" x="2512" y="-488.5" font-family="FreeSans" font-size="10.00">Distance.cpp</text>
</g>
<!-- Node1 -->
<g id="node2" class="node"><title>Node1</title>
<g id="a_node2"><a xlink:href="SceneFeatureDistance_8h.html" target="_top" xlink:title="SceneFeatureDistance.h">
<polygon fill="white" stroke="black" points="2450.5,-425.5 2450.5,-444.5 2573.5,-444.5 2573.5,-425.5 2450.5,-425.5"/>
<text text-anchor="middle" x="2512" y="-432.5" font-family="FreeSans" font-size="10.00">SceneFeatureDistance.h</text>
</a>
</g>
</g>
<!-- Node0&#45;&gt;Node1 -->
<g id="edge1" class="edge"><title>Node0&#45;&gt;Node1</title>
<path fill="none" stroke="midnightblue" d="M2512,-481.399C2512,-473.466 2512,-463.458 2512,-454.858"/>
<polygon fill="midnightblue" stroke="midnightblue" points="2515.5,-454.658 2512,-444.658 2508.5,-454.658 2515.5,-454.658"/>
</g>
<!-- Node2 -->
<g id="node3" class="node"><title>Node2</title>
<g id="a_node3"><a xlink:href="SceneFeatureDistance_8ipp.html" target="_top" xlink:title="SceneFeatureDistance.ipp">
<polygon fill="white" stroke="black" points="2255.5,-369.5 2255.5,-388.5 2386.5,-388.5 2386.5,-369.5 2255.5,-369.5"/>
<text text-anchor="middle" x="2321" y="-376.5" font-family="FreeSans" font-size="10.00">SceneFeatureDistance.ipp</text>
</a>
</g>
</g>
<!-- Node1&#45;&gt;Node2 -->
<g id="edge2" class="edge"><title>Node1&#45;&gt;Node2</title>
<path fill="none" stroke="midnightblue" d="M2481.74,-425.444C2449.04,-416.201 2396.82,-401.436 2360.82,-391.257"/>
<polygon fill="midnightblue" stroke="midnightblue" points="2361.7,-387.869 2351.12,-388.516 2359.79,-394.605 2361.7,-387.869"/>
</g>
<!-- Node52 -->
<g id="node53" class="node"><title>Node52</title>
<g id="a_node53"><a xlink:href="Distance_8h.html" target="_top" xlink:title="Distance.h">
<polygon fill="white" stroke="black" points="2438,-257.5 2438,-276.5 2500,-276.5 2500,-257.5 2438,-257.5"/>
<text text-anchor="middle" x="2469" y="-264.5" font-family="FreeSans" font-size="10.00">Distance.h</text>
</a>
</g>
</g>
<!-- Node1&#45;&gt;Node52 -->
<g id="edge73" class="edge"><title>Node1&#45;&gt;Node52</title>
<path fill="none" stroke="midnightblue" d="M2509.69,-425.075C2502.92,-398.945 2483.04,-322.211 2473.81,-286.577"/>
<polygon fill="midnightblue" stroke="midnightblue" points="2477.12,-285.371 2471.22,-276.568 2470.34,-287.126 2477.12,-285.371"/>
</g>
<!-- Node3 -->
<g id="node4" class="node"><title>Node3</title>
<polygon fill="white" stroke="#bfbfbf" points="0,-62 0,-81 128,-81 128,-62 0,-62"/>
<text text-anchor="middle" x="64" y="-69" font-family="FreeSans" font-size="10.00">boost/concept_check.hpp</text>
</g>
<!-- Node2&#45;&gt;Node3 -->
<g id="edge3" class="edge"><title>Node2&#45;&gt;Node3</title>
<path fill="none" stroke="midnightblue" d="M2255.38,-375.675C1998.6,-366.151 1076,-327.773 1076,-268 1076,-268 1076,-268 1076,-204.5 1076,-99.353 240.799,-103.781 137,-87 129.639,-85.8099 121.886,-84.4195 114.294,-82.9795"/>
<polygon fill="midnightblue" stroke="midnightblue" points="114.934,-79.5385 104.45,-81.0708 113.601,-86.4105 114.934,-79.5385"/>
</g>
<!-- Node4 -->
<g id="node5" class="node"><title>Node4</title>
<polygon fill="white" stroke="#bfbfbf" points="2855.5,-62 2855.5,-81 2900.5,-81 2900.5,-62 2855.5,-62"/>
<text text-anchor="middle" x="2878" y="-69" font-family="FreeSans" font-size="10.00">climits</text>
</g>
<!-- Node2&#45;&gt;Node4 -->
<g id="edge4" class="edge"><title>Node2&#45;&gt;Node4</title>
<path fill="none" stroke="midnightblue" d="M2386.75,-376.274C2460.52,-370.422 2570,-348.223 2570,-268 2570,-268 2570,-268 2570,-204.5 2570,-71.1798 2723.94,-140.627 2846,-87 2847.36,-86.402 2848.75,-85.7864 2850.16,-85.162"/>
<polygon fill="midnightblue" stroke="midnightblue" points="2851.73,-88.2936 2859.42,-81.0065 2848.86,-81.907 2851.73,-88.2936"/>
</g>
<!-- Node5 -->
<g id="node6" class="node"><title>Node5</title>
<g id="a_node6"><a xlink:href="Feature_8h.html" target="_top" xlink:title="../Elements/Feature.h">
<polygon fill="white" stroke="black" points="2171,-313.5 2171,-332.5 2279,-332.5 2279,-313.5 2171,-313.5"/>
<text text-anchor="middle" x="2225" y="-320.5" font-family="FreeSans" font-size="10.00">../Elements/Feature.h</text>
</a>
</g>
</g>
<!-- Node2&#45;&gt;Node5 -->
<g id="edge5" class="edge"><title>Node2&#45;&gt;Node5</title>
<path fill="none" stroke="midnightblue" d="M2305.58,-369.324C2290.46,-360.822 2267.18,-347.729 2249.53,-337.797"/>
<polygon fill="midnightblue" stroke="midnightblue" points="2250.82,-334.507 2240.39,-332.655 2247.39,-340.608 2250.82,-334.507"/>
</g>
<!-- Node6 -->
<g id="node7" class="node"><title>Node6</title>
<g id="a_node7"><a xlink:href="Feature_8ipp.html" target="_top" xlink:title="Feature.ipp">
<polygon fill="white" stroke="black" points="1891.5,-257.5 1891.5,-276.5 1956.5,-276.5 1956.5,-257.5 1891.5,-257.5"/>
<text text-anchor="middle" x="1924" y="-264.5" font-family="FreeSans" font-size="10.00">Feature.ipp</text>
</a>
</g>
</g>
<!-- Node5&#45;&gt;Node6 -->
<g id="edge6" class="edge"><title>Node5&#45;&gt;Node6</title>
<path fill="none" stroke="midnightblue" d="M2177.31,-313.444C2119.25,-303.029 2022.11,-285.601 1966.51,-275.626"/>
<polygon fill="midnightblue" stroke="midnightblue" points="1967.09,-272.174 1956.63,-273.854 1965.85,-279.064 1967.09,-272.174"/>
</g>
<!-- Node6&#45;&gt;Node3 -->
<g id="edge7" class="edge"><title>Node6&#45;&gt;Node3</title>
<path fill="none" stroke="midnightblue" d="M1891.19,-264.789C1843.7,-261.959 1753.93,-252.515 1685,-221 1664.86,-211.793 1666.43,-198.543 1646,-190 1523.33,-138.697 1479.25,-180.751 1349,-154 1300.92,-144.125 1291.47,-130.749 1243,-123 757.351,-45.3594 625.606,-143.096 137,-87 128.512,-86.0255 119.538,-84.5869 110.896,-82.9892"/>
<polygon fill="midnightblue" stroke="midnightblue" points="111.436,-79.5287 100.952,-81.0586 110.102,-86.4004 111.436,-79.5287"/>
</g>
<!-- Node6&#45;&gt;Node4 -->
<g id="edge38" class="edge"><title>Node6&#45;&gt;Node4</title>
<path fill="none" stroke="midnightblue" d="M1956.72,-266.494C2060.42,-267.57 2380.27,-266.994 2471,-221 2522.43,-194.929 2505.13,-150.13 2556,-123 2670.6,-61.8861 2720.98,-122.203 2846,-87 2848.15,-86.3956 2850.33,-85.668 2852.5,-84.8648"/>
<polygon fill="midnightblue" stroke="midnightblue" points="2853.87,-88.0878 2861.75,-81.0069 2851.17,-81.6276 2853.87,-88.0878"/>
</g>
<!-- Node7 -->
<g id="node8" class="node"><title>Node7</title>
<polygon fill="white" stroke="#bfbfbf" points="2469,-62 2469,-81 2597,-81 2597,-62 2469,-62"/>
<text text-anchor="middle" x="2533" y="-69" font-family="FreeSans" font-size="10.00">boost/range/concepts.hpp</text>
</g>
<!-- Node6&#45;&gt;Node7 -->
<g id="edge8" class="edge"><title>Node6&#45;&gt;Node7</title>
<path fill="none" stroke="midnightblue" d="M1956.78,-263.286C2006.34,-258.512 2102.87,-246.586 2181,-221 2274.31,-190.442 2288.12,-160.17 2379,-123 2416.95,-107.478 2461.6,-93.2633 2493.02,-83.8976"/>
<polygon fill="midnightblue" stroke="midnightblue" points="2494.13,-87.2189 2502.73,-81.0316 2492.15,-80.5052 2494.13,-87.2189"/>
</g>
<!-- Node8 -->
<g id="node9" class="node"><title>Node8</title>
<polygon fill="white" stroke="#bfbfbf" points="2236,-62 2236,-81 2386,-81 2386,-62 2236,-62"/>
<text text-anchor="middle" x="2311" y="-69" font-family="FreeSans" font-size="10.00">boost/range/metafunctions.hpp</text>
</g>
<!-- Node6&#45;&gt;Node8 -->
<g id="edge9" class="edge"><title>Node6&#45;&gt;Node8</title>
<path fill="none" stroke="midnightblue" d="M1956.79,-261.188C1992.87,-255.08 2051.98,-242.642 2099,-221 2140.05,-202.104 2247.47,-121.226 2291.62,-87.4314"/>
<polygon fill="midnightblue" stroke="midnightblue" points="2294,-90.0173 2299.81,-81.1528 2289.74,-84.4639 2294,-90.0173"/>
</g>
<!-- Node9 -->
<g id="node10" class="node"><title>Node9</title>
<g id="a_node10"><a xlink:href="boost__dynamic__bitset_8hpp.html" target="_top" xlink:title="../Modified/boost_dynamic\l_bitset.hpp">
<polygon fill="white" stroke="black" points="1516,-123.5 1516,-153.5 1644,-153.5 1644,-123.5 1516,-123.5"/>
<text text-anchor="start" x="1524" y="-141.5" font-family="FreeSans" font-size="10.00">../Modified/boost_dynamic</text>
<text text-anchor="middle" x="1580" y="-130.5" font-family="FreeSans" font-size="10.00">_bitset.hpp</text>
</a>
</g>
</g>
<!-- Node6&#45;&gt;Node9 -->
<g id="edge10" class="edge"><title>Node6&#45;&gt;Node9</title>
<path fill="none" stroke="midnightblue" d="M1916.15,-257.34C1901.11,-241.324 1866.46,-207.148 1830,-190 1774.31,-163.809 1705.4,-151.171 1654.04,-145.091"/>
<polygon fill="midnightblue" stroke="midnightblue" points="1654.34,-141.603 1644.01,-143.96 1653.56,-148.559 1654.34,-141.603"/>
</g>
<!-- Node14 -->
<g id="node15" class="node"><title>Node14</title>
<polygon fill="white" stroke="#bfbfbf" points="2010,-62 2010,-81 2054,-81 2054,-62 2010,-62"/>
<text text-anchor="middle" x="2032" y="-69" font-family="FreeSans" font-size="10.00">vector</text>
</g>
<!-- Node6&#45;&gt;Node14 -->
<g id="edge31" class="edge"><title>Node6&#45;&gt;Node14</title>
<path fill="none" stroke="midnightblue" d="M1925.91,-257.323C1931.34,-234.031 1948.44,-168.802 1979,-123 1987.99,-109.52 2001.18,-96.9409 2012.14,-87.7089"/>
<polygon fill="midnightblue" stroke="midnightblue" points="2014.43,-90.36 2019.99,-81.3421 2010.02,-84.9236 2014.43,-90.36"/>
</g>
<!-- Node18 -->
<g id="node19" class="node"><title>Node18</title>
<polygon fill="white" stroke="#bfbfbf" points="146,-62 146,-81 198,-81 198,-62 146,-62"/>
<text text-anchor="middle" x="172" y="-69" font-family="FreeSans" font-size="10.00">ostream</text>
</g>
<!-- Node6&#45;&gt;Node18 -->
<g id="edge32" class="edge"><title>Node6&#45;&gt;Node18</title>
<path fill="none" stroke="midnightblue" d="M1901.36,-257.362C1881.67,-249.35 1852.81,-236.366 1830,-221 1813.04,-209.574 1814.57,-198.554 1796,-190 1678.43,-135.853 1626.33,-204.139 1507,-154 1486.59,-145.423 1488.8,-130.594 1468,-123 1336.33,-74.9269 344.07,-116.309 207,-87 204.166,-86.394 201.271,-85.5671 198.419,-84.6132"/>
<polygon fill="midnightblue" stroke="midnightblue" points="199.636,-81.3312 189.045,-81.0177 197.129,-87.8669 199.636,-81.3312"/>
</g>
<!-- Node29 -->
<g id="node30" class="node"><title>Node29</title>
<polygon fill="white" stroke="#bfbfbf" points="2918.5,-62 2918.5,-81 2967.5,-81 2967.5,-62 2918.5,-62"/>
<text text-anchor="middle" x="2943" y="-69" font-family="FreeSans" font-size="10.00">cstddef</text>
</g>
<!-- Node6&#45;&gt;Node29 -->
<g id="edge33" class="edge"><title>Node6&#45;&gt;Node29</title>
<path fill="none" stroke="midnightblue" d="M1956.65,-266.187C2045.28,-266.112 2297.47,-262.009 2502,-221 2662.05,-188.909 2844.19,-114.961 2913.83,-85.2249"/>
<polygon fill="midnightblue" stroke="midnightblue" points="2915.47,-88.3313 2923.28,-81.1686 2912.71,-81.8996 2915.47,-88.3313"/>
</g>
<!-- Node30 -->
<g id="node31" class="node"><title>Node30</title>
<polygon fill="white" stroke="#bfbfbf" points="1172.5,-196 1172.5,-215 1207.5,-215 1207.5,-196 1172.5,-196"/>
<text text-anchor="middle" x="1190" y="-203" font-family="FreeSans" font-size="10.00">map</text>
</g>
<!-- Node6&#45;&gt;Node30 -->
<g id="edge34" class="edge"><title>Node6&#45;&gt;Node30</title>
<path fill="none" stroke="midnightblue" d="M1891.25,-265.762C1769.89,-264.593 1346.2,-257.901 1217,-221 1215.53,-220.58 1214.05,-220.071 1212.58,-219.499"/>
<polygon fill="midnightblue" stroke="midnightblue" points="1213.78,-216.198 1203.25,-215.073 1210.78,-222.522 1213.78,-216.198"/>
</g>
<!-- Node31 -->
<g id="node32" class="node"><title>Node31</title>
<polygon fill="white" stroke="#bfbfbf" points="1226,-196 1226,-215 1256,-215 1256,-196 1226,-196"/>
<text text-anchor="middle" x="1241" y="-203" font-family="FreeSans" font-size="10.00">set</text>
</g>
<!-- Node6&#45;&gt;Node31 -->
<g id="edge35" class="edge"><title>Node6&#45;&gt;Node31</title>
<path fill="none" stroke="midnightblue" d="M1891.44,-265.797C1775.56,-264.762 1383.79,-258.505 1265,-221 1263.93,-220.663 1262.86,-220.269 1261.8,-219.832"/>
<polygon fill="midnightblue" stroke="midnightblue" points="1263.16,-216.591 1252.67,-215.068 1259.92,-222.797 1263.16,-216.591"/>
</g>
<!-- Node32 -->
<g id="node33" class="node"><title>Node32</title>
<polygon fill="white" stroke="#bfbfbf" points="1274.5,-196 1274.5,-215 1303.5,-215 1303.5,-196 1274.5,-196"/>
<text text-anchor="middle" x="1289" y="-203" font-family="FreeSans" font-size="10.00">list</text>
</g>
<!-- Node6&#45;&gt;Node32 -->
<g id="edge36" class="edge"><title>Node6&#45;&gt;Node32</title>
<path fill="none" stroke="midnightblue" d="M1891.47,-265.677C1781.01,-264.26 1421.17,-256.928 1312,-221 1311.1,-220.703 1310.2,-220.363 1309.3,-219.989"/>
<polygon fill="midnightblue" stroke="midnightblue" points="1310.61,-216.719 1300.14,-215.056 1307.29,-222.882 1310.61,-216.719"/>
</g>
<!-- Node33 -->
<g id="node34" class="node"><title>Node33</title>
<polygon fill="white" stroke="#bfbfbf" points="2403.5,-62 2403.5,-81 2450.5,-81 2450.5,-62 2403.5,-62"/>
<text text-anchor="middle" x="2427" y="-69" font-family="FreeSans" font-size="10.00">iterator</text>
</g>
<!-- Node6&#45;&gt;Node33 -->
<g id="edge37" class="edge"><title>Node6&#45;&gt;Node33</title>
<path fill="none" stroke="midnightblue" d="M1956.58,-262.769C1999.46,-257.715 2076.58,-245.824 2138,-221 2213.91,-190.319 2220.33,-158.736 2294,-123 2336.88,-102.201 2350.81,-104.85 2395,-87 2396.41,-86.4289 2397.86,-85.831 2399.31,-85.2171"/>
<polygon fill="midnightblue" stroke="midnightblue" points="2401.08,-88.2625 2408.84,-81.0454 2398.27,-81.8502 2401.08,-88.2625"/>
</g>
<!-- Node34 -->
<g id="node35" class="node"><title>Node34</title>
<polygon fill="white" stroke="#bfbfbf" points="1321.5,-196 1321.5,-215 1364.5,-215 1364.5,-196 1321.5,-196"/>
<text text-anchor="middle" x="1343" y="-203" font-family="FreeSans" font-size="10.00">queue</text>
</g>
<!-- Node6&#45;&gt;Node34 -->
<g id="edge39" class="edge"><title>Node6&#45;&gt;Node34</title>
<path fill="none" stroke="midnightblue" d="M1891.3,-264.904C1788.32,-261.206 1471.74,-247.888 1373,-221 1371.07,-220.476 1369.12,-219.829 1367.19,-219.103"/>
<polygon fill="midnightblue" stroke="midnightblue" points="1368.4,-215.815 1357.84,-215.006 1365.59,-222.226 1368.4,-215.815"/>
</g>
<!-- Node35 -->
<g id="node36" class="node"><title>Node35</title>
<polygon fill="white" stroke="#bfbfbf" points="1382.5,-196 1382.5,-215 1421.5,-215 1421.5,-196 1382.5,-196"/>
<text text-anchor="middle" x="1402" y="-203" font-family="FreeSans" font-size="10.00">utility</text>
</g>
<!-- Node6&#45;&gt;Node35 -->
<g id="edge40" class="edge"><title>Node6&#45;&gt;Node35</title>
<path fill="none" stroke="midnightblue" d="M1891.4,-264.603C1795.91,-260.264 1518.11,-245.796 1431,-221 1429.33,-220.523 1427.63,-219.95 1425.95,-219.31"/>
<polygon fill="midnightblue" stroke="midnightblue" points="1427.18,-216.026 1416.62,-215.134 1424.32,-222.415 1427.18,-216.026"/>
</g>
<!-- Node36 -->
<g id="node37" class="node"><title>Node36</title>
<g id="a_node37"><a xlink:href="Coordinate_8h.html" target="_top" xlink:title="Coordinate.h">
<polygon fill="white" stroke="black" points="2391.5,-196 2391.5,-215 2462.5,-215 2462.5,-196 2391.5,-196"/>
<text text-anchor="middle" x="2427" y="-203" font-family="FreeSans" font-size="10.00">Coordinate.h</text>
</a>
</g>
</g>
<!-- Node6&#45;&gt;Node36 -->
<g id="edge41" class="edge"><title>Node6&#45;&gt;Node36</title>
<path fill="none" stroke="midnightblue" d="M1956.53,-262.596C2024.49,-255.426 2186.42,-238.023 2322,-221 2341.32,-218.574 2362.61,-215.676 2380.94,-213.111"/>
<polygon fill="midnightblue" stroke="midnightblue" points="2381.65,-216.545 2391.07,-211.685 2380.68,-209.613 2381.65,-216.545"/>
</g>
<!-- Node43 -->
<g id="node44" class="node"><title>Node43</title>
<g id="a_node44"><a xlink:href="Descriptor_8h.html" target="_top" xlink:title="Descriptor.h">
<polygon fill="white" stroke="black" points="2022,-196 2022,-215 2090,-215 2090,-196 2022,-196"/>
<text text-anchor="middle" x="2056" y="-203" font-family="FreeSans" font-size="10.00">Descriptor.h</text>
</a>
</g>
</g>
<!-- Node6&#45;&gt;Node43 -->
<g id="edge56" class="edge"><title>Node6&#45;&gt;Node43</title>
<path fill="none" stroke="midnightblue" d="M1942.91,-257.475C1965.16,-247.445 2002.31,-230.7 2027.93,-219.155"/>
<polygon fill="midnightblue" stroke="midnightblue" points="2029.44,-222.309 2037.12,-215.009 2026.57,-215.928 2029.44,-222.309"/>
</g>
<!-- Node44 -->
<g id="node45" class="node"><title>Node44</title>
<g id="a_node45"><a xlink:href="RoI_8h.html" target="_top" xlink:title="RoI.h">
<polygon fill="white" stroke="black" points="1988.5,-129 1988.5,-148 2027.5,-148 2027.5,-129 1988.5,-129"/>
<text text-anchor="middle" x="2008" y="-136" font-family="FreeSans" font-size="10.00">RoI.h</text>
</a>
</g>
</g>
<!-- Node6&#45;&gt;Node44 -->
<g id="edge60" class="edge"><title>Node6&#45;&gt;Node44</title>
<path fill="none" stroke="midnightblue" d="M1930.77,-257.174C1937.58,-248.2 1948.3,-233.829 1957,-221 1971.72,-199.29 1987.59,-173.521 1997.65,-156.858"/>
<polygon fill="midnightblue" stroke="midnightblue" points="2000.7,-158.574 2002.84,-148.199 1994.7,-154.972 2000.7,-158.574"/>
</g>
<!-- Node45 -->
<g id="node46" class="node"><title>Node45</title>
<g id="a_node46"><a xlink:href="FeatureConcept_8h.html" target="_top" xlink:title="FeatureConcept.h">
<polygon fill="white" stroke="black" points="1694.5,-196 1694.5,-215 1787.5,-215 1787.5,-196 1694.5,-196"/>
<text text-anchor="middle" x="1741" y="-203" font-family="FreeSans" font-size="10.00">FeatureConcept.h</text>
</a>
</g>
</g>
<!-- Node6&#45;&gt;Node45 -->
<g id="edge63" class="edge"><title>Node6&#45;&gt;Node45</title>
<path fill="none" stroke="midnightblue" d="M1897.78,-257.475C1865.98,-247.136 1812.23,-229.661 1776.68,-218.102"/>
<polygon fill="midnightblue" stroke="midnightblue" points="1777.76,-214.773 1767.17,-215.009 1775.6,-221.43 1777.76,-214.773"/>
</g>
<!-- Node47 -->
<g id="node48" class="node"><title>Node47</title>
<g id="a_node48"><a xlink:href="TaggedData_8h.html" target="_top" xlink:title="../DataStructures/Tagged\lData.h">
<polygon fill="white" stroke="black" points="1512.5,-190.5 1512.5,-220.5 1637.5,-220.5 1637.5,-190.5 1512.5,-190.5"/>
<text text-anchor="start" x="1520.5" y="-208.5" font-family="FreeSans" font-size="10.00">../DataStructures/Tagged</text>
<text text-anchor="middle" x="1575" y="-197.5" font-family="FreeSans" font-size="10.00">Data.h</text>
</a>
</g>
</g>
<!-- Node6&#45;&gt;Node47 -->
<g id="edge66" class="edge"><title>Node6&#45;&gt;Node47</title>
<path fill="none" stroke="midnightblue" d="M1891.3,-260.831C1840.18,-252.695 1738.25,-236.254 1652,-221 1650.53,-220.741 1649.05,-220.477 1647.56,-220.211"/>
<polygon fill="midnightblue" stroke="midnightblue" points="1648.06,-216.743 1637.59,-218.407 1646.81,-223.631 1648.06,-216.743"/>
</g>
<!-- Node49 -->
<g id="node50" class="node"><title>Node49</title>
<g id="a_node50"><a xlink:href="EigenMetafunction_8h.html" target="_top" xlink:title="../Wrappers/EigenMetafunction.h">
<polygon fill="white" stroke="black" points="3026,-129 3026,-148 3182,-148 3182,-129 3026,-129"/>
<text text-anchor="middle" x="3104" y="-136" font-family="FreeSans" font-size="10.00">../Wrappers/EigenMetafunction.h</text>
</a>
</g>
</g>
<!-- Node6&#45;&gt;Node49 -->
<g id="edge69" class="edge"><title>Node6&#45;&gt;Node49</title>
<path fill="none" stroke="midnightblue" d="M1956.76,-265.42C2121.16,-262.393 2852.36,-247.529 2950,-221 3001.89,-206.902 3055.97,-173.086 3084.18,-153.734"/>
<polygon fill="midnightblue" stroke="midnightblue" points="3086.2,-156.595 3092.39,-148.002 3082.19,-150.854 3086.2,-156.595"/>
</g>
<!-- Node51 -->
<g id="node52" class="node"><title>Node51</title>
<polygon fill="white" stroke="#bfbfbf" points="1440,-196 1440,-215 1494,-215 1494,-196 1440,-196"/>
<text text-anchor="middle" x="1467" y="-203" font-family="FreeSans" font-size="10.00">iostream</text>
</g>
<!-- Node6&#45;&gt;Node51 -->
<g id="edge72" class="edge"><title>Node6&#45;&gt;Node51</title>
<path fill="none" stroke="midnightblue" d="M1891.25,-265.559C1819.71,-263.934 1644.56,-256.348 1503,-221 1500.33,-220.334 1497.6,-219.513 1494.9,-218.602"/>
<polygon fill="midnightblue" stroke="midnightblue" points="1495.95,-215.259 1485.36,-215.031 1493.5,-221.815 1495.95,-215.259"/>
</g>
<!-- Node9&#45;&gt;Node4 -->
<g id="edge16" class="edge"><title>Node9&#45;&gt;Node4</title>
<path fill="none" stroke="midnightblue" d="M1644.13,-135.106C1899.52,-125.553 2831.23,-90.5006 2846,-87 2848.22,-86.4744 2850.47,-85.7932 2852.7,-85.0131"/>
<polygon fill="midnightblue" stroke="midnightblue" points="2854.23,-88.1695 2862.15,-81.135 2851.57,-81.6936 2854.23,-88.1695"/>
</g>
<!-- Node10 -->
<g id="node11" class="node"><title>Node10</title>
<polygon fill="white" stroke="#bfbfbf" points="216.5,-62 216.5,-81 267.5,-81 267.5,-62 216.5,-62"/>
<text text-anchor="middle" x="242" y="-69" font-family="FreeSans" font-size="10.00">assert.h</text>
</g>
<!-- Node9&#45;&gt;Node10 -->
<g id="edge11" class="edge"><title>Node9&#45;&gt;Node10</title>
<path fill="none" stroke="midnightblue" d="M1515.84,-124.761C1511.17,-124.083 1506.52,-123.484 1502,-123 1230.98,-94.006 542.214,-145.479 276,-87 273.33,-86.4136 270.608,-85.6209 267.924,-84.7068"/>
<polygon fill="midnightblue" stroke="midnightblue" points="269.123,-81.4176 258.536,-81.0159 266.562,-87.9322 269.123,-81.4176"/>
</g>
<!-- Node11 -->
<g id="node12" class="node"><title>Node11</title>
<polygon fill="white" stroke="#bfbfbf" points="285.5,-62 285.5,-81 326.5,-81 326.5,-62 285.5,-62"/>
<text text-anchor="middle" x="306" y="-69" font-family="FreeSans" font-size="10.00">string</text>
</g>
<!-- Node9&#45;&gt;Node11 -->
<g id="edge12" class="edge"><title>Node9&#45;&gt;Node11</title>
<path fill="none" stroke="midnightblue" d="M1515.84,-124.769C1511.17,-124.089 1506.52,-123.487 1502,-123 1244.04,-95.2088 586.567,-150.497 335,-87 333.076,-86.5144 331.132,-85.8876 329.21,-85.1677"/>
<polygon fill="midnightblue" stroke="midnightblue" points="330.534,-81.9253 319.978,-81.0151 327.662,-88.3092 330.534,-81.9253"/>
</g>
<!-- Node12 -->
<g id="node13" class="node"><title>Node12</title>
<polygon fill="white" stroke="#bfbfbf" points="344.5,-62 344.5,-81 403.5,-81 403.5,-62 344.5,-62"/>
<text text-anchor="middle" x="374" y="-69" font-family="FreeSans" font-size="10.00">stdexcept</text>
</g>
<!-- Node9&#45;&gt;Node12 -->
<g id="edge13" class="edge"><title>Node9&#45;&gt;Node12</title>
<path fill="none" stroke="midnightblue" d="M1515.84,-124.78C1511.17,-124.098 1506.52,-123.492 1502,-123 1261.07,-96.7784 649.582,-134.856 412,-87 408.915,-86.3786 405.753,-85.5343 402.634,-84.5633"/>
<polygon fill="midnightblue" stroke="midnightblue" points="403.558,-81.178 392.964,-81.1486 401.228,-87.7786 403.558,-81.178"/>
</g>
<!-- Node13 -->
<g id="node14" class="node"><title>Node13</title>
<polygon fill="white" stroke="#bfbfbf" points="2072,-62 2072,-81 2128,-81 2128,-62 2072,-62"/>
<text text-anchor="middle" x="2100" y="-69" font-family="FreeSans" font-size="10.00">algorithm</text>
</g>
<!-- Node9&#45;&gt;Node13 -->
<g id="edge14" class="edge"><title>Node9&#45;&gt;Node13</title>
<path fill="none" stroke="midnightblue" d="M1644.22,-136.258C1737.66,-133.226 1915.96,-122.803 2063,-87 2065.83,-86.3114 2068.73,-85.456 2071.6,-84.5075"/>
<polygon fill="midnightblue" stroke="midnightblue" points="2072.92,-87.7509 2081.11,-81.0307 2070.52,-81.1763 2072.92,-87.7509"/>
</g>
<!-- Node9&#45;&gt;Node14 -->
<g id="edge15" class="edge"><title>Node9&#45;&gt;Node14</title>
<path fill="none" stroke="midnightblue" d="M1644.01,-136.112C1727.61,-132.884 1877.84,-122.207 2001,-87 2002.93,-86.4488 2004.89,-85.791 2006.83,-85.0641"/>
<polygon fill="midnightblue" stroke="midnightblue" points="2008.46,-88.1744 2016.29,-81.0296 2005.71,-81.7364 2008.46,-88.1744"/>
</g>
<!-- Node15 -->
<g id="node16" class="node"><title>Node15</title>
<polygon fill="white" stroke="#bfbfbf" points="421.5,-56.5 421.5,-86.5 530.5,-86.5 530.5,-56.5 421.5,-56.5"/>
<text text-anchor="start" x="429.5" y="-74.5" font-family="FreeSans" font-size="10.00">boost/dynamic_bitset</text>
<text text-anchor="middle" x="476" y="-63.5" font-family="FreeSans" font-size="10.00">/config.hpp</text>
</g>
<!-- Node9&#45;&gt;Node15 -->
<g id="edge17" class="edge"><title>Node9&#45;&gt;Node15</title>
<path fill="none" stroke="midnightblue" d="M1515.84,-124.803C1511.17,-124.115 1506.52,-123.502 1502,-123 1080.08,-76.1438 966.016,-141.472 540.795,-86.9036"/>
<polygon fill="midnightblue" stroke="midnightblue" points="541.06,-83.4087 530.693,-85.5921 540.159,-90.3504 541.06,-83.4087"/>
</g>
<!-- Node16 -->
<g id="node17" class="node"><title>Node16</title>
<polygon fill="white" stroke="#bfbfbf" points="549,-62 549,-81 591,-81 591,-62 549,-62"/>
<text text-anchor="middle" x="570" y="-69" font-family="FreeSans" font-size="10.00">locale</text>
</g>
<!-- Node9&#45;&gt;Node16 -->
<g id="edge18" class="edge"><title>Node9&#45;&gt;Node16</title>
<path fill="none" stroke="midnightblue" d="M1515.84,-124.816C1511.17,-124.125 1506.52,-123.507 1502,-123 1302.65,-100.61 794.611,-135.669 600,-87 598.064,-86.5158 596.105,-85.8988 594.164,-85.1935"/>
<polygon fill="midnightblue" stroke="midnightblue" points="595.372,-81.9025 584.805,-81.1382 592.589,-88.3255 595.372,-81.9025"/>
</g>
<!-- Node17 -->
<g id="node18" class="node"><title>Node17</title>
<polygon fill="white" stroke="#bfbfbf" points="609.5,-62 609.5,-81 658.5,-81 658.5,-62 609.5,-62"/>
<text text-anchor="middle" x="634" y="-69" font-family="FreeSans" font-size="10.00">istream</text>
</g>
<!-- Node9&#45;&gt;Node17 -->
<g id="edge19" class="edge"><title>Node9&#45;&gt;Node17</title>
<path fill="none" stroke="midnightblue" d="M1515.83,-124.832C1511.16,-124.137 1506.52,-123.515 1502,-123 1317.47,-101.976 847.899,-129.078 667,-87 664.634,-86.4497 662.227,-85.733 659.846,-84.913"/>
<polygon fill="midnightblue" stroke="midnightblue" points="660.958,-81.5881 650.373,-81.122 658.357,-88.087 660.958,-81.5881"/>
</g>
<!-- Node9&#45;&gt;Node18 -->
<g id="edge20" class="edge"><title>Node9&#45;&gt;Node18</title>
<path fill="none" stroke="midnightblue" d="M1515.84,-124.753C1511.17,-124.077 1506.52,-123.48 1502,-123 1215.72,-92.5994 488.548,-147.091 207,-87 204.166,-86.3951 201.27,-85.5688 198.419,-84.6154"/>
<polygon fill="midnightblue" stroke="midnightblue" points="199.635,-81.3334 189.045,-81.0204 197.128,-87.8692 199.635,-81.3334"/>
</g>
<!-- Node19 -->
<g id="node20" class="node"><title>Node19</title>
<polygon fill="white" stroke="#bfbfbf" points="676.5,-56.5 676.5,-86.5 785.5,-86.5 785.5,-56.5 676.5,-56.5"/>
<text text-anchor="start" x="684.5" y="-74.5" font-family="FreeSans" font-size="10.00">boost/dynamic_bitset</text>
<text text-anchor="middle" x="731" y="-63.5" font-family="FreeSans" font-size="10.00">_fwd.hpp</text>
</g>
<!-- Node9&#45;&gt;Node19 -->
<g id="edge21" class="edge"><title>Node9&#45;&gt;Node19</title>
<path fill="none" stroke="midnightblue" d="M1515.83,-124.872C1511.16,-124.168 1506.51,-123.532 1502,-123 1192.89,-86.5625 1108.49,-128.988 795.962,-86.9426"/>
<polygon fill="midnightblue" stroke="midnightblue" points="796.081,-83.4265 785.699,-85.5429 795.134,-90.3623 796.081,-83.4265"/>
</g>
<!-- Node20 -->
<g id="node21" class="node"><title>Node20</title>
<polygon fill="white" stroke="#bfbfbf" points="804,-56.5 804,-86.5 910,-86.5 910,-56.5 804,-56.5"/>
<text text-anchor="start" x="812" y="-74.5" font-family="FreeSans" font-size="10.00">boost/detail/dynamic</text>
<text text-anchor="middle" x="857" y="-63.5" font-family="FreeSans" font-size="10.00">_bitset.hpp</text>
</g>
<!-- Node9&#45;&gt;Node20 -->
<g id="edge22" class="edge"><title>Node9&#45;&gt;Node20</title>
<path fill="none" stroke="midnightblue" d="M1515.82,-124.927C1511.16,-124.21 1506.51,-123.556 1502,-123 1247.62,-91.6208 1177.62,-123.853 920.344,-87.0263"/>
<polygon fill="midnightblue" stroke="midnightblue" points="920.724,-83.545 910.325,-85.5712 919.718,-90.4723 920.724,-83.545"/>
</g>
<!-- Node21 -->
<g id="node22" class="node"><title>Node21</title>
<polygon fill="white" stroke="#bfbfbf" points="928,-62 928,-81 1046,-81 1046,-62 928,-62"/>
<text text-anchor="middle" x="987" y="-69" font-family="FreeSans" font-size="10.00">boost/detail/iterator.hpp</text>
</g>
<!-- Node9&#45;&gt;Node21 -->
<g id="edge23" class="edge"><title>Node9&#45;&gt;Node21</title>
<path fill="none" stroke="midnightblue" d="M1515.81,-125.023C1511.15,-124.284 1506.51,-123.599 1502,-123 1304.43,-96.7513 1252.21,-115.843 1055,-87 1047.77,-85.9431 1040.17,-84.576 1032.76,-83.1042"/>
<polygon fill="midnightblue" stroke="midnightblue" points="1033.34,-79.6505 1022.84,-81.0517 1031.92,-86.5054 1033.34,-79.6505"/>
</g>
<!-- Node22 -->
<g id="node23" class="node"><title>Node22</title>
<polygon fill="white" stroke="#bfbfbf" points="1064.5,-62 1064.5,-81 1177.5,-81 1177.5,-62 1064.5,-62"/>
<text text-anchor="middle" x="1121" y="-69" font-family="FreeSans" font-size="10.00">boost/move/move.hpp</text>
</g>
<!-- Node9&#45;&gt;Node22 -->
<g id="edge24" class="edge"><title>Node9&#45;&gt;Node22</title>
<path fill="none" stroke="midnightblue" d="M1515.79,-125.193C1511.13,-124.413 1506.5,-123.673 1502,-123 1362.21,-102.07 1325.4,-110.421 1186,-87 1179.56,-85.9188 1172.81,-84.6096 1166.18,-83.2255"/>
<polygon fill="midnightblue" stroke="midnightblue" points="1166.46,-79.705 1155.95,-81.0107 1164.98,-86.5466 1166.46,-79.705"/>
</g>
<!-- Node23 -->
<g id="node24" class="node"><title>Node23</title>
<polygon fill="white" stroke="#bfbfbf" points="1195.5,-62 1195.5,-81 1280.5,-81 1280.5,-62 1195.5,-62"/>
<text text-anchor="middle" x="1238" y="-69" font-family="FreeSans" font-size="10.00">boost/limits.hpp</text>
</g>
<!-- Node9&#45;&gt;Node23 -->
<g id="edge25" class="edge"><title>Node9&#45;&gt;Node23</title>
<path fill="none" stroke="midnightblue" d="M1515.74,-125.468C1511.09,-124.624 1506.48,-123.794 1502,-123 1407.47,-106.226 1382.65,-108.16 1289,-87 1284.64,-86.0148 1280.1,-84.8816 1275.6,-83.692"/>
<polygon fill="midnightblue" stroke="midnightblue" points="1276.49,-80.3054 1265.92,-81.0332 1274.63,-87.0557 1276.49,-80.3054"/>
</g>
<!-- Node24 -->
<g id="node25" class="node"><title>Node24</title>
<polygon fill="white" stroke="#bfbfbf" points="1298.5,-56.5 1298.5,-86.5 1407.5,-86.5 1407.5,-56.5 1298.5,-56.5"/>
<text text-anchor="start" x="1306.5" y="-74.5" font-family="FreeSans" font-size="10.00">boost/pending/lowest</text>
<text text-anchor="middle" x="1353" y="-63.5" font-family="FreeSans" font-size="10.00">_bit.hpp</text>
</g>
<!-- Node9&#45;&gt;Node24 -->
<g id="edge26" class="edge"><title>Node9&#45;&gt;Node24</title>
<path fill="none" stroke="midnightblue" d="M1531.02,-123.476C1496.09,-113.472 1448.94,-99.9714 1411.94,-89.3769"/>
<polygon fill="midnightblue" stroke="midnightblue" points="1412.86,-85.999 1402.28,-86.6109 1410.93,-92.7286 1412.86,-85.999"/>
</g>
<!-- Node25 -->
<g id="node26" class="node"><title>Node25</title>
<polygon fill="white" stroke="#bfbfbf" points="1426,-62 1426,-81 1544,-81 1544,-62 1426,-62"/>
<text text-anchor="middle" x="1485" y="-69" font-family="FreeSans" font-size="10.00">boost/static_assert.hpp</text>
</g>
<!-- Node9&#45;&gt;Node25 -->
<g id="edge27" class="edge"><title>Node9&#45;&gt;Node25</title>
<path fill="none" stroke="midnightblue" d="M1559.39,-123.396C1543.6,-112.597 1521.91,-97.7564 1506.03,-86.8872"/>
<polygon fill="midnightblue" stroke="midnightblue" points="1507.66,-83.7653 1497.43,-81.007 1503.71,-89.5425 1507.66,-83.7653"/>
</g>
<!-- Node26 -->
<g id="node27" class="node"><title>Node26</title>
<polygon fill="white" stroke="#bfbfbf" points="1562,-62 1562,-81 1692,-81 1692,-62 1562,-62"/>
<text text-anchor="middle" x="1627" y="-69" font-family="FreeSans" font-size="10.00">boost/utility/addressof.hpp</text>
</g>
<!-- Node9&#45;&gt;Node26 -->
<g id="edge28" class="edge"><title>Node9&#45;&gt;Node26</title>
<path fill="none" stroke="midnightblue" d="M1590.2,-123.396C1597.38,-113.462 1607.04,-100.108 1614.66,-89.5719"/>
<polygon fill="midnightblue" stroke="midnightblue" points="1617.69,-91.3489 1620.71,-81.1945 1612.02,-87.2472 1617.69,-91.3489"/>
</g>
<!-- Node27 -->
<g id="node28" class="node"><title>Node27</title>
<polygon fill="white" stroke="#bfbfbf" points="1710,-56.5 1710,-86.5 1842,-86.5 1842,-56.5 1710,-56.5"/>
<text text-anchor="start" x="1718" y="-74.5" font-family="FreeSans" font-size="10.00">boost/detail/no_exceptions</text>
<text text-anchor="middle" x="1776" y="-63.5" font-family="FreeSans" font-size="10.00">_support.hpp</text>
</g>
<!-- Node9&#45;&gt;Node27 -->
<g id="edge29" class="edge"><title>Node9&#45;&gt;Node27</title>
<path fill="none" stroke="midnightblue" d="M1622.53,-123.396C1652.32,-113.515 1692.32,-100.252 1724.01,-89.7429"/>
<polygon fill="midnightblue" stroke="midnightblue" points="1725.16,-93.0464 1733.55,-86.5765 1722.96,-86.4022 1725.16,-93.0464"/>
</g>
<!-- Node28 -->
<g id="node29" class="node"><title>Node28</title>
<polygon fill="white" stroke="#bfbfbf" points="1860,-62 1860,-81 1992,-81 1992,-62 1860,-62"/>
<text text-anchor="middle" x="1926" y="-69" font-family="FreeSans" font-size="10.00">boost/throw_exception.hpp</text>
</g>
<!-- Node9&#45;&gt;Node28 -->
<g id="edge30" class="edge"><title>Node9&#45;&gt;Node28</title>
<path fill="none" stroke="midnightblue" d="M1644.09,-125.684C1699.01,-115.526 1780.24,-100.434 1851,-87 1857.74,-85.7204 1864.82,-84.3658 1871.83,-83.0188"/>
<polygon fill="midnightblue" stroke="midnightblue" points="1872.83,-86.3893 1881.99,-81.0603 1871.51,-79.5158 1872.83,-86.3893"/>
</g>
<!-- Node37 -->
<g id="node38" class="node"><title>Node37</title>
<g id="a_node38"><a xlink:href="Coordinate_8ipp.html" target="_top" xlink:title="Coordinate.ipp">
<polygon fill="white" stroke="black" points="2388,-129 2388,-148 2466,-148 2466,-129 2388,-129"/>
<text text-anchor="middle" x="2427" y="-136" font-family="FreeSans" font-size="10.00">Coordinate.ipp</text>
</a>
</g>
</g>
<!-- Node36&#45;&gt;Node37 -->
<g id="edge42" class="edge"><title>Node36&#45;&gt;Node37</title>
<path fill="none" stroke="midnightblue" d="M2427,-195.734C2427,-186.183 2427,-170.618 2427,-158.283"/>
<polygon fill="midnightblue" stroke="midnightblue" points="2430.5,-158.127 2427,-148.127 2423.5,-158.127 2430.5,-158.127"/>
</g>
<!-- Node37&#45;&gt;Node3 -->
<g id="edge43" class="edge"><title>Node37&#45;&gt;Node3</title>
<path fill="none" stroke="midnightblue" d="M2387.88,-135.815C2317.5,-132.835 2164.84,-126.61 2036,-123 1614.09,-111.179 556.639,-132.293 137,-87 128.226,-86.053 118.938,-84.5793 110.035,-82.9273"/>
<polygon fill="midnightblue" stroke="midnightblue" points="110.679,-79.4871 100.194,-81.0049 109.337,-86.3573 110.679,-79.4871"/>
</g>
<!-- Node37&#45;&gt;Node4 -->
<g id="edge54" class="edge"><title>Node37&#45;&gt;Node4</title>
<path fill="none" stroke="midnightblue" d="M2454.85,-128.931C2462.9,-126.714 2471.74,-124.524 2480,-123 2640.74,-93.3277 2688.12,-129.296 2846,-87 2848.15,-86.4229 2850.35,-85.7149 2852.52,-84.9252"/>
<polygon fill="midnightblue" stroke="midnightblue" points="2853.87,-88.1528 2861.77,-81.0919 2851.19,-81.6858 2853.87,-88.1528"/>
</g>
<!-- Node37&#45;&gt;Node7 -->
<g id="edge44" class="edge"><title>Node37&#45;&gt;Node7</title>
<path fill="none" stroke="midnightblue" d="M2441.3,-128.734C2459.02,-117.867 2489.43,-99.2161 2510.34,-86.3931"/>
<polygon fill="midnightblue" stroke="midnightblue" points="2512.24,-89.3386 2518.93,-81.1273 2508.58,-83.3712 2512.24,-89.3386"/>
</g>
<!-- Node37&#45;&gt;Node8 -->
<g id="edge45" class="edge"><title>Node37&#45;&gt;Node8</title>
<path fill="none" stroke="midnightblue" d="M2411.36,-128.734C2391.79,-117.769 2358.08,-98.8809 2335.18,-86.0495"/>
<polygon fill="midnightblue" stroke="midnightblue" points="2336.83,-82.9623 2326.4,-81.1273 2333.41,-89.069 2336.83,-82.9623"/>
</g>
<!-- Node37&#45;&gt;Node13 -->
<g id="edge53" class="edge"><title>Node37&#45;&gt;Node13</title>
<path fill="none" stroke="midnightblue" d="M2387.98,-133.235C2331.78,-126.524 2225.09,-111.66 2137,-87 2134.41,-86.2752 2131.75,-85.4351 2129.11,-84.5316"/>
<polygon fill="midnightblue" stroke="midnightblue" points="2130.31,-81.2462 2119.72,-81.0743 2127.89,-87.8149 2130.31,-81.2462"/>
</g>
<!-- Node37&#45;&gt;Node14 -->
<g id="edge48" class="edge"><title>Node37&#45;&gt;Node14</title>
<path fill="none" stroke="midnightblue" d="M2387.94,-135.907C2320.41,-132.314 2178.01,-121.032 2063,-87 2061.12,-86.4437 2059.21,-85.7898 2057.31,-85.0729"/>
<polygon fill="midnightblue" stroke="midnightblue" points="2058.62,-81.8288 2048.05,-81.1211 2055.87,-88.2666 2058.62,-81.8288"/>
</g>
<!-- Node37&#45;&gt;Node29 -->
<g id="edge50" class="edge"><title>Node37&#45;&gt;Node29</title>
<path fill="none" stroke="midnightblue" d="M2466.24,-134.067C2573.52,-124.584 2866.55,-98.0099 2909,-87 2911.36,-86.3883 2913.77,-85.6392 2916.15,-84.8067"/>
<polygon fill="midnightblue" stroke="midnightblue" points="2917.68,-87.9691 2925.7,-81.0548 2915.12,-81.4539 2917.68,-87.9691"/>
</g>
<!-- Node37&#45;&gt;Node33 -->
<g id="edge55" class="edge"><title>Node37&#45;&gt;Node33</title>
<path fill="none" stroke="midnightblue" d="M2427,-128.734C2427,-119.183 2427,-103.618 2427,-91.2829"/>
<polygon fill="midnightblue" stroke="midnightblue" points="2430.5,-91.1273 2427,-81.1273 2423.5,-91.1273 2430.5,-91.1273"/>
</g>
<!-- Node38 -->
<g id="node39" class="node"><title>Node38</title>
<polygon fill="white" stroke="#bfbfbf" points="2653,-62 2653,-81 2781,-81 2781,-62 2653,-62"/>
<text text-anchor="middle" x="2717" y="-69" font-family="FreeSans" font-size="10.00">boost/range/functions.hpp</text>
</g>
<!-- Node37&#45;&gt;Node38 -->
<g id="edge46" class="edge"><title>Node37&#45;&gt;Node38</title>
<path fill="none" stroke="midnightblue" d="M2456.91,-128.995C2464.43,-126.947 2472.49,-124.825 2480,-123 2542.59,-107.783 2615.09,-92.7042 2663.25,-83.0412"/>
<polygon fill="midnightblue" stroke="midnightblue" points="2664.03,-86.4554 2673.15,-81.0634 2662.66,-79.5911 2664.03,-86.4554"/>
</g>
<!-- Node39 -->
<g id="node40" class="node"><title>Node39</title>
<polygon fill="white" stroke="#bfbfbf" points="2146.5,-62 2146.5,-81 2217.5,-81 2217.5,-62 2146.5,-62"/>
<text text-anchor="middle" x="2182" y="-69" font-family="FreeSans" font-size="10.00">Eigen/Dense</text>
</g>
<!-- Node37&#45;&gt;Node39 -->
<g id="edge47" class="edge"><title>Node37&#45;&gt;Node39</title>
<path fill="none" stroke="midnightblue" d="M2390.32,-128.987C2350.06,-119.47 2283.62,-103.253 2227,-87 2223.84,-86.0942 2220.58,-85.1174 2217.31,-84.114"/>
<polygon fill="midnightblue" stroke="midnightblue" points="2218.2,-80.7266 2207.61,-81.0681 2216.1,-87.4047 2218.2,-80.7266"/>
</g>
<!-- Node40 -->
<g id="node41" class="node"><title>Node40</title>
<polygon fill="white" stroke="#bfbfbf" points="2833,-0.5 2833,-19.5 2895,-19.5 2895,-0.5 2833,-0.5"/>
<text text-anchor="middle" x="2864" y="-7.5" font-family="FreeSans" font-size="10.00">type_traits</text>
</g>
<!-- Node37&#45;&gt;Node40 -->
<g id="edge49" class="edge"><title>Node37&#45;&gt;Node40</title>
<path fill="none" stroke="midnightblue" d="M2457.87,-128.963C2508.18,-115.025 2602.64,-88.7461 2606,-87 2625.34,-76.9421 2624.31,-65.3434 2644,-56 2702.16,-28.4022 2776.83,-17.6842 2822.51,-13.5526"/>
<polygon fill="midnightblue" stroke="midnightblue" points="2822.96,-17.027 2832.64,-12.7022 2822.38,-10.0516 2822.96,-17.027"/>
</g>
<!-- Node41 -->
<g id="node42" class="node"><title>Node41</title>
<polygon fill="white" stroke="#bfbfbf" points="2986,-62 2986,-81 3030,-81 3030,-62 2986,-62"/>
<text text-anchor="middle" x="3008" y="-69" font-family="FreeSans" font-size="10.00">cmath</text>
</g>
<!-- Node37&#45;&gt;Node41 -->
<g id="edge51" class="edge"><title>Node37&#45;&gt;Node41</title>
<path fill="none" stroke="midnightblue" d="M2466.04,-138.318C2557.06,-139.278 2789.78,-136.258 2976,-87 2978.16,-86.4297 2980.35,-85.7266 2982.52,-84.9402"/>
<polygon fill="midnightblue" stroke="midnightblue" points="2983.88,-88.169 2991.78,-81.113 2981.2,-81.7003 2983.88,-88.169"/>
</g>
<!-- Node42 -->
<g id="node43" class="node"><title>Node42</title>
<polygon fill="white" stroke="#bfbfbf" points="2799,-62 2799,-81 2837,-81 2837,-62 2799,-62"/>
<text text-anchor="middle" x="2818" y="-69" font-family="FreeSans" font-size="10.00">array</text>
</g>
<!-- Node37&#45;&gt;Node42 -->
<g id="edge52" class="edge"><title>Node37&#45;&gt;Node42</title>
<path fill="none" stroke="midnightblue" d="M2455.14,-128.949C2463.12,-126.758 2471.85,-124.578 2480,-123 2616.17,-96.6234 2657.36,-127.555 2790,-87 2791.47,-86.5498 2792.96,-86.0236 2794.44,-85.4433"/>
<polygon fill="midnightblue" stroke="midnightblue" points="2796.29,-88.4444 2803.89,-81.0666 2793.35,-82.0923 2796.29,-88.4444"/>
</g>
<!-- Node43&#45;&gt;Node9 -->
<g id="edge57" class="edge"><title>Node43&#45;&gt;Node9</title>
<path fill="none" stroke="midnightblue" d="M2021.77,-199.825C1945.23,-189.374 1758.79,-163.915 1654.23,-149.637"/>
<polygon fill="midnightblue" stroke="midnightblue" points="1654.45,-146.134 1644.06,-148.248 1653.5,-153.069 1654.45,-146.134"/>
</g>
<!-- Node43&#45;&gt;Node14 -->
<g id="edge59" class="edge"><title>Node43&#45;&gt;Node14</title>
<path fill="none" stroke="midnightblue" d="M2054.43,-195.839C2050.58,-174.674 2040.63,-119.948 2035.37,-91.0329"/>
<polygon fill="midnightblue" stroke="midnightblue" points="2038.78,-90.2337 2033.55,-81.0212 2031.89,-91.486 2038.78,-90.2337"/>
</g>
<!-- Node43&#45;&gt;Node39 -->
<g id="edge58" class="edge"><title>Node43&#45;&gt;Node39</title>
<path fill="none" stroke="midnightblue" d="M2064.27,-195.839C2085.1,-174.018 2139.98,-116.526 2166.8,-88.4221"/>
<polygon fill="midnightblue" stroke="midnightblue" points="2169.49,-90.6714 2173.87,-81.0212 2164.43,-85.8381 2169.49,-90.6714"/>
</g>
<!-- Node44&#45;&gt;Node14 -->
<g id="edge62" class="edge"><title>Node44&#45;&gt;Node14</title>
<path fill="none" stroke="midnightblue" d="M2011.24,-128.734C2014.84,-118.988 2020.75,-102.981 2025.34,-90.5318"/>
<polygon fill="midnightblue" stroke="midnightblue" points="2028.63,-91.7206 2028.81,-81.1273 2022.07,-89.2959 2028.63,-91.7206"/>
</g>
<!-- Node44&#45;&gt;Node39 -->
<g id="edge61" class="edge"><title>Node44&#45;&gt;Node39</title>
<path fill="none" stroke="midnightblue" d="M2027.62,-130.17C2057.27,-119.093 2113.83,-97.9644 2149.64,-84.5875"/>
<polygon fill="midnightblue" stroke="midnightblue" points="2151.01,-87.8131 2159.15,-81.0349 2148.56,-81.2557 2151.01,-87.8131"/>
</g>
<!-- Node46 -->
<g id="node47" class="node"><title>Node46</title>
<g id="a_node47"><a xlink:href="FeatureConcept_8ipp.html" target="_top" xlink:title="FeatureConcept.ipp">
<polygon fill="white" stroke="black" points="1358.5,-129 1358.5,-148 1459.5,-148 1459.5,-129 1358.5,-129"/>
<text text-anchor="middle" x="1409" y="-136" font-family="FreeSans" font-size="10.00">FeatureConcept.ipp</text>
</a>
</g>
</g>
<!-- Node45&#45;&gt;Node46 -->
<g id="edge64" class="edge"><title>Node45&#45;&gt;Node46</title>
<path fill="none" stroke="midnightblue" d="M1706.56,-195.931C1697.91,-193.884 1688.64,-191.779 1680,-190 1588.97,-171.244 1565.16,-172.123 1474,-154 1468.12,-152.83 1461.95,-151.539 1455.85,-150.223"/>
<polygon fill="midnightblue" stroke="midnightblue" points="1456.24,-146.725 1445.72,-148.004 1454.74,-153.563 1456.24,-146.725"/>
</g>
<!-- Node46&#45;&gt;Node3 -->
<g id="edge65" class="edge"><title>Node46&#45;&gt;Node3</title>
<path fill="none" stroke="midnightblue" d="M1376.48,-128.976C1366.16,-126.616 1354.67,-124.337 1344,-123 811.481,-56.2754 670.263,-147.488 137,-87 128.418,-86.0265 119.341,-84.5729 110.612,-82.9561"/>
<polygon fill="midnightblue" stroke="midnightblue" points="111.06,-79.4778 100.576,-81.0023 109.722,-86.3488 111.06,-79.4778"/>
</g>
<!-- Node48 -->
<g id="node49" class="node"><title>Node48</title>
<g id="a_node49"><a xlink:href="TaggedData_8ipp.html" target="_top" xlink:title="TaggedData.ipp">
<polygon fill="white" stroke="black" points="1150,-129 1150,-148 1234,-148 1234,-129 1150,-129"/>
<text text-anchor="middle" x="1192" y="-136" font-family="FreeSans" font-size="10.00">TaggedData.ipp</text>
</a>
</g>
</g>
<!-- Node47&#45;&gt;Node48 -->
<g id="edge67" class="edge"><title>Node47&#45;&gt;Node48</title>
<path fill="none" stroke="midnightblue" d="M1512.2,-191.707C1509.09,-191.12 1506.01,-190.547 1503,-190 1412.13,-173.478 1305.83,-156.782 1243.99,-147.329"/>
<polygon fill="midnightblue" stroke="midnightblue" points="1244.5,-143.866 1234.09,-145.818 1243.45,-150.786 1244.5,-143.866"/>
</g>
<!-- Node48&#45;&gt;Node3 -->
<g id="edge68" class="edge"><title>Node48&#45;&gt;Node3</title>
<path fill="none" stroke="midnightblue" d="M1149.93,-130.522C1131.58,-127.736 1109.77,-124.774 1090,-123 667.838,-85.1221 557.964,-136.444 137,-87 128.514,-86.0033 119.542,-84.5541 110.9,-82.9526"/>
<polygon fill="midnightblue" stroke="midnightblue" points="111.44,-79.4922 100.956,-81.0206 110.105,-86.3637 111.44,-79.4922"/>
</g>
<!-- Node50 -->
<g id="node51" class="node"><title>Node50</title>
<g id="a_node51"><a xlink:href="EigenMetafunction_8ipp.html" target="_top" xlink:title="EigenMetafunction.ipp">
<polygon fill="white" stroke="black" points="3048,-62 3048,-81 3160,-81 3160,-62 3048,-62"/>
<text text-anchor="middle" x="3104" y="-69" font-family="FreeSans" font-size="10.00">EigenMetafunction.ipp</text>
</a>
</g>
</g>
<!-- Node49&#45;&gt;Node50 -->
<g id="edge70" class="edge"><title>Node49&#45;&gt;Node50</title>
<path fill="none" stroke="midnightblue" d="M3104,-128.734C3104,-119.183 3104,-103.618 3104,-91.2829"/>
<polygon fill="midnightblue" stroke="midnightblue" points="3107.5,-91.1273 3104,-81.1273 3100.5,-91.1273 3107.5,-91.1273"/>
</g>
<!-- Node50&#45;&gt;Node40 -->
<g id="edge71" class="edge"><title>Node50&#45;&gt;Node40</title>
<path fill="none" stroke="midnightblue" d="M3069.61,-61.9751C3026.14,-51.1979 2951.39,-32.6665 2905,-21.1644"/>
<polygon fill="midnightblue" stroke="midnightblue" points="2905.82,-17.7611 2895.27,-18.7519 2904.13,-24.5554 2905.82,-17.7611"/>
</g>
<!-- Node52&#45;&gt;Node36 -->
<g id="edge80" class="edge"><title>Node52&#45;&gt;Node36</title>
<path fill="none" stroke="midnightblue" d="M2462.98,-257.475C2456.74,-248.638 2446.83,-234.589 2438.98,-223.475"/>
<polygon fill="midnightblue" stroke="midnightblue" points="2441.63,-221.16 2433.01,-215.009 2435.91,-225.197 2441.63,-221.16"/>
</g>
<!-- Node52&#45;&gt;Node43 -->
<g id="edge81" class="edge"><title>Node52&#45;&gt;Node43</title>
<path fill="none" stroke="midnightblue" d="M2437.96,-261.528C2365.38,-251.072 2184.41,-225 2100.29,-212.881"/>
<polygon fill="midnightblue" stroke="midnightblue" points="2100.68,-209.401 2090.28,-211.439 2099.68,-216.329 2100.68,-209.401"/>
</g>
<!-- Node53 -->
<g id="node54" class="node"><title>Node53</title>
<g id="a_node54"><a xlink:href="Distance_8ipp.html" target="_top" xlink:title="Distance.ipp">
<polygon fill="white" stroke="black" points="2871,-196 2871,-215 2941,-215 2941,-196 2871,-196"/>
<text text-anchor="middle" x="2906" y="-203" font-family="FreeSans" font-size="10.00">Distance.ipp</text>
</a>
</g>
</g>
<!-- Node52&#45;&gt;Node53 -->
<g id="edge74" class="edge"><title>Node52&#45;&gt;Node53</title>
<path fill="none" stroke="midnightblue" d="M2500.08,-261.769C2576.14,-251.413 2771.9,-224.759 2860.83,-212.65"/>
<polygon fill="midnightblue" stroke="midnightblue" points="2861.44,-216.099 2870.88,-211.282 2860.5,-209.163 2861.44,-216.099"/>
</g>
<!-- Node53&#45;&gt;Node29 -->
<g id="edge78" class="edge"><title>Node53&#45;&gt;Node29</title>
<path fill="none" stroke="midnightblue" d="M2891.63,-195.746C2878.78,-186.991 2860.81,-172.225 2853,-154 2847.57,-141.336 2846.04,-134.889 2853,-123 2859.8,-111.382 2889.64,-95.9995 2913.12,-85.2774"/>
<polygon fill="midnightblue" stroke="midnightblue" points="2914.68,-88.411 2922.38,-81.133 2911.83,-82.021 2914.68,-88.411"/>
</g>
<!-- Node53&#45;&gt;Node41 -->
<g id="edge77" class="edge"><title>Node53&#45;&gt;Node41</title>
<path fill="none" stroke="midnightblue" d="M2909.32,-195.777C2915.53,-180.138 2930.03,-146.746 2949,-123 2959.97,-109.269 2975.07,-96.4276 2987.24,-87.13"/>
<polygon fill="midnightblue" stroke="midnightblue" points="2989.54,-89.787 2995.49,-81.0242 2985.37,-84.1606 2989.54,-89.787"/>
</g>
<!-- Node53&#45;&gt;Node49 -->
<g id="edge79" class="edge"><title>Node53&#45;&gt;Node49</title>
<path fill="none" stroke="midnightblue" d="M2932.29,-195.869C2967.23,-184.4 3029.08,-164.094 3068.24,-151.24"/>
<polygon fill="midnightblue" stroke="midnightblue" points="3069.5,-154.508 3077.91,-148.064 3067.32,-147.857 3069.5,-154.508"/>
</g>
<!-- Node54 -->
<g id="node55" class="node"><title>Node54</title>
<polygon fill="white" stroke="#bfbfbf" points="2958.5,-129 2958.5,-148 3007.5,-148 3007.5,-129 2958.5,-129"/>
<text text-anchor="middle" x="2983" y="-136" font-family="FreeSans" font-size="10.00">cassert</text>
</g>
<!-- Node53&#45;&gt;Node54 -->
<g id="edge75" class="edge"><title>Node53&#45;&gt;Node54</title>
<path fill="none" stroke="midnightblue" d="M2916.38,-195.734C2928.85,-185.208 2949.97,-167.379 2965.09,-154.617"/>
<polygon fill="midnightblue" stroke="midnightblue" points="2967.4,-157.252 2972.78,-148.127 2962.88,-151.903 2967.4,-157.252"/>
</g>
<!-- Node55 -->
<g id="node56" class="node"><title>Node55</title>
<polygon fill="white" stroke="#bfbfbf" points="2862,-129 2862,-148 2902,-148 2902,-129 2862,-129"/>
<text text-anchor="middle" x="2882" y="-136" font-family="FreeSans" font-size="10.00">limits</text>
</g>
<!-- Node53&#45;&gt;Node55 -->
<g id="edge76" class="edge"><title>Node53&#45;&gt;Node55</title>
<path fill="none" stroke="midnightblue" d="M2902.76,-195.734C2899.16,-185.988 2893.25,-169.981 2888.66,-157.532"/>
<polygon fill="midnightblue" stroke="midnightblue" points="2891.93,-156.296 2885.19,-148.127 2885.37,-158.721 2891.93,-156.296"/>
</g>
</g>
</svg>
