<?xml version="1.0" encoding="UTF-8" standalone="no"?>
<!DOCTYPE svg PUBLIC "-//W3C//DTD SVG 1.1//EN"
 "http://www.w3.org/Graphics/SVG/1.1/DTD/svg11.dtd">
<!-- Generated by graphviz version 2.38.0 (20140413.2041)
 -->
<!-- Title: src/IO/SceneFeatureIO.ipp Pages: 1 -->
<!--zoomable 151 -->
<svg id="main" version="1.1" xmlns="http://www.w3.org/2000/svg" xmlns:xlink="http://www.w3.org/1999/xlink" xml:space="preserve" onload="init(evt)">
<style type="text/css"><![CDATA[
.edge:hover path { stroke: red; }
.edge:hover polygon { stroke: red; fill: red; }
]]></style>
<script type="text/javascript"><![CDATA[
var edges = document.getElementsByTagName('g');
if (edges && edges.length) {
  for (var i=0;i<edges.length;i++) {
    if (edges[i].id.substr(0,4)=='edge') {
      edges[i].setAttribute('class','edge');
    }
  }
}
]]></script>
        <defs>
                <circle id="rim" cx="0" cy="0" r="7"/>
                <circle id="rim2" cx="0" cy="0" r="3.5"/>
                <g id="zoomPlus">
                        <use xlink:href="#rim" fill="#404040">
                                <set attributeName="fill" to="#808080" begin="zoomplus.mouseover" end="zoomplus.mouseout"/>
                        </use>
                        <path d="M-4,0h8M0,-4v8" fill="none" stroke="white" stroke-width="1.5" pointer-events="none"/>
                </g>
                <g id="zoomMin">
                        <use xlink:href="#rim" fill="#404040">
                                <set attributeName="fill" to="#808080" begin="zoomminus.mouseover" end="zoomminus.mouseout"/>
                        </use>
                        <path d="M-4,0h8" fill="none" stroke="white" stroke-width="1.5" pointer-events="none"/>
                </g>
                <g id="dirArrow">
                        <path fill="none" stroke="white" stroke-width="1.5" d="M0,-3.0v7 M-2.5,-0.5L0,-3.0L2.5,-0.5"/>
                </g>
               <g id="resetDef">
                       <use xlink:href="#rim2" fill="#404040">
                               <set attributeName="fill" to="#808080" begin="reset.mouseover" end="reset.mouseout"/>
                       </use>
               </g>
        </defs>

<script type="text/javascript">
var viewWidth = 1025;
var viewHeight = 151;
var sectionId = 'dynsection-1';
</script>
<script xlink:href="svgpan.js"/>
<svg id="graph" class="graph">
<g id="viewport">
<title>src/IO/SceneFeatureIO.ipp</title>
<polygon fill="white" stroke="none" points="-4,4 -4,-147 1021,-147 1021,4 -4,4"/>
<!-- Node108 -->
<g id="node1" class="node"><title>Node108</title>
<polygon fill="#bfbfbf" stroke="black" points="467,-123.5 467,-142.5 600,-142.5 600,-123.5 467,-123.5"/>
<text text-anchor="middle" x="533.5" y="-130.5" font-family="FreeSans" font-size="10.00">src/IO/SceneFeatureIO.ipp</text>
</g>
<!-- Node109 -->
<g id="node2" class="node"><title>Node109</title>
<g id="a_node2"><a xlink:href="SceneFeatureIO_8h.html" target="_top" xlink:title="src/IO/SceneFeatureIO.h">
<polygon fill="white" stroke="black" points="471,-67.5 471,-86.5 596,-86.5 596,-67.5 471,-67.5"/>
<text text-anchor="middle" x="533.5" y="-74.5" font-family="FreeSans" font-size="10.00">src/IO/SceneFeatureIO.h</text>
</a>
</g>
</g>
<!-- Node108&#45;&gt;Node109 -->
<g id="edge1" class="edge"><title>Node108&#45;&gt;Node109</title>
<path fill="none" stroke="midnightblue" d="M533.5,-112.805C533.5,-103.91 533.5,-93.7798 533.5,-86.7511"/>
<polygon fill="midnightblue" stroke="midnightblue" points="530,-113.083 533.5,-123.083 537,-113.083 530,-113.083"/>
</g>
<!-- Node110 -->
<g id="node3" class="node"><title>Node110</title>
<g id="a_node3"><a xlink:href="AppGeometryEstimator32_8cpp.html" target="_top" xlink:title="src/Application/AppGeometry\lEstimator32.cpp">
<polygon fill="white" stroke="black" points="0,-0.5 0,-30.5 143,-30.5 143,-0.5 0,-0.5"/>
<text text-anchor="start" x="8" y="-18.5" font-family="FreeSans" font-size="10.00">src/Application/AppGeometry</text>
<text text-anchor="middle" x="71.5" y="-7.5" font-family="FreeSans" font-size="10.00">Estimator32.cpp</text>
</a>
</g>
</g>
<!-- Node109&#45;&gt;Node110 -->
<g id="edge2" class="edge"><title>Node109&#45;&gt;Node110</title>
<path fill="none" stroke="midnightblue" d="M460.738,-68.7857C383.747,-60.835 258.794,-47.0275 151.5,-31 148.848,-30.6038 146.148,-30.1865 143.423,-29.7535"/>
<polygon fill="midnightblue" stroke="midnightblue" points="460.507,-72.2803 470.812,-69.8209 461.222,-65.3169 460.507,-72.2803"/>
</g>
<!-- Node111 -->
<g id="node4" class="node"><title>Node111</title>
<g id="a_node4"><a xlink:href="AppGeometryEstimator33_8cpp.html" target="_top" xlink:title="src/Application/AppGeometry\lEstimator33.cpp">
<polygon fill="white" stroke="black" points="161,-0.5 161,-30.5 304,-30.5 304,-0.5 161,-0.5"/>
<text text-anchor="start" x="169" y="-18.5" font-family="FreeSans" font-size="10.00">src/Application/AppGeometry</text>
<text text-anchor="middle" x="232.5" y="-7.5" font-family="FreeSans" font-size="10.00">Estimator33.cpp</text>
</a>
</g>
</g>
<!-- Node109&#45;&gt;Node111 -->
<g id="edge3" class="edge"><title>Node109&#45;&gt;Node111</title>
<path fill="none" stroke="midnightblue" d="M480.259,-65.4757C431.059,-55.7501 357.602,-41.2295 303.44,-30.523"/>
<polygon fill="midnightblue" stroke="midnightblue" points="479.885,-68.9694 490.374,-67.4751 481.243,-62.1022 479.885,-68.9694"/>
</g>
<!-- Node112 -->
<g id="node5" class="node"><title>Node112</title>
<g id="a_node5"><a xlink:href="AppNodalCameraTracker_8cpp.html" target="_top" xlink:title="src/Application/AppNodal\lCameraTracker.cpp">
<polygon fill="white" stroke="black" points="322,-0.5 322,-30.5 449,-30.5 449,-0.5 322,-0.5"/>
<text text-anchor="start" x="330" y="-18.5" font-family="FreeSans" font-size="10.00">src/Application/AppNodal</text>
<text text-anchor="middle" x="385.5" y="-7.5" font-family="FreeSans" font-size="10.00">CameraTracker.cpp</text>
</a>
</g>
</g>
<!-- Node109&#45;&gt;Node112 -->
<g id="edge4" class="edge"><title>Node109&#45;&gt;Node112</title>
<path fill="none" stroke="midnightblue" d="M502.952,-63.7189C478.932,-54.062 445.452,-40.6023 420.381,-30.523"/>
<polygon fill="midnightblue" stroke="midnightblue" points="501.711,-66.9923 512.295,-67.4751 504.322,-60.4975 501.711,-66.9923"/>
</g>
<!-- Node113 -->
<g id="node6" class="node"><title>Node113</title>
<g id="a_node6"><a xlink:href="AppSparseModelBuilder_8cpp.html" target="_top" xlink:title="src/Application/AppSparse\lModelBuilder.cpp">
<polygon fill="white" stroke="black" points="467.5,-0.5 467.5,-30.5 599.5,-30.5 599.5,-0.5 467.5,-0.5"/>
<text text-anchor="start" x="475.5" y="-18.5" font-family="FreeSans" font-size="10.00">src/Application/AppSparse</text>
<text text-anchor="middle" x="533.5" y="-7.5" font-family="FreeSans" font-size="10.00">ModelBuilder.cpp</text>
</a>
</g>
</g>
<!-- Node109&#45;&gt;Node113 -->
<g id="edge5" class="edge"><title>Node109&#45;&gt;Node113</title>
<path fill="none" stroke="midnightblue" d="M533.5,-57.2349C533.5,-48.5864 533.5,-38.4969 533.5,-30.523"/>
<polygon fill="midnightblue" stroke="midnightblue" points="530,-57.4751 533.5,-67.4751 537,-57.4751 530,-57.4751"/>
</g>
<!-- Node114 -->
<g id="node7" class="node"><title>Node114</title>
<g id="a_node7"><a xlink:href="AppSparseUnitSphereBuilder_8cpp.html" target="_top" xlink:title="src/Application/AppSparse\lUnitSphereBuilder.cpp">
<polygon fill="white" stroke="black" points="617.5,-0.5 617.5,-30.5 749.5,-30.5 749.5,-0.5 617.5,-0.5"/>
<text text-anchor="start" x="625.5" y="-18.5" font-family="FreeSans" font-size="10.00">src/Application/AppSparse</text>
<text text-anchor="middle" x="683.5" y="-7.5" font-family="FreeSans" font-size="10.00">UnitSphereBuilder.cpp</text>
</a>
</g>
</g>
<!-- Node109&#45;&gt;Node114 -->
<g id="edge6" class="edge"><title>Node109&#45;&gt;Node114</title>
<path fill="none" stroke="midnightblue" d="M564.461,-63.7189C588.806,-54.062 622.738,-40.6023 648.148,-30.523"/>
<polygon fill="midnightblue" stroke="midnightblue" points="562.996,-60.5345 554.991,-67.4751 565.577,-67.0413 562.996,-60.5345"/>
</g>
<!-- Node115 -->
<g id="node8" class="node"><title>Node115</title>
<g id="a_node8"><a xlink:href="SceneFeatureIO_8cpp.html" target="_top" xlink:title="src/IO/SceneFeatureIO.cpp">
<polygon fill="white" stroke="black" points="767.5,-6 767.5,-25 903.5,-25 903.5,-6 767.5,-6"/>
<text text-anchor="middle" x="835.5" y="-13" font-family="FreeSans" font-size="10.00">src/IO/SceneFeatureIO.cpp</text>
</a>
</g>
</g>
<!-- Node109&#45;&gt;Node115 -->
<g id="edge7" class="edge"><title>Node109&#45;&gt;Node115</title>
<path fill="none" stroke="midnightblue" d="M586.926,-65.474C645.455,-53.9427 738.191,-35.6719 792.311,-25.0091"/>
<polygon fill="midnightblue" stroke="midnightblue" points="585.904,-62.108 576.769,-67.4751 587.257,-68.976 585.904,-62.108"/>
</g>
<!-- Node116 -->
<g id="node9" class="node"><title>Node116</title>
<g id="a_node9"><a xlink:href="TestIO_8cpp.html" target="_top" xlink:title="src/IO/TestIO.cpp">
<polygon fill="white" stroke="black" points="922,-6 922,-25 1017,-25 1017,-6 922,-6"/>
<text text-anchor="middle" x="969.5" y="-13" font-family="FreeSans" font-size="10.00">src/IO/TestIO.cpp</text>
</a>
</g>
</g>
<!-- Node109&#45;&gt;Node116 -->
<g id="edge8" class="edge"><title>Node109&#45;&gt;Node116</title>
<path fill="none" stroke="midnightblue" d="M606.277,-70.2097C682.893,-63.4498 806.821,-50.6281 912.5,-31 921.134,-29.3964 930.399,-27.2338 938.898,-25.0688"/>
<polygon fill="midnightblue" stroke="midnightblue" points="605.907,-66.7286 596.249,-71.0836 606.515,-73.7021 605.907,-66.7286"/>
</g>
</g>
</svg>
        <g id="navigator" transform="translate(0 0)" fill="#404254">
                <rect fill="#f2f5e9" fill-opacity="0.5" stroke="#606060" stroke-width=".5" x="0" y="0" width="60" height="60"/>
                <use id="zoomplus" xlink:href="#zoomPlus" x="17" y="9" onmousedown="handleZoom(evt,'in')"/>
                <use id="zoomminus" xlink:href="#zoomMin" x="42" y="9" onmousedown="handleZoom(evt,'out')"/>
                <use id="reset" xlink:href="#resetDef" x="30" y="36" onmousedown="handleReset()"/>
                <g id="arrowUp" xlink:href="#dirArrow" transform="translate(30 24)" onmousedown="handlePan(0,-1)">
                  <use xlink:href="#rim" fill="#404040">
                        <set attributeName="fill" to="#808080" begin="arrowUp.mouseover" end="arrowUp.mouseout"/>
                  </use>
                  <path fill="none" stroke="white" stroke-width="1.5" d="M0,-3.0v7 M-2.5,-0.5L0,-3.0L2.5,-0.5"/>
                </g>
                <g id="arrowRight" xlink:href="#dirArrow" transform="rotate(90) translate(36 -43)" onmousedown="handlePan(1,0)">
                  <use xlink:href="#rim" fill="#404040">
                        <set attributeName="fill" to="#808080" begin="arrowRight.mouseover" end="arrowRight.mouseout"/>
                  </use>
                  <path fill="none" stroke="white" stroke-width="1.5" d="M0,-3.0v7 M-2.5,-0.5L0,-3.0L2.5,-0.5"/>
                </g>
                <g id="arrowDown" xlink:href="#dirArrow" transform="rotate(180) translate(-30 -48)" onmousedown="handlePan(0,1)">
                  <use xlink:href="#rim" fill="#404040">
                        <set attributeName="fill" to="#808080" begin="arrowDown.mouseover" end="arrowDown.mouseout"/>
                  </use>
                  <path fill="none" stroke="white" stroke-width="1.5" d="M0,-3.0v7 M-2.5,-0.5L0,-3.0L2.5,-0.5"/>
                </g>
                <g id="arrowLeft" xlink:href="#dirArrow" transform="rotate(270) translate(-36 17)" onmousedown="handlePan(-1,0)">
                  <use xlink:href="#rim" fill="#404040">
                        <set attributeName="fill" to="#808080" begin="arrowLeft.mouseover" end="arrowLeft.mouseout"/>
                  </use>
                  <path fill="none" stroke="white" stroke-width="1.5" d="M0,-3.0v7 M-2.5,-0.5L0,-3.0L2.5,-0.5"/>
                </g>
        </g>
        <svg viewBox="0 0 15 15" width="100%" height="30px" preserveAspectRatio="xMaxYMin meet">
         <g id="arrow_out" transform="scale(0.3 0.3)">
          <a xlink:href="SceneFeatureIO_8ipp__dep__incl_org.svg" target="_base">
           <rect id="button" ry="5" rx="5" y="6" x="6" height="38" width="38"
                fill="#f2f5e9" fill-opacity="0.5" stroke="#606060" stroke-width="1.0"/>
           <path id="arrow"
             d="M 11.500037,31.436501 C 11.940474,20.09759 22.043105,11.32322 32.158766,21.979434 L 37.068811,17.246167 C 37.068811,17.246167 37.088388,32 37.088388,32 L 22.160133,31.978069 C 22.160133,31.978069 26.997745,27.140456 26.997745,27.140456 C 18.528582,18.264221 13.291696,25.230495 11.500037,31.436501 z"
             style="fill:#404040;"/>
          </a>
         </g>
        </svg>
</svg>
