<?xml version="1.0" encoding="UTF-8" standalone="no"?>
<!DOCTYPE svg PUBLIC "-//W3C//DTD SVG 1.1//EN"
 "http://www.w3.org/Graphics/SVG/1.1/DTD/svg11.dtd">
<!-- Generated by graphviz version 2.38.0 (20140413.2041)
 -->
<!-- Title: src/Metrics/Similarity.ipp Pages: 1 -->
<svg width="217pt" height="207pt"
 viewBox="0.00 0.00 216.50 207.00" xmlns="http://www.w3.org/2000/svg" xmlns:xlink="http://www.w3.org/1999/xlink">
<g id="graph0" class="graph" transform="scale(1 1) rotate(0) translate(4 203)">
<title>src/Metrics/Similarity.ipp</title>
<polygon fill="white" stroke="none" points="-4,4 -4,-203 212.5,-203 212.5,4 -4,4"/>
<!-- Node0 -->
<g id="node1" class="node"><title>Node0</title>
<polygon fill="#bfbfbf" stroke="black" points="0,-179.5 0,-198.5 123,-198.5 123,-179.5 0,-179.5"/>
<text text-anchor="middle" x="61.5" y="-186.5" font-family="FreeSans" font-size="10.00">src/Metrics/Similarity.ipp</text>
</g>
<!-- Node1 -->
<g id="node2" class="node"><title>Node1</title>
<polygon fill="white" stroke="#bfbfbf" points="2.5,-0.5 2.5,-19.5 130.5,-19.5 130.5,-0.5 2.5,-0.5"/>
<text text-anchor="middle" x="66.5" y="-7.5" font-family="FreeSans" font-size="10.00">boost/concept_check.hpp</text>
</g>
<!-- Node0&#45;&gt;Node1 -->
<g id="edge1" class="edge"><title>Node0&#45;&gt;Node1</title>
<path fill="none" stroke="midnightblue" d="M56.0669,-179.479C43.2282,-158.218 13.2733,-101.285 29.5,-56 33.4406,-45.0027 41.357,-34.7688 48.8595,-26.8479"/>
<polygon fill="midnightblue" stroke="midnightblue" points="51.3923,-29.2659 56.0615,-19.7555 46.4806,-24.2784 51.3923,-29.2659"/>
</g>
<!-- Node2 -->
<g id="node3" class="node"><title>Node2</title>
<g id="a_node3"><a xlink:href="InvertibleUnaryFunctionConcept_8h.html" target="_top" xlink:title="../Numeric/InvertibleUnary\lFunctionConcept.h">
<polygon fill="white" stroke="black" points="49,-112.5 49,-142.5 178,-142.5 178,-112.5 49,-112.5"/>
<text text-anchor="start" x="57" y="-130.5" font-family="FreeSans" font-size="10.00">../Numeric/InvertibleUnary</text>
<text text-anchor="middle" x="113.5" y="-119.5" font-family="FreeSans" font-size="10.00">FunctionConcept.h</text>
</a>
</g>
</g>
<!-- Node0&#45;&gt;Node2 -->
<g id="edge2" class="edge"><title>Node0&#45;&gt;Node2</title>
<path fill="none" stroke="midnightblue" d="M68.9503,-179.475C75.5981,-171.869 85.6217,-160.399 94.4785,-150.265"/>
<polygon fill="midnightblue" stroke="midnightblue" points="97.2994,-152.356 101.245,-142.523 92.0286,-147.749 97.2994,-152.356"/>
</g>
<!-- Node3 -->
<g id="node4" class="node"><title>Node3</title>
<g id="a_node4"><a xlink:href="InvertibleUnaryFunctionConcept_8ipp.html" target="_top" xlink:title="InvertibleUnaryFunctionConcept.ipp">
<polygon fill="white" stroke="black" points="38.5,-56.5 38.5,-75.5 208.5,-75.5 208.5,-56.5 38.5,-56.5"/>
<text text-anchor="middle" x="123.5" y="-63.5" font-family="FreeSans" font-size="10.00">InvertibleUnaryFunctionConcept.ipp</text>
</a>
</g>
</g>
<!-- Node2&#45;&gt;Node3 -->
<g id="edge3" class="edge"><title>Node2&#45;&gt;Node3</title>
<path fill="none" stroke="midnightblue" d="M115.87,-112.399C117.218,-104.377 118.923,-94.2328 120.379,-85.569"/>
<polygon fill="midnightblue" stroke="midnightblue" points="123.839,-86.0996 122.045,-75.6578 116.936,-84.9393 123.839,-86.0996"/>
</g>
<!-- Node3&#45;&gt;Node1 -->
<g id="edge4" class="edge"><title>Node3&#45;&gt;Node1</title>
<path fill="none" stroke="midnightblue" d="M114.342,-56.324C105.999,-48.4196 93.4676,-36.5482 83.3231,-26.9377"/>
<polygon fill="midnightblue" stroke="midnightblue" points="85.4913,-24.1705 75.8247,-19.8339 80.6771,-29.2522 85.4913,-24.1705"/>
</g>
</g>
</svg>
