<?xml version="1.0" encoding="UTF-8" standalone="no"?>
<!DOCTYPE svg PUBLIC "-//W3C//DTD SVG 1.1//EN"
 "http://www.w3.org/Graphics/SVG/1.1/DTD/svg11.dtd">
<!-- Generated by graphviz version 2.38.0 (20140413.2041)
 -->
<!-- Title: src/GeometryEstimationPipeline/SparseUnitSphereReconstructionPipeline.h Pages: 1 -->
<!--zoomable 240 -->
<svg id="main" version="1.1" xmlns="http://www.w3.org/2000/svg" xmlns:xlink="http://www.w3.org/1999/xlink" xml:space="preserve" onload="init(evt)">
<style type="text/css"><![CDATA[
.edge:hover path { stroke: red; }
.edge:hover polygon { stroke: red; fill: red; }
]]></style>
<script type="text/javascript"><![CDATA[
var edges = document.getElementsByTagName('g');
if (edges && edges.length) {
  for (var i=0;i<edges.length;i++) {
    if (edges[i].id.substr(0,4)=='edge') {
      edges[i].setAttribute('class','edge');
    }
  }
}
]]></script>
        <defs>
                <circle id="rim" cx="0" cy="0" r="7"/>
                <circle id="rim2" cx="0" cy="0" r="3.5"/>
                <g id="zoomPlus">
                        <use xlink:href="#rim" fill="#404040">
                                <set attributeName="fill" to="#808080" begin="zoomplus.mouseover" end="zoomplus.mouseout"/>
                        </use>
                        <path d="M-4,0h8M0,-4v8" fill="none" stroke="white" stroke-width="1.5" pointer-events="none"/>
                </g>
                <g id="zoomMin">
                        <use xlink:href="#rim" fill="#404040">
                                <set attributeName="fill" to="#808080" begin="zoomminus.mouseover" end="zoomminus.mouseout"/>
                        </use>
                        <path d="M-4,0h8" fill="none" stroke="white" stroke-width="1.5" pointer-events="none"/>
                </g>
                <g id="dirArrow">
                        <path fill="none" stroke="white" stroke-width="1.5" d="M0,-3.0v7 M-2.5,-0.5L0,-3.0L2.5,-0.5"/>
                </g>
               <g id="resetDef">
                       <use xlink:href="#rim2" fill="#404040">
                               <set attributeName="fill" to="#808080" begin="reset.mouseover" end="reset.mouseout"/>
                       </use>
               </g>
        </defs>

<script type="text/javascript">
var viewWidth = 753;
var viewHeight = 240;
var sectionId = 'dynsection-1';
</script>
<script xlink:href="svgpan.js"/>
<svg id="graph" class="graph">
<g id="viewport">
<title>src/GeometryEstimationPipeline/SparseUnitSphereReconstructionPipeline.h</title>
<polygon fill="white" stroke="none" points="-4,4 -4,-236 748.5,-236 748.5,4 -4,4"/>
<!-- Node165 -->
<g id="node1" class="node"><title>Node165</title>
<polygon fill="#bfbfbf" stroke="black" points="218,-201.5 218,-231.5 424,-231.5 424,-201.5 218,-201.5"/>
<text text-anchor="start" x="226" y="-219.5" font-family="FreeSans" font-size="10.00">src/GeometryEstimationPipeline</text>
<text text-anchor="middle" x="321" y="-208.5" font-family="FreeSans" font-size="10.00">/SparseUnitSphereReconstructionPipeline.h</text>
</g>
<!-- Node166 -->
<g id="node2" class="node"><title>Node166</title>
<g id="a_node2"><a xlink:href="AppSparseUnitSphereBuilder_8cpp.html" target="_top" xlink:title="src/Application/AppSparse\lUnitSphereBuilder.cpp">
<polygon fill="white" stroke="black" points="0,-0.5 0,-30.5 132,-30.5 132,-0.5 0,-0.5"/>
<text text-anchor="start" x="8" y="-18.5" font-family="FreeSans" font-size="10.00">src/Application/AppSparse</text>
<text text-anchor="middle" x="66" y="-7.5" font-family="FreeSans" font-size="10.00">UnitSphereBuilder.cpp</text>
</a>
</g>
</g>
<!-- Node165&#45;&gt;Node166 -->
<g id="edge1" class="edge"><title>Node165&#45;&gt;Node166</title>
<path fill="none" stroke="midnightblue" d="M207.89,-203.783C155.99,-195.998 102.187,-183.687 85,-165 50.3376,-127.313 57.7714,-59.6904 63.0391,-30.5221"/>
<polygon fill="midnightblue" stroke="midnightblue" points="207.492,-207.262 217.891,-205.232 208.496,-200.334 207.492,-207.262"/>
</g>
<!-- Node167 -->
<g id="node3" class="node"><title>Node167</title>
<g id="a_node3"><a xlink:href="InterfaceSparseUnitSphereReconstruction_8ipp.html" target="_top" xlink:title="src/ApplicationInterface\l/InterfaceSparseUnitSphereReconstruction.ipp">
<polygon fill="white" stroke="black" points="94,-134.5 94,-164.5 312,-164.5 312,-134.5 94,-134.5"/>
<text text-anchor="start" x="102" y="-152.5" font-family="FreeSans" font-size="10.00">src/ApplicationInterface</text>
<text text-anchor="middle" x="203" y="-141.5" font-family="FreeSans" font-size="10.00">/InterfaceSparseUnitSphereReconstruction.ipp</text>
</a>
</g>
</g>
<!-- Node165&#45;&gt;Node167 -->
<g id="edge2" class="edge"><title>Node165&#45;&gt;Node167</title>
<path fill="none" stroke="midnightblue" d="M286.39,-196.435C267.877,-186.237 245.475,-173.897 228.554,-164.577"/>
<polygon fill="midnightblue" stroke="midnightblue" points="284.948,-199.637 295.396,-201.396 288.325,-193.505 284.948,-199.637"/>
</g>
<!-- Node170 -->
<g id="node6" class="node"><title>Node170</title>
<g id="a_node6"><a xlink:href="SparseUnitSphereReconstructionPipeline_8cpp.html" target="_top" xlink:title="src/GeometryEstimationPipeline\l/SparseUnitSphereReconstructionPipeline.cpp">
<polygon fill="white" stroke="black" points="330.5,-134.5 330.5,-164.5 547.5,-164.5 547.5,-134.5 330.5,-134.5"/>
<text text-anchor="start" x="338.5" y="-152.5" font-family="FreeSans" font-size="10.00">src/GeometryEstimationPipeline</text>
<text text-anchor="middle" x="439" y="-141.5" font-family="FreeSans" font-size="10.00">/SparseUnitSphereReconstructionPipeline.cpp</text>
</a>
</g>
</g>
<!-- Node165&#45;&gt;Node170 -->
<g id="edge6" class="edge"><title>Node165&#45;&gt;Node170</title>
<path fill="none" stroke="midnightblue" d="M355.61,-196.435C374.123,-186.237 396.525,-173.897 413.446,-164.577"/>
<polygon fill="midnightblue" stroke="midnightblue" points="353.675,-193.505 346.604,-201.396 357.052,-199.637 353.675,-193.505"/>
</g>
<!-- Node171 -->
<g id="node7" class="node"><title>Node171</title>
<g id="a_node7"><a xlink:href="TestGeometryEstimationPipeline_8cpp.html" target="_top" xlink:title="src/GeometryEstimationPipeline\l/TestGeometryEstimationPipeline.cpp">
<polygon fill="white" stroke="black" points="565.5,-134.5 565.5,-164.5 744.5,-164.5 744.5,-134.5 565.5,-134.5"/>
<text text-anchor="start" x="573.5" y="-152.5" font-family="FreeSans" font-size="10.00">src/GeometryEstimationPipeline</text>
<text text-anchor="middle" x="655" y="-141.5" font-family="FreeSans" font-size="10.00">/TestGeometryEstimationPipeline.cpp</text>
</a>
</g>
</g>
<!-- Node165&#45;&gt;Node171 -->
<g id="edge7" class="edge"><title>Node165&#45;&gt;Node171</title>
<path fill="none" stroke="midnightblue" d="M403.134,-199.516C458.163,-188.807 529.935,-174.839 582.78,-164.555"/>
<polygon fill="midnightblue" stroke="midnightblue" points="402.209,-196.13 393.062,-201.476 403.546,-203.001 402.209,-196.13"/>
</g>
<!-- Node168 -->
<g id="node4" class="node"><title>Node168</title>
<g id="a_node4"><a xlink:href="InterfaceSparseUnitSphereReconstruction_8h.html" target="_top" xlink:title="src/ApplicationInterface\l/InterfaceSparseUnitSphereReconstruction.h">
<polygon fill="white" stroke="black" points="98,-67.5 98,-97.5 308,-97.5 308,-67.5 98,-67.5"/>
<text text-anchor="start" x="106" y="-85.5" font-family="FreeSans" font-size="10.00">src/ApplicationInterface</text>
<text text-anchor="middle" x="203" y="-74.5" font-family="FreeSans" font-size="10.00">/InterfaceSparseUnitSphereReconstruction.h</text>
</a>
</g>
</g>
<!-- Node167&#45;&gt;Node168 -->
<g id="edge3" class="edge"><title>Node167&#45;&gt;Node168</title>
<path fill="none" stroke="midnightblue" d="M203,-124.108C203,-115.154 203,-105.323 203,-97.5765"/>
<polygon fill="midnightblue" stroke="midnightblue" points="199.5,-124.396 203,-134.396 206.5,-124.396 199.5,-124.396"/>
</g>
<!-- Node168&#45;&gt;Node166 -->
<g id="edge4" class="edge"><title>Node168&#45;&gt;Node166</title>
<path fill="none" stroke="midnightblue" d="M163.991,-62.9921C142.276,-52.6892 115.673,-40.0677 95.6689,-30.5765"/>
<polygon fill="midnightblue" stroke="midnightblue" points="162.738,-66.2715 173.273,-67.396 165.739,-59.9472 162.738,-66.2715"/>
</g>
<!-- Node169 -->
<g id="node5" class="node"><title>Node169</title>
<g id="a_node5"><a xlink:href="InterfaceSparseUnitSphereReconstruction_8cpp.html" target="_top" xlink:title="src/ApplicationInterface\l/InterfaceSparseUnitSphereReconstruction.cpp">
<polygon fill="white" stroke="black" points="150.5,-0.5 150.5,-30.5 371.5,-30.5 371.5,-0.5 150.5,-0.5"/>
<text text-anchor="start" x="158.5" y="-18.5" font-family="FreeSans" font-size="10.00">src/ApplicationInterface</text>
<text text-anchor="middle" x="261" y="-7.5" font-family="FreeSans" font-size="10.00">/InterfaceSparseUnitSphereReconstruction.cpp</text>
</a>
</g>
</g>
<!-- Node168&#45;&gt;Node169 -->
<g id="edge5" class="edge"><title>Node168&#45;&gt;Node169</title>
<path fill="none" stroke="midnightblue" d="M222.42,-59.7362C231.002,-50.119 240.844,-39.0888 248.439,-30.5765"/>
<polygon fill="midnightblue" stroke="midnightblue" points="219.632,-57.6043 215.585,-67.396 224.855,-62.2648 219.632,-57.6043"/>
</g>
</g>
</svg>
        <g id="navigator" transform="translate(0 0)" fill="#404254">
                <rect fill="#f2f5e9" fill-opacity="0.5" stroke="#606060" stroke-width=".5" x="0" y="0" width="60" height="60"/>
                <use id="zoomplus" xlink:href="#zoomPlus" x="17" y="9" onmousedown="handleZoom(evt,'in')"/>
                <use id="zoomminus" xlink:href="#zoomMin" x="42" y="9" onmousedown="handleZoom(evt,'out')"/>
                <use id="reset" xlink:href="#resetDef" x="30" y="36" onmousedown="handleReset()"/>
                <g id="arrowUp" xlink:href="#dirArrow" transform="translate(30 24)" onmousedown="handlePan(0,-1)">
                  <use xlink:href="#rim" fill="#404040">
                        <set attributeName="fill" to="#808080" begin="arrowUp.mouseover" end="arrowUp.mouseout"/>
                  </use>
                  <path fill="none" stroke="white" stroke-width="1.5" d="M0,-3.0v7 M-2.5,-0.5L0,-3.0L2.5,-0.5"/>
                </g>
                <g id="arrowRight" xlink:href="#dirArrow" transform="rotate(90) translate(36 -43)" onmousedown="handlePan(1,0)">
                  <use xlink:href="#rim" fill="#404040">
                        <set attributeName="fill" to="#808080" begin="arrowRight.mouseover" end="arrowRight.mouseout"/>
                  </use>
                  <path fill="none" stroke="white" stroke-width="1.5" d="M0,-3.0v7 M-2.5,-0.5L0,-3.0L2.5,-0.5"/>
                </g>
                <g id="arrowDown" xlink:href="#dirArrow" transform="rotate(180) translate(-30 -48)" onmousedown="handlePan(0,1)">
                  <use xlink:href="#rim" fill="#404040">
                        <set attributeName="fill" to="#808080" begin="arrowDown.mouseover" end="arrowDown.mouseout"/>
                  </use>
                  <path fill="none" stroke="white" stroke-width="1.5" d="M0,-3.0v7 M-2.5,-0.5L0,-3.0L2.5,-0.5"/>
                </g>
                <g id="arrowLeft" xlink:href="#dirArrow" transform="rotate(270) translate(-36 17)" onmousedown="handlePan(-1,0)">
                  <use xlink:href="#rim" fill="#404040">
                        <set attributeName="fill" to="#808080" begin="arrowLeft.mouseover" end="arrowLeft.mouseout"/>
                  </use>
                  <path fill="none" stroke="white" stroke-width="1.5" d="M0,-3.0v7 M-2.5,-0.5L0,-3.0L2.5,-0.5"/>
                </g>
        </g>
        <svg viewBox="0 0 15 15" width="100%" height="30px" preserveAspectRatio="xMaxYMin meet">
         <g id="arrow_out" transform="scale(0.3 0.3)">
          <a xlink:href="SparseUnitSphereReconstructionPipeline_8h__dep__incl_org.svg" target="_base">
           <rect id="button" ry="5" rx="5" y="6" x="6" height="38" width="38"
                fill="#f2f5e9" fill-opacity="0.5" stroke="#606060" stroke-width="1.0"/>
           <path id="arrow"
             d="M 11.500037,31.436501 C 11.940474,20.09759 22.043105,11.32322 32.158766,21.979434 L 37.068811,17.246167 C 37.068811,17.246167 37.088388,32 37.088388,32 L 22.160133,31.978069 C 22.160133,31.978069 26.997745,27.140456 26.997745,27.140456 C 18.528582,18.264221 13.291696,25.230495 11.500037,31.436501 z"
             style="fill:#404040;"/>
          </a>
         </g>
        </svg>
</svg>
