<?xml version="1.0" encoding="UTF-8" standalone="no"?>
<!DOCTYPE svg PUBLIC "-//W3C//DTD SVG 1.1//EN"
 "http://www.w3.org/Graphics/SVG/1.1/DTD/svg11.dtd">
<!-- Generated by graphviz version 2.38.0 (20140413.2041)
 -->
<!-- Title: SeeSawN::GeometryN::GeometryEstimationPipelineDiagnosticsC Pages: 1 -->
<svg width="1814pt" height="1024pt"
 viewBox="0.00 0.00 1814.15 1024.00" xmlns="http://www.w3.org/2000/svg" xmlns:xlink="http://www.w3.org/1999/xlink">
<g id="graph0" class="graph" transform="scale(1 1) rotate(0) translate(4 1020)">
<title>SeeSawN::GeometryN::GeometryEstimationPipelineDiagnosticsC</title>
<polygon fill="white" stroke="none" points="-4,4 -4,-1020 1810.15,-1020 1810.15,4 -4,4"/>
<!-- Node1 -->
<g id="node1" class="node"><title>Node1</title>
<polygon fill="#bfbfbf" stroke="black" points="907.655,-0.5 907.655,-90.5 1054.65,-90.5 1054.65,-0.5 907.655,-0.5"/>
<text text-anchor="start" x="915.655" y="-78.5" font-family="FreeSans" font-size="10.00">SeeSawN::GeometryN</text>
<text text-anchor="start" x="915.655" y="-67.5" font-family="FreeSans" font-size="10.00">::GeometryEstimationPipeline</text>
<text text-anchor="middle" x="981.155" y="-56.5" font-family="FreeSans" font-size="10.00">DiagnosticsC</text>
<polyline fill="none" stroke="black" points="907.655,-49.5 1054.65,-49.5 "/>
<text text-anchor="middle" x="981.155" y="-37.5" font-family="FreeSans" font-size="10.00"> </text>
<polyline fill="none" stroke="black" points="907.655,-30.5 1054.65,-30.5 "/>
<text text-anchor="start" x="915.655" y="-18.5" font-family="FreeSans" font-size="10.00">+ GeometryEstimationPipeline</text>
<text text-anchor="start" x="915.655" y="-7.5" font-family="FreeSans" font-size="10.00">DiagnosticsC()</text>
</g>
<!-- Node2 -->
<g id="node2" class="node"><title>Node2</title>
<polygon fill="white" stroke="#bfbfbf" points="179.655,-748.5 179.655,-805.5 224.655,-805.5 224.655,-748.5 179.655,-748.5"/>
<text text-anchor="middle" x="202.155" y="-793.5" font-family="FreeSans" font-size="10.00">double</text>
<polyline fill="none" stroke="#bfbfbf" points="179.655,-786.5 224.655,-786.5 "/>
<text text-anchor="middle" x="202.155" y="-774.5" font-family="FreeSans" font-size="10.00"> </text>
<polyline fill="none" stroke="#bfbfbf" points="179.655,-767.5 224.655,-767.5 "/>
<text text-anchor="middle" x="202.155" y="-755.5" font-family="FreeSans" font-size="10.00"> </text>
</g>
<!-- Node2&#45;&gt;Node1 -->
<g id="edge1" class="edge"><title>Node2&#45;&gt;Node1</title>
<path fill="none" stroke="#404040" d="M183.628,-748.241C180.58,-742.435 177.862,-736.19 176.155,-730 166.225,-694 174.599,-683.341 174.155,-646 172.832,-534.87 161.357,-487.833 233.155,-403 351.786,-262.829 385.022,-218.327 550.155,-138 661.954,-83.6164 805.52,-61.4057 895.452,-52.4367"/>
<polygon fill="none" stroke="#404040" points="895.56,-52.4265 901.151,-47.8725 907.506,-51.282 901.914,-55.836 895.56,-52.4265"/>
<text text-anchor="middle" x="292.655" y="-377" font-family="FreeSans" font-size="10.00"> +error</text>
<text text-anchor="middle" x="292.655" y="-366" font-family="FreeSans" font-size="10.00">+meanError</text>
</g>
<!-- Node7 -->
<g id="node7" class="node"><title>Node7</title>
<g id="a_node7"><a xlink:href="structSeeSawN_1_1GeometryN_1_1GeometryEstimatorDiagnosticsC.html" target="_top" xlink:title="Diagnostics for GeometryEstimatorC. ">
<polygon fill="white" stroke="black" points="552.155,-271 552.155,-339 724.155,-339 724.155,-271 552.155,-271"/>
<text text-anchor="start" x="560.155" y="-327" font-family="FreeSans" font-size="10.00">SeeSawN::GeometryN</text>
<text text-anchor="middle" x="638.155" y="-316" font-family="FreeSans" font-size="10.00">::GeometryEstimatorDiagnosticsC</text>
<polyline fill="none" stroke="black" points="552.155,-309 724.155,-309 "/>
<text text-anchor="middle" x="638.155" y="-297" font-family="FreeSans" font-size="10.00"> </text>
<polyline fill="none" stroke="black" points="552.155,-290 724.155,-290 "/>
<text text-anchor="start" x="560.155" y="-278" font-family="FreeSans" font-size="10.00">+ GeometryEstimatorDiagnosticsC()</text>
</a>
</g>
</g>
<!-- Node2&#45;&gt;Node7 -->
<g id="edge20" class="edge"><title>Node2&#45;&gt;Node7</title>
<path fill="none" stroke="#404040" d="M194.228,-748.343C180.092,-692.657 157.368,-565.877 218.155,-490 298.067,-390.251 442.943,-343.246 539.865,-322.062"/>
<polygon fill="none" stroke="#404040" points="539.995,-322.034 545.035,-316.876 551.734,-319.544 546.695,-324.702 539.995,-322.034"/>
<text text-anchor="middle" x="232.155" y="-522" font-family="FreeSans" font-size="10.00"> +error</text>
</g>
<!-- Node9 -->
<g id="node9" class="node"><title>Node9</title>
<g id="a_node9"><a xlink:href="structSeeSawN_1_1RANSACN_1_1RANSACDiagnosticsC.html" target="_top" xlink:title="Diagnostics of RANSAC. ">
<polygon fill="white" stroke="black" points="412.155,-577.5 412.155,-645.5 630.155,-645.5 630.155,-577.5 412.155,-577.5"/>
<text text-anchor="middle" x="521.155" y="-633.5" font-family="FreeSans" font-size="10.00">SeeSawN::RANSACN::RANSACDiagnosticsC</text>
<polyline fill="none" stroke="black" points="412.155,-626.5 630.155,-626.5 "/>
<text text-anchor="middle" x="521.155" y="-614.5" font-family="FreeSans" font-size="10.00"> </text>
<polyline fill="none" stroke="black" points="412.155,-607.5 630.155,-607.5 "/>
<text text-anchor="start" x="420.155" y="-595.5" font-family="FreeSans" font-size="10.00">+ RANSACDiagnosticsC()</text>
<text text-anchor="start" x="420.155" y="-584.5" font-family="FreeSans" font-size="10.00">* IterationT</text>
</a>
</g>
</g>
<!-- Node2&#45;&gt;Node9 -->
<g id="edge9" class="edge"><title>Node2&#45;&gt;Node9</title>
<path fill="none" stroke="#404040" d="M225.017,-766.802C243.444,-758.737 269.442,-745.837 289.155,-730 319.145,-705.907 312.891,-684.951 345.155,-664 346.716,-662.986 370.638,-655.836 400.371,-647.17"/>
<polygon fill="none" stroke="#404040" points="400.493,-647.135 405.138,-641.619 412.016,-643.784 407.372,-649.3 400.493,-647.135"/>
<text text-anchor="middle" x="381.655" y="-722" font-family="FreeSans" font-size="10.00"> +finalEpsilonVl</text>
<text text-anchor="middle" x="381.655" y="-711" font-family="FreeSans" font-size="10.00">+finalEpsilonOb</text>
<text text-anchor="middle" x="381.655" y="-700" font-family="FreeSans" font-size="10.00">+error</text>
<text text-anchor="middle" x="381.655" y="-689" font-family="FreeSans" font-size="10.00">+inlierRatio</text>
<text text-anchor="middle" x="381.655" y="-678" font-family="FreeSans" font-size="10.00">+finalDecisionTh</text>
<text text-anchor="middle" x="381.655" y="-667" font-family="FreeSans" font-size="10.00">+finalDelta</text>
</g>
<!-- Node18 -->
<g id="node18" class="node"><title>Node18</title>
<g id="a_node18"><a xlink:href="structSeeSawN_1_1OptimisationN_1_1PowellDogLegDiagnosticsC.html" target="_top" xlink:title="Diagnostics for PowellDogLegC. ">
<polygon fill="white" stroke="black" points="507.155,-403.5 507.155,-471.5 659.155,-471.5 659.155,-403.5 507.155,-403.5"/>
<text text-anchor="start" x="515.155" y="-459.5" font-family="FreeSans" font-size="10.00">SeeSawN::OptimisationN</text>
<text text-anchor="middle" x="583.155" y="-448.5" font-family="FreeSans" font-size="10.00">::PowellDogLegDiagnosticsC</text>
<polyline fill="none" stroke="black" points="507.155,-441.5 659.155,-441.5 "/>
<text text-anchor="middle" x="583.155" y="-429.5" font-family="FreeSans" font-size="10.00"> </text>
<polyline fill="none" stroke="black" points="507.155,-422.5 659.155,-422.5 "/>
<text text-anchor="start" x="515.155" y="-410.5" font-family="FreeSans" font-size="10.00">+ PowellDogLegDiagnosticsC()</text>
</a>
</g>
</g>
<!-- Node2&#45;&gt;Node18 -->
<g id="edge23" class="edge"><title>Node2&#45;&gt;Node18</title>
<path fill="none" stroke="#404040" d="M198.841,-748.293C195.41,-706.911 194.932,-628.34 232.155,-577 292.903,-493.212 412.344,-460.092 494.904,-447.014"/>
<polygon fill="none" stroke="#404040" points="494.939,-447.009 500.278,-442.162 506.806,-445.226 501.467,-450.073 494.939,-447.009"/>
<text text-anchor="middle" x="262.655" y="-625.5" font-family="FreeSans" font-size="10.00"> +error</text>
<text text-anchor="middle" x="262.655" y="-614.5" font-family="FreeSans" font-size="10.00">+finalEpsilon1</text>
<text text-anchor="middle" x="262.655" y="-603.5" font-family="FreeSans" font-size="10.00">+finalDelta</text>
<text text-anchor="middle" x="262.655" y="-592.5" font-family="FreeSans" font-size="10.00">+finalEpsilon2</text>
</g>
<!-- Node19 -->
<g id="node19" class="node"><title>Node19</title>
<polygon fill="white" stroke="#bfbfbf" points="302.155,-583 302.155,-640 394.155,-640 394.155,-583 302.155,-583"/>
<text text-anchor="middle" x="348.155" y="-628" font-family="FreeSans" font-size="10.00">std::list&lt; double &gt;</text>
<polyline fill="none" stroke="#bfbfbf" points="302.155,-621 394.155,-621 "/>
<text text-anchor="middle" x="348.155" y="-609" font-family="FreeSans" font-size="10.00"> </text>
<polyline fill="none" stroke="#bfbfbf" points="302.155,-602 394.155,-602 "/>
<text text-anchor="middle" x="348.155" y="-590" font-family="FreeSans" font-size="10.00"> </text>
</g>
<!-- Node2&#45;&gt;Node19 -->
<g id="edge25" class="edge"><title>Node2&#45;&gt;Node19</title>
<path fill="none" stroke="#404040" d="M209.132,-748.405C217.215,-717.293 230.184,-670.205 236.155,-664 253.112,-646.377 265.836,-656 288.155,-646 289.155,-645.552 290.161,-645.093 291.17,-644.624"/>
<polygon fill="none" stroke="#404040" points="291.278,-644.571 294.908,-638.341 302.056,-639.296 298.425,-645.526 291.278,-644.571"/>
<text text-anchor="middle" x="260.655" y="-694.5" font-family="FreeSans" font-size="10.00"> +elements</text>
</g>
<!-- Node3 -->
<g id="node3" class="node"><title>Node3</title>
<polygon fill="white" stroke="#bfbfbf" points="1364.15,-149.5 1364.15,-206.5 1474.15,-206.5 1474.15,-149.5 1364.15,-149.5"/>
<text text-anchor="middle" x="1419.15" y="-194.5" font-family="FreeSans" font-size="10.00">CorrespondenceListT</text>
<polyline fill="none" stroke="#bfbfbf" points="1364.15,-187.5 1474.15,-187.5 "/>
<text text-anchor="middle" x="1419.15" y="-175.5" font-family="FreeSans" font-size="10.00"> </text>
<polyline fill="none" stroke="#bfbfbf" points="1364.15,-168.5 1474.15,-168.5 "/>
<text text-anchor="middle" x="1419.15" y="-156.5" font-family="FreeSans" font-size="10.00"> </text>
</g>
<!-- Node3&#45;&gt;Node1 -->
<g id="edge2" class="edge"><title>Node3&#45;&gt;Node1</title>
<path fill="none" stroke="#404040" d="M1374.36,-149.416C1366.47,-145.219 1358.2,-141.221 1350.15,-138 1256.36,-100.459 1142.82,-75.0996 1066.67,-60.7756"/>
<polygon fill="none" stroke="#404040" points="1066.57,-60.7584 1059.95,-63.5978 1054.78,-58.5712 1061.4,-55.7318 1066.57,-60.7584"/>
<text text-anchor="middle" x="1316.65" y="-112" font-family="FreeSans" font-size="10.00"> +generator</text>
</g>
<!-- Node4 -->
<g id="node4" class="node"><title>Node4</title>
<polygon fill="white" stroke="#bfbfbf" points="906.655,-490.5 906.655,-558.5 1035.65,-558.5 1035.65,-490.5 906.655,-490.5"/>
<text text-anchor="start" x="914.655" y="-546.5" font-family="FreeSans" font-size="10.00">optional&lt; Correspondence</text>
<text text-anchor="middle" x="971.155" y="-535.5" font-family="FreeSans" font-size="10.00">ListT &gt;</text>
<polyline fill="none" stroke="#bfbfbf" points="906.655,-528.5 1035.65,-528.5 "/>
<text text-anchor="middle" x="971.155" y="-516.5" font-family="FreeSans" font-size="10.00"> </text>
<polyline fill="none" stroke="#bfbfbf" points="906.655,-509.5 1035.65,-509.5 "/>
<text text-anchor="middle" x="971.155" y="-497.5" font-family="FreeSans" font-size="10.00"> </text>
</g>
<!-- Node4&#45;&gt;Node1 -->
<g id="edge3" class="edge"><title>Node4&#45;&gt;Node1</title>
<path fill="none" stroke="#404040" d="M974.68,-490.22C977.559,-460.152 981.155,-414.664 981.155,-375 981.155,-375 981.155,-375 981.155,-177 981.155,-152.61 981.155,-125.656 981.155,-102.607"/>
<polygon fill="none" stroke="#404040" points="981.155,-102.596 977.155,-96.5961 981.155,-90.596 985.155,-96.596 981.155,-102.596"/>
<text text-anchor="middle" x="1030.65" y="-302.5" font-family="FreeSans" font-size="10.00"> +initialObservationSet</text>
</g>
<!-- Node5 -->
<g id="node5" class="node"><title>Node5</title>
<polygon fill="white" stroke="#bfbfbf" points="855.155,-748.5 855.155,-805.5 905.155,-805.5 905.155,-748.5 855.155,-748.5"/>
<text text-anchor="middle" x="880.155" y="-793.5" font-family="FreeSans" font-size="10.00">optional</text>
<polyline fill="none" stroke="#bfbfbf" points="855.155,-786.5 905.155,-786.5 "/>
<text text-anchor="middle" x="880.155" y="-774.5" font-family="FreeSans" font-size="10.00"> </text>
<polyline fill="none" stroke="#bfbfbf" points="855.155,-767.5 905.155,-767.5 "/>
<text text-anchor="middle" x="880.155" y="-755.5" font-family="FreeSans" font-size="10.00"> </text>
</g>
<!-- Node5&#45;&gt;Node4 -->
<g id="edge4" class="edge"><title>Node5&#45;&gt;Node4</title>
<path fill="none" stroke="orange" d="M912.525,-744.954C935.498,-720.541 964.426,-684.344 977.155,-646 986.592,-617.573 983.614,-583.305 979.146,-558.591"/>
<polygon fill="orange" stroke="orange" points="909.719,-742.823 905.304,-752.454 914.762,-747.678 909.719,-742.823"/>
<text text-anchor="middle" x="1025.15" y="-694.5" font-family="FreeSans" font-size="10.00"> &lt; CorrespondenceListT &gt;</text>
</g>
<!-- Node17 -->
<g id="node17" class="node"><title>Node17</title>
<polygon fill="white" stroke="#bfbfbf" points="777.155,-577.5 777.155,-645.5 875.155,-645.5 875.155,-577.5 777.155,-577.5"/>
<text text-anchor="start" x="785.155" y="-633.5" font-family="FreeSans" font-size="10.00">optional&lt; unsigned</text>
<text text-anchor="middle" x="826.155" y="-622.5" font-family="FreeSans" font-size="10.00"> int &gt;</text>
<polyline fill="none" stroke="#bfbfbf" points="777.155,-615.5 875.155,-615.5 "/>
<text text-anchor="middle" x="826.155" y="-603.5" font-family="FreeSans" font-size="10.00"> </text>
<polyline fill="none" stroke="#bfbfbf" points="777.155,-596.5 875.155,-596.5 "/>
<text text-anchor="middle" x="826.155" y="-584.5" font-family="FreeSans" font-size="10.00"> </text>
</g>
<!-- Node5&#45;&gt;Node17 -->
<g id="edge19" class="edge"><title>Node5&#45;&gt;Node17</title>
<path fill="none" stroke="orange" d="M848.463,-746.566C844.405,-741.418 840.764,-735.83 838.155,-730 826.217,-703.33 823.851,-669.944 824.1,-645.582"/>
<polygon fill="orange" stroke="orange" points="845.916,-748.972 855.094,-754.264 851.22,-744.403 845.916,-748.972"/>
<text text-anchor="middle" x="873.655" y="-694.5" font-family="FreeSans" font-size="10.00"> &lt; unsigned int &gt;</text>
</g>
<!-- Node6 -->
<g id="node6" class="node"><title>Node6</title>
<polygon fill="white" stroke="#bfbfbf" points="559.155,-138.5 559.155,-217.5 717.155,-217.5 717.155,-138.5 559.155,-138.5"/>
<text text-anchor="start" x="567.155" y="-205.5" font-family="FreeSans" font-size="10.00">std::list&lt; SeeSawN</text>
<text text-anchor="start" x="567.155" y="-194.5" font-family="FreeSans" font-size="10.00">::GeometryN::GeometryEstimator</text>
<text text-anchor="middle" x="638.155" y="-183.5" font-family="FreeSans" font-size="10.00">DiagnosticsC &gt;</text>
<polyline fill="none" stroke="#bfbfbf" points="559.155,-176.5 717.155,-176.5 "/>
<text text-anchor="middle" x="638.155" y="-164.5" font-family="FreeSans" font-size="10.00"> </text>
<polyline fill="none" stroke="#bfbfbf" points="559.155,-157.5 717.155,-157.5 "/>
<text text-anchor="middle" x="638.155" y="-145.5" font-family="FreeSans" font-size="10.00"> </text>
</g>
<!-- Node6&#45;&gt;Node1 -->
<g id="edge5" class="edge"><title>Node6&#45;&gt;Node1</title>
<path fill="none" stroke="#404040" d="M702.13,-138.366C721.034,-127.932 742.056,-117.257 762.155,-109 805.104,-91.3556 854.733,-76.7472 895.876,-66.1024"/>
<polygon fill="none" stroke="#404040" points="895.892,-66.0986 900.718,-60.7413 907.52,-63.1364 902.693,-68.4937 895.892,-66.0986"/>
<text text-anchor="middle" x="832.655" y="-112" font-family="FreeSans" font-size="10.00"> +geometryEstimatorDiagnostics</text>
</g>
<!-- Node7&#45;&gt;Node6 -->
<g id="edge6" class="edge"><title>Node7&#45;&gt;Node6</title>
<path fill="none" stroke="#404040" d="M638.155,-270.83C638.155,-258.315 638.155,-243.771 638.155,-229.999"/>
<polygon fill="none" stroke="#404040" points="638.155,-229.648 634.155,-223.648 638.155,-217.648 642.155,-223.648 638.155,-229.648"/>
<text text-anchor="middle" x="662.655" y="-239" font-family="FreeSans" font-size="10.00"> +elements</text>
</g>
<!-- Node8 -->
<g id="node8" class="node"><title>Node8</title>
<g id="a_node8"><a xlink:href="structSeeSawN_1_1RANSACN_1_1TwoStageRANSACDiagnosticsC.html" target="_top" xlink:title="Diagnostics for TwoStageRANSACC. ">
<polygon fill="white" stroke="black" points="677.155,-403.5 677.155,-471.5 851.155,-471.5 851.155,-403.5 677.155,-403.5"/>
<text text-anchor="start" x="685.155" y="-459.5" font-family="FreeSans" font-size="10.00">SeeSawN::RANSACN::TwoStage</text>
<text text-anchor="middle" x="764.155" y="-448.5" font-family="FreeSans" font-size="10.00">RANSACDiagnosticsC</text>
<polyline fill="none" stroke="black" points="677.155,-441.5 851.155,-441.5 "/>
<text text-anchor="middle" x="764.155" y="-429.5" font-family="FreeSans" font-size="10.00"> </text>
<polyline fill="none" stroke="black" points="677.155,-422.5 851.155,-422.5 "/>
<text text-anchor="start" x="685.155" y="-410.5" font-family="FreeSans" font-size="10.00">+ TwoStageRANSACDiagnosticsC()</text>
</a>
</g>
</g>
<!-- Node8&#45;&gt;Node7 -->
<g id="edge7" class="edge"><title>Node8&#45;&gt;Node7</title>
<path fill="none" stroke="#404040" d="M732.034,-403.232C715.891,-386.512 696.154,-366.07 678.95,-348.252"/>
<polygon fill="none" stroke="#404040" points="678.552,-347.84 671.507,-346.302 670.217,-339.208 677.262,-340.746 678.552,-347.84"/>
<text text-anchor="middle" x="757.655" y="-371.5" font-family="FreeSans" font-size="10.00"> +ransacDiagnostics</text>
</g>
<!-- Node9&#45;&gt;Node8 -->
<g id="edge8" class="edge"><title>Node9&#45;&gt;Node8</title>
<path fill="none" stroke="#404040" d="M568.008,-577.337C607.844,-549.14 665.159,-508.571 707.554,-478.563"/>
<polygon fill="none" stroke="#404040" points="707.651,-478.494 710.237,-471.763 717.446,-471.562 714.859,-478.293 707.651,-478.494"/>
<text text-anchor="middle" x="718.155" y="-527.5" font-family="FreeSans" font-size="10.00"> +diagnostics1</text>
<text text-anchor="middle" x="718.155" y="-516.5" font-family="FreeSans" font-size="10.00">+diagnostics2</text>
</g>
<!-- Node10 -->
<g id="node10" class="node"><title>Node10</title>
<polygon fill="white" stroke="#bfbfbf" points="372.155,-748.5 372.155,-805.5 468.155,-805.5 468.155,-748.5 372.155,-748.5"/>
<text text-anchor="middle" x="420.155" y="-793.5" font-family="FreeSans" font-size="10.00">unsigned long long</text>
<polyline fill="none" stroke="#bfbfbf" points="372.155,-786.5 468.155,-786.5 "/>
<text text-anchor="middle" x="420.155" y="-774.5" font-family="FreeSans" font-size="10.00"> </text>
<polyline fill="none" stroke="#bfbfbf" points="372.155,-767.5 468.155,-767.5 "/>
<text text-anchor="middle" x="420.155" y="-755.5" font-family="FreeSans" font-size="10.00"> </text>
</g>
<!-- Node10&#45;&gt;Node9 -->
<g id="edge10" class="edge"><title>Node10&#45;&gt;Node9</title>
<path fill="none" stroke="#404040" d="M420.063,-748.413C421.243,-724.246 426.134,-689.153 443.155,-664 445.499,-660.535 448.163,-657.246 451.057,-654.132"/>
<polygon fill="none" stroke="#404040" points="451.077,-654.112 452.651,-647.075 459.752,-645.82 458.179,-652.858 451.077,-654.112"/>
<text text-anchor="middle" x="467.655" y="-694.5" font-family="FreeSans" font-size="10.00"> +nLOCalls</text>
</g>
<!-- Node11 -->
<g id="node11" class="node"><title>Node11</title>
<polygon fill="white" stroke="#bfbfbf" points="729.655,-748.5 729.655,-805.5 758.655,-805.5 758.655,-748.5 729.655,-748.5"/>
<text text-anchor="middle" x="744.155" y="-793.5" font-family="FreeSans" font-size="10.00">int</text>
<polyline fill="none" stroke="#bfbfbf" points="729.655,-786.5 758.655,-786.5 "/>
<text text-anchor="middle" x="744.155" y="-774.5" font-family="FreeSans" font-size="10.00"> </text>
<polyline fill="none" stroke="#bfbfbf" points="729.655,-767.5 758.655,-767.5 "/>
<text text-anchor="middle" x="744.155" y="-755.5" font-family="FreeSans" font-size="10.00"> </text>
</g>
<!-- Node11&#45;&gt;Node1 -->
<g id="edge38" class="edge"><title>Node11&#45;&gt;Node1</title>
<path fill="none" stroke="#404040" d="M743.694,-748.409C743.477,-699.766 745.901,-601.565 768.155,-577 792.914,-549.669 821.375,-583.254 849.155,-559 881.992,-530.331 917.155,-418.592 917.155,-375 917.155,-375 917.155,-375 917.155,-177 917.155,-150.314 928.076,-123.407 940.896,-101.014"/>
<polygon fill="none" stroke="#404040" points="940.898,-101.011 940.57,-93.8071 947.094,-90.7339 947.421,-97.9376 940.898,-101.011"/>
<text text-anchor="middle" x="941.655" y="-371.5" font-family="FreeSans" font-size="10.00"> +nIteration</text>
</g>
<!-- Node11&#45;&gt;Node9 -->
<g id="edge11" class="edge"><title>Node11&#45;&gt;Node9</title>
<path fill="none" stroke="#404040" d="M729.484,-773.149C688.296,-765.03 573.773,-741.626 561.155,-730 560.423,-729.325 547.195,-690.241 536.149,-657.336"/>
<polygon fill="none" stroke="#404040" points="536.021,-656.953 530.321,-652.536 532.205,-645.576 537.905,-649.993 536.021,-656.953"/>
<text text-anchor="middle" x="597.155" y="-722" font-family="FreeSans" font-size="10.00"> +iIteration</text>
<text text-anchor="middle" x="597.155" y="-711" font-family="FreeSans" font-size="10.00">+nIterations</text>
<text text-anchor="middle" x="597.155" y="-700" font-family="FreeSans" font-size="10.00">+iEta</text>
<text text-anchor="middle" x="597.155" y="-689" font-family="FreeSans" font-size="10.00">+nValidatorCalls</text>
<text text-anchor="middle" x="597.155" y="-678" font-family="FreeSans" font-size="10.00">+iGenerator</text>
<text text-anchor="middle" x="597.155" y="-667" font-family="FreeSans" font-size="10.00">+iError</text>
</g>
<!-- Node11&#45;&gt;Node18 -->
<g id="edge27" class="edge"><title>Node11&#45;&gt;Node18</title>
<path fill="none" stroke="#404040" d="M744.247,-748.228C742.934,-723.605 737.443,-687.937 718.155,-664 706.429,-649.448 691.509,-660.843 680.155,-646 637.356,-590.051 689.19,-549.92 652.155,-490 650.072,-486.63 647.681,-483.407 645.068,-480.335"/>
<polygon fill="none" stroke="#404040" points="644.967,-480.229 637.925,-478.677 636.65,-471.579 643.692,-473.132 644.967,-480.229"/>
<text text-anchor="middle" x="707.655" y="-609" font-family="FreeSans" font-size="10.00"> +nIterations</text>
</g>
<!-- Node21 -->
<g id="node21" class="node"><title>Node21</title>
<g id="a_node21"><a xlink:href="structSeeSawN_1_1MatcherN_1_1FeatureMatcherDiagnosticsC.html" target="_top" xlink:title="Diagnostics for FeatureMatcherC. ">
<polygon fill="white" stroke="black" points="1275.65,-403.5 1275.65,-471.5 1418.65,-471.5 1418.65,-403.5 1275.65,-403.5"/>
<text text-anchor="start" x="1283.65" y="-459.5" font-family="FreeSans" font-size="10.00">SeeSawN::MatcherN::</text>
<text text-anchor="middle" x="1347.15" y="-448.5" font-family="FreeSans" font-size="10.00">FeatureMatcherDiagnosticsC</text>
<polyline fill="none" stroke="black" points="1275.65,-441.5 1418.65,-441.5 "/>
<text text-anchor="middle" x="1347.15" y="-429.5" font-family="FreeSans" font-size="10.00"> </text>
<polyline fill="none" stroke="black" points="1275.65,-422.5 1418.65,-422.5 "/>
<text text-anchor="middle" x="1347.15" y="-410.5" font-family="FreeSans" font-size="10.00"> </text>
</a>
</g>
</g>
<!-- Node11&#45;&gt;Node21 -->
<g id="edge32" class="edge"><title>Node11&#45;&gt;Node21</title>
<path fill="none" stroke="#404040" d="M758.83,-771.086C778.48,-764.711 814.534,-753.731 846.155,-748 933.101,-732.243 963.776,-766.704 1044.15,-730 1107.27,-701.177 1243.76,-554.394 1309.82,-480.754"/>
<polygon fill="none" stroke="#404040" points="1309.9,-480.665 1310.92,-473.526 1317.9,-471.721 1316.88,-478.86 1309.9,-480.665"/>
<text text-anchor="middle" x="1264.15" y="-609" font-family="FreeSans" font-size="10.00"> +sCorrespondences</text>
</g>
<!-- Node12 -->
<g id="node12" class="node"><title>Node12</title>
<g id="a_node12"><a xlink:href="classbool.html" target="_top" xlink:title="{bool\n||}">
<polygon fill="white" stroke="black" points="1119.65,-748.5 1119.65,-805.5 1154.65,-805.5 1154.65,-748.5 1119.65,-748.5"/>
<text text-anchor="middle" x="1137.15" y="-793.5" font-family="FreeSans" font-size="10.00">bool</text>
<polyline fill="none" stroke="black" points="1119.65,-786.5 1154.65,-786.5 "/>
<text text-anchor="middle" x="1137.15" y="-774.5" font-family="FreeSans" font-size="10.00"> </text>
<polyline fill="none" stroke="black" points="1119.65,-767.5 1154.65,-767.5 "/>
<text text-anchor="middle" x="1137.15" y="-755.5" font-family="FreeSans" font-size="10.00"> </text>
</a>
</g>
</g>
<!-- Node12&#45;&gt;Node1 -->
<g id="edge39" class="edge"><title>Node12&#45;&gt;Node1</title>
<path fill="none" stroke="#404040" d="M1152.82,-748.401C1155.65,-742.48 1158.28,-736.15 1160.15,-730 1175.48,-679.633 1175.15,-665.146 1175.15,-612.5 1175.15,-612.5 1175.15,-612.5 1175.15,-177 1175.15,-120.747 1118.3,-87.1556 1066.15,-68.175"/>
<polygon fill="none" stroke="#404040" points="1066.11,-68.1606 1059.13,-69.9744 1054.77,-64.2296 1061.75,-62.4158 1066.11,-68.1606"/>
<text text-anchor="middle" x="1206.15" y="-371.5" font-family="FreeSans" font-size="10.00"> +flagSuccess</text>
</g>
<!-- Node12&#45;&gt;Node7 -->
<g id="edge21" class="edge"><title>Node12&#45;&gt;Node7</title>
<path fill="none" stroke="#404040" d="M1142.07,-748.272C1147.78,-707.888 1152.98,-631.746 1123.15,-577 1116.78,-565.291 1107.9,-569.065 1099.15,-559 1076.19,-532.572 1086.42,-514.239 1061.15,-490 969.797,-402.341 923.037,-411.673 806.155,-363 783.777,-353.681 759.28,-344.705 736.082,-336.741"/>
<polygon fill="none" stroke="#404040" points="735.815,-336.651 728.848,-338.511 724.452,-332.795 731.419,-330.935 735.815,-336.651"/>
<text text-anchor="middle" x="1130.15" y="-533" font-family="FreeSans" font-size="10.00"> +flagSuccess</text>
<text text-anchor="middle" x="1130.15" y="-522" font-family="FreeSans" font-size="10.00">+flagStage2</text>
<text text-anchor="middle" x="1130.15" y="-511" font-family="FreeSans" font-size="10.00">+flagLO</text>
</g>
<!-- Node12&#45;&gt;Node8 -->
<g id="edge17" class="edge"><title>Node12&#45;&gt;Node8</title>
<path fill="none" stroke="#404040" d="M1128.93,-748.244C1119.98,-719.46 1105.44,-676.891 1094.15,-664 1083.15,-651.429 1070.75,-659.674 1061.15,-646 1020.85,-588.585 1087.94,-538.389 1037.15,-490 1009.33,-463.49 902.723,-480.097 865.155,-472 864.59,-471.878 864.025,-471.755 863.458,-471.629"/>
<polygon fill="none" stroke="#404040" points="863.091,-471.541 856.32,-474.022 851.425,-468.727 858.196,-466.245 863.091,-471.541"/>
<text text-anchor="middle" x="1092.15" y="-609" font-family="FreeSans" font-size="10.00"> +flagSuccess</text>
</g>
<!-- Node12&#45;&gt;Node9 -->
<g id="edge12" class="edge"><title>Node12&#45;&gt;Node9</title>
<path fill="none" stroke="#404040" d="M1119.53,-773.73C1081.85,-768.891 990.661,-757.245 914.155,-748 845.304,-739.68 825.428,-750.433 759.155,-730 698.743,-711.375 689.892,-691.881 633.155,-664 624.25,-659.624 614.898,-655.144 605.552,-650.742"/>
<polygon fill="none" stroke="#404040" points="605.478,-650.707 598.348,-651.786 594.61,-645.62 601.74,-644.541 605.478,-650.707"/>
<text text-anchor="middle" x="790.155" y="-694.5" font-family="FreeSans" font-size="10.00"> +flagSuccess</text>
</g>
<!-- Node12&#45;&gt;Node18 -->
<g id="edge28" class="edge"><title>Node12&#45;&gt;Node18</title>
<path fill="none" stroke="#404040" d="M1119.39,-758.252C1111.88,-750.113 1103.44,-740.052 1097.15,-730 1080.27,-702.978 1093.79,-684.204 1069.15,-664 1038.62,-638.964 1016.32,-665.796 982.155,-646 937.477,-620.112 932.364,-602.886 905.155,-559 887.715,-530.872 903.787,-509.648 877.155,-490 842.206,-464.217 730.363,-480.102 671.36,-471.918"/>
<polygon fill="none" stroke="#404040" points="671.079,-471.867 664.456,-474.719 659.276,-469.702 665.899,-466.85 671.079,-471.867"/>
<text text-anchor="middle" x="1013.15" y="-609" font-family="FreeSans" font-size="10.00"> +flagSuccess</text>
</g>
<!-- Node12&#45;&gt;Node21 -->
<g id="edge33" class="edge"><title>Node12&#45;&gt;Node21</title>
<path fill="none" stroke="#404040" d="M1154.92,-768.731C1191.69,-752.67 1275.98,-710.406 1315.15,-646 1345.31,-596.435 1350.33,-528.293 1349.83,-483.833"/>
<polygon fill="none" stroke="#404040" points="1349.82,-483.675 1345.68,-477.77 1349.54,-471.679 1353.68,-477.583 1349.82,-483.675"/>
<text text-anchor="middle" x="1372.15" y="-609" font-family="FreeSans" font-size="10.00"> +flagSuccess</text>
</g>
<!-- Node22 -->
<g id="node22" class="node"><title>Node22</title>
<g id="a_node22"><a xlink:href="structSeeSawN_1_1MatcherN_1_1NearestNeighbourMatcherDiagnosticsC.html" target="_top" xlink:title="Diagnostics object for NearestNeighbourMatcherC. ">
<polygon fill="white" stroke="black" points="1427.65,-577.5 1427.65,-645.5 1630.65,-645.5 1630.65,-577.5 1427.65,-577.5"/>
<text text-anchor="start" x="1435.65" y="-633.5" font-family="FreeSans" font-size="10.00">SeeSawN::MatcherN::</text>
<text text-anchor="middle" x="1529.15" y="-622.5" font-family="FreeSans" font-size="10.00">NearestNeighbourMatcherDiagnosticsC</text>
<polyline fill="none" stroke="black" points="1427.65,-615.5 1630.65,-615.5 "/>
<text text-anchor="middle" x="1529.15" y="-603.5" font-family="FreeSans" font-size="10.00"> </text>
<polyline fill="none" stroke="black" points="1427.65,-596.5 1630.65,-596.5 "/>
<text text-anchor="start" x="1435.65" y="-584.5" font-family="FreeSans" font-size="10.00">+ NearestNeighbourMatcherDiagnosticsC()</text>
</a>
</g>
</g>
<!-- Node12&#45;&gt;Node22 -->
<g id="edge35" class="edge"><title>Node12&#45;&gt;Node22</title>
<path fill="none" stroke="#404040" d="M1154.73,-774.819C1193.48,-771.705 1288.59,-761.233 1361.15,-730 1385.12,-719.687 1436.71,-682.663 1476.45,-652.897"/>
<polygon fill="none" stroke="#404040" points="1476.68,-652.722 1479.07,-645.918 1486.27,-645.506 1483.88,-652.31 1476.68,-652.722"/>
<text text-anchor="middle" x="1492.15" y="-694.5" font-family="FreeSans" font-size="10.00"> +flagSuccess</text>
</g>
<!-- Node13 -->
<g id="node13" class="node"><title>Node13</title>
<polygon fill="white" stroke="#bfbfbf" points="486.655,-748.5 486.655,-805.5 591.655,-805.5 591.655,-748.5 486.655,-748.5"/>
<text text-anchor="middle" x="539.155" y="-793.5" font-family="FreeSans" font-size="10.00">std::list&lt; IterationT &gt;</text>
<polyline fill="none" stroke="#bfbfbf" points="486.655,-786.5 591.655,-786.5 "/>
<text text-anchor="middle" x="539.155" y="-774.5" font-family="FreeSans" font-size="10.00"> </text>
<polyline fill="none" stroke="#bfbfbf" points="486.655,-767.5 591.655,-767.5 "/>
<text text-anchor="middle" x="539.155" y="-755.5" font-family="FreeSans" font-size="10.00"> </text>
</g>
<!-- Node13&#45;&gt;Node9 -->
<g id="edge13" class="edge"><title>Node13&#45;&gt;Node9</title>
<path fill="none" stroke="#404040" d="M511.441,-748.482C507.226,-742.794 503.503,-736.531 501.155,-730 491.228,-702.397 495.753,-692.832 501.155,-664 501.561,-661.832 502.056,-659.637 502.62,-657.439"/>
<polygon fill="none" stroke="#404040" points="502.678,-657.247 500.608,-650.34 506.187,-645.771 508.258,-652.679 502.678,-657.247"/>
<text text-anchor="middle" x="519.655" y="-694.5" font-family="FreeSans" font-size="10.00"> +history</text>
</g>
<!-- Node14 -->
<g id="node14" class="node"><title>Node14</title>
<polygon fill="white" stroke="#bfbfbf" points="520.155,-853.5 520.155,-910.5 558.155,-910.5 558.155,-853.5 520.155,-853.5"/>
<text text-anchor="middle" x="539.155" y="-898.5" font-family="FreeSans" font-size="10.00">tuple</text>
<polyline fill="none" stroke="#bfbfbf" points="520.155,-891.5 558.155,-891.5 "/>
<text text-anchor="middle" x="539.155" y="-879.5" font-family="FreeSans" font-size="10.00"> </text>
<polyline fill="none" stroke="#bfbfbf" points="520.155,-872.5 558.155,-872.5 "/>
<text text-anchor="middle" x="539.155" y="-860.5" font-family="FreeSans" font-size="10.00"> </text>
</g>
<!-- Node14&#45;&gt;Node13 -->
<g id="edge14" class="edge"><title>Node14&#45;&gt;Node13</title>
<path fill="none" stroke="#404040" d="M539.155,-853.398C539.155,-842.545 539.155,-829.873 539.155,-818.049"/>
<polygon fill="none" stroke="#404040" points="539.155,-817.678 535.155,-811.678 539.155,-805.678 543.155,-811.678 539.155,-817.678"/>
<text text-anchor="middle" x="563.655" y="-827" font-family="FreeSans" font-size="10.00"> +elements</text>
</g>
<!-- Node15 -->
<g id="node15" class="node"><title>Node15</title>
<g id="a_node15"><a xlink:title="STL class. ">
<polygon fill="white" stroke="#bfbfbf" points="311.155,-853.5 311.155,-910.5 381.155,-910.5 381.155,-853.5 311.155,-853.5"/>
<text text-anchor="middle" x="346.155" y="-898.5" font-family="FreeSans" font-size="10.00">std::list&lt; T &gt;</text>
<polyline fill="none" stroke="#bfbfbf" points="311.155,-891.5 381.155,-891.5 "/>
<text text-anchor="middle" x="346.155" y="-879.5" font-family="FreeSans" font-size="10.00"> </text>
<polyline fill="none" stroke="#bfbfbf" points="311.155,-872.5 381.155,-872.5 "/>
<text text-anchor="middle" x="346.155" y="-860.5" font-family="FreeSans" font-size="10.00"> </text>
</a>
</g>
</g>
<!-- Node15&#45;&gt;Node6 -->
<g id="edge29" class="edge"><title>Node15&#45;&gt;Node6</title>
<path fill="none" stroke="orange" d="M301.009,-870.281C262.667,-859.331 207.993,-839.154 170.155,-806 54.3481,-704.529 -52.2797,-621.293 28.1548,-490 88.4288,-391.614 408.053,-263.609 559.038,-207.479"/>
<polygon fill="orange" stroke="orange" points="300.303,-873.716 310.873,-872.998 302.162,-866.968 300.303,-873.716"/>
<text text-anchor="start" x="28.1548" y="-527.5" font-family="FreeSans" font-size="10.00"> &lt; SeeSawN::GeometryN</text>
<text text-anchor="middle" x="105.155" y="-516.5" font-family="FreeSans" font-size="10.00">::GeometryEstimatorDiagnosticsC &gt;</text>
</g>
<!-- Node15&#45;&gt;Node13 -->
<g id="edge15" class="edge"><title>Node15&#45;&gt;Node13</title>
<path fill="none" stroke="orange" d="M390.612,-857.274C419.54,-841.836 457.37,-821.647 487.613,-805.507"/>
<polygon fill="orange" stroke="orange" points="388.728,-854.312 381.554,-862.108 392.024,-860.488 388.728,-854.312"/>
<text text-anchor="middle" x="479.655" y="-827" font-family="FreeSans" font-size="10.00"> &lt; IterationT &gt;</text>
</g>
<!-- Node15&#45;&gt;Node19 -->
<g id="edge26" class="edge"><title>Node15&#45;&gt;Node19</title>
<path fill="none" stroke="orange" d="M327.782,-844.133C322.721,-832.252 317.878,-818.833 315.155,-806 302.051,-744.258 294.595,-724.327 313.155,-664 315.73,-655.631 320.179,-647.402 325.059,-640.062"/>
<polygon fill="orange" stroke="orange" points="324.592,-845.574 331.851,-853.292 330.989,-842.732 324.592,-845.574"/>
<text text-anchor="middle" x="339.155" y="-774.5" font-family="FreeSans" font-size="10.00"> &lt; double &gt;</text>
</g>
<!-- Node20 -->
<g id="node20" class="node"><title>Node20</title>
<polygon fill="white" stroke="#bfbfbf" points="1278.65,-265.5 1278.65,-344.5 1415.65,-344.5 1415.65,-265.5 1278.65,-265.5"/>
<text text-anchor="start" x="1286.65" y="-332.5" font-family="FreeSans" font-size="10.00">std::list&lt; SeeSawN</text>
<text text-anchor="start" x="1286.65" y="-321.5" font-family="FreeSans" font-size="10.00">::MatcherN::FeatureMatcher</text>
<text text-anchor="middle" x="1347.15" y="-310.5" font-family="FreeSans" font-size="10.00">DiagnosticsC &gt;</text>
<polyline fill="none" stroke="#bfbfbf" points="1278.65,-303.5 1415.65,-303.5 "/>
<text text-anchor="middle" x="1347.15" y="-291.5" font-family="FreeSans" font-size="10.00"> </text>
<polyline fill="none" stroke="#bfbfbf" points="1278.65,-284.5 1415.65,-284.5 "/>
<text text-anchor="middle" x="1347.15" y="-272.5" font-family="FreeSans" font-size="10.00"> </text>
</g>
<!-- Node15&#45;&gt;Node20 -->
<g id="edge37" class="edge"><title>Node15&#45;&gt;Node20</title>
<path fill="none" stroke="orange" d="M391.205,-871.811C424.257,-865.448 470.31,-857.365 511.155,-853 575.148,-846.162 1667.15,-842.357 1667.15,-778 1667.15,-778 1667.15,-778 1667.15,-436.5 1667.15,-382.652 1509.83,-340.158 1415.8,-319.57"/>
<polygon fill="orange" stroke="orange" points="390.531,-868.377 381.385,-873.725 391.87,-875.248 390.531,-868.377"/>
<text text-anchor="start" x="1667.15" y="-614.5" font-family="FreeSans" font-size="10.00"> &lt; SeeSawN::MatcherN</text>
<text text-anchor="middle" x="1736.65" y="-603.5" font-family="FreeSans" font-size="10.00">::FeatureMatcherDiagnosticsC &gt;</text>
</g>
<!-- Node16 -->
<g id="node16" class="node"><title>Node16</title>
<polygon fill="white" stroke="#bfbfbf" points="331.655,-958.5 331.655,-1015.5 360.655,-1015.5 360.655,-958.5 331.655,-958.5"/>
<text text-anchor="middle" x="346.155" y="-1003.5" font-family="FreeSans" font-size="10.00">T</text>
<polyline fill="none" stroke="#bfbfbf" points="331.655,-996.5 360.655,-996.5 "/>
<text text-anchor="middle" x="346.155" y="-984.5" font-family="FreeSans" font-size="10.00"> </text>
<polyline fill="none" stroke="#bfbfbf" points="331.655,-977.5 360.655,-977.5 "/>
<text text-anchor="middle" x="346.155" y="-965.5" font-family="FreeSans" font-size="10.00"> </text>
</g>
<!-- Node16&#45;&gt;Node15 -->
<g id="edge16" class="edge"><title>Node16&#45;&gt;Node15</title>
<path fill="none" stroke="#404040" d="M346.155,-958.398C346.155,-947.545 346.155,-934.873 346.155,-923.049"/>
<polygon fill="none" stroke="#404040" points="346.155,-922.678 342.155,-916.678 346.155,-910.678 350.155,-916.678 346.155,-922.678"/>
<text text-anchor="middle" x="370.655" y="-932" font-family="FreeSans" font-size="10.00"> +elements</text>
</g>
<!-- Node17&#45;&gt;Node8 -->
<g id="edge18" class="edge"><title>Node17&#45;&gt;Node8</title>
<path fill="none" stroke="#404040" d="M814.201,-577.337C804.551,-550.568 790.882,-512.647 780.267,-483.2"/>
<polygon fill="none" stroke="#404040" points="780.142,-482.851 774.344,-478.562 776.072,-471.562 781.87,-475.85 780.142,-482.851"/>
<text text-anchor="middle" x="844.655" y="-522" font-family="FreeSans" font-size="10.00"> +iStage1Solution</text>
</g>
<!-- Node18&#45;&gt;Node7 -->
<g id="edge22" class="edge"><title>Node18&#45;&gt;Node7</title>
<path fill="none" stroke="#404040" d="M597.176,-403.232C603.899,-387.279 612.051,-367.938 619.307,-350.72"/>
<polygon fill="none" stroke="#404040" points="619.499,-350.266 618.143,-343.183 624.159,-339.208 625.515,-346.29 619.499,-350.266"/>
<text text-anchor="middle" x="650.655" y="-371.5" font-family="FreeSans" font-size="10.00"> +pdlDiagnostics</text>
</g>
<!-- Node19&#45;&gt;Node18 -->
<g id="edge24" class="edge"><title>Node19&#45;&gt;Node18</title>
<path fill="none" stroke="#404040" d="M371.833,-582.909C395.496,-556.564 433.914,-516.989 473.155,-490 480.463,-484.973 488.34,-480.208 496.401,-475.754"/>
<polygon fill="none" stroke="#404040" points="496.476,-475.714 499.897,-469.366 507.072,-470.082 503.652,-476.43 496.476,-475.714"/>
<text text-anchor="middle" x="502.655" y="-522" font-family="FreeSans" font-size="10.00"> +errorHistory</text>
</g>
<!-- Node20&#45;&gt;Node1 -->
<g id="edge30" class="edge"><title>Node20&#45;&gt;Node1</title>
<path fill="none" stroke="#404040" d="M1280.96,-265.445C1262.59,-252.26 1243.93,-236.185 1230.15,-218 1198.9,-176.745 1226.97,-144.336 1189.15,-109 1156.05,-78.0732 1108.21,-62.4091 1066.75,-54.4936"/>
<polygon fill="none" stroke="#404040" points="1066.5,-54.4493 1059.9,-57.3485 1054.68,-52.3688 1061.29,-49.4696 1066.5,-54.4493"/>
<text text-anchor="middle" x="1292.65" y="-175.5" font-family="FreeSans" font-size="10.00"> +featureMatcherDiagnostics</text>
</g>
<!-- Node21&#45;&gt;Node20 -->
<g id="edge31" class="edge"><title>Node21&#45;&gt;Node20</title>
<path fill="none" stroke="#404040" d="M1347.15,-403.232C1347.15,-389.169 1347.15,-372.474 1347.15,-356.921"/>
<polygon fill="none" stroke="#404040" points="1347.15,-356.765 1343.15,-350.765 1347.15,-344.765 1351.15,-350.765 1347.15,-356.765"/>
<text text-anchor="middle" x="1371.65" y="-371.5" font-family="FreeSans" font-size="10.00"> +elements</text>
</g>
<!-- Node22&#45;&gt;Node21 -->
<g id="edge34" class="edge"><title>Node22&#45;&gt;Node21</title>
<path fill="none" stroke="#404040" d="M1494.06,-577.337C1464.73,-549.616 1422.74,-509.937 1391.16,-480.091"/>
<polygon fill="none" stroke="#404040" points="1390.86,-479.804 1383.75,-478.59 1382.14,-471.562 1389.25,-472.776 1390.86,-479.804"/>
<text text-anchor="middle" x="1505.15" y="-527.5" font-family="FreeSans" font-size="10.00"> +bfDiagnostics</text>
<text text-anchor="middle" x="1505.15" y="-516.5" font-family="FreeSans" font-size="10.00">+nnDiagnostics</text>
</g>
<!-- Node23 -->
<g id="node23" class="node"><title>Node23</title>
<polygon fill="white" stroke="#bfbfbf" points="1508.15,-748.5 1508.15,-805.5 1550.15,-805.5 1550.15,-748.5 1508.15,-748.5"/>
<text text-anchor="middle" x="1529.15" y="-793.5" font-family="FreeSans" font-size="10.00">size_t</text>
<polyline fill="none" stroke="#bfbfbf" points="1508.15,-786.5 1550.15,-786.5 "/>
<text text-anchor="middle" x="1529.15" y="-774.5" font-family="FreeSans" font-size="10.00"> </text>
<polyline fill="none" stroke="#bfbfbf" points="1508.15,-767.5 1550.15,-767.5 "/>
<text text-anchor="middle" x="1529.15" y="-755.5" font-family="FreeSans" font-size="10.00"> </text>
</g>
<!-- Node23&#45;&gt;Node22 -->
<g id="edge36" class="edge"><title>Node23&#45;&gt;Node22</title>
<path fill="none" stroke="#404040" d="M1529.15,-748.264C1529.15,-723.582 1529.15,-687.01 1529.15,-658.04"/>
<polygon fill="none" stroke="#404040" points="1529.15,-657.742 1525.15,-651.742 1529.15,-645.742 1533.15,-651.742 1529.15,-657.742"/>
<text text-anchor="middle" x="1573.15" y="-705.5" font-family="FreeSans" font-size="10.00"> +sSet1</text>
<text text-anchor="middle" x="1573.15" y="-694.5" font-family="FreeSans" font-size="10.00">+sSet2</text>
<text text-anchor="middle" x="1573.15" y="-683.5" font-family="FreeSans" font-size="10.00">+sCorrespondences</text>
</g>
</g>
</svg>
