<?xml version="1.0" encoding="UTF-8" standalone="no"?>
<!DOCTYPE svg PUBLIC "-//W3C//DTD SVG 1.1//EN"
 "http://www.w3.org/Graphics/SVG/1.1/DTD/svg11.dtd">
<!-- Generated by graphviz version 2.38.0 (20140413.2041)
 -->
<!-- Title: SeeSawN::GeometryN::NodalCameraTrackingPipelineC&lt; NodalGeometryEstimatorProblemT, NodalZoomGeometryEstimatorProblemT, MatchingProblemT &gt;::RecordC Pages: 1 -->
<svg width="214pt" height="215pt"
 viewBox="0.00 0.00 214.00 215.00" xmlns="http://www.w3.org/2000/svg" xmlns:xlink="http://www.w3.org/1999/xlink">
<g id="graph0" class="graph" transform="scale(1 1) rotate(0) translate(4 211)">
<title>SeeSawN::GeometryN::NodalCameraTrackingPipelineC&lt; NodalGeometryEstimatorProblemT, NodalZoomGeometryEstimatorProblemT, MatchingProblemT &gt;::RecordC</title>
<polygon fill="white" stroke="none" points="-4,4 -4,-211 210,-211 210,4 -4,4"/>
<!-- Node1 -->
<g id="node1" class="node"><title>Node1</title>
<polygon fill="#bfbfbf" stroke="black" points="0,-0.5 0,-101.5 206,-101.5 206,-0.5 0,-0.5"/>
<text text-anchor="start" x="8" y="-89.5" font-family="FreeSans" font-size="10.00">SeeSawN::GeometryN</text>
<text text-anchor="start" x="8" y="-78.5" font-family="FreeSans" font-size="10.00">::NodalCameraTrackingPipeline</text>
<text text-anchor="start" x="8" y="-67.5" font-family="FreeSans" font-size="10.00">C&lt; NodalGeometryEstimatorProblem</text>
<text text-anchor="start" x="8" y="-56.5" font-family="FreeSans" font-size="10.00">T, NodalZoomGeometryEstimatorProblemT,</text>
<text text-anchor="middle" x="103" y="-45.5" font-family="FreeSans" font-size="10.00"> MatchingProblemT &gt;::RecordC</text>
<polyline fill="none" stroke="black" points="0,-38.5 206,-38.5 "/>
<text text-anchor="middle" x="103" y="-26.5" font-family="FreeSans" font-size="10.00"> </text>
<polyline fill="none" stroke="black" points="0,-19.5 206,-19.5 "/>
<text text-anchor="middle" x="103" y="-7.5" font-family="FreeSans" font-size="10.00"> </text>
</g>
<!-- Node2 -->
<g id="node2" class="node"><title>Node2</title>
<polygon fill="white" stroke="#bfbfbf" points="44.5,-149.5 44.5,-206.5 73.5,-206.5 73.5,-149.5 44.5,-149.5"/>
<text text-anchor="middle" x="59" y="-194.5" font-family="FreeSans" font-size="10.00">int</text>
<polyline fill="none" stroke="#bfbfbf" points="44.5,-187.5 73.5,-187.5 "/>
<text text-anchor="middle" x="59" y="-175.5" font-family="FreeSans" font-size="10.00"> </text>
<polyline fill="none" stroke="#bfbfbf" points="44.5,-168.5 73.5,-168.5 "/>
<text text-anchor="middle" x="59" y="-156.5" font-family="FreeSans" font-size="10.00"> </text>
</g>
<!-- Node2&#45;&gt;Node1 -->
<g id="edge1" class="edge"><title>Node2&#45;&gt;Node1</title>
<path fill="none" stroke="#404040" d="M56.4955,-149.283C56.4217,-139.823 57.2199,-129.292 60,-120 60.7194,-117.595 61.5496,-115.193 62.4717,-112.805"/>
<polygon fill="none" stroke="#404040" points="62.5018,-112.738 61.2889,-105.629 67.384,-101.776 68.5969,-108.884 62.5018,-112.738"/>
<text text-anchor="middle" x="93" y="-123" font-family="FreeSans" font-size="10.00"> +nRegistration</text>
</g>
<!-- Node3 -->
<g id="node3" class="node"><title>Node3</title>
<polygon fill="white" stroke="#bfbfbf" points="127,-149.5 127,-206.5 169,-206.5 169,-149.5 127,-149.5"/>
<text text-anchor="middle" x="148" y="-194.5" font-family="FreeSans" font-size="10.00">size_t</text>
<polyline fill="none" stroke="#bfbfbf" points="127,-187.5 169,-187.5 "/>
<text text-anchor="middle" x="148" y="-175.5" font-family="FreeSans" font-size="10.00"> </text>
<polyline fill="none" stroke="#bfbfbf" points="127,-168.5 169,-168.5 "/>
<text text-anchor="middle" x="148" y="-156.5" font-family="FreeSans" font-size="10.00"> </text>
</g>
<!-- Node3&#45;&gt;Node1 -->
<g id="edge2" class="edge"><title>Node3&#45;&gt;Node1</title>
<path fill="none" stroke="#404040" d="M138.013,-149.258C134.167,-138.575 129.606,-125.905 125.068,-113.3"/>
<polygon fill="none" stroke="#404040" points="124.993,-113.092 119.197,-108.802 120.929,-101.802 126.725,-106.092 124.993,-113.092"/>
<text text-anchor="middle" x="155" y="-123" font-family="FreeSans" font-size="10.00"> +sSupport</text>
</g>
</g>
</svg>
