<?xml version="1.0" encoding="UTF-8" standalone="no"?>
<!DOCTYPE svg PUBLIC "-//W3C//DTD SVG 1.1//EN"
 "http://www.w3.org/Graphics/SVG/1.1/DTD/svg11.dtd">
<!-- Generated by graphviz version 2.38.0 (20140413.2041)
 -->
<!-- Title: SeeSawN::GeometryN::GeometryEstimatorDiagnosticsC Pages: 1 -->
<!--zoomable 709 -->
<svg id="main" version="1.1" xmlns="http://www.w3.org/2000/svg" xmlns:xlink="http://www.w3.org/1999/xlink" xml:space="preserve" onload="init(evt)">
<style type="text/css"><![CDATA[
.edge:hover path { stroke: red; }
.edge:hover polygon { stroke: red; fill: red; }
]]></style>
<script type="text/javascript"><![CDATA[
var edges = document.getElementsByTagName('g');
if (edges && edges.length) {
  for (var i=0;i<edges.length;i++) {
    if (edges[i].id.substr(0,4)=='edge') {
      edges[i].setAttribute('class','edge');
    }
  }
}
]]></script>
        <defs>
                <circle id="rim" cx="0" cy="0" r="7"/>
                <circle id="rim2" cx="0" cy="0" r="3.5"/>
                <g id="zoomPlus">
                        <use xlink:href="#rim" fill="#404040">
                                <set attributeName="fill" to="#808080" begin="zoomplus.mouseover" end="zoomplus.mouseout"/>
                        </use>
                        <path d="M-4,0h8M0,-4v8" fill="none" stroke="white" stroke-width="1.5" pointer-events="none"/>
                </g>
                <g id="zoomMin">
                        <use xlink:href="#rim" fill="#404040">
                                <set attributeName="fill" to="#808080" begin="zoomminus.mouseover" end="zoomminus.mouseout"/>
                        </use>
                        <path d="M-4,0h8" fill="none" stroke="white" stroke-width="1.5" pointer-events="none"/>
                </g>
                <g id="dirArrow">
                        <path fill="none" stroke="white" stroke-width="1.5" d="M0,-3.0v7 M-2.5,-0.5L0,-3.0L2.5,-0.5"/>
                </g>
               <g id="resetDef">
                       <use xlink:href="#rim2" fill="#404040">
                               <set attributeName="fill" to="#808080" begin="reset.mouseover" end="reset.mouseout"/>
                       </use>
               </g>
        </defs>

<script type="text/javascript">
var viewWidth = 915;
var viewHeight = 709;
var sectionId = 'dynsection-0';
</script>
<script xlink:href="svgpan.js"/>
<svg id="graph" class="graph">
<g id="viewport">
<title>SeeSawN::GeometryN::GeometryEstimatorDiagnosticsC</title>
<polygon fill="white" stroke="none" points="-4,4 -4,-705 911,-705 911,4 -4,4"/>
<!-- Node1 -->
<g id="node1" class="node"><title>Node1</title>
<polygon fill="#bfbfbf" stroke="black" points="100,-0.5 100,-68.5 272,-68.5 272,-0.5 100,-0.5"/>
<text text-anchor="start" x="108" y="-56.5" font-family="FreeSans" font-size="10.00">SeeSawN::GeometryN</text>
<text text-anchor="middle" x="186" y="-45.5" font-family="FreeSans" font-size="10.00">::GeometryEstimatorDiagnosticsC</text>
<polyline fill="none" stroke="black" points="100,-38.5 272,-38.5 "/>
<text text-anchor="middle" x="186" y="-26.5" font-family="FreeSans" font-size="10.00"> </text>
<polyline fill="none" stroke="black" points="100,-19.5 272,-19.5 "/>
<text text-anchor="start" x="108" y="-7.5" font-family="FreeSans" font-size="10.00">+ GeometryEstimatorDiagnosticsC()</text>
</g>
<!-- Node2 -->
<g id="node2" class="node"><title>Node2</title>
<g id="a_node2"><a xlink:href="structSeeSawN_1_1RANSACN_1_1TwoStageRANSACDiagnosticsC.html" target="_top" xlink:title="Diagnostics for TwoStageRANSACC. ">
<polygon fill="white" stroke="black" points="318,-116.5 318,-184.5 492,-184.5 492,-116.5 318,-116.5"/>
<text text-anchor="start" x="326" y="-172.5" font-family="FreeSans" font-size="10.00">SeeSawN::RANSACN::TwoStage</text>
<text text-anchor="middle" x="405" y="-161.5" font-family="FreeSans" font-size="10.00">RANSACDiagnosticsC</text>
<polyline fill="none" stroke="black" points="318,-154.5 492,-154.5 "/>
<text text-anchor="middle" x="405" y="-142.5" font-family="FreeSans" font-size="10.00"> </text>
<polyline fill="none" stroke="black" points="318,-135.5 492,-135.5 "/>
<text text-anchor="start" x="326" y="-123.5" font-family="FreeSans" font-size="10.00">+ TwoStageRANSACDiagnosticsC()</text>
</a>
</g>
</g>
<!-- Node2&#45;&gt;Node1 -->
<g id="edge1" class="edge"><title>Node2&#45;&gt;Node1</title>
<path fill="none" stroke="#404040" d="M341.362,-116.373C315.944,-103.142 286.501,-87.8157 260.126,-74.0863"/>
<polygon fill="none" stroke="#404040" points="260.062,-74.053 252.893,-74.8306 249.418,-68.5121 256.587,-67.7345 260.062,-74.053"/>
<text text-anchor="middle" x="347.5" y="-90" font-family="FreeSans" font-size="10.00"> +ransacDiagnostics</text>
</g>
<!-- Node3 -->
<g id="node3" class="node"><title>Node3</title>
<g id="a_node3"><a xlink:href="structSeeSawN_1_1RANSACN_1_1RANSACDiagnosticsC.html" target="_top" xlink:title="Diagnostics of RANSAC. ">
<polygon fill="white" stroke="black" points="433,-254.5 433,-322.5 651,-322.5 651,-254.5 433,-254.5"/>
<text text-anchor="middle" x="542" y="-310.5" font-family="FreeSans" font-size="10.00">SeeSawN::RANSACN::RANSACDiagnosticsC</text>
<polyline fill="none" stroke="black" points="433,-303.5 651,-303.5 "/>
<text text-anchor="middle" x="542" y="-291.5" font-family="FreeSans" font-size="10.00"> </text>
<polyline fill="none" stroke="black" points="433,-284.5 651,-284.5 "/>
<text text-anchor="start" x="441" y="-272.5" font-family="FreeSans" font-size="10.00">+ RANSACDiagnosticsC()</text>
<text text-anchor="start" x="441" y="-261.5" font-family="FreeSans" font-size="10.00">* IterationT</text>
</a>
</g>
</g>
<!-- Node3&#45;&gt;Node2 -->
<g id="edge2" class="edge"><title>Node3&#45;&gt;Node2</title>
<path fill="none" stroke="#404040" d="M508.486,-254.231C490.076,-235.955 467.056,-213.104 447.406,-193.596"/>
<polygon fill="none" stroke="#404040" points="447.159,-193.351 440.083,-191.963 438.643,-184.897 445.719,-186.286 447.159,-193.351"/>
<text text-anchor="middle" x="522" y="-222.5" font-family="FreeSans" font-size="10.00"> +diagnostics1</text>
<text text-anchor="middle" x="522" y="-211.5" font-family="FreeSans" font-size="10.00">+diagnostics2</text>
</g>
<!-- Node4 -->
<g id="node4" class="node"><title>Node4</title>
<polygon fill="white" stroke="#bfbfbf" points="62.5,-538.5 62.5,-595.5 107.5,-595.5 107.5,-538.5 62.5,-538.5"/>
<text text-anchor="middle" x="85" y="-583.5" font-family="FreeSans" font-size="10.00">double</text>
<polyline fill="none" stroke="#bfbfbf" points="62.5,-576.5 107.5,-576.5 "/>
<text text-anchor="middle" x="85" y="-564.5" font-family="FreeSans" font-size="10.00"> </text>
<polyline fill="none" stroke="#bfbfbf" points="62.5,-557.5 107.5,-557.5 "/>
<text text-anchor="middle" x="85" y="-545.5" font-family="FreeSans" font-size="10.00"> </text>
</g>
<!-- Node4&#45;&gt;Node1 -->
<g id="edge14" class="edge"><title>Node4&#45;&gt;Node1</title>
<path fill="none" stroke="#404040" d="M62.2216,-551.218C37.0435,-532.883 0,-499.094 0,-459 0,-459 0,-459 0,-149.5 0,-102.626 43.4716,-74.4302 88.3826,-57.808"/>
<polygon fill="none" stroke="#404040" points="88.4745,-57.776 92.824,-52.0243 99.8061,-53.827 95.4566,-59.5787 88.4745,-57.776"/>
<text text-anchor="middle" x="14" y="-286" font-family="FreeSans" font-size="10.00"> +error</text>
</g>
<!-- Node4&#45;&gt;Node3 -->
<g id="edge3" class="edge"><title>Node4&#45;&gt;Node3</title>
<path fill="none" stroke="#404040" d="M107.752,-566.306C197.624,-566.99 526.166,-564.368 591,-491 635.149,-441.039 618.364,-402.659 593,-341 591.827,-338.149 590.412,-335.372 588.811,-332.681"/>
<polygon fill="none" stroke="#404040" points="588.735,-332.573 582.013,-329.962 581.838,-322.753 588.56,-325.364 588.735,-332.573"/>
<text text-anchor="middle" x="655.5" y="-483" font-family="FreeSans" font-size="10.00"> +finalEpsilonVl</text>
<text text-anchor="middle" x="655.5" y="-472" font-family="FreeSans" font-size="10.00">+finalEpsilonOb</text>
<text text-anchor="middle" x="655.5" y="-461" font-family="FreeSans" font-size="10.00">+error</text>
<text text-anchor="middle" x="655.5" y="-450" font-family="FreeSans" font-size="10.00">+inlierRatio</text>
<text text-anchor="middle" x="655.5" y="-439" font-family="FreeSans" font-size="10.00">+finalDecisionTh</text>
<text text-anchor="middle" x="655.5" y="-428" font-family="FreeSans" font-size="10.00">+finalDelta</text>
</g>
<!-- Node14 -->
<g id="node14" class="node"><title>Node14</title>
<g id="a_node14"><a xlink:href="structSeeSawN_1_1OptimisationN_1_1PowellDogLegDiagnosticsC.html" target="_top" xlink:title="Diagnostics for PowellDogLegC. ">
<polygon fill="white" stroke="black" points="58,-254.5 58,-322.5 210,-322.5 210,-254.5 58,-254.5"/>
<text text-anchor="start" x="66" y="-310.5" font-family="FreeSans" font-size="10.00">SeeSawN::OptimisationN</text>
<text text-anchor="middle" x="134" y="-299.5" font-family="FreeSans" font-size="10.00">::PowellDogLegDiagnosticsC</text>
<polyline fill="none" stroke="black" points="58,-292.5 210,-292.5 "/>
<text text-anchor="middle" x="134" y="-280.5" font-family="FreeSans" font-size="10.00"> </text>
<polyline fill="none" stroke="black" points="58,-273.5 210,-273.5 "/>
<text text-anchor="start" x="66" y="-261.5" font-family="FreeSans" font-size="10.00">+ PowellDogLegDiagnosticsC()</text>
</a>
</g>
</g>
<!-- Node4&#45;&gt;Node14 -->
<g id="edge17" class="edge"><title>Node4&#45;&gt;Node14</title>
<path fill="none" stroke="#404040" d="M70.9738,-538.28C64.7478,-524.454 58.1294,-507.25 55,-491 42.3526,-425.327 33.2663,-398.749 67,-341 68.8997,-337.748 71.0922,-334.63 73.4996,-331.652"/>
<polygon fill="none" stroke="#404040" points="73.6888,-331.447 74.8164,-324.325 81.8247,-322.626 80.6971,-329.749 73.6888,-331.447"/>
<text text-anchor="middle" x="85.5" y="-472" font-family="FreeSans" font-size="10.00"> +error</text>
<text text-anchor="middle" x="85.5" y="-461" font-family="FreeSans" font-size="10.00">+finalEpsilon1</text>
<text text-anchor="middle" x="85.5" y="-450" font-family="FreeSans" font-size="10.00">+finalDelta</text>
<text text-anchor="middle" x="85.5" y="-439" font-family="FreeSans" font-size="10.00">+finalEpsilon2</text>
</g>
<!-- Node15 -->
<g id="node15" class="node"><title>Node15</title>
<polygon fill="white" stroke="#bfbfbf" points="125,-429.5 125,-486.5 217,-486.5 217,-429.5 125,-429.5"/>
<text text-anchor="middle" x="171" y="-474.5" font-family="FreeSans" font-size="10.00">std::list&lt; double &gt;</text>
<polyline fill="none" stroke="#bfbfbf" points="125,-467.5 217,-467.5 "/>
<text text-anchor="middle" x="171" y="-455.5" font-family="FreeSans" font-size="10.00"> </text>
<polyline fill="none" stroke="#bfbfbf" points="125,-448.5 217,-448.5 "/>
<text text-anchor="middle" x="171" y="-436.5" font-family="FreeSans" font-size="10.00"> </text>
</g>
<!-- Node4&#45;&gt;Node15 -->
<g id="edge19" class="edge"><title>Node4&#45;&gt;Node15</title>
<path fill="none" stroke="#404040" d="M107.147,-538.445C117.399,-525.689 129.738,-510.337 140.825,-496.543"/>
<polygon fill="none" stroke="#404040" points="141.111,-496.187 141.752,-489.004 148.629,-486.834 147.988,-494.016 141.111,-496.187"/>
<text text-anchor="middle" x="155.5" y="-512" font-family="FreeSans" font-size="10.00"> +elements</text>
</g>
<!-- Node5 -->
<g id="node5" class="node"><title>Node5</title>
<polygon fill="white" stroke="#bfbfbf" points="486,-429.5 486,-486.5 582,-486.5 582,-429.5 486,-429.5"/>
<text text-anchor="middle" x="534" y="-474.5" font-family="FreeSans" font-size="10.00">unsigned long long</text>
<polyline fill="none" stroke="#bfbfbf" points="486,-467.5 582,-467.5 "/>
<text text-anchor="middle" x="534" y="-455.5" font-family="FreeSans" font-size="10.00"> </text>
<polyline fill="none" stroke="#bfbfbf" points="486,-448.5 582,-448.5 "/>
<text text-anchor="middle" x="534" y="-436.5" font-family="FreeSans" font-size="10.00"> </text>
</g>
<!-- Node5&#45;&gt;Node3 -->
<g id="edge4" class="edge"><title>Node5&#45;&gt;Node3</title>
<path fill="none" stroke="#404040" d="M535.321,-429.341C536.544,-403.73 538.386,-365.167 539.826,-335.02"/>
<polygon fill="none" stroke="#404040" points="539.843,-334.663 536.134,-328.479 540.415,-322.677 544.125,-328.861 539.843,-334.663"/>
<text text-anchor="middle" x="564.5" y="-371.5" font-family="FreeSans" font-size="10.00"> +nLOCalls</text>
</g>
<!-- Node6 -->
<g id="node6" class="node"><title>Node6</title>
<polygon fill="white" stroke="#bfbfbf" points="385.5,-429.5 385.5,-486.5 414.5,-486.5 414.5,-429.5 385.5,-429.5"/>
<text text-anchor="middle" x="400" y="-474.5" font-family="FreeSans" font-size="10.00">int</text>
<polyline fill="none" stroke="#bfbfbf" points="385.5,-467.5 414.5,-467.5 "/>
<text text-anchor="middle" x="400" y="-455.5" font-family="FreeSans" font-size="10.00"> </text>
<polyline fill="none" stroke="#bfbfbf" points="385.5,-448.5 414.5,-448.5 "/>
<text text-anchor="middle" x="400" y="-436.5" font-family="FreeSans" font-size="10.00"> </text>
</g>
<!-- Node6&#45;&gt;Node3 -->
<g id="edge5" class="edge"><title>Node6&#45;&gt;Node3</title>
<path fill="none" stroke="#404040" d="M414.676,-439.783C422.07,-430.506 430.766,-418.606 437,-407 451.77,-379.503 441.456,-365.336 461,-341 463.967,-337.305 467.275,-333.796 470.81,-330.476"/>
<polygon fill="none" stroke="#404040" points="470.883,-330.414 472.845,-323.475 480.005,-322.618 478.043,-329.557 470.883,-330.414"/>
<text text-anchor="middle" x="497" y="-399" font-family="FreeSans" font-size="10.00"> +iIteration</text>
<text text-anchor="middle" x="497" y="-388" font-family="FreeSans" font-size="10.00">+nIterations</text>
<text text-anchor="middle" x="497" y="-377" font-family="FreeSans" font-size="10.00">+iEta</text>
<text text-anchor="middle" x="497" y="-366" font-family="FreeSans" font-size="10.00">+nValidatorCalls</text>
<text text-anchor="middle" x="497" y="-355" font-family="FreeSans" font-size="10.00">+iGenerator</text>
<text text-anchor="middle" x="497" y="-344" font-family="FreeSans" font-size="10.00">+iError</text>
</g>
<!-- Node6&#45;&gt;Node14 -->
<g id="edge21" class="edge"><title>Node6&#45;&gt;Node14</title>
<path fill="none" stroke="#404040" d="M385.101,-450.816C359.605,-440.105 308.825,-418.181 293,-407 259.375,-383.243 260.847,-365.821 228,-341 222.484,-336.832 216.589,-332.788 210.541,-328.922"/>
<polygon fill="none" stroke="#404040" points="210.476,-328.882 203.27,-329.142 200.258,-322.59 207.465,-322.33 210.476,-328.882"/>
<text text-anchor="middle" x="320.5" y="-371.5" font-family="FreeSans" font-size="10.00"> +nIterations</text>
</g>
<!-- Node7 -->
<g id="node7" class="node"><title>Node7</title>
<g id="a_node7"><a xlink:href="classbool.html" target="_top" xlink:title="{bool\n||}">
<polygon fill="white" stroke="black" points="279.5,-429.5 279.5,-486.5 314.5,-486.5 314.5,-429.5 279.5,-429.5"/>
<text text-anchor="middle" x="297" y="-474.5" font-family="FreeSans" font-size="10.00">bool</text>
<polyline fill="none" stroke="black" points="279.5,-467.5 314.5,-467.5 "/>
<text text-anchor="middle" x="297" y="-455.5" font-family="FreeSans" font-size="10.00"> </text>
<polyline fill="none" stroke="black" points="279.5,-448.5 314.5,-448.5 "/>
<text text-anchor="middle" x="297" y="-436.5" font-family="FreeSans" font-size="10.00"> </text>
</a>
</g>
</g>
<!-- Node7&#45;&gt;Node1 -->
<g id="edge15" class="edge"><title>Node7&#45;&gt;Node1</title>
<path fill="none" stroke="#404040" d="M279.47,-442.686C269.621,-433.574 258.112,-420.897 252,-407 199.688,-288.065 258.466,-241.276 224,-116 220.649,-103.819 215.563,-91.208 210.192,-79.6846"/>
<polygon fill="none" stroke="#404040" points="210.037,-79.3668 203.812,-75.7258 204.779,-68.5798 211.004,-72.2208 210.037,-79.3668"/>
<text text-anchor="middle" x="267" y="-228" font-family="FreeSans" font-size="10.00"> +flagSuccess</text>
<text text-anchor="middle" x="267" y="-217" font-family="FreeSans" font-size="10.00">+flagStage2</text>
<text text-anchor="middle" x="267" y="-206" font-family="FreeSans" font-size="10.00">+flagLO</text>
</g>
<!-- Node7&#45;&gt;Node2 -->
<g id="edge11" class="edge"><title>Node7&#45;&gt;Node2</title>
<path fill="none" stroke="#404040" d="M314.505,-431.34C319.089,-423.755 323.674,-415.264 327,-407 353.046,-342.288 340.65,-320.409 362,-254 368.25,-234.559 376.68,-213.677 384.42,-195.866"/>
<polygon fill="none" stroke="#404040" points="384.526,-195.627 383.293,-188.522 389.377,-184.652 390.61,-191.757 384.526,-195.627"/>
<text text-anchor="middle" x="393" y="-286" font-family="FreeSans" font-size="10.00"> +flagSuccess</text>
</g>
<!-- Node7&#45;&gt;Node3 -->
<g id="edge6" class="edge"><title>Node7&#45;&gt;Node3</title>
<path fill="none" stroke="#404040" d="M314.505,-445.148C326.678,-436.048 342.387,-422.449 352,-407 368.127,-381.084 349.548,-362.716 371,-341 375.606,-336.338 395.822,-329.137 420.835,-321.584"/>
<polygon fill="none" stroke="#404040" points="421.119,-321.5 425.738,-315.962 432.627,-318.096 428.007,-323.634 421.119,-321.5"/>
<text text-anchor="middle" x="402" y="-371.5" font-family="FreeSans" font-size="10.00"> +flagSuccess</text>
</g>
<!-- Node7&#45;&gt;Node14 -->
<g id="edge22" class="edge"><title>Node7&#45;&gt;Node14</title>
<path fill="none" stroke="#404040" d="M279.214,-448.09C265.036,-441.206 244.551,-431.747 226,-425 198.231,-414.901 182.469,-428.31 162,-407 152.003,-396.592 144.662,-363.413 140.011,-334.956"/>
<polygon fill="none" stroke="#404040" points="139.953,-334.581 135.085,-329.261 138.123,-322.721 142.991,-328.041 139.953,-334.581"/>
<text text-anchor="middle" x="193" y="-371.5" font-family="FreeSans" font-size="10.00"> +flagSuccess</text>
</g>
<!-- Node8 -->
<g id="node8" class="node"><title>Node8</title>
<polygon fill="white" stroke="#bfbfbf" points="709.5,-429.5 709.5,-486.5 814.5,-486.5 814.5,-429.5 709.5,-429.5"/>
<text text-anchor="middle" x="762" y="-474.5" font-family="FreeSans" font-size="10.00">std::list&lt; IterationT &gt;</text>
<polyline fill="none" stroke="#bfbfbf" points="709.5,-467.5 814.5,-467.5 "/>
<text text-anchor="middle" x="762" y="-455.5" font-family="FreeSans" font-size="10.00"> </text>
<polyline fill="none" stroke="#bfbfbf" points="709.5,-448.5 814.5,-448.5 "/>
<text text-anchor="middle" x="762" y="-436.5" font-family="FreeSans" font-size="10.00"> </text>
</g>
<!-- Node8&#45;&gt;Node3 -->
<g id="edge7" class="edge"><title>Node8&#45;&gt;Node3</title>
<path fill="none" stroke="#404040" d="M734.535,-429.394C709.166,-404.671 669.8,-368.223 632,-341 626.385,-336.956 620.427,-332.966 614.356,-329.104"/>
<polygon fill="none" stroke="#404040" points="614.276,-329.054 607.069,-329.298 604.072,-322.739 611.279,-322.495 614.276,-329.054"/>
<text text-anchor="middle" x="727.5" y="-371.5" font-family="FreeSans" font-size="10.00"> +history</text>
</g>
<!-- Node9 -->
<g id="node9" class="node"><title>Node9</title>
<polygon fill="white" stroke="#bfbfbf" points="787,-538.5 787,-595.5 825,-595.5 825,-538.5 787,-538.5"/>
<text text-anchor="middle" x="806" y="-583.5" font-family="FreeSans" font-size="10.00">tuple</text>
<polyline fill="none" stroke="#bfbfbf" points="787,-576.5 825,-576.5 "/>
<text text-anchor="middle" x="806" y="-564.5" font-family="FreeSans" font-size="10.00"> </text>
<polyline fill="none" stroke="#bfbfbf" points="787,-557.5 825,-557.5 "/>
<text text-anchor="middle" x="806" y="-545.5" font-family="FreeSans" font-size="10.00"> </text>
</g>
<!-- Node9&#45;&gt;Node8 -->
<g id="edge8" class="edge"><title>Node9&#45;&gt;Node8</title>
<path fill="none" stroke="#404040" d="M795.625,-538.356C792.035,-528.998 787.925,-518.511 784,-509 782.498,-505.362 780.906,-501.589 779.291,-497.822"/>
<polygon fill="none" stroke="#404040" points="779.228,-497.678 773.169,-493.769 774.448,-486.672 780.507,-490.582 779.228,-497.678"/>
<text text-anchor="middle" x="813.5" y="-512" font-family="FreeSans" font-size="10.00"> +elements</text>
</g>
<!-- Node10 -->
<g id="node10" class="node"><title>Node10</title>
<g id="a_node10"><a xlink:title="STL class. ">
<polygon fill="white" stroke="#bfbfbf" points="651,-538.5 651,-595.5 721,-595.5 721,-538.5 651,-538.5"/>
<text text-anchor="middle" x="686" y="-583.5" font-family="FreeSans" font-size="10.00">std::list&lt; T &gt;</text>
<polyline fill="none" stroke="#bfbfbf" points="651,-576.5 721,-576.5 "/>
<text text-anchor="middle" x="686" y="-564.5" font-family="FreeSans" font-size="10.00"> </text>
<polyline fill="none" stroke="#bfbfbf" points="651,-557.5 721,-557.5 "/>
<text text-anchor="middle" x="686" y="-545.5" font-family="FreeSans" font-size="10.00"> </text>
</a>
</g>
</g>
<!-- Node10&#45;&gt;Node8 -->
<g id="edge9" class="edge"><title>Node10&#45;&gt;Node8</title>
<path fill="none" stroke="orange" d="M705.678,-529.672C709.849,-522.664 714.391,-515.49 719,-509 724.37,-501.439 730.646,-493.657 736.718,-486.551"/>
<polygon fill="orange" stroke="orange" points="702.608,-527.988 700.615,-538.394 708.662,-531.502 702.608,-527.988"/>
<text text-anchor="middle" x="749.5" y="-512" font-family="FreeSans" font-size="10.00"> &lt; IterationT &gt;</text>
</g>
<!-- Node10&#45;&gt;Node15 -->
<g id="edge20" class="edge"><title>Node10&#45;&gt;Node15</title>
<path fill="none" stroke="orange" d="M640.586,-559.853C563.655,-548.987 403.087,-524.346 270,-491 252.654,-486.654 233.918,-480.883 217.462,-475.44"/>
<polygon fill="orange" stroke="orange" points="640.485,-563.373 650.874,-561.294 641.457,-556.441 640.485,-563.373"/>
<text text-anchor="middle" x="419" y="-512" font-family="FreeSans" font-size="10.00"> &lt; double &gt;</text>
</g>
<!-- Node11 -->
<g id="node11" class="node"><title>Node11</title>
<polygon fill="white" stroke="#bfbfbf" points="671.5,-643.5 671.5,-700.5 700.5,-700.5 700.5,-643.5 671.5,-643.5"/>
<text text-anchor="middle" x="686" y="-688.5" font-family="FreeSans" font-size="10.00">T</text>
<polyline fill="none" stroke="#bfbfbf" points="671.5,-681.5 700.5,-681.5 "/>
<text text-anchor="middle" x="686" y="-669.5" font-family="FreeSans" font-size="10.00"> </text>
<polyline fill="none" stroke="#bfbfbf" points="671.5,-662.5 700.5,-662.5 "/>
<text text-anchor="middle" x="686" y="-650.5" font-family="FreeSans" font-size="10.00"> </text>
</g>
<!-- Node11&#45;&gt;Node10 -->
<g id="edge10" class="edge"><title>Node11&#45;&gt;Node10</title>
<path fill="none" stroke="#404040" d="M686,-643.398C686,-632.545 686,-619.873 686,-608.049"/>
<polygon fill="none" stroke="#404040" points="686,-607.678 682,-601.678 686,-595.678 690,-601.678 686,-607.678"/>
<text text-anchor="middle" x="710.5" y="-617" font-family="FreeSans" font-size="10.00"> +elements</text>
</g>
<!-- Node12 -->
<g id="node12" class="node"><title>Node12</title>
<polygon fill="white" stroke="#bfbfbf" points="739,-254.5 739,-322.5 837,-322.5 837,-254.5 739,-254.5"/>
<text text-anchor="start" x="747" y="-310.5" font-family="FreeSans" font-size="10.00">optional&lt; unsigned</text>
<text text-anchor="middle" x="788" y="-299.5" font-family="FreeSans" font-size="10.00"> int &gt;</text>
<polyline fill="none" stroke="#bfbfbf" points="739,-292.5 837,-292.5 "/>
<text text-anchor="middle" x="788" y="-280.5" font-family="FreeSans" font-size="10.00"> </text>
<polyline fill="none" stroke="#bfbfbf" points="739,-273.5 837,-273.5 "/>
<text text-anchor="middle" x="788" y="-261.5" font-family="FreeSans" font-size="10.00"> </text>
</g>
<!-- Node12&#45;&gt;Node2 -->
<g id="edge12" class="edge"><title>Node12&#45;&gt;Node2</title>
<path fill="none" stroke="#404040" d="M738.788,-268.977C692.313,-251.589 620.599,-225.03 558,-203 540.459,-196.827 521.733,-190.394 503.614,-184.251"/>
<polygon fill="none" stroke="#404040" points="503.49,-184.209 496.525,-186.077 492.122,-180.366 499.087,-178.498 503.49,-184.209"/>
<text text-anchor="middle" x="685.5" y="-217" font-family="FreeSans" font-size="10.00"> +iStage1Solution</text>
</g>
<!-- Node13 -->
<g id="node13" class="node"><title>Node13</title>
<polygon fill="white" stroke="#bfbfbf" points="833,-429.5 833,-486.5 883,-486.5 883,-429.5 833,-429.5"/>
<text text-anchor="middle" x="858" y="-474.5" font-family="FreeSans" font-size="10.00">optional</text>
<polyline fill="none" stroke="#bfbfbf" points="833,-467.5 883,-467.5 "/>
<text text-anchor="middle" x="858" y="-455.5" font-family="FreeSans" font-size="10.00"> </text>
<polyline fill="none" stroke="#bfbfbf" points="833,-448.5 883,-448.5 "/>
<text text-anchor="middle" x="858" y="-436.5" font-family="FreeSans" font-size="10.00"> </text>
</g>
<!-- Node13&#45;&gt;Node12 -->
<g id="edge13" class="edge"><title>Node13&#45;&gt;Node12</title>
<path fill="none" stroke="orange" d="M842.509,-419.933C830.353,-390.844 813.583,-350.716 801.865,-322.677"/>
<polygon fill="orange" stroke="orange" points="839.356,-421.464 846.441,-429.341 845.814,-418.764 839.356,-421.464"/>
<text text-anchor="middle" x="871.5" y="-371.5" font-family="FreeSans" font-size="10.00"> &lt; unsigned int &gt;</text>
</g>
<!-- Node14&#45;&gt;Node1 -->
<g id="edge16" class="edge"><title>Node14&#45;&gt;Node1</title>
<path fill="none" stroke="#404040" d="M134.249,-254.41C135.21,-219.474 138.761,-163.055 151,-116 154.136,-103.943 158.838,-91.3773 163.787,-79.8575"/>
<polygon fill="none" stroke="#404040" points="163.86,-79.6941 162.664,-72.5829 168.768,-68.7439 169.964,-75.8551 163.86,-79.6941"/>
<text text-anchor="middle" x="187.5" y="-148" font-family="FreeSans" font-size="10.00"> +pdlDiagnostics</text>
</g>
<!-- Node15&#45;&gt;Node14 -->
<g id="edge18" class="edge"><title>Node15&#45;&gt;Node14</title>
<path fill="none" stroke="#404040" d="M124.993,-432.359C102.779,-420.353 80.7228,-408.222 80,-407 65.0652,-381.753 68.4544,-367.966 80,-341 81.227,-338.134 82.7004,-335.352 84.363,-332.664"/>
<polygon fill="none" stroke="#404040" points="84.51,-332.463 84.8228,-325.258 91.5932,-322.776 91.2804,-329.981 84.51,-332.463"/>
<text text-anchor="middle" x="109.5" y="-371.5" font-family="FreeSans" font-size="10.00"> +errorHistory</text>
</g>
</g>
</svg>
        <g id="navigator" transform="translate(0 0)" fill="#404254">
                <rect fill="#f2f5e9" fill-opacity="0.5" stroke="#606060" stroke-width=".5" x="0" y="0" width="60" height="60"/>
                <use id="zoomplus" xlink:href="#zoomPlus" x="17" y="9" onmousedown="handleZoom(evt,'in')"/>
                <use id="zoomminus" xlink:href="#zoomMin" x="42" y="9" onmousedown="handleZoom(evt,'out')"/>
                <use id="reset" xlink:href="#resetDef" x="30" y="36" onmousedown="handleReset()"/>
                <g id="arrowUp" xlink:href="#dirArrow" transform="translate(30 24)" onmousedown="handlePan(0,-1)">
                  <use xlink:href="#rim" fill="#404040">
                        <set attributeName="fill" to="#808080" begin="arrowUp.mouseover" end="arrowUp.mouseout"/>
                  </use>
                  <path fill="none" stroke="white" stroke-width="1.5" d="M0,-3.0v7 M-2.5,-0.5L0,-3.0L2.5,-0.5"/>
                </g>
                <g id="arrowRight" xlink:href="#dirArrow" transform="rotate(90) translate(36 -43)" onmousedown="handlePan(1,0)">
                  <use xlink:href="#rim" fill="#404040">
                        <set attributeName="fill" to="#808080" begin="arrowRight.mouseover" end="arrowRight.mouseout"/>
                  </use>
                  <path fill="none" stroke="white" stroke-width="1.5" d="M0,-3.0v7 M-2.5,-0.5L0,-3.0L2.5,-0.5"/>
                </g>
                <g id="arrowDown" xlink:href="#dirArrow" transform="rotate(180) translate(-30 -48)" onmousedown="handlePan(0,1)">
                  <use xlink:href="#rim" fill="#404040">
                        <set attributeName="fill" to="#808080" begin="arrowDown.mouseover" end="arrowDown.mouseout"/>
                  </use>
                  <path fill="none" stroke="white" stroke-width="1.5" d="M0,-3.0v7 M-2.5,-0.5L0,-3.0L2.5,-0.5"/>
                </g>
                <g id="arrowLeft" xlink:href="#dirArrow" transform="rotate(270) translate(-36 17)" onmousedown="handlePan(-1,0)">
                  <use xlink:href="#rim" fill="#404040">
                        <set attributeName="fill" to="#808080" begin="arrowLeft.mouseover" end="arrowLeft.mouseout"/>
                  </use>
                  <path fill="none" stroke="white" stroke-width="1.5" d="M0,-3.0v7 M-2.5,-0.5L0,-3.0L2.5,-0.5"/>
                </g>
        </g>
        <svg viewBox="0 0 15 15" width="100%" height="30px" preserveAspectRatio="xMaxYMin meet">
         <g id="arrow_out" transform="scale(0.3 0.3)">
          <a xlink:href="structSeeSawN_1_1GeometryN_1_1GeometryEstimatorDiagnosticsC__coll__graph_org.svg" target="_base">
           <rect id="button" ry="5" rx="5" y="6" x="6" height="38" width="38"
                fill="#f2f5e9" fill-opacity="0.5" stroke="#606060" stroke-width="1.0"/>
           <path id="arrow"
             d="M 11.500037,31.436501 C 11.940474,20.09759 22.043105,11.32322 32.158766,21.979434 L 37.068811,17.246167 C 37.068811,17.246167 37.088388,32 37.088388,32 L 22.160133,31.978069 C 22.160133,31.978069 26.997745,27.140456 26.997745,27.140456 C 18.528582,18.264221 13.291696,25.230495 11.500037,31.436501 z"
             style="fill:#404040;"/>
          </a>
         </g>
        </svg>
</svg>
