<?xml version="1.0" encoding="UTF-8" standalone="no"?>
<!DOCTYPE svg PUBLIC "-//W3C//DTD SVG 1.1//EN"
 "http://www.w3.org/Graphics/SVG/1.1/DTD/svg11.dtd">
<!-- Generated by graphviz version 2.38.0 (20140413.2041)
 -->
<!-- Title: SeeSawN::AppNodalCameraTrackerN::AppNodalCameraTrackerParametersC Pages: 1 -->
<!--zoomable 1271 -->
<svg id="main" version="1.1" xmlns="http://www.w3.org/2000/svg" xmlns:xlink="http://www.w3.org/1999/xlink" xml:space="preserve" onload="init(evt)">
<style type="text/css"><![CDATA[
.edge:hover path { stroke: red; }
.edge:hover polygon { stroke: red; fill: red; }
]]></style>
<script type="text/javascript"><![CDATA[
var edges = document.getElementsByTagName('g');
if (edges && edges.length) {
  for (var i=0;i<edges.length;i++) {
    if (edges[i].id.substr(0,4)=='edge') {
      edges[i].setAttribute('class','edge');
    }
  }
}
]]></script>
        <defs>
                <circle id="rim" cx="0" cy="0" r="7"/>
                <circle id="rim2" cx="0" cy="0" r="3.5"/>
                <g id="zoomPlus">
                        <use xlink:href="#rim" fill="#404040">
                                <set attributeName="fill" to="#808080" begin="zoomplus.mouseover" end="zoomplus.mouseout"/>
                        </use>
                        <path d="M-4,0h8M0,-4v8" fill="none" stroke="white" stroke-width="1.5" pointer-events="none"/>
                </g>
                <g id="zoomMin">
                        <use xlink:href="#rim" fill="#404040">
                                <set attributeName="fill" to="#808080" begin="zoomminus.mouseover" end="zoomminus.mouseout"/>
                        </use>
                        <path d="M-4,0h8" fill="none" stroke="white" stroke-width="1.5" pointer-events="none"/>
                </g>
                <g id="dirArrow">
                        <path fill="none" stroke="white" stroke-width="1.5" d="M0,-3.0v7 M-2.5,-0.5L0,-3.0L2.5,-0.5"/>
                </g>
               <g id="resetDef">
                       <use xlink:href="#rim2" fill="#404040">
                               <set attributeName="fill" to="#808080" begin="reset.mouseover" end="reset.mouseout"/>
                       </use>
               </g>
        </defs>

<script type="text/javascript">
var viewWidth = 2193;
var viewHeight = 1271;
var sectionId = 'dynsection-0';
</script>
<script xlink:href="svgpan.js"/>
<svg id="graph" class="graph">
<g id="viewport">
<title>SeeSawN::AppNodalCameraTrackerN::AppNodalCameraTrackerParametersC</title>
<polygon fill="white" stroke="none" points="-4,4 -4,-1267 2189,-1267 2189,4 -4,4"/>
<!-- Node1 -->
<g id="node1" class="node"><title>Node1</title>
<polygon fill="#bfbfbf" stroke="black" points="1780.5,-0.5 1780.5,-68.5 1977.5,-68.5 1977.5,-0.5 1780.5,-0.5"/>
<text text-anchor="start" x="1788.5" y="-56.5" font-family="FreeSans" font-size="10.00">SeeSawN::AppNodalCameraTracker</text>
<text text-anchor="middle" x="1879" y="-45.5" font-family="FreeSans" font-size="10.00">N::AppNodalCameraTrackerParametersC</text>
<polyline fill="none" stroke="black" points="1780.5,-38.5 1977.5,-38.5 "/>
<text text-anchor="middle" x="1879" y="-26.5" font-family="FreeSans" font-size="10.00"> </text>
<polyline fill="none" stroke="black" points="1780.5,-19.5 1977.5,-19.5 "/>
<text text-anchor="start" x="1788.5" y="-7.5" font-family="FreeSans" font-size="10.00">+ AppNodalCameraTrackerParametersC()</text>
</g>
<!-- Node2 -->
<g id="node2" class="node"><title>Node2</title>
<polygon fill="white" stroke="#bfbfbf" points="760.5,-1100.5 760.5,-1157.5 805.5,-1157.5 805.5,-1100.5 760.5,-1100.5"/>
<text text-anchor="middle" x="783" y="-1145.5" font-family="FreeSans" font-size="10.00">double</text>
<polyline fill="none" stroke="#bfbfbf" points="760.5,-1138.5 805.5,-1138.5 "/>
<text text-anchor="middle" x="783" y="-1126.5" font-family="FreeSans" font-size="10.00"> </text>
<polyline fill="none" stroke="#bfbfbf" points="760.5,-1119.5 805.5,-1119.5 "/>
<text text-anchor="middle" x="783" y="-1107.5" font-family="FreeSans" font-size="10.00"> </text>
</g>
<!-- Node2&#45;&gt;Node1 -->
<g id="edge1" class="edge"><title>Node2&#45;&gt;Node1</title>
<path fill="none" stroke="#404040" d="M760.311,-1126.39C654.31,-1118.86 212.782,-1087.18 208,-1082 171.521,-1042.49 207.396,-1014.77 208,-961 209.328,-842.772 220.441,-812.934 212,-695 207.544,-632.745 200.956,-617.768 192,-556 184.942,-507.326 176,-495.683 176,-446.5 176,-446.5 176,-446.5 176,-226.5 176,-65.6831 1390.8,-40.2684 1768.39,-36.2531"/>
<polygon fill="none" stroke="#404040" points="1768.39,-36.2532 1774.35,-32.1917 1780.39,-36.1298 1774.43,-40.1913 1768.39,-36.2532"/>
<text text-anchor="middle" x="219" y="-501" font-family="FreeSans" font-size="10.00"> +gridSpacing</text>
</g>
<!-- Node4 -->
<g id="node4" class="node"><title>Node4</title>
<g id="a_node4"><a xlink:href="structSeeSawN_1_1GeometryN_1_1NodalCameraTrackingPipelineParametersC.html" target="_top" xlink:title="Parameters for the nodal camera tracking pipeline. ">
<polygon fill="white" stroke="black" points="1512,-171.5 1512,-283.5 1668,-283.5 1668,-171.5 1512,-171.5"/>
<text text-anchor="start" x="1520" y="-271.5" font-family="FreeSans" font-size="10.00">SeeSawN::GeometryN</text>
<text text-anchor="start" x="1520" y="-260.5" font-family="FreeSans" font-size="10.00">::NodalCameraTrackingPipeline</text>
<text text-anchor="middle" x="1590" y="-249.5" font-family="FreeSans" font-size="10.00">ParametersC</text>
<polyline fill="none" stroke="black" points="1512,-242.5 1668,-242.5 "/>
<text text-anchor="start" x="1520" y="-230.5" font-family="FreeSans" font-size="10.00">+ supportLossTrackingFailure</text>
<text text-anchor="start" x="1520" y="-219.5" font-family="FreeSans" font-size="10.00">+ maxFocalLength</text>
<text text-anchor="start" x="1520" y="-208.5" font-family="FreeSans" font-size="10.00">+ focalLengthSensitivity</text>
<polyline fill="none" stroke="black" points="1512,-201.5 1668,-201.5 "/>
<text text-anchor="start" x="1520" y="-189.5" font-family="FreeSans" font-size="10.00">+ NodalCameraTrackingPipeline</text>
<text text-anchor="start" x="1520" y="-178.5" font-family="FreeSans" font-size="10.00">ParametersC()</text>
</a>
</g>
</g>
<!-- Node2&#45;&gt;Node4 -->
<g id="edge38" class="edge"><title>Node2&#45;&gt;Node4</title>
<path fill="none" stroke="#404040" d="M760.358,-1128.25C690.809,-1128.53 482.073,-1125.65 434,-1082 393.134,-1044.89 447.217,-997.716 406,-961 379.283,-937.201 269.844,-969.677 246,-943 215.789,-909.2 244.179,-886.297 246,-841 250.003,-741.425 264,-717.155 264,-617.5 264,-617.5 264,-617.5 264,-375.5 264,-250.922 1200.52,-231.913 1499.45,-229.018"/>
<polygon fill="none" stroke="#404040" points="1499.51,-229.018 1505.48,-224.963 1511.51,-228.907 1505.55,-232.962 1499.51,-229.018"/>
<text text-anchor="middle" x="328" y="-669" font-family="FreeSans" font-size="10.00"> +predictionNoise</text>
<text text-anchor="middle" x="328" y="-658" font-family="FreeSans" font-size="10.00">+supportLossModeSwitch</text>
<text text-anchor="middle" x="328" y="-647" font-family="FreeSans" font-size="10.00">+worldNoiseVariance</text>
<text text-anchor="middle" x="328" y="-636" font-family="FreeSans" font-size="10.00">+generatorUpdateThreshold</text>
<text text-anchor="middle" x="328" y="-625" font-family="FreeSans" font-size="10.00">+minFocalLength</text>
<text text-anchor="middle" x="328" y="-614" font-family="FreeSans" font-size="10.00">+imageDiagonal</text>
<text text-anchor="middle" x="328" y="-603" font-family="FreeSans" font-size="10.00">+inlierRejectionProbability</text>
<text text-anchor="middle" x="328" y="-592" font-family="FreeSans" font-size="10.00">+zoomMeasurementWeight</text>
<text text-anchor="middle" x="328" y="-581" font-family="FreeSans" font-size="10.00">+imageNoiseVariance</text>
<text text-anchor="middle" x="328" y="-570" font-family="FreeSans" font-size="10.00">+rotationMeasurementWeight</text>
<text text-anchor="middle" x="328" y="-559" font-family="FreeSans" font-size="10.00">...</text>
</g>
<!-- Node5 -->
<g id="node5" class="node"><title>Node5</title>
<g id="a_node5"><a xlink:href="structSeeSawN_1_1GeometryN_1_1GeometryEstimationPipelineParametersC.html" target="_top" xlink:title="Parameters for GeometryEstimationPipelineC. ">
<polygon fill="white" stroke="black" points="1327.5,-331.5 1327.5,-421.5 1474.5,-421.5 1474.5,-331.5 1327.5,-331.5"/>
<text text-anchor="start" x="1335.5" y="-409.5" font-family="FreeSans" font-size="10.00">SeeSawN::GeometryN</text>
<text text-anchor="start" x="1335.5" y="-398.5" font-family="FreeSans" font-size="10.00">::GeometryEstimationPipeline</text>
<text text-anchor="middle" x="1401" y="-387.5" font-family="FreeSans" font-size="10.00">ParametersC</text>
<polyline fill="none" stroke="black" points="1327.5,-380.5 1474.5,-380.5 "/>
<text text-anchor="middle" x="1401" y="-368.5" font-family="FreeSans" font-size="10.00"> </text>
<polyline fill="none" stroke="black" points="1327.5,-361.5 1474.5,-361.5 "/>
<text text-anchor="start" x="1335.5" y="-349.5" font-family="FreeSans" font-size="10.00">+ GeometryEstimationPipeline</text>
<text text-anchor="start" x="1335.5" y="-338.5" font-family="FreeSans" font-size="10.00">ParametersC()</text>
</a>
</g>
</g>
<!-- Node2&#45;&gt;Node5 -->
<g id="edge5" class="edge"><title>Node2&#45;&gt;Node5</title>
<path fill="none" stroke="#404040" d="M805.697,-1124.69C846.766,-1118.83 936.187,-1106.61 1012,-1100 1050.13,-1096.68 1327.29,-1107.31 1356,-1082 1367.37,-1071.98 1401,-828.152 1401,-813 1401,-813 1401,-813 1401,-502.5 1401,-480.096 1401,-455.433 1401,-433.977"/>
<polygon fill="none" stroke="#404040" points="1401,-433.755 1397,-427.755 1401,-421.755 1405,-427.755 1401,-433.755"/>
<text text-anchor="middle" x="1451.5" y="-775" font-family="FreeSans" font-size="10.00"> +maxAmbiguity</text>
<text text-anchor="middle" x="1451.5" y="-764" font-family="FreeSans" font-size="10.00">+minObservationRatio</text>
<text text-anchor="middle" x="1451.5" y="-753" font-family="FreeSans" font-size="10.00">+binDensity1</text>
<text text-anchor="middle" x="1451.5" y="-742" font-family="FreeSans" font-size="10.00">+maxObservationRatio</text>
<text text-anchor="middle" x="1451.5" y="-731" font-family="FreeSans" font-size="10.00">+binDensity2</text>
<text text-anchor="middle" x="1451.5" y="-720" font-family="FreeSans" font-size="10.00">+minRelativeDifference</text>
<text text-anchor="middle" x="1451.5" y="-709" font-family="FreeSans" font-size="10.00">+refreshThreshold</text>
<text text-anchor="middle" x="1451.5" y="-698" font-family="FreeSans" font-size="10.00">+validationRatio</text>
</g>
<!-- Node7 -->
<g id="node7" class="node"><title>Node7</title>
<g id="a_node7"><a xlink:href="structSeeSawN_1_1OptimisationN_1_1PowellDogLegParametersC.html" target="_top" xlink:title="Parameters for PowellDogLegC. ">
<polygon fill="white" stroke="black" points="879.5,-858 879.5,-926 1030.5,-926 1030.5,-858 879.5,-858"/>
<text text-anchor="start" x="887.5" y="-914" font-family="FreeSans" font-size="10.00">SeeSawN::OptimisationN</text>
<text text-anchor="middle" x="955" y="-903" font-family="FreeSans" font-size="10.00">::PowellDogLegParametersC</text>
<polyline fill="none" stroke="black" points="879.5,-896 1030.5,-896 "/>
<text text-anchor="middle" x="955" y="-884" font-family="FreeSans" font-size="10.00"> </text>
<polyline fill="none" stroke="black" points="879.5,-877 1030.5,-877 "/>
<text text-anchor="start" x="887.5" y="-865" font-family="FreeSans" font-size="10.00">+ PowellDogLegParametersC()</text>
</a>
</g>
</g>
<!-- Node2&#45;&gt;Node7 -->
<g id="edge8" class="edge"><title>Node2&#45;&gt;Node7</title>
<path fill="none" stroke="#404040" d="M805.929,-1108.43C813.407,-1100.9 821.051,-1091.75 826,-1082 850.78,-1033.19 818.357,-1006.36 849,-961 852.088,-956.429 869.211,-944.896 888.826,-932.6"/>
<polygon fill="none" stroke="#404040" points="889.052,-932.46 892.041,-925.897 899.248,-926.133 896.259,-932.695 889.052,-932.46"/>
<text text-anchor="middle" x="885" y="-1041" font-family="FreeSans" font-size="10.00"> +lambdaGrowth</text>
<text text-anchor="middle" x="885" y="-1030" font-family="FreeSans" font-size="10.00">+delta0</text>
<text text-anchor="middle" x="885" y="-1019" font-family="FreeSans" font-size="10.00">+epsilon1</text>
<text text-anchor="middle" x="885" y="-1008" font-family="FreeSans" font-size="10.00">+epsilon2</text>
<text text-anchor="middle" x="885" y="-997" font-family="FreeSans" font-size="10.00">+lambdaShrink</text>
</g>
<!-- Node10 -->
<g id="node10" class="node"><title>Node10</title>
<g id="a_node10"><a xlink:href="structSeeSawN_1_1RANSACN_1_1TwoStageRANSACParametersC.html" target="_top" xlink:title="Parameters for TwoStageRANSACC. ">
<polygon fill="white" stroke="black" points="1172.5,-705 1172.5,-773 1345.5,-773 1345.5,-705 1172.5,-705"/>
<text text-anchor="start" x="1180.5" y="-761" font-family="FreeSans" font-size="10.00">SeeSawN::RANSACN::TwoStage</text>
<text text-anchor="middle" x="1259" y="-750" font-family="FreeSans" font-size="10.00">RANSACParametersC</text>
<polyline fill="none" stroke="black" points="1172.5,-743 1345.5,-743 "/>
<text text-anchor="middle" x="1259" y="-731" font-family="FreeSans" font-size="10.00"> </text>
<polyline fill="none" stroke="black" points="1172.5,-724 1345.5,-724 "/>
<text text-anchor="start" x="1180.5" y="-712" font-family="FreeSans" font-size="10.00">+ TwoStageRANSACParametersC()</text>
</a>
</g>
</g>
<!-- Node2&#45;&gt;Node10 -->
<g id="edge12" class="edge"><title>Node2&#45;&gt;Node10</title>
<path fill="none" stroke="#404040" d="M805.72,-1126.42C856.964,-1122.37 979.304,-1109.97 1008,-1082 1047.53,-1043.47 1021.03,-1014.13 1036,-961 1051.24,-906.888 1040.04,-884.21 1076,-841 1083.97,-831.426 1136.03,-803.067 1182.6,-778.829"/>
<polygon fill="none" stroke="#404040" points="1182.7,-778.774 1186.19,-772.461 1193.36,-773.25 1189.87,-779.563 1182.7,-778.774"/>
<text text-anchor="middle" x="1111" y="-895" font-family="FreeSans" font-size="10.00"> +eligibilityRatio</text>
<text text-anchor="middle" x="1111" y="-884" font-family="FreeSans" font-size="10.00">+minConfidence</text>
</g>
<!-- Node12 -->
<g id="node12" class="node"><title>Node12</title>
<g id="a_node12"><a xlink:href="structSeeSawN_1_1RANSACN_1_1RANSACParametersC.html" target="_top" xlink:title="Parameters for RANSACC. ">
<polygon fill="white" stroke="black" points="1155.5,-841.5 1155.5,-942.5 1372.5,-942.5 1372.5,-841.5 1155.5,-841.5"/>
<text text-anchor="middle" x="1264" y="-930.5" font-family="FreeSans" font-size="10.00">SeeSawN::RANSACN::RANSACParametersC</text>
<polyline fill="none" stroke="black" points="1155.5,-923.5 1372.5,-923.5 "/>
<text text-anchor="middle" x="1264" y="-911.5" font-family="FreeSans" font-size="10.00"> </text>
<polyline fill="none" stroke="black" points="1155.5,-904.5 1372.5,-904.5 "/>
<text text-anchor="start" x="1163.5" y="-892.5" font-family="FreeSans" font-size="10.00">+ RANSACParametersC()</text>
<text text-anchor="start" x="1163.5" y="-881.5" font-family="FreeSans" font-size="10.00">* minObservationSupport</text>
<text text-anchor="start" x="1163.5" y="-870.5" font-family="FreeSans" font-size="10.00">* delta</text>
<text text-anchor="start" x="1163.5" y="-859.5" font-family="FreeSans" font-size="10.00">* maxDeltaTolerance</text>
<text text-anchor="start" x="1163.5" y="-848.5" font-family="FreeSans" font-size="10.00">* minCoverage</text>
</a>
</g>
</g>
<!-- Node2&#45;&gt;Node12 -->
<g id="edge15" class="edge"><title>Node2&#45;&gt;Node12</title>
<path fill="none" stroke="#404040" d="M805.716,-1124.89C846.813,-1119.34 936.279,-1107.59 1012,-1100 1037.51,-1097.44 1223.54,-1099.78 1242,-1082 1259.79,-1064.87 1264.3,-1003.3 1264.98,-955.034"/>
<polygon fill="none" stroke="#404040" points="1264.98,-954.768 1261.03,-948.737 1265.08,-942.769 1269.03,-948.8 1264.98,-954.768"/>
<text text-anchor="middle" x="1310.5" y="-1074" font-family="FreeSans" font-size="10.00"> +minModelSimilarity</text>
<text text-anchor="middle" x="1310.5" y="-1063" font-family="FreeSans" font-size="10.00">+maxErrorRatio</text>
<text text-anchor="middle" x="1310.5" y="-1052" font-family="FreeSans" font-size="10.00">+eligibilityRatio</text>
<text text-anchor="middle" x="1310.5" y="-1041" font-family="FreeSans" font-size="10.00">+diversityFactor</text>
<text text-anchor="middle" x="1310.5" y="-1030" font-family="FreeSans" font-size="10.00">+growthRate</text>
<text text-anchor="middle" x="1310.5" y="-1019" font-family="FreeSans" font-size="10.00">+maxError</text>
<text text-anchor="middle" x="1310.5" y="-1008" font-family="FreeSans" font-size="10.00">+parsimonyFactor</text>
<text text-anchor="middle" x="1310.5" y="-997" font-family="FreeSans" font-size="10.00">+minConfidence</text>
<text text-anchor="middle" x="1310.5" y="-986" font-family="FreeSans" font-size="10.00">+epsilon</text>
<text text-anchor="middle" x="1310.5" y="-975" font-family="FreeSans" font-size="10.00">+minError</text>
<text text-anchor="middle" x="1310.5" y="-964" font-family="FreeSans" font-size="10.00">...</text>
</g>
<!-- Node15 -->
<g id="node15" class="node"><title>Node15</title>
<g id="a_node15"><a xlink:href="structSeeSawN_1_1UncertaintyEstimationN_1_1ScaledUnscentedTransformationParametersC.html" target="_top" xlink:title="Parameters for ScaledUncentedTransformationC. ">
<polygon fill="white" stroke="black" points="1429.5,-847 1429.5,-937 1600.5,-937 1600.5,-847 1429.5,-847"/>
<text text-anchor="start" x="1437.5" y="-925" font-family="FreeSans" font-size="10.00">SeeSawN::UncertaintyEstimation</text>
<text text-anchor="start" x="1437.5" y="-914" font-family="FreeSans" font-size="10.00">N::ScaledUnscentedTransformation</text>
<text text-anchor="middle" x="1515" y="-903" font-family="FreeSans" font-size="10.00">ParametersC</text>
<polyline fill="none" stroke="black" points="1429.5,-896 1600.5,-896 "/>
<text text-anchor="middle" x="1515" y="-884" font-family="FreeSans" font-size="10.00"> </text>
<polyline fill="none" stroke="black" points="1429.5,-877 1600.5,-877 "/>
<text text-anchor="start" x="1437.5" y="-865" font-family="FreeSans" font-size="10.00">+ ScaledUnscentedTransformation</text>
<text text-anchor="start" x="1437.5" y="-854" font-family="FreeSans" font-size="10.00">ParametersC()</text>
</a>
</g>
</g>
<!-- Node2&#45;&gt;Node15 -->
<g id="edge21" class="edge"><title>Node2&#45;&gt;Node15</title>
<path fill="none" stroke="#404040" d="M805.695,-1124.67C846.76,-1118.76 936.175,-1106.48 1012,-1100 1032.45,-1098.25 1365.73,-1095.72 1381,-1082 1421.5,-1045.62 1369.43,-1006.04 1400,-961 1405.45,-952.971 1412.19,-945.75 1419.65,-939.288"/>
<polygon fill="none" stroke="#404040" points="1420.05,-938.969 1422.26,-932.105 1429.45,-931.504 1427.24,-938.368 1420.05,-938.969"/>
<text text-anchor="middle" x="1416.5" y="-1024.5" font-family="FreeSans" font-size="10.00"> +beta</text>
<text text-anchor="middle" x="1416.5" y="-1013.5" font-family="FreeSans" font-size="10.00">+kappa</text>
</g>
<!-- Node16 -->
<g id="node16" class="node"><title>Node16</title>
<g id="a_node16"><a xlink:href="structSeeSawN_1_1MatcherN_1_1FeatureMatcherParametersC.html" target="_top" xlink:title="Parameters of FeatureMatcherC. ">
<polygon fill="white" stroke="black" points="510,-705 510,-773 666,-773 666,-705 510,-705"/>
<text text-anchor="start" x="518" y="-761" font-family="FreeSans" font-size="10.00">SeeSawN::MatcherN::</text>
<text text-anchor="middle" x="588" y="-750" font-family="FreeSans" font-size="10.00">FeatureMatcherParametersC</text>
<polyline fill="none" stroke="black" points="510,-743 666,-743 "/>
<text text-anchor="middle" x="588" y="-731" font-family="FreeSans" font-size="10.00"> </text>
<polyline fill="none" stroke="black" points="510,-724 666,-724 "/>
<text text-anchor="start" x="518" y="-712" font-family="FreeSans" font-size="10.00">+ FeatureMatcherParametersC()</text>
</a>
</g>
</g>
<!-- Node2&#45;&gt;Node16 -->
<g id="edge27" class="edge"><title>Node2&#45;&gt;Node16</title>
<path fill="none" stroke="#404040" d="M760.409,-1118.06C743.126,-1109.84 719.242,-1097.08 701,-1082 646.79,-1037.18 658.554,-998.424 599,-961 571.801,-943.908 548.684,-968.386 529,-943 492.669,-896.145 525.686,-827.586 554.996,-783.375"/>
<polygon fill="none" stroke="#404040" points="555.158,-783.137 555.246,-775.927 561.936,-773.235 561.848,-780.445 555.158,-783.137"/>
<text text-anchor="middle" x="589.5" y="-889.5" font-family="FreeSans" font-size="10.00"> +bucketSimilarityThreshold</text>
</g>
<!-- Node17 -->
<g id="node17" class="node"><title>Node17</title>
<polygon fill="white" stroke="#bfbfbf" points="372.5,-863.5 372.5,-920.5 483.5,-920.5 483.5,-863.5 372.5,-863.5"/>
<text text-anchor="middle" x="428" y="-908.5" font-family="FreeSans" font-size="10.00">std::array&lt; double, 2 &gt;</text>
<polyline fill="none" stroke="#bfbfbf" points="372.5,-901.5 483.5,-901.5 "/>
<text text-anchor="middle" x="428" y="-889.5" font-family="FreeSans" font-size="10.00"> </text>
<polyline fill="none" stroke="#bfbfbf" points="372.5,-882.5 483.5,-882.5 "/>
<text text-anchor="middle" x="428" y="-870.5" font-family="FreeSans" font-size="10.00"> </text>
</g>
<!-- Node2&#45;&gt;Node17 -->
<g id="edge31" class="edge"><title>Node2&#45;&gt;Node17</title>
<path fill="none" stroke="#404040" d="M760.06,-1128.23C692.611,-1128.39 496.977,-1125.07 454,-1082 443.653,-1071.63 435.19,-985.331 430.949,-933"/>
<polygon fill="none" stroke="#404040" points="430.931,-932.773 426.471,-927.106 429.987,-920.81 434.446,-926.477 430.931,-932.773"/>
<text text-anchor="middle" x="478.5" y="-1019" font-family="FreeSans" font-size="10.00"> +elements</text>
</g>
<!-- Node20 -->
<g id="node20" class="node"><title>Node20</title>
<g id="a_node20"><a xlink:href="structSeeSawN_1_1MatcherN_1_1NearestNeighbourMatcherParametersC.html" target="_top" xlink:title="Parameter object for NearestNeighbourMatcherC. ">
<polygon fill="white" stroke="black" points="659,-858 659,-926 861,-926 861,-858 659,-858"/>
<text text-anchor="start" x="667" y="-914" font-family="FreeSans" font-size="10.00">SeeSawN::MatcherN::</text>
<text text-anchor="middle" x="760" y="-903" font-family="FreeSans" font-size="10.00">NearestNeighbourMatcherParametersC</text>
<polyline fill="none" stroke="black" points="659,-896 861,-896 "/>
<text text-anchor="middle" x="760" y="-884" font-family="FreeSans" font-size="10.00"> </text>
<polyline fill="none" stroke="black" points="659,-877 861,-877 "/>
<text text-anchor="start" x="667" y="-865" font-family="FreeSans" font-size="10.00">+ NearestNeighbourMatcherParametersC()</text>
</a>
</g>
</g>
<!-- Node2&#45;&gt;Node20 -->
<g id="edge35" class="edge"><title>Node2&#45;&gt;Node20</title>
<path fill="none" stroke="#404040" d="M760.234,-1118.4C745.54,-1110.86 727.616,-1098.8 719,-1082 694.463,-1034.15 704.589,-1012.81 719,-961 721.285,-952.785 724.859,-944.571 728.966,-936.836"/>
<polygon fill="none" stroke="#404040" points="729.062,-936.669 728.588,-929.474 735.048,-926.269 735.522,-933.465 729.062,-936.669"/>
<text text-anchor="middle" x="772.5" y="-1024.5" font-family="FreeSans" font-size="10.00"> +ratioTestThreshold</text>
<text text-anchor="middle" x="772.5" y="-1013.5" font-family="FreeSans" font-size="10.00">+similarityTestThreshold</text>
</g>
<!-- Node3 -->
<g id="node3" class="node"><title>Node3</title>
<polygon fill="white" stroke="#bfbfbf" points="1990.5,-199 1990.5,-256 2031.5,-256 2031.5,-199 1990.5,-199"/>
<text text-anchor="middle" x="2011" y="-244" font-family="FreeSans" font-size="10.00">string</text>
<polyline fill="none" stroke="#bfbfbf" points="1990.5,-237 2031.5,-237 "/>
<text text-anchor="middle" x="2011" y="-225" font-family="FreeSans" font-size="10.00"> </text>
<polyline fill="none" stroke="#bfbfbf" points="1990.5,-218 2031.5,-218 "/>
<text text-anchor="middle" x="2011" y="-206" font-family="FreeSans" font-size="10.00"> </text>
</g>
<!-- Node3&#45;&gt;Node1 -->
<g id="edge2" class="edge"><title>Node3&#45;&gt;Node1</title>
<path fill="none" stroke="#404040" d="M2006.8,-198.911C2000.94,-163.411 1989.51,-104.252 1976,-87 1973.04,-83.2234 1969.73,-79.6918 1966.16,-76.3934"/>
<polygon fill="none" stroke="#404040" points="1966.06,-76.3133 1958.89,-75.574 1956.81,-68.6683 1963.99,-69.4076 1966.06,-76.3133"/>
<text text-anchor="middle" x="2046.5" y="-145" font-family="FreeSans" font-size="10.00"> +featureFilePattern</text>
<text text-anchor="middle" x="2046.5" y="-134" font-family="FreeSans" font-size="10.00">+worldFile</text>
<text text-anchor="middle" x="2046.5" y="-123" font-family="FreeSans" font-size="10.00">+cameraTrackFile</text>
<text text-anchor="middle" x="2046.5" y="-112" font-family="FreeSans" font-size="10.00">+referenceCameraFile</text>
<text text-anchor="middle" x="2046.5" y="-101" font-family="FreeSans" font-size="10.00">+outputPath</text>
<text text-anchor="middle" x="2046.5" y="-90" font-family="FreeSans" font-size="10.00">+logFile</text>
</g>
<!-- Node4&#45;&gt;Node1 -->
<g id="edge3" class="edge"><title>Node4&#45;&gt;Node1</title>
<path fill="none" stroke="#404040" d="M1668.21,-174.813C1715.56,-143.515 1775.05,-104.202 1818.74,-75.3251"/>
<polygon fill="none" stroke="#404040" points="1818.92,-75.2072 1821.72,-68.5619 1828.93,-68.5908 1826.13,-75.236 1818.92,-75.2072"/>
<text text-anchor="middle" x="1840" y="-117.5" font-family="FreeSans" font-size="10.00"> +pipelineParameters</text>
</g>
<!-- Node5&#45;&gt;Node4 -->
<g id="edge4" class="edge"><title>Node5&#45;&gt;Node4</title>
<path fill="none" stroke="#404040" d="M1457.71,-331.395C1474.04,-318.694 1492.17,-304.59 1509.64,-291"/>
<polygon fill="none" stroke="#404040" points="1509.79,-290.882 1512.07,-284.041 1519.27,-283.515 1516.99,-290.356 1509.79,-290.882"/>
<text text-anchor="middle" x="1542" y="-305" font-family="FreeSans" font-size="10.00"> +pipelineParameters</text>
</g>
<!-- Node6 -->
<g id="node6" class="node"><title>Node6</title>
<g id="a_node6"><a xlink:href="structSeeSawN_1_1GeometryN_1_1GeometryEstimatorParametersC.html" target="_top" xlink:title="Parameters for GeometryEstimatorC. ">
<polygon fill="white" stroke="black" points="1165.5,-469.5 1165.5,-537.5 1326.5,-537.5 1326.5,-469.5 1165.5,-469.5"/>
<text text-anchor="start" x="1173.5" y="-525.5" font-family="FreeSans" font-size="10.00">SeeSawN::GeometryN</text>
<text text-anchor="middle" x="1246" y="-514.5" font-family="FreeSans" font-size="10.00">::GeometryEstimatorParametersC</text>
<polyline fill="none" stroke="black" points="1165.5,-507.5 1326.5,-507.5 "/>
<text text-anchor="middle" x="1246" y="-495.5" font-family="FreeSans" font-size="10.00"> </text>
<polyline fill="none" stroke="black" points="1165.5,-488.5 1326.5,-488.5 "/>
<text text-anchor="middle" x="1246" y="-476.5" font-family="FreeSans" font-size="10.00"> </text>
</a>
</g>
</g>
<!-- Node6&#45;&gt;Node5 -->
<g id="edge6" class="edge"><title>Node6&#45;&gt;Node5</title>
<path fill="none" stroke="#404040" d="M1239.77,-469.202C1239.57,-459.078 1241.23,-448.416 1247,-440 1262.98,-416.673 1289.29,-402.046 1315.69,-392.877"/>
<polygon fill="none" stroke="#404040" points="1315.94,-392.796 1320.44,-387.164 1327.38,-389.155 1322.87,-394.787 1315.94,-392.796"/>
<text text-anchor="middle" x="1317" y="-443" font-family="FreeSans" font-size="10.00"> +geometryEstimatorParameters</text>
</g>
<!-- Node7&#45;&gt;Node6 -->
<g id="edge7" class="edge"><title>Node7&#45;&gt;Node6</title>
<path fill="none" stroke="#404040" d="M976.869,-857.858C1003.14,-818.44 1048.93,-750.941 1091,-695 1130.22,-642.852 1177.94,-584.977 1209.98,-546.856"/>
<polygon fill="none" stroke="#404040" points="1210.04,-546.783 1210.85,-539.617 1217.77,-537.606 1216.96,-544.772 1210.04,-546.783"/>
<text text-anchor="middle" x="1127" y="-736.5" font-family="FreeSans" font-size="10.00"> +pdlParameters</text>
</g>
<!-- Node8 -->
<g id="node8" class="node"><title>Node8</title>
<g id="a_node8"><a xlink:href="classbool.html" target="_top" xlink:title="{bool\n||}">
<polygon fill="white" stroke="black" points="151.5,-1100.5 151.5,-1157.5 186.5,-1157.5 186.5,-1100.5 151.5,-1100.5"/>
<text text-anchor="middle" x="169" y="-1145.5" font-family="FreeSans" font-size="10.00">bool</text>
<polyline fill="none" stroke="black" points="151.5,-1138.5 186.5,-1138.5 "/>
<text text-anchor="middle" x="169" y="-1126.5" font-family="FreeSans" font-size="10.00"> </text>
<polyline fill="none" stroke="black" points="151.5,-1119.5 186.5,-1119.5 "/>
<text text-anchor="middle" x="169" y="-1107.5" font-family="FreeSans" font-size="10.00"> </text>
</a>
</g>
</g>
<!-- Node8&#45;&gt;Node1 -->
<g id="edge43" class="edge"><title>Node8&#45;&gt;Node1</title>
<path fill="none" stroke="#404040" d="M151.346,-1118.25C137.491,-1109.96 118.374,-1097.02 105,-1082 41.1089,-1010.22 0,-989.093 0,-893 0,-893 0,-893 0,-226.5 0,-83.8747 150.498,-121.047 289,-87 431.316,-52.0153 1430.64,-39.6406 1768.04,-36.4329"/>
<polygon fill="none" stroke="#404040" points="1768.24,-36.4311 1774.2,-32.3748 1780.24,-36.3181 1774.28,-40.3744 1768.24,-36.4311"/>
<text text-anchor="middle" x="29" y="-506.5" font-family="FreeSans" font-size="10.00"> +flagBinary</text>
<text text-anchor="middle" x="29" y="-495.5" font-family="FreeSans" font-size="10.00">+flagVerbose</text>
</g>
<!-- Node8&#45;&gt;Node4 -->
<g id="edge41" class="edge"><title>Node8&#45;&gt;Node4</title>
<path fill="none" stroke="#404040" d="M158.042,-1100.21C119.148,-999.77 -7.46262,-656.158 40,-556 45.41,-544.584 52.8393,-546.7 62,-538 152.117,-452.417 142.871,-393.999 250,-331 357.261,-267.923 1216.27,-238.794 1499.66,-230.837"/>
<polygon fill="none" stroke="#404040" points="1499.92,-230.829 1505.8,-226.664 1511.91,-230.496 1506.03,-234.661 1499.92,-230.829"/>
<text text-anchor="middle" x="114" y="-619.5" font-family="FreeSans" font-size="10.00"> +flagApproximateNeighbourhoods</text>
<text text-anchor="middle" x="114" y="-608.5" font-family="FreeSans" font-size="10.00">+flagFixedFocalLength</text>
</g>
<!-- Node8&#45;&gt;Node5 -->
<g id="edge25" class="edge"><title>Node8&#45;&gt;Node5</title>
<path fill="none" stroke="#404040" d="M164.1,-1100.35C163.226,-1094.32 162.451,-1087.96 162,-1082 157.943,-1028.38 158,-1014.63 162,-961 168.823,-869.515 175.17,-618.848 242,-556 397.25,-410.001 1073.73,-383.418 1315.07,-378.577"/>
<polygon fill="none" stroke="#404040" points="1315.26,-378.574 1321.18,-374.46 1327.26,-378.344 1321.33,-382.458 1315.26,-378.574"/>
<text text-anchor="middle" x="224.5" y="-742" font-family="FreeSans" font-size="10.00"> +flagCovariance</text>
<text text-anchor="middle" x="224.5" y="-731" font-family="FreeSans" font-size="10.00">+flagVerbose</text>
</g>
<!-- Node8&#45;&gt;Node7 -->
<g id="edge9" class="edge"><title>Node8&#45;&gt;Node7</title>
<path fill="none" stroke="#404040" d="M186.535,-1123.5C211.39,-1117.28 258.367,-1106.14 299,-1100 343.998,-1093.2 461.606,-1100.91 503,-1082 573.328,-1049.87 557.453,-992.648 628,-961 726.405,-916.855 767.06,-975.18 870,-943 878.962,-940.198 887.985,-936.302 896.632,-931.91"/>
<polygon fill="none" stroke="#404040" points="896.791,-931.824 900.171,-925.454 907.351,-926.124 903.97,-932.494 896.791,-931.824"/>
<text text-anchor="middle" x="664.5" y="-1019" font-family="FreeSans" font-size="10.00"> +flagCovariance</text>
</g>
<!-- Node8&#45;&gt;Node12 -->
<g id="edge19" class="edge"><title>Node8&#45;&gt;Node12</title>
<path fill="none" stroke="#404040" d="M186.909,-1123.05C211.817,-1116.42 258.432,-1104.91 299,-1100 333.319,-1095.84 894.782,-1104.53 921,-1082 962.454,-1046.37 902.665,-997.889 943,-961 975.603,-931.183 1098.07,-953.433 1141,-943 1141.88,-942.786 1142.77,-942.566 1143.65,-942.342"/>
<polygon fill="none" stroke="#404040" points="1143.67,-942.337 1148.39,-936.89 1155.24,-939.156 1150.51,-944.604 1143.67,-942.337"/>
<text text-anchor="middle" x="975" y="-1030" font-family="FreeSans" font-size="10.00"> +flagHistory</text>
<text text-anchor="middle" x="975" y="-1019" font-family="FreeSans" font-size="10.00">+flagWaldSAC</text>
<text text-anchor="middle" x="975" y="-1008" font-family="FreeSans" font-size="10.00">+flagPROSAC</text>
</g>
<!-- Node8&#45;&gt;Node16 -->
<g id="edge29" class="edge"><title>Node8&#45;&gt;Node16</title>
<path fill="none" stroke="#404040" d="M166.235,-1100.46C163.924,-1066.3 163.621,-1006.98 183,-961 210.41,-895.964 228.375,-880.294 287,-841 351.092,-798.042 435.087,-771.865 498.057,-756.961"/>
<polygon fill="none" stroke="#404040" points="498.266,-756.913 503.215,-751.668 509.96,-754.219 505.011,-759.464 498.266,-756.913"/>
<text text-anchor="middle" x="325" y="-895" font-family="FreeSans" font-size="10.00"> +flagBucketFilter</text>
<text text-anchor="middle" x="325" y="-884" font-family="FreeSans" font-size="10.00">+flagStatic</text>
</g>
<!-- Node8&#45;&gt;Node20 -->
<g id="edge37" class="edge"><title>Node8&#45;&gt;Node20</title>
<path fill="none" stroke="#404040" d="M177.994,-1100.39C192.619,-1057.34 222.397,-977.456 247,-961 283.795,-936.389 601.875,-952.991 645,-943 657.828,-940.028 671.014,-935.669 683.673,-930.745"/>
<polygon fill="none" stroke="#404040" points="684.008,-930.608 688.059,-924.643 695.124,-926.087 691.073,-932.053 684.008,-930.608"/>
<text text-anchor="middle" x="295.5" y="-1019" font-family="FreeSans" font-size="10.00"> +flagConsistencyTest</text>
</g>
<!-- Node9 -->
<g id="node9" class="node"><title>Node9</title>
<polygon fill="white" stroke="#bfbfbf" points="1021,-1100.5 1021,-1157.5 1089,-1157.5 1089,-1100.5 1021,-1100.5"/>
<text text-anchor="middle" x="1055" y="-1145.5" font-family="FreeSans" font-size="10.00">unsigned int</text>
<polyline fill="none" stroke="#bfbfbf" points="1021,-1138.5 1089,-1138.5 "/>
<text text-anchor="middle" x="1055" y="-1126.5" font-family="FreeSans" font-size="10.00"> </text>
<polyline fill="none" stroke="#bfbfbf" points="1021,-1119.5 1089,-1119.5 "/>
<text text-anchor="middle" x="1055" y="-1107.5" font-family="FreeSans" font-size="10.00"> </text>
</g>
<!-- Node9&#45;&gt;Node7 -->
<g id="edge10" class="edge"><title>Node9&#45;&gt;Node7</title>
<path fill="none" stroke="#404040" d="M1051.44,-1100.39C1046.22,-1066.16 1034.44,-1006.77 1011,-961 1006.54,-952.29 1000.81,-943.686 994.726,-935.679"/>
<polygon fill="none" stroke="#404040" points="994.677,-935.618 987.808,-933.426 987.189,-926.242 994.059,-928.434 994.677,-935.618"/>
<text text-anchor="middle" x="1080" y="-1019" font-family="FreeSans" font-size="10.00"> +maxIteration</text>
</g>
<!-- Node10&#45;&gt;Node6 -->
<g id="edge11" class="edge"><title>Node10&#45;&gt;Node6</title>
<path fill="none" stroke="#404040" d="M1257.14,-704.545C1254.87,-663.856 1251.04,-595.003 1248.51,-549.643"/>
<polygon fill="none" stroke="#404040" points="1248.51,-549.497 1244.18,-543.729 1247.84,-537.516 1252.17,-543.284 1248.51,-549.497"/>
<text text-anchor="middle" x="1300" y="-614" font-family="FreeSans" font-size="10.00"> +ransacParameters</text>
</g>
<!-- Node11 -->
<g id="node11" class="node"><title>Node11</title>
<polygon fill="white" stroke="#bfbfbf" points="1742.5,-1100.5 1742.5,-1157.5 1771.5,-1157.5 1771.5,-1100.5 1742.5,-1100.5"/>
<text text-anchor="middle" x="1757" y="-1145.5" font-family="FreeSans" font-size="10.00">int</text>
<polyline fill="none" stroke="#bfbfbf" points="1742.5,-1138.5 1771.5,-1138.5 "/>
<text text-anchor="middle" x="1757" y="-1126.5" font-family="FreeSans" font-size="10.00"> </text>
<polyline fill="none" stroke="#bfbfbf" points="1742.5,-1119.5 1771.5,-1119.5 "/>
<text text-anchor="middle" x="1757" y="-1107.5" font-family="FreeSans" font-size="10.00"> </text>
</g>
<!-- Node11&#45;&gt;Node1 -->
<g id="edge42" class="edge"><title>Node11&#45;&gt;Node1</title>
<path fill="none" stroke="#404040" d="M1771.75,-1125.72C1795.88,-1121.29 1844.08,-1109.44 1874,-1082 1942.28,-1019.36 1962,-985.659 1962,-893 1962,-893 1962,-893 1962,-226.5 1962,-172.533 1933.78,-116.564 1910.25,-79.276"/>
<polygon fill="none" stroke="#404040" points="1909.99,-78.8654 1903.36,-76.01 1903.45,-68.7994 1910.08,-71.6548 1909.99,-78.8654"/>
<text text-anchor="middle" x="1985.5" y="-506.5" font-family="FreeSans" font-size="10.00"> +seed</text>
<text text-anchor="middle" x="1985.5" y="-495.5" font-family="FreeSans" font-size="10.00">+nThreads</text>
</g>
<!-- Node11&#45;&gt;Node4 -->
<g id="edge40" class="edge"><title>Node11&#45;&gt;Node4</title>
<path fill="none" stroke="#404040" d="M1771.74,-1120.74C1785.9,-1113.03 1806.88,-1099.53 1819,-1082 1919.12,-937.13 2000.29,-842.44 1904,-695 1893.12,-678.338 1876.33,-691.78 1863,-677 1754.85,-557.063 1834.91,-469.588 1752,-331 1735.11,-302.762 1707.1,-281.047 1679.08,-265.029"/>
<polygon fill="none" stroke="#404040" points="1678.89,-264.926 1671.71,-265.555 1668.36,-259.166 1675.55,-258.537 1678.89,-264.926"/>
<text text-anchor="middle" x="1905.5" y="-630.5" font-family="FreeSans" font-size="10.00"> +nThreads</text>
<text text-anchor="middle" x="1905.5" y="-619.5" font-family="FreeSans" font-size="10.00">+loGeneratorRatio1</text>
<text text-anchor="middle" x="1905.5" y="-608.5" font-family="FreeSans" font-size="10.00">+minSupport</text>
<text text-anchor="middle" x="1905.5" y="-597.5" font-family="FreeSans" font-size="10.00">+loGeneratorRatio2</text>
</g>
<!-- Node11&#45;&gt;Node5 -->
<g id="edge24" class="edge"><title>Node11&#45;&gt;Node5</title>
<path fill="none" stroke="#404040" d="M1771.58,-1103.57C1799.65,-1053.26 1855.5,-934.924 1821,-841 1784.89,-742.696 1564.78,-529.413 1458.43,-430.211"/>
<polygon fill="none" stroke="#404040" points="1458.21,-430.009 1451.09,-428.85 1449.42,-421.834 1456.54,-422.993 1458.21,-430.009"/>
<text text-anchor="middle" x="1844" y="-747.5" font-family="FreeSans" font-size="10.00"> +maxObservationDensity</text>
<text text-anchor="middle" x="1844" y="-736.5" font-family="FreeSans" font-size="10.00">+nThreads</text>
<text text-anchor="middle" x="1844" y="-725.5" font-family="FreeSans" font-size="10.00">+maxIteration</text>
</g>
<!-- Node11&#45;&gt;Node10 -->
<g id="edge13" class="edge"><title>Node11&#45;&gt;Node10</title>
<path fill="none" stroke="#404040" d="M1761.57,-1100.32C1769.58,-1041.01 1778.37,-902.125 1698,-841 1583.3,-753.767 1518.19,-820.32 1379,-783 1371.85,-781.082 1364.51,-778.93 1357.17,-776.639"/>
<polygon fill="none" stroke="#404040" points="1357.06,-776.606 1350.13,-778.58 1345.64,-772.937 1352.57,-770.963 1357.06,-776.606"/>
<text text-anchor="middle" x="1782.5" y="-889.5" font-family="FreeSans" font-size="10.00"> +nThreads</text>
</g>
<!-- Node11&#45;&gt;Node12 -->
<g id="edge18" class="edge"><title>Node11&#45;&gt;Node12</title>
<path fill="none" stroke="#404040" d="M1742.26,-1123.11C1722.91,-1116.87 1687.76,-1106.14 1657,-1100 1624.51,-1093.51 1532.83,-1105.02 1509,-1082 1469.84,-1044.18 1526.6,-1001.29 1490,-961 1468.4,-937.222 1450.86,-951.906 1420,-943 1408.4,-939.654 1396.37,-936.043 1384.35,-932.347"/>
<polygon fill="none" stroke="#404040" points="1384.31,-932.336 1377.4,-934.381 1372.85,-928.784 1379.77,-926.739 1384.31,-932.336"/>
<text text-anchor="middle" x="1542" y="-1041" font-family="FreeSans" font-size="10.00"> +minIteration</text>
<text text-anchor="middle" x="1542" y="-1030" font-family="FreeSans" font-size="10.00">+maxSolution</text>
<text text-anchor="middle" x="1542" y="-1019" font-family="FreeSans" font-size="10.00">+nLOIterations</text>
<text text-anchor="middle" x="1542" y="-1008" font-family="FreeSans" font-size="10.00">+nThreads</text>
<text text-anchor="middle" x="1542" y="-997" font-family="FreeSans" font-size="10.00">+maxIteration</text>
</g>
<!-- Node11&#45;&gt;Node15 -->
<g id="edge23" class="edge"><title>Node11&#45;&gt;Node15</title>
<path fill="none" stroke="#404040" d="M1742.36,-1122.39C1725.65,-1115.31 1698.51,-1101.64 1682,-1082 1644.77,-1037.72 1671.92,-1004.7 1634,-961 1629.57,-955.893 1621.24,-949.701 1610.96,-943.159"/>
<polygon fill="none" stroke="#404040" points="1610.81,-943.066 1603.6,-943.346 1600.57,-936.803 1607.78,-936.522 1610.81,-943.066"/>
<text text-anchor="middle" x="1706.5" y="-1019" font-family="FreeSans" font-size="10.00"> +nThreads</text>
</g>
<!-- Node11&#45;&gt;Node16 -->
<g id="edge28" class="edge"><title>Node11&#45;&gt;Node16</title>
<path fill="none" stroke="#404040" d="M1756.44,-1100.41C1754.98,-1058.19 1749.75,-980.417 1731,-961 1701.45,-930.404 1668.24,-971.871 1637,-943 1602.48,-911.092 1645.64,-870.452 1609,-841 1578.56,-816.534 1296.9,-826.403 1258,-823 1049.87,-804.796 806.749,-771.702 678.27,-753.28"/>
<polygon fill="none" stroke="#404040" points="678.077,-753.252 671.569,-756.357 666.199,-751.544 672.708,-748.439 678.077,-753.252"/>
<text text-anchor="middle" x="1665.5" y="-895" font-family="FreeSans" font-size="10.00"> +nThreads</text>
<text text-anchor="middle" x="1665.5" y="-884" font-family="FreeSans" font-size="10.00">+minQuorum</text>
</g>
<!-- Node11&#45;&gt;Node20 -->
<g id="edge36" class="edge"><title>Node11&#45;&gt;Node20</title>
<path fill="none" stroke="#404040" d="M1742.33,-1122.7C1723.06,-1116.01 1688,-1104.81 1657,-1100 1628.44,-1095.57 1158.87,-1100.9 1137,-1082 1095.65,-1046.26 1155.65,-997.538 1115,-961 1094.7,-942.754 896.447,-949.753 870,-943 857.986,-939.932 845.655,-935.616 833.795,-930.791"/>
<polygon fill="none" stroke="#404040" points="833.638,-930.724 826.552,-932.06 822.593,-926.032 829.68,-924.697 833.638,-930.724"/>
<text text-anchor="middle" x="1187.5" y="-1024.5" font-family="FreeSans" font-size="10.00"> +neighbourhoodSize21</text>
<text text-anchor="middle" x="1187.5" y="-1013.5" font-family="FreeSans" font-size="10.00">+neighbourhoodSize12</text>
</g>
<!-- Node12&#45;&gt;Node10 -->
<g id="edge14" class="edge"><title>Node12&#45;&gt;Node10</title>
<path fill="none" stroke="#404040" d="M1262.35,-841.138C1261.75,-823.078 1261.08,-802.797 1260.5,-785.164"/>
<polygon fill="none" stroke="#404040" points="1260.49,-785.146 1256.3,-779.281 1260.1,-773.152 1264.29,-779.016 1260.49,-785.146"/>
<text text-anchor="middle" x="1293.5" y="-815" font-family="FreeSans" font-size="10.00"> +parameters2</text>
<text text-anchor="middle" x="1293.5" y="-804" font-family="FreeSans" font-size="10.00">+parameters1</text>
</g>
<!-- Node13 -->
<g id="node13" class="node"><title>Node13</title>
<polygon fill="white" stroke="#bfbfbf" points="1553.5,-1100.5 1553.5,-1157.5 1648.5,-1157.5 1648.5,-1100.5 1553.5,-1100.5"/>
<text text-anchor="middle" x="1601" y="-1145.5" font-family="FreeSans" font-size="10.00">optional&lt; double &gt;</text>
<polyline fill="none" stroke="#bfbfbf" points="1553.5,-1138.5 1648.5,-1138.5 "/>
<text text-anchor="middle" x="1601" y="-1126.5" font-family="FreeSans" font-size="10.00"> </text>
<polyline fill="none" stroke="#bfbfbf" points="1553.5,-1119.5 1648.5,-1119.5 "/>
<text text-anchor="middle" x="1601" y="-1107.5" font-family="FreeSans" font-size="10.00"> </text>
</g>
<!-- Node13&#45;&gt;Node4 -->
<g id="edge39" class="edge"><title>Node13&#45;&gt;Node4</title>
<path fill="none" stroke="#404040" d="M1623.46,-1100.36C1627.41,-1094.55 1631.16,-1088.27 1634,-1082 1656.75,-1031.71 1621.24,-998.219 1662,-961 1705.4,-921.374 1754.38,-987.294 1793,-943 1822.79,-908.832 1806.73,-884.205 1793,-841 1783.44,-810.914 1762.82,-812.656 1752,-783 1726.7,-713.654 1738,-691.318 1738,-617.5 1738,-617.5 1738,-617.5 1738,-375.5 1738,-335.132 1709.94,-302.048 1678.26,-277.558"/>
<polygon fill="none" stroke="#404040" points="1677.99,-277.361 1670.79,-277.017 1668.33,-270.235 1675.54,-270.58 1677.99,-277.361"/>
<text text-anchor="middle" x="1768" y="-614" font-family="FreeSans" font-size="10.00"> +focalLength</text>
</g>
<!-- Node13&#45;&gt;Node12 -->
<g id="edge16" class="edge"><title>Node13&#45;&gt;Node12</title>
<path fill="none" stroke="#404040" d="M1553.37,-1124.64C1522.33,-1119.88 1483.39,-1108.58 1460,-1082 1423.84,-1040.9 1471.93,-1003.15 1437,-961 1422.86,-943.94 1403.86,-931.14 1383.63,-921.541"/>
<polygon fill="none" stroke="#404040" points="1383.59,-921.526 1376.49,-922.756 1372.62,-916.67 1379.72,-915.44 1383.59,-921.526"/>
<text text-anchor="middle" x="1475" y="-1019" font-family="FreeSans" font-size="10.00"> +topN</text>
</g>
<!-- Node13&#45;&gt;Node15 -->
<g id="edge22" class="edge"><title>Node13&#45;&gt;Node15</title>
<path fill="none" stroke="#404040" d="M1599.41,-1100.23C1596.71,-1059.31 1590.41,-985.042 1579,-961 1576.71,-956.173 1573.95,-951.463 1570.88,-946.918"/>
<polygon fill="none" stroke="#404040" points="1570.86,-946.894 1564.07,-944.456 1563.71,-937.253 1570.5,-939.692 1570.86,-946.894"/>
<text text-anchor="middle" x="1614" y="-1019" font-family="FreeSans" font-size="10.00"> +alpha</text>
</g>
<!-- Node14 -->
<g id="node14" class="node"><title>Node14</title>
<polygon fill="white" stroke="#bfbfbf" points="1576,-1205.5 1576,-1262.5 1626,-1262.5 1626,-1205.5 1576,-1205.5"/>
<text text-anchor="middle" x="1601" y="-1250.5" font-family="FreeSans" font-size="10.00">optional</text>
<polyline fill="none" stroke="#bfbfbf" points="1576,-1243.5 1626,-1243.5 "/>
<text text-anchor="middle" x="1601" y="-1231.5" font-family="FreeSans" font-size="10.00"> </text>
<polyline fill="none" stroke="#bfbfbf" points="1576,-1224.5 1626,-1224.5 "/>
<text text-anchor="middle" x="1601" y="-1212.5" font-family="FreeSans" font-size="10.00"> </text>
</g>
<!-- Node14&#45;&gt;Node13 -->
<g id="edge17" class="edge"><title>Node14&#45;&gt;Node13</title>
<path fill="none" stroke="orange" d="M1601,-1195.29C1601,-1182.84 1601,-1169.23 1601,-1157.68"/>
<polygon fill="orange" stroke="orange" points="1597.5,-1195.4 1601,-1205.4 1604.5,-1195.4 1597.5,-1195.4"/>
<text text-anchor="middle" x="1625" y="-1179" font-family="FreeSans" font-size="10.00"> &lt; double &gt;</text>
</g>
<!-- Node15&#45;&gt;Node5 -->
<g id="edge20" class="edge"><title>Node15&#45;&gt;Node5</title>
<path fill="none" stroke="#404040" d="M1516.39,-846.627C1516.84,-806.643 1515.5,-746.418 1506,-695 1488.53,-600.406 1449.69,-495.26 1424.46,-432.846"/>
<polygon fill="none" stroke="#404040" points="1424.45,-432.813 1418.48,-428.767 1419.92,-421.701 1425.89,-425.746 1424.45,-432.813"/>
<text text-anchor="middle" x="1538.5" y="-614" font-family="FreeSans" font-size="10.00"> +sutParameters</text>
</g>
<!-- Node16&#45;&gt;Node5 -->
<g id="edge26" class="edge"><title>Node16&#45;&gt;Node5</title>
<path fill="none" stroke="#404040" d="M636.738,-704.789C720.384,-649.09 898.122,-536.345 1062,-469 1145.42,-434.72 1245.63,-409.503 1315.38,-394.322"/>
<polygon fill="none" stroke="#404040" points="1315.43,-394.31 1320.46,-389.139 1327.17,-391.788 1322.14,-396.96 1315.43,-394.31"/>
<text text-anchor="middle" x="1109" y="-501" font-family="FreeSans" font-size="10.00"> +matcherParameters</text>
</g>
<!-- Node17&#45;&gt;Node16 -->
<g id="edge30" class="edge"><title>Node17&#45;&gt;Node16</title>
<path fill="none" stroke="#404040" d="M415.45,-863.404C408.782,-844.24 404.302,-819.012 417,-801 435.762,-774.388 467.226,-759.32 498.087,-750.813"/>
<polygon fill="none" stroke="#404040" points="498.217,-750.781 503.065,-745.442 509.857,-747.864 505.009,-753.202 498.217,-750.781"/>
<text text-anchor="middle" x="461.5" y="-809.5" font-family="FreeSans" font-size="10.00"> +bucketDimensions</text>
</g>
<!-- Node18 -->
<g id="node18" class="node"><title>Node18</title>
<g id="a_node18"><a xlink:title="STL class. ">
<polygon fill="white" stroke="#bfbfbf" points="308,-1100.5 308,-1157.5 386,-1157.5 386,-1100.5 308,-1100.5"/>
<text text-anchor="middle" x="347" y="-1145.5" font-family="FreeSans" font-size="10.00">std::array&lt; T &gt;</text>
<polyline fill="none" stroke="#bfbfbf" points="308,-1138.5 386,-1138.5 "/>
<text text-anchor="middle" x="347" y="-1126.5" font-family="FreeSans" font-size="10.00"> </text>
<polyline fill="none" stroke="#bfbfbf" points="308,-1119.5 386,-1119.5 "/>
<text text-anchor="middle" x="347" y="-1107.5" font-family="FreeSans" font-size="10.00"> </text>
</a>
</g>
</g>
<!-- Node18&#45;&gt;Node17 -->
<g id="edge32" class="edge"><title>Node18&#45;&gt;Node17</title>
<path fill="none" stroke="orange" d="M347.328,-1090.23C348.894,-1055.31 354.518,-1002.69 373,-961 379.523,-946.286 390.073,-932.099 400.198,-920.525"/>
<polygon fill="orange" stroke="orange" points="343.822,-1090.34 346.962,-1100.46 350.817,-1090.59 343.822,-1090.34"/>
<text text-anchor="middle" x="402" y="-1019" font-family="FreeSans" font-size="10.00"> &lt; double, 2 &gt;</text>
</g>
<!-- Node19 -->
<g id="node19" class="node"><title>Node19</title>
<polygon fill="white" stroke="#bfbfbf" points="332.5,-1205.5 332.5,-1262.5 361.5,-1262.5 361.5,-1205.5 332.5,-1205.5"/>
<text text-anchor="middle" x="347" y="-1250.5" font-family="FreeSans" font-size="10.00">T</text>
<polyline fill="none" stroke="#bfbfbf" points="332.5,-1243.5 361.5,-1243.5 "/>
<text text-anchor="middle" x="347" y="-1231.5" font-family="FreeSans" font-size="10.00"> </text>
<polyline fill="none" stroke="#bfbfbf" points="332.5,-1224.5 361.5,-1224.5 "/>
<text text-anchor="middle" x="347" y="-1212.5" font-family="FreeSans" font-size="10.00"> </text>
</g>
<!-- Node19&#45;&gt;Node18 -->
<g id="edge33" class="edge"><title>Node19&#45;&gt;Node18</title>
<path fill="none" stroke="#404040" d="M347,-1205.4C347,-1194.55 347,-1181.87 347,-1170.05"/>
<polygon fill="none" stroke="#404040" points="347,-1169.68 343,-1163.68 347,-1157.68 351,-1163.68 347,-1169.68"/>
<text text-anchor="middle" x="371.5" y="-1179" font-family="FreeSans" font-size="10.00"> +elements</text>
</g>
<!-- Node20&#45;&gt;Node16 -->
<g id="edge34" class="edge"><title>Node20&#45;&gt;Node16</title>
<path fill="none" stroke="#404040" d="M722.254,-857.862C696.489,-835.243 662.18,-805.123 634.695,-780.994"/>
<polygon fill="none" stroke="#404040" points="634.676,-780.977 627.528,-780.025 625.658,-773.06 632.806,-774.013 634.676,-780.977"/>
<text text-anchor="middle" x="715" y="-809.5" font-family="FreeSans" font-size="10.00"> +nnParameters</text>
</g>
<!-- Node21 -->
<g id="node21" class="node"><title>Node21</title>
<polygon fill="white" stroke="#bfbfbf" points="2102,-199 2102,-256 2144,-256 2144,-199 2102,-199"/>
<text text-anchor="middle" x="2123" y="-244" font-family="FreeSans" font-size="10.00">size_t</text>
<polyline fill="none" stroke="#bfbfbf" points="2102,-237 2144,-237 "/>
<text text-anchor="middle" x="2123" y="-225" font-family="FreeSans" font-size="10.00"> </text>
<polyline fill="none" stroke="#bfbfbf" points="2102,-218 2144,-218 "/>
<text text-anchor="middle" x="2123" y="-206" font-family="FreeSans" font-size="10.00"> </text>
</g>
<!-- Node21&#45;&gt;Node1 -->
<g id="edge44" class="edge"><title>Node21&#45;&gt;Node1</title>
<path fill="none" stroke="#404040" d="M2126.5,-198.753C2128.79,-167.435 2127.23,-116.96 2099,-87 2083.28,-70.3191 2036.08,-58.1366 1989.41,-49.8211"/>
<polygon fill="none" stroke="#404040" points="1989.4,-49.8199 1982.81,-52.7473 1977.57,-47.79 1984.16,-44.8626 1989.4,-49.8199"/>
<text text-anchor="middle" x="2155.5" y="-123" font-family="FreeSans" font-size="10.00"> +initialFrame</text>
<text text-anchor="middle" x="2155.5" y="-112" font-family="FreeSans" font-size="10.00">+nFrames</text>
</g>
</g>
</svg>
        <g id="navigator" transform="translate(0 0)" fill="#404254">
                <rect fill="#f2f5e9" fill-opacity="0.5" stroke="#606060" stroke-width=".5" x="0" y="0" width="60" height="60"/>
                <use id="zoomplus" xlink:href="#zoomPlus" x="17" y="9" onmousedown="handleZoom(evt,'in')"/>
                <use id="zoomminus" xlink:href="#zoomMin" x="42" y="9" onmousedown="handleZoom(evt,'out')"/>
                <use id="reset" xlink:href="#resetDef" x="30" y="36" onmousedown="handleReset()"/>
                <g id="arrowUp" xlink:href="#dirArrow" transform="translate(30 24)" onmousedown="handlePan(0,-1)">
                  <use xlink:href="#rim" fill="#404040">
                        <set attributeName="fill" to="#808080" begin="arrowUp.mouseover" end="arrowUp.mouseout"/>
                  </use>
                  <path fill="none" stroke="white" stroke-width="1.5" d="M0,-3.0v7 M-2.5,-0.5L0,-3.0L2.5,-0.5"/>
                </g>
                <g id="arrowRight" xlink:href="#dirArrow" transform="rotate(90) translate(36 -43)" onmousedown="handlePan(1,0)">
                  <use xlink:href="#rim" fill="#404040">
                        <set attributeName="fill" to="#808080" begin="arrowRight.mouseover" end="arrowRight.mouseout"/>
                  </use>
                  <path fill="none" stroke="white" stroke-width="1.5" d="M0,-3.0v7 M-2.5,-0.5L0,-3.0L2.5,-0.5"/>
                </g>
                <g id="arrowDown" xlink:href="#dirArrow" transform="rotate(180) translate(-30 -48)" onmousedown="handlePan(0,1)">
                  <use xlink:href="#rim" fill="#404040">
                        <set attributeName="fill" to="#808080" begin="arrowDown.mouseover" end="arrowDown.mouseout"/>
                  </use>
                  <path fill="none" stroke="white" stroke-width="1.5" d="M0,-3.0v7 M-2.5,-0.5L0,-3.0L2.5,-0.5"/>
                </g>
                <g id="arrowLeft" xlink:href="#dirArrow" transform="rotate(270) translate(-36 17)" onmousedown="handlePan(-1,0)">
                  <use xlink:href="#rim" fill="#404040">
                        <set attributeName="fill" to="#808080" begin="arrowLeft.mouseover" end="arrowLeft.mouseout"/>
                  </use>
                  <path fill="none" stroke="white" stroke-width="1.5" d="M0,-3.0v7 M-2.5,-0.5L0,-3.0L2.5,-0.5"/>
                </g>
        </g>
        <svg viewBox="0 0 15 15" width="100%" height="30px" preserveAspectRatio="xMaxYMin meet">
         <g id="arrow_out" transform="scale(0.3 0.3)">
          <a xlink:href="structSeeSawN_1_1AppNodalCameraTrackerN_1_1AppNodalCameraTrackerParametersC__coll__graph_org.svg" target="_base">
           <rect id="button" ry="5" rx="5" y="6" x="6" height="38" width="38"
                fill="#f2f5e9" fill-opacity="0.5" stroke="#606060" stroke-width="1.0"/>
           <path id="arrow"
             d="M 11.500037,31.436501 C 11.940474,20.09759 22.043105,11.32322 32.158766,21.979434 L 37.068811,17.246167 C 37.068811,17.246167 37.088388,32 37.088388,32 L 22.160133,31.978069 C 22.160133,31.978069 26.997745,27.140456 26.997745,27.140456 C 18.528582,18.264221 13.291696,25.230495 11.500037,31.436501 z"
             style="fill:#404040;"/>
          </a>
         </g>
        </svg>
</svg>
