<?xml version="1.0" encoding="UTF-8" standalone="no"?>
<!DOCTYPE svg PUBLIC "-//W3C//DTD SVG 1.1//EN"
 "http://www.w3.org/Graphics/SVG/1.1/DTD/svg11.dtd">
<!-- Generated by graphviz version 2.38.0 (20140413.2041)
 -->
<!-- Title: SeeSawN::GeometryN::MultimodelGeometryEstimationPipelineDiagnosticsC Pages: 1 -->
<!--zoomable 1347 -->
<svg id="main" version="1.1" xmlns="http://www.w3.org/2000/svg" xmlns:xlink="http://www.w3.org/1999/xlink" xml:space="preserve" onload="init(evt)">
<style type="text/css"><![CDATA[
.edge:hover path { stroke: red; }
.edge:hover polygon { stroke: red; fill: red; }
]]></style>
<script type="text/javascript"><![CDATA[
var edges = document.getElementsByTagName('g');
if (edges && edges.length) {
  for (var i=0;i<edges.length;i++) {
    if (edges[i].id.substr(0,4)=='edge') {
      edges[i].setAttribute('class','edge');
    }
  }
}
]]></script>
        <defs>
                <circle id="rim" cx="0" cy="0" r="7"/>
                <circle id="rim2" cx="0" cy="0" r="3.5"/>
                <g id="zoomPlus">
                        <use xlink:href="#rim" fill="#404040">
                                <set attributeName="fill" to="#808080" begin="zoomplus.mouseover" end="zoomplus.mouseout"/>
                        </use>
                        <path d="M-4,0h8M0,-4v8" fill="none" stroke="white" stroke-width="1.5" pointer-events="none"/>
                </g>
                <g id="zoomMin">
                        <use xlink:href="#rim" fill="#404040">
                                <set attributeName="fill" to="#808080" begin="zoomminus.mouseover" end="zoomminus.mouseout"/>
                        </use>
                        <path d="M-4,0h8" fill="none" stroke="white" stroke-width="1.5" pointer-events="none"/>
                </g>
                <g id="dirArrow">
                        <path fill="none" stroke="white" stroke-width="1.5" d="M0,-3.0v7 M-2.5,-0.5L0,-3.0L2.5,-0.5"/>
                </g>
               <g id="resetDef">
                       <use xlink:href="#rim2" fill="#404040">
                               <set attributeName="fill" to="#808080" begin="reset.mouseover" end="reset.mouseout"/>
                       </use>
               </g>
        </defs>

<script type="text/javascript">
var viewWidth = 2134;
var viewHeight = 1347;
var sectionId = 'dynsection-0';
</script>
<script xlink:href="svgpan.js"/>
<svg id="graph" class="graph">
<g id="viewport">
<title>SeeSawN::GeometryN::MultimodelGeometryEstimationPipelineDiagnosticsC</title>
<polygon fill="white" stroke="none" points="-4,4 -4,-1343 2130.01,-1343 2130.01,4 -4,4"/>
<!-- Node1 -->
<g id="node1" class="node"><title>Node1</title>
<polygon fill="#bfbfbf" stroke="black" points="1417.01,-0.5 1417.01,-90.5 1577.01,-90.5 1577.01,-0.5 1417.01,-0.5"/>
<text text-anchor="start" x="1425.01" y="-78.5" font-family="FreeSans" font-size="10.00">SeeSawN::GeometryN</text>
<text text-anchor="start" x="1425.01" y="-67.5" font-family="FreeSans" font-size="10.00">::MultimodelGeometryEstimation</text>
<text text-anchor="middle" x="1497.01" y="-56.5" font-family="FreeSans" font-size="10.00">PipelineDiagnosticsC</text>
<polyline fill="none" stroke="black" points="1417.01,-49.5 1577.01,-49.5 "/>
<text text-anchor="middle" x="1497.01" y="-37.5" font-family="FreeSans" font-size="10.00"> </text>
<polyline fill="none" stroke="black" points="1417.01,-30.5 1577.01,-30.5 "/>
<text text-anchor="start" x="1425.01" y="-18.5" font-family="FreeSans" font-size="10.00">+ MultimodelGeometryEstimation</text>
<text text-anchor="start" x="1425.01" y="-7.5" font-family="FreeSans" font-size="10.00">PipelineDiagnosticsC()</text>
</g>
<!-- Node2 -->
<g id="node2" class="node"><title>Node2</title>
<polygon fill="white" stroke="#bfbfbf" points="1792.51,-1024.5 1792.51,-1081.5 1837.51,-1081.5 1837.51,-1024.5 1792.51,-1024.5"/>
<text text-anchor="middle" x="1815.01" y="-1069.5" font-family="FreeSans" font-size="10.00">double</text>
<polyline fill="none" stroke="#bfbfbf" points="1792.51,-1062.5 1837.51,-1062.5 "/>
<text text-anchor="middle" x="1815.01" y="-1050.5" font-family="FreeSans" font-size="10.00"> </text>
<polyline fill="none" stroke="#bfbfbf" points="1792.51,-1043.5 1837.51,-1043.5 "/>
<text text-anchor="middle" x="1815.01" y="-1031.5" font-family="FreeSans" font-size="10.00"> </text>
</g>
<!-- Node2&#45;&gt;Node1 -->
<g id="edge1" class="edge"><title>Node2&#45;&gt;Node1</title>
<path fill="none" stroke="#404040" d="M1837.79,-1026.51C1839.16,-1025.59 1840.57,-1024.74 1842.01,-1024 1891.56,-998.588 1925.06,-1043.74 1966.01,-1006 2000.3,-974.403 2013.01,-848.129 2013.01,-801.5 2013.01,-801.5 2013.01,-801.5 2013.01,-177 2013.01,-90.6055 1737.7,-60.7957 1589.28,-51.0022"/>
<polygon fill="none" stroke="#404040" points="1589.04,-50.9875 1582.8,-54.5971 1577.07,-50.2229 1583.31,-46.6134 1589.04,-50.9875"/>
<text text-anchor="middle" x="2027.01" y="-504" font-family="FreeSans" font-size="10.00"> +error</text>
</g>
<!-- Node9 -->
<g id="node9" class="node"><title>Node9</title>
<g id="a_node9"><a xlink:href="structSeeSawN_1_1GeometryN_1_1GeometryEstimationPipelineDiagnosticsC.html" target="_top" xlink:title="Diagnostics for GeometryEstimationPipelineC. ">
<polygon fill="white" stroke="black" points="975.51,-265.5 975.51,-355.5 1122.51,-355.5 1122.51,-265.5 975.51,-265.5"/>
<text text-anchor="start" x="983.51" y="-343.5" font-family="FreeSans" font-size="10.00">SeeSawN::GeometryN</text>
<text text-anchor="start" x="983.51" y="-332.5" font-family="FreeSans" font-size="10.00">::GeometryEstimationPipeline</text>
<text text-anchor="middle" x="1049.01" y="-321.5" font-family="FreeSans" font-size="10.00">DiagnosticsC</text>
<polyline fill="none" stroke="black" points="975.51,-314.5 1122.51,-314.5 "/>
<text text-anchor="middle" x="1049.01" y="-302.5" font-family="FreeSans" font-size="10.00"> </text>
<polyline fill="none" stroke="black" points="975.51,-295.5 1122.51,-295.5 "/>
<text text-anchor="start" x="983.51" y="-283.5" font-family="FreeSans" font-size="10.00">+ GeometryEstimationPipeline</text>
<text text-anchor="start" x="983.51" y="-272.5" font-family="FreeSans" font-size="10.00">DiagnosticsC()</text>
</a>
</g>
</g>
<!-- Node2&#45;&gt;Node9 -->
<g id="edge11" class="edge"><title>Node2&#45;&gt;Node9</title>
<path fill="none" stroke="#404040" d="M1837.51,-1026.87C1838.97,-1025.82 1840.47,-1024.85 1842.01,-1024 1875.78,-1005.28 1898.07,-1031.56 1927.01,-1006 1978.88,-960.18 2002.28,-904.466 1956.01,-853 1930.76,-824.915 1819.49,-854.278 1787.01,-835 1714.49,-791.957 1733.96,-742.964 1679.01,-679 1543.9,-521.729 1517.6,-453.251 1326.01,-374 1264.36,-348.501 1190.49,-332.496 1134.54,-323.073"/>
<polygon fill="none" stroke="#404040" points="1134.37,-323.044 1127.8,-326.021 1122.53,-321.103 1129.1,-318.127 1134.37,-323.044"/>
<text text-anchor="middle" x="1688.51" y="-647.5" font-family="FreeSans" font-size="10.00"> +error</text>
<text text-anchor="middle" x="1688.51" y="-636.5" font-family="FreeSans" font-size="10.00">+meanError</text>
</g>
<!-- Node14 -->
<g id="node14" class="node"><title>Node14</title>
<g id="a_node14"><a xlink:href="structSeeSawN_1_1GeometryN_1_1GeometryEstimatorDiagnosticsC.html" target="_top" xlink:title="Diagnostics for GeometryEstimatorC. ">
<polygon fill="white" stroke="black" points="1198.01,-536 1198.01,-604 1370.01,-604 1370.01,-536 1198.01,-536"/>
<text text-anchor="start" x="1206.01" y="-592" font-family="FreeSans" font-size="10.00">SeeSawN::GeometryN</text>
<text text-anchor="middle" x="1284.01" y="-581" font-family="FreeSans" font-size="10.00">::GeometryEstimatorDiagnosticsC</text>
<polyline fill="none" stroke="black" points="1198.01,-574 1370.01,-574 "/>
<text text-anchor="middle" x="1284.01" y="-562" font-family="FreeSans" font-size="10.00"> </text>
<polyline fill="none" stroke="black" points="1198.01,-555 1370.01,-555 "/>
<text text-anchor="start" x="1206.01" y="-543" font-family="FreeSans" font-size="10.00">+ GeometryEstimatorDiagnosticsC()</text>
</a>
</g>
</g>
<!-- Node2&#45;&gt;Node14 -->
<g id="edge30" class="edge"><title>Node2&#45;&gt;Node14</title>
<path fill="none" stroke="#404040" d="M1792.39,-1026.03C1772.45,-1003.22 1742.51,-969.216 1716.01,-940 1680.51,-900.872 1680.51,-879.846 1635.01,-853 1606.6,-836.239 1588.68,-855.714 1563.01,-835 1536.4,-813.53 1550.46,-792.622 1529.01,-766 1521.42,-756.575 1405.78,-665.861 1336.13,-611.542"/>
<polygon fill="none" stroke="#404040" points="1336.08,-611.508 1328.89,-610.974 1326.62,-604.131 1333.81,-604.665 1336.08,-611.508"/>
<text text-anchor="middle" x="1577.01" y="-798" font-family="FreeSans" font-size="10.00"> +error</text>
</g>
<!-- Node16 -->
<g id="node16" class="node"><title>Node16</title>
<g id="a_node16"><a xlink:href="structSeeSawN_1_1RANSACN_1_1RANSACDiagnosticsC.html" target="_top" xlink:title="Diagnostics of RANSAC. ">
<polygon fill="white" stroke="black" points="1408.01,-853.5 1408.01,-921.5 1626.01,-921.5 1626.01,-853.5 1408.01,-853.5"/>
<text text-anchor="middle" x="1517.01" y="-909.5" font-family="FreeSans" font-size="10.00">SeeSawN::RANSACN::RANSACDiagnosticsC</text>
<polyline fill="none" stroke="black" points="1408.01,-902.5 1626.01,-902.5 "/>
<text text-anchor="middle" x="1517.01" y="-890.5" font-family="FreeSans" font-size="10.00"> </text>
<polyline fill="none" stroke="black" points="1408.01,-883.5 1626.01,-883.5 "/>
<text text-anchor="start" x="1416.01" y="-871.5" font-family="FreeSans" font-size="10.00">+ RANSACDiagnosticsC()</text>
<text text-anchor="start" x="1416.01" y="-860.5" font-family="FreeSans" font-size="10.00">* IterationT</text>
</a>
</g>
</g>
<!-- Node2&#45;&gt;Node16 -->
<g id="edge19" class="edge"><title>Node2&#45;&gt;Node16</title>
<path fill="none" stroke="#404040" d="M1792.26,-1049.49C1758.03,-1044.95 1692.08,-1033.19 1643.01,-1006 1624.22,-995.59 1586.85,-959.869 1557.66,-930.519"/>
<polygon fill="none" stroke="#404040" points="1557.33,-930.185 1550.27,-928.729 1548.9,-921.65 1555.96,-923.106 1557.33,-930.185"/>
<text text-anchor="middle" x="1679.51" y="-998" font-family="FreeSans" font-size="10.00"> +finalEpsilonVl</text>
<text text-anchor="middle" x="1679.51" y="-987" font-family="FreeSans" font-size="10.00">+finalEpsilonOb</text>
<text text-anchor="middle" x="1679.51" y="-976" font-family="FreeSans" font-size="10.00">+error</text>
<text text-anchor="middle" x="1679.51" y="-965" font-family="FreeSans" font-size="10.00">+inlierRatio</text>
<text text-anchor="middle" x="1679.51" y="-954" font-family="FreeSans" font-size="10.00">+finalDecisionTh</text>
<text text-anchor="middle" x="1679.51" y="-943" font-family="FreeSans" font-size="10.00">+finalDelta</text>
</g>
<!-- Node23 -->
<g id="node23" class="node"><title>Node23</title>
<g id="a_node23"><a xlink:href="structSeeSawN_1_1OptimisationN_1_1PowellDogLegDiagnosticsC.html" target="_top" xlink:title="Diagnostics for PowellDogLegC. ">
<polygon fill="white" stroke="black" points="1518.01,-679.5 1518.01,-747.5 1670.01,-747.5 1670.01,-679.5 1518.01,-679.5"/>
<text text-anchor="start" x="1526.01" y="-735.5" font-family="FreeSans" font-size="10.00">SeeSawN::OptimisationN</text>
<text text-anchor="middle" x="1594.01" y="-724.5" font-family="FreeSans" font-size="10.00">::PowellDogLegDiagnosticsC</text>
<polyline fill="none" stroke="black" points="1518.01,-717.5 1670.01,-717.5 "/>
<text text-anchor="middle" x="1594.01" y="-705.5" font-family="FreeSans" font-size="10.00"> </text>
<polyline fill="none" stroke="black" points="1518.01,-698.5 1670.01,-698.5 "/>
<text text-anchor="start" x="1526.01" y="-686.5" font-family="FreeSans" font-size="10.00">+ PowellDogLegDiagnosticsC()</text>
</a>
</g>
</g>
<!-- Node2&#45;&gt;Node23 -->
<g id="edge33" class="edge"><title>Node2&#45;&gt;Node23</title>
<path fill="none" stroke="#404040" d="M1808.83,-1024.33C1797.27,-975.077 1771.06,-875.258 1744.01,-853 1702.36,-818.734 1663.91,-871.278 1624.01,-835 1603.31,-816.181 1595.89,-785.479 1593.6,-759.776"/>
<polygon fill="none" stroke="#404040" points="1593.59,-759.611 1589.23,-753.868 1592.85,-747.634 1597.21,-753.377 1593.59,-759.611"/>
<text text-anchor="middle" x="1810.51" y="-901.5" font-family="FreeSans" font-size="10.00"> +error</text>
<text text-anchor="middle" x="1810.51" y="-890.5" font-family="FreeSans" font-size="10.00">+finalEpsilon1</text>
<text text-anchor="middle" x="1810.51" y="-879.5" font-family="FreeSans" font-size="10.00">+finalDelta</text>
<text text-anchor="middle" x="1810.51" y="-868.5" font-family="FreeSans" font-size="10.00">+finalEpsilon2</text>
</g>
<!-- Node24 -->
<g id="node24" class="node"><title>Node24</title>
<polygon fill="white" stroke="#bfbfbf" points="1855.01,-859 1855.01,-916 1947.01,-916 1947.01,-859 1855.01,-859"/>
<text text-anchor="middle" x="1901.01" y="-904" font-family="FreeSans" font-size="10.00">std::list&lt; double &gt;</text>
<polyline fill="none" stroke="#bfbfbf" points="1855.01,-897 1947.01,-897 "/>
<text text-anchor="middle" x="1901.01" y="-885" font-family="FreeSans" font-size="10.00"> </text>
<polyline fill="none" stroke="#bfbfbf" points="1855.01,-878 1947.01,-878 "/>
<text text-anchor="middle" x="1901.01" y="-866" font-family="FreeSans" font-size="10.00"> </text>
</g>
<!-- Node2&#45;&gt;Node24 -->
<g id="edge35" class="edge"><title>Node2&#45;&gt;Node24</title>
<path fill="none" stroke="#404040" d="M1829.6,-1024.26C1843.66,-997.524 1865.07,-956.827 1880.78,-926.962"/>
<polygon fill="none" stroke="#404040" points="1880.91,-926.719 1880.16,-919.546 1886.49,-916.098 1887.24,-923.271 1880.91,-926.719"/>
<text text-anchor="middle" x="1898.51" y="-970.5" font-family="FreeSans" font-size="10.00"> +elements</text>
</g>
<!-- Node3 -->
<g id="node3" class="node"><title>Node3</title>
<g id="a_node3"><a xlink:href="structSeeSawN_1_1MatcherN_1_1FeatureMatcherDiagnosticsC.html" target="_top" xlink:title="Diagnostics for FeatureMatcherC. ">
<polygon fill="white" stroke="black" points="369.51,-679.5 369.51,-747.5 512.51,-747.5 512.51,-679.5 369.51,-679.5"/>
<text text-anchor="start" x="377.51" y="-735.5" font-family="FreeSans" font-size="10.00">SeeSawN::MatcherN::</text>
<text text-anchor="middle" x="441.01" y="-724.5" font-family="FreeSans" font-size="10.00">FeatureMatcherDiagnosticsC</text>
<polyline fill="none" stroke="black" points="369.51,-717.5 512.51,-717.5 "/>
<text text-anchor="middle" x="441.01" y="-705.5" font-family="FreeSans" font-size="10.00"> </text>
<polyline fill="none" stroke="black" points="369.51,-698.5 512.51,-698.5 "/>
<text text-anchor="middle" x="441.01" y="-686.5" font-family="FreeSans" font-size="10.00"> </text>
</a>
</g>
</g>
<!-- Node3&#45;&gt;Node1 -->
<g id="edge2" class="edge"><title>Node3&#45;&gt;Node1</title>
<path fill="none" stroke="#404040" d="M369.326,-697.424C305.788,-679.365 223.01,-642.178 223.01,-571 223.01,-571 223.01,-571 223.01,-177 223.01,-58.1582 1111.64,-46.7977 1404.58,-46.2814"/>
<polygon fill="none" stroke="#404040" points="1404.83,-46.2812 1410.83,-42.2734 1416.83,-46.2656 1410.84,-50.2734 1404.83,-46.2812"/>
<text text-anchor="middle" x="270.51" y="-377" font-family="FreeSans" font-size="10.00"> +matcherDiagnostics</text>
</g>
<!-- Node25 -->
<g id="node25" class="node"><title>Node25</title>
<polygon fill="white" stroke="#bfbfbf" points="510.51,-530.5 510.51,-609.5 647.51,-609.5 647.51,-530.5 510.51,-530.5"/>
<text text-anchor="start" x="518.51" y="-597.5" font-family="FreeSans" font-size="10.00">std::list&lt; SeeSawN</text>
<text text-anchor="start" x="518.51" y="-586.5" font-family="FreeSans" font-size="10.00">::MatcherN::FeatureMatcher</text>
<text text-anchor="middle" x="579.01" y="-575.5" font-family="FreeSans" font-size="10.00">DiagnosticsC &gt;</text>
<polyline fill="none" stroke="#bfbfbf" points="510.51,-568.5 647.51,-568.5 "/>
<text text-anchor="middle" x="579.01" y="-556.5" font-family="FreeSans" font-size="10.00"> </text>
<polyline fill="none" stroke="#bfbfbf" points="510.51,-549.5 647.51,-549.5 "/>
<text text-anchor="middle" x="579.01" y="-537.5" font-family="FreeSans" font-size="10.00"> </text>
</g>
<!-- Node3&#45;&gt;Node25 -->
<g id="edge41" class="edge"><title>Node3&#45;&gt;Node25</title>
<path fill="none" stroke="#404040" d="M469.048,-679.238C482.806,-663.356 499.859,-644.305 516.01,-628 519.302,-624.676 522.746,-621.301 526.253,-617.938"/>
<polygon fill="none" stroke="#404040" points="526.32,-617.874 527.941,-610.847 535.05,-609.641 533.43,-616.667 526.32,-617.874"/>
<text text-anchor="middle" x="540.51" y="-642" font-family="FreeSans" font-size="10.00"> +elements</text>
</g>
<!-- Node4 -->
<g id="node4" class="node"><title>Node4</title>
<polygon fill="white" stroke="#bfbfbf" points="216.51,-1024.5 216.51,-1081.5 245.51,-1081.5 245.51,-1024.5 216.51,-1024.5"/>
<text text-anchor="middle" x="231.01" y="-1069.5" font-family="FreeSans" font-size="10.00">int</text>
<polyline fill="none" stroke="#bfbfbf" points="216.51,-1062.5 245.51,-1062.5 "/>
<text text-anchor="middle" x="231.01" y="-1050.5" font-family="FreeSans" font-size="10.00"> </text>
<polyline fill="none" stroke="#bfbfbf" points="216.51,-1043.5 245.51,-1043.5 "/>
<text text-anchor="middle" x="231.01" y="-1031.5" font-family="FreeSans" font-size="10.00"> </text>
</g>
<!-- Node4&#45;&gt;Node1 -->
<g id="edge8" class="edge"><title>Node4&#45;&gt;Node1</title>
<path fill="none" stroke="#404040" d="M216.378,-1036.22C192.311,-1008.55 147.01,-948.495 147.01,-888.5 147.01,-888.5 147.01,-888.5 147.01,-177 147.01,-50.4247 1099.39,-44.4124 1404.3,-45.7311"/>
<polygon fill="none" stroke="#404040" points="1404.6,-45.7324 1410.62,-41.7612 1416.6,-45.7898 1410.58,-49.7611 1404.6,-45.7324"/>
<text text-anchor="middle" x="167.51" y="-504" font-family="FreeSans" font-size="10.00"> +support</text>
</g>
<!-- Node4&#45;&gt;Node3 -->
<g id="edge3" class="edge"><title>Node4&#45;&gt;Node3</title>
<path fill="none" stroke="#404040" d="M224.936,-1024.19C217.635,-983.707 209.82,-907.441 240.01,-853 265.966,-806.193 315.233,-771.861 358.493,-749.087"/>
<polygon fill="none" stroke="#404040" points="358.657,-749.003 362.181,-742.712 369.344,-743.545 365.819,-749.836 358.657,-749.003"/>
<text text-anchor="middle" x="285.01" y="-885" font-family="FreeSans" font-size="10.00"> +sCorrespondences</text>
</g>
<!-- Node4&#45;&gt;Node9 -->
<g id="edge43" class="edge"><title>Node4&#45;&gt;Node9</title>
<path fill="none" stroke="#404040" d="M219.666,-1024.17C217.733,-1018.27 216.024,-1012 215.01,-1006 197.073,-899.834 188.437,-855.688 248.01,-766 333.089,-637.91 383.298,-628.941 501.01,-530 572.661,-469.774 584.396,-443.02 669.01,-403 764.407,-357.879 884.135,-333.812 963.426,-321.87"/>
<polygon fill="none" stroke="#404040" points="963.436,-321.868 968.791,-317.039 975.309,-320.125 969.954,-324.955 963.436,-321.868"/>
<text text-anchor="middle" x="398.51" y="-642" font-family="FreeSans" font-size="10.00"> +nIteration</text>
</g>
<!-- Node4&#45;&gt;Node16 -->
<g id="edge21" class="edge"><title>Node4&#45;&gt;Node16</title>
<path fill="none" stroke="#404040" d="M245.682,-1047.95C269.611,-1041.56 318.628,-1029.29 361.01,-1024 388.316,-1020.59 833.87,-1022.34 856.01,-1006 881.001,-987.551 854.005,-958.431 879.01,-940 902.054,-923.013 1365.7,-926.29 1394.01,-922 1394.58,-921.913 1395.16,-921.824 1395.74,-921.734"/>
<polygon fill="none" stroke="#404040" points="1396.15,-921.661 1401.38,-916.69 1407.97,-919.6 1402.75,-924.571 1396.15,-921.661"/>
<text text-anchor="middle" x="915.01" y="-998" font-family="FreeSans" font-size="10.00"> +iIteration</text>
<text text-anchor="middle" x="915.01" y="-987" font-family="FreeSans" font-size="10.00">+nIterations</text>
<text text-anchor="middle" x="915.01" y="-976" font-family="FreeSans" font-size="10.00">+iEta</text>
<text text-anchor="middle" x="915.01" y="-965" font-family="FreeSans" font-size="10.00">+nValidatorCalls</text>
<text text-anchor="middle" x="915.01" y="-954" font-family="FreeSans" font-size="10.00">+iGenerator</text>
<text text-anchor="middle" x="915.01" y="-943" font-family="FreeSans" font-size="10.00">+iError</text>
</g>
<!-- Node4&#45;&gt;Node23 -->
<g id="edge37" class="edge"><title>Node4&#45;&gt;Node23</title>
<path fill="none" stroke="#404040" d="M245.684,-1047.97C269.616,-1041.6 318.638,-1029.37 361.01,-1024 410.542,-1017.72 765.865,-1029.33 810.01,-1006 842.311,-988.932 832.404,-965.037 859.01,-940 874.563,-925.364 1003.47,-848.517 1020.01,-835 1053.34,-807.75 1049.19,-784.614 1088.01,-766 1088.59,-765.72 1360.56,-738.142 1505.48,-723.463"/>
<polygon fill="none" stroke="#404040" points="1505.88,-723.423 1511.44,-718.839 1517.82,-722.214 1512.25,-726.798 1505.88,-723.423"/>
<text text-anchor="middle" x="1020.51" y="-885" font-family="FreeSans" font-size="10.00"> +nIterations</text>
</g>
<!-- Node5 -->
<g id="node5" class="node"><title>Node5</title>
<g id="a_node5"><a xlink:href="classbool.html" target="_top" xlink:title="{bool\n||}">
<polygon fill="white" stroke="black" points="1264.51,-1024.5 1264.51,-1081.5 1299.51,-1081.5 1299.51,-1024.5 1264.51,-1024.5"/>
<text text-anchor="middle" x="1282.01" y="-1069.5" font-family="FreeSans" font-size="10.00">bool</text>
<polyline fill="none" stroke="black" points="1264.51,-1062.5 1299.51,-1062.5 "/>
<text text-anchor="middle" x="1282.01" y="-1050.5" font-family="FreeSans" font-size="10.00"> </text>
<polyline fill="none" stroke="black" points="1264.51,-1043.5 1299.51,-1043.5 "/>
<text text-anchor="middle" x="1282.01" y="-1031.5" font-family="FreeSans" font-size="10.00"> </text>
</a>
</g>
</g>
<!-- Node5&#45;&gt;Node1 -->
<g id="edge47" class="edge"><title>Node5&#45;&gt;Node1</title>
<path fill="none" stroke="#404040" d="M1299.58,-1034.6C1304.79,-1030.41 1310.78,-1026.45 1317.01,-1024 1366.78,-1004.42 1513.55,-1037.17 1557.01,-1006 1582.9,-987.429 1561.86,-961.895 1585.01,-940 1602.17,-923.771 1616.78,-937.012 1635.01,-922 1669.79,-893.367 1673.66,-878.022 1687.01,-835 1712.03,-754.403 1699.01,-729.891 1699.01,-645.5 1699.01,-645.5 1699.01,-645.5 1699.01,-177 1699.01,-120.307 1642.18,-87.041 1588.8,-68.2996"/>
<polygon fill="none" stroke="#404040" points="1588.52,-68.2041 1581.56,-70.099 1577.14,-64.4053 1584.09,-62.5104 1588.52,-68.2041"/>
<text text-anchor="middle" x="1730.01" y="-504" font-family="FreeSans" font-size="10.00"> +flagSuccess</text>
</g>
<!-- Node5&#45;&gt;Node3 -->
<g id="edge4" class="edge"><title>Node5&#45;&gt;Node3</title>
<path fill="none" stroke="#404040" d="M1264.31,-1049.06C1230.14,-1043.47 1152.62,-1031.22 1087.01,-1024 1034.95,-1018.27 898.671,-1029.79 852.01,-1006 772.513,-965.471 792.381,-907.865 722.01,-853 661.692,-805.973 582.85,-768.819 524.036,-744.882"/>
<polygon fill="none" stroke="#404040" points="523.688,-744.742 516.629,-746.219 512.551,-740.272 519.61,-738.795 523.688,-744.742"/>
<text text-anchor="middle" x="808.01" y="-885" font-family="FreeSans" font-size="10.00"> +flagSuccess</text>
</g>
<!-- Node6 -->
<g id="node6" class="node"><title>Node6</title>
<g id="a_node6"><a xlink:href="structSeeSawN_1_1MatcherN_1_1NearestNeighbourMatcherDiagnosticsC.html" target="_top" xlink:title="Diagnostics object for NearestNeighbourMatcherC. ">
<polygon fill="white" stroke="black" points="339.51,-853.5 339.51,-921.5 542.51,-921.5 542.51,-853.5 339.51,-853.5"/>
<text text-anchor="start" x="347.51" y="-909.5" font-family="FreeSans" font-size="10.00">SeeSawN::MatcherN::</text>
<text text-anchor="middle" x="441.01" y="-898.5" font-family="FreeSans" font-size="10.00">NearestNeighbourMatcherDiagnosticsC</text>
<polyline fill="none" stroke="black" points="339.51,-891.5 542.51,-891.5 "/>
<text text-anchor="middle" x="441.01" y="-879.5" font-family="FreeSans" font-size="10.00"> </text>
<polyline fill="none" stroke="black" points="339.51,-872.5 542.51,-872.5 "/>
<text text-anchor="start" x="347.51" y="-860.5" font-family="FreeSans" font-size="10.00">+ NearestNeighbourMatcherDiagnosticsC()</text>
</a>
</g>
</g>
<!-- Node5&#45;&gt;Node6 -->
<g id="edge6" class="edge"><title>Node5&#45;&gt;Node6</title>
<path fill="none" stroke="#404040" d="M1264.33,-1048.92C1230.18,-1043.08 1152.7,-1030.43 1087.01,-1024 935.081,-1009.14 893.272,-1038 744.01,-1006 664.843,-989.028 579.222,-954.163 519.259,-926.797"/>
<polygon fill="none" stroke="#404040" points="518.892,-926.628 511.769,-927.75 507.993,-921.607 515.117,-920.485 518.892,-926.628"/>
<text text-anchor="middle" x="775.01" y="-970.5" font-family="FreeSans" font-size="10.00"> +flagSuccess</text>
</g>
<!-- Node5&#45;&gt;Node9 -->
<g id="edge44" class="edge"><title>Node5&#45;&gt;Node9</title>
<path fill="none" stroke="#404040" d="M1264.48,-1051.99C1231.12,-1051.05 1157.95,-1044.41 1114.01,-1006 1090.02,-985.027 1107.95,-963.104 1086.01,-940 1073.42,-926.74 1058.71,-937.503 1049.01,-922 1020.12,-875.826 1037.62,-510.227 1045.64,-367.912"/>
<polygon fill="none" stroke="#404040" points="1045.66,-367.632 1042.01,-361.414 1046.34,-355.652 1049.99,-361.869 1045.66,-367.632"/>
<text text-anchor="middle" x="1066.01" y="-642" font-family="FreeSans" font-size="10.00"> +flagSuccess</text>
</g>
<!-- Node5&#45;&gt;Node14 -->
<g id="edge31" class="edge"><title>Node5&#45;&gt;Node14</title>
<path fill="none" stroke="#404040" d="M1281.29,-1024.39C1280.06,-973.362 1277.79,-860.834 1279.01,-766 1279.67,-714.667 1281.3,-655.751 1282.52,-616.233"/>
<polygon fill="none" stroke="#404040" points="1282.53,-616.112 1278.72,-609.989 1282.9,-604.118 1286.71,-610.241 1282.53,-616.112"/>
<text text-anchor="middle" x="1310.01" y="-809" font-family="FreeSans" font-size="10.00"> +flagSuccess</text>
<text text-anchor="middle" x="1310.01" y="-798" font-family="FreeSans" font-size="10.00">+flagStage2</text>
<text text-anchor="middle" x="1310.01" y="-787" font-family="FreeSans" font-size="10.00">+flagLO</text>
</g>
<!-- Node15 -->
<g id="node15" class="node"><title>Node15</title>
<g id="a_node15"><a xlink:href="structSeeSawN_1_1RANSACN_1_1TwoStageRANSACDiagnosticsC.html" target="_top" xlink:title="Diagnostics for TwoStageRANSACC. ">
<polygon fill="white" stroke="black" points="1080.01,-679.5 1080.01,-747.5 1254.01,-747.5 1254.01,-679.5 1080.01,-679.5"/>
<text text-anchor="start" x="1088.01" y="-735.5" font-family="FreeSans" font-size="10.00">SeeSawN::RANSACN::TwoStage</text>
<text text-anchor="middle" x="1167.01" y="-724.5" font-family="FreeSans" font-size="10.00">RANSACDiagnosticsC</text>
<polyline fill="none" stroke="black" points="1080.01,-717.5 1254.01,-717.5 "/>
<text text-anchor="middle" x="1167.01" y="-705.5" font-family="FreeSans" font-size="10.00"> </text>
<polyline fill="none" stroke="black" points="1080.01,-698.5 1254.01,-698.5 "/>
<text text-anchor="start" x="1088.01" y="-686.5" font-family="FreeSans" font-size="10.00">+ TwoStageRANSACDiagnosticsC()</text>
</a>
</g>
</g>
<!-- Node5&#45;&gt;Node15 -->
<g id="edge27" class="edge"><title>Node5&#45;&gt;Node15</title>
<path fill="none" stroke="#404040" d="M1264.4,-1027.89C1246.88,-1002.73 1220.57,-961.491 1206.01,-922 1181.64,-855.91 1191.59,-835.12 1178.01,-766 1177.59,-763.872 1177.16,-761.697 1176.71,-759.5"/>
<polygon fill="none" stroke="#404040" points="1176.7,-759.462 1171.57,-754.398 1174.27,-747.711 1179.4,-752.776 1176.7,-759.462"/>
<text text-anchor="middle" x="1237.01" y="-885" font-family="FreeSans" font-size="10.00"> +flagSuccess</text>
</g>
<!-- Node5&#45;&gt;Node16 -->
<g id="edge22" class="edge"><title>Node5&#45;&gt;Node16</title>
<path fill="none" stroke="#404040" d="M1299.79,-1037.72C1305.3,-1033.31 1311.4,-1028.44 1317.01,-1024 1327.19,-1015.95 1332.75,-1016.76 1340.01,-1006 1357.08,-980.696 1337.8,-961.956 1359.01,-940 1362.7,-936.183 1377.31,-930.308 1396.27,-923.872"/>
<polygon fill="none" stroke="#404040" points="1396.49,-923.799 1400.93,-918.116 1407.88,-920.029 1403.44,-925.711 1396.49,-923.799"/>
<text text-anchor="middle" x="1390.01" y="-970.5" font-family="FreeSans" font-size="10.00"> +flagSuccess</text>
</g>
<!-- Node5&#45;&gt;Node23 -->
<g id="edge38" class="edge"><title>Node5&#45;&gt;Node23</title>
<path fill="none" stroke="#404040" d="M1290.6,-1024.31C1292.42,-1018.29 1294.31,-1011.94 1296.01,-1006 1315.37,-938.316 1285.41,-900.89 1337.01,-853 1368.51,-823.767 1397.96,-861.211 1432.01,-835 1458.95,-814.266 1440.19,-789.228 1465.01,-766 1476.98,-754.796 1491.69,-745.911 1506.85,-738.902"/>
<polygon fill="none" stroke="#404040" points="1506.91,-738.877 1510.83,-732.828 1517.93,-734.125 1514,-740.174 1506.91,-738.877"/>
<text text-anchor="middle" x="1368.01" y="-885" font-family="FreeSans" font-size="10.00"> +flagSuccess</text>
</g>
<!-- Node27 -->
<g id="node27" class="node"><title>Node27</title>
<g id="a_node27"><a xlink:href="structSeeSawN_1_1RANSACN_1_1SequentialRANSACDiagnosticsC.html" target="_top" xlink:title="Diagnostics object for SequentialRANSACC. ">
<polygon fill="white" stroke="black" points="1768.01,-536 1768.01,-604 1944.01,-604 1944.01,-536 1768.01,-536"/>
<text text-anchor="start" x="1776.01" y="-592" font-family="FreeSans" font-size="10.00">SeeSawN::RANSACN::Sequential</text>
<text text-anchor="middle" x="1856.01" y="-581" font-family="FreeSans" font-size="10.00">RANSACDiagnosticsC</text>
<polyline fill="none" stroke="black" points="1768.01,-574 1944.01,-574 "/>
<text text-anchor="middle" x="1856.01" y="-562" font-family="FreeSans" font-size="10.00"> </text>
<polyline fill="none" stroke="black" points="1768.01,-555 1944.01,-555 "/>
<text text-anchor="start" x="1776.01" y="-543" font-family="FreeSans" font-size="10.00">+ SequentialRANSACDiagnosticsC()</text>
</a>
</g>
</g>
<!-- Node5&#45;&gt;Node27 -->
<g id="edge52" class="edge"><title>Node5&#45;&gt;Node27</title>
<path fill="none" stroke="#404040" d="M1299.54,-1034.49C1304.75,-1030.31 1310.75,-1026.37 1317.01,-1024 1354.56,-1009.77 1645.27,-1029.26 1678.01,-1006 1737.82,-963.5 1689.91,-906.601 1740.01,-853 1758.23,-833.505 1941.85,-770.621 1956.01,-748 1984.35,-702.712 1978.23,-672.726 1949.01,-628 1945.16,-622.109 1940.47,-616.728 1935.26,-611.832"/>
<polygon fill="none" stroke="#404040" points="1935.23,-611.801 1928.06,-610.976 1926.07,-604.046 1933.23,-604.871 1935.23,-611.801"/>
<text text-anchor="middle" x="1960.01" y="-798" font-family="FreeSans" font-size="10.00"> +flagSuccess</text>
</g>
<!-- Node6&#45;&gt;Node3 -->
<g id="edge5" class="edge"><title>Node6&#45;&gt;Node3</title>
<path fill="none" stroke="#404040" d="M441.01,-853.337C441.01,-826.687 441.01,-788.984 441.01,-759.593"/>
<polygon fill="none" stroke="#404040" points="441.01,-759.562 437.01,-753.562 441.01,-747.562 445.01,-753.561 441.01,-759.562"/>
<text text-anchor="middle" x="475.01" y="-803.5" font-family="FreeSans" font-size="10.00"> +bfDiagnostics</text>
<text text-anchor="middle" x="475.01" y="-792.5" font-family="FreeSans" font-size="10.00">+nnDiagnostics</text>
</g>
<!-- Node7 -->
<g id="node7" class="node"><title>Node7</title>
<polygon fill="white" stroke="#bfbfbf" points="370.01,-1024.5 370.01,-1081.5 412.01,-1081.5 412.01,-1024.5 370.01,-1024.5"/>
<text text-anchor="middle" x="391.01" y="-1069.5" font-family="FreeSans" font-size="10.00">size_t</text>
<polyline fill="none" stroke="#bfbfbf" points="370.01,-1062.5 412.01,-1062.5 "/>
<text text-anchor="middle" x="391.01" y="-1050.5" font-family="FreeSans" font-size="10.00"> </text>
<polyline fill="none" stroke="#bfbfbf" points="370.01,-1043.5 412.01,-1043.5 "/>
<text text-anchor="middle" x="391.01" y="-1031.5" font-family="FreeSans" font-size="10.00"> </text>
</g>
<!-- Node7&#45;&gt;Node6 -->
<g id="edge7" class="edge"><title>Node7&#45;&gt;Node6</title>
<path fill="none" stroke="#404040" d="M385.752,-1024.2C382.601,-1000.84 381.063,-967.036 392.01,-940 393.165,-937.147 394.56,-934.362 396.137,-931.657"/>
<polygon fill="none" stroke="#404040" points="396.21,-931.551 396.308,-924.34 403.002,-921.657 402.904,-928.868 396.21,-931.551"/>
<text text-anchor="middle" x="436.01" y="-981.5" font-family="FreeSans" font-size="10.00"> +sSet1</text>
<text text-anchor="middle" x="436.01" y="-970.5" font-family="FreeSans" font-size="10.00">+sSet2</text>
<text text-anchor="middle" x="436.01" y="-959.5" font-family="FreeSans" font-size="10.00">+sCorrespondences</text>
</g>
<!-- Node8 -->
<g id="node8" class="node"><title>Node8</title>
<polygon fill="white" stroke="#bfbfbf" points="967.51,-138.5 967.51,-217.5 1130.51,-217.5 1130.51,-138.5 967.51,-138.5"/>
<text text-anchor="start" x="975.51" y="-205.5" font-family="FreeSans" font-size="10.00">std::vector&lt; SeeSawN</text>
<text text-anchor="start" x="975.51" y="-194.5" font-family="FreeSans" font-size="10.00">::GeometryN::GeometryEstimation</text>
<text text-anchor="middle" x="1049.01" y="-183.5" font-family="FreeSans" font-size="10.00">PipelineDiagnosticsC &gt;</text>
<polyline fill="none" stroke="#bfbfbf" points="967.51,-176.5 1130.51,-176.5 "/>
<text text-anchor="middle" x="1049.01" y="-164.5" font-family="FreeSans" font-size="10.00"> </text>
<polyline fill="none" stroke="#bfbfbf" points="967.51,-157.5 1130.51,-157.5 "/>
<text text-anchor="middle" x="1049.01" y="-145.5" font-family="FreeSans" font-size="10.00"> </text>
</g>
<!-- Node8&#45;&gt;Node1 -->
<g id="edge9" class="edge"><title>Node8&#45;&gt;Node1</title>
<path fill="none" stroke="#404040" d="M1130.66,-153.216C1208.12,-130.653 1324.35,-96.7956 1405.04,-73.291"/>
<polygon fill="none" stroke="#404040" points="1405.15,-73.2569 1409.8,-67.7385 1416.68,-69.9008 1412.03,-75.4192 1405.15,-73.2569"/>
<text text-anchor="middle" x="1343.51" y="-112" font-family="FreeSans" font-size="10.00"> +geometryEstimatorDiagnostics</text>
</g>
<!-- Node9&#45;&gt;Node8 -->
<g id="edge10" class="edge"><title>Node9&#45;&gt;Node8</title>
<path fill="none" stroke="#404040" d="M1049.01,-265.319C1049.01,-254.024 1049.01,-241.785 1049.01,-230.172"/>
<polygon fill="none" stroke="#404040" points="1049.01,-229.889 1045.01,-223.889 1049.01,-217.889 1053.01,-223.889 1049.01,-229.889"/>
<text text-anchor="middle" x="1073.51" y="-239" font-family="FreeSans" font-size="10.00"> +elements</text>
</g>
<!-- Node10 -->
<g id="node10" class="node"><title>Node10</title>
<polygon fill="white" stroke="#bfbfbf" points="1077.01,-414.5 1077.01,-471.5 1187.01,-471.5 1187.01,-414.5 1077.01,-414.5"/>
<text text-anchor="middle" x="1132.01" y="-459.5" font-family="FreeSans" font-size="10.00">CorrespondenceListT</text>
<polyline fill="none" stroke="#bfbfbf" points="1077.01,-452.5 1187.01,-452.5 "/>
<text text-anchor="middle" x="1132.01" y="-440.5" font-family="FreeSans" font-size="10.00"> </text>
<polyline fill="none" stroke="#bfbfbf" points="1077.01,-433.5 1187.01,-433.5 "/>
<text text-anchor="middle" x="1132.01" y="-421.5" font-family="FreeSans" font-size="10.00"> </text>
</g>
<!-- Node10&#45;&gt;Node9 -->
<g id="edge12" class="edge"><title>Node10&#45;&gt;Node9</title>
<path fill="none" stroke="#404040" d="M1114.41,-414.324C1105.42,-400.198 1094.17,-382.507 1083.55,-365.801"/>
<polygon fill="none" stroke="#404040" points="1083.48,-365.693 1076.88,-362.777 1077.04,-355.568 1083.63,-358.484 1083.48,-365.693"/>
<text text-anchor="middle" x="1120.51" y="-377" font-family="FreeSans" font-size="10.00"> +generator</text>
</g>
<!-- Node11 -->
<g id="node11" class="node"><title>Node11</title>
<polygon fill="white" stroke="#bfbfbf" points="889.51,-766.5 889.51,-834.5 1018.51,-834.5 1018.51,-766.5 889.51,-766.5"/>
<text text-anchor="start" x="897.51" y="-822.5" font-family="FreeSans" font-size="10.00">optional&lt; Correspondence</text>
<text text-anchor="middle" x="954.01" y="-811.5" font-family="FreeSans" font-size="10.00">ListT &gt;</text>
<polyline fill="none" stroke="#bfbfbf" points="889.51,-804.5 1018.51,-804.5 "/>
<text text-anchor="middle" x="954.01" y="-792.5" font-family="FreeSans" font-size="10.00"> </text>
<polyline fill="none" stroke="#bfbfbf" points="889.51,-785.5 1018.51,-785.5 "/>
<text text-anchor="middle" x="954.01" y="-773.5" font-family="FreeSans" font-size="10.00"> </text>
</g>
<!-- Node11&#45;&gt;Node9 -->
<g id="edge13" class="edge"><title>Node11&#45;&gt;Node9</title>
<path fill="none" stroke="#404040" d="M942.997,-766.267C933.741,-735.353 922.01,-687.826 922.01,-645.5 922.01,-645.5 922.01,-645.5 922.01,-442 922.01,-409.902 941.986,-382.738 966.093,-361.643"/>
<polygon fill="none" stroke="#404040" points="966.256,-361.508 968.328,-354.601 975.501,-353.857 973.429,-360.764 966.256,-361.508"/>
<text text-anchor="middle" x="971.51" y="-567.5" font-family="FreeSans" font-size="10.00"> +initialObservationSet</text>
</g>
<!-- Node12 -->
<g id="node12" class="node"><title>Node12</title>
<polygon fill="white" stroke="#bfbfbf" points="1028.01,-1024.5 1028.01,-1081.5 1078.01,-1081.5 1078.01,-1024.5 1028.01,-1024.5"/>
<text text-anchor="middle" x="1053.01" y="-1069.5" font-family="FreeSans" font-size="10.00">optional</text>
<polyline fill="none" stroke="#bfbfbf" points="1028.01,-1062.5 1078.01,-1062.5 "/>
<text text-anchor="middle" x="1053.01" y="-1050.5" font-family="FreeSans" font-size="10.00"> </text>
<polyline fill="none" stroke="#bfbfbf" points="1028.01,-1043.5 1078.01,-1043.5 "/>
<text text-anchor="middle" x="1053.01" y="-1031.5" font-family="FreeSans" font-size="10.00"> </text>
</g>
<!-- Node12&#45;&gt;Node11 -->
<g id="edge14" class="edge"><title>Node12&#45;&gt;Node11</title>
<path fill="none" stroke="orange" d="M1018.67,-1040.49C1002.41,-1033.21 984.327,-1022.08 974.01,-1006 956.334,-978.454 953.722,-885.326 953.66,-834.787"/>
<polygon fill="orange" stroke="orange" points="1017.39,-1043.74 1027.96,-1044.34 1020.07,-1037.27 1017.39,-1043.74"/>
<text text-anchor="middle" x="1030.01" y="-970.5" font-family="FreeSans" font-size="10.00"> &lt; CorrespondenceListT &gt;</text>
</g>
<!-- Node22 -->
<g id="node22" class="node"><title>Node22</title>
<polygon fill="white" stroke="#bfbfbf" points="1058.01,-853.5 1058.01,-921.5 1156.01,-921.5 1156.01,-853.5 1058.01,-853.5"/>
<text text-anchor="start" x="1066.01" y="-909.5" font-family="FreeSans" font-size="10.00">optional&lt; unsigned</text>
<text text-anchor="middle" x="1107.01" y="-898.5" font-family="FreeSans" font-size="10.00"> int &gt;</text>
<polyline fill="none" stroke="#bfbfbf" points="1058.01,-891.5 1156.01,-891.5 "/>
<text text-anchor="middle" x="1107.01" y="-879.5" font-family="FreeSans" font-size="10.00"> </text>
<polyline fill="none" stroke="#bfbfbf" points="1058.01,-872.5 1156.01,-872.5 "/>
<text text-anchor="middle" x="1107.01" y="-860.5" font-family="FreeSans" font-size="10.00"> </text>
</g>
<!-- Node12&#45;&gt;Node22 -->
<g id="edge29" class="edge"><title>Node12&#45;&gt;Node22</title>
<path fill="none" stroke="orange" d="M1083.76,-1016.07C1085.74,-1012.79 1087.53,-1009.41 1089.01,-1006 1100.64,-979.101 1104.9,-945.891 1106.4,-921.647"/>
<polygon fill="orange" stroke="orange" points="1080.77,-1014.25 1078.13,-1024.51 1086.59,-1018.13 1080.77,-1014.25"/>
<text text-anchor="middle" x="1140.51" y="-970.5" font-family="FreeSans" font-size="10.00"> &lt; unsigned int &gt;</text>
</g>
<!-- Node13 -->
<g id="node13" class="node"><title>Node13</title>
<polygon fill="white" stroke="#bfbfbf" points="1205.01,-403.5 1205.01,-482.5 1363.01,-482.5 1363.01,-403.5 1205.01,-403.5"/>
<text text-anchor="start" x="1213.01" y="-470.5" font-family="FreeSans" font-size="10.00">std::list&lt; SeeSawN</text>
<text text-anchor="start" x="1213.01" y="-459.5" font-family="FreeSans" font-size="10.00">::GeometryN::GeometryEstimator</text>
<text text-anchor="middle" x="1284.01" y="-448.5" font-family="FreeSans" font-size="10.00">DiagnosticsC &gt;</text>
<polyline fill="none" stroke="#bfbfbf" points="1205.01,-441.5 1363.01,-441.5 "/>
<text text-anchor="middle" x="1284.01" y="-429.5" font-family="FreeSans" font-size="10.00"> </text>
<polyline fill="none" stroke="#bfbfbf" points="1205.01,-422.5 1363.01,-422.5 "/>
<text text-anchor="middle" x="1284.01" y="-410.5" font-family="FreeSans" font-size="10.00"> </text>
</g>
<!-- Node13&#45;&gt;Node9 -->
<g id="edge15" class="edge"><title>Node13&#45;&gt;Node9</title>
<path fill="none" stroke="#404040" d="M1214.46,-403.375C1189.12,-389.305 1160.19,-373.241 1133.69,-358.523"/>
<polygon fill="none" stroke="#404040" points="1133.38,-358.35 1126.19,-358.934 1122.88,-352.524 1130.07,-351.94 1133.38,-358.35"/>
<text text-anchor="middle" x="1251.51" y="-377" font-family="FreeSans" font-size="10.00"> +geometryEstimatorDiagnostics</text>
</g>
<!-- Node14&#45;&gt;Node13 -->
<g id="edge16" class="edge"><title>Node14&#45;&gt;Node13</title>
<path fill="none" stroke="#404040" d="M1284.01,-535.83C1284.01,-523.315 1284.01,-508.771 1284.01,-494.999"/>
<polygon fill="none" stroke="#404040" points="1284.01,-494.648 1280.01,-488.648 1284.01,-482.648 1288.01,-488.648 1284.01,-494.648"/>
<text text-anchor="middle" x="1308.51" y="-504" font-family="FreeSans" font-size="10.00"> +elements</text>
</g>
<!-- Node15&#45;&gt;Node14 -->
<g id="edge17" class="edge"><title>Node15&#45;&gt;Node14</title>
<path fill="none" stroke="#404040" d="M1164.95,-679.484C1165.49,-662.732 1168.69,-642.845 1179.01,-628 1183.14,-622.053 1188.1,-616.668 1193.58,-611.802"/>
<polygon fill="none" stroke="#404040" points="1193.87,-611.576 1196.06,-604.708 1203.25,-604.096 1201.05,-610.964 1193.87,-611.576"/>
<text text-anchor="middle" x="1223.51" y="-642" font-family="FreeSans" font-size="10.00"> +ransacDiagnostics</text>
</g>
<!-- Node16&#45;&gt;Node15 -->
<g id="edge18" class="edge"><title>Node16&#45;&gt;Node15</title>
<path fill="none" stroke="#404040" d="M1430.15,-853.459C1419.9,-847.985 1409.93,-841.831 1401.01,-835 1369.65,-810.99 1377.93,-787.82 1345.01,-766 1321.53,-750.44 1293.3,-739.5 1266.3,-731.839"/>
<polygon fill="none" stroke="#404040" points="1266.01,-731.761 1259.18,-734.068 1254.42,-728.649 1261.25,-726.342 1266.01,-731.761"/>
<text text-anchor="middle" x="1433.01" y="-803.5" font-family="FreeSans" font-size="10.00"> +diagnostics1</text>
<text text-anchor="middle" x="1433.01" y="-792.5" font-family="FreeSans" font-size="10.00">+diagnostics2</text>
</g>
<!-- Node28 -->
<g id="node28" class="node"><title>Node28</title>
<polygon fill="white" stroke="#bfbfbf" points="1765.01,-679.5 1765.01,-747.5 1947.01,-747.5 1947.01,-679.5 1765.01,-679.5"/>
<text text-anchor="start" x="1773.01" y="-735.5" font-family="FreeSans" font-size="10.00">std::list&lt; SeeSawN</text>
<text text-anchor="middle" x="1856.01" y="-724.5" font-family="FreeSans" font-size="10.00">::RANSACN::RANSACDiagnosticsC &gt;</text>
<polyline fill="none" stroke="#bfbfbf" points="1765.01,-717.5 1947.01,-717.5 "/>
<text text-anchor="middle" x="1856.01" y="-705.5" font-family="FreeSans" font-size="10.00"> </text>
<polyline fill="none" stroke="#bfbfbf" points="1765.01,-698.5 1947.01,-698.5 "/>
<text text-anchor="middle" x="1856.01" y="-686.5" font-family="FreeSans" font-size="10.00"> </text>
</g>
<!-- Node16&#45;&gt;Node28 -->
<g id="edge50" class="edge"><title>Node16&#45;&gt;Node28</title>
<path fill="none" stroke="#404040" d="M1488.71,-853.218C1485.14,-847.457 1482.03,-841.288 1480.01,-835 1470.61,-805.809 1459.32,-788.64 1480.01,-766 1494.98,-749.609 1657.02,-751.068 1679.01,-748 1702.99,-744.654 1728.65,-740.268 1752.79,-735.777"/>
<polygon fill="none" stroke="#404040" points="1753.09,-735.721 1758.24,-730.678 1764.88,-733.496 1759.72,-738.54 1753.09,-735.721"/>
<text text-anchor="middle" x="1504.51" y="-798" font-family="FreeSans" font-size="10.00"> +elements</text>
</g>
<!-- Node17 -->
<g id="node17" class="node"><title>Node17</title>
<polygon fill="white" stroke="#bfbfbf" points="1459.01,-1024.5 1459.01,-1081.5 1555.01,-1081.5 1555.01,-1024.5 1459.01,-1024.5"/>
<text text-anchor="middle" x="1507.01" y="-1069.5" font-family="FreeSans" font-size="10.00">unsigned long long</text>
<polyline fill="none" stroke="#bfbfbf" points="1459.01,-1062.5 1555.01,-1062.5 "/>
<text text-anchor="middle" x="1507.01" y="-1050.5" font-family="FreeSans" font-size="10.00"> </text>
<polyline fill="none" stroke="#bfbfbf" points="1459.01,-1043.5 1555.01,-1043.5 "/>
<text text-anchor="middle" x="1507.01" y="-1031.5" font-family="FreeSans" font-size="10.00"> </text>
</g>
<!-- Node17&#45;&gt;Node16 -->
<g id="edge20" class="edge"><title>Node17&#45;&gt;Node16</title>
<path fill="none" stroke="#404040" d="M1508.71,-1024.26C1510.22,-999.582 1512.45,-963.01 1514.22,-934.04"/>
<polygon fill="none" stroke="#404040" points="1514.24,-933.72 1510.62,-927.487 1514.98,-921.742 1518.6,-927.975 1514.24,-933.72"/>
<text text-anchor="middle" x="1538.51" y="-970.5" font-family="FreeSans" font-size="10.00"> +nLOCalls</text>
</g>
<!-- Node18 -->
<g id="node18" class="node"><title>Node18</title>
<polygon fill="white" stroke="#bfbfbf" points="1326.51,-1024.5 1326.51,-1081.5 1431.51,-1081.5 1431.51,-1024.5 1326.51,-1024.5"/>
<text text-anchor="middle" x="1379.01" y="-1069.5" font-family="FreeSans" font-size="10.00">std::list&lt; IterationT &gt;</text>
<polyline fill="none" stroke="#bfbfbf" points="1326.51,-1062.5 1431.51,-1062.5 "/>
<text text-anchor="middle" x="1379.01" y="-1050.5" font-family="FreeSans" font-size="10.00"> </text>
<polyline fill="none" stroke="#bfbfbf" points="1326.51,-1043.5 1431.51,-1043.5 "/>
<text text-anchor="middle" x="1379.01" y="-1031.5" font-family="FreeSans" font-size="10.00"> </text>
</g>
<!-- Node18&#45;&gt;Node16 -->
<g id="edge23" class="edge"><title>Node18&#45;&gt;Node16</title>
<path fill="none" stroke="#404040" d="M1408.63,-1024.12C1414.29,-1018.32 1420,-1012.11 1425.01,-1006 1447.36,-978.736 1447.14,-967.652 1469.01,-940 1471.44,-936.932 1474.01,-933.827 1476.64,-930.741"/>
<polygon fill="none" stroke="#404040" points="1476.77,-930.604 1477.73,-923.457 1484.7,-921.599 1483.73,-928.746 1476.77,-930.604"/>
<text text-anchor="middle" x="1487.51" y="-970.5" font-family="FreeSans" font-size="10.00"> +history</text>
</g>
<!-- Node19 -->
<g id="node19" class="node"><title>Node19</title>
<polygon fill="white" stroke="#bfbfbf" points="1288.01,-1176.5 1288.01,-1233.5 1326.01,-1233.5 1326.01,-1176.5 1288.01,-1176.5"/>
<text text-anchor="middle" x="1307.01" y="-1221.5" font-family="FreeSans" font-size="10.00">tuple</text>
<polyline fill="none" stroke="#bfbfbf" points="1288.01,-1214.5 1326.01,-1214.5 "/>
<text text-anchor="middle" x="1307.01" y="-1202.5" font-family="FreeSans" font-size="10.00"> </text>
<polyline fill="none" stroke="#bfbfbf" points="1288.01,-1195.5 1326.01,-1195.5 "/>
<text text-anchor="middle" x="1307.01" y="-1183.5" font-family="FreeSans" font-size="10.00"> </text>
</g>
<!-- Node19&#45;&gt;Node18 -->
<g id="edge24" class="edge"><title>Node19&#45;&gt;Node18</title>
<path fill="none" stroke="#404040" d="M1307.14,-1176.24C1308.36,-1154.25 1312.64,-1123.44 1326.01,-1100 1327.85,-1096.77 1330.01,-1093.66 1332.38,-1090.68"/>
<polygon fill="none" stroke="#404040" points="1332.5,-1090.55 1333.55,-1083.41 1340.54,-1081.64 1339.49,-1088.78 1332.5,-1090.55"/>
<text text-anchor="middle" x="1350.51" y="-1126.5" font-family="FreeSans" font-size="10.00"> +elements</text>
</g>
<!-- Node20 -->
<g id="node20" class="node"><title>Node20</title>
<g id="a_node20"><a xlink:title="STL class. ">
<polygon fill="white" stroke="#bfbfbf" points="1344.01,-1176.5 1344.01,-1233.5 1414.01,-1233.5 1414.01,-1176.5 1344.01,-1176.5"/>
<text text-anchor="middle" x="1379.01" y="-1221.5" font-family="FreeSans" font-size="10.00">std::list&lt; T &gt;</text>
<polyline fill="none" stroke="#bfbfbf" points="1344.01,-1214.5 1414.01,-1214.5 "/>
<text text-anchor="middle" x="1379.01" y="-1202.5" font-family="FreeSans" font-size="10.00"> </text>
<polyline fill="none" stroke="#bfbfbf" points="1344.01,-1195.5 1414.01,-1195.5 "/>
<text text-anchor="middle" x="1379.01" y="-1183.5" font-family="FreeSans" font-size="10.00"> </text>
</a>
</g>
</g>
<!-- Node20&#45;&gt;Node13 -->
<g id="edge39" class="edge"><title>Node20&#45;&gt;Node13</title>
<path fill="none" stroke="orange" d="M1335.29,-1176.13C1335.2,-1176.08 1335.1,-1176.04 1335.01,-1176 1201.7,-1115.19 1156.24,-1133.36 1019.01,-1082 942.636,-1053.42 900.922,-1071.25 852.01,-1006 810.803,-951.031 877.889,-902.267 830.01,-853 797.317,-819.36 756.219,-870.887 726.01,-835 706.26,-811.539 710.113,-792.225 726.01,-766 803.709,-637.823 895.34,-685.182 1025.01,-610 1096.05,-568.812 1175.18,-517.221 1227.06,-482.58"/>
<polygon fill="orange" stroke="orange" points="1333.44,-1179.12 1343.95,-1180.5 1336.6,-1172.87 1333.44,-1179.12"/>
<text text-anchor="start" x="726.01" y="-803.5" font-family="FreeSans" font-size="10.00"> &lt; SeeSawN::GeometryN</text>
<text text-anchor="middle" x="803.01" y="-792.5" font-family="FreeSans" font-size="10.00">::GeometryEstimatorDiagnosticsC &gt;</text>
</g>
<!-- Node20&#45;&gt;Node18 -->
<g id="edge25" class="edge"><title>Node20&#45;&gt;Node18</title>
<path fill="none" stroke="orange" d="M1379.01,-1166.47C1379.01,-1140.11 1379.01,-1105.43 1379.01,-1081.59"/>
<polygon fill="orange" stroke="orange" points="1375.51,-1166.49 1379.01,-1176.49 1382.51,-1166.49 1375.51,-1166.49"/>
<text text-anchor="middle" x="1409.51" y="-1126.5" font-family="FreeSans" font-size="10.00"> &lt; IterationT &gt;</text>
</g>
<!-- Node20&#45;&gt;Node24 -->
<g id="edge36" class="edge"><title>Node20&#45;&gt;Node24</title>
<path fill="none" stroke="orange" d="M1424.34,-1199.66C1511.08,-1189.79 1704.5,-1160.14 1846.01,-1082 1889.22,-1058.14 1907.39,-1051.3 1927.01,-1006 1938.66,-979.082 1933.8,-968.536 1927.01,-940 1925.08,-931.913 1921.67,-923.656 1917.94,-916.19"/>
<polygon fill="orange" stroke="orange" points="1423.86,-1196.19 1414.3,-1200.77 1424.62,-1203.15 1423.86,-1196.19"/>
<text text-anchor="middle" x="1942.01" y="-1050.5" font-family="FreeSans" font-size="10.00"> &lt; double &gt;</text>
</g>
<!-- Node20&#45;&gt;Node25 -->
<g id="edge42" class="edge"><title>Node20&#45;&gt;Node25</title>
<path fill="none" stroke="orange" d="M1333.77,-1176.54C1201.35,-1142.1 897.207,-1188.16 781.01,-1158 683.271,-1132.63 579.01,-1154.98 579.01,-1054 579.01,-1054 579.01,-1054 579.01,-712.5 579.01,-677.739 579.01,-638.175 579.01,-609.737"/>
<polygon fill="orange" stroke="orange" points="1333.19,-1180.02 1343.77,-1179.4 1335.12,-1173.29 1333.19,-1180.02"/>
<text text-anchor="start" x="579.01" y="-890.5" font-family="FreeSans" font-size="10.00"> &lt; SeeSawN::MatcherN</text>
<text text-anchor="middle" x="648.51" y="-879.5" font-family="FreeSans" font-size="10.00">::FeatureMatcherDiagnosticsC &gt;</text>
</g>
<!-- Node20&#45;&gt;Node28 -->
<g id="edge51" class="edge"><title>Node20&#45;&gt;Node28</title>
<path fill="none" stroke="orange" d="M1424.25,-1201.77C1550.3,-1194.51 1900.82,-1166.93 1970.01,-1082 2034.51,-1002.82 2014.04,-952.012 1989.01,-853 1978.24,-810.393 1972.39,-797.756 1942.01,-766 1935.63,-759.335 1928.21,-753.223 1920.45,-747.719"/>
<polygon fill="orange" stroke="orange" points="1423.95,-1198.28 1414.16,-1202.33 1424.34,-1205.27 1423.95,-1198.28"/>
<text text-anchor="start" x="2014.01" y="-976" font-family="FreeSans" font-size="10.00"> &lt; SeeSawN::RANSACN</text>
<text text-anchor="middle" x="2070.01" y="-965" font-family="FreeSans" font-size="10.00">::RANSACDiagnosticsC &gt;</text>
</g>
<!-- Node21 -->
<g id="node21" class="node"><title>Node21</title>
<polygon fill="white" stroke="#bfbfbf" points="919.51,-1281.5 919.51,-1338.5 948.51,-1338.5 948.51,-1281.5 919.51,-1281.5"/>
<text text-anchor="middle" x="934.01" y="-1326.5" font-family="FreeSans" font-size="10.00">T</text>
<polyline fill="none" stroke="#bfbfbf" points="919.51,-1319.5 948.51,-1319.5 "/>
<text text-anchor="middle" x="934.01" y="-1307.5" font-family="FreeSans" font-size="10.00"> </text>
<polyline fill="none" stroke="#bfbfbf" points="919.51,-1300.5 948.51,-1300.5 "/>
<text text-anchor="middle" x="934.01" y="-1288.5" font-family="FreeSans" font-size="10.00"> </text>
</g>
<!-- Node21&#45;&gt;Node20 -->
<g id="edge26" class="edge"><title>Node21&#45;&gt;Node20</title>
<path fill="none" stroke="#404040" d="M948.768,-1308.26C1001.14,-1305.22 1182.56,-1291.25 1332.64,-1234.33"/>
<polygon fill="none" stroke="#404040" points="1332.66,-1234.32 1336.8,-1228.42 1343.84,-1229.97 1339.7,-1235.87 1332.66,-1234.32"/>
<text text-anchor="middle" x="1307.51" y="-1255" font-family="FreeSans" font-size="10.00"> +elements</text>
</g>
<!-- Node26 -->
<g id="node26" class="node"><title>Node26</title>
<g id="a_node26"><a xlink:title="STL class. ">
<polygon fill="white" stroke="#bfbfbf" points="222.01,-1100.5 222.01,-1157.5 306.01,-1157.5 306.01,-1100.5 222.01,-1100.5"/>
<text text-anchor="middle" x="264.01" y="-1145.5" font-family="FreeSans" font-size="10.00">std::vector&lt; T &gt;</text>
<polyline fill="none" stroke="#bfbfbf" points="222.01,-1138.5 306.01,-1138.5 "/>
<text text-anchor="middle" x="264.01" y="-1126.5" font-family="FreeSans" font-size="10.00"> </text>
<polyline fill="none" stroke="#bfbfbf" points="222.01,-1119.5 306.01,-1119.5 "/>
<text text-anchor="middle" x="264.01" y="-1107.5" font-family="FreeSans" font-size="10.00"> </text>
</a>
</g>
</g>
<!-- Node21&#45;&gt;Node26 -->
<g id="edge46" class="edge"><title>Node21&#45;&gt;Node26</title>
<path fill="none" stroke="#404040" d="M919.393,-1305.09C840.178,-1283.93 460.677,-1182.54 318.209,-1144.48"/>
<polygon fill="none" stroke="#404040" points="317.963,-1144.41 311.134,-1146.73 306.37,-1141.32 313.199,-1139 317.963,-1144.41"/>
<text text-anchor="middle" x="776.51" y="-1255" font-family="FreeSans" font-size="10.00"> +elements</text>
</g>
<!-- Node22&#45;&gt;Node15 -->
<g id="edge28" class="edge"><title>Node22&#45;&gt;Node15</title>
<path fill="none" stroke="#404040" d="M1097.03,-853.315C1091.36,-828.086 1087.73,-793.2 1101.01,-766 1102.56,-762.816 1104.42,-759.772 1106.51,-756.87"/>
<polygon fill="none" stroke="#404040" points="1106.64,-756.713 1107.46,-749.549 1114.39,-747.55 1113.57,-754.714 1106.64,-756.713"/>
<text text-anchor="middle" x="1139.51" y="-798" font-family="FreeSans" font-size="10.00"> +iStage1Solution</text>
</g>
<!-- Node23&#45;&gt;Node14 -->
<g id="edge32" class="edge"><title>Node23&#45;&gt;Node14</title>
<path fill="none" stroke="#404040" d="M1566.25,-679.344C1549.83,-661.708 1527.66,-641.035 1504.01,-628 1466.66,-607.418 1421.64,-594.055 1382.08,-585.484"/>
<polygon fill="none" stroke="#404040" points="1382.01,-585.471 1375.32,-588.167 1370.26,-583.03 1376.95,-580.334 1382.01,-585.471"/>
<text text-anchor="middle" x="1584.51" y="-642" font-family="FreeSans" font-size="10.00"> +pdlDiagnostics</text>
</g>
<!-- Node24&#45;&gt;Node23 -->
<g id="edge34" class="edge"><title>Node24&#45;&gt;Node23</title>
<path fill="none" stroke="#404040" d="M1855.64,-858.85C1850.81,-856.615 1845.88,-854.604 1841.01,-853 1781,-833.241 1755.81,-864.629 1700.01,-835 1666.62,-817.272 1638.85,-784.491 1620.12,-757.592"/>
<polygon fill="none" stroke="#404040" points="1620.1,-757.563 1613.43,-754.825 1613.4,-747.614 1620.07,-750.352 1620.1,-757.563"/>
<text text-anchor="middle" x="1729.51" y="-798" font-family="FreeSans" font-size="10.00"> +errorHistory</text>
</g>
<!-- Node25&#45;&gt;Node9 -->
<g id="edge40" class="edge"><title>Node25&#45;&gt;Node9</title>
<path fill="none" stroke="#404040" d="M617.713,-530.401C656.622,-493.41 719.748,-438.152 783.01,-403 839.981,-371.343 909.843,-347.826 963.673,-332.565"/>
<polygon fill="none" stroke="#404040" points="963.692,-332.559 968.399,-327.096 975.252,-329.339 970.546,-334.802 963.692,-332.559"/>
<text text-anchor="middle" x="845.51" y="-440.5" font-family="FreeSans" font-size="10.00"> +featureMatcherDiagnostics</text>
</g>
<!-- Node26&#45;&gt;Node8 -->
<g id="edge45" class="edge"><title>Node26&#45;&gt;Node8</title>
<path fill="none" stroke="orange" d="M211.525,-1120.69C135.834,-1106.86 5.00965,-1069.18 5.00965,-974 5.00965,-974 5.00965,-974 5.00965,-712.5 5.00965,-674.942 -6.2776,-663.491 6.00965,-628 52.57,-493.512 81.27,-450.925 201.01,-374 447.577,-215.597 807.43,-185.289 967.271,-179.9"/>
<polygon fill="orange" stroke="orange" points="211.367,-1124.21 221.82,-1122.49 212.571,-1117.32 211.367,-1124.21"/>
<text text-anchor="start" x="6.00965" y="-653" font-family="FreeSans" font-size="10.00"> &lt; SeeSawN::GeometryN</text>
<text text-anchor="start" x="6.00965" y="-642" font-family="FreeSans" font-size="10.00">::GeometryEstimationPipeline</text>
<text text-anchor="middle" x="69.5097" y="-631" font-family="FreeSans" font-size="10.00">DiagnosticsC &gt;</text>
</g>
<!-- Node27&#45;&gt;Node1 -->
<g id="edge48" class="edge"><title>Node27&#45;&gt;Node1</title>
<path fill="none" stroke="#404040" d="M1839.28,-535.962C1828.32,-511.276 1816.01,-476.355 1816.01,-444 1816.01,-444 1816.01,-444 1816.01,-177 1816.01,-127.579 1683.19,-87.6022 1588.96,-65.4583"/>
<polygon fill="none" stroke="#404040" points="1588.79,-65.4182 1582.04,-67.9641 1577.1,-62.7156 1583.84,-60.1696 1588.79,-65.4182"/>
<text text-anchor="middle" x="1860.51" y="-308" font-family="FreeSans" font-size="10.00"> +ransacDiagnostics</text>
</g>
<!-- Node28&#45;&gt;Node27 -->
<g id="edge49" class="edge"><title>Node28&#45;&gt;Node27</title>
<path fill="none" stroke="#404040" d="M1856.01,-679.325C1856.01,-660.654 1856.01,-637.066 1856.01,-616.671"/>
<polygon fill="none" stroke="#404040" points="1856.01,-616.458 1852.01,-610.458 1856.01,-604.458 1860.01,-610.458 1856.01,-616.458"/>
<text text-anchor="middle" x="1900.51" y="-642" font-family="FreeSans" font-size="10.00"> +ransacDiagnostics</text>
</g>
</g>
</svg>
        <g id="navigator" transform="translate(0 0)" fill="#404254">
                <rect fill="#f2f5e9" fill-opacity="0.5" stroke="#606060" stroke-width=".5" x="0" y="0" width="60" height="60"/>
                <use id="zoomplus" xlink:href="#zoomPlus" x="17" y="9" onmousedown="handleZoom(evt,'in')"/>
                <use id="zoomminus" xlink:href="#zoomMin" x="42" y="9" onmousedown="handleZoom(evt,'out')"/>
                <use id="reset" xlink:href="#resetDef" x="30" y="36" onmousedown="handleReset()"/>
                <g id="arrowUp" xlink:href="#dirArrow" transform="translate(30 24)" onmousedown="handlePan(0,-1)">
                  <use xlink:href="#rim" fill="#404040">
                        <set attributeName="fill" to="#808080" begin="arrowUp.mouseover" end="arrowUp.mouseout"/>
                  </use>
                  <path fill="none" stroke="white" stroke-width="1.5" d="M0,-3.0v7 M-2.5,-0.5L0,-3.0L2.5,-0.5"/>
                </g>
                <g id="arrowRight" xlink:href="#dirArrow" transform="rotate(90) translate(36 -43)" onmousedown="handlePan(1,0)">
                  <use xlink:href="#rim" fill="#404040">
                        <set attributeName="fill" to="#808080" begin="arrowRight.mouseover" end="arrowRight.mouseout"/>
                  </use>
                  <path fill="none" stroke="white" stroke-width="1.5" d="M0,-3.0v7 M-2.5,-0.5L0,-3.0L2.5,-0.5"/>
                </g>
                <g id="arrowDown" xlink:href="#dirArrow" transform="rotate(180) translate(-30 -48)" onmousedown="handlePan(0,1)">
                  <use xlink:href="#rim" fill="#404040">
                        <set attributeName="fill" to="#808080" begin="arrowDown.mouseover" end="arrowDown.mouseout"/>
                  </use>
                  <path fill="none" stroke="white" stroke-width="1.5" d="M0,-3.0v7 M-2.5,-0.5L0,-3.0L2.5,-0.5"/>
                </g>
                <g id="arrowLeft" xlink:href="#dirArrow" transform="rotate(270) translate(-36 17)" onmousedown="handlePan(-1,0)">
                  <use xlink:href="#rim" fill="#404040">
                        <set attributeName="fill" to="#808080" begin="arrowLeft.mouseover" end="arrowLeft.mouseout"/>
                  </use>
                  <path fill="none" stroke="white" stroke-width="1.5" d="M0,-3.0v7 M-2.5,-0.5L0,-3.0L2.5,-0.5"/>
                </g>
        </g>
        <svg viewBox="0 0 15 15" width="100%" height="30px" preserveAspectRatio="xMaxYMin meet">
         <g id="arrow_out" transform="scale(0.3 0.3)">
          <a xlink:href="structSeeSawN_1_1GeometryN_1_1MultimodelGeometryEstimationPipelineDiagnosticsC__coll__graph_org.svg" target="_base">
           <rect id="button" ry="5" rx="5" y="6" x="6" height="38" width="38"
                fill="#f2f5e9" fill-opacity="0.5" stroke="#606060" stroke-width="1.0"/>
           <path id="arrow"
             d="M 11.500037,31.436501 C 11.940474,20.09759 22.043105,11.32322 32.158766,21.979434 L 37.068811,17.246167 C 37.068811,17.246167 37.088388,32 37.088388,32 L 22.160133,31.978069 C 22.160133,31.978069 26.997745,27.140456 26.997745,27.140456 C 18.528582,18.264221 13.291696,25.230495 11.500037,31.436501 z"
             style="fill:#404040;"/>
          </a>
         </g>
        </svg>
</svg>
