<?xml version="1.0" encoding="UTF-8" standalone="no"?>
<!DOCTYPE svg PUBLIC "-//W3C//DTD SVG 1.1//EN"
 "http://www.w3.org/Graphics/SVG/1.1/DTD/svg11.dtd">
<!-- Generated by graphviz version 2.38.0 (20140413.2041)
 -->
<!-- Title: SeeSawN::GeometryN::OneSidedFundamentalMinimalDifferenceC Pages: 1 -->
<svg width="162pt" height="121pt"
 viewBox="0.00 0.00 162.00 121.00" xmlns="http://www.w3.org/2000/svg" xmlns:xlink="http://www.w3.org/1999/xlink">
<g id="graph0" class="graph" transform="scale(1 1) rotate(0) translate(4 117)">
<title>SeeSawN::GeometryN::OneSidedFundamentalMinimalDifferenceC</title>
<polygon fill="white" stroke="none" points="-4,4 -4,-117 158,-117 158,4 -4,4"/>
<!-- Node1 -->
<g id="node1" class="node"><title>Node1</title>
<polygon fill="#bfbfbf" stroke="black" points="0,-0.5 0,-112.5 154,-112.5 154,-0.5 0,-0.5"/>
<text text-anchor="start" x="8" y="-100.5" font-family="FreeSans" font-size="10.00">SeeSawN::GeometryN</text>
<text text-anchor="start" x="8" y="-89.5" font-family="FreeSans" font-size="10.00">::OneSidedFundamentalMinimal</text>
<text text-anchor="middle" x="77" y="-78.5" font-family="FreeSans" font-size="10.00">DifferenceC</text>
<polyline fill="none" stroke="black" points="0,-71.5 154,-71.5 "/>
<text text-anchor="middle" x="77" y="-59.5" font-family="FreeSans" font-size="10.00"> </text>
<polyline fill="none" stroke="black" points="0,-52.5 154,-52.5 "/>
<text text-anchor="start" x="8" y="-40.5" font-family="FreeSans" font-size="10.00">* first_argument_type</text>
<text text-anchor="start" x="8" y="-29.5" font-family="FreeSans" font-size="10.00">* second_argument_type</text>
<text text-anchor="start" x="8" y="-18.5" font-family="FreeSans" font-size="10.00">* result_type</text>
<text text-anchor="start" x="8" y="-7.5" font-family="FreeSans" font-size="10.00">* operator()()</text>
</g>
</g>
</svg>
