<?xml version="1.0" encoding="UTF-8" standalone="no"?>
<!DOCTYPE svg PUBLIC "-//W3C//DTD SVG 1.1//EN"
 "http://www.w3.org/Graphics/SVG/1.1/DTD/svg11.dtd">
<!-- Generated by graphviz version 2.38.0 (20140413.2041)
 -->
<!-- Title: SeeSawN::WrappersN::RowsM&lt; DenseExpressionT &gt; Pages: 1 -->
<svg width="160pt" height="182pt"
 viewBox="0.00 0.00 160.00 182.00" xmlns="http://www.w3.org/2000/svg" xmlns:xlink="http://www.w3.org/1999/xlink">
<g id="graph0" class="graph" transform="scale(1 1) rotate(0) translate(4 178)">
<title>SeeSawN::WrappersN::RowsM&lt; DenseExpressionT &gt;</title>
<polygon fill="white" stroke="none" points="-4,4 -4,-178 156,-178 156,4 -4,4"/>
<!-- Node1 -->
<g id="node1" class="node"><title>Node1</title>
<polygon fill="#bfbfbf" stroke="black" points="0,-0.5 0,-68.5 152,-68.5 152,-0.5 0,-0.5"/>
<text text-anchor="start" x="8" y="-56.5" font-family="FreeSans" font-size="10.00">SeeSawN::WrappersN</text>
<text text-anchor="middle" x="76" y="-45.5" font-family="FreeSans" font-size="10.00">::RowsM&lt; DenseExpressionT &gt;</text>
<polyline fill="none" stroke="black" points="0,-38.5 152,-38.5 "/>
<text text-anchor="middle" x="76" y="-26.5" font-family="FreeSans" font-size="10.00"> </text>
<polyline fill="none" stroke="black" points="0,-19.5 152,-19.5 "/>
<text text-anchor="middle" x="76" y="-7.5" font-family="FreeSans" font-size="10.00"> </text>
</g>
<!-- Node2 -->
<g id="node2" class="node"><title>Node2</title>
<polygon fill="white" stroke="#bfbfbf" points="61.5,-116.5 61.5,-173.5 90.5,-173.5 90.5,-116.5 61.5,-116.5"/>
<text text-anchor="middle" x="76" y="-161.5" font-family="FreeSans" font-size="10.00">int</text>
<polyline fill="none" stroke="#bfbfbf" points="61.5,-154.5 90.5,-154.5 "/>
<text text-anchor="middle" x="76" y="-142.5" font-family="FreeSans" font-size="10.00"> </text>
<polyline fill="none" stroke="#bfbfbf" points="61.5,-135.5 90.5,-135.5 "/>
<text text-anchor="middle" x="76" y="-123.5" font-family="FreeSans" font-size="10.00"> </text>
</g>
<!-- Node2&#45;&gt;Node1 -->
<g id="edge1" class="edge"><title>Node2&#45;&gt;Node1</title>
<path fill="none" stroke="#404040" d="M76,-116.34C76,-105.529 76,-92.847 76,-80.7745"/>
<polygon fill="none" stroke="#404040" points="76.0001,-80.5186 72,-74.5186 76,-68.5186 80,-74.5185 76.0001,-80.5186"/>
<text text-anchor="middle" x="92" y="-90" font-family="FreeSans" font-size="10.00"> +value</text>
</g>
</g>
</svg>
