<?xml version="1.0" encoding="UTF-8" standalone="no"?>
<!DOCTYPE svg PUBLIC "-//W3C//DTD SVG 1.1//EN"
 "http://www.w3.org/Graphics/SVG/1.1/DTD/svg11.dtd">
<!-- Generated by graphviz version 2.38.0 (20140413.2041)
 -->
<!-- Title: SeeSawN::GeometryN::CameraMinimalDifferenceC Pages: 1 -->
<svg width="147pt" height="110pt"
 viewBox="0.00 0.00 147.00 110.00" xmlns="http://www.w3.org/2000/svg" xmlns:xlink="http://www.w3.org/1999/xlink">
<g id="graph0" class="graph" transform="scale(1 1) rotate(0) translate(4 106)">
<title>SeeSawN::GeometryN::CameraMinimalDifferenceC</title>
<polygon fill="white" stroke="none" points="-4,4 -4,-106 143,-106 143,4 -4,4"/>
<!-- Node1 -->
<g id="node1" class="node"><title>Node1</title>
<polygon fill="#bfbfbf" stroke="black" points="0,-0.5 0,-101.5 139,-101.5 139,-0.5 0,-0.5"/>
<text text-anchor="start" x="8" y="-89.5" font-family="FreeSans" font-size="10.00">SeeSawN::GeometryN</text>
<text text-anchor="middle" x="69.5" y="-78.5" font-family="FreeSans" font-size="10.00">::CameraMinimalDifferenceC</text>
<polyline fill="none" stroke="black" points="0,-71.5 139,-71.5 "/>
<text text-anchor="middle" x="69.5" y="-59.5" font-family="FreeSans" font-size="10.00"> </text>
<polyline fill="none" stroke="black" points="0,-52.5 139,-52.5 "/>
<text text-anchor="start" x="8" y="-40.5" font-family="FreeSans" font-size="10.00">* first_argument_type</text>
<text text-anchor="start" x="8" y="-29.5" font-family="FreeSans" font-size="10.00">* second_argument_type</text>
<text text-anchor="start" x="8" y="-18.5" font-family="FreeSans" font-size="10.00">* result_type</text>
<text text-anchor="start" x="8" y="-7.5" font-family="FreeSans" font-size="10.00">* operator()()</text>
</g>
</g>
</svg>
