<?xml version="1.0" encoding="UTF-8" standalone="no"?>
<!DOCTYPE svg PUBLIC "-//W3C//DTD SVG 1.1//EN"
 "http://www.w3.org/Graphics/SVG/1.1/DTD/svg11.dtd">
<!-- Generated by graphviz version 2.38.0 (20140413.2041)
 -->
<!-- Title: SeeSawN::GeometryN::OneSidedFundamentalMinimalDifferenceC::operator() Pages: 1 -->
<svg width="346pt" height="50pt"
 viewBox="0.00 0.00 346.00 50.00" xmlns="http://www.w3.org/2000/svg" xmlns:xlink="http://www.w3.org/1999/xlink">
<g id="graph0" class="graph" transform="scale(1 1) rotate(0) translate(4 46)">
<title>SeeSawN::GeometryN::OneSidedFundamentalMinimalDifferenceC::operator()</title>
<polygon fill="white" stroke="none" points="-4,4 -4,-46 342,-46 342,4 -4,4"/>
<!-- Node0 -->
<g id="node1" class="node"><title>Node0</title>
<polygon fill="#bfbfbf" stroke="black" points="0,-0.5 0,-41.5 154,-41.5 154,-0.5 0,-0.5"/>
<text text-anchor="start" x="8" y="-29.5" font-family="FreeSans" font-size="10.00">SeeSawN::GeometryN</text>
<text text-anchor="start" x="8" y="-18.5" font-family="FreeSans" font-size="10.00">::OneSidedFundamentalMinimal</text>
<text text-anchor="middle" x="77" y="-7.5" font-family="FreeSans" font-size="10.00">DifferenceC::operator()</text>
</g>
<!-- Node1 -->
<g id="node2" class="node"><title>Node1</title>
<g id="a_node2"><a xlink:href="classSeeSawN_1_1GeometryN_1_1OneSidedFundamentalSolverC.html#a1a40d73a1050d183ee09c39075f4211e" target="_top" xlink:title="Extracts the essential matrix component from a minimal model. ">
<polygon fill="white" stroke="black" points="190,-0.5 190,-41.5 338,-41.5 338,-0.5 190,-0.5"/>
<text text-anchor="start" x="198" y="-29.5" font-family="FreeSans" font-size="10.00">SeeSawN::GeometryN</text>
<text text-anchor="start" x="198" y="-18.5" font-family="FreeSans" font-size="10.00">::OneSidedFundamentalSolver</text>
<text text-anchor="middle" x="264" y="-7.5" font-family="FreeSans" font-size="10.00">C::ExtractMinimalEssential</text>
</a>
</g>
</g>
<!-- Node0&#45;&gt;Node1 -->
<g id="edge1" class="edge"><title>Node0&#45;&gt;Node1</title>
<path fill="none" stroke="midnightblue" d="M154.047,-21C162.571,-21 171.288,-21 179.895,-21"/>
<polygon fill="midnightblue" stroke="midnightblue" points="179.93,-24.5001 189.93,-21 179.93,-17.5001 179.93,-24.5001"/>
</g>
</g>
</svg>
