<?xml version="1.0" encoding="UTF-8" standalone="no"?>
<!DOCTYPE svg PUBLIC "-//W3C//DTD SVG 1.1//EN"
 "http://www.w3.org/Graphics/SVG/1.1/DTD/svg11.dtd">
<!-- Generated by graphviz version 2.38.0 (20140413.2041)
 -->
<!-- Title: SeeSawN::GeometryN::GeometryEstimatorParametersC Pages: 1 -->
<svg width="725pt" height="673pt"
 viewBox="0.00 0.00 724.89 673.00" xmlns="http://www.w3.org/2000/svg" xmlns:xlink="http://www.w3.org/1999/xlink">
<g id="graph0" class="graph" transform="scale(1 1) rotate(0) translate(4 669)">
<title>SeeSawN::GeometryN::GeometryEstimatorParametersC</title>
<polygon fill="white" stroke="none" points="-4,4 -4,-669 720.889,-669 720.889,4 -4,4"/>
<!-- Node1 -->
<g id="node1" class="node"><title>Node1</title>
<polygon fill="#bfbfbf" stroke="black" points="351.889,-0.5 351.889,-68.5 512.889,-68.5 512.889,-0.5 351.889,-0.5"/>
<text text-anchor="start" x="359.889" y="-56.5" font-family="FreeSans" font-size="10.00">SeeSawN::GeometryN</text>
<text text-anchor="middle" x="432.389" y="-45.5" font-family="FreeSans" font-size="10.00">::GeometryEstimatorParametersC</text>
<polyline fill="none" stroke="black" points="351.889,-38.5 512.889,-38.5 "/>
<text text-anchor="middle" x="432.389" y="-26.5" font-family="FreeSans" font-size="10.00"> </text>
<polyline fill="none" stroke="black" points="351.889,-19.5 512.889,-19.5 "/>
<text text-anchor="middle" x="432.389" y="-7.5" font-family="FreeSans" font-size="10.00"> </text>
</g>
<!-- Node2 -->
<g id="node2" class="node"><title>Node2</title>
<g id="a_node2"><a xlink:href="structSeeSawN_1_1OptimisationN_1_1PowellDogLegParametersC.html" target="_top" xlink:title="Parameters for PowellDogLegC. ">
<polygon fill="white" stroke="black" points="565.889,-260 565.889,-328 716.889,-328 716.889,-260 565.889,-260"/>
<text text-anchor="start" x="573.889" y="-316" font-family="FreeSans" font-size="10.00">SeeSawN::OptimisationN</text>
<text text-anchor="middle" x="641.389" y="-305" font-family="FreeSans" font-size="10.00">::PowellDogLegParametersC</text>
<polyline fill="none" stroke="black" points="565.889,-298 716.889,-298 "/>
<text text-anchor="middle" x="641.389" y="-286" font-family="FreeSans" font-size="10.00"> </text>
<polyline fill="none" stroke="black" points="565.889,-279 716.889,-279 "/>
<text text-anchor="start" x="573.889" y="-267" font-family="FreeSans" font-size="10.00">+ PowellDogLegParametersC()</text>
</a>
</g>
</g>
<!-- Node2&#45;&gt;Node1 -->
<g id="edge1" class="edge"><title>Node2&#45;&gt;Node1</title>
<path fill="none" stroke="#404040" d="M614.493,-259.864C576.792,-213.414 508.218,-128.927 466.829,-77.9324"/>
<polygon fill="none" stroke="#404040" points="466.743,-77.8265 459.856,-75.6887 459.181,-68.5093 466.068,-70.6471 466.743,-77.8265"/>
<text text-anchor="middle" x="587.389" y="-148" font-family="FreeSans" font-size="10.00"> +pdlParameters</text>
</g>
<!-- Node3 -->
<g id="node3" class="node"><title>Node3</title>
<polygon fill="white" stroke="#bfbfbf" points="463.889,-502.5 463.889,-559.5 508.889,-559.5 508.889,-502.5 463.889,-502.5"/>
<text text-anchor="middle" x="486.389" y="-547.5" font-family="FreeSans" font-size="10.00">double</text>
<polyline fill="none" stroke="#bfbfbf" points="463.889,-540.5 508.889,-540.5 "/>
<text text-anchor="middle" x="486.389" y="-528.5" font-family="FreeSans" font-size="10.00"> </text>
<polyline fill="none" stroke="#bfbfbf" points="463.889,-521.5 508.889,-521.5 "/>
<text text-anchor="middle" x="486.389" y="-509.5" font-family="FreeSans" font-size="10.00"> </text>
</g>
<!-- Node3&#45;&gt;Node2 -->
<g id="edge2" class="edge"><title>Node3&#45;&gt;Node2</title>
<path fill="none" stroke="#404040" d="M495.555,-502.439C507.925,-467.745 532.287,-407.332 565.389,-363 572.307,-353.734 580.642,-344.771 589.221,-336.558"/>
<polygon fill="none" stroke="#404040" points="589.372,-336.418 591.076,-329.411 598.199,-328.289 596.495,-335.296 589.372,-336.418"/>
<text text-anchor="middle" x="601.389" y="-443" font-family="FreeSans" font-size="10.00"> +lambdaGrowth</text>
<text text-anchor="middle" x="601.389" y="-432" font-family="FreeSans" font-size="10.00">+delta0</text>
<text text-anchor="middle" x="601.389" y="-421" font-family="FreeSans" font-size="10.00">+epsilon1</text>
<text text-anchor="middle" x="601.389" y="-410" font-family="FreeSans" font-size="10.00">+epsilon2</text>
<text text-anchor="middle" x="601.389" y="-399" font-family="FreeSans" font-size="10.00">+lambdaShrink</text>
</g>
<!-- Node6 -->
<g id="node6" class="node"><title>Node6</title>
<g id="a_node6"><a xlink:href="structSeeSawN_1_1RANSACN_1_1TwoStageRANSACParametersC.html" target="_top" xlink:title="Parameters for TwoStageRANSACC. ">
<polygon fill="white" stroke="black" points="207.889,-116.5 207.889,-184.5 380.889,-184.5 380.889,-116.5 207.889,-116.5"/>
<text text-anchor="start" x="215.889" y="-172.5" font-family="FreeSans" font-size="10.00">SeeSawN::RANSACN::TwoStage</text>
<text text-anchor="middle" x="294.389" y="-161.5" font-family="FreeSans" font-size="10.00">RANSACParametersC</text>
<polyline fill="none" stroke="black" points="207.889,-154.5 380.889,-154.5 "/>
<text text-anchor="middle" x="294.389" y="-142.5" font-family="FreeSans" font-size="10.00"> </text>
<polyline fill="none" stroke="black" points="207.889,-135.5 380.889,-135.5 "/>
<text text-anchor="start" x="215.889" y="-123.5" font-family="FreeSans" font-size="10.00">+ TwoStageRANSACParametersC()</text>
</a>
</g>
</g>
<!-- Node3&#45;&gt;Node6 -->
<g id="edge6" class="edge"><title>Node3&#45;&gt;Node6</title>
<path fill="none" stroke="#404040" d="M489.064,-502.202C491.245,-468.05 491.378,-408.985 472.389,-363 444.145,-294.605 385.353,-231.875 343.056,-192.796"/>
<polygon fill="none" stroke="#404040" points="342.906,-192.659 335.776,-191.58 334.03,-184.583 341.16,-185.663 342.906,-192.659"/>
<text text-anchor="middle" x="499.389" y="-297" font-family="FreeSans" font-size="10.00"> +eligibilityRatio</text>
<text text-anchor="middle" x="499.389" y="-286" font-family="FreeSans" font-size="10.00">+minConfidence</text>
</g>
<!-- Node8 -->
<g id="node8" class="node"><title>Node8</title>
<g id="a_node8"><a xlink:href="structSeeSawN_1_1RANSACN_1_1RANSACParametersC.html" target="_top" xlink:title="Parameters for RANSACC. ">
<polygon fill="white" stroke="black" points="89.8886,-243.5 89.8886,-344.5 306.889,-344.5 306.889,-243.5 89.8886,-243.5"/>
<text text-anchor="middle" x="198.389" y="-332.5" font-family="FreeSans" font-size="10.00">SeeSawN::RANSACN::RANSACParametersC</text>
<polyline fill="none" stroke="black" points="89.8886,-325.5 306.889,-325.5 "/>
<text text-anchor="middle" x="198.389" y="-313.5" font-family="FreeSans" font-size="10.00"> </text>
<polyline fill="none" stroke="black" points="89.8886,-306.5 306.889,-306.5 "/>
<text text-anchor="start" x="97.8886" y="-294.5" font-family="FreeSans" font-size="10.00">+ RANSACParametersC()</text>
<text text-anchor="start" x="97.8886" y="-283.5" font-family="FreeSans" font-size="10.00">* minObservationSupport</text>
<text text-anchor="start" x="97.8886" y="-272.5" font-family="FreeSans" font-size="10.00">* delta</text>
<text text-anchor="start" x="97.8886" y="-261.5" font-family="FreeSans" font-size="10.00">* maxDeltaTolerance</text>
<text text-anchor="start" x="97.8886" y="-250.5" font-family="FreeSans" font-size="10.00">* minCoverage</text>
</a>
</g>
</g>
<!-- Node3&#45;&gt;Node8 -->
<g id="edge9" class="edge"><title>Node3&#45;&gt;Node8</title>
<path fill="none" stroke="#404040" d="M463.525,-526.21C413.503,-517.715 297.808,-496.889 285.389,-484 247.406,-444.58 287.252,-411.768 262.389,-363 260.92,-360.12 259.293,-357.277 257.539,-354.481"/>
<polygon fill="none" stroke="#404040" points="257.525,-354.46 250.823,-351.8 250.701,-344.589 257.403,-347.25 257.525,-354.46"/>
<text text-anchor="middle" x="330.889" y="-476" font-family="FreeSans" font-size="10.00"> +minModelSimilarity</text>
<text text-anchor="middle" x="330.889" y="-465" font-family="FreeSans" font-size="10.00">+maxErrorRatio</text>
<text text-anchor="middle" x="330.889" y="-454" font-family="FreeSans" font-size="10.00">+eligibilityRatio</text>
<text text-anchor="middle" x="330.889" y="-443" font-family="FreeSans" font-size="10.00">+diversityFactor</text>
<text text-anchor="middle" x="330.889" y="-432" font-family="FreeSans" font-size="10.00">+growthRate</text>
<text text-anchor="middle" x="330.889" y="-421" font-family="FreeSans" font-size="10.00">+maxError</text>
<text text-anchor="middle" x="330.889" y="-410" font-family="FreeSans" font-size="10.00">+parsimonyFactor</text>
<text text-anchor="middle" x="330.889" y="-399" font-family="FreeSans" font-size="10.00">+minConfidence</text>
<text text-anchor="middle" x="330.889" y="-388" font-family="FreeSans" font-size="10.00">+epsilon</text>
<text text-anchor="middle" x="330.889" y="-377" font-family="FreeSans" font-size="10.00">+minError</text>
<text text-anchor="middle" x="330.889" y="-366" font-family="FreeSans" font-size="10.00">...</text>
</g>
<!-- Node4 -->
<g id="node4" class="node"><title>Node4</title>
<g id="a_node4"><a xlink:href="classbool.html" target="_top" xlink:title="{bool\n||}">
<polygon fill="white" stroke="black" points="294.889,-502.5 294.889,-559.5 329.889,-559.5 329.889,-502.5 294.889,-502.5"/>
<text text-anchor="middle" x="312.389" y="-547.5" font-family="FreeSans" font-size="10.00">bool</text>
<polyline fill="none" stroke="black" points="294.889,-540.5 329.889,-540.5 "/>
<text text-anchor="middle" x="312.389" y="-528.5" font-family="FreeSans" font-size="10.00"> </text>
<polyline fill="none" stroke="black" points="294.889,-521.5 329.889,-521.5 "/>
<text text-anchor="middle" x="312.389" y="-509.5" font-family="FreeSans" font-size="10.00"> </text>
</a>
</g>
</g>
<!-- Node4&#45;&gt;Node2 -->
<g id="edge3" class="edge"><title>Node4&#45;&gt;Node2</title>
<path fill="none" stroke="#404040" d="M329.951,-520.987C344.128,-512.945 363.732,-499.984 376.389,-484 412.51,-438.381 380.455,-398.721 426.389,-363 470.696,-328.543 498.199,-362.925 551.389,-345 560.321,-341.99 569.392,-338.098 578.166,-333.816"/>
<polygon fill="none" stroke="#404040" points="578.408,-333.692 581.924,-327.396 589.088,-328.219 585.572,-334.515 578.408,-333.692"/>
<text text-anchor="middle" x="462.889" y="-421" font-family="FreeSans" font-size="10.00"> +flagCovariance</text>
</g>
<!-- Node4&#45;&gt;Node8 -->
<g id="edge13" class="edge"><title>Node4&#45;&gt;Node8</title>
<path fill="none" stroke="#404040" d="M294.765,-528.762C268.569,-525.864 220.116,-516.197 198.389,-484 173.521,-447.15 174.975,-396.368 181.855,-356.721"/>
<polygon fill="none" stroke="#404040" points="181.881,-356.587 179.083,-349.941 184.141,-344.802 186.939,-351.448 181.881,-356.587"/>
<text text-anchor="middle" x="230.389" y="-432" font-family="FreeSans" font-size="10.00"> +flagHistory</text>
<text text-anchor="middle" x="230.389" y="-421" font-family="FreeSans" font-size="10.00">+flagWaldSAC</text>
<text text-anchor="middle" x="230.389" y="-410" font-family="FreeSans" font-size="10.00">+flagPROSAC</text>
</g>
<!-- Node5 -->
<g id="node5" class="node"><title>Node5</title>
<polygon fill="white" stroke="#bfbfbf" points="607.389,-502.5 607.389,-559.5 675.389,-559.5 675.389,-502.5 607.389,-502.5"/>
<text text-anchor="middle" x="641.389" y="-547.5" font-family="FreeSans" font-size="10.00">unsigned int</text>
<polyline fill="none" stroke="#bfbfbf" points="607.389,-540.5 675.389,-540.5 "/>
<text text-anchor="middle" x="641.389" y="-528.5" font-family="FreeSans" font-size="10.00"> </text>
<polyline fill="none" stroke="#bfbfbf" points="607.389,-521.5 675.389,-521.5 "/>
<text text-anchor="middle" x="641.389" y="-509.5" font-family="FreeSans" font-size="10.00"> </text>
</g>
<!-- Node5&#45;&gt;Node2 -->
<g id="edge4" class="edge"><title>Node5&#45;&gt;Node2</title>
<path fill="none" stroke="#404040" d="M641.389,-502.12C641.389,-462.164 641.389,-388.17 641.389,-340.295"/>
<polygon fill="none" stroke="#404040" points="641.389,-340.129 637.389,-334.129 641.389,-328.129 645.389,-334.129 641.389,-340.129"/>
<text text-anchor="middle" x="672.389" y="-421" font-family="FreeSans" font-size="10.00"> +maxIteration</text>
</g>
<!-- Node6&#45;&gt;Node1 -->
<g id="edge5" class="edge"><title>Node6&#45;&gt;Node1</title>
<path fill="none" stroke="#404040" d="M334.675,-116.22C349.696,-103.811 366.927,-89.5771 382.695,-76.5513"/>
<polygon fill="none" stroke="#404040" points="383.039,-76.2669 385.117,-69.3617 392.291,-68.6243 390.213,-75.5294 383.039,-76.2669"/>
<text text-anchor="middle" x="412.389" y="-90" font-family="FreeSans" font-size="10.00"> +ransacParameters</text>
</g>
<!-- Node7 -->
<g id="node7" class="node"><title>Node7</title>
<polygon fill="white" stroke="#bfbfbf" points="23.8886,-502.5 23.8886,-559.5 52.8886,-559.5 52.8886,-502.5 23.8886,-502.5"/>
<text text-anchor="middle" x="38.3886" y="-547.5" font-family="FreeSans" font-size="10.00">int</text>
<polyline fill="none" stroke="#bfbfbf" points="23.8886,-540.5 52.8886,-540.5 "/>
<text text-anchor="middle" x="38.3886" y="-528.5" font-family="FreeSans" font-size="10.00"> </text>
<polyline fill="none" stroke="#bfbfbf" points="23.8886,-521.5 52.8886,-521.5 "/>
<text text-anchor="middle" x="38.3886" y="-509.5" font-family="FreeSans" font-size="10.00"> </text>
</g>
<!-- Node7&#45;&gt;Node6 -->
<g id="edge7" class="edge"><title>Node7&#45;&gt;Node6</title>
<path fill="none" stroke="#404040" d="M27.7938,-502.373C8.61382,-447.272 -24.9236,-322.214 31.3886,-243 68.4569,-190.856 137.482,-168.171 195.519,-158.423"/>
<polygon fill="none" stroke="#404040" points="195.862,-158.37 201.179,-153.499 207.721,-156.533 202.404,-161.404 195.862,-158.37"/>
<text text-anchor="middle" x="55.8886" y="-291.5" font-family="FreeSans" font-size="10.00"> +nThreads</text>
</g>
<!-- Node7&#45;&gt;Node8 -->
<g id="edge12" class="edge"><title>Node7&#45;&gt;Node8</title>
<path fill="none" stroke="#404040" d="M35.4517,-502.292C33.1653,-466.62 34.3993,-404.32 64.3886,-363 68.9641,-356.696 74.2953,-350.937 80.1436,-345.682"/>
<polygon fill="none" stroke="#404040" points="80.4419,-345.438 82.5488,-338.542 89.7251,-337.834 87.6182,-344.73 80.4419,-345.438"/>
<text text-anchor="middle" x="97.3886" y="-443" font-family="FreeSans" font-size="10.00"> +minIteration</text>
<text text-anchor="middle" x="97.3886" y="-432" font-family="FreeSans" font-size="10.00">+maxSolution</text>
<text text-anchor="middle" x="97.3886" y="-421" font-family="FreeSans" font-size="10.00">+nLOIterations</text>
<text text-anchor="middle" x="97.3886" y="-410" font-family="FreeSans" font-size="10.00">+nThreads</text>
<text text-anchor="middle" x="97.3886" y="-399" font-family="FreeSans" font-size="10.00">+maxIteration</text>
</g>
<!-- Node8&#45;&gt;Node6 -->
<g id="edge8" class="edge"><title>Node8&#45;&gt;Node6</title>
<path fill="none" stroke="#404040" d="M232.235,-243.112C242.937,-227.338 254.669,-210.044 265.03,-194.773"/>
<polygon fill="none" stroke="#404040" points="265.217,-194.497 265.276,-187.286 271.955,-184.567 271.896,-191.777 265.217,-194.497"/>
<text text-anchor="middle" x="289.889" y="-217" font-family="FreeSans" font-size="10.00"> +parameters2</text>
<text text-anchor="middle" x="289.889" y="-206" font-family="FreeSans" font-size="10.00">+parameters1</text>
</g>
<!-- Node9 -->
<g id="node9" class="node"><title>Node9</title>
<polygon fill="white" stroke="#bfbfbf" points="96.8886,-502.5 96.8886,-559.5 191.889,-559.5 191.889,-502.5 96.8886,-502.5"/>
<text text-anchor="middle" x="144.389" y="-547.5" font-family="FreeSans" font-size="10.00">optional&lt; double &gt;</text>
<polyline fill="none" stroke="#bfbfbf" points="96.8886,-540.5 191.889,-540.5 "/>
<text text-anchor="middle" x="144.389" y="-528.5" font-family="FreeSans" font-size="10.00"> </text>
<polyline fill="none" stroke="#bfbfbf" points="96.8886,-521.5 191.889,-521.5 "/>
<text text-anchor="middle" x="144.389" y="-509.5" font-family="FreeSans" font-size="10.00"> </text>
</g>
<!-- Node9&#45;&gt;Node8 -->
<g id="edge10" class="edge"><title>Node9&#45;&gt;Node8</title>
<path fill="none" stroke="#404040" d="M139.27,-502.485C134.148,-468.616 129.134,-409.839 145.389,-363 146.266,-360.472 147.279,-357.966 148.404,-355.491"/>
<polygon fill="none" stroke="#404040" points="148.407,-355.486 147.657,-348.314 153.99,-344.863 154.739,-352.036 148.407,-355.486"/>
<text text-anchor="middle" x="160.389" y="-421" font-family="FreeSans" font-size="10.00"> +topN</text>
</g>
<!-- Node10 -->
<g id="node10" class="node"><title>Node10</title>
<polygon fill="white" stroke="#bfbfbf" points="119.389,-607.5 119.389,-664.5 169.389,-664.5 169.389,-607.5 119.389,-607.5"/>
<text text-anchor="middle" x="144.389" y="-652.5" font-family="FreeSans" font-size="10.00">optional</text>
<polyline fill="none" stroke="#bfbfbf" points="119.389,-645.5 169.389,-645.5 "/>
<text text-anchor="middle" x="144.389" y="-633.5" font-family="FreeSans" font-size="10.00"> </text>
<polyline fill="none" stroke="#bfbfbf" points="119.389,-626.5 169.389,-626.5 "/>
<text text-anchor="middle" x="144.389" y="-614.5" font-family="FreeSans" font-size="10.00"> </text>
</g>
<!-- Node10&#45;&gt;Node9 -->
<g id="edge11" class="edge"><title>Node10&#45;&gt;Node9</title>
<path fill="none" stroke="orange" d="M144.389,-597.286C144.389,-584.839 144.389,-571.233 144.389,-559.678"/>
<polygon fill="orange" stroke="orange" points="140.889,-597.398 144.389,-607.398 147.889,-597.398 140.889,-597.398"/>
<text text-anchor="middle" x="168.389" y="-581" font-family="FreeSans" font-size="10.00"> &lt; double &gt;</text>
</g>
</g>
</svg>
