<?xml version="1.0" encoding="UTF-8" standalone="no"?>
<!DOCTYPE svg PUBLIC "-//W3C//DTD SVG 1.1//EN"
 "http://www.w3.org/Graphics/SVG/1.1/DTD/svg11.dtd">
<!-- Generated by graphviz version 2.38.0 (20140413.2041)
 -->
<!-- Title: SeeSawN::AppWitnessCoverageStatisticsN::WitnessCoverageStatisticsParametersC Pages: 1 -->
<!--zoomable 560 -->
<svg id="main" version="1.1" xmlns="http://www.w3.org/2000/svg" xmlns:xlink="http://www.w3.org/1999/xlink" xml:space="preserve" onload="init(evt)">
<style type="text/css"><![CDATA[
.edge:hover path { stroke: red; }
.edge:hover polygon { stroke: red; fill: red; }
]]></style>
<script type="text/javascript"><![CDATA[
var edges = document.getElementsByTagName('g');
if (edges && edges.length) {
  for (var i=0;i<edges.length;i++) {
    if (edges[i].id.substr(0,4)=='edge') {
      edges[i].setAttribute('class','edge');
    }
  }
}
]]></script>
        <defs>
                <circle id="rim" cx="0" cy="0" r="7"/>
                <circle id="rim2" cx="0" cy="0" r="3.5"/>
                <g id="zoomPlus">
                        <use xlink:href="#rim" fill="#404040">
                                <set attributeName="fill" to="#808080" begin="zoomplus.mouseover" end="zoomplus.mouseout"/>
                        </use>
                        <path d="M-4,0h8M0,-4v8" fill="none" stroke="white" stroke-width="1.5" pointer-events="none"/>
                </g>
                <g id="zoomMin">
                        <use xlink:href="#rim" fill="#404040">
                                <set attributeName="fill" to="#808080" begin="zoomminus.mouseover" end="zoomminus.mouseout"/>
                        </use>
                        <path d="M-4,0h8" fill="none" stroke="white" stroke-width="1.5" pointer-events="none"/>
                </g>
                <g id="dirArrow">
                        <path fill="none" stroke="white" stroke-width="1.5" d="M0,-3.0v7 M-2.5,-0.5L0,-3.0L2.5,-0.5"/>
                </g>
               <g id="resetDef">
                       <use xlink:href="#rim2" fill="#404040">
                               <set attributeName="fill" to="#808080" begin="reset.mouseover" end="reset.mouseout"/>
                       </use>
               </g>
        </defs>

<script type="text/javascript">
var viewWidth = 777;
var viewHeight = 560;
var sectionId = 'dynsection-0';
</script>
<script xlink:href="svgpan.js"/>
<svg id="graph" class="graph">
<g id="viewport">
<title>SeeSawN::AppWitnessCoverageStatisticsN::WitnessCoverageStatisticsParametersC</title>
<polygon fill="white" stroke="none" points="-4,4 -4,-556 772.926,-556 772.926,4 -4,4"/>
<!-- Node1 -->
<g id="node1" class="node"><title>Node1</title>
<polygon fill="#bfbfbf" stroke="black" points="331.926,-0.5 331.926,-90.5 519.926,-90.5 519.926,-0.5 331.926,-0.5"/>
<text text-anchor="start" x="339.926" y="-78.5" font-family="FreeSans" font-size="10.00">SeeSawN::AppWitnessCoverage</text>
<text text-anchor="start" x="339.926" y="-67.5" font-family="FreeSans" font-size="10.00">StatisticsN::WitnessCoverageStatistics</text>
<text text-anchor="middle" x="425.926" y="-56.5" font-family="FreeSans" font-size="10.00">ParametersC</text>
<polyline fill="none" stroke="black" points="331.926,-49.5 519.926,-49.5 "/>
<text text-anchor="middle" x="425.926" y="-37.5" font-family="FreeSans" font-size="10.00"> </text>
<polyline fill="none" stroke="black" points="331.926,-30.5 519.926,-30.5 "/>
<text text-anchor="start" x="339.926" y="-18.5" font-family="FreeSans" font-size="10.00">+ WitnessCoverageStatistics</text>
<text text-anchor="start" x="339.926" y="-7.5" font-family="FreeSans" font-size="10.00">ParametersC()</text>
</g>
<!-- Node2 -->
<g id="node2" class="node"><title>Node2</title>
<g id="a_node2"><a xlink:href="structSeeSawN_1_1GeometryN_1_1SceneCoverageEstimationParametersC.html" target="_top" xlink:title="Parameters for SceneCoverageEstimationC. ">
<polygon fill="white" stroke="black" points="137.426,-204.5 137.426,-272.5 340.426,-272.5 340.426,-204.5 137.426,-204.5"/>
<text text-anchor="start" x="145.426" y="-260.5" font-family="FreeSans" font-size="10.00">SeeSawN::GeometryN</text>
<text text-anchor="middle" x="238.926" y="-249.5" font-family="FreeSans" font-size="10.00">::SceneCoverageEstimationParametersC</text>
<polyline fill="none" stroke="black" points="137.426,-242.5 340.426,-242.5 "/>
<text text-anchor="middle" x="238.926" y="-230.5" font-family="FreeSans" font-size="10.00"> </text>
<polyline fill="none" stroke="black" points="137.426,-223.5 340.426,-223.5 "/>
<text text-anchor="start" x="145.426" y="-211.5" font-family="FreeSans" font-size="10.00">+ SceneCoverageEstimationParametersC()</text>
</a>
</g>
</g>
<!-- Node2&#45;&gt;Node1 -->
<g id="edge1" class="edge"><title>Node2&#45;&gt;Node1</title>
<path fill="none" stroke="#404040" d="M244.243,-204.476C250.363,-176.043 262.976,-135.519 287.926,-109 297.404,-98.9253 308.813,-90.3522 320.958,-83.089"/>
<polygon fill="none" stroke="#404040" points="321.314,-82.89 324.602,-76.472 331.791,-77.0385 328.503,-83.4565 321.314,-82.89"/>
<text text-anchor="middle" x="325.426" y="-145" font-family="FreeSans" font-size="10.00"> +sceParameters</text>
</g>
<!-- Node3 -->
<g id="node3" class="node"><title>Node3</title>
<polygon fill="white" stroke="#bfbfbf" points="41.4256,-378.5 41.4256,-435.5 86.4256,-435.5 86.4256,-378.5 41.4256,-378.5"/>
<text text-anchor="middle" x="63.9256" y="-423.5" font-family="FreeSans" font-size="10.00">double</text>
<polyline fill="none" stroke="#bfbfbf" points="41.4256,-416.5 86.4256,-416.5 "/>
<text text-anchor="middle" x="63.9256" y="-404.5" font-family="FreeSans" font-size="10.00"> </text>
<polyline fill="none" stroke="#bfbfbf" points="41.4256,-397.5 86.4256,-397.5 "/>
<text text-anchor="middle" x="63.9256" y="-385.5" font-family="FreeSans" font-size="10.00"> </text>
</g>
<!-- Node3&#45;&gt;Node1 -->
<g id="edge6" class="edge"><title>Node3&#45;&gt;Node1</title>
<path fill="none" stroke="#404040" d="M44.6289,-378.459C18.3368,-337.207 -21.5313,-258.413 14.9256,-204 81.8878,-104.058 221.928,-67.4738 319.839,-54.1183"/>
<polygon fill="none" stroke="#404040" points="319.961,-54.1026 325.399,-49.367 331.862,-52.5655 326.424,-57.3011 319.961,-54.1026"/>
<text text-anchor="middle" x="71.4256" y="-252.5" font-family="FreeSans" font-size="10.00"> +maxViewpointDifference</text>
<text text-anchor="middle" x="71.4256" y="-241.5" font-family="FreeSans" font-size="10.00">+maxRelativeScale</text>
<text text-anchor="middle" x="71.4256" y="-230.5" font-family="FreeSans" font-size="10.00">+minSize</text>
<text text-anchor="middle" x="71.4256" y="-219.5" font-family="FreeSans" font-size="10.00">+density</text>
</g>
<!-- Node3&#45;&gt;Node2 -->
<g id="edge2" class="edge"><title>Node3&#45;&gt;Node2</title>
<path fill="none" stroke="#404040" d="M86.4455,-384.574C113.817,-358.532 160.623,-313.999 195.175,-281.126"/>
<polygon fill="none" stroke="#404040" points="195.428,-280.885 197.017,-273.851 204.122,-272.614 202.532,-279.647 195.428,-280.885"/>
<text text-anchor="middle" x="200.426" y="-323" font-family="FreeSans" font-size="10.00"> +radius</text>
</g>
<!-- Node4 -->
<g id="node4" class="node"><title>Node4</title>
<polygon fill="white" stroke="#bfbfbf" points="180.426,-378.5 180.426,-435.5 311.426,-435.5 311.426,-378.5 180.426,-378.5"/>
<text text-anchor="middle" x="245.926" y="-423.5" font-family="FreeSans" font-size="10.00">optional&lt; Coordinate3DT &gt;</text>
<polyline fill="none" stroke="#bfbfbf" points="180.426,-416.5 311.426,-416.5 "/>
<text text-anchor="middle" x="245.926" y="-404.5" font-family="FreeSans" font-size="10.00"> </text>
<polyline fill="none" stroke="#bfbfbf" points="180.426,-397.5 311.426,-397.5 "/>
<text text-anchor="middle" x="245.926" y="-385.5" font-family="FreeSans" font-size="10.00"> </text>
</g>
<!-- Node4&#45;&gt;Node2 -->
<g id="edge3" class="edge"><title>Node4&#45;&gt;Node2</title>
<path fill="none" stroke="#404040" d="M244.754,-378.132C243.685,-352.697 242.085,-314.639 240.831,-284.83"/>
<polygon fill="none" stroke="#404040" points="240.822,-284.61 236.574,-278.783 240.318,-272.621 244.567,-278.447 240.822,-284.61"/>
<text text-anchor="middle" x="271.426" y="-323" font-family="FreeSans" font-size="10.00"> +focusPoint</text>
</g>
<!-- Node5 -->
<g id="node5" class="node"><title>Node5</title>
<polygon fill="white" stroke="#bfbfbf" points="280.926,-494.5 280.926,-551.5 330.926,-551.5 330.926,-494.5 280.926,-494.5"/>
<text text-anchor="middle" x="305.926" y="-539.5" font-family="FreeSans" font-size="10.00">optional</text>
<polyline fill="none" stroke="#bfbfbf" points="280.926,-532.5 330.926,-532.5 "/>
<text text-anchor="middle" x="305.926" y="-520.5" font-family="FreeSans" font-size="10.00"> </text>
<polyline fill="none" stroke="#bfbfbf" points="280.926,-513.5 330.926,-513.5 "/>
<text text-anchor="middle" x="305.926" y="-501.5" font-family="FreeSans" font-size="10.00"> </text>
</g>
<!-- Node5&#45;&gt;Node4 -->
<g id="edge4" class="edge"><title>Node5&#45;&gt;Node4</title>
<path fill="none" stroke="orange" d="M273.063,-498.651C266.02,-492.109 259.369,-484.447 254.926,-476 248.495,-463.774 246.044,-448.666 245.287,-435.798"/>
<polygon fill="orange" stroke="orange" points="270.914,-501.419 280.775,-505.295 275.483,-496.116 270.914,-501.419"/>
<text text-anchor="middle" x="296.926" y="-462.5" font-family="FreeSans" font-size="10.00"> &lt; Coordinate3DT &gt;</text>
</g>
<!-- Node10 -->
<g id="node10" class="node"><title>Node10</title>
<polygon fill="white" stroke="#bfbfbf" points="311.426,-291.5 311.426,-359.5 432.426,-359.5 432.426,-291.5 311.426,-291.5"/>
<text text-anchor="start" x="319.426" y="-347.5" font-family="FreeSans" font-size="10.00">optional&lt; Array&lt; double,</text>
<text text-anchor="middle" x="371.926" y="-336.5" font-family="FreeSans" font-size="10.00"> 3, 2 &gt; &gt;</text>
<polyline fill="none" stroke="#bfbfbf" points="311.426,-329.5 432.426,-329.5 "/>
<text text-anchor="middle" x="371.926" y="-317.5" font-family="FreeSans" font-size="10.00"> </text>
<polyline fill="none" stroke="#bfbfbf" points="311.426,-310.5 432.426,-310.5 "/>
<text text-anchor="middle" x="371.926" y="-298.5" font-family="FreeSans" font-size="10.00"> </text>
</g>
<!-- Node5&#45;&gt;Node10 -->
<g id="edge11" class="edge"><title>Node5&#45;&gt;Node10</title>
<path fill="none" stroke="orange" d="M333.942,-485.657C335.786,-482.48 337.48,-479.24 338.926,-476 355.825,-438.136 364.382,-390.903 368.489,-359.781"/>
<polygon fill="orange" stroke="orange" points="330.81,-484.062 328.432,-494.387 336.729,-487.798 330.81,-484.062"/>
<text text-anchor="start" x="346.926" y="-468" font-family="FreeSans" font-size="10.00"> &lt; Array&lt; double, 3,</text>
<text text-anchor="middle" x="388.926" y="-457" font-family="FreeSans" font-size="10.00"> 2 &gt; &gt;</text>
</g>
<!-- Node6 -->
<g id="node6" class="node"><title>Node6</title>
<polygon fill="white" stroke="#bfbfbf" points="469.426,-210 469.426,-267 510.426,-267 510.426,-210 469.426,-210"/>
<text text-anchor="middle" x="489.926" y="-255" font-family="FreeSans" font-size="10.00">string</text>
<polyline fill="none" stroke="#bfbfbf" points="469.426,-248 510.426,-248 "/>
<text text-anchor="middle" x="489.926" y="-236" font-family="FreeSans" font-size="10.00"> </text>
<polyline fill="none" stroke="#bfbfbf" points="469.426,-229 510.426,-229 "/>
<text text-anchor="middle" x="489.926" y="-217" font-family="FreeSans" font-size="10.00"> </text>
</g>
<!-- Node6&#45;&gt;Node1 -->
<g id="edge5" class="edge"><title>Node6&#45;&gt;Node1</title>
<path fill="none" stroke="#404040" d="M469.421,-216.621C464.801,-212.277 459.814,-207.853 454.926,-204 443.306,-194.843 434.061,-198.959 426.926,-186 413.148,-160.978 411.853,-129.404 414.463,-102.625"/>
<polygon fill="none" stroke="#404040" points="414.465,-102.613 411.214,-96.1757 415.906,-90.6997 419.156,-97.1368 414.465,-102.613"/>
<text text-anchor="middle" x="473.926" y="-178" font-family="FreeSans" font-size="10.00"> +pointCloudFile</text>
<text text-anchor="middle" x="473.926" y="-167" font-family="FreeSans" font-size="10.00">+viewContributionFile</text>
<text text-anchor="middle" x="473.926" y="-156" font-family="FreeSans" font-size="10.00">+affinityMatrixFile</text>
<text text-anchor="middle" x="473.926" y="-145" font-family="FreeSans" font-size="10.00">+cameraFile</text>
<text text-anchor="middle" x="473.926" y="-134" font-family="FreeSans" font-size="10.00">+outputPath</text>
<text text-anchor="middle" x="473.926" y="-123" font-family="FreeSans" font-size="10.00">+logFile</text>
<text text-anchor="middle" x="473.926" y="-112" font-family="FreeSans" font-size="10.00">+sceneCoverageFile</text>
</g>
<!-- Node7 -->
<g id="node7" class="node"><title>Node7</title>
<polygon fill="white" stroke="#bfbfbf" points="528.426,-210 528.426,-267 557.426,-267 557.426,-210 528.426,-210"/>
<text text-anchor="middle" x="542.926" y="-255" font-family="FreeSans" font-size="10.00">int</text>
<polyline fill="none" stroke="#bfbfbf" points="528.426,-248 557.426,-248 "/>
<text text-anchor="middle" x="542.926" y="-236" font-family="FreeSans" font-size="10.00"> </text>
<polyline fill="none" stroke="#bfbfbf" points="528.426,-229 557.426,-229 "/>
<text text-anchor="middle" x="542.926" y="-217" font-family="FreeSans" font-size="10.00"> </text>
</g>
<!-- Node7&#45;&gt;Node1 -->
<g id="edge7" class="edge"><title>Node7&#45;&gt;Node1</title>
<path fill="none" stroke="#404040" d="M544.327,-209.887C544.409,-182.192 540.81,-139.402 520.926,-109 518.764,-105.696 516.361,-102.526 513.766,-99.4904"/>
<polygon fill="none" stroke="#404040" points="513.744,-99.4669 506.708,-97.8868 505.46,-90.7845 512.496,-92.3645 513.744,-99.4669"/>
<text text-anchor="middle" x="581.926" y="-150.5" font-family="FreeSans" font-size="10.00"> +minAffinity</text>
<text text-anchor="middle" x="581.926" y="-139.5" font-family="FreeSans" font-size="10.00">+minRedundancy</text>
</g>
<!-- Node8 -->
<g id="node8" class="node"><title>Node8</title>
<g id="a_node8"><a xlink:href="classbool.html" target="_top" xlink:title="{bool\n||}">
<polygon fill="white" stroke="black" points="624.426,-210 624.426,-267 659.426,-267 659.426,-210 624.426,-210"/>
<text text-anchor="middle" x="641.926" y="-255" font-family="FreeSans" font-size="10.00">bool</text>
<polyline fill="none" stroke="black" points="624.426,-248 659.426,-248 "/>
<text text-anchor="middle" x="641.926" y="-236" font-family="FreeSans" font-size="10.00"> </text>
<polyline fill="none" stroke="black" points="624.426,-229 659.426,-229 "/>
<text text-anchor="middle" x="641.926" y="-217" font-family="FreeSans" font-size="10.00"> </text>
</a>
</g>
</g>
<!-- Node8&#45;&gt;Node1 -->
<g id="edge8" class="edge"><title>Node8&#45;&gt;Node1</title>
<path fill="none" stroke="#404040" d="M640.493,-209.824C638.225,-176.658 632.678,-123.706 619.926,-109 597.576,-83.2254 564.545,-68 532.049,-59.0337"/>
<polygon fill="none" stroke="#404040" points="531.752,-58.9585 524.952,-61.359 520.121,-56.0056 526.921,-53.605 531.752,-58.9585"/>
<text text-anchor="middle" x="668.926" y="-145" font-family="FreeSans" font-size="10.00"> +flagVerbose</text>
</g>
<!-- Node9 -->
<g id="node9" class="node"><title>Node9</title>
<polygon fill="white" stroke="#bfbfbf" points="699.926,-210 699.926,-267 749.926,-267 749.926,-210 699.926,-210"/>
<text text-anchor="middle" x="724.926" y="-255" font-family="FreeSans" font-size="10.00">FrameT</text>
<polyline fill="none" stroke="#bfbfbf" points="699.926,-248 749.926,-248 "/>
<text text-anchor="middle" x="724.926" y="-236" font-family="FreeSans" font-size="10.00"> </text>
<polyline fill="none" stroke="#bfbfbf" points="699.926,-229 749.926,-229 "/>
<text text-anchor="middle" x="724.926" y="-217" font-family="FreeSans" font-size="10.00"> </text>
</g>
<!-- Node9&#45;&gt;Node1 -->
<g id="edge9" class="edge"><title>Node9&#45;&gt;Node1</title>
<path fill="none" stroke="#404040" d="M728.362,-209.807C730.308,-180.814 728.399,-135.843 702.926,-109 679.396,-84.2049 600.077,-67.933 532.315,-58.226"/>
<polygon fill="none" stroke="#404040" points="532.134,-58.201 525.641,-61.3365 520.249,-56.5481 526.743,-53.4127 532.134,-58.201"/>
<text text-anchor="middle" x="748.426" y="-145" font-family="FreeSans" font-size="10.00"> +framing</text>
</g>
<!-- Node10&#45;&gt;Node1 -->
<g id="edge10" class="edge"><title>Node10&#45;&gt;Node1</title>
<path fill="none" stroke="#404040" d="M374.593,-291.337C376.835,-267.034 380.545,-233.311 385.926,-204 393.789,-161.167 399.192,-151.205 409.926,-109 410.471,-106.854 411.028,-104.668 411.591,-102.459"/>
<polygon fill="none" stroke="#404040" points="411.664,-102.171 409.272,-95.368 414.632,-90.5435 417.024,-97.3463 411.664,-102.171"/>
<text text-anchor="middle" x="422.926" y="-236" font-family="FreeSans" font-size="10.00"> +captureVolume</text>
</g>
</g>
</svg>
        <g id="navigator" transform="translate(0 0)" fill="#404254">
                <rect fill="#f2f5e9" fill-opacity="0.5" stroke="#606060" stroke-width=".5" x="0" y="0" width="60" height="60"/>
                <use id="zoomplus" xlink:href="#zoomPlus" x="17" y="9" onmousedown="handleZoom(evt,'in')"/>
                <use id="zoomminus" xlink:href="#zoomMin" x="42" y="9" onmousedown="handleZoom(evt,'out')"/>
                <use id="reset" xlink:href="#resetDef" x="30" y="36" onmousedown="handleReset()"/>
                <g id="arrowUp" xlink:href="#dirArrow" transform="translate(30 24)" onmousedown="handlePan(0,-1)">
                  <use xlink:href="#rim" fill="#404040">
                        <set attributeName="fill" to="#808080" begin="arrowUp.mouseover" end="arrowUp.mouseout"/>
                  </use>
                  <path fill="none" stroke="white" stroke-width="1.5" d="M0,-3.0v7 M-2.5,-0.5L0,-3.0L2.5,-0.5"/>
                </g>
                <g id="arrowRight" xlink:href="#dirArrow" transform="rotate(90) translate(36 -43)" onmousedown="handlePan(1,0)">
                  <use xlink:href="#rim" fill="#404040">
                        <set attributeName="fill" to="#808080" begin="arrowRight.mouseover" end="arrowRight.mouseout"/>
                  </use>
                  <path fill="none" stroke="white" stroke-width="1.5" d="M0,-3.0v7 M-2.5,-0.5L0,-3.0L2.5,-0.5"/>
                </g>
                <g id="arrowDown" xlink:href="#dirArrow" transform="rotate(180) translate(-30 -48)" onmousedown="handlePan(0,1)">
                  <use xlink:href="#rim" fill="#404040">
                        <set attributeName="fill" to="#808080" begin="arrowDown.mouseover" end="arrowDown.mouseout"/>
                  </use>
                  <path fill="none" stroke="white" stroke-width="1.5" d="M0,-3.0v7 M-2.5,-0.5L0,-3.0L2.5,-0.5"/>
                </g>
                <g id="arrowLeft" xlink:href="#dirArrow" transform="rotate(270) translate(-36 17)" onmousedown="handlePan(-1,0)">
                  <use xlink:href="#rim" fill="#404040">
                        <set attributeName="fill" to="#808080" begin="arrowLeft.mouseover" end="arrowLeft.mouseout"/>
                  </use>
                  <path fill="none" stroke="white" stroke-width="1.5" d="M0,-3.0v7 M-2.5,-0.5L0,-3.0L2.5,-0.5"/>
                </g>
        </g>
        <svg viewBox="0 0 15 15" width="100%" height="30px" preserveAspectRatio="xMaxYMin meet">
         <g id="arrow_out" transform="scale(0.3 0.3)">
          <a xlink:href="structSeeSawN_1_1AppWitnessCoverageStatisticsN_1_1WitnessCoverageStatisticsParametersC__coll__graph_org.svg" target="_base">
           <rect id="button" ry="5" rx="5" y="6" x="6" height="38" width="38"
                fill="#f2f5e9" fill-opacity="0.5" stroke="#606060" stroke-width="1.0"/>
           <path id="arrow"
             d="M 11.500037,31.436501 C 11.940474,20.09759 22.043105,11.32322 32.158766,21.979434 L 37.068811,17.246167 C 37.068811,17.246167 37.088388,32 37.088388,32 L 22.160133,31.978069 C 22.160133,31.978069 26.997745,27.140456 26.997745,27.140456 C 18.528582,18.264221 13.291696,25.230495 11.500037,31.436501 z"
             style="fill:#404040;"/>
          </a>
         </g>
        </svg>
</svg>
