<?xml version="1.0" encoding="UTF-8" standalone="no"?>
<!DOCTYPE svg PUBLIC "-//W3C//DTD SVG 1.1//EN"
 "http://www.w3.org/Graphics/SVG/1.1/DTD/svg11.dtd">
<!-- Generated by graphviz version 2.38.0 (20140413.2041)
 -->
<!-- Title: SeeSawN::AppPfMN::AppPfMParametersC Pages: 1 -->
<!--zoomable 1258 -->
<svg id="main" version="1.1" xmlns="http://www.w3.org/2000/svg" xmlns:xlink="http://www.w3.org/1999/xlink" xml:space="preserve" onload="init(evt)">
<style type="text/css"><![CDATA[
.edge:hover path { stroke: red; }
.edge:hover polygon { stroke: red; fill: red; }
]]></style>
<script type="text/javascript"><![CDATA[
var edges = document.getElementsByTagName('g');
if (edges && edges.length) {
  for (var i=0;i<edges.length;i++) {
    if (edges[i].id.substr(0,4)=='edge') {
      edges[i].setAttribute('class','edge');
    }
  }
}
]]></script>
        <defs>
                <circle id="rim" cx="0" cy="0" r="7"/>
                <circle id="rim2" cx="0" cy="0" r="3.5"/>
                <g id="zoomPlus">
                        <use xlink:href="#rim" fill="#404040">
                                <set attributeName="fill" to="#808080" begin="zoomplus.mouseover" end="zoomplus.mouseout"/>
                        </use>
                        <path d="M-4,0h8M0,-4v8" fill="none" stroke="white" stroke-width="1.5" pointer-events="none"/>
                </g>
                <g id="zoomMin">
                        <use xlink:href="#rim" fill="#404040">
                                <set attributeName="fill" to="#808080" begin="zoomminus.mouseover" end="zoomminus.mouseout"/>
                        </use>
                        <path d="M-4,0h8" fill="none" stroke="white" stroke-width="1.5" pointer-events="none"/>
                </g>
                <g id="dirArrow">
                        <path fill="none" stroke="white" stroke-width="1.5" d="M0,-3.0v7 M-2.5,-0.5L0,-3.0L2.5,-0.5"/>
                </g>
               <g id="resetDef">
                       <use xlink:href="#rim2" fill="#404040">
                               <set attributeName="fill" to="#808080" begin="reset.mouseover" end="reset.mouseout"/>
                       </use>
               </g>
        </defs>

<script type="text/javascript">
var viewWidth = 2867;
var viewHeight = 1258;
var sectionId = 'dynsection-0';
</script>
<script xlink:href="svgpan.js"/>
<svg id="graph" class="graph">
<g id="viewport">
<title>SeeSawN::AppPfMN::AppPfMParametersC</title>
<polygon fill="white" stroke="none" points="-4,4 -4,-1254 2862.5,-1254 2862.5,4 -4,4"/>
<!-- Node1 -->
<g id="node1" class="node"><title>Node1</title>
<polygon fill="#bfbfbf" stroke="black" points="217,-0.5 217,-57.5 422,-57.5 422,-0.5 217,-0.5"/>
<text text-anchor="middle" x="319.5" y="-45.5" font-family="FreeSans" font-size="10.00">SeeSawN::AppPfMN::AppPfMParametersC</text>
<polyline fill="none" stroke="black" points="217,-38.5 422,-38.5 "/>
<text text-anchor="middle" x="319.5" y="-26.5" font-family="FreeSans" font-size="10.00"> </text>
<polyline fill="none" stroke="black" points="217,-19.5 422,-19.5 "/>
<text text-anchor="start" x="225" y="-7.5" font-family="FreeSans" font-size="10.00">+ AppPfMParametersC()</text>
</g>
<!-- Node2 -->
<g id="node2" class="node"><title>Node2</title>
<polygon fill="white" stroke="#bfbfbf" points="0,-166 0,-223 41,-223 41,-166 0,-166"/>
<text text-anchor="middle" x="20.5" y="-211" font-family="FreeSans" font-size="10.00">string</text>
<polyline fill="none" stroke="#bfbfbf" points="0,-204 41,-204 "/>
<text text-anchor="middle" x="20.5" y="-192" font-family="FreeSans" font-size="10.00"> </text>
<polyline fill="none" stroke="#bfbfbf" points="0,-185 41,-185 "/>
<text text-anchor="middle" x="20.5" y="-173" font-family="FreeSans" font-size="10.00"> </text>
</g>
<!-- Node2&#45;&gt;Node1 -->
<g id="edge1" class="edge"><title>Node2&#45;&gt;Node1</title>
<path fill="none" stroke="#404040" d="M11.5577,-165.744C4.97583,-139.423 0.414945,-100.379 21.5,-76 45.302,-48.4798 131.124,-37.2835 204.591,-32.7977"/>
<polygon fill="none" stroke="#404040" points="204.753,-32.7886 210.517,-28.4554 216.734,-32.1093 210.97,-36.4425 204.753,-32.7886"/>
<text text-anchor="middle" x="64.5" y="-134" font-family="FreeSans" font-size="10.00"> +featureFilePattern</text>
<text text-anchor="middle" x="64.5" y="-123" font-family="FreeSans" font-size="10.00">+calibrationFile</text>
<text text-anchor="middle" x="64.5" y="-112" font-family="FreeSans" font-size="10.00">+panoramaFile</text>
<text text-anchor="middle" x="64.5" y="-101" font-family="FreeSans" font-size="10.00">+cameraFile</text>
<text text-anchor="middle" x="64.5" y="-90" font-family="FreeSans" font-size="10.00">+outputPath</text>
<text text-anchor="middle" x="64.5" y="-79" font-family="FreeSans" font-size="10.00">+logFile</text>
</g>
<!-- Node3 -->
<g id="node3" class="node"><title>Node3</title>
<polygon fill="white" stroke="#bfbfbf" points="2152,-1087.5 2152,-1144.5 2197,-1144.5 2197,-1087.5 2152,-1087.5"/>
<text text-anchor="middle" x="2174.5" y="-1132.5" font-family="FreeSans" font-size="10.00">double</text>
<polyline fill="none" stroke="#bfbfbf" points="2152,-1125.5 2197,-1125.5 "/>
<text text-anchor="middle" x="2174.5" y="-1113.5" font-family="FreeSans" font-size="10.00"> </text>
<polyline fill="none" stroke="#bfbfbf" points="2152,-1106.5 2197,-1106.5 "/>
<text text-anchor="middle" x="2174.5" y="-1094.5" font-family="FreeSans" font-size="10.00"> </text>
</g>
<!-- Node3&#45;&gt;Node1 -->
<g id="edge2" class="edge"><title>Node3&#45;&gt;Node1</title>
<path fill="none" stroke="#404040" d="M2197.09,-1114.91C2278.07,-1114.27 2553.03,-1109.1 2629.5,-1069 2727.22,-1017.75 2790.5,-990.346 2790.5,-880 2790.5,-880 2790.5,-880 2790.5,-193.5 2790.5,-73.8482 921.483,-38.6509 434.423,-31.5099"/>
<polygon fill="none" stroke="#404040" points="434.138,-31.5059 428.081,-35.4183 422.14,-31.3315 428.197,-27.4191 434.138,-31.5059"/>
<text text-anchor="middle" x="2824.5" y="-526" font-family="FreeSans" font-size="10.00"> +gridSpacing</text>
<text text-anchor="middle" x="2824.5" y="-515" font-family="FreeSans" font-size="10.00">+noiseVariance</text>
</g>
<!-- Node4 -->
<g id="node4" class="node"><title>Node4</title>
<g id="a_node4"><a xlink:href="structSeeSawN_1_1GeometryN_1_1PfMPipelineParametersC.html" target="_top" xlink:title="Parameters for the panorama&#45;from&#45;motion pipeline. ">
<polygon fill="white" stroke="black" points="1934.5,-160.5 1934.5,-228.5 2074.5,-228.5 2074.5,-160.5 1934.5,-160.5"/>
<text text-anchor="start" x="1942.5" y="-216.5" font-family="FreeSans" font-size="10.00">SeeSawN::GeometryN</text>
<text text-anchor="middle" x="2004.5" y="-205.5" font-family="FreeSans" font-size="10.00">::PfMPipelineParametersC</text>
<polyline fill="none" stroke="black" points="1934.5,-198.5 2074.5,-198.5 "/>
<text text-anchor="middle" x="2004.5" y="-186.5" font-family="FreeSans" font-size="10.00"> </text>
<polyline fill="none" stroke="black" points="1934.5,-179.5 2074.5,-179.5 "/>
<text text-anchor="start" x="1942.5" y="-167.5" font-family="FreeSans" font-size="10.00">+ PfMPipelineParametersC()</text>
</a>
</g>
</g>
<!-- Node3&#45;&gt;Node4 -->
<g id="edge4" class="edge"><title>Node3&#45;&gt;Node4</title>
<path fill="none" stroke="#404040" d="M2197.05,-1114.24C2281.5,-1111.15 2575.73,-1098.36 2604.5,-1069 2624.83,-1048.25 2638.5,-925.097 2638.5,-524 2638.5,-524 2638.5,-524 2638.5,-309.5 2638.5,-254.074 2258.31,-216.128 2086.75,-201.826"/>
<polygon fill="none" stroke="#404040" points="2086.73,-201.824 2080.42,-205.317 2074.77,-200.838 2081.08,-197.345 2086.73,-201.824"/>
<text text-anchor="middle" x="2699.5" y="-606" font-family="FreeSans" font-size="10.00"> +maxFocalLengthRatioError</text>
<text text-anchor="middle" x="2699.5" y="-595" font-family="FreeSans" font-size="10.00">+noiseVariance</text>
<text text-anchor="middle" x="2699.5" y="-584" font-family="FreeSans" font-size="10.00">+inlierRejectionProbability</text>
<text text-anchor="middle" x="2699.5" y="-573" font-family="FreeSans" font-size="10.00">+geLOGeneratorRatio1</text>
<text text-anchor="middle" x="2699.5" y="-562" font-family="FreeSans" font-size="10.00">+geLOGeneratorRatio2</text>
</g>
<!-- Node5 -->
<g id="node5" class="node"><title>Node5</title>
<g id="a_node5"><a xlink:href="structSeeSawN_1_1GeometryN_1_1VisionGraphPipelineParametersC.html" target="_top" xlink:title="Parameters for the vision graph pipeline. ">
<polygon fill="white" stroke="black" points="1617.5,-276.5 1617.5,-344.5 1793.5,-344.5 1793.5,-276.5 1617.5,-276.5"/>
<text text-anchor="start" x="1625.5" y="-332.5" font-family="FreeSans" font-size="10.00">SeeSawN::GeometryN</text>
<text text-anchor="middle" x="1705.5" y="-321.5" font-family="FreeSans" font-size="10.00">::VisionGraphPipelineParametersC</text>
<polyline fill="none" stroke="black" points="1617.5,-314.5 1793.5,-314.5 "/>
<text text-anchor="middle" x="1705.5" y="-302.5" font-family="FreeSans" font-size="10.00"> </text>
<polyline fill="none" stroke="black" points="1617.5,-295.5 1793.5,-295.5 "/>
<text text-anchor="start" x="1625.5" y="-283.5" font-family="FreeSans" font-size="10.00">+ VisionGraphPipelineParametersC()</text>
</a>
</g>
</g>
<!-- Node3&#45;&gt;Node5 -->
<g id="edge40" class="edge"><title>Node3&#45;&gt;Node5</title>
<path fill="none" stroke="#404040" d="M2197,-1113.85C2275.37,-1109.65 2532.96,-1094.02 2559.5,-1069 2637.86,-995.135 2637.92,-921.503 2584.5,-828 2515.91,-707.941 2180.03,-554.651 2048.5,-512 1967.81,-485.835 1932.16,-536.066 1858.5,-494 1796.05,-458.332 1811.79,-416.302 1763.5,-363 1760.52,-359.713 1757.35,-356.419 1754.08,-353.175"/>
<polygon fill="none" stroke="#404040" points="1753.95,-353.044 1746.85,-351.78 1745.28,-344.741 1752.38,-346.005 1753.95,-353.044"/>
<text text-anchor="middle" x="2440" y="-653" font-family="FreeSans" font-size="10.00"> +initialEstimateNoiseVariance</text>
<text text-anchor="middle" x="2440" y="-642" font-family="FreeSans" font-size="10.00">+inlierRejectionProbability</text>
</g>
<!-- Node6 -->
<g id="node6" class="node"><title>Node6</title>
<g id="a_node6"><a xlink:href="structSeeSawN_1_1GeometryN_1_1GeometryEstimationPipelineParametersC.html" target="_top" xlink:title="Parameters for GeometryEstimationPipelineC. ">
<polygon fill="white" stroke="black" points="1560,-403.5 1560,-493.5 1707,-493.5 1707,-403.5 1560,-403.5"/>
<text text-anchor="start" x="1568" y="-481.5" font-family="FreeSans" font-size="10.00">SeeSawN::GeometryN</text>
<text text-anchor="start" x="1568" y="-470.5" font-family="FreeSans" font-size="10.00">::GeometryEstimationPipeline</text>
<text text-anchor="middle" x="1633.5" y="-459.5" font-family="FreeSans" font-size="10.00">ParametersC</text>
<polyline fill="none" stroke="black" points="1560,-452.5 1707,-452.5 "/>
<text text-anchor="middle" x="1633.5" y="-440.5" font-family="FreeSans" font-size="10.00"> </text>
<polyline fill="none" stroke="black" points="1560,-433.5 1707,-433.5 "/>
<text text-anchor="start" x="1568" y="-421.5" font-family="FreeSans" font-size="10.00">+ GeometryEstimationPipeline</text>
<text text-anchor="start" x="1568" y="-410.5" font-family="FreeSans" font-size="10.00">ParametersC()</text>
</a>
</g>
</g>
<!-- Node3&#45;&gt;Node6 -->
<g id="edge7" class="edge"><title>Node3&#45;&gt;Node6</title>
<path fill="none" stroke="#404040" d="M2197.36,-1113.24C2245.21,-1109.04 2353.31,-1096.63 2375.5,-1069 2409.03,-1027.24 2410.01,-869.776 2376.5,-828 2353.42,-799.233 2331.32,-818.78 2295.5,-810 2258.85,-801.016 2250.46,-795.612 2213.5,-788 2186.23,-782.383 2110.65,-788.112 2089.5,-770 2057.36,-742.474 2089.94,-710.334 2061.5,-679 2016.51,-629.431 1983.8,-647.889 1922.5,-621 1837.82,-583.856 1811.53,-583.628 1733.5,-534 1718.54,-524.485 1703.41,-512.924 1689.61,-501.447"/>
<polygon fill="none" stroke="#404040" points="1689.44,-501.3 1682.27,-500.472 1680.28,-493.541 1687.45,-494.369 1689.44,-501.3"/>
<text text-anchor="middle" x="2140" y="-760.5" font-family="FreeSans" font-size="10.00"> +maxAmbiguity</text>
<text text-anchor="middle" x="2140" y="-749.5" font-family="FreeSans" font-size="10.00">+minObservationRatio</text>
<text text-anchor="middle" x="2140" y="-738.5" font-family="FreeSans" font-size="10.00">+binDensity1</text>
<text text-anchor="middle" x="2140" y="-727.5" font-family="FreeSans" font-size="10.00">+maxObservationRatio</text>
<text text-anchor="middle" x="2140" y="-716.5" font-family="FreeSans" font-size="10.00">+binDensity2</text>
<text text-anchor="middle" x="2140" y="-705.5" font-family="FreeSans" font-size="10.00">+minRelativeDifference</text>
<text text-anchor="middle" x="2140" y="-694.5" font-family="FreeSans" font-size="10.00">+refreshThreshold</text>
<text text-anchor="middle" x="2140" y="-683.5" font-family="FreeSans" font-size="10.00">+validationRatio</text>
</g>
<!-- Node8 -->
<g id="node8" class="node"><title>Node8</title>
<g id="a_node8"><a xlink:href="structSeeSawN_1_1OptimisationN_1_1PowellDogLegParametersC.html" target="_top" xlink:title="Parameters for PowellDogLegC. ">
<polygon fill="white" stroke="black" points="2424,-845 2424,-913 2575,-913 2575,-845 2424,-845"/>
<text text-anchor="start" x="2432" y="-901" font-family="FreeSans" font-size="10.00">SeeSawN::OptimisationN</text>
<text text-anchor="middle" x="2499.5" y="-890" font-family="FreeSans" font-size="10.00">::PowellDogLegParametersC</text>
<polyline fill="none" stroke="black" points="2424,-883 2575,-883 "/>
<text text-anchor="middle" x="2499.5" y="-871" font-family="FreeSans" font-size="10.00"> </text>
<polyline fill="none" stroke="black" points="2424,-864 2575,-864 "/>
<text text-anchor="start" x="2432" y="-852" font-family="FreeSans" font-size="10.00">+ PowellDogLegParametersC()</text>
</a>
</g>
</g>
<!-- Node3&#45;&gt;Node8 -->
<g id="edge10" class="edge"><title>Node3&#45;&gt;Node8</title>
<path fill="none" stroke="#404040" d="M2197.03,-1113.16C2249.19,-1108.5 2376.33,-1094.74 2409.5,-1069 2455.43,-1033.36 2479.1,-968.47 2490.4,-924.795"/>
<polygon fill="none" stroke="#404040" points="2490.41,-924.738 2487.95,-917.959 2493.26,-913.081 2495.72,-919.86 2490.41,-924.738"/>
<text text-anchor="middle" x="2519.5" y="-1028" font-family="FreeSans" font-size="10.00"> +lambdaGrowth</text>
<text text-anchor="middle" x="2519.5" y="-1017" font-family="FreeSans" font-size="10.00">+delta0</text>
<text text-anchor="middle" x="2519.5" y="-1006" font-family="FreeSans" font-size="10.00">+epsilon1</text>
<text text-anchor="middle" x="2519.5" y="-995" font-family="FreeSans" font-size="10.00">+epsilon2</text>
<text text-anchor="middle" x="2519.5" y="-984" font-family="FreeSans" font-size="10.00">+lambdaShrink</text>
</g>
<!-- Node11 -->
<g id="node11" class="node"><title>Node11</title>
<g id="a_node11"><a xlink:href="structSeeSawN_1_1RANSACN_1_1TwoStageRANSACParametersC.html" target="_top" xlink:title="Parameters for TwoStageRANSACC. ">
<polygon fill="white" stroke="black" points="1293,-690.5 1293,-758.5 1466,-758.5 1466,-690.5 1293,-690.5"/>
<text text-anchor="start" x="1301" y="-746.5" font-family="FreeSans" font-size="10.00">SeeSawN::RANSACN::TwoStage</text>
<text text-anchor="middle" x="1379.5" y="-735.5" font-family="FreeSans" font-size="10.00">RANSACParametersC</text>
<polyline fill="none" stroke="black" points="1293,-728.5 1466,-728.5 "/>
<text text-anchor="middle" x="1379.5" y="-716.5" font-family="FreeSans" font-size="10.00"> </text>
<polyline fill="none" stroke="black" points="1293,-709.5 1466,-709.5 "/>
<text text-anchor="start" x="1301" y="-697.5" font-family="FreeSans" font-size="10.00">+ TwoStageRANSACParametersC()</text>
</a>
</g>
</g>
<!-- Node3&#45;&gt;Node11 -->
<g id="edge14" class="edge"><title>Node3&#45;&gt;Node11</title>
<path fill="none" stroke="#404040" d="M2174.13,-1087.21C2172.94,-1044.73 2168.08,-966.586 2148.5,-948 2120.15,-921.084 2003.78,-954.723 1973.5,-930 1936.7,-899.954 1977.11,-859.457 1941.5,-828 1874.2,-768.541 1620.88,-741.912 1478.4,-731.419"/>
<polygon fill="none" stroke="#404040" points="1478.2,-731.405 1471.93,-734.963 1466.23,-730.543 1472.5,-726.984 1478.2,-731.405"/>
<text text-anchor="middle" x="2008.5" y="-882" font-family="FreeSans" font-size="10.00"> +eligibilityRatio</text>
<text text-anchor="middle" x="2008.5" y="-871" font-family="FreeSans" font-size="10.00">+minConfidence</text>
</g>
<!-- Node13 -->
<g id="node13" class="node"><title>Node13</title>
<g id="a_node13"><a xlink:href="structSeeSawN_1_1RANSACN_1_1RANSACParametersC.html" target="_top" xlink:title="Parameters for RANSACC. ">
<polygon fill="white" stroke="black" points="1215,-828.5 1215,-929.5 1432,-929.5 1432,-828.5 1215,-828.5"/>
<text text-anchor="middle" x="1323.5" y="-917.5" font-family="FreeSans" font-size="10.00">SeeSawN::RANSACN::RANSACParametersC</text>
<polyline fill="none" stroke="black" points="1215,-910.5 1432,-910.5 "/>
<text text-anchor="middle" x="1323.5" y="-898.5" font-family="FreeSans" font-size="10.00"> </text>
<polyline fill="none" stroke="black" points="1215,-891.5 1432,-891.5 "/>
<text text-anchor="start" x="1223" y="-879.5" font-family="FreeSans" font-size="10.00">+ RANSACParametersC()</text>
<text text-anchor="start" x="1223" y="-868.5" font-family="FreeSans" font-size="10.00">* minObservationSupport</text>
<text text-anchor="start" x="1223" y="-857.5" font-family="FreeSans" font-size="10.00">* delta</text>
<text text-anchor="start" x="1223" y="-846.5" font-family="FreeSans" font-size="10.00">* maxDeltaTolerance</text>
<text text-anchor="start" x="1223" y="-835.5" font-family="FreeSans" font-size="10.00">* minCoverage</text>
</a>
</g>
</g>
<!-- Node3&#45;&gt;Node13 -->
<g id="edge17" class="edge"><title>Node3&#45;&gt;Node13</title>
<path fill="none" stroke="#404040" d="M2151.81,-1114.41C2061.62,-1111.86 1731.85,-1100.42 1698.5,-1069 1658.88,-1031.67 1719.51,-984.917 1679.5,-948 1661.65,-931.526 1498.42,-935.379 1444.05,-929.416"/>
<polygon fill="none" stroke="#404040" points="1443.89,-929.39 1437.33,-932.398 1432.04,-927.505 1438.59,-924.497 1443.89,-929.39"/>
<text text-anchor="middle" x="1744" y="-1061" font-family="FreeSans" font-size="10.00"> +minModelSimilarity</text>
<text text-anchor="middle" x="1744" y="-1050" font-family="FreeSans" font-size="10.00">+maxErrorRatio</text>
<text text-anchor="middle" x="1744" y="-1039" font-family="FreeSans" font-size="10.00">+eligibilityRatio</text>
<text text-anchor="middle" x="1744" y="-1028" font-family="FreeSans" font-size="10.00">+diversityFactor</text>
<text text-anchor="middle" x="1744" y="-1017" font-family="FreeSans" font-size="10.00">+growthRate</text>
<text text-anchor="middle" x="1744" y="-1006" font-family="FreeSans" font-size="10.00">+maxError</text>
<text text-anchor="middle" x="1744" y="-995" font-family="FreeSans" font-size="10.00">+parsimonyFactor</text>
<text text-anchor="middle" x="1744" y="-984" font-family="FreeSans" font-size="10.00">+minConfidence</text>
<text text-anchor="middle" x="1744" y="-973" font-family="FreeSans" font-size="10.00">+epsilon</text>
<text text-anchor="middle" x="1744" y="-962" font-family="FreeSans" font-size="10.00">+minError</text>
<text text-anchor="middle" x="1744" y="-951" font-family="FreeSans" font-size="10.00">...</text>
</g>
<!-- Node16 -->
<g id="node16" class="node"><title>Node16</title>
<g id="a_node16"><a xlink:href="structSeeSawN_1_1UncertaintyEstimationN_1_1ScaledUnscentedTransformationParametersC.html" target="_top" xlink:title="Parameters for ScaledUncentedTransformationC. ">
<polygon fill="white" stroke="black" points="1609,-834 1609,-924 1780,-924 1780,-834 1609,-834"/>
<text text-anchor="start" x="1617" y="-912" font-family="FreeSans" font-size="10.00">SeeSawN::UncertaintyEstimation</text>
<text text-anchor="start" x="1617" y="-901" font-family="FreeSans" font-size="10.00">N::ScaledUnscentedTransformation</text>
<text text-anchor="middle" x="1694.5" y="-890" font-family="FreeSans" font-size="10.00">ParametersC</text>
<polyline fill="none" stroke="black" points="1609,-883 1780,-883 "/>
<text text-anchor="middle" x="1694.5" y="-871" font-family="FreeSans" font-size="10.00"> </text>
<polyline fill="none" stroke="black" points="1609,-864 1780,-864 "/>
<text text-anchor="start" x="1617" y="-852" font-family="FreeSans" font-size="10.00">+ ScaledUnscentedTransformation</text>
<text text-anchor="start" x="1617" y="-841" font-family="FreeSans" font-size="10.00">ParametersC()</text>
</a>
</g>
</g>
<!-- Node3&#45;&gt;Node16 -->
<g id="edge23" class="edge"><title>Node3&#45;&gt;Node16</title>
<path fill="none" stroke="#404040" d="M2151.91,-1108.64C2132.54,-1101.99 2105.46,-1089.57 2090.5,-1069 2058.3,-1024.73 2108.5,-984.276 2067.5,-948 2044.73,-927.855 1823.84,-937.954 1794.5,-930 1792.22,-929.381 1789.92,-928.708 1787.63,-927.986"/>
<polygon fill="none" stroke="#404040" points="1787.49,-927.939 1780.51,-929.756 1776.15,-924.013 1783.13,-922.196 1787.49,-927.939"/>
<text text-anchor="middle" x="2107" y="-1011.5" font-family="FreeSans" font-size="10.00"> +beta</text>
<text text-anchor="middle" x="2107" y="-1000.5" font-family="FreeSans" font-size="10.00">+kappa</text>
</g>
<!-- Node17 -->
<g id="node17" class="node"><title>Node17</title>
<g id="a_node17"><a xlink:href="structSeeSawN_1_1MatcherN_1_1FeatureMatcherParametersC.html" target="_top" xlink:title="Parameters of FeatureMatcherC. ">
<polygon fill="white" stroke="black" points="770.5,-690.5 770.5,-758.5 926.5,-758.5 926.5,-690.5 770.5,-690.5"/>
<text text-anchor="start" x="778.5" y="-746.5" font-family="FreeSans" font-size="10.00">SeeSawN::MatcherN::</text>
<text text-anchor="middle" x="848.5" y="-735.5" font-family="FreeSans" font-size="10.00">FeatureMatcherParametersC</text>
<polyline fill="none" stroke="black" points="770.5,-728.5 926.5,-728.5 "/>
<text text-anchor="middle" x="848.5" y="-716.5" font-family="FreeSans" font-size="10.00"> </text>
<polyline fill="none" stroke="black" points="770.5,-709.5 926.5,-709.5 "/>
<text text-anchor="start" x="778.5" y="-697.5" font-family="FreeSans" font-size="10.00">+ FeatureMatcherParametersC()</text>
</a>
</g>
</g>
<!-- Node3&#45;&gt;Node17 -->
<g id="edge29" class="edge"><title>Node3&#45;&gt;Node17</title>
<path fill="none" stroke="#404040" d="M2159.31,-1087.24C2156.45,-1081.33 2153.68,-1075.05 2151.5,-1069 2132.8,-1017.06 2165.68,-983.601 2123.5,-948 2071.27,-903.923 1869.61,-973.01 1816.5,-930 1779.97,-900.414 1825.3,-857.259 1788.5,-828 1769.26,-812.704 1370.94,-812.561 1346.5,-810 1202.77,-794.941 1037.71,-764.252 938.351,-744.298"/>
<polygon fill="none" stroke="#404040" points="938.328,-744.293 931.655,-747.027 926.565,-741.919 933.238,-739.185 938.328,-744.293"/>
<text text-anchor="middle" x="1877" y="-876.5" font-family="FreeSans" font-size="10.00"> +bucketSimilarityThreshold</text>
</g>
<!-- Node18 -->
<g id="node18" class="node"><title>Node18</title>
<polygon fill="white" stroke="#bfbfbf" points="649,-850.5 649,-907.5 760,-907.5 760,-850.5 649,-850.5"/>
<text text-anchor="middle" x="704.5" y="-895.5" font-family="FreeSans" font-size="10.00">std::array&lt; double, 2 &gt;</text>
<polyline fill="none" stroke="#bfbfbf" points="649,-888.5 760,-888.5 "/>
<text text-anchor="middle" x="704.5" y="-876.5" font-family="FreeSans" font-size="10.00"> </text>
<polyline fill="none" stroke="#bfbfbf" points="649,-869.5 760,-869.5 "/>
<text text-anchor="middle" x="704.5" y="-857.5" font-family="FreeSans" font-size="10.00"> </text>
</g>
<!-- Node3&#45;&gt;Node18 -->
<g id="edge33" class="edge"><title>Node3&#45;&gt;Node18</title>
<path fill="none" stroke="#404040" d="M2151.63,-1113.9C2014.1,-1107.25 1302.59,-1072.68 1298.5,-1069 1258.07,-1032.55 1320.23,-984.113 1279.5,-948 1237.49,-910.753 827.655,-948.084 774.5,-930 764.227,-926.505 754.147,-920.966 744.978,-914.826"/>
<polygon fill="none" stroke="#404040" points="744.805,-914.702 737.598,-914.46 735.05,-907.714 742.258,-907.956 744.805,-914.702"/>
<text text-anchor="middle" x="1323" y="-1006" font-family="FreeSans" font-size="10.00"> +elements</text>
</g>
<!-- Node21 -->
<g id="node21" class="node"><title>Node21</title>
<g id="a_node21"><a xlink:href="structSeeSawN_1_1MatcherN_1_1NearestNeighbourMatcherParametersC.html" target="_top" xlink:title="Parameter object for NearestNeighbourMatcherC. ">
<polygon fill="white" stroke="black" points="871.5,-845 871.5,-913 1073.5,-913 1073.5,-845 871.5,-845"/>
<text text-anchor="start" x="879.5" y="-901" font-family="FreeSans" font-size="10.00">SeeSawN::MatcherN::</text>
<text text-anchor="middle" x="972.5" y="-890" font-family="FreeSans" font-size="10.00">NearestNeighbourMatcherParametersC</text>
<polyline fill="none" stroke="black" points="871.5,-883 1073.5,-883 "/>
<text text-anchor="middle" x="972.5" y="-871" font-family="FreeSans" font-size="10.00"> </text>
<polyline fill="none" stroke="black" points="871.5,-864 1073.5,-864 "/>
<text text-anchor="start" x="879.5" y="-852" font-family="FreeSans" font-size="10.00">+ NearestNeighbourMatcherParametersC()</text>
</a>
</g>
</g>
<!-- Node3&#45;&gt;Node21 -->
<g id="edge37" class="edge"><title>Node3&#45;&gt;Node21</title>
<path fill="none" stroke="#404040" d="M2151.91,-1114.91C2047.18,-1114.28 1612.11,-1109.26 1568.5,-1069 1528.5,-1032.08 1590.11,-984.251 1549.5,-948 1514.32,-916.599 1171.9,-938.402 1125.5,-930 1107.68,-926.773 1089.08,-921.976 1071.23,-916.61"/>
<polygon fill="none" stroke="#404040" points="1071.09,-916.566 1064.17,-918.61 1059.63,-913.013 1066.54,-910.969 1071.09,-916.566"/>
<text text-anchor="middle" x="1622" y="-1011.5" font-family="FreeSans" font-size="10.00"> +ratioTestThreshold</text>
<text text-anchor="middle" x="1622" y="-1000.5" font-family="FreeSans" font-size="10.00">+similarityTestThreshold</text>
</g>
<!-- Node23 -->
<g id="node23" class="node"><title>Node23</title>
<g id="a_node23"><a xlink:href="structSeeSawN_1_1GeometryN_1_1RotationRegistrationPipelineParametersC.html" target="_top" xlink:title="Parameter object for the rotation registration pipeline. ">
<polygon fill="white" stroke="black" points="1906,-679.5 1906,-769.5 2053,-769.5 2053,-679.5 1906,-679.5"/>
<text text-anchor="start" x="1914" y="-757.5" font-family="FreeSans" font-size="10.00">SeeSawN::GeometryN</text>
<text text-anchor="start" x="1914" y="-746.5" font-family="FreeSans" font-size="10.00">::RotationRegistrationPipeline</text>
<text text-anchor="middle" x="1979.5" y="-735.5" font-family="FreeSans" font-size="10.00">ParametersC</text>
<polyline fill="none" stroke="black" points="1906,-728.5 2053,-728.5 "/>
<text text-anchor="middle" x="1979.5" y="-716.5" font-family="FreeSans" font-size="10.00"> </text>
<polyline fill="none" stroke="black" points="1906,-709.5 2053,-709.5 "/>
<text text-anchor="start" x="1914" y="-697.5" font-family="FreeSans" font-size="10.00">+ RotationRegistrationPipeline</text>
<text text-anchor="start" x="1914" y="-686.5" font-family="FreeSans" font-size="10.00">ParametersC()</text>
</a>
</g>
</g>
<!-- Node3&#45;&gt;Node23 -->
<g id="edge46" class="edge"><title>Node3&#45;&gt;Node23</title>
<path fill="none" stroke="#404040" d="M2183.88,-1087.25C2194.23,-1050.95 2205.52,-987.362 2173.5,-948 2149.41,-918.38 2118.81,-954.469 2089.5,-930 2051.87,-898.58 2070.49,-871.299 2047.5,-828 2038.96,-811.91 2028.55,-795.16 2018.48,-779.978"/>
<polygon fill="none" stroke="#404040" points="2018.29,-779.697 2011.62,-776.956 2011.59,-769.745 2018.26,-772.486 2018.29,-779.697"/>
<text text-anchor="middle" x="2125.5" y="-876.5" font-family="FreeSans" font-size="10.00"> +inlierThreshold</text>
</g>
<!-- Node24 -->
<g id="node24" class="node"><title>Node24</title>
<g id="a_node24"><a xlink:href="structSeeSawN_1_1RandomSpanningTreeSamplerN_1_1RandomSpanningTreeSamplerParametersC.html" target="_top" xlink:title="Parameter object for RandomSpanningTreeSamplerC. ">
<polygon fill="white" stroke="black" points="2170,-834 2170,-924 2367,-924 2367,-834 2170,-834"/>
<text text-anchor="start" x="2178" y="-912" font-family="FreeSans" font-size="10.00">SeeSawN::RandomSpanningTree</text>
<text text-anchor="start" x="2178" y="-901" font-family="FreeSans" font-size="10.00">SamplerN::RandomSpanningTreeSampler</text>
<text text-anchor="middle" x="2268.5" y="-890" font-family="FreeSans" font-size="10.00">ParametersC</text>
<polyline fill="none" stroke="black" points="2170,-883 2367,-883 "/>
<text text-anchor="middle" x="2268.5" y="-871" font-family="FreeSans" font-size="10.00"> </text>
<polyline fill="none" stroke="black" points="2170,-864 2367,-864 "/>
<text text-anchor="start" x="2178" y="-852" font-family="FreeSans" font-size="10.00">+ RandomSpanningTreeSampler</text>
<text text-anchor="start" x="2178" y="-841" font-family="FreeSans" font-size="10.00">ParametersC()</text>
</a>
</g>
</g>
<!-- Node3&#45;&gt;Node24 -->
<g id="edge48" class="edge"><title>Node3&#45;&gt;Node24</title>
<path fill="none" stroke="#404040" d="M2197.11,-1112.49C2222.57,-1108.32 2262.82,-1097.37 2281.5,-1069 2307.13,-1030.08 2300.41,-976.353 2289.3,-936.126"/>
<polygon fill="none" stroke="#404040" points="2289.22,-935.879 2283.69,-931.259 2285.82,-924.371 2291.36,-928.991 2289.22,-935.879"/>
<text text-anchor="middle" x="2335" y="-1006" font-family="FreeSans" font-size="10.00"> +minConfidence</text>
</g>
<!-- Node25 -->
<g id="node25" class="node"><title>Node25</title>
<g id="a_node25"><a xlink:href="structSeeSawN_1_1GeometryN_1_1MultiviewPanoramaBuilderParametersC.html" target="_top" xlink:title="Parameters for MultiviewPanoramaBuilderC. ">
<polygon fill="white" stroke="black" points="1450.5,-834 1450.5,-924 1590.5,-924 1590.5,-834 1450.5,-834"/>
<text text-anchor="start" x="1458.5" y="-912" font-family="FreeSans" font-size="10.00">SeeSawN::GeometryN</text>
<text text-anchor="start" x="1458.5" y="-901" font-family="FreeSans" font-size="10.00">::MultiviewPanoramaBuilder</text>
<text text-anchor="middle" x="1520.5" y="-890" font-family="FreeSans" font-size="10.00">ParametersC</text>
<polyline fill="none" stroke="black" points="1450.5,-883 1590.5,-883 "/>
<text text-anchor="middle" x="1520.5" y="-871" font-family="FreeSans" font-size="10.00"> </text>
<polyline fill="none" stroke="black" points="1450.5,-864 1590.5,-864 "/>
<text text-anchor="start" x="1458.5" y="-852" font-family="FreeSans" font-size="10.00">+ MultiviewPanoramaBuilder</text>
<text text-anchor="start" x="1458.5" y="-841" font-family="FreeSans" font-size="10.00">ParametersC()</text>
</a>
</g>
</g>
<!-- Node3&#45;&gt;Node25 -->
<g id="edge56" class="edge"><title>Node3&#45;&gt;Node25</title>
<path fill="none" stroke="#404040" d="M2151.95,-1113.24C2102.97,-1108.95 1989.15,-1096.21 1963.5,-1069 1926.16,-1029.39 1984.93,-984.447 1944.5,-948 1915.99,-922.3 1636.08,-941.644 1599.5,-930 1598.22,-929.594 1596.95,-929.162 1595.67,-928.706"/>
<polygon fill="none" stroke="#404040" points="1595.38,-928.586 1588.31,-930.004 1584.28,-924.023 1591.35,-922.605 1595.38,-928.586"/>
<text text-anchor="middle" x="2013.5" y="-1022.5" font-family="FreeSans" font-size="10.00"> +maxAngularDeviation</text>
<text text-anchor="middle" x="2013.5" y="-1011.5" font-family="FreeSans" font-size="10.00">+binSize</text>
<text text-anchor="middle" x="2013.5" y="-1000.5" font-family="FreeSans" font-size="10.00">+noiseVariance</text>
<text text-anchor="middle" x="2013.5" y="-989.5" font-family="FreeSans" font-size="10.00">+pReject</text>
</g>
<!-- Node4&#45;&gt;Node1 -->
<g id="edge3" class="edge"><title>Node4&#45;&gt;Node1</title>
<path fill="none" stroke="#404040" d="M1934.24,-186.683C1673.35,-161.368 758.617,-72.6087 434.457,-41.1546"/>
<polygon fill="none" stroke="#404040" points="434.192,-41.129 427.834,-44.5308 422.248,-39.9699 428.607,-36.5682 434.192,-41.129"/>
<text text-anchor="middle" x="1505.5" y="-106.5" font-family="FreeSans" font-size="10.00"> +pipelineParameters</text>
</g>
<!-- Node5&#45;&gt;Node4 -->
<g id="edge5" class="edge"><title>Node5&#45;&gt;Node4</title>
<path fill="none" stroke="#404040" d="M1740.09,-276.282C1752.88,-265.555 1768.05,-254.507 1783.5,-247 1826.9,-225.914 1879.36,-213.216 1922.28,-205.707"/>
<polygon fill="none" stroke="#404040" points="1922.28,-205.707 1927.54,-200.77 1934.12,-203.724 1928.86,-208.66 1922.28,-205.707"/>
<text text-anchor="middle" x="1839" y="-250" font-family="FreeSans" font-size="10.00"> +visionGraphParameters</text>
</g>
<!-- Node6&#45;&gt;Node5 -->
<g id="edge6" class="edge"><title>Node6&#45;&gt;Node5</title>
<path fill="none" stroke="#404040" d="M1626.57,-403.091C1626.38,-389.583 1628.23,-375.118 1634.5,-363 1636.14,-359.83 1638.08,-356.809 1640.24,-353.936"/>
<polygon fill="none" stroke="#404040" points="1640.42,-353.731 1641.39,-346.586 1648.36,-344.738 1647.39,-351.883 1640.42,-353.731"/>
<text text-anchor="start" x="1634.5" y="-377" font-family="FreeSans" font-size="10.00"> +geometryEstimationPipeline</text>
<text text-anchor="middle" x="1699" y="-366" font-family="FreeSans" font-size="10.00">Parameters</text>
</g>
<!-- Node7 -->
<g id="node7" class="node"><title>Node7</title>
<g id="a_node7"><a xlink:href="structSeeSawN_1_1GeometryN_1_1GeometryEstimatorParametersC.html" target="_top" xlink:title="Parameters for GeometryEstimatorC. ">
<polygon fill="white" stroke="black" points="1932,-552.5 1932,-620.5 2093,-620.5 2093,-552.5 1932,-552.5"/>
<text text-anchor="start" x="1940" y="-608.5" font-family="FreeSans" font-size="10.00">SeeSawN::GeometryN</text>
<text text-anchor="middle" x="2012.5" y="-597.5" font-family="FreeSans" font-size="10.00">::GeometryEstimatorParametersC</text>
<polyline fill="none" stroke="black" points="1932,-590.5 2093,-590.5 "/>
<text text-anchor="middle" x="2012.5" y="-578.5" font-family="FreeSans" font-size="10.00"> </text>
<polyline fill="none" stroke="black" points="1932,-571.5 2093,-571.5 "/>
<text text-anchor="middle" x="2012.5" y="-559.5" font-family="FreeSans" font-size="10.00"> </text>
</a>
</g>
</g>
<!-- Node7&#45;&gt;Node4 -->
<g id="edge44" class="edge"><title>Node7&#45;&gt;Node4</title>
<path fill="none" stroke="#404040" d="M2042.31,-552.379C2046.08,-546.597 2049.36,-540.379 2051.5,-534 2054.61,-524.731 2052.52,-521.724 2051.5,-512 2045.47,-454.61 2033.54,-441.993 2024.5,-385 2016.71,-335.87 2011.17,-279.078 2007.92,-240.574"/>
<polygon fill="none" stroke="#404040" points="2007.92,-240.461 2003.44,-234.809 2006.93,-228.501 2011.41,-234.154 2007.92,-240.461"/>
<text text-anchor="middle" x="2094.5" y="-371.5" font-family="FreeSans" font-size="10.00"> +geometryEstimatorParameters</text>
</g>
<!-- Node7&#45;&gt;Node6 -->
<g id="edge8" class="edge"><title>Node7&#45;&gt;Node6</title>
<path fill="none" stroke="#404040" d="M1931.75,-574.486C1867.68,-564.823 1784,-549.87 1753.5,-534 1740.95,-527.471 1741.61,-520.76 1730.5,-512 1725.66,-508.182 1720.58,-504.379 1715.39,-500.643"/>
<polygon fill="none" stroke="#404040" points="1715.12,-500.455 1707.92,-500.276 1705.31,-493.552 1712.52,-493.732 1715.12,-500.455"/>
<text text-anchor="middle" x="1823.5" y="-520.5" font-family="FreeSans" font-size="10.00"> +geometryEstimatorParameters</text>
</g>
<!-- Node8&#45;&gt;Node4 -->
<g id="edge53" class="edge"><title>Node8&#45;&gt;Node4</title>
<path fill="none" stroke="#404040" d="M2499.5,-844.98C2499.5,-814.091 2499.5,-766.67 2499.5,-725.5 2499.5,-725.5 2499.5,-725.5 2499.5,-309.5 2499.5,-225.876 2227.83,-203.588 2087.01,-197.652"/>
<polygon fill="none" stroke="#404040" points="2086.62,-197.636 2080.47,-201.394 2074.63,-197.158 2080.79,-193.4 2086.62,-197.636"/>
<text text-anchor="middle" x="2560" y="-520.5" font-family="FreeSans" font-size="10.00"> +krkRefinementParameters</text>
</g>
<!-- Node8&#45;&gt;Node7 -->
<g id="edge9" class="edge"><title>Node8&#45;&gt;Node7</title>
<path fill="none" stroke="#404040" d="M2443.11,-844.769C2432.13,-838.844 2420.59,-832.981 2409.5,-828 2360.52,-805.994 2346.35,-805.24 2295.5,-788 2271.14,-779.742 2260.01,-786.756 2240.5,-770 2206.12,-740.476 2226.58,-711.01 2194.5,-679 2169.31,-653.862 2135.8,-634.348 2104.4,-619.921"/>
<polygon fill="none" stroke="#404040" points="2104.36,-619.905 2097.26,-621.122 2093.4,-615.029 2100.51,-613.812 2104.36,-619.905"/>
<text text-anchor="middle" x="2276.5" y="-722" font-family="FreeSans" font-size="10.00"> +pdlParameters</text>
</g>
<!-- Node9 -->
<g id="node9" class="node"><title>Node9</title>
<g id="a_node9"><a xlink:href="classbool.html" target="_top" xlink:title="{bool\n||}">
<polygon fill="white" stroke="black" points="451,-1087.5 451,-1144.5 486,-1144.5 486,-1087.5 451,-1087.5"/>
<text text-anchor="middle" x="468.5" y="-1132.5" font-family="FreeSans" font-size="10.00">bool</text>
<polyline fill="none" stroke="black" points="451,-1125.5 486,-1125.5 "/>
<text text-anchor="middle" x="468.5" y="-1113.5" font-family="FreeSans" font-size="10.00"> </text>
<polyline fill="none" stroke="black" points="451,-1106.5 486,-1106.5 "/>
<text text-anchor="middle" x="468.5" y="-1094.5" font-family="FreeSans" font-size="10.00"> </text>
</a>
</g>
</g>
<!-- Node9&#45;&gt;Node1 -->
<g id="edge60" class="edge"><title>Node9&#45;&gt;Node1</title>
<path fill="none" stroke="#404040" d="M450.684,-1114.32C395.933,-1111.9 231.436,-1101.98 191.5,-1069 122.433,-1011.96 121.5,-969.576 121.5,-880 121.5,-880 121.5,-880 121.5,-193.5 121.5,-131.774 179.421,-88.9897 232.609,-62.714"/>
<polygon fill="none" stroke="#404040" points="232.681,-62.6797 236.377,-56.4877 243.514,-57.5176 239.819,-63.7096 232.681,-62.6797"/>
<text text-anchor="middle" x="151.5" y="-520.5" font-family="FreeSans" font-size="10.00"> +flagVerbose</text>
</g>
<!-- Node9&#45;&gt;Node4 -->
<g id="edge52" class="edge"><title>Node9&#45;&gt;Node4</title>
<path fill="none" stroke="#404040" d="M450.602,-1111.43C425.06,-1105.7 377.489,-1092.62 343.5,-1069 252.654,-1005.86 181.5,-990.635 181.5,-880 181.5,-880 181.5,-880 181.5,-649 181.5,-510.456 188.934,-437.878 305.5,-363 442.733,-274.846 1600.11,-214.451 1921.83,-199.253"/>
<polygon fill="none" stroke="#404040" points="1922.28,-199.232 1928.09,-194.955 1934.27,-198.668 1928.46,-202.946 1922.28,-199.232"/>
<text text-anchor="middle" x="240.5" y="-595" font-family="FreeSans" font-size="10.00"> +flagKnownF</text>
<text text-anchor="middle" x="240.5" y="-584" font-family="FreeSans" font-size="10.00">+flagInitialEstimate</text>
<text text-anchor="middle" x="240.5" y="-573" font-family="FreeSans" font-size="10.00">+flagUniformFocalLength</text>
</g>
<!-- Node9&#45;&gt;Node5 -->
<g id="edge42" class="edge"><title>Node9&#45;&gt;Node5</title>
<path fill="none" stroke="#404040" d="M450.839,-1111.68C429.351,-1106.59 393.914,-1094.64 377.5,-1069 319.745,-978.767 360.848,-934.499 372.5,-828 381.926,-741.847 368.11,-708.039 420.5,-639 460.104,-586.81 479.925,-579.262 539.5,-552 908.515,-383.138 1397.35,-331.828 1605.16,-317.084"/>
<polygon fill="none" stroke="#404040" points="1605.27,-317.077 1610.98,-312.671 1617.24,-316.246 1611.53,-320.652 1605.27,-317.077"/>
<text text-anchor="middle" x="455.5" y="-647.5" font-family="FreeSans" font-size="10.00"> +flagConnected</text>
</g>
<!-- Node9&#45;&gt;Node6 -->
<g id="edge27" class="edge"><title>Node9&#45;&gt;Node6</title>
<path fill="none" stroke="#404040" d="M450.843,-1103.66C439.872,-1095.5 426.713,-1083.42 420.5,-1069 351.217,-908.246 356.33,-807.22 475.5,-679 567.151,-580.388 621.897,-591.819 750.5,-552 1033.01,-464.527 1387.35,-450.576 1547.68,-449.091"/>
<polygon fill="none" stroke="#404040" points="1547.81,-449.09 1553.78,-445.045 1559.81,-449 1553.84,-453.045 1547.81,-449.09"/>
<text text-anchor="middle" x="512" y="-727.5" font-family="FreeSans" font-size="10.00"> +flagCovariance</text>
<text text-anchor="middle" x="512" y="-716.5" font-family="FreeSans" font-size="10.00">+flagVerbose</text>
</g>
<!-- Node9&#45;&gt;Node8 -->
<g id="edge11" class="edge"><title>Node9&#45;&gt;Node8</title>
<path fill="none" stroke="#404040" d="M486.256,-1111.18C517.062,-1104.76 582.489,-1092 638.5,-1087 671.982,-1084.01 1823.12,-1091.04 1848.5,-1069 1889.61,-1033.31 1826.76,-984.107 1867.5,-948 1888.68,-929.232 2348.83,-935.919 2376.5,-930 2390.5,-927.005 2404.95,-922.521 2418.8,-917.445"/>
<polygon fill="none" stroke="#404040" points="2419.06,-917.345 2423.24,-911.467 2430.27,-913.063 2426.1,-918.94 2419.06,-917.345"/>
<text text-anchor="middle" x="1904" y="-1006" font-family="FreeSans" font-size="10.00"> +flagCovariance</text>
</g>
<!-- Node9&#45;&gt;Node13 -->
<g id="edge21" class="edge"><title>Node9&#45;&gt;Node13</title>
<path fill="none" stroke="#404040" d="M486.35,-1111.95C517.299,-1106.69 582.934,-1095.64 638.5,-1087 665.796,-1082.76 739.308,-1085.45 761.5,-1069 809.255,-1033.6 769.065,-981.015 818.5,-948 853.836,-924.401 1159,-939.132 1200.5,-930 1201.39,-929.805 1202.27,-929.604 1203.16,-929.398"/>
<polygon fill="none" stroke="#404040" points="1203.17,-929.395 1207.99,-924.031 1214.8,-926.416 1209.98,-931.78 1203.17,-929.395"/>
<text text-anchor="middle" x="850.5" y="-1017" font-family="FreeSans" font-size="10.00"> +flagHistory</text>
<text text-anchor="middle" x="850.5" y="-1006" font-family="FreeSans" font-size="10.00">+flagWaldSAC</text>
<text text-anchor="middle" x="850.5" y="-995" font-family="FreeSans" font-size="10.00">+flagPROSAC</text>
</g>
<!-- Node9&#45;&gt;Node17 -->
<g id="edge31" class="edge"><title>Node9&#45;&gt;Node17</title>
<path fill="none" stroke="#404040" d="M456.554,-1087.32C434.558,-1031.58 395.153,-904.593 455.5,-828 523.681,-741.463 590.047,-798.374 696.5,-770 716.6,-764.642 738.094,-758.565 758.404,-752.661"/>
<polygon fill="none" stroke="#404040" points="758.687,-752.579 763.324,-747.056 770.205,-749.212 765.568,-754.735 758.687,-752.579"/>
<text text-anchor="middle" x="493.5" y="-882" font-family="FreeSans" font-size="10.00"> +flagBucketFilter</text>
<text text-anchor="middle" x="493.5" y="-871" font-family="FreeSans" font-size="10.00">+flagStatic</text>
</g>
<!-- Node9&#45;&gt;Node21 -->
<g id="edge39" class="edge"><title>Node9&#45;&gt;Node21</title>
<path fill="none" stroke="#404040" d="M486.232,-1108.33C503.335,-1101.06 528.866,-1087.89 544.5,-1069 581.079,-1024.8 543.51,-982.307 589.5,-948 637.345,-912.31 799.501,-944.107 857.5,-930 870.133,-926.927 883.13,-922.567 895.634,-917.688"/>
<polygon fill="none" stroke="#404040" points="895.838,-917.605 899.889,-911.638 906.954,-913.083 902.903,-919.049 895.838,-917.605"/>
<text text-anchor="middle" x="638" y="-1006" font-family="FreeSans" font-size="10.00"> +flagConsistencyTest</text>
</g>
<!-- Node9&#45;&gt;Node23 -->
<g id="edge50" class="edge"><title>Node9&#45;&gt;Node23</title>
<path fill="none" stroke="#404040" d="M478.288,-1087.2C490.929,-1051.09 513.45,-986.032 531.5,-930 546.028,-884.901 526.189,-858.438 562.5,-828 591.059,-804.06 858.34,-790.804 895.5,-788 1152.23,-768.628 1217.5,-785.306 1474.5,-770 1622.09,-761.21 1793.45,-744.793 1893.82,-734.545"/>
<polygon fill="none" stroke="#404040" points="1894.06,-734.52 1899.62,-729.929 1906,-733.296 1900.44,-737.887 1894.06,-734.52"/>
<text text-anchor="middle" x="601" y="-876.5" font-family="FreeSans" font-size="10.00"> +flagWeightedLS</text>
</g>
<!-- Node9&#45;&gt;Node25 -->
<g id="edge58" class="edge"><title>Node9&#45;&gt;Node25</title>
<path fill="none" stroke="#404040" d="M486.292,-1111.53C517.153,-1105.63 582.66,-1093.64 638.5,-1087 665.494,-1083.79 861.998,-1086.85 882.5,-1069 923.984,-1032.88 866.305,-983.287 908.5,-948 953.87,-910.057 1383.93,-947.264 1440.5,-930 1441.79,-929.606 1443.08,-929.185 1444.38,-928.739"/>
<polygon fill="none" stroke="#404040" points="1444.77,-928.582 1448.86,-922.641 1455.91,-924.13 1451.83,-930.071 1444.77,-928.582"/>
<text text-anchor="middle" x="937.5" y="-1006" font-family="FreeSans" font-size="10.00"> +flagFiltering</text>
</g>
<!-- Node10 -->
<g id="node10" class="node"><title>Node10</title>
<polygon fill="white" stroke="#bfbfbf" points="2789.5,-1087.5 2789.5,-1144.5 2857.5,-1144.5 2857.5,-1087.5 2789.5,-1087.5"/>
<text text-anchor="middle" x="2823.5" y="-1132.5" font-family="FreeSans" font-size="10.00">unsigned int</text>
<polyline fill="none" stroke="#bfbfbf" points="2789.5,-1125.5 2857.5,-1125.5 "/>
<text text-anchor="middle" x="2823.5" y="-1113.5" font-family="FreeSans" font-size="10.00"> </text>
<polyline fill="none" stroke="#bfbfbf" points="2789.5,-1106.5 2857.5,-1106.5 "/>
<text text-anchor="middle" x="2823.5" y="-1094.5" font-family="FreeSans" font-size="10.00"> </text>
</g>
<!-- Node10&#45;&gt;Node8 -->
<g id="edge12" class="edge"><title>Node10&#45;&gt;Node8</title>
<path fill="none" stroke="#404040" d="M2789.44,-1090.3C2733.73,-1049.89 2622.59,-969.28 2555.26,-920.443"/>
<polygon fill="none" stroke="#404040" points="2554.96,-920.228 2547.76,-919.943 2545.25,-913.183 2552.45,-913.467 2554.96,-920.228"/>
<text text-anchor="middle" x="2784.5" y="-1006" font-family="FreeSans" font-size="10.00"> +maxIteration</text>
</g>
<!-- Node11&#45;&gt;Node7 -->
<g id="edge13" class="edge"><title>Node11&#45;&gt;Node7</title>
<path fill="none" stroke="#404040" d="M1446.7,-690.374C1485.97,-672.407 1537.01,-651.398 1584.5,-639 1697.58,-609.479 1831.96,-596.811 1919.57,-591.419"/>
<polygon fill="none" stroke="#404040" points="1919.64,-591.415 1925.39,-587.068 1931.62,-590.706 1925.87,-595.054 1919.64,-591.415"/>
<text text-anchor="middle" x="1628.5" y="-647.5" font-family="FreeSans" font-size="10.00"> +ransacParameters</text>
</g>
<!-- Node12 -->
<g id="node12" class="node"><title>Node12</title>
<polygon fill="white" stroke="#bfbfbf" points="1099,-1087.5 1099,-1144.5 1128,-1144.5 1128,-1087.5 1099,-1087.5"/>
<text text-anchor="middle" x="1113.5" y="-1132.5" font-family="FreeSans" font-size="10.00">int</text>
<polyline fill="none" stroke="#bfbfbf" points="1099,-1125.5 1128,-1125.5 "/>
<text text-anchor="middle" x="1113.5" y="-1113.5" font-family="FreeSans" font-size="10.00"> </text>
<polyline fill="none" stroke="#bfbfbf" points="1099,-1106.5 1128,-1106.5 "/>
<text text-anchor="middle" x="1113.5" y="-1094.5" font-family="FreeSans" font-size="10.00"> </text>
</g>
<!-- Node12&#45;&gt;Node1 -->
<g id="edge59" class="edge"><title>Node12&#45;&gt;Node1</title>
<path fill="none" stroke="#404040" d="M1098.94,-1113.91C1010.31,-1107.24 546.946,-1072.25 540.5,-1069 471.43,-1034.15 319.5,-877.365 319.5,-800 319.5,-800 319.5,-800 319.5,-193.5 319.5,-151.401 319.5,-103.204 319.5,-70.1055"/>
<polygon fill="none" stroke="#404040" points="319.5,-69.7722 315.5,-63.7723 319.5,-57.7722 323.5,-63.7722 319.5,-69.7722"/>
<text text-anchor="middle" x="343" y="-526" font-family="FreeSans" font-size="10.00"> +seed</text>
<text text-anchor="middle" x="343" y="-515" font-family="FreeSans" font-size="10.00">+nThreads</text>
</g>
<!-- Node12&#45;&gt;Node5 -->
<g id="edge41" class="edge"><title>Node12&#45;&gt;Node5</title>
<path fill="none" stroke="#404040" d="M1110.82,-1087.24C1101.64,-986.175 1075.25,-639.279 1136.5,-552 1244.93,-397.494 1473.22,-341.759 1605.31,-322.014"/>
<polygon fill="none" stroke="#404040" points="1605.51,-321.984 1610.88,-317.167 1617.39,-320.268 1612.03,-325.085 1605.51,-321.984"/>
<text text-anchor="middle" x="1152" y="-653" font-family="FreeSans" font-size="10.00"> +loGeneratorRatio1</text>
<text text-anchor="middle" x="1152" y="-642" font-family="FreeSans" font-size="10.00">+loGeneratorRatio2</text>
</g>
<!-- Node12&#45;&gt;Node6 -->
<g id="edge26" class="edge"><title>Node12&#45;&gt;Node6</title>
<path fill="none" stroke="#404040" d="M1098.77,-1115.06C1040.52,-1114.97 827.138,-1111.7 778.5,-1069 736.611,-1032.22 788.368,-983.63 745.5,-948 708.118,-916.929 560.427,-965.758 527.5,-930 496.792,-896.652 512.252,-870.692 527.5,-828 556.289,-747.398 577.438,-725.179 649.5,-679 940.78,-492.34 1367.26,-457.073 1547.76,-450.719"/>
<polygon fill="none" stroke="#404040" points="1547.81,-450.718 1553.68,-446.524 1559.81,-450.326 1553.94,-454.519 1547.81,-450.718"/>
<text text-anchor="middle" x="705.5" y="-733" font-family="FreeSans" font-size="10.00"> +maxObservationDensity</text>
<text text-anchor="middle" x="705.5" y="-722" font-family="FreeSans" font-size="10.00">+nThreads</text>
<text text-anchor="middle" x="705.5" y="-711" font-family="FreeSans" font-size="10.00">+maxIteration</text>
</g>
<!-- Node12&#45;&gt;Node11 -->
<g id="edge15" class="edge"><title>Node12&#45;&gt;Node11</title>
<path fill="none" stroke="#404040" d="M1114.37,-1087.03C1116.88,-1023.09 1126.01,-868.583 1156.5,-828 1186.7,-787.809 1236.42,-762.893 1281.27,-747.708"/>
<polygon fill="none" stroke="#404040" points="1281.43,-747.655 1285.91,-742.002 1292.85,-743.961 1288.37,-749.613 1281.43,-747.655"/>
<text text-anchor="middle" x="1181" y="-876.5" font-family="FreeSans" font-size="10.00"> +nThreads</text>
</g>
<!-- Node12&#45;&gt;Node13 -->
<g id="edge20" class="edge"><title>Node12&#45;&gt;Node13</title>
<path fill="none" stroke="#404040" d="M1128.16,-1090.31C1131.66,-1083.58 1135.07,-1076.17 1137.5,-1069 1155,-1017.3 1124.36,-990.583 1158.5,-948 1159.03,-947.342 1178.28,-939.267 1203.46,-928.896"/>
<polygon fill="none" stroke="#404040" points="1203.48,-928.888 1207.51,-922.907 1214.58,-924.325 1210.55,-930.306 1203.48,-928.888"/>
<text text-anchor="middle" x="1191.5" y="-1028" font-family="FreeSans" font-size="10.00"> +minIteration</text>
<text text-anchor="middle" x="1191.5" y="-1017" font-family="FreeSans" font-size="10.00">+maxSolution</text>
<text text-anchor="middle" x="1191.5" y="-1006" font-family="FreeSans" font-size="10.00">+nLOIterations</text>
<text text-anchor="middle" x="1191.5" y="-995" font-family="FreeSans" font-size="10.00">+nThreads</text>
<text text-anchor="middle" x="1191.5" y="-984" font-family="FreeSans" font-size="10.00">+maxIteration</text>
</g>
<!-- Node12&#45;&gt;Node16 -->
<g id="edge25" class="edge"><title>Node12&#45;&gt;Node16</title>
<path fill="none" stroke="#404040" d="M1128.33,-1115.34C1190.08,-1116.45 1425.98,-1117.42 1477.5,-1069 1517.39,-1031.51 1461.64,-986.553 1500.5,-948 1532.25,-916.504 1557.22,-944.583 1599.5,-930 1600.78,-929.559 1602.06,-929.104 1603.34,-928.634"/>
<polygon fill="none" stroke="#404040" points="1603.77,-928.465 1607.88,-922.543 1614.93,-924.063 1610.82,-929.985 1603.77,-928.465"/>
<text text-anchor="middle" x="1525" y="-1006" font-family="FreeSans" font-size="10.00"> +nThreads</text>
</g>
<!-- Node12&#45;&gt;Node17 -->
<g id="edge30" class="edge"><title>Node12&#45;&gt;Node17</title>
<path fill="none" stroke="#404040" d="M1098.92,-1115.26C1042.32,-1115.91 838.261,-1114.99 798.5,-1069 763.458,-1028.47 793.403,-880.195 805.5,-828 810.075,-808.261 818.131,-787.47 826.042,-769.812"/>
<polygon fill="none" stroke="#404040" points="826.143,-769.593 825.033,-762.468 831.183,-758.703 832.293,-765.828 826.143,-769.593"/>
<text text-anchor="middle" x="834" y="-882" font-family="FreeSans" font-size="10.00"> +nThreads</text>
<text text-anchor="middle" x="834" y="-871" font-family="FreeSans" font-size="10.00">+minQuorum</text>
</g>
<!-- Node12&#45;&gt;Node21 -->
<g id="edge38" class="edge"><title>Node12&#45;&gt;Node21</title>
<path fill="none" stroke="#404040" d="M1098.76,-1114.54C1071.54,-1112.82 1013.7,-1104.88 986.5,-1069 969.953,-1047.17 969.008,-973.783 970.37,-925.141"/>
<polygon fill="none" stroke="#404040" points="970.373,-925.044 966.573,-918.915 970.769,-913.051 974.569,-919.18 970.373,-925.044"/>
<text text-anchor="middle" x="1037" y="-1011.5" font-family="FreeSans" font-size="10.00"> +neighbourhoodSize21</text>
<text text-anchor="middle" x="1037" y="-1000.5" font-family="FreeSans" font-size="10.00">+neighbourhoodSize12</text>
</g>
<!-- Node12&#45;&gt;Node24 -->
<g id="edge49" class="edge"><title>Node12&#45;&gt;Node24</title>
<path fill="none" stroke="#404040" d="M1128.27,-1113.59C1177.4,-1108.95 1339.85,-1094.07 1474.5,-1087 1510.74,-1085.1 2095.3,-1085.74 2127.5,-1069 2186.97,-1038.09 2177.39,-1001.7 2217.5,-948 2220.91,-943.437 2224.45,-938.704 2228,-933.957"/>
<polygon fill="none" stroke="#404040" points="2228.09,-933.845 2228.48,-926.645 2235.28,-924.241 2234.88,-931.441 2228.09,-933.845"/>
<text text-anchor="middle" x="2247.5" y="-1017" font-family="FreeSans" font-size="10.00"> +minIteration</text>
<text text-anchor="middle" x="2247.5" y="-1006" font-family="FreeSans" font-size="10.00">+nThreads</text>
<text text-anchor="middle" x="2247.5" y="-995" font-family="FreeSans" font-size="10.00">+maxIteration</text>
</g>
<!-- Node12&#45;&gt;Node25 -->
<g id="edge57" class="edge"><title>Node12&#45;&gt;Node25</title>
<path fill="none" stroke="#404040" d="M1128.05,-1114.27C1174.76,-1111.61 1319.71,-1100.89 1351.5,-1069 1390.15,-1030.23 1337.34,-988.195 1374.5,-948 1395.14,-925.674 1412.64,-942.187 1440.5,-930 1440.88,-929.834 1441.26,-929.666 1441.64,-929.497"/>
<polygon fill="none" stroke="#404040" points="1441.89,-929.379 1445.57,-923.179 1452.71,-924.194 1449.03,-930.394 1441.89,-929.379"/>
<text text-anchor="middle" x="1426" y="-1006" font-family="FreeSans" font-size="10.00"> +minObservationCount</text>
</g>
<!-- Node13&#45;&gt;Node11 -->
<g id="edge16" class="edge"><title>Node13&#45;&gt;Node11</title>
<path fill="none" stroke="#404040" d="M1341.68,-828.488C1348.55,-809.796 1356.31,-788.649 1363.01,-770.403"/>
<polygon fill="none" stroke="#404040" points="1363.1,-770.15 1361.42,-763.139 1367.24,-758.886 1368.93,-765.897 1363.1,-770.15"/>
<text text-anchor="middle" x="1389" y="-802" font-family="FreeSans" font-size="10.00"> +parameters2</text>
<text text-anchor="middle" x="1389" y="-791" font-family="FreeSans" font-size="10.00">+parameters1</text>
</g>
<!-- Node14 -->
<g id="node14" class="node"><title>Node14</title>
<polygon fill="white" stroke="#bfbfbf" points="1484,-1087.5 1484,-1144.5 1579,-1144.5 1579,-1087.5 1484,-1087.5"/>
<text text-anchor="middle" x="1531.5" y="-1132.5" font-family="FreeSans" font-size="10.00">optional&lt; double &gt;</text>
<polyline fill="none" stroke="#bfbfbf" points="1484,-1125.5 1579,-1125.5 "/>
<text text-anchor="middle" x="1531.5" y="-1113.5" font-family="FreeSans" font-size="10.00"> </text>
<polyline fill="none" stroke="#bfbfbf" points="1484,-1106.5 1579,-1106.5 "/>
<text text-anchor="middle" x="1531.5" y="-1094.5" font-family="FreeSans" font-size="10.00"> </text>
</g>
<!-- Node14&#45;&gt;Node13 -->
<g id="edge18" class="edge"><title>Node14&#45;&gt;Node13</title>
<path fill="none" stroke="#404040" d="M1483.85,-1114.37C1411.45,-1112.3 1279.02,-1103.72 1249.5,-1069 1214.67,-1028.03 1227.88,-997.239 1249.5,-948 1250.68,-945.304 1252.03,-942.668 1253.52,-940.096"/>
<polygon fill="none" stroke="#404040" points="1253.68,-939.865 1253.69,-932.654 1260.35,-929.891 1260.34,-937.102 1253.68,-939.865"/>
<text text-anchor="middle" x="1264.5" y="-1006" font-family="FreeSans" font-size="10.00"> +topN</text>
</g>
<!-- Node14&#45;&gt;Node16 -->
<g id="edge24" class="edge"><title>Node14&#45;&gt;Node16</title>
<path fill="none" stroke="#404040" d="M1579.15,-1113.7C1647.11,-1110.72 1766.66,-1100.96 1793.5,-1069 1828.08,-1027.82 1818.55,-995.589 1793.5,-948 1790.73,-942.741 1787.35,-937.811 1783.53,-933.2"/>
<polygon fill="none" stroke="#404040" points="1783.31,-932.962 1776.3,-931.3 1775.13,-924.184 1782.15,-925.846 1783.31,-932.962"/>
<text text-anchor="middle" x="1832.5" y="-1006" font-family="FreeSans" font-size="10.00"> +alpha</text>
</g>
<!-- Node15 -->
<g id="node15" class="node"><title>Node15</title>
<polygon fill="white" stroke="#bfbfbf" points="1506.5,-1192.5 1506.5,-1249.5 1556.5,-1249.5 1556.5,-1192.5 1506.5,-1192.5"/>
<text text-anchor="middle" x="1531.5" y="-1237.5" font-family="FreeSans" font-size="10.00">optional</text>
<polyline fill="none" stroke="#bfbfbf" points="1506.5,-1230.5 1556.5,-1230.5 "/>
<text text-anchor="middle" x="1531.5" y="-1218.5" font-family="FreeSans" font-size="10.00"> </text>
<polyline fill="none" stroke="#bfbfbf" points="1506.5,-1211.5 1556.5,-1211.5 "/>
<text text-anchor="middle" x="1531.5" y="-1199.5" font-family="FreeSans" font-size="10.00"> </text>
</g>
<!-- Node15&#45;&gt;Node14 -->
<g id="edge19" class="edge"><title>Node15&#45;&gt;Node14</title>
<path fill="none" stroke="orange" d="M1531.5,-1182.29C1531.5,-1169.84 1531.5,-1156.23 1531.5,-1144.68"/>
<polygon fill="orange" stroke="orange" points="1528,-1182.4 1531.5,-1192.4 1535,-1182.4 1528,-1182.4"/>
<text text-anchor="middle" x="1555.5" y="-1166" font-family="FreeSans" font-size="10.00"> &lt; double &gt;</text>
</g>
<!-- Node16&#45;&gt;Node6 -->
<g id="edge22" class="edge"><title>Node16&#45;&gt;Node6</title>
<path fill="none" stroke="#404040" d="M1691.91,-833.775C1688.74,-785.67 1682.54,-706.595 1672.5,-639 1665.78,-593.73 1655.16,-542.967 1646.71,-505.383"/>
<polygon fill="none" stroke="#404040" points="1646.7,-505.369 1641.47,-500.405 1644.04,-493.667 1649.27,-498.631 1646.7,-505.369"/>
<text text-anchor="middle" x="1712" y="-647.5" font-family="FreeSans" font-size="10.00"> +sutParameters</text>
</g>
<!-- Node17&#45;&gt;Node6 -->
<g id="edge28" class="edge"><title>Node17&#45;&gt;Node6</title>
<path fill="none" stroke="#404040" d="M926.66,-694.938C972.086,-678.422 1030.46,-657.344 1082.5,-639 1247.04,-581 1439.96,-515.141 1548.34,-478.337"/>
<polygon fill="none" stroke="#404040" points="1548.48,-478.289 1552.88,-472.572 1559.85,-474.431 1555.45,-480.148 1548.48,-478.289"/>
<text text-anchor="middle" x="1373.5" y="-584" font-family="FreeSans" font-size="10.00"> +matcherParameters</text>
</g>
<!-- Node18&#45;&gt;Node17 -->
<g id="edge32" class="edge"><title>Node18&#45;&gt;Node17</title>
<path fill="none" stroke="#404040" d="M692.036,-850.151C685.553,-831.11 681.258,-806.135 693.5,-788 708.633,-765.581 733.299,-751.202 758.547,-741.98"/>
<polygon fill="none" stroke="#404040" points="758.777,-741.903 763.198,-736.206 770.157,-738.096 765.736,-743.793 758.777,-741.903"/>
<text text-anchor="middle" x="738" y="-796.5" font-family="FreeSans" font-size="10.00"> +bucketDimensions</text>
</g>
<!-- Node19 -->
<g id="node19" class="node"><title>Node19</title>
<g id="a_node19"><a xlink:title="STL class. ">
<polygon fill="white" stroke="#bfbfbf" points="647.5,-1087.5 647.5,-1144.5 725.5,-1144.5 725.5,-1087.5 647.5,-1087.5"/>
<text text-anchor="middle" x="686.5" y="-1132.5" font-family="FreeSans" font-size="10.00">std::array&lt; T &gt;</text>
<polyline fill="none" stroke="#bfbfbf" points="647.5,-1125.5 725.5,-1125.5 "/>
<text text-anchor="middle" x="686.5" y="-1113.5" font-family="FreeSans" font-size="10.00"> </text>
<polyline fill="none" stroke="#bfbfbf" points="647.5,-1106.5 725.5,-1106.5 "/>
<text text-anchor="middle" x="686.5" y="-1094.5" font-family="FreeSans" font-size="10.00"> </text>
</a>
</g>
</g>
<!-- Node19&#45;&gt;Node18 -->
<g id="edge34" class="edge"><title>Node19&#45;&gt;Node18</title>
<path fill="none" stroke="orange" d="M689.413,-1076.96C693.04,-1029.61 699.148,-949.87 702.367,-907.844"/>
<polygon fill="orange" stroke="orange" points="685.91,-1076.88 688.636,-1087.12 692.889,-1077.42 685.91,-1076.88"/>
<text text-anchor="middle" x="728.5" y="-1006" font-family="FreeSans" font-size="10.00"> &lt; double, 2 &gt;</text>
</g>
<!-- Node20 -->
<g id="node20" class="node"><title>Node20</title>
<polygon fill="white" stroke="#bfbfbf" points="672,-1192.5 672,-1249.5 701,-1249.5 701,-1192.5 672,-1192.5"/>
<text text-anchor="middle" x="686.5" y="-1237.5" font-family="FreeSans" font-size="10.00">T</text>
<polyline fill="none" stroke="#bfbfbf" points="672,-1230.5 701,-1230.5 "/>
<text text-anchor="middle" x="686.5" y="-1218.5" font-family="FreeSans" font-size="10.00"> </text>
<polyline fill="none" stroke="#bfbfbf" points="672,-1211.5 701,-1211.5 "/>
<text text-anchor="middle" x="686.5" y="-1199.5" font-family="FreeSans" font-size="10.00"> </text>
</g>
<!-- Node20&#45;&gt;Node19 -->
<g id="edge35" class="edge"><title>Node20&#45;&gt;Node19</title>
<path fill="none" stroke="#404040" d="M686.5,-1192.4C686.5,-1181.55 686.5,-1168.87 686.5,-1157.05"/>
<polygon fill="none" stroke="#404040" points="686.5,-1156.68 682.5,-1150.68 686.5,-1144.68 690.5,-1150.68 686.5,-1156.68"/>
<text text-anchor="middle" x="711" y="-1166" font-family="FreeSans" font-size="10.00"> +elements</text>
</g>
<!-- Node21&#45;&gt;Node17 -->
<g id="edge36" class="edge"><title>Node21&#45;&gt;Node17</title>
<path fill="none" stroke="#404040" d="M945.594,-844.91C927.232,-822.328 902.748,-792.216 882.96,-767.88"/>
<polygon fill="none" stroke="#404040" points="882.924,-767.836 876.035,-765.704 875.354,-758.526 882.242,-760.657 882.924,-767.836"/>
<text text-anchor="middle" x="949.5" y="-796.5" font-family="FreeSans" font-size="10.00"> +nnParameters</text>
</g>
<!-- Node22 -->
<g id="node22" class="node"><title>Node22</title>
<polygon fill="white" stroke="#bfbfbf" points="1867.5,-420 1867.5,-477 1909.5,-477 1909.5,-420 1867.5,-420"/>
<text text-anchor="middle" x="1888.5" y="-465" font-family="FreeSans" font-size="10.00">size_t</text>
<polyline fill="none" stroke="#bfbfbf" points="1867.5,-458 1909.5,-458 "/>
<text text-anchor="middle" x="1888.5" y="-446" font-family="FreeSans" font-size="10.00"> </text>
<polyline fill="none" stroke="#bfbfbf" points="1867.5,-439 1909.5,-439 "/>
<text text-anchor="middle" x="1888.5" y="-427" font-family="FreeSans" font-size="10.00"> </text>
</g>
<!-- Node22&#45;&gt;Node4 -->
<g id="edge54" class="edge"><title>Node22&#45;&gt;Node4</title>
<path fill="none" stroke="#404040" d="M1891.95,-419.922C1897.54,-377.996 1909.27,-300.505 1922.5,-276 1930.13,-261.872 1941.07,-248.671 1952.48,-237.21"/>
<polygon fill="none" stroke="#404040" points="1952.59,-237.104 1954.15,-230.064 1961.25,-228.799 1959.69,-235.838 1952.59,-237.104"/>
<text text-anchor="middle" x="1947" y="-308" font-family="FreeSans" font-size="10.00"> +nThreads</text>
</g>
<!-- Node22&#45;&gt;Node5 -->
<g id="edge43" class="edge"><title>Node22&#45;&gt;Node5</title>
<path fill="none" stroke="#404040" d="M1867.2,-430.975C1851.53,-418.629 1829.84,-401.167 1811.5,-385 1800.89,-375.646 1799.68,-371.665 1788.5,-363 1783.39,-359.04 1777.96,-355.117 1772.42,-351.308"/>
<polygon fill="none" stroke="#404040" points="1772.35,-351.262 1765.14,-351.252 1762.38,-344.592 1769.59,-344.601 1772.35,-351.262"/>
<text text-anchor="middle" x="1853" y="-377" font-family="FreeSans" font-size="10.00"> +minEdgeStrength</text>
<text text-anchor="middle" x="1853" y="-366" font-family="FreeSans" font-size="10.00">+nThreads</text>
</g>
<!-- Node23&#45;&gt;Node4 -->
<g id="edge45" class="edge"><title>Node23&#45;&gt;Node4</title>
<path fill="none" stroke="#404040" d="M2053.03,-681.267C2109.72,-647.481 2178.5,-603.245 2178.5,-587.5 2178.5,-587.5 2178.5,-587.5 2178.5,-309.5 2178.5,-261.308 2131.22,-232.382 2085.96,-215.731"/>
<polygon fill="none" stroke="#404040" points="2085.86,-215.697 2078.88,-217.506 2074.52,-211.758 2081.5,-209.949 2085.86,-215.697"/>
<text text-anchor="middle" x="2250" y="-446" font-family="FreeSans" font-size="10.00"> +rotationRegistrationParameters</text>
</g>
<!-- Node24&#45;&gt;Node4 -->
<g id="edge51" class="edge"><title>Node24&#45;&gt;Node4</title>
<path fill="none" stroke="#404040" d="M2299.67,-833.813C2327.7,-789.677 2364.5,-718.821 2364.5,-651 2364.5,-651 2364.5,-651 2364.5,-309.5 2364.5,-251.582 2193.01,-219.307 2086.75,-204.868"/>
<polygon fill="none" stroke="#404040" points="2086.66,-204.857 2080.19,-208.033 2074.77,-203.278 2081.24,-200.102 2086.66,-204.857"/>
<text text-anchor="start" x="2364.5" y="-526" font-family="FreeSans" font-size="10.00"> +focalLengthRegistration</text>
<text text-anchor="middle" x="2420.5" y="-515" font-family="FreeSans" font-size="10.00">Pipeline</text>
</g>
<!-- Node24&#45;&gt;Node23 -->
<g id="edge47" class="edge"><title>Node24&#45;&gt;Node23</title>
<path fill="none" stroke="#404040" d="M2184.91,-833.891C2146.98,-813.875 2102.19,-790.242 2064.14,-770.161"/>
<polygon fill="none" stroke="#404040" points="2063.69,-769.925 2056.51,-770.662 2053.08,-764.324 2060.25,-763.587 2063.69,-769.925"/>
<text text-anchor="middle" x="2171.5" y="-796.5" font-family="FreeSans" font-size="10.00"> +rstsParameters</text>
</g>
<!-- Node25&#45;&gt;Node4 -->
<g id="edge55" class="edge"><title>Node25&#45;&gt;Node4</title>
<path fill="none" stroke="#404040" d="M1516.04,-833.896C1513.23,-781.077 1516.96,-692.988 1564.5,-639 1665.93,-523.805 1772.3,-628.175 1893.5,-534 1940.58,-497.418 1979.71,-323.924 1996.16,-240.504"/>
<polygon fill="none" stroke="#404040" points="1996.17,-240.418 1993.39,-233.765 1998.46,-228.638 2001.24,-235.291 1996.17,-240.418"/>
<text text-anchor="middle" x="1978.5" y="-520.5" font-family="FreeSans" font-size="10.00"> +panoramaBuilderParameters</text>
</g>
</g>
</svg>
        <g id="navigator" transform="translate(0 0)" fill="#404254">
                <rect fill="#f2f5e9" fill-opacity="0.5" stroke="#606060" stroke-width=".5" x="0" y="0" width="60" height="60"/>
                <use id="zoomplus" xlink:href="#zoomPlus" x="17" y="9" onmousedown="handleZoom(evt,'in')"/>
                <use id="zoomminus" xlink:href="#zoomMin" x="42" y="9" onmousedown="handleZoom(evt,'out')"/>
                <use id="reset" xlink:href="#resetDef" x="30" y="36" onmousedown="handleReset()"/>
                <g id="arrowUp" xlink:href="#dirArrow" transform="translate(30 24)" onmousedown="handlePan(0,-1)">
                  <use xlink:href="#rim" fill="#404040">
                        <set attributeName="fill" to="#808080" begin="arrowUp.mouseover" end="arrowUp.mouseout"/>
                  </use>
                  <path fill="none" stroke="white" stroke-width="1.5" d="M0,-3.0v7 M-2.5,-0.5L0,-3.0L2.5,-0.5"/>
                </g>
                <g id="arrowRight" xlink:href="#dirArrow" transform="rotate(90) translate(36 -43)" onmousedown="handlePan(1,0)">
                  <use xlink:href="#rim" fill="#404040">
                        <set attributeName="fill" to="#808080" begin="arrowRight.mouseover" end="arrowRight.mouseout"/>
                  </use>
                  <path fill="none" stroke="white" stroke-width="1.5" d="M0,-3.0v7 M-2.5,-0.5L0,-3.0L2.5,-0.5"/>
                </g>
                <g id="arrowDown" xlink:href="#dirArrow" transform="rotate(180) translate(-30 -48)" onmousedown="handlePan(0,1)">
                  <use xlink:href="#rim" fill="#404040">
                        <set attributeName="fill" to="#808080" begin="arrowDown.mouseover" end="arrowDown.mouseout"/>
                  </use>
                  <path fill="none" stroke="white" stroke-width="1.5" d="M0,-3.0v7 M-2.5,-0.5L0,-3.0L2.5,-0.5"/>
                </g>
                <g id="arrowLeft" xlink:href="#dirArrow" transform="rotate(270) translate(-36 17)" onmousedown="handlePan(-1,0)">
                  <use xlink:href="#rim" fill="#404040">
                        <set attributeName="fill" to="#808080" begin="arrowLeft.mouseover" end="arrowLeft.mouseout"/>
                  </use>
                  <path fill="none" stroke="white" stroke-width="1.5" d="M0,-3.0v7 M-2.5,-0.5L0,-3.0L2.5,-0.5"/>
                </g>
        </g>
        <svg viewBox="0 0 15 15" width="100%" height="30px" preserveAspectRatio="xMaxYMin meet">
         <g id="arrow_out" transform="scale(0.3 0.3)">
          <a xlink:href="structSeeSawN_1_1AppPfMN_1_1AppPfMParametersC__coll__graph_org.svg" target="_base">
           <rect id="button" ry="5" rx="5" y="6" x="6" height="38" width="38"
                fill="#f2f5e9" fill-opacity="0.5" stroke="#606060" stroke-width="1.0"/>
           <path id="arrow"
             d="M 11.500037,31.436501 C 11.940474,20.09759 22.043105,11.32322 32.158766,21.979434 L 37.068811,17.246167 C 37.068811,17.246167 37.088388,32 37.088388,32 L 22.160133,31.978069 C 22.160133,31.978069 26.997745,27.140456 26.997745,27.140456 C 18.528582,18.264221 13.291696,25.230495 11.500037,31.436501 z"
             style="fill:#404040;"/>
          </a>
         </g>
        </svg>
</svg>
