<?xml version="1.0" encoding="UTF-8" standalone="no"?>
<!DOCTYPE svg PUBLIC "-//W3C//DTD SVG 1.1//EN"
 "http://www.w3.org/Graphics/SVG/1.1/DTD/svg11.dtd">
<!-- Generated by graphviz version 2.38.0 (20140413.2041)
 -->
<!-- Title: SeeSawN::GeometryN::PfMPipelineParametersC Pages: 1 -->
<svg width="2545pt" height="1098pt"
 viewBox="0.00 0.00 2545.49 1098.00" xmlns="http://www.w3.org/2000/svg" xmlns:xlink="http://www.w3.org/1999/xlink">
<g id="graph0" class="graph" transform="scale(1 1) rotate(0) translate(4 1094)">
<title>SeeSawN::GeometryN::PfMPipelineParametersC</title>
<polygon fill="white" stroke="none" points="-4,4 -4,-1094 2541.49,-1094 2541.49,4 -4,4"/>
<!-- Node1 -->
<g id="node1" class="node"><title>Node1</title>
<polygon fill="#bfbfbf" stroke="black" points="1737.49,-0.5 1737.49,-68.5 1877.49,-68.5 1877.49,-0.5 1737.49,-0.5"/>
<text text-anchor="start" x="1745.49" y="-56.5" font-family="FreeSans" font-size="10.00">SeeSawN::GeometryN</text>
<text text-anchor="middle" x="1807.49" y="-45.5" font-family="FreeSans" font-size="10.00">::PfMPipelineParametersC</text>
<polyline fill="none" stroke="black" points="1737.49,-38.5 1877.49,-38.5 "/>
<text text-anchor="middle" x="1807.49" y="-26.5" font-family="FreeSans" font-size="10.00"> </text>
<polyline fill="none" stroke="black" points="1737.49,-19.5 1877.49,-19.5 "/>
<text text-anchor="start" x="1745.49" y="-7.5" font-family="FreeSans" font-size="10.00">+ PfMPipelineParametersC()</text>
</g>
<!-- Node2 -->
<g id="node2" class="node"><title>Node2</title>
<polygon fill="white" stroke="#bfbfbf" points="595.994,-927.5 595.994,-984.5 640.994,-984.5 640.994,-927.5 595.994,-927.5"/>
<text text-anchor="middle" x="618.494" y="-972.5" font-family="FreeSans" font-size="10.00">double</text>
<polyline fill="none" stroke="#bfbfbf" points="595.994,-965.5 640.994,-965.5 "/>
<text text-anchor="middle" x="618.494" y="-953.5" font-family="FreeSans" font-size="10.00"> </text>
<polyline fill="none" stroke="#bfbfbf" points="595.994,-946.5 640.994,-946.5 "/>
<text text-anchor="middle" x="618.494" y="-934.5" font-family="FreeSans" font-size="10.00"> </text>
</g>
<!-- Node2&#45;&gt;Node1 -->
<g id="edge1" class="edge"><title>Node2&#45;&gt;Node1</title>
<path fill="none" stroke="#404040" d="M595.98,-953.403C489.769,-945.843 43.7207,-913.832 38.4943,-909 -23.9533,-851.259 8.49433,-805.052 8.49433,-720 8.49433,-720 8.49433,-720 8.49433,-149.5 8.49433,-62.296 1372.59,-40.5217 1725.14,-36.3504"/>
<polygon fill="none" stroke="#404040" points="1725.25,-36.3492 1731.2,-32.2795 1737.25,-36.2093 1731.29,-40.279 1725.25,-36.3492"/>
<text text-anchor="middle" x="70.4943" y="-446" font-family="FreeSans" font-size="10.00"> +maxFocalLengthRatioError</text>
<text text-anchor="middle" x="70.4943" y="-435" font-family="FreeSans" font-size="10.00">+noiseVariance</text>
<text text-anchor="middle" x="70.4943" y="-424" font-family="FreeSans" font-size="10.00">+inlierRejectionProbability</text>
<text text-anchor="middle" x="70.4943" y="-413" font-family="FreeSans" font-size="10.00">+geLOGeneratorRatio1</text>
<text text-anchor="middle" x="70.4943" y="-402" font-family="FreeSans" font-size="10.00">+geLOGeneratorRatio2</text>
</g>
<!-- Node3 -->
<g id="node3" class="node"><title>Node3</title>
<g id="a_node3"><a xlink:href="structSeeSawN_1_1GeometryN_1_1VisionGraphPipelineParametersC.html" target="_top" xlink:title="Parameters for the vision graph pipeline. ">
<polygon fill="white" stroke="black" points="1340.49,-116.5 1340.49,-184.5 1516.49,-184.5 1516.49,-116.5 1340.49,-116.5"/>
<text text-anchor="start" x="1348.49" y="-172.5" font-family="FreeSans" font-size="10.00">SeeSawN::GeometryN</text>
<text text-anchor="middle" x="1428.49" y="-161.5" font-family="FreeSans" font-size="10.00">::VisionGraphPipelineParametersC</text>
<polyline fill="none" stroke="black" points="1340.49,-154.5 1516.49,-154.5 "/>
<text text-anchor="middle" x="1428.49" y="-142.5" font-family="FreeSans" font-size="10.00"> </text>
<polyline fill="none" stroke="black" points="1340.49,-135.5 1516.49,-135.5 "/>
<text text-anchor="start" x="1348.49" y="-123.5" font-family="FreeSans" font-size="10.00">+ VisionGraphPipelineParametersC()</text>
</a>
</g>
</g>
<!-- Node2&#45;&gt;Node3 -->
<g id="edge37" class="edge"><title>Node2&#45;&gt;Node3</title>
<path fill="none" stroke="#404040" d="M595.943,-953.524C493.531,-946.771 76.806,-918.732 67.4943,-909 34.4405,-874.456 21.3919,-516.145 51.4943,-479 75.8073,-448.999 107.206,-486.167 136.494,-461 175.751,-427.268 140.174,-387.862 177.494,-352 288.564,-245.27 358.467,-285.611 506.494,-243 578.177,-222.365 595.785,-214.457 669.494,-203 903.46,-166.635 1181.96,-155.946 1327.88,-152.806"/>
<polygon fill="none" stroke="#404040" points="1328.3,-152.797 1334.21,-148.674 1340.29,-152.55 1334.38,-156.673 1328.3,-152.797"/>
<text text-anchor="middle" x="117.994" y="-493" font-family="FreeSans" font-size="10.00"> +initialEstimateNoiseVariance</text>
<text text-anchor="middle" x="117.994" y="-482" font-family="FreeSans" font-size="10.00">+inlierRejectionProbability</text>
</g>
<!-- Node4 -->
<g id="node4" class="node"><title>Node4</title>
<g id="a_node4"><a xlink:href="structSeeSawN_1_1GeometryN_1_1GeometryEstimationPipelineParametersC.html" target="_top" xlink:title="Parameters for GeometryEstimationPipelineC. ">
<polygon fill="white" stroke="black" points="1123.99,-243.5 1123.99,-333.5 1270.99,-333.5 1270.99,-243.5 1123.99,-243.5"/>
<text text-anchor="start" x="1131.99" y="-321.5" font-family="FreeSans" font-size="10.00">SeeSawN::GeometryN</text>
<text text-anchor="start" x="1131.99" y="-310.5" font-family="FreeSans" font-size="10.00">::GeometryEstimationPipeline</text>
<text text-anchor="middle" x="1197.49" y="-299.5" font-family="FreeSans" font-size="10.00">ParametersC</text>
<polyline fill="none" stroke="black" points="1123.99,-292.5 1270.99,-292.5 "/>
<text text-anchor="middle" x="1197.49" y="-280.5" font-family="FreeSans" font-size="10.00"> </text>
<polyline fill="none" stroke="black" points="1123.99,-273.5 1270.99,-273.5 "/>
<text text-anchor="start" x="1131.99" y="-261.5" font-family="FreeSans" font-size="10.00">+ GeometryEstimationPipeline</text>
<text text-anchor="start" x="1131.99" y="-250.5" font-family="FreeSans" font-size="10.00">ParametersC()</text>
</a>
</g>
</g>
<!-- Node2&#45;&gt;Node4 -->
<g id="edge4" class="edge"><title>Node2&#45;&gt;Node4</title>
<path fill="none" stroke="#404040" d="M595.709,-952.893C549.114,-948.092 445.389,-934.712 422.494,-909 402.486,-886.53 391.494,-670.087 391.494,-640 391.494,-640 391.494,-640 391.494,-425.5 391.494,-353.062 904.229,-309.659 1111.8,-295.057"/>
<polygon fill="none" stroke="#404040" points="1111.86,-295.052 1117.57,-290.645 1123.83,-294.218 1118.12,-298.626 1111.86,-295.052"/>
<text text-anchor="middle" x="441.994" y="-600.5" font-family="FreeSans" font-size="10.00"> +maxAmbiguity</text>
<text text-anchor="middle" x="441.994" y="-589.5" font-family="FreeSans" font-size="10.00">+minObservationRatio</text>
<text text-anchor="middle" x="441.994" y="-578.5" font-family="FreeSans" font-size="10.00">+binDensity1</text>
<text text-anchor="middle" x="441.994" y="-567.5" font-family="FreeSans" font-size="10.00">+maxObservationRatio</text>
<text text-anchor="middle" x="441.994" y="-556.5" font-family="FreeSans" font-size="10.00">+binDensity2</text>
<text text-anchor="middle" x="441.994" y="-545.5" font-family="FreeSans" font-size="10.00">+minRelativeDifference</text>
<text text-anchor="middle" x="441.994" y="-534.5" font-family="FreeSans" font-size="10.00">+refreshThreshold</text>
<text text-anchor="middle" x="441.994" y="-523.5" font-family="FreeSans" font-size="10.00">+validationRatio</text>
</g>
<!-- Node6 -->
<g id="node6" class="node"><title>Node6</title>
<g id="a_node6"><a xlink:href="structSeeSawN_1_1OptimisationN_1_1PowellDogLegParametersC.html" target="_top" xlink:title="Parameters for PowellDogLegC. ">
<polygon fill="white" stroke="black" points="82.9943,-685 82.9943,-753 233.994,-753 233.994,-685 82.9943,-685"/>
<text text-anchor="start" x="90.9943" y="-741" font-family="FreeSans" font-size="10.00">SeeSawN::OptimisationN</text>
<text text-anchor="middle" x="158.494" y="-730" font-family="FreeSans" font-size="10.00">::PowellDogLegParametersC</text>
<polyline fill="none" stroke="black" points="82.9943,-723 233.994,-723 "/>
<text text-anchor="middle" x="158.494" y="-711" font-family="FreeSans" font-size="10.00"> </text>
<polyline fill="none" stroke="black" points="82.9943,-704 233.994,-704 "/>
<text text-anchor="start" x="90.9943" y="-692" font-family="FreeSans" font-size="10.00">+ PowellDogLegParametersC()</text>
</a>
</g>
</g>
<!-- Node2&#45;&gt;Node6 -->
<g id="edge7" class="edge"><title>Node2&#45;&gt;Node6</title>
<path fill="none" stroke="#404040" d="M595.936,-953.772C519.217,-949.385 271.746,-933.438 246.494,-909 207.377,-871.142 252.353,-836.429 227.494,-788 222.695,-778.651 216.128,-769.814 208.942,-761.797"/>
<polygon fill="none" stroke="#404040" points="208.925,-761.779 201.887,-760.211 200.627,-753.11 207.666,-754.679 208.925,-761.779"/>
<text text-anchor="middle" x="282.494" y="-868" font-family="FreeSans" font-size="10.00"> +lambdaGrowth</text>
<text text-anchor="middle" x="282.494" y="-857" font-family="FreeSans" font-size="10.00">+delta0</text>
<text text-anchor="middle" x="282.494" y="-846" font-family="FreeSans" font-size="10.00">+epsilon1</text>
<text text-anchor="middle" x="282.494" y="-835" font-family="FreeSans" font-size="10.00">+epsilon2</text>
<text text-anchor="middle" x="282.494" y="-824" font-family="FreeSans" font-size="10.00">+lambdaShrink</text>
</g>
<!-- Node9 -->
<g id="node9" class="node"><title>Node9</title>
<g id="a_node9"><a xlink:href="structSeeSawN_1_1RANSACN_1_1TwoStageRANSACParametersC.html" target="_top" xlink:title="Parameters for TwoStageRANSACC. ">
<polygon fill="white" stroke="black" points="1110.99,-530.5 1110.99,-598.5 1283.99,-598.5 1283.99,-530.5 1110.99,-530.5"/>
<text text-anchor="start" x="1118.99" y="-586.5" font-family="FreeSans" font-size="10.00">SeeSawN::RANSACN::TwoStage</text>
<text text-anchor="middle" x="1197.49" y="-575.5" font-family="FreeSans" font-size="10.00">RANSACParametersC</text>
<polyline fill="none" stroke="black" points="1110.99,-568.5 1283.99,-568.5 "/>
<text text-anchor="middle" x="1197.49" y="-556.5" font-family="FreeSans" font-size="10.00"> </text>
<polyline fill="none" stroke="black" points="1110.99,-549.5 1283.99,-549.5 "/>
<text text-anchor="start" x="1118.99" y="-537.5" font-family="FreeSans" font-size="10.00">+ TwoStageRANSACParametersC()</text>
</a>
</g>
</g>
<!-- Node2&#45;&gt;Node9 -->
<g id="edge11" class="edge"><title>Node2&#45;&gt;Node9</title>
<path fill="none" stroke="#404040" d="M614.918,-927.178C609.099,-868.221 605.237,-730.976 684.494,-668 691.503,-662.431 992.725,-611.797 1001.49,-610 1033.32,-603.478 1067.92,-595.814 1099.07,-588.702"/>
<polygon fill="none" stroke="#404040" points="1099.13,-588.688 1104.09,-583.448 1110.83,-586.006 1105.87,-591.246 1099.13,-588.688"/>
<text text-anchor="middle" x="719.494" y="-722" font-family="FreeSans" font-size="10.00"> +eligibilityRatio</text>
<text text-anchor="middle" x="719.494" y="-711" font-family="FreeSans" font-size="10.00">+minConfidence</text>
</g>
<!-- Node11 -->
<g id="node11" class="node"><title>Node11</title>
<g id="a_node11"><a xlink:href="structSeeSawN_1_1RANSACN_1_1RANSACParametersC.html" target="_top" xlink:title="Parameters for RANSACC. ">
<polygon fill="white" stroke="black" points="1827.99,-668.5 1827.99,-769.5 2044.99,-769.5 2044.99,-668.5 1827.99,-668.5"/>
<text text-anchor="middle" x="1936.49" y="-757.5" font-family="FreeSans" font-size="10.00">SeeSawN::RANSACN::RANSACParametersC</text>
<polyline fill="none" stroke="black" points="1827.99,-750.5 2044.99,-750.5 "/>
<text text-anchor="middle" x="1936.49" y="-738.5" font-family="FreeSans" font-size="10.00"> </text>
<polyline fill="none" stroke="black" points="1827.99,-731.5 2044.99,-731.5 "/>
<text text-anchor="start" x="1835.99" y="-719.5" font-family="FreeSans" font-size="10.00">+ RANSACParametersC()</text>
<text text-anchor="start" x="1835.99" y="-708.5" font-family="FreeSans" font-size="10.00">* minObservationSupport</text>
<text text-anchor="start" x="1835.99" y="-697.5" font-family="FreeSans" font-size="10.00">* delta</text>
<text text-anchor="start" x="1835.99" y="-686.5" font-family="FreeSans" font-size="10.00">* maxDeltaTolerance</text>
<text text-anchor="start" x="1835.99" y="-675.5" font-family="FreeSans" font-size="10.00">* minCoverage</text>
</a>
</g>
</g>
<!-- Node2&#45;&gt;Node11 -->
<g id="edge14" class="edge"><title>Node2&#45;&gt;Node11</title>
<path fill="none" stroke="#404040" d="M641.266,-954.121C795.858,-948.139 1685.42,-913.532 1690.49,-909 1731.1,-872.74 1671.15,-826.644 1709.49,-788 1741.58,-755.663 1767.36,-779.603 1816.05,-770.028"/>
<polygon fill="none" stroke="#404040" points="1816.2,-769.991 1821.08,-764.679 1827.86,-767.138 1822.98,-772.45 1816.2,-769.991"/>
<text text-anchor="middle" x="1754.99" y="-901" font-family="FreeSans" font-size="10.00"> +minModelSimilarity</text>
<text text-anchor="middle" x="1754.99" y="-890" font-family="FreeSans" font-size="10.00">+maxErrorRatio</text>
<text text-anchor="middle" x="1754.99" y="-879" font-family="FreeSans" font-size="10.00">+eligibilityRatio</text>
<text text-anchor="middle" x="1754.99" y="-868" font-family="FreeSans" font-size="10.00">+diversityFactor</text>
<text text-anchor="middle" x="1754.99" y="-857" font-family="FreeSans" font-size="10.00">+growthRate</text>
<text text-anchor="middle" x="1754.99" y="-846" font-family="FreeSans" font-size="10.00">+maxError</text>
<text text-anchor="middle" x="1754.99" y="-835" font-family="FreeSans" font-size="10.00">+parsimonyFactor</text>
<text text-anchor="middle" x="1754.99" y="-824" font-family="FreeSans" font-size="10.00">+minConfidence</text>
<text text-anchor="middle" x="1754.99" y="-813" font-family="FreeSans" font-size="10.00">+epsilon</text>
<text text-anchor="middle" x="1754.99" y="-802" font-family="FreeSans" font-size="10.00">+minError</text>
<text text-anchor="middle" x="1754.99" y="-791" font-family="FreeSans" font-size="10.00">...</text>
</g>
<!-- Node14 -->
<g id="node14" class="node"><title>Node14</title>
<g id="a_node14"><a xlink:href="structSeeSawN_1_1UncertaintyEstimationN_1_1ScaledUnscentedTransformationParametersC.html" target="_top" xlink:title="Parameters for ScaledUncentedTransformationC. ">
<polygon fill="white" stroke="black" points="1479.99,-674 1479.99,-764 1650.99,-764 1650.99,-674 1479.99,-674"/>
<text text-anchor="start" x="1487.99" y="-752" font-family="FreeSans" font-size="10.00">SeeSawN::UncertaintyEstimation</text>
<text text-anchor="start" x="1487.99" y="-741" font-family="FreeSans" font-size="10.00">N::ScaledUnscentedTransformation</text>
<text text-anchor="middle" x="1565.49" y="-730" font-family="FreeSans" font-size="10.00">ParametersC</text>
<polyline fill="none" stroke="black" points="1479.99,-723 1650.99,-723 "/>
<text text-anchor="middle" x="1565.49" y="-711" font-family="FreeSans" font-size="10.00"> </text>
<polyline fill="none" stroke="black" points="1479.99,-704 1650.99,-704 "/>
<text text-anchor="start" x="1487.99" y="-692" font-family="FreeSans" font-size="10.00">+ ScaledUnscentedTransformation</text>
<text text-anchor="start" x="1487.99" y="-681" font-family="FreeSans" font-size="10.00">ParametersC()</text>
</a>
</g>
</g>
<!-- Node2&#45;&gt;Node14 -->
<g id="edge20" class="edge"><title>Node2&#45;&gt;Node14</title>
<path fill="none" stroke="#404040" d="M641.077,-954.933C705.637,-954.257 889.009,-948.8 930.494,-909 969.996,-871.103 911.941,-823.635 953.494,-788 975.31,-769.291 1442.72,-777.378 1470.49,-770 1472.76,-769.399 1475.03,-768.736 1477.3,-768.02"/>
<polygon fill="none" stroke="#404040" points="1477.31,-768.016 1481.64,-762.247 1488.62,-764.023 1484.3,-769.791 1477.31,-768.016"/>
<text text-anchor="middle" x="969.994" y="-851.5" font-family="FreeSans" font-size="10.00"> +beta</text>
<text text-anchor="middle" x="969.994" y="-840.5" font-family="FreeSans" font-size="10.00">+kappa</text>
</g>
<!-- Node15 -->
<g id="node15" class="node"><title>Node15</title>
<g id="a_node15"><a xlink:href="structSeeSawN_1_1MatcherN_1_1FeatureMatcherParametersC.html" target="_top" xlink:title="Parameters of FeatureMatcherC. ">
<polygon fill="white" stroke="black" points="836.494,-530.5 836.494,-598.5 992.494,-598.5 992.494,-530.5 836.494,-530.5"/>
<text text-anchor="start" x="844.494" y="-586.5" font-family="FreeSans" font-size="10.00">SeeSawN::MatcherN::</text>
<text text-anchor="middle" x="914.494" y="-575.5" font-family="FreeSans" font-size="10.00">FeatureMatcherParametersC</text>
<polyline fill="none" stroke="black" points="836.494,-568.5 992.494,-568.5 "/>
<text text-anchor="middle" x="914.494" y="-556.5" font-family="FreeSans" font-size="10.00"> </text>
<polyline fill="none" stroke="black" points="836.494,-549.5 992.494,-549.5 "/>
<text text-anchor="start" x="844.494" y="-537.5" font-family="FreeSans" font-size="10.00">+ FeatureMatcherParametersC()</text>
</a>
</g>
</g>
<!-- Node2&#45;&gt;Node15 -->
<g id="edge26" class="edge"><title>Node2&#45;&gt;Node15</title>
<path fill="none" stroke="#404040" d="M595.694,-934.759C541.197,-884.051 413.401,-749.792 489.494,-668 508.388,-647.691 712.135,-658.638 738.494,-650 755.954,-644.279 757.276,-636.634 773.494,-628 789.878,-619.278 807.726,-610.697 825.046,-602.821"/>
<polygon fill="none" stroke="#404040" points="825.383,-602.669 829.217,-596.561 836.33,-597.752 832.496,-603.859 825.383,-602.669"/>
<text text-anchor="middle" x="549.994" y="-716.5" font-family="FreeSans" font-size="10.00"> +bucketSimilarityThreshold</text>
</g>
<!-- Node16 -->
<g id="node16" class="node"><title>Node16</title>
<polygon fill="white" stroke="#bfbfbf" points="251.994,-690.5 251.994,-747.5 362.994,-747.5 362.994,-690.5 251.994,-690.5"/>
<text text-anchor="middle" x="307.494" y="-735.5" font-family="FreeSans" font-size="10.00">std::array&lt; double, 2 &gt;</text>
<polyline fill="none" stroke="#bfbfbf" points="251.994,-728.5 362.994,-728.5 "/>
<text text-anchor="middle" x="307.494" y="-716.5" font-family="FreeSans" font-size="10.00"> </text>
<polyline fill="none" stroke="#bfbfbf" points="251.994,-709.5 362.994,-709.5 "/>
<text text-anchor="middle" x="307.494" y="-697.5" font-family="FreeSans" font-size="10.00"> </text>
</g>
<!-- Node2&#45;&gt;Node16 -->
<g id="edge30" class="edge"><title>Node2&#45;&gt;Node16</title>
<path fill="none" stroke="#404040" d="M595.798,-954.4C536.838,-952.358 380.95,-943.722 345.494,-909 306.384,-870.699 333.502,-841.622 322.494,-788 320.601,-778.778 318.472,-768.874 316.425,-759.556"/>
<polygon fill="none" stroke="#404040" points="316.405,-759.468 311.202,-754.475 313.809,-747.752 319.012,-752.744 316.405,-759.468"/>
<text text-anchor="middle" x="369.994" y="-846" font-family="FreeSans" font-size="10.00"> +elements</text>
</g>
<!-- Node19 -->
<g id="node19" class="node"><title>Node19</title>
<g id="a_node19"><a xlink:href="structSeeSawN_1_1MatcherN_1_1NearestNeighbourMatcherParametersC.html" target="_top" xlink:title="Parameter object for NearestNeighbourMatcherC. ">
<polygon fill="white" stroke="black" points="959.494,-685 959.494,-753 1161.49,-753 1161.49,-685 959.494,-685"/>
<text text-anchor="start" x="967.494" y="-741" font-family="FreeSans" font-size="10.00">SeeSawN::MatcherN::</text>
<text text-anchor="middle" x="1060.49" y="-730" font-family="FreeSans" font-size="10.00">NearestNeighbourMatcherParametersC</text>
<polyline fill="none" stroke="black" points="959.494,-723 1161.49,-723 "/>
<text text-anchor="middle" x="1060.49" y="-711" font-family="FreeSans" font-size="10.00"> </text>
<polyline fill="none" stroke="black" points="959.494,-704 1161.49,-704 "/>
<text text-anchor="start" x="967.494" y="-692" font-family="FreeSans" font-size="10.00">+ NearestNeighbourMatcherParametersC()</text>
</a>
</g>
</g>
<!-- Node2&#45;&gt;Node19 -->
<g id="edge34" class="edge"><title>Node2&#45;&gt;Node19</title>
<path fill="none" stroke="#404040" d="M641.2,-929.862C646.77,-923.26 652.549,-916.018 657.494,-909 693.282,-858.214 675,-821.231 727.494,-788 768.566,-762 898.351,-781.85 945.494,-770 958.022,-766.851 970.921,-762.476 983.346,-757.612"/>
<polygon fill="none" stroke="#404040" points="983.485,-757.555 987.532,-751.587 994.598,-753.028 990.55,-758.996 983.485,-757.555"/>
<text text-anchor="middle" x="780.994" y="-851.5" font-family="FreeSans" font-size="10.00"> +ratioTestThreshold</text>
<text text-anchor="middle" x="780.994" y="-840.5" font-family="FreeSans" font-size="10.00">+similarityTestThreshold</text>
</g>
<!-- Node21 -->
<g id="node21" class="node"><title>Node21</title>
<g id="a_node21"><a xlink:href="structSeeSawN_1_1GeometryN_1_1RotationRegistrationPipelineParametersC.html" target="_top" xlink:title="Parameter object for the rotation registration pipeline. ">
<polygon fill="white" stroke="black" points="1767.99,-519.5 1767.99,-609.5 1914.99,-609.5 1914.99,-519.5 1767.99,-519.5"/>
<text text-anchor="start" x="1775.99" y="-597.5" font-family="FreeSans" font-size="10.00">SeeSawN::GeometryN</text>
<text text-anchor="start" x="1775.99" y="-586.5" font-family="FreeSans" font-size="10.00">::RotationRegistrationPipeline</text>
<text text-anchor="middle" x="1841.49" y="-575.5" font-family="FreeSans" font-size="10.00">ParametersC</text>
<polyline fill="none" stroke="black" points="1767.99,-568.5 1914.99,-568.5 "/>
<text text-anchor="middle" x="1841.49" y="-556.5" font-family="FreeSans" font-size="10.00"> </text>
<polyline fill="none" stroke="black" points="1767.99,-549.5 1914.99,-549.5 "/>
<text text-anchor="start" x="1775.99" y="-537.5" font-family="FreeSans" font-size="10.00">+ RotationRegistrationPipeline</text>
<text text-anchor="start" x="1775.99" y="-526.5" font-family="FreeSans" font-size="10.00">ParametersC()</text>
</a>
</g>
</g>
<!-- Node2&#45;&gt;Node21 -->
<g id="edge43" class="edge"><title>Node2&#45;&gt;Node21</title>
<path fill="none" stroke="#404040" d="M625.158,-927.277C626.597,-921.254 628.103,-914.915 629.494,-909 642.136,-855.268 617.615,-826.165 657.494,-788 689.172,-757.684 723.044,-800.553 754.494,-770 787.758,-737.685 741.33,-698.236 776.494,-668 800.974,-646.952 1034.33,-652.75 1066.49,-650 1317.43,-628.544 1613.03,-593.636 1755.79,-576.166"/>
<polygon fill="none" stroke="#404040" points="1755.96,-576.145 1761.43,-571.444 1767.87,-574.684 1762.41,-579.385 1755.96,-576.145"/>
<text text-anchor="middle" x="812.494" y="-716.5" font-family="FreeSans" font-size="10.00"> +inlierThreshold</text>
</g>
<!-- Node22 -->
<g id="node22" class="node"><title>Node22</title>
<g id="a_node22"><a xlink:href="structSeeSawN_1_1RandomSpanningTreeSamplerN_1_1RandomSpanningTreeSamplerParametersC.html" target="_top" xlink:title="Parameter object for RandomSpanningTreeSamplerC. ">
<polygon fill="white" stroke="black" points="1264.99,-674 1264.99,-764 1461.99,-764 1461.99,-674 1264.99,-674"/>
<text text-anchor="start" x="1272.99" y="-752" font-family="FreeSans" font-size="10.00">SeeSawN::RandomSpanningTree</text>
<text text-anchor="start" x="1272.99" y="-741" font-family="FreeSans" font-size="10.00">SamplerN::RandomSpanningTreeSampler</text>
<text text-anchor="middle" x="1363.49" y="-730" font-family="FreeSans" font-size="10.00">ParametersC</text>
<polyline fill="none" stroke="black" points="1264.99,-723 1461.99,-723 "/>
<text text-anchor="middle" x="1363.49" y="-711" font-family="FreeSans" font-size="10.00"> </text>
<polyline fill="none" stroke="black" points="1264.99,-704 1461.99,-704 "/>
<text text-anchor="start" x="1272.99" y="-692" font-family="FreeSans" font-size="10.00">+ RandomSpanningTreeSampler</text>
<text text-anchor="start" x="1272.99" y="-681" font-family="FreeSans" font-size="10.00">ParametersC()</text>
</a>
</g>
</g>
<!-- Node2&#45;&gt;Node22 -->
<g id="edge45" class="edge"><title>Node2&#45;&gt;Node22</title>
<path fill="none" stroke="#404040" d="M641.131,-953.294C690.928,-949.067 807.683,-936.408 834.494,-909 872.774,-869.869 816.137,-823.863 857.494,-788 890.52,-759.362 1207.94,-780.015 1250.49,-770 1253.51,-769.29 1256.54,-768.502 1259.59,-767.645"/>
<polygon fill="none" stroke="#404040" points="1259.86,-767.56 1264.42,-761.972 1271.33,-764.029 1266.77,-769.618 1259.86,-767.56"/>
<text text-anchor="middle" x="893.994" y="-846" font-family="FreeSans" font-size="10.00"> +minConfidence</text>
</g>
<!-- Node23 -->
<g id="node23" class="node"><title>Node23</title>
<g id="a_node23"><a xlink:href="structSeeSawN_1_1GeometryN_1_1MultiviewPanoramaBuilderParametersC.html" target="_top" xlink:title="Parameters for MultiviewPanoramaBuilderC. ">
<polygon fill="white" stroke="black" points="1669.49,-674 1669.49,-764 1809.49,-764 1809.49,-674 1669.49,-674"/>
<text text-anchor="start" x="1677.49" y="-752" font-family="FreeSans" font-size="10.00">SeeSawN::GeometryN</text>
<text text-anchor="start" x="1677.49" y="-741" font-family="FreeSans" font-size="10.00">::MultiviewPanoramaBuilder</text>
<text text-anchor="middle" x="1739.49" y="-730" font-family="FreeSans" font-size="10.00">ParametersC</text>
<polyline fill="none" stroke="black" points="1669.49,-723 1809.49,-723 "/>
<text text-anchor="middle" x="1739.49" y="-711" font-family="FreeSans" font-size="10.00"> </text>
<polyline fill="none" stroke="black" points="1669.49,-704 1809.49,-704 "/>
<text text-anchor="start" x="1677.49" y="-692" font-family="FreeSans" font-size="10.00">+ MultiviewPanoramaBuilder</text>
<text text-anchor="start" x="1677.49" y="-681" font-family="FreeSans" font-size="10.00">ParametersC()</text>
</a>
</g>
</g>
<!-- Node2&#45;&gt;Node23 -->
<g id="edge53" class="edge"><title>Node2&#45;&gt;Node23</title>
<path fill="none" stroke="#404040" d="M641.276,-954.656C743.966,-952.915 1160.8,-943.743 1206.49,-909 1252.05,-874.367 1204.36,-821.851 1250.49,-788 1287.17,-761.09 1616.05,-783.499 1659.49,-770 1660.78,-769.599 1662.07,-769.172 1663.36,-768.721"/>
<polygon fill="none" stroke="#404040" points="1663.76,-768.561 1667.83,-762.606 1674.89,-764.071 1670.82,-770.025 1663.76,-768.561"/>
<text text-anchor="middle" x="1300.49" y="-862.5" font-family="FreeSans" font-size="10.00"> +maxAngularDeviation</text>
<text text-anchor="middle" x="1300.49" y="-851.5" font-family="FreeSans" font-size="10.00">+binSize</text>
<text text-anchor="middle" x="1300.49" y="-840.5" font-family="FreeSans" font-size="10.00">+noiseVariance</text>
<text text-anchor="middle" x="1300.49" y="-829.5" font-family="FreeSans" font-size="10.00">+pReject</text>
</g>
<!-- Node3&#45;&gt;Node1 -->
<g id="edge2" class="edge"><title>Node3&#45;&gt;Node1</title>
<path fill="none" stroke="#404040" d="M1516.66,-116.614C1544.87,-106.567 1576.34,-95.8454 1605.49,-87 1644.71,-75.1024 1688.76,-63.6532 1725.69,-54.5838"/>
<polygon fill="none" stroke="#404040" points="1725.76,-54.5676 1730.64,-49.2603 1737.42,-51.7253 1732.54,-57.0326 1725.76,-54.5676"/>
<text text-anchor="middle" x="1660.99" y="-90" font-family="FreeSans" font-size="10.00"> +visionGraphParameters</text>
</g>
<!-- Node4&#45;&gt;Node3 -->
<g id="edge3" class="edge"><title>Node4&#45;&gt;Node3</title>
<path fill="none" stroke="#404040" d="M1271.22,-244.095C1300.26,-227 1333.36,-207.508 1361.69,-190.832"/>
<polygon fill="none" stroke="#404040" points="1361.95,-190.678 1365.09,-184.187 1372.29,-184.59 1369.15,-191.081 1361.95,-190.678"/>
<text text-anchor="start" x="1340.49" y="-217" font-family="FreeSans" font-size="10.00"> +geometryEstimationPipeline</text>
<text text-anchor="middle" x="1404.99" y="-206" font-family="FreeSans" font-size="10.00">Parameters</text>
</g>
<!-- Node5 -->
<g id="node5" class="node"><title>Node5</title>
<g id="a_node5"><a xlink:href="structSeeSawN_1_1GeometryN_1_1GeometryEstimatorParametersC.html" target="_top" xlink:title="Parameters for GeometryEstimatorC. ">
<polygon fill="white" stroke="black" points="1116.99,-392.5 1116.99,-460.5 1277.99,-460.5 1277.99,-392.5 1116.99,-392.5"/>
<text text-anchor="start" x="1124.99" y="-448.5" font-family="FreeSans" font-size="10.00">SeeSawN::GeometryN</text>
<text text-anchor="middle" x="1197.49" y="-437.5" font-family="FreeSans" font-size="10.00">::GeometryEstimatorParametersC</text>
<polyline fill="none" stroke="black" points="1116.99,-430.5 1277.99,-430.5 "/>
<text text-anchor="middle" x="1197.49" y="-418.5" font-family="FreeSans" font-size="10.00"> </text>
<polyline fill="none" stroke="black" points="1116.99,-411.5 1277.99,-411.5 "/>
<text text-anchor="middle" x="1197.49" y="-399.5" font-family="FreeSans" font-size="10.00"> </text>
</a>
</g>
</g>
<!-- Node5&#45;&gt;Node1 -->
<g id="edge41" class="edge"><title>Node5&#45;&gt;Node1</title>
<path fill="none" stroke="#404040" d="M1278.12,-421.677C1411.63,-413.781 1670.74,-391.342 1739.49,-334 1813.5,-272.273 1816.79,-148.247 1812.4,-81.1332"/>
<polygon fill="none" stroke="#404040" points="1812.38,-80.8639 1807.94,-75.1828 1811.48,-68.8981 1815.92,-74.5791 1812.38,-80.8639"/>
<text text-anchor="middle" x="1877.49" y="-211.5" font-family="FreeSans" font-size="10.00"> +geometryEstimatorParameters</text>
</g>
<!-- Node5&#45;&gt;Node4 -->
<g id="edge5" class="edge"><title>Node5&#45;&gt;Node4</title>
<path fill="none" stroke="#404040" d="M1197.49,-392.231C1197.49,-378.331 1197.49,-361.786 1197.49,-346.078"/>
<polygon fill="none" stroke="#404040" points="1197.49,-345.726 1193.49,-339.726 1197.49,-333.726 1201.49,-339.726 1197.49,-345.726"/>
<text text-anchor="middle" x="1267.49" y="-360.5" font-family="FreeSans" font-size="10.00"> +geometryEstimatorParameters</text>
</g>
<!-- Node6&#45;&gt;Node1 -->
<g id="edge50" class="edge"><title>Node6&#45;&gt;Node1</title>
<path fill="none" stroke="#404040" d="M172.484,-684.738C184.019,-654.276 198.494,-607.652 198.494,-565.5 198.494,-565.5 198.494,-565.5 198.494,-149.5 198.494,-72.1705 1396.63,-43.4111 1725.09,-36.9798"/>
<polygon fill="none" stroke="#404040" points="1725.33,-36.9753 1731.25,-32.8598 1737.32,-36.7427 1731.4,-40.8583 1725.33,-36.9753"/>
<text text-anchor="middle" x="258.994" y="-360.5" font-family="FreeSans" font-size="10.00"> +krkRefinementParameters</text>
</g>
<!-- Node6&#45;&gt;Node5 -->
<g id="edge6" class="edge"><title>Node6&#45;&gt;Node5</title>
<path fill="none" stroke="#404040" d="M185.784,-684.94C194.542,-673.99 204.134,-661.628 212.494,-650 253.01,-593.649 240.049,-557.95 297.494,-519 372.884,-467.883 407.989,-489.261 498.494,-479 630.205,-464.067 959.283,-486.82 1104.87,-462.059"/>
<polygon fill="none" stroke="#404040" points="1104.91,-462.052 1110.07,-457.021 1116.7,-459.856 1111.54,-464.886 1104.91,-462.052"/>
<text text-anchor="middle" x="333.494" y="-562" font-family="FreeSans" font-size="10.00"> +pdlParameters</text>
</g>
<!-- Node7 -->
<g id="node7" class="node"><title>Node7</title>
<g id="a_node7"><a xlink:href="classbool.html" target="_top" xlink:title="{bool\n||}">
<polygon fill="white" stroke="black" points="2230.99,-927.5 2230.99,-984.5 2265.99,-984.5 2265.99,-927.5 2230.99,-927.5"/>
<text text-anchor="middle" x="2248.49" y="-972.5" font-family="FreeSans" font-size="10.00">bool</text>
<polyline fill="none" stroke="black" points="2230.99,-965.5 2265.99,-965.5 "/>
<text text-anchor="middle" x="2248.49" y="-953.5" font-family="FreeSans" font-size="10.00"> </text>
<polyline fill="none" stroke="black" points="2230.99,-946.5 2265.99,-946.5 "/>
<text text-anchor="middle" x="2248.49" y="-934.5" font-family="FreeSans" font-size="10.00"> </text>
</a>
</g>
</g>
<!-- Node7&#45;&gt;Node1 -->
<g id="edge49" class="edge"><title>Node7&#45;&gt;Node1</title>
<path fill="none" stroke="#404040" d="M2266.31,-951.705C2289.58,-946.522 2330.18,-934.326 2354.49,-909 2416.85,-844.039 2427.49,-810.048 2427.49,-720 2427.49,-720 2427.49,-720 2427.49,-149.5 2427.49,-95.4533 2058.35,-56.9388 1889.74,-42.1655"/>
<polygon fill="none" stroke="#404040" points="1889.67,-42.1591 1883.34,-45.6256 1877.71,-41.122 1884.03,-37.6555 1889.67,-42.1591"/>
<text text-anchor="middle" x="2482.49" y="-435" font-family="FreeSans" font-size="10.00"> +flagKnownF</text>
<text text-anchor="middle" x="2482.49" y="-424" font-family="FreeSans" font-size="10.00">+flagInitialEstimate</text>
<text text-anchor="middle" x="2482.49" y="-413" font-family="FreeSans" font-size="10.00">+flagUniformFocalLength</text>
</g>
<!-- Node7&#45;&gt;Node3 -->
<g id="edge39" class="edge"><title>Node7&#45;&gt;Node3</title>
<path fill="none" stroke="#404040" d="M2266.16,-948.235C2282,-941.115 2304.27,-928.242 2314.49,-909 2395.98,-755.58 2404.45,-648.356 2288.49,-519 2099.68,-308.359 1932.74,-460.039 1679.49,-334 1601.94,-295.404 1522.8,-233.301 1474.65,-192.443"/>
<polygon fill="none" stroke="#404040" points="1474.56,-192.368 1467.4,-191.508 1465.44,-184.568 1472.6,-185.429 1474.56,-192.368"/>
<text text-anchor="middle" x="2305.49" y="-487.5" font-family="FreeSans" font-size="10.00"> +flagConnected</text>
</g>
<!-- Node7&#45;&gt;Node4 -->
<g id="edge24" class="edge"><title>Node7&#45;&gt;Node4</title>
<path fill="none" stroke="#404040" d="M2266.01,-936.843C2272.48,-928.937 2279.07,-919.162 2282.49,-909 2316.74,-807.508 2344.06,-757.025 2284.49,-668 2168.51,-494.656 1518.93,-352.342 1283.08,-305.71"/>
<polygon fill="none" stroke="#404040" points="1282.93,-305.681 1276.27,-308.447 1271.15,-303.364 1277.81,-300.598 1282.93,-305.681"/>
<text text-anchor="middle" x="2260.99" y="-567.5" font-family="FreeSans" font-size="10.00"> +flagCovariance</text>
<text text-anchor="middle" x="2260.99" y="-556.5" font-family="FreeSans" font-size="10.00">+flagVerbose</text>
</g>
<!-- Node7&#45;&gt;Node6 -->
<g id="edge8" class="edge"><title>Node7&#45;&gt;Node6</title>
<path fill="none" stroke="#404040" d="M2230.7,-953.471C2174.06,-948.667 1992.83,-933.797 1842.49,-927 1819.26,-925.95 1023,-924.304 1005.49,-909 964.507,-873.176 1027.43,-823.879 986.494,-788 955.4,-760.749 282.223,-781.448 242.494,-770 233.219,-767.327 223.919,-763.374 215.063,-758.842"/>
<polygon fill="none" stroke="#404040" points="215.042,-758.83 207.858,-759.461 204.513,-753.073 211.696,-752.442 215.042,-758.83"/>
<text text-anchor="middle" x="1041.99" y="-846" font-family="FreeSans" font-size="10.00"> +flagCovariance</text>
</g>
<!-- Node7&#45;&gt;Node11 -->
<g id="edge18" class="edge"><title>Node7&#45;&gt;Node11</title>
<path fill="none" stroke="#404040" d="M2230.93,-949.497C2212.83,-942.879 2185.24,-929.961 2170.49,-909 2139.01,-864.223 2185.93,-826.976 2147.49,-788 2119.46,-759.576 2097.7,-781.566 2059.49,-770 2058.6,-769.731 2057.71,-769.458 2056.82,-769.181"/>
<polygon fill="none" stroke="#404040" points="2056.51,-769.082 2049.57,-771.04 2045.1,-765.387 2052.04,-763.429 2056.51,-769.082"/>
<text text-anchor="middle" x="2202.49" y="-857" font-family="FreeSans" font-size="10.00"> +flagHistory</text>
<text text-anchor="middle" x="2202.49" y="-846" font-family="FreeSans" font-size="10.00">+flagWaldSAC</text>
<text text-anchor="middle" x="2202.49" y="-835" font-family="FreeSans" font-size="10.00">+flagPROSAC</text>
</g>
<!-- Node7&#45;&gt;Node15 -->
<g id="edge28" class="edge"><title>Node7&#45;&gt;Node15</title>
<path fill="none" stroke="#404040" d="M2255.61,-927.367C2263.32,-890.31 2270.19,-824.914 2234.49,-788 2186.9,-738.782 2133.42,-814.63 2081.49,-770 2045.84,-739.357 2088.31,-699.588 2053.49,-668 1976,-597.694 1925.63,-638.224 1821.49,-628 1502.93,-596.723 1418.92,-651.276 1101.49,-610 1069.5,-605.84 1035.01,-598.477 1004.46,-590.922"/>
<polygon fill="none" stroke="#404040" points="1004.16,-590.845 997.362,-593.257 992.522,-587.911 999.318,-585.499 1004.16,-590.845"/>
<text text-anchor="middle" x="2119.49" y="-722" font-family="FreeSans" font-size="10.00"> +flagBucketFilter</text>
<text text-anchor="middle" x="2119.49" y="-711" font-family="FreeSans" font-size="10.00">+flagStatic</text>
</g>
<!-- Node7&#45;&gt;Node19 -->
<g id="edge36" class="edge"><title>Node7&#45;&gt;Node19</title>
<path fill="none" stroke="#404040" d="M2230.78,-954.733C2174.77,-953.503 2002.97,-946.674 1965.49,-909 1927.11,-870.404 1987.45,-823.862 1946.49,-788 1914.26,-759.775 1217.34,-779.213 1175.49,-770 1162.34,-767.103 1148.82,-762.686 1135.89,-757.652"/>
<polygon fill="none" stroke="#404040" points="1135.82,-757.621 1128.75,-759.061 1124.7,-753.093 1131.77,-751.652 1135.82,-757.621"/>
<text text-anchor="middle" x="2013.99" y="-846" font-family="FreeSans" font-size="10.00"> +flagConsistencyTest</text>
</g>
<!-- Node7&#45;&gt;Node21 -->
<g id="edge47" class="edge"><title>Node7&#45;&gt;Node21</title>
<path fill="none" stroke="#404040" d="M2260.18,-927.25C2273.2,-891.533 2288.82,-829.183 2259.49,-788 2245.31,-768.078 2225.55,-786.494 2207.49,-770 2170.78,-736.461 2194.59,-705.12 2161.49,-668 2102.41,-601.729 2000.48,-578.028 1927.53,-569.703"/>
<polygon fill="none" stroke="#404040" points="1927.1,-569.659 1920.72,-573.011 1915.17,-568.407 1921.55,-565.055 1927.1,-569.659"/>
<text text-anchor="middle" x="2245.99" y="-716.5" font-family="FreeSans" font-size="10.00"> +flagWeightedLS</text>
</g>
<!-- Node7&#45;&gt;Node23 -->
<g id="edge55" class="edge"><title>Node7&#45;&gt;Node23</title>
<path fill="none" stroke="#404040" d="M2230.84,-955.723C2197.06,-956.062 2123.26,-951.559 2085.49,-909 2049.36,-868.281 2106.56,-824.856 2066.49,-788 2025.83,-750.589 1870.97,-787.296 1818.49,-770 1817.42,-769.644 1816.34,-769.271 1815.26,-768.881"/>
<polygon fill="none" stroke="#404040" points="1814.85,-768.713 1807.78,-770.11 1803.77,-764.117 1810.84,-762.72 1814.85,-768.713"/>
<text text-anchor="middle" x="2114.49" y="-846" font-family="FreeSans" font-size="10.00"> +flagFiltering</text>
</g>
<!-- Node8 -->
<g id="node8" class="node"><title>Node8</title>
<polygon fill="white" stroke="#bfbfbf" points="49.4943,-927.5 49.4943,-984.5 117.494,-984.5 117.494,-927.5 49.4943,-927.5"/>
<text text-anchor="middle" x="83.4943" y="-972.5" font-family="FreeSans" font-size="10.00">unsigned int</text>
<polyline fill="none" stroke="#bfbfbf" points="49.4943,-965.5 117.494,-965.5 "/>
<text text-anchor="middle" x="83.4943" y="-953.5" font-family="FreeSans" font-size="10.00"> </text>
<polyline fill="none" stroke="#bfbfbf" points="49.4943,-946.5 117.494,-946.5 "/>
<text text-anchor="middle" x="83.4943" y="-934.5" font-family="FreeSans" font-size="10.00"> </text>
</g>
<!-- Node8&#45;&gt;Node6 -->
<g id="edge9" class="edge"><title>Node8&#45;&gt;Node6</title>
<path fill="none" stroke="#404040" d="M77.1695,-927.288C70.7563,-892.964 64.3639,-833.467 84.4943,-788 88.754,-778.379 95.1131,-769.517 102.346,-761.591"/>
<polygon fill="none" stroke="#404040" points="102.368,-761.569 103.753,-754.492 110.819,-753.049 109.433,-760.126 102.368,-761.569"/>
<text text-anchor="middle" x="115.494" y="-846" font-family="FreeSans" font-size="10.00"> +maxIteration</text>
</g>
<!-- Node9&#45;&gt;Node5 -->
<g id="edge10" class="edge"><title>Node9&#45;&gt;Node5</title>
<path fill="none" stroke="#404040" d="M1197.49,-530.231C1197.49,-513.025 1197.49,-491.764 1197.49,-473.056"/>
<polygon fill="none" stroke="#404040" points="1197.49,-472.897 1193.49,-466.897 1197.49,-460.897 1201.49,-466.897 1197.49,-472.897"/>
<text text-anchor="middle" x="1241.49" y="-487.5" font-family="FreeSans" font-size="10.00"> +ransacParameters</text>
</g>
<!-- Node10 -->
<g id="node10" class="node"><title>Node10</title>
<polygon fill="white" stroke="#bfbfbf" points="1328.99,-927.5 1328.99,-984.5 1357.99,-984.5 1357.99,-927.5 1328.99,-927.5"/>
<text text-anchor="middle" x="1343.49" y="-972.5" font-family="FreeSans" font-size="10.00">int</text>
<polyline fill="none" stroke="#bfbfbf" points="1328.99,-965.5 1357.99,-965.5 "/>
<text text-anchor="middle" x="1343.49" y="-953.5" font-family="FreeSans" font-size="10.00"> </text>
<polyline fill="none" stroke="#bfbfbf" points="1328.99,-946.5 1357.99,-946.5 "/>
<text text-anchor="middle" x="1343.49" y="-934.5" font-family="FreeSans" font-size="10.00"> </text>
</g>
<!-- Node10&#45;&gt;Node3 -->
<g id="edge38" class="edge"><title>Node10&#45;&gt;Node3</title>
<path fill="none" stroke="#404040" d="M1328.79,-955.116C1240.93,-955.642 784.724,-956.043 654.494,-909 555.412,-873.209 510.401,-863.826 462.494,-770 441.879,-729.625 450.616,-711.75 462.494,-668 470.323,-639.163 485.839,-637.916 496.494,-610 515.734,-559.593 520.494,-544.954 520.494,-491 520.494,-491 520.494,-491 520.494,-287.5 520.494,-206.568 1091.97,-168.453 1328.18,-156.155"/>
<polygon fill="none" stroke="#404040" points="1328.21,-156.154 1334,-151.851 1340.19,-155.537 1334.41,-159.84 1328.21,-156.154"/>
<text text-anchor="middle" x="563.994" y="-493" font-family="FreeSans" font-size="10.00"> +loGeneratorRatio1</text>
<text text-anchor="middle" x="563.994" y="-482" font-family="FreeSans" font-size="10.00">+loGeneratorRatio2</text>
</g>
<!-- Node10&#45;&gt;Node4 -->
<g id="edge23" class="edge"><title>Node10&#45;&gt;Node4</title>
<path fill="none" stroke="#404040" d="M1328.96,-955.144C1236.08,-955.919 728.103,-957.893 682.494,-909 645.811,-869.676 654.755,-834.072 682.494,-788 691.314,-773.352 707.675,-784.648 716.494,-770 739.878,-731.163 744.814,-703.399 716.494,-668 693.728,-639.542 659.261,-678.458 636.494,-650 630.386,-642.365 633.478,-637.301 636.494,-628 654.95,-571.087 670.313,-558.221 715.494,-519 834.947,-415.304 1009.36,-347.867 1112.36,-314.432"/>
<polygon fill="none" stroke="#404040" points="1112.51,-314.383 1117.01,-308.741 1123.94,-310.718 1119.45,-316.359 1112.51,-314.383"/>
<text text-anchor="middle" x="771.494" y="-573" font-family="FreeSans" font-size="10.00"> +maxObservationDensity</text>
<text text-anchor="middle" x="771.494" y="-562" font-family="FreeSans" font-size="10.00">+nThreads</text>
<text text-anchor="middle" x="771.494" y="-551" font-family="FreeSans" font-size="10.00">+maxIteration</text>
</g>
<!-- Node10&#45;&gt;Node9 -->
<g id="edge12" class="edge"><title>Node10&#45;&gt;Node9</title>
<path fill="none" stroke="#404040" d="M1350.52,-927.197C1358.03,-890.251 1364.57,-825.308 1329.49,-788 1291.65,-747.747 1243.53,-810.995 1206.49,-770 1167.78,-727.155 1174.59,-656.318 1184.72,-610.28"/>
<polygon fill="none" stroke="#404040" points="1184.73,-610.248 1182.22,-603.489 1187.49,-598.57 1190,-605.329 1184.73,-610.248"/>
<text text-anchor="middle" x="1230.99" y="-716.5" font-family="FreeSans" font-size="10.00"> +nThreads</text>
</g>
<!-- Node10&#45;&gt;Node11 -->
<g id="edge17" class="edge"><title>Node10&#45;&gt;Node11</title>
<path fill="none" stroke="#404040" d="M1358.23,-954.035C1435.18,-948.932 1787.84,-924.746 1804.49,-909 1844.06,-871.606 1793.1,-833.16 1823.49,-788 1825.73,-784.676 1828.19,-781.489 1830.83,-778.435"/>
<polygon fill="none" stroke="#404040" points="1830.94,-778.321 1832.22,-771.224 1839.26,-769.671 1837.98,-776.768 1830.94,-778.321"/>
<text text-anchor="middle" x="1856.49" y="-868" font-family="FreeSans" font-size="10.00"> +minIteration</text>
<text text-anchor="middle" x="1856.49" y="-857" font-family="FreeSans" font-size="10.00">+maxSolution</text>
<text text-anchor="middle" x="1856.49" y="-846" font-family="FreeSans" font-size="10.00">+nLOIterations</text>
<text text-anchor="middle" x="1856.49" y="-835" font-family="FreeSans" font-size="10.00">+nThreads</text>
<text text-anchor="middle" x="1856.49" y="-824" font-family="FreeSans" font-size="10.00">+maxIteration</text>
</g>
<!-- Node10&#45;&gt;Node14 -->
<g id="edge22" class="edge"><title>Node10&#45;&gt;Node14</title>
<path fill="none" stroke="#404040" d="M1358.31,-950.855C1377.21,-944.801 1409.57,-931.712 1427.49,-909 1462.02,-865.24 1427.6,-833.002 1460.49,-788 1464.5,-782.521 1469.09,-777.366 1474.07,-772.538"/>
<polygon fill="none" stroke="#404040" points="1474.45,-772.198 1476.25,-765.217 1483.39,-764.201 1481.59,-771.182 1474.45,-772.198"/>
<text text-anchor="middle" x="1484.99" y="-846" font-family="FreeSans" font-size="10.00"> +nThreads</text>
</g>
<!-- Node10&#45;&gt;Node15 -->
<g id="edge27" class="edge"><title>Node10&#45;&gt;Node15</title>
<path fill="none" stroke="#404040" d="M1328.93,-955.102C1238.03,-955.594 751.229,-956.012 707.494,-909 670.865,-869.626 671.887,-828.301 707.494,-788 750.492,-739.335 802.825,-811.833 852.494,-770 864.919,-759.535 889.364,-667.665 903.566,-610.678"/>
<polygon fill="none" stroke="#404040" points="903.636,-610.393 901.194,-603.608 906.518,-598.744 908.96,-605.528 903.636,-610.393"/>
<text text-anchor="middle" x="917.994" y="-722" font-family="FreeSans" font-size="10.00"> +nThreads</text>
<text text-anchor="middle" x="917.994" y="-711" font-family="FreeSans" font-size="10.00">+minQuorum</text>
</g>
<!-- Node10&#45;&gt;Node19 -->
<g id="edge35" class="edge"><title>Node10&#45;&gt;Node19</title>
<path fill="none" stroke="#404040" d="M1328.95,-954.267C1282.24,-951.608 1137.29,-940.89 1105.49,-909 1066.85,-870.233 1096.06,-841.034 1082.49,-788 1080.58,-780.506 1078.29,-772.628 1075.93,-765"/>
<polygon fill="none" stroke="#404040" points="1075.84,-764.737 1070.2,-760.239 1072.19,-753.306 1077.83,-757.804 1075.84,-764.737"/>
<text text-anchor="middle" x="1155.99" y="-851.5" font-family="FreeSans" font-size="10.00"> +neighbourhoodSize21</text>
<text text-anchor="middle" x="1155.99" y="-840.5" font-family="FreeSans" font-size="10.00">+neighbourhoodSize12</text>
</g>
<!-- Node10&#45;&gt;Node22 -->
<g id="edge46" class="edge"><title>Node10&#45;&gt;Node22</title>
<path fill="none" stroke="#404040" d="M1350.97,-927.431C1352.36,-921.397 1353.64,-915.016 1354.49,-909 1360.78,-864.732 1362.93,-814.108 1363.56,-776.402"/>
<polygon fill="none" stroke="#404040" points="1363.56,-776.136 1359.64,-770.085 1363.72,-764.137 1367.64,-770.189 1363.56,-776.136"/>
<text text-anchor="middle" x="1393.49" y="-857" font-family="FreeSans" font-size="10.00"> +minIteration</text>
<text text-anchor="middle" x="1393.49" y="-846" font-family="FreeSans" font-size="10.00">+nThreads</text>
<text text-anchor="middle" x="1393.49" y="-835" font-family="FreeSans" font-size="10.00">+maxIteration</text>
</g>
<!-- Node10&#45;&gt;Node23 -->
<g id="edge54" class="edge"><title>Node10&#45;&gt;Node23</title>
<path fill="none" stroke="#404040" d="M1358.14,-955.768C1390.76,-956.608 1469.69,-953.645 1509.49,-909 1545.72,-868.367 1489.63,-826.121 1528.49,-788 1549.47,-767.422 1631.87,-780.009 1659.49,-770 1660.36,-769.686 1661.23,-769.362 1662.09,-769.028"/>
<polygon fill="none" stroke="#404040" points="1662.31,-768.934 1666.24,-762.887 1673.33,-764.188 1669.41,-770.235 1662.31,-768.934"/>
<text text-anchor="middle" x="1579.99" y="-846" font-family="FreeSans" font-size="10.00"> +minObservationCount</text>
</g>
<!-- Node11&#45;&gt;Node9 -->
<g id="edge13" class="edge"><title>Node11&#45;&gt;Node9</title>
<path fill="none" stroke="#404040" d="M1827.73,-671.28C1824.62,-670.151 1821.54,-669.055 1818.49,-668 1640.61,-606.428 1420.94,-581.308 1296.26,-571.463"/>
<polygon fill="none" stroke="#404040" points="1296.09,-571.45 1289.8,-574.978 1284.12,-570.529 1290.41,-567.001 1296.09,-571.45"/>
<text text-anchor="middle" x="1785.99" y="-642" font-family="FreeSans" font-size="10.00"> +parameters2</text>
<text text-anchor="middle" x="1785.99" y="-631" font-family="FreeSans" font-size="10.00">+parameters1</text>
</g>
<!-- Node12 -->
<g id="node12" class="node"><title>Node12</title>
<polygon fill="white" stroke="#bfbfbf" points="1738.99,-927.5 1738.99,-984.5 1833.99,-984.5 1833.99,-927.5 1738.99,-927.5"/>
<text text-anchor="middle" x="1786.49" y="-972.5" font-family="FreeSans" font-size="10.00">optional&lt; double &gt;</text>
<polyline fill="none" stroke="#bfbfbf" points="1738.99,-965.5 1833.99,-965.5 "/>
<text text-anchor="middle" x="1786.49" y="-953.5" font-family="FreeSans" font-size="10.00"> </text>
<polyline fill="none" stroke="#bfbfbf" points="1738.99,-946.5 1833.99,-946.5 "/>
<text text-anchor="middle" x="1786.49" y="-934.5" font-family="FreeSans" font-size="10.00"> </text>
</g>
<!-- Node12&#45;&gt;Node11 -->
<g id="edge15" class="edge"><title>Node12&#45;&gt;Node11</title>
<path fill="none" stroke="#404040" d="M1834.05,-945.274C1855.27,-938.549 1878.75,-927.372 1893.49,-909 1927.76,-866.308 1903.64,-841.211 1916.49,-788 1917.01,-785.851 1917.56,-783.668 1918.12,-781.467"/>
<polygon fill="none" stroke="#404040" points="1918.19,-781.206 1915.88,-774.377 1921.29,-769.613 1923.61,-776.442 1918.19,-781.206"/>
<text text-anchor="middle" x="1931.49" y="-846" font-family="FreeSans" font-size="10.00"> +topN</text>
</g>
<!-- Node12&#45;&gt;Node14 -->
<g id="edge21" class="edge"><title>Node12&#45;&gt;Node14</title>
<path fill="none" stroke="#404040" d="M1738.8,-949.569C1711.38,-943.929 1678.51,-932.433 1658.49,-909 1622.94,-867.373 1661.44,-836.2 1635.49,-788 1632.89,-783.17 1629.83,-778.474 1626.47,-773.956"/>
<polygon fill="none" stroke="#404040" points="1626.24,-773.679 1619.35,-771.544 1618.68,-764.365 1625.56,-766.5 1626.24,-773.679"/>
<text text-anchor="middle" x="1674.49" y="-846" font-family="FreeSans" font-size="10.00"> +alpha</text>
</g>
<!-- Node13 -->
<g id="node13" class="node"><title>Node13</title>
<polygon fill="white" stroke="#bfbfbf" points="1761.49,-1032.5 1761.49,-1089.5 1811.49,-1089.5 1811.49,-1032.5 1761.49,-1032.5"/>
<text text-anchor="middle" x="1786.49" y="-1077.5" font-family="FreeSans" font-size="10.00">optional</text>
<polyline fill="none" stroke="#bfbfbf" points="1761.49,-1070.5 1811.49,-1070.5 "/>
<text text-anchor="middle" x="1786.49" y="-1058.5" font-family="FreeSans" font-size="10.00"> </text>
<polyline fill="none" stroke="#bfbfbf" points="1761.49,-1051.5 1811.49,-1051.5 "/>
<text text-anchor="middle" x="1786.49" y="-1039.5" font-family="FreeSans" font-size="10.00"> </text>
</g>
<!-- Node13&#45;&gt;Node12 -->
<g id="edge16" class="edge"><title>Node13&#45;&gt;Node12</title>
<path fill="none" stroke="orange" d="M1786.49,-1022.29C1786.49,-1009.84 1786.49,-996.233 1786.49,-984.678"/>
<polygon fill="orange" stroke="orange" points="1782.99,-1022.4 1786.49,-1032.4 1789.99,-1022.4 1782.99,-1022.4"/>
<text text-anchor="middle" x="1810.49" y="-1006" font-family="FreeSans" font-size="10.00"> &lt; double &gt;</text>
</g>
<!-- Node14&#45;&gt;Node4 -->
<g id="edge19" class="edge"><title>Node14&#45;&gt;Node4</title>
<path fill="none" stroke="#404040" d="M1549.41,-673.921C1519.65,-598.068 1449.02,-442.322 1341.49,-352 1324.25,-337.513 1303.13,-325.866 1282.43,-316.735"/>
<polygon fill="none" stroke="#404040" points="1282.4,-316.72 1275.32,-318.072 1271.34,-312.054 1278.43,-310.701 1282.4,-316.72"/>
<text text-anchor="middle" x="1500.99" y="-487.5" font-family="FreeSans" font-size="10.00"> +sutParameters</text>
</g>
<!-- Node15&#45;&gt;Node4 -->
<g id="edge25" class="edge"><title>Node15&#45;&gt;Node4</title>
<path fill="none" stroke="#404040" d="M927.239,-530.335C942.922,-492.993 972.588,-432.286 1013.49,-392 1041.82,-364.101 1079.28,-341.411 1113,-324.537"/>
<polygon fill="none" stroke="#404040" points="1113.02,-324.528 1116.66,-318.302 1123.8,-319.264 1120.17,-325.491 1113.02,-324.528"/>
<text text-anchor="middle" x="1060.49" y="-424" font-family="FreeSans" font-size="10.00"> +matcherParameters</text>
</g>
<!-- Node16&#45;&gt;Node15 -->
<g id="edge29" class="edge"><title>Node16&#45;&gt;Node15</title>
<path fill="none" stroke="#404040" d="M363.127,-697.056C390.149,-687.371 423.244,-676.221 453.494,-668 578.233,-634.1 612.467,-638.74 738.494,-610 766.466,-603.621 796.799,-596.152 824.276,-589.175"/>
<polygon fill="none" stroke="#404040" points="824.643,-589.082 829.468,-583.722 836.27,-586.115 831.445,-591.474 824.643,-589.082"/>
<text text-anchor="middle" x="689.994" y="-636.5" font-family="FreeSans" font-size="10.00"> +bucketDimensions</text>
</g>
<!-- Node17 -->
<g id="node17" class="node"><title>Node17</title>
<g id="a_node17"><a xlink:title="STL class. ">
<polygon fill="white" stroke="#bfbfbf" points="135.494,-927.5 135.494,-984.5 213.494,-984.5 213.494,-927.5 135.494,-927.5"/>
<text text-anchor="middle" x="174.494" y="-972.5" font-family="FreeSans" font-size="10.00">std::array&lt; T &gt;</text>
<polyline fill="none" stroke="#bfbfbf" points="135.494,-965.5 213.494,-965.5 "/>
<text text-anchor="middle" x="174.494" y="-953.5" font-family="FreeSans" font-size="10.00"> </text>
<polyline fill="none" stroke="#bfbfbf" points="135.494,-946.5 213.494,-946.5 "/>
<text text-anchor="middle" x="174.494" y="-934.5" font-family="FreeSans" font-size="10.00"> </text>
</a>
</g>
</g>
<!-- Node17&#45;&gt;Node16 -->
<g id="edge31" class="edge"><title>Node17&#45;&gt;Node16</title>
<path fill="none" stroke="orange" d="M160.83,-917.546C149.978,-880.608 140.881,-824.525 169.494,-788 190.102,-761.694 212.386,-784.496 242.494,-770 254.552,-764.194 266.519,-755.911 276.836,-747.752"/>
<polygon fill="orange" stroke="orange" points="157.592,-918.918 163.908,-927.425 164.275,-916.836 157.592,-918.918"/>
<text text-anchor="middle" x="198.494" y="-846" font-family="FreeSans" font-size="10.00"> &lt; double, 2 &gt;</text>
</g>
<!-- Node18 -->
<g id="node18" class="node"><title>Node18</title>
<polygon fill="white" stroke="#bfbfbf" points="159.994,-1032.5 159.994,-1089.5 188.994,-1089.5 188.994,-1032.5 159.994,-1032.5"/>
<text text-anchor="middle" x="174.494" y="-1077.5" font-family="FreeSans" font-size="10.00">T</text>
<polyline fill="none" stroke="#bfbfbf" points="159.994,-1070.5 188.994,-1070.5 "/>
<text text-anchor="middle" x="174.494" y="-1058.5" font-family="FreeSans" font-size="10.00"> </text>
<polyline fill="none" stroke="#bfbfbf" points="159.994,-1051.5 188.994,-1051.5 "/>
<text text-anchor="middle" x="174.494" y="-1039.5" font-family="FreeSans" font-size="10.00"> </text>
</g>
<!-- Node18&#45;&gt;Node17 -->
<g id="edge32" class="edge"><title>Node18&#45;&gt;Node17</title>
<path fill="none" stroke="#404040" d="M174.494,-1032.4C174.494,-1021.55 174.494,-1008.87 174.494,-997.049"/>
<polygon fill="none" stroke="#404040" points="174.494,-996.678 170.494,-990.678 174.494,-984.678 178.494,-990.678 174.494,-996.678"/>
<text text-anchor="middle" x="198.994" y="-1006" font-family="FreeSans" font-size="10.00"> +elements</text>
</g>
<!-- Node19&#45;&gt;Node15 -->
<g id="edge33" class="edge"><title>Node19&#45;&gt;Node15</title>
<path fill="none" stroke="#404040" d="M1028.81,-684.91C1007,-662.128 977.856,-631.682 954.451,-607.236"/>
<polygon fill="none" stroke="#404040" points="954.411,-607.194 947.372,-605.626 946.112,-598.526 953.151,-600.093 954.411,-607.194"/>
<text text-anchor="middle" x="1027.49" y="-636.5" font-family="FreeSans" font-size="10.00"> +nnParameters</text>
</g>
<!-- Node20 -->
<g id="node20" class="node"><title>Node20</title>
<polygon fill="white" stroke="#bfbfbf" points="1688.49,-260 1688.49,-317 1730.49,-317 1730.49,-260 1688.49,-260"/>
<text text-anchor="middle" x="1709.49" y="-305" font-family="FreeSans" font-size="10.00">size_t</text>
<polyline fill="none" stroke="#bfbfbf" points="1688.49,-298 1730.49,-298 "/>
<text text-anchor="middle" x="1709.49" y="-286" font-family="FreeSans" font-size="10.00"> </text>
<polyline fill="none" stroke="#bfbfbf" points="1688.49,-279 1730.49,-279 "/>
<text text-anchor="middle" x="1709.49" y="-267" font-family="FreeSans" font-size="10.00"> </text>
</g>
<!-- Node20&#45;&gt;Node1 -->
<g id="edge51" class="edge"><title>Node20&#45;&gt;Node1</title>
<path fill="none" stroke="#404040" d="M1713.57,-259.775C1719.96,-218.033 1732.84,-141.243 1744.49,-116 1750.6,-102.784 1759.26,-89.7717 1768.21,-78.1901"/>
<polygon fill="none" stroke="#404040" points="1768.23,-78.1726 1768.87,-70.9905 1775.75,-68.8249 1775.1,-76.007 1768.23,-78.1726"/>
<text text-anchor="middle" x="1768.99" y="-148" font-family="FreeSans" font-size="10.00"> +nThreads</text>
</g>
<!-- Node20&#45;&gt;Node3 -->
<g id="edge40" class="edge"><title>Node20&#45;&gt;Node3</title>
<path fill="none" stroke="#404040" d="M1688.33,-270.388C1669.5,-255.117 1643.46,-233.843 1633.49,-225 1622.91,-215.612 1622.77,-210.022 1610.49,-203 1585.43,-188.665 1556.11,-178.102 1528.41,-170.41"/>
<polygon fill="none" stroke="#404040" points="1528.26,-170.369 1521.43,-172.694 1516.66,-167.287 1523.48,-164.962 1528.26,-170.369"/>
<text text-anchor="middle" x="1674.99" y="-217" font-family="FreeSans" font-size="10.00"> +minEdgeStrength</text>
<text text-anchor="middle" x="1674.99" y="-206" font-family="FreeSans" font-size="10.00">+nThreads</text>
</g>
<!-- Node21&#45;&gt;Node1 -->
<g id="edge42" class="edge"><title>Node21&#45;&gt;Node1</title>
<path fill="none" stroke="#404040" d="M1909.77,-519.459C1937.22,-496.061 1962.49,-464.476 1962.49,-427.5 1962.49,-427.5 1962.49,-427.5 1962.49,-149.5 1962.49,-108.152 1926.26,-80.1367 1888.82,-62.228"/>
<polygon fill="none" stroke="#404040" points="1888.67,-62.1596 1881.56,-63.3331 1877.74,-57.2168 1884.85,-56.0433 1888.67,-62.1596"/>
<text text-anchor="middle" x="2033.99" y="-286" font-family="FreeSans" font-size="10.00"> +rotationRegistrationParameters</text>
</g>
<!-- Node22&#45;&gt;Node1 -->
<g id="edge48" class="edge"><title>Node22&#45;&gt;Node1</title>
<path fill="none" stroke="#404040" d="M1450.97,-673.897C1457.48,-671.619 1464.03,-669.611 1470.49,-668 1615.16,-631.956 2133.49,-714.584 2133.49,-565.5 2133.49,-565.5 2133.49,-565.5 2133.49,-149.5 2133.49,-97.9668 1986.51,-64.2398 1889.93,-47.6415"/>
<polygon fill="none" stroke="#404040" points="1889.66,-47.5969 1883.08,-50.5459 1877.83,-45.6058 1884.41,-42.6568 1889.66,-47.5969"/>
<text text-anchor="start" x="2133.49" y="-366" font-family="FreeSans" font-size="10.00"> +focalLengthRegistration</text>
<text text-anchor="middle" x="2189.49" y="-355" font-family="FreeSans" font-size="10.00">Pipeline</text>
</g>
<!-- Node22&#45;&gt;Node21 -->
<g id="edge44" class="edge"><title>Node22&#45;&gt;Node21</title>
<path fill="none" stroke="#404040" d="M1455.3,-673.91C1460.4,-671.831 1465.49,-669.845 1470.49,-668 1566.31,-632.662 1679.94,-602.987 1755.97,-584.808"/>
<polygon fill="none" stroke="#404040" points="1756.17,-584.761 1761.08,-579.483 1767.84,-581.989 1762.93,-587.267 1756.17,-584.761"/>
<text text-anchor="middle" x="1629.49" y="-636.5" font-family="FreeSans" font-size="10.00"> +rstsParameters</text>
</g>
<!-- Node23&#45;&gt;Node1 -->
<g id="edge52" class="edge"><title>Node23&#45;&gt;Node1</title>
<path fill="none" stroke="#404040" d="M1803.28,-673.992C1808.29,-671.673 1813.39,-669.631 1818.49,-668 1888.24,-645.701 2075.58,-663.79 2147.49,-650 2216.27,-636.811 2280.49,-635.532 2280.49,-565.5 2280.49,-565.5 2280.49,-565.5 2280.49,-149.5 2280.49,-70.0963 2025.39,-45.8356 1889.87,-38.5498"/>
<polygon fill="none" stroke="#404040" points="1889.53,-38.532 1883.33,-42.2187 1877.54,-37.9159 1883.74,-34.2292 1889.53,-38.532"/>
<text text-anchor="middle" x="2346.49" y="-360.5" font-family="FreeSans" font-size="10.00"> +panoramaBuilderParameters</text>
</g>
</g>
</svg>
