<?xml version="1.0" encoding="UTF-8" standalone="no"?>
<!DOCTYPE svg PUBLIC "-//W3C//DTD SVG 1.1//EN"
 "http://www.w3.org/Graphics/SVG/1.1/DTD/svg11.dtd">
<!-- Generated by graphviz version 2.38.0 (20140413.2041)
 -->
<!-- Title: SeeSawN::TrackerN::FeatureTrackerParametersC Pages: 1 -->
<svg width="958pt" height="563pt"
 viewBox="0.00 0.00 958.06 563.00" xmlns="http://www.w3.org/2000/svg" xmlns:xlink="http://www.w3.org/1999/xlink">
<g id="graph0" class="graph" transform="scale(1 1) rotate(0) translate(4 559)">
<title>SeeSawN::TrackerN::FeatureTrackerParametersC</title>
<polygon fill="white" stroke="none" points="-4,4 -4,-559 954.063,-559 954.063,4 -4,4"/>
<!-- Node1 -->
<g id="node1" class="node"><title>Node1</title>
<polygon fill="#bfbfbf" stroke="black" points="524.063,-0.5 524.063,-68.5 678.063,-68.5 678.063,-0.5 524.063,-0.5"/>
<text text-anchor="start" x="532.063" y="-56.5" font-family="FreeSans" font-size="10.00">SeeSawN::TrackerN::</text>
<text text-anchor="middle" x="601.063" y="-45.5" font-family="FreeSans" font-size="10.00">FeatureTrackerParametersC</text>
<polyline fill="none" stroke="black" points="524.063,-38.5 678.063,-38.5 "/>
<text text-anchor="middle" x="601.063" y="-26.5" font-family="FreeSans" font-size="10.00"> </text>
<polyline fill="none" stroke="black" points="524.063,-19.5 678.063,-19.5 "/>
<text text-anchor="start" x="532.063" y="-7.5" font-family="FreeSans" font-size="10.00">+ FeatureTrackerParametersC()</text>
</g>
<!-- Node2 -->
<g id="node2" class="node"><title>Node2</title>
<polygon fill="white" stroke="#bfbfbf" points="100.563,-392.5 100.563,-449.5 145.563,-449.5 145.563,-392.5 100.563,-392.5"/>
<text text-anchor="middle" x="123.063" y="-437.5" font-family="FreeSans" font-size="10.00">double</text>
<polyline fill="none" stroke="#bfbfbf" points="100.563,-430.5 145.563,-430.5 "/>
<text text-anchor="middle" x="123.063" y="-418.5" font-family="FreeSans" font-size="10.00"> </text>
<polyline fill="none" stroke="#bfbfbf" points="100.563,-411.5 145.563,-411.5 "/>
<text text-anchor="middle" x="123.063" y="-399.5" font-family="FreeSans" font-size="10.00"> </text>
</g>
<!-- Node2&#45;&gt;Node1 -->
<g id="edge1" class="edge"><title>Node2&#45;&gt;Node1</title>
<path fill="none" stroke="#404040" d="M100.543,-401.281C56.009,-362.011 -34.8556,-269.187 15.0631,-203 74.9433,-123.606 362.809,-70.4996 511.586,-47.8802"/>
<polygon fill="none" stroke="#404040" points="511.929,-47.8287 517.267,-42.9813 523.795,-46.0449 518.456,-50.8924 511.929,-47.8287"/>
<text text-anchor="middle" x="74.0631" y="-233.5" font-family="FreeSans" font-size="10.00"> +minNeighbourDistance</text>
<text text-anchor="middle" x="74.0631" y="-222.5" font-family="FreeSans" font-size="10.00">+maxMissRatio</text>
<text text-anchor="middle" x="74.0631" y="-211.5" font-family="FreeSans" font-size="10.00">+maxMahalanobisDistance</text>
</g>
<!-- Node5 -->
<g id="node5" class="node"><title>Node5</title>
<g id="a_node5"><a xlink:href="structSeeSawN_1_1MatcherN_1_1FeatureMatcherParametersC.html" target="_top" xlink:title="Parameters of FeatureMatcherC. ">
<polygon fill="white" stroke="black" points="385.063,-116.5 385.063,-184.5 541.063,-184.5 541.063,-116.5 385.063,-116.5"/>
<text text-anchor="start" x="393.063" y="-172.5" font-family="FreeSans" font-size="10.00">SeeSawN::MatcherN::</text>
<text text-anchor="middle" x="463.063" y="-161.5" font-family="FreeSans" font-size="10.00">FeatureMatcherParametersC</text>
<polyline fill="none" stroke="black" points="385.063,-154.5 541.063,-154.5 "/>
<text text-anchor="middle" x="463.063" y="-142.5" font-family="FreeSans" font-size="10.00"> </text>
<polyline fill="none" stroke="black" points="385.063,-135.5 541.063,-135.5 "/>
<text text-anchor="start" x="393.063" y="-123.5" font-family="FreeSans" font-size="10.00">+ FeatureMatcherParametersC()</text>
</a>
</g>
</g>
<!-- Node2&#45;&gt;Node5 -->
<g id="edge5" class="edge"><title>Node2&#45;&gt;Node5</title>
<path fill="none" stroke="#404040" d="M113.455,-392.246C103.773,-358.836 93.6837,-302.55 120.063,-265 176.366,-184.855 291.601,-160.253 372.926,-153.254"/>
<polygon fill="none" stroke="#404040" points="372.954,-153.252 378.628,-148.801 384.918,-152.327 379.244,-156.777 372.954,-153.252"/>
<text text-anchor="middle" x="180.563" y="-297" font-family="FreeSans" font-size="10.00"> +bucketSimilarityThreshold</text>
</g>
<!-- Node6 -->
<g id="node6" class="node"><title>Node6</title>
<polygon fill="white" stroke="#bfbfbf" points="250.563,-271 250.563,-328 361.563,-328 361.563,-271 250.563,-271"/>
<text text-anchor="middle" x="306.063" y="-316" font-family="FreeSans" font-size="10.00">std::array&lt; double, 2 &gt;</text>
<polyline fill="none" stroke="#bfbfbf" points="250.563,-309 361.563,-309 "/>
<text text-anchor="middle" x="306.063" y="-297" font-family="FreeSans" font-size="10.00"> </text>
<polyline fill="none" stroke="#bfbfbf" points="250.563,-290 361.563,-290 "/>
<text text-anchor="middle" x="306.063" y="-278" font-family="FreeSans" font-size="10.00"> </text>
</g>
<!-- Node2&#45;&gt;Node6 -->
<g id="edge9" class="edge"><title>Node2&#45;&gt;Node6</title>
<path fill="none" stroke="#404040" d="M131.018,-392.47C136.45,-378.379 145.068,-362.109 158.063,-352 186.145,-330.155 202.482,-345.75 236.063,-334 237.335,-333.555 238.614,-333.094 239.898,-332.618"/>
<polygon fill="none" stroke="#404040" points="240.368,-332.431 244.467,-326.499 251.52,-328.001 247.421,-333.933 240.368,-332.431"/>
<text text-anchor="middle" x="182.563" y="-360.5" font-family="FreeSans" font-size="10.00"> +elements</text>
</g>
<!-- Node9 -->
<g id="node9" class="node"><title>Node9</title>
<g id="a_node9"><a xlink:href="structSeeSawN_1_1MatcherN_1_1NearestNeighbourMatcherParametersC.html" target="_top" xlink:title="Parameter object for NearestNeighbourMatcherC. ">
<polygon fill="white" stroke="black" points="504.063,-265.5 504.063,-333.5 706.063,-333.5 706.063,-265.5 504.063,-265.5"/>
<text text-anchor="start" x="512.063" y="-321.5" font-family="FreeSans" font-size="10.00">SeeSawN::MatcherN::</text>
<text text-anchor="middle" x="605.063" y="-310.5" font-family="FreeSans" font-size="10.00">NearestNeighbourMatcherParametersC</text>
<polyline fill="none" stroke="black" points="504.063,-303.5 706.063,-303.5 "/>
<text text-anchor="middle" x="605.063" y="-291.5" font-family="FreeSans" font-size="10.00"> </text>
<polyline fill="none" stroke="black" points="504.063,-284.5 706.063,-284.5 "/>
<text text-anchor="start" x="512.063" y="-272.5" font-family="FreeSans" font-size="10.00">+ NearestNeighbourMatcherParametersC()</text>
</a>
</g>
</g>
<!-- Node2&#45;&gt;Node9 -->
<g id="edge13" class="edge"><title>Node2&#45;&gt;Node9</title>
<path fill="none" stroke="#404040" d="M145.982,-403.352C152.806,-399.069 160.49,-394.865 168.063,-392 213.168,-374.938 227.66,-382.857 275.063,-374 322.788,-365.083 334.332,-360.881 382.063,-352 429.904,-343.098 442.62,-344.824 490.063,-334 490.776,-333.837 491.491,-333.673 492.208,-333.507"/>
<polygon fill="none" stroke="#404040" points="492.292,-333.486 497.186,-328.191 503.957,-330.672 499.063,-335.967 492.292,-333.486"/>
<text text-anchor="middle" x="435.563" y="-366" font-family="FreeSans" font-size="10.00"> +ratioTestThreshold</text>
<text text-anchor="middle" x="435.563" y="-355" font-family="FreeSans" font-size="10.00">+similarityTestThreshold</text>
</g>
<!-- Node3 -->
<g id="node3" class="node"><title>Node3</title>
<polygon fill="white" stroke="#bfbfbf" points="778.563,-392.5 778.563,-449.5 807.563,-449.5 807.563,-392.5 778.563,-392.5"/>
<text text-anchor="middle" x="793.063" y="-437.5" font-family="FreeSans" font-size="10.00">int</text>
<polyline fill="none" stroke="#bfbfbf" points="778.563,-430.5 807.563,-430.5 "/>
<text text-anchor="middle" x="793.063" y="-418.5" font-family="FreeSans" font-size="10.00"> </text>
<polyline fill="none" stroke="#bfbfbf" points="778.563,-411.5 807.563,-411.5 "/>
<text text-anchor="middle" x="793.063" y="-399.5" font-family="FreeSans" font-size="10.00"> </text>
</g>
<!-- Node3&#45;&gt;Node1 -->
<g id="edge2" class="edge"><title>Node3&#45;&gt;Node1</title>
<path fill="none" stroke="#404040" d="M807.784,-406.836C823.951,-391.291 848.959,-363.762 859.063,-334 868.922,-304.961 870.325,-293.524 859.063,-265 825.123,-179.037 738.494,-113.379 674.945,-74.7458"/>
<polygon fill="none" stroke="#404040" points="674.863,-74.697 667.661,-75.0561 664.559,-68.5461 671.761,-68.1869 674.863,-74.697"/>
<text text-anchor="middle" x="900.063" y="-239" font-family="FreeSans" font-size="10.00"> +gracePeriod</text>
<text text-anchor="middle" x="900.063" y="-228" font-family="FreeSans" font-size="10.00">+nFeaturesPerPage</text>
<text text-anchor="middle" x="900.063" y="-217" font-family="FreeSans" font-size="10.00">+maxConsecutiveMiss</text>
<text text-anchor="middle" x="900.063" y="-206" font-family="FreeSans" font-size="10.00">+minLength</text>
</g>
<!-- Node3&#45;&gt;Node5 -->
<g id="edge6" class="edge"><title>Node3&#45;&gt;Node5</title>
<path fill="none" stroke="#404040" d="M795.356,-392.35C799.045,-340.185 803.606,-230.05 779.063,-203 749.546,-170.467 636.02,-158.475 553.472,-154.061"/>
<polygon fill="none" stroke="#404040" points="553.261,-154.05 547.069,-157.746 541.276,-153.451 547.468,-149.756 553.261,-154.05"/>
<text text-anchor="middle" x="826.563" y="-302.5" font-family="FreeSans" font-size="10.00"> +nThreads</text>
<text text-anchor="middle" x="826.563" y="-291.5" font-family="FreeSans" font-size="10.00">+minQuorum</text>
</g>
<!-- Node3&#45;&gt;Node9 -->
<g id="edge14" class="edge"><title>Node3&#45;&gt;Node9</title>
<path fill="none" stroke="#404040" d="M778.348,-416.21C755.543,-409.892 710.878,-395.718 678.063,-374 664.809,-365.228 652.006,-353.753 640.923,-342.487"/>
<polygon fill="none" stroke="#404040" points="640.696,-342.248 633.663,-340.657 632.427,-333.552 639.46,-335.144 640.696,-342.248"/>
<text text-anchor="middle" x="728.563" y="-366" font-family="FreeSans" font-size="10.00"> +neighbourhoodSize21</text>
<text text-anchor="middle" x="728.563" y="-355" font-family="FreeSans" font-size="10.00">+neighbourhoodSize12</text>
</g>
<!-- Node4 -->
<g id="node4" class="node"><title>Node4</title>
<g id="a_node4"><a xlink:href="classbool.html" target="_top" xlink:title="{bool\n||}">
<polygon fill="white" stroke="black" points="480.563,-392.5 480.563,-449.5 515.563,-449.5 515.563,-392.5 480.563,-392.5"/>
<text text-anchor="middle" x="498.063" y="-437.5" font-family="FreeSans" font-size="10.00">bool</text>
<polyline fill="none" stroke="black" points="480.563,-430.5 515.563,-430.5 "/>
<text text-anchor="middle" x="498.063" y="-418.5" font-family="FreeSans" font-size="10.00"> </text>
<polyline fill="none" stroke="black" points="480.563,-411.5 515.563,-411.5 "/>
<text text-anchor="middle" x="498.063" y="-399.5" font-family="FreeSans" font-size="10.00"> </text>
</a>
</g>
</g>
<!-- Node4&#45;&gt;Node1 -->
<g id="edge3" class="edge"><title>Node4&#45;&gt;Node1</title>
<path fill="none" stroke="#404040" d="M515.825,-419.103C563.818,-416.272 694.221,-405.746 720.063,-374 792.929,-284.488 697.981,-147.227 639.966,-78.2264"/>
<polygon fill="none" stroke="#404040" points="639.841,-78.0794 632.902,-76.1153 632.047,-68.9551 638.985,-70.9192 639.841,-78.0794"/>
<text text-anchor="middle" x="786.063" y="-222.5" font-family="FreeSans" font-size="10.00"> +flagStaticDescriptor</text>
</g>
<!-- Node4&#45;&gt;Node5 -->
<g id="edge7" class="edge"><title>Node4&#45;&gt;Node5</title>
<path fill="none" stroke="#404040" d="M480.514,-407.483C461.228,-392.533 431.354,-365.548 419.063,-334 401.264,-288.314 419.579,-233.3 437.709,-195.698"/>
<polygon fill="none" stroke="#404040" points="437.892,-195.334 437.019,-188.176 443.29,-184.617 444.164,-191.775 437.892,-195.334"/>
<text text-anchor="middle" x="457.063" y="-302.5" font-family="FreeSans" font-size="10.00"> +flagBucketFilter</text>
<text text-anchor="middle" x="457.063" y="-291.5" font-family="FreeSans" font-size="10.00">+flagStatic</text>
</g>
<!-- Node4&#45;&gt;Node9 -->
<g id="edge15" class="edge"><title>Node4&#45;&gt;Node9</title>
<path fill="none" stroke="#404040" d="M492.102,-392.271C490.788,-379.121 491.585,-363.755 499.063,-352 501.26,-348.548 503.76,-345.32 506.503,-342.304"/>
<polygon fill="none" stroke="#404040" points="506.689,-342.127 508.294,-335.097 515.4,-333.874 513.796,-340.904 506.689,-342.127"/>
<text text-anchor="middle" x="547.563" y="-360.5" font-family="FreeSans" font-size="10.00"> +flagConsistencyTest</text>
</g>
<!-- Node5&#45;&gt;Node1 -->
<g id="edge4" class="edge"><title>Node5&#45;&gt;Node1</title>
<path fill="none" stroke="#404040" d="M503.349,-116.22C518.371,-103.811 535.601,-89.5771 551.369,-76.5513"/>
<polygon fill="none" stroke="#404040" points="551.714,-76.2669 553.792,-69.3617 560.965,-68.6243 558.887,-75.5294 551.714,-76.2669"/>
<text text-anchor="middle" x="584.063" y="-90" font-family="FreeSans" font-size="10.00"> +matcherParameters</text>
</g>
<!-- Node6&#45;&gt;Node5 -->
<g id="edge8" class="edge"><title>Node6&#45;&gt;Node5</title>
<path fill="none" stroke="#404040" d="M298.379,-270.725C294.418,-250.083 292.973,-222.276 307.063,-203 322.753,-181.535 347.703,-168.874 373.087,-161.451"/>
<polygon fill="none" stroke="#404040" points="373.141,-161.437 377.932,-156.047 384.749,-158.396 379.959,-163.786 373.141,-161.437"/>
<text text-anchor="middle" x="351.563" y="-222.5" font-family="FreeSans" font-size="10.00"> +bucketDimensions</text>
</g>
<!-- Node7 -->
<g id="node7" class="node"><title>Node7</title>
<g id="a_node7"><a xlink:title="STL class. ">
<polygon fill="white" stroke="#bfbfbf" points="177.063,-392.5 177.063,-449.5 255.063,-449.5 255.063,-392.5 177.063,-392.5"/>
<text text-anchor="middle" x="216.063" y="-437.5" font-family="FreeSans" font-size="10.00">std::array&lt; T &gt;</text>
<polyline fill="none" stroke="#bfbfbf" points="177.063,-430.5 255.063,-430.5 "/>
<text text-anchor="middle" x="216.063" y="-418.5" font-family="FreeSans" font-size="10.00"> </text>
<polyline fill="none" stroke="#bfbfbf" points="177.063,-411.5 255.063,-411.5 "/>
<text text-anchor="middle" x="216.063" y="-399.5" font-family="FreeSans" font-size="10.00"> </text>
</a>
</g>
</g>
<!-- Node7&#45;&gt;Node6 -->
<g id="edge10" class="edge"><title>Node7&#45;&gt;Node6</title>
<path fill="none" stroke="orange" d="M209.999,-382.072C210.056,-371.736 211.821,-360.937 217.063,-352 221.398,-344.609 234.998,-335.519 250.304,-327.043"/>
<polygon fill="orange" stroke="orange" points="206.507,-382.331 210.446,-392.167 213.5,-382.021 206.507,-382.331"/>
<text text-anchor="middle" x="246.063" y="-360.5" font-family="FreeSans" font-size="10.00"> &lt; double, 2 &gt;</text>
</g>
<!-- Node8 -->
<g id="node8" class="node"><title>Node8</title>
<polygon fill="white" stroke="#bfbfbf" points="201.563,-497.5 201.563,-554.5 230.563,-554.5 230.563,-497.5 201.563,-497.5"/>
<text text-anchor="middle" x="216.063" y="-542.5" font-family="FreeSans" font-size="10.00">T</text>
<polyline fill="none" stroke="#bfbfbf" points="201.563,-535.5 230.563,-535.5 "/>
<text text-anchor="middle" x="216.063" y="-523.5" font-family="FreeSans" font-size="10.00"> </text>
<polyline fill="none" stroke="#bfbfbf" points="201.563,-516.5 230.563,-516.5 "/>
<text text-anchor="middle" x="216.063" y="-504.5" font-family="FreeSans" font-size="10.00"> </text>
</g>
<!-- Node8&#45;&gt;Node7 -->
<g id="edge11" class="edge"><title>Node8&#45;&gt;Node7</title>
<path fill="none" stroke="#404040" d="M216.063,-497.398C216.063,-486.545 216.063,-473.873 216.063,-462.049"/>
<polygon fill="none" stroke="#404040" points="216.063,-461.678 212.063,-455.678 216.063,-449.678 220.063,-455.678 216.063,-461.678"/>
<text text-anchor="middle" x="240.563" y="-471" font-family="FreeSans" font-size="10.00"> +elements</text>
</g>
<!-- Node9&#45;&gt;Node5 -->
<g id="edge12" class="edge"><title>Node9&#45;&gt;Node5</title>
<path fill="none" stroke="#404040" d="M572.841,-265.143C552.325,-243.905 525.578,-216.216 503.622,-193.487"/>
<polygon fill="none" stroke="#404040" points="503.495,-193.355 496.449,-191.819 495.158,-184.725 502.203,-186.261 503.495,-193.355"/>
<text text-anchor="middle" x="591.063" y="-222.5" font-family="FreeSans" font-size="10.00"> +nnParameters</text>
</g>
</g>
</svg>
