<?xml version="1.0" encoding="UTF-8" standalone="no"?>
<!DOCTYPE svg PUBLIC "-//W3C//DTD SVG 1.1//EN"
 "http://www.w3.org/Graphics/SVG/1.1/DTD/svg11.dtd">
<!-- Generated by graphviz version 2.38.0 (20140413.2041)
 -->
<!-- Title: SeeSawN::GeometryN::Sparse3DReconstructionPipelineDiagnosticsC Pages: 1 -->
<!--zoomable 767 -->
<svg id="main" version="1.1" xmlns="http://www.w3.org/2000/svg" xmlns:xlink="http://www.w3.org/1999/xlink" xml:space="preserve" onload="init(evt)">
<style type="text/css"><![CDATA[
.edge:hover path { stroke: red; }
.edge:hover polygon { stroke: red; fill: red; }
]]></style>
<script type="text/javascript"><![CDATA[
var edges = document.getElementsByTagName('g');
if (edges && edges.length) {
  for (var i=0;i<edges.length;i++) {
    if (edges[i].id.substr(0,4)=='edge') {
      edges[i].setAttribute('class','edge');
    }
  }
}
]]></script>
        <defs>
                <circle id="rim" cx="0" cy="0" r="7"/>
                <circle id="rim2" cx="0" cy="0" r="3.5"/>
                <g id="zoomPlus">
                        <use xlink:href="#rim" fill="#404040">
                                <set attributeName="fill" to="#808080" begin="zoomplus.mouseover" end="zoomplus.mouseout"/>
                        </use>
                        <path d="M-4,0h8M0,-4v8" fill="none" stroke="white" stroke-width="1.5" pointer-events="none"/>
                </g>
                <g id="zoomMin">
                        <use xlink:href="#rim" fill="#404040">
                                <set attributeName="fill" to="#808080" begin="zoomminus.mouseover" end="zoomminus.mouseout"/>
                        </use>
                        <path d="M-4,0h8" fill="none" stroke="white" stroke-width="1.5" pointer-events="none"/>
                </g>
                <g id="dirArrow">
                        <path fill="none" stroke="white" stroke-width="1.5" d="M0,-3.0v7 M-2.5,-0.5L0,-3.0L2.5,-0.5"/>
                </g>
               <g id="resetDef">
                       <use xlink:href="#rim2" fill="#404040">
                               <set attributeName="fill" to="#808080" begin="reset.mouseover" end="reset.mouseout"/>
                       </use>
               </g>
        </defs>

<script type="text/javascript">
var viewWidth = 916;
var viewHeight = 767;
var sectionId = 'dynsection-0';
</script>
<script xlink:href="svgpan.js"/>
<svg id="graph" class="graph">
<g id="viewport">
<title>SeeSawN::GeometryN::Sparse3DReconstructionPipelineDiagnosticsC</title>
<polygon fill="white" stroke="none" points="-4,4 -4,-763 912,-763 912,4 -4,4"/>
<!-- Node1 -->
<g id="node1" class="node"><title>Node1</title>
<polygon fill="#bfbfbf" stroke="black" points="632.5,-0.5 632.5,-90.5 799.5,-90.5 799.5,-0.5 632.5,-0.5"/>
<text text-anchor="start" x="640.5" y="-78.5" font-family="FreeSans" font-size="10.00">SeeSawN::GeometryN</text>
<text text-anchor="start" x="640.5" y="-67.5" font-family="FreeSans" font-size="10.00">::Sparse3DReconstructionPipeline</text>
<text text-anchor="middle" x="716" y="-56.5" font-family="FreeSans" font-size="10.00">DiagnosticsC</text>
<polyline fill="none" stroke="black" points="632.5,-49.5 799.5,-49.5 "/>
<text text-anchor="middle" x="716" y="-37.5" font-family="FreeSans" font-size="10.00"> </text>
<polyline fill="none" stroke="black" points="632.5,-30.5 799.5,-30.5 "/>
<text text-anchor="start" x="640.5" y="-18.5" font-family="FreeSans" font-size="10.00">+ Sparse3DReconstructionPipeline</text>
<text text-anchor="start" x="640.5" y="-7.5" font-family="FreeSans" font-size="10.00">DiagnosticsC()</text>
</g>
<!-- Node2 -->
<g id="node2" class="node"><title>Node2</title>
<g id="a_node2"><a xlink:href="structSeeSawN_1_1MatcherN_1_1MultisourceFeatureMatcherDiagnosticsC.html" target="_top" xlink:title="Diagnostics for MultisourceFeatureMatcherC. ">
<polygon fill="white" stroke="black" points="457.5,-138.5 457.5,-217.5 650.5,-217.5 650.5,-138.5 457.5,-138.5"/>
<text text-anchor="start" x="465.5" y="-205.5" font-family="FreeSans" font-size="10.00">SeeSawN::MatcherN::</text>
<text text-anchor="middle" x="554" y="-194.5" font-family="FreeSans" font-size="10.00">MultisourceFeatureMatcherDiagnosticsC</text>
<polyline fill="none" stroke="black" points="457.5,-187.5 650.5,-187.5 "/>
<text text-anchor="middle" x="554" y="-175.5" font-family="FreeSans" font-size="10.00"> </text>
<polyline fill="none" stroke="black" points="457.5,-168.5 650.5,-168.5 "/>
<text text-anchor="start" x="465.5" y="-156.5" font-family="FreeSans" font-size="10.00">+ MultisourceFeatureMatcher</text>
<text text-anchor="start" x="465.5" y="-145.5" font-family="FreeSans" font-size="10.00">DiagnosticsC()</text>
</a>
</g>
</g>
<!-- Node2&#45;&gt;Node1 -->
<g id="edge1" class="edge"><title>Node2&#45;&gt;Node1</title>
<path fill="none" stroke="#404040" d="M579.938,-138.381C587.893,-128.122 597.164,-117.534 607,-109 611.891,-104.756 617.114,-100.655 622.525,-96.7227"/>
<polygon fill="none" stroke="#404040" points="622.587,-96.6802 625.229,-89.9708 632.439,-89.8298 629.796,-96.5392 622.587,-96.6802"/>
<text text-anchor="middle" x="654.5" y="-112" font-family="FreeSans" font-size="10.00"> +matcherDiagnostics</text>
</g>
<!-- Node3 -->
<g id="node3" class="node"><title>Node3</title>
<polygon fill="white" stroke="#bfbfbf" points="591.5,-569 591.5,-626 620.5,-626 620.5,-569 591.5,-569"/>
<text text-anchor="middle" x="606" y="-614" font-family="FreeSans" font-size="10.00">int</text>
<polyline fill="none" stroke="#bfbfbf" points="591.5,-607 620.5,-607 "/>
<text text-anchor="middle" x="606" y="-595" font-family="FreeSans" font-size="10.00"> </text>
<polyline fill="none" stroke="#bfbfbf" points="591.5,-588 620.5,-588 "/>
<text text-anchor="middle" x="606" y="-576" font-family="FreeSans" font-size="10.00"> </text>
</g>
<!-- Node3&#45;&gt;Node2 -->
<g id="edge2" class="edge"><title>Node3&#45;&gt;Node2</title>
<path fill="none" stroke="#404040" d="M602.548,-568.783C593.934,-499.625 571.393,-318.645 560.321,-229.753"/>
<polygon fill="none" stroke="#404040" points="560.289,-229.494 555.578,-224.034 558.806,-217.586 563.517,-223.045 560.289,-229.494"/>
<text text-anchor="middle" x="615.5" y="-399" font-family="FreeSans" font-size="10.00"> +nClusters</text>
<text text-anchor="middle" x="615.5" y="-388" font-family="FreeSans" font-size="10.00">+nSourcePairs</text>
<text text-anchor="middle" x="615.5" y="-377" font-family="FreeSans" font-size="10.00">+nObserved</text>
<text text-anchor="middle" x="615.5" y="-366" font-family="FreeSans" font-size="10.00">+nImplied</text>
</g>
<!-- Node8 -->
<g id="node8" class="node"><title>Node8</title>
<g id="a_node8"><a xlink:href="structSeeSawN_1_1MatcherN_1_1FeatureMatcherDiagnosticsC.html" target="_top" xlink:title="Diagnostics for FeatureMatcherC. ">
<polygon fill="white" stroke="black" points="323.5,-425.5 323.5,-493.5 466.5,-493.5 466.5,-425.5 323.5,-425.5"/>
<text text-anchor="start" x="331.5" y="-481.5" font-family="FreeSans" font-size="10.00">SeeSawN::MatcherN::</text>
<text text-anchor="middle" x="395" y="-470.5" font-family="FreeSans" font-size="10.00">FeatureMatcherDiagnosticsC</text>
<polyline fill="none" stroke="black" points="323.5,-463.5 466.5,-463.5 "/>
<text text-anchor="middle" x="395" y="-451.5" font-family="FreeSans" font-size="10.00"> </text>
<polyline fill="none" stroke="black" points="323.5,-444.5 466.5,-444.5 "/>
<text text-anchor="middle" x="395" y="-432.5" font-family="FreeSans" font-size="10.00"> </text>
</a>
</g>
</g>
<!-- Node3&#45;&gt;Node8 -->
<g id="edge8" class="edge"><title>Node3&#45;&gt;Node8</title>
<path fill="none" stroke="#404040" d="M591.36,-590.411C570.748,-581.583 532.307,-564.175 502,-545 481.747,-532.186 460.777,-516.29 442.825,-501.754"/>
<polygon fill="none" stroke="#404040" points="442.463,-501.458 435.288,-500.745 433.186,-493.847 440.361,-494.56 442.463,-501.458"/>
<text text-anchor="middle" x="547" y="-526" font-family="FreeSans" font-size="10.00"> +sCorrespondences</text>
</g>
<!-- Node14 -->
<g id="node14" class="node"><title>Node14</title>
<g id="a_node14"><a xlink:href="structSeeSawN_1_1GeometryN_1_1MultiviewTriangulationDiagnosticsC.html" target="_top" xlink:title="Diagnostics for MultiviewTriangulationC. ">
<polygon fill="white" stroke="black" points="633.5,-425.5 633.5,-493.5 818.5,-493.5 818.5,-425.5 633.5,-425.5"/>
<text text-anchor="start" x="641.5" y="-481.5" font-family="FreeSans" font-size="10.00">SeeSawN::GeometryN</text>
<text text-anchor="middle" x="726" y="-470.5" font-family="FreeSans" font-size="10.00">::MultiviewTriangulationDiagnosticsC</text>
<polyline fill="none" stroke="black" points="633.5,-463.5 818.5,-463.5 "/>
<text text-anchor="middle" x="726" y="-451.5" font-family="FreeSans" font-size="10.00"> </text>
<polyline fill="none" stroke="black" points="633.5,-444.5 818.5,-444.5 "/>
<text text-anchor="start" x="641.5" y="-432.5" font-family="FreeSans" font-size="10.00">+ MultiviewTriangulationDiagnosticsC()</text>
</a>
</g>
</g>
<!-- Node3&#45;&gt;Node14 -->
<g id="edge18" class="edge"><title>Node3&#45;&gt;Node14</title>
<path fill="none" stroke="#404040" d="M612.201,-568.985C617.31,-551.179 626.033,-528.353 640,-512 643.152,-508.309 646.639,-504.811 650.349,-501.508"/>
<polygon fill="none" stroke="#404040" points="650.652,-501.262 652.789,-494.375 659.969,-493.7 657.831,-500.587 650.652,-501.262"/>
<text text-anchor="middle" x="678" y="-537" font-family="FreeSans" font-size="10.00"> +nFiltered3D</text>
<text text-anchor="middle" x="678" y="-526" font-family="FreeSans" font-size="10.00">+nOriginal3D</text>
<text text-anchor="middle" x="678" y="-515" font-family="FreeSans" font-size="10.00">+nMeasurements</text>
</g>
<!-- Node4 -->
<g id="node4" class="node"><title>Node4</title>
<g id="a_node4"><a xlink:href="classbool.html" target="_top" xlink:title="{bool\n||}">
<polygon fill="white" stroke="black" points="530.5,-701.5 530.5,-758.5 565.5,-758.5 565.5,-701.5 530.5,-701.5"/>
<text text-anchor="middle" x="548" y="-746.5" font-family="FreeSans" font-size="10.00">bool</text>
<polyline fill="none" stroke="black" points="530.5,-739.5 565.5,-739.5 "/>
<text text-anchor="middle" x="548" y="-727.5" font-family="FreeSans" font-size="10.00"> </text>
<polyline fill="none" stroke="black" points="530.5,-720.5 565.5,-720.5 "/>
<text text-anchor="middle" x="548" y="-708.5" font-family="FreeSans" font-size="10.00"> </text>
</a>
</g>
</g>
<!-- Node4&#45;&gt;Node1 -->
<g id="edge16" class="edge"><title>Node4&#45;&gt;Node1</title>
<path fill="none" stroke="#404040" d="M565.749,-729.366C629.903,-729.686 846,-721.625 846,-598.5 846,-598.5 846,-598.5 846,-177 846,-145.524 826.783,-118.961 803.126,-98.1855"/>
<polygon fill="none" stroke="#404040" points="803.108,-98.1706 795.937,-97.4179 793.873,-90.5084 801.045,-91.2611 803.108,-98.1706"/>
<text text-anchor="middle" x="877" y="-382.5" font-family="FreeSans" font-size="10.00"> +flagSuccess</text>
</g>
<!-- Node4&#45;&gt;Node2 -->
<g id="edge3" class="edge"><title>Node4&#45;&gt;Node2</title>
<path fill="none" stroke="#404040" d="M551.514,-701.434C555.774,-659.028 559.529,-575.993 534,-512 530.141,-502.328 522.545,-503.792 519,-494 508.56,-465.165 516.835,-455.59 519,-425 523.815,-356.968 536.032,-279.14 544.672,-229.564"/>
<polygon fill="none" stroke="#404040" points="544.699,-229.409 541.803,-222.805 546.785,-217.592 549.681,-224.195 544.699,-229.409"/>
<text text-anchor="middle" x="550" y="-457" font-family="FreeSans" font-size="10.00"> +flagSuccess</text>
</g>
<!-- Node4&#45;&gt;Node8 -->
<g id="edge9" class="edge"><title>Node4&#45;&gt;Node8</title>
<path fill="none" stroke="#404040" d="M530.483,-709.6C514.015,-690.721 489.364,-660.752 472,-632 447.215,-590.961 425.521,-540.551 411.531,-505.038"/>
<polygon fill="none" stroke="#404040" points="411.434,-504.786 405.533,-500.641 407.089,-493.6 412.99,-497.745 411.434,-504.786"/>
<text text-anchor="middle" x="503" y="-595" font-family="FreeSans" font-size="10.00"> +flagSuccess</text>
</g>
<!-- Node9 -->
<g id="node9" class="node"><title>Node9</title>
<g id="a_node9"><a xlink:href="structSeeSawN_1_1MatcherN_1_1NearestNeighbourMatcherDiagnosticsC.html" target="_top" xlink:title="Diagnostics object for NearestNeighbourMatcherC. ">
<polygon fill="white" stroke="black" points="218.5,-563.5 218.5,-631.5 421.5,-631.5 421.5,-563.5 218.5,-563.5"/>
<text text-anchor="start" x="226.5" y="-619.5" font-family="FreeSans" font-size="10.00">SeeSawN::MatcherN::</text>
<text text-anchor="middle" x="320" y="-608.5" font-family="FreeSans" font-size="10.00">NearestNeighbourMatcherDiagnosticsC</text>
<polyline fill="none" stroke="black" points="218.5,-601.5 421.5,-601.5 "/>
<text text-anchor="middle" x="320" y="-589.5" font-family="FreeSans" font-size="10.00"> </text>
<polyline fill="none" stroke="black" points="218.5,-582.5 421.5,-582.5 "/>
<text text-anchor="start" x="226.5" y="-570.5" font-family="FreeSans" font-size="10.00">+ NearestNeighbourMatcherDiagnosticsC()</text>
</a>
</g>
</g>
<!-- Node4&#45;&gt;Node9 -->
<g id="edge11" class="edge"><title>Node4&#45;&gt;Node9</title>
<path fill="none" stroke="#404040" d="M530.345,-727.994C498.076,-725.37 428.614,-716.012 382,-683 367.411,-672.668 369.51,-664.462 359,-650 356.96,-647.193 354.844,-644.312 352.699,-641.417"/>
<polygon fill="none" stroke="#404040" points="352.549,-641.216 345.754,-638.801 345.369,-631.6 352.164,-634.015 352.549,-641.216"/>
<text text-anchor="middle" x="413" y="-664" font-family="FreeSans" font-size="10.00"> +flagSuccess</text>
</g>
<!-- Node4&#45;&gt;Node14 -->
<g id="edge19" class="edge"><title>Node4&#45;&gt;Node14</title>
<path fill="none" stroke="#404040" d="M565.549,-716.122C600.994,-689 680.742,-622.104 716,-545 721.493,-532.987 724.369,-519.056 725.786,-506.013"/>
<polygon fill="none" stroke="#404040" points="725.8,-505.835 722.279,-499.541 726.735,-493.871 730.255,-500.165 725.8,-505.835"/>
<text text-anchor="middle" x="737" y="-595" font-family="FreeSans" font-size="10.00"> +flagSuccess</text>
</g>
<!-- Node5 -->
<g id="node5" class="node"><title>Node5</title>
<polygon fill="white" stroke="#bfbfbf" points="277.5,-265.5 277.5,-344.5 480.5,-344.5 480.5,-265.5 277.5,-265.5"/>
<text text-anchor="start" x="285.5" y="-332.5" font-family="FreeSans" font-size="10.00">std::map&lt; tuple&lt; size</text>
<text text-anchor="start" x="285.5" y="-321.5" font-family="FreeSans" font-size="10.00">_t, size_t &gt;, SeeSawN</text>
<text text-anchor="middle" x="379" y="-310.5" font-family="FreeSans" font-size="10.00">::MatcherN::FeatureMatcherDiagnosticsC &gt;</text>
<polyline fill="none" stroke="#bfbfbf" points="277.5,-303.5 480.5,-303.5 "/>
<text text-anchor="middle" x="379" y="-291.5" font-family="FreeSans" font-size="10.00"> </text>
<polyline fill="none" stroke="#bfbfbf" points="277.5,-284.5 480.5,-284.5 "/>
<text text-anchor="middle" x="379" y="-272.5" font-family="FreeSans" font-size="10.00"> </text>
</g>
<!-- Node5&#45;&gt;Node2 -->
<g id="edge4" class="edge"><title>Node5&#45;&gt;Node2</title>
<path fill="none" stroke="#404040" d="M388.697,-265.447C392.894,-254.832 398.791,-244.04 407,-236 418.219,-225.011 431.794,-216.084 446.104,-208.847"/>
<polygon fill="none" stroke="#404040" points="446.307,-208.751 450.03,-202.576 457.163,-203.637 453.44,-209.813 446.307,-208.751"/>
<text text-anchor="middle" x="454.5" y="-239" font-family="FreeSans" font-size="10.00"> +matcherDiagnostics</text>
</g>
<!-- Node6 -->
<g id="node6" class="node"><title>Node6</title>
<polygon fill="white" stroke="#bfbfbf" points="0,-431 0,-488 110,-488 110,-431 0,-431"/>
<text text-anchor="middle" x="55" y="-476" font-family="FreeSans" font-size="10.00">tuple&lt; size_t, size_t &gt;</text>
<polyline fill="none" stroke="#bfbfbf" points="0,-469 110,-469 "/>
<text text-anchor="middle" x="55" y="-457" font-family="FreeSans" font-size="10.00"> </text>
<polyline fill="none" stroke="#bfbfbf" points="0,-450 110,-450 "/>
<text text-anchor="middle" x="55" y="-438" font-family="FreeSans" font-size="10.00"> </text>
</g>
<!-- Node6&#45;&gt;Node5 -->
<g id="edge5" class="edge"><title>Node6&#45;&gt;Node5</title>
<path fill="none" stroke="#404040" d="M84.1035,-430.623C107.724,-409.372 142.778,-380.815 178,-363 205.288,-349.198 236.403,-338.305 265.864,-329.901"/>
<polygon fill="none" stroke="#404040" points="265.93,-329.883 270.648,-324.429 277.496,-326.685 272.779,-332.14 265.93,-329.883"/>
<text text-anchor="middle" x="192.5" y="-382.5" font-family="FreeSans" font-size="10.00"> +keys</text>
</g>
<!-- Node7 -->
<g id="node7" class="node"><title>Node7</title>
<polygon fill="white" stroke="#bfbfbf" points="19,-569 19,-626 57,-626 57,-569 19,-569"/>
<text text-anchor="middle" x="38" y="-614" font-family="FreeSans" font-size="10.00">tuple</text>
<polyline fill="none" stroke="#bfbfbf" points="19,-607 57,-607 "/>
<text text-anchor="middle" x="38" y="-595" font-family="FreeSans" font-size="10.00"> </text>
<polyline fill="none" stroke="#bfbfbf" points="19,-588 57,-588 "/>
<text text-anchor="middle" x="38" y="-576" font-family="FreeSans" font-size="10.00"> </text>
</g>
<!-- Node7&#45;&gt;Node6 -->
<g id="edge6" class="edge"><title>Node7&#45;&gt;Node6</title>
<path fill="none" stroke="orange" d="M36.1254,-558.703C36.0033,-544.04 36.6075,-527.16 39,-512 40.2406,-504.139 42.4213,-495.821 44.781,-488.215"/>
<polygon fill="orange" stroke="orange" points="32.6305,-559.003 36.3275,-568.932 39.6292,-558.864 32.6305,-559.003"/>
<text text-anchor="middle" x="77" y="-526" font-family="FreeSans" font-size="10.00"> &lt; size_t, size_t &gt;</text>
</g>
<!-- Node8&#45;&gt;Node5 -->
<g id="edge7" class="edge"><title>Node8&#45;&gt;Node5</title>
<path fill="none" stroke="#404040" d="M391.528,-425.41C389.427,-405.379 386.704,-379.424 384.333,-356.831"/>
<polygon fill="none" stroke="#404040" points="384.311,-356.618 379.707,-351.069 383.059,-344.684 387.663,-350.234 384.311,-356.618"/>
<text text-anchor="middle" x="414.5" y="-382.5" font-family="FreeSans" font-size="10.00"> +elements</text>
</g>
<!-- Node9&#45;&gt;Node8 -->
<g id="edge10" class="edge"><title>Node9&#45;&gt;Node8</title>
<path fill="none" stroke="#404040" d="M317.132,-563.398C317.154,-547.01 319.446,-527.476 328,-512 329.788,-508.766 331.872,-505.67 334.178,-502.715"/>
<polygon fill="none" stroke="#404040" points="334.189,-502.703 335.217,-495.565 342.201,-493.769 341.173,-500.906 334.189,-502.703"/>
<text text-anchor="middle" x="362" y="-531.5" font-family="FreeSans" font-size="10.00"> +bfDiagnostics</text>
<text text-anchor="middle" x="362" y="-520.5" font-family="FreeSans" font-size="10.00">+nnDiagnostics</text>
</g>
<!-- Node10 -->
<g id="node10" class="node"><title>Node10</title>
<polygon fill="white" stroke="#bfbfbf" points="249,-701.5 249,-758.5 291,-758.5 291,-701.5 249,-701.5"/>
<text text-anchor="middle" x="270" y="-746.5" font-family="FreeSans" font-size="10.00">size_t</text>
<polyline fill="none" stroke="#bfbfbf" points="249,-739.5 291,-739.5 "/>
<text text-anchor="middle" x="270" y="-727.5" font-family="FreeSans" font-size="10.00"> </text>
<polyline fill="none" stroke="#bfbfbf" points="249,-720.5 291,-720.5 "/>
<text text-anchor="middle" x="270" y="-708.5" font-family="FreeSans" font-size="10.00"> </text>
</g>
<!-- Node10&#45;&gt;Node9 -->
<g id="edge12" class="edge"><title>Node10&#45;&gt;Node9</title>
<path fill="none" stroke="#404040" d="M265.503,-701.328C264.135,-685.703 264.432,-666.134 271,-650 272.16,-647.15 273.56,-644.366 275.14,-641.663"/>
<polygon fill="none" stroke="#404040" points="275.215,-641.554 275.318,-634.344 282.014,-631.666 281.91,-638.877 275.215,-641.554"/>
<text text-anchor="middle" x="315" y="-675" font-family="FreeSans" font-size="10.00"> +sSet1</text>
<text text-anchor="middle" x="315" y="-664" font-family="FreeSans" font-size="10.00">+sSet2</text>
<text text-anchor="middle" x="315" y="-653" font-family="FreeSans" font-size="10.00">+sCorrespondences</text>
</g>
<!-- Node11 -->
<g id="node11" class="node"><title>Node11</title>
<g id="a_node11"><a xlink:title="STL class. ">
<polygon fill="white" stroke="#bfbfbf" points="145,-431 145,-488 233,-488 233,-431 145,-431"/>
<text text-anchor="middle" x="189" y="-476" font-family="FreeSans" font-size="10.00">std::map&lt; K, T &gt;</text>
<polyline fill="none" stroke="#bfbfbf" points="145,-469 233,-469 "/>
<text text-anchor="middle" x="189" y="-457" font-family="FreeSans" font-size="10.00"> </text>
<polyline fill="none" stroke="#bfbfbf" points="145,-450 233,-450 "/>
<text text-anchor="middle" x="189" y="-438" font-family="FreeSans" font-size="10.00"> </text>
</a>
</g>
</g>
<!-- Node11&#45;&gt;Node5 -->
<g id="edge13" class="edge"><title>Node11&#45;&gt;Node5</title>
<path fill="none" stroke="orange" d="M202.868,-421.715C211.812,-402.129 225.137,-378.875 243,-363 253.142,-353.987 264.914,-346.262 277.206,-339.68"/>
<polygon fill="orange" stroke="orange" points="199.614,-420.422 198.829,-430.988 206.031,-423.218 199.614,-420.422"/>
<text text-anchor="start" x="243" y="-393.5" font-family="FreeSans" font-size="10.00"> &lt; tuple&lt; size_t, size</text>
<text text-anchor="start" x="243" y="-382.5" font-family="FreeSans" font-size="10.00">_t &gt;, SeeSawN::MatcherN</text>
<text text-anchor="middle" x="312.5" y="-371.5" font-family="FreeSans" font-size="10.00">::FeatureMatcherDiagnosticsC &gt;</text>
</g>
<!-- Node12 -->
<g id="node12" class="node"><title>Node12</title>
<polygon fill="white" stroke="#bfbfbf" points="122.5,-569 122.5,-626 151.5,-626 151.5,-569 122.5,-569"/>
<text text-anchor="middle" x="137" y="-614" font-family="FreeSans" font-size="10.00">K</text>
<polyline fill="none" stroke="#bfbfbf" points="122.5,-607 151.5,-607 "/>
<text text-anchor="middle" x="137" y="-595" font-family="FreeSans" font-size="10.00"> </text>
<polyline fill="none" stroke="#bfbfbf" points="122.5,-588 151.5,-588 "/>
<text text-anchor="middle" x="137" y="-576" font-family="FreeSans" font-size="10.00"> </text>
</g>
<!-- Node12&#45;&gt;Node11 -->
<g id="edge14" class="edge"><title>Node12&#45;&gt;Node11</title>
<path fill="none" stroke="#404040" d="M140.254,-568.698C142.873,-551.825 147.408,-530.123 155,-512 156.879,-507.515 159.16,-503.001 161.643,-498.61"/>
<polygon fill="none" stroke="#404040" points="161.85,-498.27 161.569,-491.064 168.112,-488.033 168.393,-495.238 161.85,-498.27"/>
<text text-anchor="middle" x="169.5" y="-526" font-family="FreeSans" font-size="10.00"> +keys</text>
</g>
<!-- Node13 -->
<g id="node13" class="node"><title>Node13</title>
<polygon fill="white" stroke="#bfbfbf" points="171.5,-569 171.5,-626 200.5,-626 200.5,-569 171.5,-569"/>
<text text-anchor="middle" x="186" y="-614" font-family="FreeSans" font-size="10.00">T</text>
<polyline fill="none" stroke="#bfbfbf" points="171.5,-607 200.5,-607 "/>
<text text-anchor="middle" x="186" y="-595" font-family="FreeSans" font-size="10.00"> </text>
<polyline fill="none" stroke="#bfbfbf" points="171.5,-588 200.5,-588 "/>
<text text-anchor="middle" x="186" y="-576" font-family="FreeSans" font-size="10.00"> </text>
</g>
<!-- Node13&#45;&gt;Node11 -->
<g id="edge15" class="edge"><title>Node13&#45;&gt;Node11</title>
<path fill="none" stroke="#404040" d="M186.607,-568.978C187.041,-549.292 187.633,-522.49 188.119,-500.453"/>
<polygon fill="none" stroke="#404040" points="188.119,-500.445 184.252,-494.358 188.384,-488.447 192.25,-494.534 188.119,-500.445"/>
<text text-anchor="middle" x="212.5" y="-526" font-family="FreeSans" font-size="10.00"> +elements</text>
</g>
<!-- Node14&#45;&gt;Node1 -->
<g id="edge17" class="edge"><title>Node14&#45;&gt;Node1</title>
<path fill="none" stroke="#404040" d="M724.195,-425.178C722.028,-383.518 718.497,-310.012 717,-247 715.845,-198.38 715.653,-143.11 715.716,-102.931"/>
<polygon fill="none" stroke="#404040" points="715.717,-102.707 711.731,-96.6975 715.744,-90.7067 719.731,-96.7159 715.717,-102.707"/>
<text text-anchor="middle" x="774.5" y="-239" font-family="FreeSans" font-size="10.00"> +triangulationDiagnositics</text>
</g>
</g>
</svg>
        <g id="navigator" transform="translate(0 0)" fill="#404254">
                <rect fill="#f2f5e9" fill-opacity="0.5" stroke="#606060" stroke-width=".5" x="0" y="0" width="60" height="60"/>
                <use id="zoomplus" xlink:href="#zoomPlus" x="17" y="9" onmousedown="handleZoom(evt,'in')"/>
                <use id="zoomminus" xlink:href="#zoomMin" x="42" y="9" onmousedown="handleZoom(evt,'out')"/>
                <use id="reset" xlink:href="#resetDef" x="30" y="36" onmousedown="handleReset()"/>
                <g id="arrowUp" xlink:href="#dirArrow" transform="translate(30 24)" onmousedown="handlePan(0,-1)">
                  <use xlink:href="#rim" fill="#404040">
                        <set attributeName="fill" to="#808080" begin="arrowUp.mouseover" end="arrowUp.mouseout"/>
                  </use>
                  <path fill="none" stroke="white" stroke-width="1.5" d="M0,-3.0v7 M-2.5,-0.5L0,-3.0L2.5,-0.5"/>
                </g>
                <g id="arrowRight" xlink:href="#dirArrow" transform="rotate(90) translate(36 -43)" onmousedown="handlePan(1,0)">
                  <use xlink:href="#rim" fill="#404040">
                        <set attributeName="fill" to="#808080" begin="arrowRight.mouseover" end="arrowRight.mouseout"/>
                  </use>
                  <path fill="none" stroke="white" stroke-width="1.5" d="M0,-3.0v7 M-2.5,-0.5L0,-3.0L2.5,-0.5"/>
                </g>
                <g id="arrowDown" xlink:href="#dirArrow" transform="rotate(180) translate(-30 -48)" onmousedown="handlePan(0,1)">
                  <use xlink:href="#rim" fill="#404040">
                        <set attributeName="fill" to="#808080" begin="arrowDown.mouseover" end="arrowDown.mouseout"/>
                  </use>
                  <path fill="none" stroke="white" stroke-width="1.5" d="M0,-3.0v7 M-2.5,-0.5L0,-3.0L2.5,-0.5"/>
                </g>
                <g id="arrowLeft" xlink:href="#dirArrow" transform="rotate(270) translate(-36 17)" onmousedown="handlePan(-1,0)">
                  <use xlink:href="#rim" fill="#404040">
                        <set attributeName="fill" to="#808080" begin="arrowLeft.mouseover" end="arrowLeft.mouseout"/>
                  </use>
                  <path fill="none" stroke="white" stroke-width="1.5" d="M0,-3.0v7 M-2.5,-0.5L0,-3.0L2.5,-0.5"/>
                </g>
        </g>
        <svg viewBox="0 0 15 15" width="100%" height="30px" preserveAspectRatio="xMaxYMin meet">
         <g id="arrow_out" transform="scale(0.3 0.3)">
          <a xlink:href="structSeeSawN_1_1GeometryN_1_1Sparse3DReconstructionPipelineDiagnosticsC__coll__graph_org.svg" target="_base">
           <rect id="button" ry="5" rx="5" y="6" x="6" height="38" width="38"
                fill="#f2f5e9" fill-opacity="0.5" stroke="#606060" stroke-width="1.0"/>
           <path id="arrow"
             d="M 11.500037,31.436501 C 11.940474,20.09759 22.043105,11.32322 32.158766,21.979434 L 37.068811,17.246167 C 37.068811,17.246167 37.088388,32 37.088388,32 L 22.160133,31.978069 C 22.160133,31.978069 26.997745,27.140456 26.997745,27.140456 C 18.528582,18.264221 13.291696,25.230495 11.500037,31.436501 z"
             style="fill:#404040;"/>
          </a>
         </g>
        </svg>
</svg>
