<?xml version="1.0" encoding="UTF-8" standalone="no"?>
<!DOCTYPE svg PUBLIC "-//W3C//DTD SVG 1.1//EN"
 "http://www.w3.org/Graphics/SVG/1.1/DTD/svg11.dtd">
<!-- Generated by graphviz version 2.38.0 (20140413.2041)
 -->
<!-- Title: SeeSawN::StateEstimationN::UnscentedKalmanFilterParametersC Pages: 1 -->
<svg width="198pt" height="204pt"
 viewBox="0.00 0.00 198.00 204.00" xmlns="http://www.w3.org/2000/svg" xmlns:xlink="http://www.w3.org/1999/xlink">
<g id="graph0" class="graph" transform="scale(1 1) rotate(0) translate(4 200)">
<title>SeeSawN::StateEstimationN::UnscentedKalmanFilterParametersC</title>
<polygon fill="white" stroke="none" points="-4,4 -4,-200 194,-200 194,4 -4,4"/>
<!-- Node1 -->
<g id="node1" class="node"><title>Node1</title>
<polygon fill="#bfbfbf" stroke="black" points="0,-0.5 0,-68.5 190,-68.5 190,-0.5 0,-0.5"/>
<text text-anchor="start" x="8" y="-56.5" font-family="FreeSans" font-size="10.00">SeeSawN::StateEstimation</text>
<text text-anchor="middle" x="95" y="-45.5" font-family="FreeSans" font-size="10.00">N::UnscentedKalmanFilterParametersC</text>
<polyline fill="none" stroke="black" points="0,-38.5 190,-38.5 "/>
<text text-anchor="middle" x="95" y="-26.5" font-family="FreeSans" font-size="10.00"> </text>
<polyline fill="none" stroke="black" points="0,-19.5 190,-19.5 "/>
<text text-anchor="start" x="8" y="-7.5" font-family="FreeSans" font-size="10.00">+ UnscentedKalmanFilterParametersC()</text>
</g>
<!-- Node2 -->
<g id="node2" class="node"><title>Node2</title>
<polygon fill="white" stroke="#bfbfbf" points="44.5,-138.5 44.5,-195.5 89.5,-195.5 89.5,-138.5 44.5,-138.5"/>
<text text-anchor="middle" x="67" y="-183.5" font-family="FreeSans" font-size="10.00">double</text>
<polyline fill="none" stroke="#bfbfbf" points="44.5,-176.5 89.5,-176.5 "/>
<text text-anchor="middle" x="67" y="-164.5" font-family="FreeSans" font-size="10.00"> </text>
<polyline fill="none" stroke="#bfbfbf" points="44.5,-157.5 89.5,-157.5 "/>
<text text-anchor="middle" x="67" y="-145.5" font-family="FreeSans" font-size="10.00"> </text>
</g>
<!-- Node2&#45;&gt;Node1 -->
<g id="edge1" class="edge"><title>Node2&#45;&gt;Node1</title>
<path fill="none" stroke="#404040" d="M64.2145,-138.169C63.4583,-122.847 63.7953,-103.622 68,-87 68.5849,-84.6878 69.2918,-82.3638 70.0932,-80.0498"/>
<polygon fill="none" stroke="#404040" points="70.2086,-79.7681 68.7833,-72.6993 74.7602,-68.6648 76.1855,-75.7337 70.2086,-79.7681"/>
<text text-anchor="middle" x="84.5" y="-112" font-family="FreeSans" font-size="10.00"> +alpha</text>
<text text-anchor="middle" x="84.5" y="-101" font-family="FreeSans" font-size="10.00">+beta</text>
<text text-anchor="middle" x="84.5" y="-90" font-family="FreeSans" font-size="10.00">+kappa</text>
</g>
<!-- Node3 -->
<g id="node3" class="node"><title>Node3</title>
<polygon fill="white" stroke="#bfbfbf" points="108.5,-138.5 108.5,-195.5 137.5,-195.5 137.5,-138.5 108.5,-138.5"/>
<text text-anchor="middle" x="123" y="-183.5" font-family="FreeSans" font-size="10.00">int</text>
<polyline fill="none" stroke="#bfbfbf" points="108.5,-176.5 137.5,-176.5 "/>
<text text-anchor="middle" x="123" y="-164.5" font-family="FreeSans" font-size="10.00"> </text>
<polyline fill="none" stroke="#bfbfbf" points="108.5,-157.5 137.5,-157.5 "/>
<text text-anchor="middle" x="123" y="-145.5" font-family="FreeSans" font-size="10.00"> </text>
</g>
<!-- Node3&#45;&gt;Node1 -->
<g id="edge2" class="edge"><title>Node3&#45;&gt;Node1</title>
<path fill="none" stroke="#404040" d="M117.062,-138.324C113.463,-121.551 108.786,-99.7524 104.665,-80.5452"/>
<polygon fill="none" stroke="#404040" points="104.637,-80.4168 99.4677,-75.3895 102.12,-68.6838 107.29,-73.7111 104.637,-80.4168"/>
<text text-anchor="middle" x="136.5" y="-101" font-family="FreeSans" font-size="10.00"> +nThreads</text>
</g>
</g>
</svg>
