<?xml version="1.0" encoding="UTF-8" standalone="no"?>
<!DOCTYPE svg PUBLIC "-//W3C//DTD SVG 1.1//EN"
 "http://www.w3.org/Graphics/SVG/1.1/DTD/svg11.dtd">
<!-- Generated by graphviz version 2.38.0 (20140413.2041)
 -->
<!-- Title: SeeSawN::RandomSpanningTreeSamplerN::RandomSpanningTreeSamplerParametersC::RandomSpanningTreeSamplerParametersC Pages: 1 -->
<svg width="1287pt" height="100pt"
 viewBox="0.00 0.00 1287.00 99.50" xmlns="http://www.w3.org/2000/svg" xmlns:xlink="http://www.w3.org/1999/xlink">
<g id="graph0" class="graph" transform="scale(1 1) rotate(0) translate(4 95.5)">
<title>SeeSawN::RandomSpanningTreeSamplerN::RandomSpanningTreeSamplerParametersC::RandomSpanningTreeSamplerParametersC</title>
<polygon fill="white" stroke="none" points="-4,4 -4,-95.5 1283,-95.5 1283,4 -4,4"/>
<!-- Node1 -->
<g id="node1" class="node"><title>Node1</title>
<polygon fill="#bfbfbf" stroke="black" points="0,-22 0,-63 267,-63 267,-22 0,-22"/>
<text text-anchor="start" x="8" y="-51" font-family="FreeSans" font-size="10.00">SeeSawN::RandomSpanningTree</text>
<text text-anchor="start" x="8" y="-40" font-family="FreeSans" font-size="10.00">SamplerN::RandomSpanningTreeSampler</text>
<text text-anchor="middle" x="133.5" y="-29" font-family="FreeSans" font-size="10.00">ParametersC::RandomSpanningTreeSamplerParametersC</text>
</g>
<!-- Node2 -->
<g id="node2" class="node"><title>Node2</title>
<g id="a_node2"><a xlink:href="classSeeSawN_1_1RandomSpanningTreeSamplerN_1_1RandomSpanningTreeSamplerC.html#aa6bf615fbabd7fa0edaba19556dfc3fc" target="_top" xlink:title="Computes the minimum spanning tree solution. ">
<polygon fill="white" stroke="black" points="303,-22 303,-63 500,-63 500,-22 303,-22"/>
<text text-anchor="start" x="311" y="-51" font-family="FreeSans" font-size="10.00">SeeSawN::RandomSpanningTree</text>
<text text-anchor="start" x="311" y="-40" font-family="FreeSans" font-size="10.00">SamplerN::RandomSpanningTreeSampler</text>
<text text-anchor="middle" x="401.5" y="-29" font-family="FreeSans" font-size="10.00">C::ComputeMSTSolution</text>
</a>
</g>
</g>
<!-- Node1&#45;&gt;Node2 -->
<g id="edge1" class="edge"><title>Node1&#45;&gt;Node2</title>
<path fill="none" stroke="midnightblue" d="M277.205,-42.5C285.789,-42.5 294.32,-42.5 302.652,-42.5"/>
<polygon fill="midnightblue" stroke="midnightblue" points="277.11,-39.0001 267.11,-42.5 277.11,-46.0001 277.11,-39.0001"/>
</g>
<!-- Node3 -->
<g id="node3" class="node"><title>Node3</title>
<g id="a_node3"><a xlink:href="classSeeSawN_1_1GeometryN_1_1RotationRegistrationPipelineC.html#a22a6c27b89defbebeaa221583b2a1c5c" target="_top" xlink:title="Runs the algorithm. ">
<polygon fill="white" stroke="black" points="536,-22 536,-63 679,-63 679,-22 536,-22"/>
<text text-anchor="start" x="544" y="-51" font-family="FreeSans" font-size="10.00">SeeSawN::GeometryN</text>
<text text-anchor="start" x="544" y="-40" font-family="FreeSans" font-size="10.00">::RotationRegistrationPipeline</text>
<text text-anchor="middle" x="607.5" y="-29" font-family="FreeSans" font-size="10.00">C::Run</text>
</a>
</g>
</g>
<!-- Node2&#45;&gt;Node3 -->
<g id="edge2" class="edge"><title>Node2&#45;&gt;Node3</title>
<path fill="none" stroke="midnightblue" d="M510.223,-42.5C518.906,-42.5 527.534,-42.5 535.854,-42.5"/>
<polygon fill="midnightblue" stroke="midnightblue" points="510.019,-39.0001 500.019,-42.5 510.019,-46.0001 510.019,-39.0001"/>
</g>
<!-- Node4 -->
<g id="node4" class="node"><title>Node4</title>
<g id="a_node4"><a xlink:href="namespaceSeeSawN_1_1UnitTestsN_1_1TestGeometryN.html#a4a4aaa20fcf77922a3986150278a181f" target="_top" xlink:title="SeeSawN::UnitTestsN\l::TestGeometryN::BOOST\l_AUTO_TEST_CASE">
<polygon fill="white" stroke="black" points="731.5,-50 731.5,-91 860.5,-91 860.5,-50 731.5,-50"/>
<text text-anchor="start" x="739.5" y="-79" font-family="FreeSans" font-size="10.00">SeeSawN::UnitTestsN</text>
<text text-anchor="start" x="739.5" y="-68" font-family="FreeSans" font-size="10.00">::TestGeometryN::BOOST</text>
<text text-anchor="middle" x="796" y="-57" font-family="FreeSans" font-size="10.00">_AUTO_TEST_CASE</text>
</a>
</g>
</g>
<!-- Node3&#45;&gt;Node4 -->
<g id="edge3" class="edge"><title>Node3&#45;&gt;Node4</title>
<path fill="none" stroke="midnightblue" d="M689.208,-54.6171C703.338,-56.7385 717.86,-58.9186 731.443,-60.9579"/>
<polygon fill="midnightblue" stroke="midnightblue" points="689.416,-51.1092 679.008,-53.0856 688.377,-58.0316 689.416,-51.1092"/>
</g>
<!-- Node5 -->
<g id="node5" class="node"><title>Node5</title>
<g id="a_node5"><a xlink:href="classSeeSawN_1_1GeometryN_1_1PfMPipelineC.html#ad572dea46d62bd8e369f7da5e7bdbf58" target="_top" xlink:title="Estimates the calibration parameters for the cameras. ">
<polygon fill="white" stroke="black" points="715,-0.5 715,-30.5 877,-30.5 877,-0.5 715,-0.5"/>
<text text-anchor="start" x="723" y="-18.5" font-family="FreeSans" font-size="10.00">SeeSawN::GeometryN</text>
<text text-anchor="middle" x="796" y="-7.5" font-family="FreeSans" font-size="10.00">::PfMPipelineC::CalibrateCameras</text>
</a>
</g>
</g>
<!-- Node3&#45;&gt;Node5 -->
<g id="edge4" class="edge"><title>Node3&#45;&gt;Node5</title>
<path fill="none" stroke="midnightblue" d="M688.945,-30.8538C697.482,-29.6179 706.165,-28.3609 714.7,-27.1252"/>
<polygon fill="midnightblue" stroke="midnightblue" points="688.403,-27.3957 679.008,-32.2925 689.406,-34.3235 688.403,-27.3957"/>
</g>
<!-- Node6 -->
<g id="node6" class="node"><title>Node6</title>
<g id="a_node6"><a xlink:href="classSeeSawN_1_1GeometryN_1_1PfMPipelineC.html#aa435d8f0f4abec5cf35e3f525c407fb7" target="_top" xlink:title="Runs the algorithm. ">
<polygon fill="white" stroke="black" points="913,-0.5 913,-30.5 1028,-30.5 1028,-0.5 913,-0.5"/>
<text text-anchor="start" x="921" y="-18.5" font-family="FreeSans" font-size="10.00">SeeSawN::GeometryN</text>
<text text-anchor="middle" x="970.5" y="-7.5" font-family="FreeSans" font-size="10.00">::PfMPipelineC::Run</text>
</a>
</g>
</g>
<!-- Node5&#45;&gt;Node6 -->
<g id="edge5" class="edge"><title>Node5&#45;&gt;Node6</title>
<path fill="none" stroke="midnightblue" d="M887.302,-15.5C895.913,-15.5 904.47,-15.5 912.629,-15.5"/>
<polygon fill="midnightblue" stroke="midnightblue" points="887.19,-12.0001 877.19,-15.5 887.19,-19.0001 887.19,-12.0001"/>
</g>
<!-- Node7 -->
<g id="node7" class="node"><title>Node7</title>
<g id="a_node7"><a xlink:href="classSeeSawN_1_1AppPfMN_1_1AppPfMImplementationC.html#a907a06d88e1dc5911dedb8d3a8223780" target="_top" xlink:title="Runs the application. ">
<polygon fill="white" stroke="black" points="1064,-0.5 1064,-30.5 1279,-30.5 1279,-0.5 1064,-0.5"/>
<text text-anchor="start" x="1072" y="-18.5" font-family="FreeSans" font-size="10.00">SeeSawN::AppPfMN::AppPfMImplementation</text>
<text text-anchor="middle" x="1171.5" y="-7.5" font-family="FreeSans" font-size="10.00">C::Run</text>
</a>
</g>
</g>
<!-- Node6&#45;&gt;Node7 -->
<g id="edge6" class="edge"><title>Node6&#45;&gt;Node7</title>
<path fill="none" stroke="midnightblue" d="M1038.5,-15.5C1046.75,-15.5 1055.33,-15.5 1063.98,-15.5"/>
<polygon fill="midnightblue" stroke="midnightblue" points="1038.26,-12.0001 1028.26,-15.5 1038.26,-19.0001 1038.26,-12.0001"/>
</g>
</g>
</svg>
