<?xml version="1.0" encoding="UTF-8" standalone="no"?>
<!DOCTYPE svg PUBLIC "-//W3C//DTD SVG 1.1//EN"
 "http://www.w3.org/Graphics/SVG/1.1/DTD/svg11.dtd">
<!-- Generated by graphviz version 2.38.0 (20140413.2041)
 -->
<!-- Title: SeeSawN::GeometryN::CalibrationVerificationPipelineDiagnosticsC Pages: 1 -->
<svg width="241pt" height="215pt"
 viewBox="0.00 0.00 240.50 215.00" xmlns="http://www.w3.org/2000/svg" xmlns:xlink="http://www.w3.org/1999/xlink">
<g id="graph0" class="graph" transform="scale(1 1) rotate(0) translate(4 211)">
<title>SeeSawN::GeometryN::CalibrationVerificationPipelineDiagnosticsC</title>
<polygon fill="white" stroke="none" points="-4,4 -4,-211 236.5,-211 236.5,4 -4,4"/>
<!-- Node1 -->
<g id="node1" class="node"><title>Node1</title>
<polygon fill="#bfbfbf" stroke="black" points="22,-0.5 22,-90.5 175,-90.5 175,-0.5 22,-0.5"/>
<text text-anchor="start" x="30" y="-78.5" font-family="FreeSans" font-size="10.00">SeeSawN::GeometryN</text>
<text text-anchor="start" x="30" y="-67.5" font-family="FreeSans" font-size="10.00">::CalibrationVerificationPipeline</text>
<text text-anchor="middle" x="98.5" y="-56.5" font-family="FreeSans" font-size="10.00">DiagnosticsC</text>
<polyline fill="none" stroke="black" points="22,-49.5 175,-49.5 "/>
<text text-anchor="middle" x="98.5" y="-37.5" font-family="FreeSans" font-size="10.00"> </text>
<polyline fill="none" stroke="black" points="22,-30.5 175,-30.5 "/>
<text text-anchor="start" x="30" y="-18.5" font-family="FreeSans" font-size="10.00">+ CalibrationVerificationPipeline</text>
<text text-anchor="start" x="30" y="-7.5" font-family="FreeSans" font-size="10.00">DiagnosticsC()</text>
</g>
<!-- Node2 -->
<g id="node2" class="node"><title>Node2</title>
<polygon fill="white" stroke="#bfbfbf" points="0,-149.5 0,-206.5 45,-206.5 45,-149.5 0,-149.5"/>
<text text-anchor="middle" x="22.5" y="-194.5" font-family="FreeSans" font-size="10.00">double</text>
<polyline fill="none" stroke="#bfbfbf" points="0,-187.5 45,-187.5 "/>
<text text-anchor="middle" x="22.5" y="-175.5" font-family="FreeSans" font-size="10.00"> </text>
<polyline fill="none" stroke="#bfbfbf" points="0,-168.5 45,-168.5 "/>
<text text-anchor="middle" x="22.5" y="-156.5" font-family="FreeSans" font-size="10.00"> </text>
</g>
<!-- Node2&#45;&gt;Node1 -->
<g id="edge1" class="edge"><title>Node2&#45;&gt;Node1</title>
<path fill="none" stroke="#404040" d="M27.1494,-149.392C30.062,-136.566 34.6091,-121.438 41.5,-109 43.0802,-106.148 44.815,-103.32 46.6659,-100.535"/>
<polygon fill="none" stroke="#404040" points="46.774,-100.385 47.0485,-93.179 53.8057,-90.6609 53.5312,-97.8668 46.774,-100.385"/>
<text text-anchor="middle" x="68" y="-117.5" font-family="FreeSans" font-size="10.00"> +bestScore</text>
</g>
<!-- Node3 -->
<g id="node3" class="node"><title>Node3</title>
<polygon fill="white" stroke="#bfbfbf" points="84,-149.5 84,-206.5 113,-206.5 113,-149.5 84,-149.5"/>
<text text-anchor="middle" x="98.5" y="-194.5" font-family="FreeSans" font-size="10.00">int</text>
<polyline fill="none" stroke="#bfbfbf" points="84,-187.5 113,-187.5 "/>
<text text-anchor="middle" x="98.5" y="-175.5" font-family="FreeSans" font-size="10.00"> </text>
<polyline fill="none" stroke="#bfbfbf" points="84,-168.5 113,-168.5 "/>
<text text-anchor="middle" x="98.5" y="-156.5" font-family="FreeSans" font-size="10.00"> </text>
</g>
<!-- Node3&#45;&gt;Node1 -->
<g id="edge2" class="edge"><title>Node3&#45;&gt;Node1</title>
<path fill="none" stroke="#404040" d="M98.5,-149.324C98.5,-135.731 98.5,-118.837 98.5,-102.696"/>
<polygon fill="none" stroke="#404040" points="98.5001,-102.568 94.5,-96.5677 98.5,-90.5676 102.5,-96.5676 98.5001,-102.568"/>
<text text-anchor="middle" x="129" y="-123" font-family="FreeSans" font-size="10.00"> +nConsistent</text>
<text text-anchor="middle" x="129" y="-112" font-family="FreeSans" font-size="10.00">+nPairs</text>
</g>
<!-- Node4 -->
<g id="node4" class="node"><title>Node4</title>
<g id="a_node4"><a xlink:href="classbool.html" target="_top" xlink:title="{bool\n||}">
<polygon fill="white" stroke="black" points="165,-149.5 165,-206.5 200,-206.5 200,-149.5 165,-149.5"/>
<text text-anchor="middle" x="182.5" y="-194.5" font-family="FreeSans" font-size="10.00">bool</text>
<polyline fill="none" stroke="black" points="165,-187.5 200,-187.5 "/>
<text text-anchor="middle" x="182.5" y="-175.5" font-family="FreeSans" font-size="10.00"> </text>
<polyline fill="none" stroke="black" points="165,-168.5 200,-168.5 "/>
<text text-anchor="middle" x="182.5" y="-156.5" font-family="FreeSans" font-size="10.00"> </text>
</a>
</g>
</g>
<!-- Node4&#45;&gt;Node1 -->
<g id="edge3" class="edge"><title>Node4&#45;&gt;Node1</title>
<path fill="none" stroke="#404040" d="M176.676,-149.261C173.207,-136.406 167.988,-121.292 160.5,-109 158.711,-106.063 156.757,-103.16 154.682,-100.307"/>
<polygon fill="none" stroke="#404040" points="154.641,-100.254 147.787,-98.0127 147.219,-90.8239 154.073,-93.0652 154.641,-100.254"/>
<text text-anchor="middle" x="201.5" y="-117.5" font-family="FreeSans" font-size="10.00"> +flagSuccess</text>
</g>
</g>
</svg>
