<?xml version="1.0" encoding="UTF-8" standalone="no"?>
<!DOCTYPE svg PUBLIC "-//W3C//DTD SVG 1.1//EN"
 "http://www.w3.org/Graphics/SVG/1.1/DTD/svg11.dtd">
<!-- Generated by graphviz version 2.38.0 (20140413.2041)
 -->
<!-- Title: SeeSawN::GeometryN::PfMPipelineDiagnosticsC Pages: 1 -->
<svg width="1919pt" height="1082pt"
 viewBox="0.00 0.00 1919.00 1082.00" xmlns="http://www.w3.org/2000/svg" xmlns:xlink="http://www.w3.org/1999/xlink">
<g id="graph0" class="graph" transform="scale(1 1) rotate(0) translate(4 1078)">
<title>SeeSawN::GeometryN::PfMPipelineDiagnosticsC</title>
<polygon fill="white" stroke="none" points="-4,4 -4,-1078 1915,-1078 1915,4 -4,4"/>
<!-- Node1 -->
<g id="node1" class="node"><title>Node1</title>
<polygon fill="#bfbfbf" stroke="black" points="1472.5,-0.5 1472.5,-68.5 1613.5,-68.5 1613.5,-0.5 1472.5,-0.5"/>
<text text-anchor="start" x="1480.5" y="-56.5" font-family="FreeSans" font-size="10.00">SeeSawN::GeometryN</text>
<text text-anchor="middle" x="1543" y="-45.5" font-family="FreeSans" font-size="10.00">::PfMPipelineDiagnosticsC</text>
<polyline fill="none" stroke="black" points="1472.5,-38.5 1613.5,-38.5 "/>
<text text-anchor="middle" x="1543" y="-26.5" font-family="FreeSans" font-size="10.00"> </text>
<polyline fill="none" stroke="black" points="1472.5,-19.5 1613.5,-19.5 "/>
<text text-anchor="start" x="1480.5" y="-7.5" font-family="FreeSans" font-size="10.00">+ PfMPipelineDiagnosticsC()</text>
</g>
<!-- Node2 -->
<g id="node2" class="node"><title>Node2</title>
<polygon fill="white" stroke="#bfbfbf" points="268.5,-759.5 268.5,-816.5 313.5,-816.5 313.5,-759.5 268.5,-759.5"/>
<text text-anchor="middle" x="291" y="-804.5" font-family="FreeSans" font-size="10.00">double</text>
<polyline fill="none" stroke="#bfbfbf" points="268.5,-797.5 313.5,-797.5 "/>
<text text-anchor="middle" x="291" y="-785.5" font-family="FreeSans" font-size="10.00"> </text>
<polyline fill="none" stroke="#bfbfbf" points="268.5,-778.5 313.5,-778.5 "/>
<text text-anchor="middle" x="291" y="-766.5" font-family="FreeSans" font-size="10.00"> </text>
</g>
<!-- Node2&#45;&gt;Node1 -->
<g id="edge1" class="edge"><title>Node2&#45;&gt;Node1</title>
<path fill="none" stroke="#404040" d="M268.166,-778.621C199.565,-751.817 0,-661.232 0,-514.5 0,-514.5 0,-514.5 0,-160.5 0,-86.5917 1139.53,-47.398 1460.03,-37.836"/>
<polygon fill="none" stroke="#404040" points="1460.44,-37.824 1466.32,-33.6481 1472.44,-37.4686 1466.56,-41.6446 1460.44,-37.824"/>
<text text-anchor="middle" x="57.5" y="-344" font-family="FreeSans" font-size="10.00"> +estimatedNoiseVariance</text>
</g>
<!-- Node4 -->
<g id="node4" class="node"><title>Node4</title>
<g id="a_node4"><a xlink:href="structSeeSawN_1_1GeometryN_1_1GeometryEstimatorDiagnosticsC.html" target="_top" xlink:title="Diagnostics for GeometryEstimatorC. ">
<polygon fill="white" stroke="black" points="646,-254.5 646,-322.5 818,-322.5 818,-254.5 646,-254.5"/>
<text text-anchor="start" x="654" y="-310.5" font-family="FreeSans" font-size="10.00">SeeSawN::GeometryN</text>
<text text-anchor="middle" x="732" y="-299.5" font-family="FreeSans" font-size="10.00">::GeometryEstimatorDiagnosticsC</text>
<polyline fill="none" stroke="black" points="646,-292.5 818,-292.5 "/>
<text text-anchor="middle" x="732" y="-280.5" font-family="FreeSans" font-size="10.00"> </text>
<polyline fill="none" stroke="black" points="646,-273.5 818,-273.5 "/>
<text text-anchor="start" x="654" y="-261.5" font-family="FreeSans" font-size="10.00">+ GeometryEstimatorDiagnosticsC()</text>
</a>
</g>
</g>
<!-- Node2&#45;&gt;Node4 -->
<g id="edge17" class="edge"><title>Node2&#45;&gt;Node4</title>
<path fill="none" stroke="#404040" d="M268.428,-765.496C262.312,-758.329 256.437,-749.888 253,-741 210.984,-632.355 195.967,-584.194 246,-479 313.41,-337.272 512.267,-300.589 633.714,-291.679"/>
<polygon fill="none" stroke="#404040" points="633.972,-291.662 639.69,-287.268 645.945,-290.856 640.227,-295.25 633.972,-291.662"/>
<text text-anchor="middle" x="260" y="-511" font-family="FreeSans" font-size="10.00"> +error</text>
</g>
<!-- Node6 -->
<g id="node6" class="node"><title>Node6</title>
<g id="a_node6"><a xlink:href="structSeeSawN_1_1RANSACN_1_1RANSACDiagnosticsC.html" target="_top" xlink:title="Diagnostics of RANSAC. ">
<polygon fill="white" stroke="black" points="623,-577.5 623,-645.5 841,-645.5 841,-577.5 623,-577.5"/>
<text text-anchor="middle" x="732" y="-633.5" font-family="FreeSans" font-size="10.00">SeeSawN::RANSACN::RANSACDiagnosticsC</text>
<polyline fill="none" stroke="black" points="623,-626.5 841,-626.5 "/>
<text text-anchor="middle" x="732" y="-614.5" font-family="FreeSans" font-size="10.00"> </text>
<polyline fill="none" stroke="black" points="623,-607.5 841,-607.5 "/>
<text text-anchor="start" x="631" y="-595.5" font-family="FreeSans" font-size="10.00">+ RANSACDiagnosticsC()</text>
<text text-anchor="start" x="631" y="-584.5" font-family="FreeSans" font-size="10.00">* IterationT</text>
</a>
</g>
</g>
<!-- Node2&#45;&gt;Node6 -->
<g id="edge6" class="edge"><title>Node2&#45;&gt;Node6</title>
<path fill="none" stroke="#404040" d="M313.823,-771.143C319.966,-767.053 326.665,-762.75 333,-759 402.454,-717.89 417.339,-700.241 494,-675 543.138,-658.821 558.89,-669.859 609,-657 617.718,-654.763 626.684,-652.152 635.613,-649.336"/>
<polygon fill="none" stroke="#404040" points="635.895,-649.245 640.363,-643.584 647.306,-645.532 642.838,-651.192 635.895,-649.245"/>
<text text-anchor="middle" x="530.5" y="-733" font-family="FreeSans" font-size="10.00"> +finalEpsilonVl</text>
<text text-anchor="middle" x="530.5" y="-722" font-family="FreeSans" font-size="10.00">+finalEpsilonOb</text>
<text text-anchor="middle" x="530.5" y="-711" font-family="FreeSans" font-size="10.00">+error</text>
<text text-anchor="middle" x="530.5" y="-700" font-family="FreeSans" font-size="10.00">+inlierRatio</text>
<text text-anchor="middle" x="530.5" y="-689" font-family="FreeSans" font-size="10.00">+finalDecisionTh</text>
<text text-anchor="middle" x="530.5" y="-678" font-family="FreeSans" font-size="10.00">+finalDelta</text>
</g>
<!-- Node16 -->
<g id="node16" class="node"><title>Node16</title>
<g id="a_node16"><a xlink:href="structSeeSawN_1_1OptimisationN_1_1PowellDogLegDiagnosticsC.html" target="_top" xlink:title="Diagnostics for PowellDogLegC. ">
<polygon fill="white" stroke="black" points="389,-381.5 389,-449.5 541,-449.5 541,-381.5 389,-381.5"/>
<text text-anchor="start" x="397" y="-437.5" font-family="FreeSans" font-size="10.00">SeeSawN::OptimisationN</text>
<text text-anchor="middle" x="465" y="-426.5" font-family="FreeSans" font-size="10.00">::PowellDogLegDiagnosticsC</text>
<polyline fill="none" stroke="black" points="389,-419.5 541,-419.5 "/>
<text text-anchor="middle" x="465" y="-407.5" font-family="FreeSans" font-size="10.00"> </text>
<polyline fill="none" stroke="black" points="389,-400.5 541,-400.5 "/>
<text text-anchor="start" x="397" y="-388.5" font-family="FreeSans" font-size="10.00">+ PowellDogLegDiagnosticsC()</text>
</a>
</g>
</g>
<!-- Node2&#45;&gt;Node16 -->
<g id="edge20" class="edge"><title>Node2&#45;&gt;Node16</title>
<path fill="none" stroke="#404040" d="M278.995,-759.252C262.098,-715.771 236.575,-629.951 267,-566 290.207,-517.221 338.193,-480.356 381.112,-455.439"/>
<polygon fill="none" stroke="#404040" points="381.156,-455.414 384.417,-448.983 391.608,-449.519 388.347,-455.951 381.156,-455.414"/>
<text text-anchor="middle" x="297.5" y="-625.5" font-family="FreeSans" font-size="10.00"> +error</text>
<text text-anchor="middle" x="297.5" y="-614.5" font-family="FreeSans" font-size="10.00">+finalEpsilon1</text>
<text text-anchor="middle" x="297.5" y="-603.5" font-family="FreeSans" font-size="10.00">+finalDelta</text>
<text text-anchor="middle" x="297.5" y="-592.5" font-family="FreeSans" font-size="10.00">+finalEpsilon2</text>
</g>
<!-- Node17 -->
<g id="node17" class="node"><title>Node17</title>
<polygon fill="white" stroke="#bfbfbf" points="337,-583 337,-640 429,-640 429,-583 337,-583"/>
<text text-anchor="middle" x="383" y="-628" font-family="FreeSans" font-size="10.00">std::list&lt; double &gt;</text>
<polyline fill="none" stroke="#bfbfbf" points="337,-621 429,-621 "/>
<text text-anchor="middle" x="383" y="-609" font-family="FreeSans" font-size="10.00"> </text>
<polyline fill="none" stroke="#bfbfbf" points="337,-602 429,-602 "/>
<text text-anchor="middle" x="383" y="-590" font-family="FreeSans" font-size="10.00"> </text>
</g>
<!-- Node2&#45;&gt;Node17 -->
<g id="edge22" class="edge"><title>Node2&#45;&gt;Node17</title>
<path fill="none" stroke="#404040" d="M284.003,-759.215C279.573,-735.243 277.139,-700.549 292,-675 300.011,-661.228 309.692,-665.759 323,-657 327.572,-653.991 332.267,-650.764 336.92,-647.474"/>
<polygon fill="none" stroke="#404040" points="337.241,-647.243 339.771,-640.491 346.977,-640.229 344.447,-646.982 337.241,-647.243"/>
<text text-anchor="middle" x="316.5" y="-705.5" font-family="FreeSans" font-size="10.00"> +elements</text>
</g>
<!-- Node21 -->
<g id="node21" class="node"><title>Node21</title>
<g id="a_node21"><a xlink:href="structSeeSawN_1_1GeometryN_1_1RotationRegistrationPipelineDiagnosticsC.html" target="_top" xlink:title="Diagnostics object for the rotation registration pipeline. ">
<polygon fill="white" stroke="black" points="1196.5,-370.5 1196.5,-460.5 1343.5,-460.5 1343.5,-370.5 1196.5,-370.5"/>
<text text-anchor="start" x="1204.5" y="-448.5" font-family="FreeSans" font-size="10.00">SeeSawN::GeometryN</text>
<text text-anchor="start" x="1204.5" y="-437.5" font-family="FreeSans" font-size="10.00">::RotationRegistrationPipeline</text>
<text text-anchor="middle" x="1270" y="-426.5" font-family="FreeSans" font-size="10.00">DiagnosticsC</text>
<polyline fill="none" stroke="black" points="1196.5,-419.5 1343.5,-419.5 "/>
<text text-anchor="middle" x="1270" y="-407.5" font-family="FreeSans" font-size="10.00"> </text>
<polyline fill="none" stroke="black" points="1196.5,-400.5 1343.5,-400.5 "/>
<text text-anchor="start" x="1204.5" y="-388.5" font-family="FreeSans" font-size="10.00">+ RotationRegistrationPipeline</text>
<text text-anchor="start" x="1204.5" y="-377.5" font-family="FreeSans" font-size="10.00">DiagnosticsC()</text>
</a>
</g>
</g>
<!-- Node2&#45;&gt;Node21 -->
<g id="edge32" class="edge"><title>Node2&#45;&gt;Node21</title>
<path fill="none" stroke="#404040" d="M313.693,-774.8C325.404,-769.056 340.115,-762.674 354,-759 393.076,-748.66 505.427,-768.554 535,-741 592.736,-687.206 514.261,-626.438 565,-566 638.758,-478.143 695.702,-502.415 808,-479 924.432,-454.723 957.327,-478.284 1075,-461 1111.26,-455.673 1150.78,-447.174 1184.69,-439.024"/>
<polygon fill="none" stroke="#404040" points="1184.78,-439.002 1189.66,-433.695 1196.44,-436.161 1191.56,-441.468 1184.78,-439.002"/>
<text text-anchor="middle" x="589.5" y="-614.5" font-family="FreeSans" font-size="10.00"> +error</text>
<text text-anchor="middle" x="589.5" y="-603.5" font-family="FreeSans" font-size="10.00">+inlierRatio</text>
</g>
<!-- Node22 -->
<g id="node22" class="node"><title>Node22</title>
<g id="a_node22"><a xlink:href="structSeeSawN_1_1RandomSpanningTreeSamplerN_1_1RandomSpanningTreeSamplerDiagnosticsC.html" target="_top" xlink:title="Diagnostics object for RandomSpanningTreeSamplerC. ">
<polygon fill="white" stroke="black" points="859.5,-566.5 859.5,-656.5 1056.5,-656.5 1056.5,-566.5 859.5,-566.5"/>
<text text-anchor="start" x="867.5" y="-644.5" font-family="FreeSans" font-size="10.00">SeeSawN::RandomSpanningTree</text>
<text text-anchor="start" x="867.5" y="-633.5" font-family="FreeSans" font-size="10.00">SamplerN::RandomSpanningTreeSampler</text>
<text text-anchor="middle" x="958" y="-622.5" font-family="FreeSans" font-size="10.00">DiagnosticsC</text>
<polyline fill="none" stroke="black" points="859.5,-615.5 1056.5,-615.5 "/>
<text text-anchor="middle" x="958" y="-603.5" font-family="FreeSans" font-size="10.00"> </text>
<polyline fill="none" stroke="black" points="859.5,-596.5 1056.5,-596.5 "/>
<text text-anchor="start" x="867.5" y="-584.5" font-family="FreeSans" font-size="10.00">+ RandomSpanningTreeSampler</text>
<text text-anchor="start" x="867.5" y="-573.5" font-family="FreeSans" font-size="10.00">DiagnosticsC()</text>
</a>
</g>
</g>
<!-- Node2&#45;&gt;Node22 -->
<g id="edge34" class="edge"><title>Node2&#45;&gt;Node22</title>
<path fill="none" stroke="#404040" d="M313.828,-768.639C319.754,-764.784 326.349,-761.218 333,-759 366.993,-747.663 626.983,-763.341 655,-741 678.866,-721.969 650.579,-694.576 674,-675 701.868,-651.707 795.914,-664.273 847.404,-656.791"/>
<polygon fill="none" stroke="#404040" points="847.431,-656.786 852.559,-651.717 859.211,-654.501 854.083,-659.57 847.431,-656.786"/>
<text text-anchor="middle" x="698.5" y="-711" font-family="FreeSans" font-size="10.00"> +error</text>
<text text-anchor="middle" x="698.5" y="-700" font-family="FreeSans" font-size="10.00">+inlierRatio</text>
</g>
<!-- Node3 -->
<g id="node3" class="node"><title>Node3</title>
<polygon fill="white" stroke="#bfbfbf" points="653,-122 653,-201 811,-201 811,-122 653,-122"/>
<text text-anchor="start" x="661" y="-189" font-family="FreeSans" font-size="10.00">std::vector&lt; SeeSawN</text>
<text text-anchor="start" x="661" y="-178" font-family="FreeSans" font-size="10.00">::GeometryN::GeometryEstimator</text>
<text text-anchor="middle" x="732" y="-167" font-family="FreeSans" font-size="10.00">DiagnosticsC &gt;</text>
<polyline fill="none" stroke="#bfbfbf" points="653,-160 811,-160 "/>
<text text-anchor="middle" x="732" y="-148" font-family="FreeSans" font-size="10.00"> </text>
<polyline fill="none" stroke="#bfbfbf" points="653,-141 811,-141 "/>
<text text-anchor="middle" x="732" y="-129" font-family="FreeSans" font-size="10.00"> </text>
</g>
<!-- Node3&#45;&gt;Node1 -->
<g id="edge2" class="edge"><title>Node3&#45;&gt;Node1</title>
<path fill="none" stroke="#404040" d="M811.382,-146.562C899.409,-131.265 1045.68,-106.314 1172,-87 1270.95,-71.871 1385.04,-56.316 1460.29,-46.3172"/>
<polygon fill="none" stroke="#404040" points="1460.59,-46.2774 1466.01,-41.5234 1472.48,-44.7 1467.06,-49.4539 1460.59,-46.2774"/>
<text text-anchor="middle" x="1242.5" y="-90" font-family="FreeSans" font-size="10.00"> +geometryEstimatorDiagnostics</text>
</g>
<!-- Node4&#45;&gt;Node3 -->
<g id="edge3" class="edge"><title>Node4&#45;&gt;Node3</title>
<path fill="none" stroke="#404040" d="M732,-254.33C732,-241.815 732,-227.271 732,-213.499"/>
<polygon fill="none" stroke="#404040" points="732,-213.148 728,-207.148 732,-201.148 736,-207.148 732,-213.148"/>
<text text-anchor="middle" x="756.5" y="-228" font-family="FreeSans" font-size="10.00"> +elements</text>
</g>
<!-- Node5 -->
<g id="node5" class="node"><title>Node5</title>
<g id="a_node5"><a xlink:href="structSeeSawN_1_1RANSACN_1_1TwoStageRANSACDiagnosticsC.html" target="_top" xlink:title="Diagnostics for TwoStageRANSACC. ">
<polygon fill="white" stroke="black" points="892,-381.5 892,-449.5 1066,-449.5 1066,-381.5 892,-381.5"/>
<text text-anchor="start" x="900" y="-437.5" font-family="FreeSans" font-size="10.00">SeeSawN::RANSACN::TwoStage</text>
<text text-anchor="middle" x="979" y="-426.5" font-family="FreeSans" font-size="10.00">RANSACDiagnosticsC</text>
<polyline fill="none" stroke="black" points="892,-419.5 1066,-419.5 "/>
<text text-anchor="middle" x="979" y="-407.5" font-family="FreeSans" font-size="10.00"> </text>
<polyline fill="none" stroke="black" points="892,-400.5 1066,-400.5 "/>
<text text-anchor="start" x="900" y="-388.5" font-family="FreeSans" font-size="10.00">+ TwoStageRANSACDiagnosticsC()</text>
</a>
</g>
</g>
<!-- Node5&#45;&gt;Node4 -->
<g id="edge4" class="edge"><title>Node5&#45;&gt;Node4</title>
<path fill="none" stroke="#404040" d="M913.781,-381.494C881.409,-365.112 842.106,-345.222 808.339,-328.133"/>
<polygon fill="none" stroke="#404040" points="808.292,-328.11 801.133,-328.969 797.585,-322.691 804.745,-321.831 808.292,-328.11"/>
<text text-anchor="middle" x="900.5" y="-344" font-family="FreeSans" font-size="10.00"> +ransacDiagnostics</text>
</g>
<!-- Node6&#45;&gt;Node5 -->
<g id="edge5" class="edge"><title>Node6&#45;&gt;Node5</title>
<path fill="none" stroke="#404040" d="M774.18,-577.371C816.413,-544.2 881.484,-493.091 926.914,-457.41"/>
<polygon fill="none" stroke="#404040" points="927.143,-457.23 929.391,-450.378 936.58,-449.817 934.332,-456.669 927.143,-457.23"/>
<text text-anchor="middle" x="932" y="-516.5" font-family="FreeSans" font-size="10.00"> +diagnostics1</text>
<text text-anchor="middle" x="932" y="-505.5" font-family="FreeSans" font-size="10.00">+diagnostics2</text>
</g>
<!-- Node7 -->
<g id="node7" class="node"><title>Node7</title>
<polygon fill="white" stroke="#bfbfbf" points="833,-759.5 833,-816.5 929,-816.5 929,-759.5 833,-759.5"/>
<text text-anchor="middle" x="881" y="-804.5" font-family="FreeSans" font-size="10.00">unsigned long long</text>
<polyline fill="none" stroke="#bfbfbf" points="833,-797.5 929,-797.5 "/>
<text text-anchor="middle" x="881" y="-785.5" font-family="FreeSans" font-size="10.00"> </text>
<polyline fill="none" stroke="#bfbfbf" points="833,-778.5 929,-778.5 "/>
<text text-anchor="middle" x="881" y="-766.5" font-family="FreeSans" font-size="10.00"> </text>
</g>
<!-- Node7&#45;&gt;Node6 -->
<g id="edge7" class="edge"><title>Node7&#45;&gt;Node6</title>
<path fill="none" stroke="#404040" d="M879.727,-759.359C877.283,-734.825 870.359,-699.213 851,-675 844.151,-666.434 835.806,-658.906 826.744,-652.324"/>
<polygon fill="none" stroke="#404040" points="826.627,-652.245 819.415,-652.217 816.668,-645.55 823.879,-645.578 826.627,-652.245"/>
<text text-anchor="middle" x="902.5" y="-705.5" font-family="FreeSans" font-size="10.00"> +nLOCalls</text>
</g>
<!-- Node8 -->
<g id="node8" class="node"><title>Node8</title>
<polygon fill="white" stroke="#bfbfbf" points="567.5,-759.5 567.5,-816.5 596.5,-816.5 596.5,-759.5 567.5,-759.5"/>
<text text-anchor="middle" x="582" y="-804.5" font-family="FreeSans" font-size="10.00">int</text>
<polyline fill="none" stroke="#bfbfbf" points="567.5,-797.5 596.5,-797.5 "/>
<text text-anchor="middle" x="582" y="-785.5" font-family="FreeSans" font-size="10.00"> </text>
<polyline fill="none" stroke="#bfbfbf" points="567.5,-778.5 596.5,-778.5 "/>
<text text-anchor="middle" x="582" y="-766.5" font-family="FreeSans" font-size="10.00"> </text>
</g>
<!-- Node8&#45;&gt;Node6 -->
<g id="edge8" class="edge"><title>Node8&#45;&gt;Node6</title>
<path fill="none" stroke="#404040" d="M574.302,-759.193C569.298,-734.882 566.416,-699.7 583,-675 586.576,-669.673 606.627,-660.171 630.919,-650.159"/>
<polygon fill="none" stroke="#404040" points="631.212,-650.04 635.272,-644.081 642.335,-645.536 638.275,-651.496 631.212,-650.04"/>
<text text-anchor="middle" x="619" y="-733" font-family="FreeSans" font-size="10.00"> +iIteration</text>
<text text-anchor="middle" x="619" y="-722" font-family="FreeSans" font-size="10.00">+nIterations</text>
<text text-anchor="middle" x="619" y="-711" font-family="FreeSans" font-size="10.00">+iEta</text>
<text text-anchor="middle" x="619" y="-700" font-family="FreeSans" font-size="10.00">+nValidatorCalls</text>
<text text-anchor="middle" x="619" y="-689" font-family="FreeSans" font-size="10.00">+iGenerator</text>
<text text-anchor="middle" x="619" y="-678" font-family="FreeSans" font-size="10.00">+iError</text>
</g>
<!-- Node8&#45;&gt;Node16 -->
<g id="edge24" class="edge"><title>Node8&#45;&gt;Node16</title>
<path fill="none" stroke="#404040" d="M567.386,-774.382C543.803,-752.996 498.072,-707.048 479,-657 454.475,-592.644 455.708,-511.575 459.71,-461.919"/>
<polygon fill="none" stroke="#404040" points="459.733,-461.65 456.284,-455.318 460.802,-449.698 464.252,-456.03 459.733,-461.65"/>
<text text-anchor="middle" x="506.5" y="-609" font-family="FreeSans" font-size="10.00"> +nIterations</text>
</g>
<!-- Node8&#45;&gt;Node22 -->
<g id="edge35" class="edge"><title>Node8&#45;&gt;Node22</title>
<path fill="none" stroke="#404040" d="M596.523,-780.472C610.526,-774.35 632.418,-765.23 652,-759 684.666,-748.607 702.224,-764.691 727,-741 749.062,-719.904 723.273,-695.377 746,-675 778.266,-646.07 801.211,-666.337 847.491,-657.067"/>
<polygon fill="none" stroke="#404040" points="847.78,-656.995 852.65,-651.677 859.432,-654.127 854.562,-659.445 847.78,-656.995"/>
<text text-anchor="middle" x="770.5" y="-705.5" font-family="FreeSans" font-size="10.00"> +nIteration</text>
</g>
<!-- Node9 -->
<g id="node9" class="node"><title>Node9</title>
<g id="a_node9"><a xlink:href="classbool.html" target="_top" xlink:title="{bool\n||}">
<polygon fill="white" stroke="black" points="1387.5,-759.5 1387.5,-816.5 1422.5,-816.5 1422.5,-759.5 1387.5,-759.5"/>
<text text-anchor="middle" x="1405" y="-804.5" font-family="FreeSans" font-size="10.00">bool</text>
<polyline fill="none" stroke="black" points="1387.5,-797.5 1422.5,-797.5 "/>
<text text-anchor="middle" x="1405" y="-785.5" font-family="FreeSans" font-size="10.00"> </text>
<polyline fill="none" stroke="black" points="1387.5,-778.5 1422.5,-778.5 "/>
<text text-anchor="middle" x="1405" y="-766.5" font-family="FreeSans" font-size="10.00"> </text>
</a>
</g>
</g>
<!-- Node9&#45;&gt;Node1 -->
<g id="edge38" class="edge"><title>Node9&#45;&gt;Node1</title>
<path fill="none" stroke="#404040" d="M1422.69,-786.449C1465.66,-784.57 1578.3,-776.369 1664,-741 1756.54,-702.807 1849,-712.611 1849,-612.5 1849,-612.5 1849,-612.5 1849,-160.5 1849,-136.648 1838.02,-130.397 1819,-116 1762.69,-73.3705 1684.3,-53.2726 1625.45,-43.8223"/>
<polygon fill="none" stroke="#404040" points="1625.44,-43.8211 1618.91,-46.8735 1613.58,-42.0168 1620.11,-38.9644 1625.44,-43.8211"/>
<text text-anchor="middle" x="1880" y="-344" font-family="FreeSans" font-size="10.00"> +flagSuccess</text>
</g>
<!-- Node9&#45;&gt;Node4 -->
<g id="edge18" class="edge"><title>Node9&#45;&gt;Node4</title>
<path fill="none" stroke="#404040" d="M1422.54,-765.886C1454.96,-724.157 1517.04,-629.658 1472,-566 1458.12,-546.378 1438.25,-564.735 1421,-548 1360.1,-488.926 1418.76,-422.359 1352,-370 1273,-308.045 984.424,-293.595 830.411,-290.345"/>
<polygon fill="none" stroke="#404040" points="830.199,-290.341 824.121,-294.222 818.201,-290.104 824.278,-286.223 830.199,-290.341"/>
<text text-anchor="middle" x="1452" y="-522" font-family="FreeSans" font-size="10.00"> +flagSuccess</text>
<text text-anchor="middle" x="1452" y="-511" font-family="FreeSans" font-size="10.00">+flagStage2</text>
<text text-anchor="middle" x="1452" y="-500" font-family="FreeSans" font-size="10.00">+flagLO</text>
</g>
<!-- Node9&#45;&gt;Node5 -->
<g id="edge14" class="edge"><title>Node9&#45;&gt;Node5</title>
<path fill="none" stroke="#404040" d="M1387.43,-770.477C1364.34,-747.518 1324.63,-703.517 1307,-657 1292.94,-619.897 1319.77,-508.286 1293,-479 1276.88,-461.365 1210.47,-465.5 1187,-461 1151.39,-454.171 1112.51,-446.036 1078.09,-438.6"/>
<polygon fill="none" stroke="#404040" points="1077.85,-438.546 1071.13,-441.183 1066.12,-436.002 1072.83,-433.365 1077.85,-438.546"/>
<text text-anchor="middle" x="1338" y="-609" font-family="FreeSans" font-size="10.00"> +flagSuccess</text>
</g>
<!-- Node9&#45;&gt;Node6 -->
<g id="edge9" class="edge"><title>Node9&#45;&gt;Node6</title>
<path fill="none" stroke="#404040" d="M1387.27,-784.84C1346.61,-779.92 1243.44,-767.637 1157,-759 1134.03,-756.705 967.826,-755.671 950,-741 926.431,-721.603 953.239,-695.909 931,-675 904.132,-649.739 885.342,-667.533 850,-657 842.387,-654.731 834.562,-652.212 826.738,-649.558"/>
<polygon fill="none" stroke="#404040" points="826.637,-649.523 819.657,-651.334 815.3,-645.588 822.28,-643.777 826.637,-649.523"/>
<text text-anchor="middle" x="981" y="-705.5" font-family="FreeSans" font-size="10.00"> +flagSuccess</text>
</g>
<!-- Node9&#45;&gt;Node16 -->
<g id="edge25" class="edge"><title>Node9&#45;&gt;Node16</title>
<path fill="none" stroke="#404040" d="M1387.42,-780.657C1367.83,-773.076 1335.79,-759.111 1312,-741 1272.18,-710.686 1266.74,-697.256 1237,-657 1208.92,-618.989 1220.52,-593.378 1182,-566 1150.52,-543.629 1133.28,-561.238 1097,-548 1035.92,-525.71 1029.97,-498.673 968,-479 929.468,-466.768 687.072,-439.892 553.344,-425.699"/>
<polygon fill="none" stroke="#404040" points="553.08,-425.671 546.693,-429.017 541.147,-424.408 547.535,-421.062 553.08,-425.671"/>
<text text-anchor="middle" x="1268" y="-609" font-family="FreeSans" font-size="10.00"> +flagSuccess</text>
</g>
<!-- Node19 -->
<g id="node19" class="node"><title>Node19</title>
<g id="a_node19"><a xlink:href="structSeeSawN_1_1GeometryN_1_1MultiviewPanoramaBuilderDiagnosticsC.html" target="_top" xlink:title="Parameters for MultiviewPanoramaBuilderC. ">
<polygon fill="white" stroke="black" points="1584,-116.5 1584,-206.5 1724,-206.5 1724,-116.5 1584,-116.5"/>
<text text-anchor="start" x="1592" y="-194.5" font-family="FreeSans" font-size="10.00">SeeSawN::GeometryN</text>
<text text-anchor="start" x="1592" y="-183.5" font-family="FreeSans" font-size="10.00">::MultiviewPanoramaBuilder</text>
<text text-anchor="middle" x="1654" y="-172.5" font-family="FreeSans" font-size="10.00">DiagnosticsC</text>
<polyline fill="none" stroke="black" points="1584,-165.5 1724,-165.5 "/>
<text text-anchor="middle" x="1654" y="-153.5" font-family="FreeSans" font-size="10.00"> </text>
<polyline fill="none" stroke="black" points="1584,-146.5 1724,-146.5 "/>
<text text-anchor="start" x="1592" y="-134.5" font-family="FreeSans" font-size="10.00">+ MultiviewPanoramaBuilder</text>
<text text-anchor="start" x="1592" y="-123.5" font-family="FreeSans" font-size="10.00">DiagnosticsC()</text>
</a>
</g>
</g>
<!-- Node9&#45;&gt;Node19 -->
<g id="edge29" class="edge"><title>Node9&#45;&gt;Node19</title>
<path fill="none" stroke="#404040" d="M1422.79,-785.291C1469.06,-780.533 1591.72,-765.831 1623,-741 1672.37,-701.812 1683,-675.53 1683,-612.5 1683,-612.5 1683,-612.5 1683,-345.5 1683,-302.439 1675.07,-254.372 1667.5,-218.31"/>
<polygon fill="none" stroke="#404040" points="1667.5,-218.294 1662.32,-213.275 1664.96,-206.565 1670.14,-211.584 1667.5,-218.294"/>
<text text-anchor="middle" x="1714" y="-413" font-family="FreeSans" font-size="10.00"> +flagSuccess</text>
</g>
<!-- Node9&#45;&gt;Node21 -->
<g id="edge37" class="edge"><title>Node9&#45;&gt;Node21</title>
<path fill="none" stroke="#404040" d="M1404.46,-759.296C1402.86,-716.599 1396.68,-632.672 1373,-566 1360.69,-531.347 1338.21,-497.228 1317.38,-470.354"/>
<polygon fill="none" stroke="#404040" points="1317.26,-470.198 1310.4,-467.98 1309.81,-460.793 1316.67,-463.011 1317.26,-470.198"/>
<text text-anchor="middle" x="1431.5" y="-614.5" font-family="FreeSans" font-size="10.00"> +flagSuccess</text>
<text text-anchor="middle" x="1431.5" y="-603.5" font-family="FreeSans" font-size="10.00">+flagSuccessLS</text>
</g>
<!-- Node9&#45;&gt;Node22 -->
<g id="edge36" class="edge"><title>Node9&#45;&gt;Node22</title>
<path fill="none" stroke="#404040" d="M1387.18,-785.06C1318.23,-777.5 1072.09,-749.989 1058,-741 1028.69,-722.298 1037.25,-702.523 1016,-675 1013.72,-672.049 1011.33,-669.073 1008.87,-666.106"/>
<polygon fill="none" stroke="#404040" points="1008.63,-665.825 1001.69,-663.863 1000.83,-656.703 1007.77,-658.665 1008.63,-665.825"/>
<text text-anchor="middle" x="1089" y="-705.5" font-family="FreeSans" font-size="10.00"> +flagSuccess</text>
</g>
<!-- Node23 -->
<g id="node23" class="node"><title>Node23</title>
<g id="a_node23"><a xlink:href="structSeeSawN_1_1GeometryN_1_1VisionGraphPipelineDiagnosticsC.html" target="_top" xlink:title="Diagnostics for the vision graph pipeline. ">
<polygon fill="white" stroke="black" points="1492,-479.5 1492,-547.5 1668,-547.5 1668,-479.5 1492,-479.5"/>
<text text-anchor="start" x="1500" y="-535.5" font-family="FreeSans" font-size="10.00">SeeSawN::GeometryN</text>
<text text-anchor="middle" x="1580" y="-524.5" font-family="FreeSans" font-size="10.00">::VisionGraphPipelineDiagnosticsC</text>
<polyline fill="none" stroke="black" points="1492,-517.5 1668,-517.5 "/>
<text text-anchor="middle" x="1580" y="-505.5" font-family="FreeSans" font-size="10.00"> </text>
<polyline fill="none" stroke="black" points="1492,-498.5 1668,-498.5 "/>
<text text-anchor="start" x="1500" y="-486.5" font-family="FreeSans" font-size="10.00">+ VisionGraphPipelineDiagnosticsC()</text>
</a>
</g>
</g>
<!-- Node9&#45;&gt;Node23 -->
<g id="edge40" class="edge"><title>Node9&#45;&gt;Node23</title>
<path fill="none" stroke="#404040" d="M1422.6,-784.907C1447.91,-780.949 1494.34,-769.981 1520,-741 1564.87,-690.317 1576.76,-609.827 1579.58,-559.692"/>
<polygon fill="none" stroke="#404040" points="1579.59,-559.624 1575.86,-553.452 1580.12,-547.636 1583.85,-553.808 1579.59,-559.624"/>
<text text-anchor="middle" x="1588" y="-705.5" font-family="FreeSans" font-size="10.00"> +flagSuccess</text>
</g>
<!-- Node10 -->
<g id="node10" class="node"><title>Node10</title>
<polygon fill="white" stroke="#bfbfbf" points="661.5,-759.5 661.5,-816.5 766.5,-816.5 766.5,-759.5 661.5,-759.5"/>
<text text-anchor="middle" x="714" y="-804.5" font-family="FreeSans" font-size="10.00">std::list&lt; IterationT &gt;</text>
<polyline fill="none" stroke="#bfbfbf" points="661.5,-797.5 766.5,-797.5 "/>
<text text-anchor="middle" x="714" y="-785.5" font-family="FreeSans" font-size="10.00"> </text>
<polyline fill="none" stroke="#bfbfbf" points="661.5,-778.5 766.5,-778.5 "/>
<text text-anchor="middle" x="714" y="-766.5" font-family="FreeSans" font-size="10.00"> </text>
</g>
<!-- Node10&#45;&gt;Node6 -->
<g id="edge10" class="edge"><title>Node10&#45;&gt;Node6</title>
<path fill="none" stroke="#404040" d="M766.895,-769.486C779.597,-762.655 791.613,-753.396 799,-741 814.015,-715.801 810.694,-701.901 799,-675 795.879,-667.82 791.481,-661.09 786.413,-654.903"/>
<polygon fill="none" stroke="#404040" points="786.061,-654.517 779.064,-652.771 777.985,-645.641 784.981,-647.387 786.061,-654.517"/>
<text text-anchor="middle" x="828.5" y="-705.5" font-family="FreeSans" font-size="10.00"> +history</text>
</g>
<!-- Node11 -->
<g id="node11" class="node"><title>Node11</title>
<polygon fill="white" stroke="#bfbfbf" points="695,-911.5 695,-968.5 733,-968.5 733,-911.5 695,-911.5"/>
<text text-anchor="middle" x="714" y="-956.5" font-family="FreeSans" font-size="10.00">tuple</text>
<polyline fill="none" stroke="#bfbfbf" points="695,-949.5 733,-949.5 "/>
<text text-anchor="middle" x="714" y="-937.5" font-family="FreeSans" font-size="10.00"> </text>
<polyline fill="none" stroke="#bfbfbf" points="695,-930.5 733,-930.5 "/>
<text text-anchor="middle" x="714" y="-918.5" font-family="FreeSans" font-size="10.00"> </text>
</g>
<!-- Node11&#45;&gt;Node10 -->
<g id="edge11" class="edge"><title>Node11&#45;&gt;Node10</title>
<path fill="none" stroke="#404040" d="M714,-911.488C714,-888.302 714,-854.829 714,-828.733"/>
<polygon fill="none" stroke="#404040" points="714,-828.591 710,-822.592 714,-816.591 718,-822.591 714,-828.591"/>
<text text-anchor="middle" x="738.5" y="-861.5" font-family="FreeSans" font-size="10.00"> +elements</text>
</g>
<!-- Node12 -->
<g id="node12" class="node"><title>Node12</title>
<g id="a_node12"><a xlink:title="STL class. ">
<polygon fill="white" stroke="#bfbfbf" points="320,-911.5 320,-968.5 390,-968.5 390,-911.5 320,-911.5"/>
<text text-anchor="middle" x="355" y="-956.5" font-family="FreeSans" font-size="10.00">std::list&lt; T &gt;</text>
<polyline fill="none" stroke="#bfbfbf" points="320,-949.5 390,-949.5 "/>
<text text-anchor="middle" x="355" y="-937.5" font-family="FreeSans" font-size="10.00"> </text>
<polyline fill="none" stroke="#bfbfbf" points="320,-930.5 390,-930.5 "/>
<text text-anchor="middle" x="355" y="-918.5" font-family="FreeSans" font-size="10.00"> </text>
</a>
</g>
</g>
<!-- Node12&#45;&gt;Node10 -->
<g id="edge12" class="edge"><title>Node12&#45;&gt;Node10</title>
<path fill="none" stroke="orange" d="M399.434,-920.434C465.826,-892.694 590.668,-840.531 661.479,-810.945"/>
<polygon fill="orange" stroke="orange" points="397.954,-917.259 390.076,-924.344 400.652,-923.718 397.954,-917.259"/>
<text text-anchor="middle" x="628.5" y="-861.5" font-family="FreeSans" font-size="10.00"> &lt; IterationT &gt;</text>
</g>
<!-- Node12&#45;&gt;Node17 -->
<g id="edge23" class="edge"><title>Node12&#45;&gt;Node17</title>
<path fill="none" stroke="orange" d="M355.023,-901.199C355.505,-849.779 357.995,-755.019 369,-675 370.591,-663.433 373.232,-650.841 375.794,-640.01"/>
<polygon fill="orange" stroke="orange" points="351.521,-901.468 354.948,-911.493 358.521,-901.519 351.521,-901.468"/>
<text text-anchor="middle" x="385" y="-785.5" font-family="FreeSans" font-size="10.00"> &lt; double &gt;</text>
</g>
<!-- Node13 -->
<g id="node13" class="node"><title>Node13</title>
<polygon fill="white" stroke="#bfbfbf" points="242.5,-1016.5 242.5,-1073.5 271.5,-1073.5 271.5,-1016.5 242.5,-1016.5"/>
<text text-anchor="middle" x="257" y="-1061.5" font-family="FreeSans" font-size="10.00">T</text>
<polyline fill="none" stroke="#bfbfbf" points="242.5,-1054.5 271.5,-1054.5 "/>
<text text-anchor="middle" x="257" y="-1042.5" font-family="FreeSans" font-size="10.00"> </text>
<polyline fill="none" stroke="#bfbfbf" points="242.5,-1035.5 271.5,-1035.5 "/>
<text text-anchor="middle" x="257" y="-1023.5" font-family="FreeSans" font-size="10.00"> </text>
</g>
<!-- Node13&#45;&gt;Node12 -->
<g id="edge13" class="edge"><title>Node13&#45;&gt;Node12</title>
<path fill="none" stroke="#404040" d="M271.884,-1028.36C284.651,-1014.94 303.553,-995.072 320.107,-977.674"/>
<polygon fill="none" stroke="#404040" points="320.232,-977.542 321.47,-970.437 328.504,-968.848 327.266,-975.952 320.232,-977.542"/>
<text text-anchor="middle" x="333.5" y="-990" font-family="FreeSans" font-size="10.00"> +elements</text>
</g>
<!-- Node18 -->
<g id="node18" class="node"><title>Node18</title>
<g id="a_node18"><a xlink:title="STL class. ">
<polygon fill="white" stroke="#bfbfbf" points="27,-835.5 27,-892.5 111,-892.5 111,-835.5 27,-835.5"/>
<text text-anchor="middle" x="69" y="-880.5" font-family="FreeSans" font-size="10.00">std::vector&lt; T &gt;</text>
<polyline fill="none" stroke="#bfbfbf" points="27,-873.5 111,-873.5 "/>
<text text-anchor="middle" x="69" y="-861.5" font-family="FreeSans" font-size="10.00"> </text>
<polyline fill="none" stroke="#bfbfbf" points="27,-854.5 111,-854.5 "/>
<text text-anchor="middle" x="69" y="-842.5" font-family="FreeSans" font-size="10.00"> </text>
</a>
</g>
</g>
<!-- Node13&#45;&gt;Node18 -->
<g id="edge27" class="edge"><title>Node13&#45;&gt;Node18</title>
<path fill="none" stroke="#404040" d="M242.248,-1029.95C213.377,-1002.47 148.603,-940.792 106.953,-901.136"/>
<polygon fill="none" stroke="#404040" points="106.872,-901.059 99.7687,-899.819 98.1816,-892.785 105.285,-894.025 106.872,-901.059"/>
<text text-anchor="middle" x="230.5" y="-990" font-family="FreeSans" font-size="10.00"> +elements</text>
</g>
<!-- Node14 -->
<g id="node14" class="node"><title>Node14</title>
<polygon fill="white" stroke="#bfbfbf" points="1075,-577.5 1075,-645.5 1173,-645.5 1173,-577.5 1075,-577.5"/>
<text text-anchor="start" x="1083" y="-633.5" font-family="FreeSans" font-size="10.00">optional&lt; unsigned</text>
<text text-anchor="middle" x="1124" y="-622.5" font-family="FreeSans" font-size="10.00"> int &gt;</text>
<polyline fill="none" stroke="#bfbfbf" points="1075,-615.5 1173,-615.5 "/>
<text text-anchor="middle" x="1124" y="-603.5" font-family="FreeSans" font-size="10.00"> </text>
<polyline fill="none" stroke="#bfbfbf" points="1075,-596.5 1173,-596.5 "/>
<text text-anchor="middle" x="1124" y="-584.5" font-family="FreeSans" font-size="10.00"> </text>
</g>
<!-- Node14&#45;&gt;Node5 -->
<g id="edge15" class="edge"><title>Node14&#45;&gt;Node5</title>
<path fill="none" stroke="#404040" d="M1099.07,-577.15C1074.83,-544.71 1037.87,-495.265 1011.36,-459.802"/>
<polygon fill="none" stroke="#404040" points="1011.03,-459.351 1004.23,-456.939 1003.84,-449.739 1010.64,-452.15 1011.03,-459.351"/>
<text text-anchor="middle" x="1116.5" y="-511" font-family="FreeSans" font-size="10.00"> +iStage1Solution</text>
</g>
<!-- Node15 -->
<g id="node15" class="node"><title>Node15</title>
<polygon fill="white" stroke="#bfbfbf" points="1098,-759.5 1098,-816.5 1148,-816.5 1148,-759.5 1098,-759.5"/>
<text text-anchor="middle" x="1123" y="-804.5" font-family="FreeSans" font-size="10.00">optional</text>
<polyline fill="none" stroke="#bfbfbf" points="1098,-797.5 1148,-797.5 "/>
<text text-anchor="middle" x="1123" y="-785.5" font-family="FreeSans" font-size="10.00"> </text>
<polyline fill="none" stroke="#bfbfbf" points="1098,-778.5 1148,-778.5 "/>
<text text-anchor="middle" x="1123" y="-766.5" font-family="FreeSans" font-size="10.00"> </text>
</g>
<!-- Node15&#45;&gt;Node14 -->
<g id="edge16" class="edge"><title>Node15&#45;&gt;Node14</title>
<path fill="none" stroke="orange" d="M1123.22,-748.996C1123.39,-718.166 1123.64,-675.139 1123.81,-645.682"/>
<polygon fill="orange" stroke="orange" points="1119.72,-749.33 1123.16,-759.35 1126.72,-749.37 1119.72,-749.33"/>
<text text-anchor="middle" x="1159.5" y="-705.5" font-family="FreeSans" font-size="10.00"> &lt; unsigned int &gt;</text>
</g>
<!-- Node16&#45;&gt;Node4 -->
<g id="edge19" class="edge"><title>Node16&#45;&gt;Node4</title>
<path fill="none" stroke="#404040" d="M535.5,-381.494C570.644,-365.041 613.346,-345.049 649.954,-327.911"/>
<polygon fill="none" stroke="#404040" points="650.236,-327.779 653.974,-321.612 661.104,-322.691 657.366,-328.858 650.236,-327.779"/>
<text text-anchor="middle" x="651.5" y="-344" font-family="FreeSans" font-size="10.00"> +pdlDiagnostics</text>
</g>
<!-- Node17&#45;&gt;Node16 -->
<g id="edge21" class="edge"><title>Node17&#45;&gt;Node16</title>
<path fill="none" stroke="#404040" d="M378.94,-582.955C376.161,-555.175 375.513,-511.819 392,-479 395.724,-471.588 400.754,-464.697 406.444,-458.405"/>
<polygon fill="none" stroke="#404040" points="406.715,-458.133 408.109,-451.058 415.176,-449.624 413.782,-456.699 406.715,-458.133"/>
<text text-anchor="middle" x="421.5" y="-511" font-family="FreeSans" font-size="10.00"> +errorHistory</text>
</g>
<!-- Node18&#45;&gt;Node3 -->
<g id="edge26" class="edge"><title>Node18&#45;&gt;Node3</title>
<path fill="none" stroke="orange" d="M56.5297,-825.379C34.8807,-752.775 -1.50206,-590.66 63,-479 187.042,-264.271 504.294,-193.423 652.93,-171.556"/>
<polygon fill="orange" stroke="orange" points="53.2046,-826.475 59.4746,-835.015 59.899,-824.429 53.2046,-826.475"/>
<text text-anchor="start" x="63" y="-516.5" font-family="FreeSans" font-size="10.00"> &lt; SeeSawN::GeometryN</text>
<text text-anchor="middle" x="140" y="-505.5" font-family="FreeSans" font-size="10.00">::GeometryEstimatorDiagnosticsC &gt;</text>
</g>
<!-- Node19&#45;&gt;Node1 -->
<g id="edge28" class="edge"><title>Node19&#45;&gt;Node1</title>
<path fill="none" stroke="#404040" d="M1614.87,-116.43C1603.72,-103.883 1591.62,-90.2481 1580.57,-77.8087"/>
<polygon fill="none" stroke="#404040" points="1580.33,-77.5401 1573.36,-75.7096 1572.36,-68.5672 1579.34,-70.3976 1580.33,-77.5401"/>
<text text-anchor="middle" x="1650.5" y="-90" font-family="FreeSans" font-size="10.00"> +panoramaDiagnostics</text>
</g>
<!-- Node20 -->
<g id="node20" class="node"><title>Node20</title>
<polygon fill="white" stroke="#bfbfbf" points="1732,-260 1732,-317 1774,-317 1774,-260 1732,-260"/>
<text text-anchor="middle" x="1753" y="-305" font-family="FreeSans" font-size="10.00">size_t</text>
<polyline fill="none" stroke="#bfbfbf" points="1732,-298 1774,-298 "/>
<text text-anchor="middle" x="1753" y="-286" font-family="FreeSans" font-size="10.00"> </text>
<polyline fill="none" stroke="#bfbfbf" points="1732,-279 1774,-279 "/>
<text text-anchor="middle" x="1753" y="-267" font-family="FreeSans" font-size="10.00"> </text>
</g>
<!-- Node20&#45;&gt;Node1 -->
<g id="edge41" class="edge"><title>Node20&#45;&gt;Node1</title>
<path fill="none" stroke="#404040" d="M1754.94,-259.943C1756.28,-224.827 1754.82,-163.046 1733,-116 1713.99,-75.0039 1667.58,-54.8638 1625.39,-44.9801"/>
<polygon fill="none" stroke="#404040" points="1625.37,-44.9741 1618.66,-47.6258 1613.63,-42.4556 1620.34,-39.8039 1625.37,-44.9741"/>
<text text-anchor="middle" x="1784.5" y="-170" font-family="FreeSans" font-size="10.00"> +sPointCloud</text>
<text text-anchor="middle" x="1784.5" y="-159" font-family="FreeSans" font-size="10.00">+nRegistered</text>
<text text-anchor="middle" x="1784.5" y="-148" font-family="FreeSans" font-size="10.00">+nInlierEdge</text>
</g>
<!-- Node20&#45;&gt;Node19 -->
<g id="edge30" class="edge"><title>Node20&#45;&gt;Node19</title>
<path fill="none" stroke="#404040" d="M1731.68,-266.663C1722.77,-257.559 1712.53,-246.565 1704,-236 1699.17,-230.01 1694.32,-223.564 1689.64,-217.067"/>
<polygon fill="none" stroke="#404040" points="1689.38,-216.688 1682.65,-214.083 1682.47,-206.874 1689.2,-209.479 1689.38,-216.688"/>
<text text-anchor="middle" x="1725" y="-228" font-family="FreeSans" font-size="10.00"> +nPoints</text>
</g>
<!-- Node21&#45;&gt;Node1 -->
<g id="edge31" class="edge"><title>Node21&#45;&gt;Node1</title>
<path fill="none" stroke="#404040" d="M1294.25,-370.424C1316.38,-331.243 1350.78,-272.913 1385,-225 1422.87,-171.98 1471.52,-115.064 1504.77,-77.6007"/>
<polygon fill="none" stroke="#404040" points="1504.89,-77.4665 1505.89,-70.3261 1512.87,-68.5094 1511.86,-75.6499 1504.89,-77.4665"/>
<text text-anchor="middle" x="1457" y="-228" font-family="FreeSans" font-size="10.00"> +rotationRegistrationDiagnostics</text>
</g>
<!-- Node22&#45;&gt;Node21 -->
<g id="edge33" class="edge"><title>Node22&#45;&gt;Node21</title>
<path fill="none" stroke="#404040" d="M1056.59,-568.954C1059.75,-567.919 1062.89,-566.931 1066,-566 1106.33,-553.92 1122.69,-569.3 1159,-548 1190.76,-529.37 1217.67,-498.197 1237.04,-470.877"/>
<polygon fill="none" stroke="#404040" points="1237.28,-470.517 1237.39,-463.307 1244.08,-460.63 1243.98,-467.84 1237.28,-470.517"/>
<text text-anchor="middle" x="1268" y="-516.5" font-family="FreeSans" font-size="10.00"> +mstDiagnostics</text>
<text text-anchor="middle" x="1268" y="-505.5" font-family="FreeSans" font-size="10.00">+rstsDiagnostics</text>
</g>
<!-- Node23&#45;&gt;Node1 -->
<g id="edge39" class="edge"><title>Node23&#45;&gt;Node1</title>
<path fill="none" stroke="#404040" d="M1568.09,-479.489C1557.27,-446.523 1543,-394.178 1543,-347.5 1543,-347.5 1543,-347.5 1543,-160.5 1543,-134.103 1543,-104.57 1543,-80.8406"/>
<polygon fill="none" stroke="#404040" points="1543,-80.6609 1539,-74.6609 1543,-68.6609 1547,-74.6609 1543,-80.6609"/>
<text text-anchor="middle" x="1599" y="-286" font-family="FreeSans" font-size="10.00"> +visionGraphDiagnostics</text>
</g>
</g>
</svg>
