<?xml version="1.0" encoding="UTF-8" standalone="no"?>
<!DOCTYPE svg PUBLIC "-//W3C//DTD SVG 1.1//EN"
 "http://www.w3.org/Graphics/SVG/1.1/DTD/svg11.dtd">
<!-- Generated by graphviz version 2.38.0 (20140413.2041)
 -->
<!-- Title: SeeSawN::TrackerN::ImageFeatureTrackingPipelineParametersC Pages: 1 -->
<svg width="2024pt" height="1023pt"
 viewBox="0.00 0.00 2024.00 1023.00" xmlns="http://www.w3.org/2000/svg" xmlns:xlink="http://www.w3.org/1999/xlink">
<g id="graph0" class="graph" transform="scale(1 1) rotate(0) translate(4 1019)">
<title>SeeSawN::TrackerN::ImageFeatureTrackingPipelineParametersC</title>
<polygon fill="white" stroke="none" points="-4,4 -4,-1019 2020,-1019 2020,4 -4,4"/>
<!-- Node1 -->
<g id="node1" class="node"><title>Node1</title>
<polygon fill="#bfbfbf" stroke="black" points="813.5,-0.5 813.5,-90.5 970.5,-90.5 970.5,-0.5 813.5,-0.5"/>
<text text-anchor="start" x="821.5" y="-78.5" font-family="FreeSans" font-size="10.00">SeeSawN::TrackerN::</text>
<text text-anchor="start" x="821.5" y="-67.5" font-family="FreeSans" font-size="10.00">ImageFeatureTrackingPipeline</text>
<text text-anchor="middle" x="892" y="-56.5" font-family="FreeSans" font-size="10.00">ParametersC</text>
<polyline fill="none" stroke="black" points="813.5,-49.5 970.5,-49.5 "/>
<text text-anchor="middle" x="892" y="-37.5" font-family="FreeSans" font-size="10.00"> </text>
<polyline fill="none" stroke="black" points="813.5,-30.5 970.5,-30.5 "/>
<text text-anchor="start" x="821.5" y="-18.5" font-family="FreeSans" font-size="10.00">+ ImageFeatureTrackingPipeline</text>
<text text-anchor="start" x="821.5" y="-7.5" font-family="FreeSans" font-size="10.00">ParametersC()</text>
</g>
<!-- Node2 -->
<g id="node2" class="node"><title>Node2</title>
<g id="a_node2"><a xlink:href="structSeeSawN_1_1GeometryN_1_1GeometryEstimationPipelineParametersC.html" target="_top" xlink:title="Parameters for GeometryEstimationPipelineC. ">
<polygon fill="white" stroke="black" points="983.5,-138.5 983.5,-228.5 1130.5,-228.5 1130.5,-138.5 983.5,-138.5"/>
<text text-anchor="start" x="991.5" y="-216.5" font-family="FreeSans" font-size="10.00">SeeSawN::GeometryN</text>
<text text-anchor="start" x="991.5" y="-205.5" font-family="FreeSans" font-size="10.00">::GeometryEstimationPipeline</text>
<text text-anchor="middle" x="1057" y="-194.5" font-family="FreeSans" font-size="10.00">ParametersC</text>
<polyline fill="none" stroke="black" points="983.5,-187.5 1130.5,-187.5 "/>
<text text-anchor="middle" x="1057" y="-175.5" font-family="FreeSans" font-size="10.00"> </text>
<polyline fill="none" stroke="black" points="983.5,-168.5 1130.5,-168.5 "/>
<text text-anchor="start" x="991.5" y="-156.5" font-family="FreeSans" font-size="10.00">+ GeometryEstimationPipeline</text>
<text text-anchor="start" x="991.5" y="-145.5" font-family="FreeSans" font-size="10.00">ParametersC()</text>
</a>
</g>
</g>
<!-- Node2&#45;&gt;Node1 -->
<g id="edge1" class="edge"><title>Node2&#45;&gt;Node1</title>
<path fill="none" stroke="#404040" d="M1003.43,-138.345C987.933,-125.572 970.878,-111.514 954.869,-98.3193"/>
<polygon fill="none" stroke="#404040" points="954.844,-98.2988 947.67,-97.5692 945.584,-90.6663 952.758,-91.3959 954.844,-98.2988"/>
<text text-anchor="middle" x="1036" y="-112" font-family="FreeSans" font-size="10.00"> +homographyParameters</text>
</g>
<!-- Node3 -->
<g id="node3" class="node"><title>Node3</title>
<polygon fill="white" stroke="#bfbfbf" points="417.5,-852.5 417.5,-909.5 462.5,-909.5 462.5,-852.5 417.5,-852.5"/>
<text text-anchor="middle" x="440" y="-897.5" font-family="FreeSans" font-size="10.00">double</text>
<polyline fill="none" stroke="#bfbfbf" points="417.5,-890.5 462.5,-890.5 "/>
<text text-anchor="middle" x="440" y="-878.5" font-family="FreeSans" font-size="10.00"> </text>
<polyline fill="none" stroke="#bfbfbf" points="417.5,-871.5 462.5,-871.5 "/>
<text text-anchor="middle" x="440" y="-859.5" font-family="FreeSans" font-size="10.00"> </text>
</g>
<!-- Node3&#45;&gt;Node1 -->
<g id="edge35" class="edge"><title>Node3&#45;&gt;Node1</title>
<path fill="none" stroke="#404040" d="M417.252,-880.002C353.145,-879.501 173.123,-874.449 134,-834 75.2067,-773.214 112,-729.567 112,-645 112,-645 112,-645 112,-182.5 112,-113.252 595.283,-68.7553 801.024,-52.95"/>
<polygon fill="none" stroke="#404040" points="801.313,-52.9281 806.992,-48.4842 813.278,-52.0173 807.599,-56.4612 801.313,-52.9281"/>
<text text-anchor="middle" x="160.5" y="-399" font-family="FreeSans" font-size="10.00"> +predictionErrorNoise</text>
<text text-anchor="middle" x="160.5" y="-388" font-family="FreeSans" font-size="10.00">+predictionFailureTh</text>
<text text-anchor="middle" x="160.5" y="-377" font-family="FreeSans" font-size="10.00">+noiseVariance</text>
<text text-anchor="middle" x="160.5" y="-366" font-family="FreeSans" font-size="10.00">+pRejection</text>
</g>
<!-- Node3&#45;&gt;Node2 -->
<g id="edge2" class="edge"><title>Node3&#45;&gt;Node2</title>
<path fill="none" stroke="#404040" d="M417.289,-867.278C404.719,-859.205 389.719,-847.705 380,-834 328.861,-761.888 318,-733.404 318,-645 318,-645 318,-645 318,-309.5 318,-197.397 705.54,-248.123 816,-229 867.57,-220.072 925.223,-209.45 971.207,-200.823"/>
<polygon fill="none" stroke="#404040" points="971.449,-200.777 976.607,-195.737 983.243,-198.56 978.085,-203.6 971.449,-200.777"/>
<text text-anchor="middle" x="368.5" y="-505" font-family="FreeSans" font-size="10.00"> +maxAmbiguity</text>
<text text-anchor="middle" x="368.5" y="-494" font-family="FreeSans" font-size="10.00">+minObservationRatio</text>
<text text-anchor="middle" x="368.5" y="-483" font-family="FreeSans" font-size="10.00">+binDensity1</text>
<text text-anchor="middle" x="368.5" y="-472" font-family="FreeSans" font-size="10.00">+maxObservationRatio</text>
<text text-anchor="middle" x="368.5" y="-461" font-family="FreeSans" font-size="10.00">+binDensity2</text>
<text text-anchor="middle" x="368.5" y="-450" font-family="FreeSans" font-size="10.00">+minRelativeDifference</text>
<text text-anchor="middle" x="368.5" y="-439" font-family="FreeSans" font-size="10.00">+refreshThreshold</text>
<text text-anchor="middle" x="368.5" y="-428" font-family="FreeSans" font-size="10.00">+validationRatio</text>
</g>
<!-- Node5 -->
<g id="node5" class="node"><title>Node5</title>
<g id="a_node5"><a xlink:href="structSeeSawN_1_1OptimisationN_1_1PowellDogLegParametersC.html" target="_top" xlink:title="Parameters for PowellDogLegC. ">
<polygon fill="white" stroke="black" points="1697.5,-610 1697.5,-678 1848.5,-678 1848.5,-610 1697.5,-610"/>
<text text-anchor="start" x="1705.5" y="-666" font-family="FreeSans" font-size="10.00">SeeSawN::OptimisationN</text>
<text text-anchor="middle" x="1773" y="-655" font-family="FreeSans" font-size="10.00">::PowellDogLegParametersC</text>
<polyline fill="none" stroke="black" points="1697.5,-648 1848.5,-648 "/>
<text text-anchor="middle" x="1773" y="-636" font-family="FreeSans" font-size="10.00"> </text>
<polyline fill="none" stroke="black" points="1697.5,-629 1848.5,-629 "/>
<text text-anchor="start" x="1705.5" y="-617" font-family="FreeSans" font-size="10.00">+ PowellDogLegParametersC()</text>
</a>
</g>
</g>
<!-- Node3&#45;&gt;Node5 -->
<g id="edge5" class="edge"><title>Node3&#45;&gt;Node5</title>
<path fill="none" stroke="#404040" d="M462.573,-878.779C539.361,-874.649 797.55,-860.963 1011,-852 1039.6,-850.799 1501.11,-848.14 1526,-834 1581.63,-802.399 1554.67,-753.746 1604,-713 1607.73,-709.923 1646.42,-694.284 1685.83,-678.78"/>
<polygon fill="none" stroke="#404040" points="1686.05,-678.696 1690.17,-672.78 1697.22,-674.313 1693.1,-680.228 1686.05,-678.696"/>
<text text-anchor="middle" x="1640" y="-793" font-family="FreeSans" font-size="10.00"> +lambdaGrowth</text>
<text text-anchor="middle" x="1640" y="-782" font-family="FreeSans" font-size="10.00">+delta0</text>
<text text-anchor="middle" x="1640" y="-771" font-family="FreeSans" font-size="10.00">+epsilon1</text>
<text text-anchor="middle" x="1640" y="-760" font-family="FreeSans" font-size="10.00">+epsilon2</text>
<text text-anchor="middle" x="1640" y="-749" font-family="FreeSans" font-size="10.00">+lambdaShrink</text>
</g>
<!-- Node8 -->
<g id="node8" class="node"><title>Node8</title>
<g id="a_node8"><a xlink:href="structSeeSawN_1_1RANSACN_1_1TwoStageRANSACParametersC.html" target="_top" xlink:title="Parameters for TwoStageRANSACC. ">
<polygon fill="white" stroke="black" points="1291.5,-435 1291.5,-503 1464.5,-503 1464.5,-435 1291.5,-435"/>
<text text-anchor="start" x="1299.5" y="-491" font-family="FreeSans" font-size="10.00">SeeSawN::RANSACN::TwoStage</text>
<text text-anchor="middle" x="1378" y="-480" font-family="FreeSans" font-size="10.00">RANSACParametersC</text>
<polyline fill="none" stroke="black" points="1291.5,-473 1464.5,-473 "/>
<text text-anchor="middle" x="1378" y="-461" font-family="FreeSans" font-size="10.00"> </text>
<polyline fill="none" stroke="black" points="1291.5,-454 1464.5,-454 "/>
<text text-anchor="start" x="1299.5" y="-442" font-family="FreeSans" font-size="10.00">+ TwoStageRANSACParametersC()</text>
</a>
</g>
</g>
<!-- Node3&#45;&gt;Node8 -->
<g id="edge9" class="edge"><title>Node3&#45;&gt;Node8</title>
<path fill="none" stroke="#404040" d="M455.309,-852.366C479.287,-808.83 524.278,-726.039 537,-695 554.969,-651.159 530.838,-622.393 568,-593 593.06,-573.179 823.228,-578.381 855,-575 1039.13,-555.408 1088.03,-560.51 1267,-513 1273.72,-511.217 1280.59,-509.16 1287.45,-506.932"/>
<polygon fill="none" stroke="#404040" points="1287.6,-506.881 1292,-501.171 1298.97,-503.039 1294.57,-508.75 1287.6,-506.881"/>
<text text-anchor="middle" x="603" y="-647" font-family="FreeSans" font-size="10.00"> +eligibilityRatio</text>
<text text-anchor="middle" x="603" y="-636" font-family="FreeSans" font-size="10.00">+minConfidence</text>
</g>
<!-- Node10 -->
<g id="node10" class="node"><title>Node10</title>
<g id="a_node10"><a xlink:href="structSeeSawN_1_1RANSACN_1_1RANSACParametersC.html" target="_top" xlink:title="Parameters for RANSACC. ">
<polygon fill="white" stroke="black" points="1311.5,-593.5 1311.5,-694.5 1528.5,-694.5 1528.5,-593.5 1311.5,-593.5"/>
<text text-anchor="middle" x="1420" y="-682.5" font-family="FreeSans" font-size="10.00">SeeSawN::RANSACN::RANSACParametersC</text>
<polyline fill="none" stroke="black" points="1311.5,-675.5 1528.5,-675.5 "/>
<text text-anchor="middle" x="1420" y="-663.5" font-family="FreeSans" font-size="10.00"> </text>
<polyline fill="none" stroke="black" points="1311.5,-656.5 1528.5,-656.5 "/>
<text text-anchor="start" x="1319.5" y="-644.5" font-family="FreeSans" font-size="10.00">+ RANSACParametersC()</text>
<text text-anchor="start" x="1319.5" y="-633.5" font-family="FreeSans" font-size="10.00">* minObservationSupport</text>
<text text-anchor="start" x="1319.5" y="-622.5" font-family="FreeSans" font-size="10.00">* delta</text>
<text text-anchor="start" x="1319.5" y="-611.5" font-family="FreeSans" font-size="10.00">* maxDeltaTolerance</text>
<text text-anchor="start" x="1319.5" y="-600.5" font-family="FreeSans" font-size="10.00">* minCoverage</text>
</a>
</g>
</g>
<!-- Node3&#45;&gt;Node10 -->
<g id="edge12" class="edge"><title>Node3&#45;&gt;Node10</title>
<path fill="none" stroke="#404040" d="M462.838,-879.752C568.75,-878.412 1008.97,-870.656 1057,-834 1102.37,-799.375 1055.3,-748.488 1100,-713 1127.85,-690.889 1224.2,-702.306 1259,-695 1272.18,-692.233 1285.83,-688.845 1299.34,-685.148"/>
<polygon fill="none" stroke="#404040" points="1299.62,-685.071 1304.32,-679.599 1311.17,-681.829 1306.48,-687.301 1299.62,-685.071"/>
<text text-anchor="middle" x="1145.5" y="-826" font-family="FreeSans" font-size="10.00"> +minModelSimilarity</text>
<text text-anchor="middle" x="1145.5" y="-815" font-family="FreeSans" font-size="10.00">+maxErrorRatio</text>
<text text-anchor="middle" x="1145.5" y="-804" font-family="FreeSans" font-size="10.00">+eligibilityRatio</text>
<text text-anchor="middle" x="1145.5" y="-793" font-family="FreeSans" font-size="10.00">+diversityFactor</text>
<text text-anchor="middle" x="1145.5" y="-782" font-family="FreeSans" font-size="10.00">+growthRate</text>
<text text-anchor="middle" x="1145.5" y="-771" font-family="FreeSans" font-size="10.00">+maxError</text>
<text text-anchor="middle" x="1145.5" y="-760" font-family="FreeSans" font-size="10.00">+parsimonyFactor</text>
<text text-anchor="middle" x="1145.5" y="-749" font-family="FreeSans" font-size="10.00">+minConfidence</text>
<text text-anchor="middle" x="1145.5" y="-738" font-family="FreeSans" font-size="10.00">+epsilon</text>
<text text-anchor="middle" x="1145.5" y="-727" font-family="FreeSans" font-size="10.00">+minError</text>
<text text-anchor="middle" x="1145.5" y="-716" font-family="FreeSans" font-size="10.00">...</text>
</g>
<!-- Node13 -->
<g id="node13" class="node"><title>Node13</title>
<g id="a_node13"><a xlink:href="structSeeSawN_1_1UncertaintyEstimationN_1_1ScaledUnscentedTransformationParametersC.html" target="_top" xlink:title="Parameters for ScaledUncentedTransformationC. ">
<polygon fill="white" stroke="black" points="960.5,-599 960.5,-689 1131.5,-689 1131.5,-599 960.5,-599"/>
<text text-anchor="start" x="968.5" y="-677" font-family="FreeSans" font-size="10.00">SeeSawN::UncertaintyEstimation</text>
<text text-anchor="start" x="968.5" y="-666" font-family="FreeSans" font-size="10.00">N::ScaledUnscentedTransformation</text>
<text text-anchor="middle" x="1046" y="-655" font-family="FreeSans" font-size="10.00">ParametersC</text>
<polyline fill="none" stroke="black" points="960.5,-648 1131.5,-648 "/>
<text text-anchor="middle" x="1046" y="-636" font-family="FreeSans" font-size="10.00"> </text>
<polyline fill="none" stroke="black" points="960.5,-629 1131.5,-629 "/>
<text text-anchor="start" x="968.5" y="-617" font-family="FreeSans" font-size="10.00">+ ScaledUnscentedTransformation</text>
<text text-anchor="start" x="968.5" y="-606" font-family="FreeSans" font-size="10.00">ParametersC()</text>
</a>
</g>
</g>
<!-- Node3&#45;&gt;Node13 -->
<g id="edge18" class="edge"><title>Node3&#45;&gt;Node13</title>
<path fill="none" stroke="#404040" d="M462.618,-880.24C531.08,-880.479 734.178,-877.439 780,-834 819.726,-796.339 763.1,-750.477 803,-713 826.346,-691.073 915.35,-704.295 946,-695 947.859,-694.436 949.725,-693.84 951.596,-693.215"/>
<polygon fill="none" stroke="#404040" points="951.826,-693.132 956.103,-687.326 963.108,-689.041 958.831,-694.847 951.826,-693.132"/>
<text text-anchor="middle" x="819.5" y="-776.5" font-family="FreeSans" font-size="10.00"> +beta</text>
<text text-anchor="middle" x="819.5" y="-765.5" font-family="FreeSans" font-size="10.00">+kappa</text>
</g>
<!-- Node14 -->
<g id="node14" class="node"><title>Node14</title>
<g id="a_node14"><a xlink:href="structSeeSawN_1_1MatcherN_1_1FeatureMatcherParametersC.html" target="_top" xlink:title="Parameters of FeatureMatcherC. ">
<polygon fill="white" stroke="black" points="722,-435 722,-503 878,-503 878,-435 722,-435"/>
<text text-anchor="start" x="730" y="-491" font-family="FreeSans" font-size="10.00">SeeSawN::MatcherN::</text>
<text text-anchor="middle" x="800" y="-480" font-family="FreeSans" font-size="10.00">FeatureMatcherParametersC</text>
<polyline fill="none" stroke="black" points="722,-473 878,-473 "/>
<text text-anchor="middle" x="800" y="-461" font-family="FreeSans" font-size="10.00"> </text>
<polyline fill="none" stroke="black" points="722,-454 878,-454 "/>
<text text-anchor="start" x="730" y="-442" font-family="FreeSans" font-size="10.00">+ FeatureMatcherParametersC()</text>
</a>
</g>
</g>
<!-- Node3&#45;&gt;Node14 -->
<g id="edge24" class="edge"><title>Node3&#45;&gt;Node14</title>
<path fill="none" stroke="#404040" d="M425.786,-852.276C398.796,-795.311 348.57,-664.459 416,-593 439.679,-567.906 695.845,-591.766 726,-575 739.148,-567.69 758.99,-538.923 774.819,-513.345"/>
<polygon fill="none" stroke="#404040" points="774.865,-513.269 774.568,-506.064 781.105,-503.019 781.402,-510.224 774.865,-513.269"/>
<text text-anchor="middle" x="476.5" y="-641.5" font-family="FreeSans" font-size="10.00"> +bucketSimilarityThreshold</text>
</g>
<!-- Node15 -->
<g id="node15" class="node"><title>Node15</title>
<polygon fill="white" stroke="#bfbfbf" points="178.5,-615.5 178.5,-672.5 289.5,-672.5 289.5,-615.5 178.5,-615.5"/>
<text text-anchor="middle" x="234" y="-660.5" font-family="FreeSans" font-size="10.00">std::array&lt; double, 2 &gt;</text>
<polyline fill="none" stroke="#bfbfbf" points="178.5,-653.5 289.5,-653.5 "/>
<text text-anchor="middle" x="234" y="-641.5" font-family="FreeSans" font-size="10.00"> </text>
<polyline fill="none" stroke="#bfbfbf" points="178.5,-634.5 289.5,-634.5 "/>
<text text-anchor="middle" x="234" y="-622.5" font-family="FreeSans" font-size="10.00"> </text>
</g>
<!-- Node3&#45;&gt;Node15 -->
<g id="edge28" class="edge"><title>Node3&#45;&gt;Node15</title>
<path fill="none" stroke="#404040" d="M417.456,-877.586C372.961,-872.334 276.305,-858.346 255,-834 219.261,-793.159 220.761,-726.838 226.412,-684.6"/>
<polygon fill="none" stroke="#404040" points="226.435,-684.448 223.371,-677.92 228.218,-672.582 231.282,-679.11 226.435,-684.448"/>
<text text-anchor="middle" x="279.5" y="-771" font-family="FreeSans" font-size="10.00"> +elements</text>
</g>
<!-- Node18 -->
<g id="node18" class="node"><title>Node18</title>
<g id="a_node18"><a xlink:href="structSeeSawN_1_1MatcherN_1_1NearestNeighbourMatcherParametersC.html" target="_top" xlink:title="Parameter object for NearestNeighbourMatcherC. ">
<polygon fill="white" stroke="black" points="647,-610 647,-678 849,-678 849,-610 647,-610"/>
<text text-anchor="start" x="655" y="-666" font-family="FreeSans" font-size="10.00">SeeSawN::MatcherN::</text>
<text text-anchor="middle" x="748" y="-655" font-family="FreeSans" font-size="10.00">NearestNeighbourMatcherParametersC</text>
<polyline fill="none" stroke="black" points="647,-648 849,-648 "/>
<text text-anchor="middle" x="748" y="-636" font-family="FreeSans" font-size="10.00"> </text>
<polyline fill="none" stroke="black" points="647,-629 849,-629 "/>
<text text-anchor="start" x="655" y="-617" font-family="FreeSans" font-size="10.00">+ NearestNeighbourMatcherParametersC()</text>
</a>
</g>
</g>
<!-- Node3&#45;&gt;Node18 -->
<g id="edge32" class="edge"><title>Node3&#45;&gt;Node18</title>
<path fill="none" stroke="#404040" d="M462.805,-873.977C482.708,-867.488 510.728,-855.135 526,-834 557.968,-789.76 509.076,-752.255 547,-713 574.133,-684.915 595.79,-706.847 633,-695 644.124,-691.458 655.634,-687.206 666.88,-682.697"/>
<polygon fill="none" stroke="#404040" points="666.915,-682.683 670.943,-676.702 678.014,-678.119 673.986,-684.101 666.915,-682.683"/>
<text text-anchor="middle" x="600.5" y="-776.5" font-family="FreeSans" font-size="10.00"> +ratioTestThreshold</text>
<text text-anchor="middle" x="600.5" y="-765.5" font-family="FreeSans" font-size="10.00">+similarityTestThreshold</text>
</g>
<!-- Node19 -->
<g id="node19" class="node"><title>Node19</title>
<g id="a_node19"><a xlink:href="structSeeSawN_1_1TrackerN_1_1FeatureTrackerParametersC.html" target="_top" xlink:title="Parameter obejct for FeatureTrackerC. ">
<polygon fill="white" stroke="black" points="632,-276.5 632,-344.5 786,-344.5 786,-276.5 632,-276.5"/>
<text text-anchor="start" x="640" y="-332.5" font-family="FreeSans" font-size="10.00">SeeSawN::TrackerN::</text>
<text text-anchor="middle" x="709" y="-321.5" font-family="FreeSans" font-size="10.00">FeatureTrackerParametersC</text>
<polyline fill="none" stroke="black" points="632,-314.5 786,-314.5 "/>
<text text-anchor="middle" x="709" y="-302.5" font-family="FreeSans" font-size="10.00"> </text>
<polyline fill="none" stroke="black" points="632,-295.5 786,-295.5 "/>
<text text-anchor="start" x="640" y="-283.5" font-family="FreeSans" font-size="10.00">+ FeatureTrackerParametersC()</text>
</a>
</g>
</g>
<!-- Node3&#45;&gt;Node19 -->
<g id="edge39" class="edge"><title>Node3&#45;&gt;Node19</title>
<path fill="none" stroke="#404040" d="M417.262,-878.022C367.194,-873.238 249.525,-859.513 220,-834 137.16,-762.417 104.248,-681.282 169,-593 177.75,-581.07 411.718,-522.57 423,-513 479.993,-464.656 440.475,-409.478 499,-363 533.107,-335.914 579.433,-322.802 619.897,-316.56"/>
<polygon fill="none" stroke="#404040" points="620.084,-316.534 625.472,-311.741 631.968,-314.87 626.58,-319.663 620.084,-316.534"/>
<text text-anchor="middle" x="427" y="-561.5" font-family="FreeSans" font-size="10.00"> +minNeighbourDistance</text>
<text text-anchor="middle" x="427" y="-550.5" font-family="FreeSans" font-size="10.00">+maxMissRatio</text>
<text text-anchor="middle" x="427" y="-539.5" font-family="FreeSans" font-size="10.00">+maxMahalanobisDistance</text>
</g>
<!-- Node4 -->
<g id="node4" class="node"><title>Node4</title>
<g id="a_node4"><a xlink:href="structSeeSawN_1_1GeometryN_1_1GeometryEstimatorParametersC.html" target="_top" xlink:title="Parameters for GeometryEstimatorC. ">
<polygon fill="white" stroke="black" points="1431.5,-276.5 1431.5,-344.5 1592.5,-344.5 1592.5,-276.5 1431.5,-276.5"/>
<text text-anchor="start" x="1439.5" y="-332.5" font-family="FreeSans" font-size="10.00">SeeSawN::GeometryN</text>
<text text-anchor="middle" x="1512" y="-321.5" font-family="FreeSans" font-size="10.00">::GeometryEstimatorParametersC</text>
<polyline fill="none" stroke="black" points="1431.5,-314.5 1592.5,-314.5 "/>
<text text-anchor="middle" x="1512" y="-302.5" font-family="FreeSans" font-size="10.00"> </text>
<polyline fill="none" stroke="black" points="1431.5,-295.5 1592.5,-295.5 "/>
<text text-anchor="middle" x="1512" y="-283.5" font-family="FreeSans" font-size="10.00"> </text>
</a>
</g>
</g>
<!-- Node4&#45;&gt;Node2 -->
<g id="edge3" class="edge"><title>Node4&#45;&gt;Node2</title>
<path fill="none" stroke="#404040" d="M1431.44,-287.368C1350.22,-265.056 1225.34,-230.746 1142.43,-207.969"/>
<polygon fill="none" stroke="#404040" points="1142.33,-207.943 1135.49,-210.211 1130.76,-204.764 1137.61,-202.497 1142.33,-207.943"/>
<text text-anchor="middle" x="1382" y="-250" font-family="FreeSans" font-size="10.00"> +geometryEstimatorParameters</text>
</g>
<!-- Node5&#45;&gt;Node4 -->
<g id="edge4" class="edge"><title>Node5&#45;&gt;Node4</title>
<path fill="none" stroke="#404040" d="M1727.82,-609.854C1697.08,-585.599 1657.03,-550.495 1629,-513 1584.72,-453.774 1597.7,-424.741 1557,-363 1555.01,-359.975 1552.85,-356.939 1550.59,-353.939"/>
<polygon fill="none" stroke="#404040" points="1550.59,-353.939 1543.73,-351.716 1543.15,-344.529 1550.01,-346.751 1550.59,-353.939"/>
<text text-anchor="middle" x="1665" y="-466.5" font-family="FreeSans" font-size="10.00"> +pdlParameters</text>
</g>
<!-- Node6 -->
<g id="node6" class="node"><title>Node6</title>
<g id="a_node6"><a xlink:href="classbool.html" target="_top" xlink:title="{bool\n||}">
<polygon fill="white" stroke="black" points="1651.5,-852.5 1651.5,-909.5 1686.5,-909.5 1686.5,-852.5 1651.5,-852.5"/>
<text text-anchor="middle" x="1669" y="-897.5" font-family="FreeSans" font-size="10.00">bool</text>
<polyline fill="none" stroke="black" points="1651.5,-890.5 1686.5,-890.5 "/>
<text text-anchor="middle" x="1669" y="-878.5" font-family="FreeSans" font-size="10.00"> </text>
<polyline fill="none" stroke="black" points="1651.5,-871.5 1686.5,-871.5 "/>
<text text-anchor="middle" x="1669" y="-859.5" font-family="FreeSans" font-size="10.00"> </text>
</a>
</g>
</g>
<!-- Node6&#45;&gt;Node1 -->
<g id="edge37" class="edge"><title>Node6&#45;&gt;Node1</title>
<path fill="none" stroke="#404040" d="M1686.52,-873.236C1703.71,-866.852 1730.8,-857.468 1755,-852 1785.17,-845.184 1870.45,-855.162 1893,-834 1955.42,-775.431 1930,-730.595 1930,-645 1930,-645 1930,-645 1930,-182.5 1930,-87.3901 1236.02,-56.89 982.945,-48.9295"/>
<polygon fill="none" stroke="#404040" points="982.865,-48.9271 976.744,-52.7398 970.871,-48.5563 976.991,-44.7436 982.865,-48.9271"/>
<text text-anchor="middle" x="1973" y="-399" font-family="FreeSans" font-size="10.00"> +flagTrackDynamic</text>
<text text-anchor="middle" x="1973" y="-388" font-family="FreeSans" font-size="10.00">+flagTrackStatic</text>
<text text-anchor="middle" x="1973" y="-377" font-family="FreeSans" font-size="10.00">+flagStaticCamera</text>
<text text-anchor="middle" x="1973" y="-366" font-family="FreeSans" font-size="10.00">+flagPrediction</text>
</g>
<!-- Node6&#45;&gt;Node2 -->
<g id="edge22" class="edge"><title>Node6&#45;&gt;Node2</title>
<path fill="none" stroke="#404040" d="M1686.57,-873.457C1703.8,-867.237 1730.92,-857.971 1755,-852 1777.77,-846.355 1843.9,-851.944 1859,-834 1927.98,-752.054 1893.53,-693.694 1857,-593 1795.24,-422.761 1755.91,-369.793 1601,-276 1525.38,-230.214 1275.92,-202.88 1142.67,-191.196"/>
<polygon fill="none" stroke="#404040" points="1142.5,-191.181 1136.18,-194.65 1130.54,-190.148 1136.87,-186.679 1142.5,-191.181"/>
<text text-anchor="middle" x="1862.5" y="-472" font-family="FreeSans" font-size="10.00"> +flagCovariance</text>
<text text-anchor="middle" x="1862.5" y="-461" font-family="FreeSans" font-size="10.00">+flagVerbose</text>
</g>
<!-- Node6&#45;&gt;Node5 -->
<g id="edge6" class="edge"><title>Node6&#45;&gt;Node5</title>
<path fill="none" stroke="#404040" d="M1675.81,-852.31C1677.24,-846.284 1678.7,-839.936 1680,-834 1691.71,-780.44 1677.99,-761.264 1704,-713 1708.99,-703.749 1715.65,-694.962 1722.87,-686.965"/>
<polygon fill="none" stroke="#404040" points="1722.89,-686.943 1724.16,-679.845 1731.21,-678.289 1729.93,-685.387 1722.89,-686.943"/>
<text text-anchor="middle" x="1740.5" y="-771" font-family="FreeSans" font-size="10.00"> +flagCovariance</text>
</g>
<!-- Node6&#45;&gt;Node10 -->
<g id="edge16" class="edge"><title>Node6&#45;&gt;Node10</title>
<path fill="none" stroke="#404040" d="M1651.42,-878.537C1606.35,-874.42 1488.4,-861.223 1462,-834 1423.89,-794.7 1451.49,-766.297 1439,-713 1438.5,-710.856 1437.97,-708.677 1437.43,-706.48"/>
<polygon fill="none" stroke="#404040" points="1437.37,-706.263 1432.01,-701.445 1434.39,-694.64 1439.76,-699.458 1437.37,-706.263"/>
<text text-anchor="middle" x="1494" y="-782" font-family="FreeSans" font-size="10.00"> +flagHistory</text>
<text text-anchor="middle" x="1494" y="-771" font-family="FreeSans" font-size="10.00">+flagWaldSAC</text>
<text text-anchor="middle" x="1494" y="-760" font-family="FreeSans" font-size="10.00">+flagPROSAC</text>
</g>
<!-- Node6&#45;&gt;Node14 -->
<g id="edge26" class="edge"><title>Node6&#45;&gt;Node14</title>
<path fill="none" stroke="#404040" d="M1660.46,-852.298C1658.64,-846.274 1656.73,-839.929 1655,-834 1639.31,-780.388 1657.83,-754.999 1621,-713 1607.61,-697.731 1593.26,-709.463 1579,-695 1544.58,-660.087 1575.99,-622.726 1537,-593 1511,-573.179 1423.33,-579.861 1391,-575 1212.84,-548.211 1005.78,-509.718 890.106,-487.547"/>
<polygon fill="none" stroke="#404040" points="889.958,-487.518 883.311,-490.315 878.173,-485.255 884.82,-482.459 889.958,-487.518"/>
<text text-anchor="middle" x="1617" y="-647" font-family="FreeSans" font-size="10.00"> +flagBucketFilter</text>
<text text-anchor="middle" x="1617" y="-636" font-family="FreeSans" font-size="10.00">+flagStatic</text>
</g>
<!-- Node6&#45;&gt;Node18 -->
<g id="edge34" class="edge"><title>Node6&#45;&gt;Node18</title>
<path fill="none" stroke="#404040" d="M1651.38,-877.931C1606.19,-872.704 1482.46,-858.901 1379,-852 1351.99,-850.198 914.54,-848.999 892,-834 842.666,-801.172 872.946,-759.33 836,-713 828.246,-703.276 818.823,-694.141 809.061,-685.913"/>
<polygon fill="none" stroke="#404040" points="808.981,-685.848 801.799,-685.194 799.642,-678.313 806.823,-678.968 808.981,-685.848"/>
<text text-anchor="middle" x="940.5" y="-771" font-family="FreeSans" font-size="10.00"> +flagConsistencyTest</text>
</g>
<!-- Node6&#45;&gt;Node19 -->
<g id="edge41" class="edge"><title>Node6&#45;&gt;Node19</title>
<path fill="none" stroke="#404040" d="M1671.87,-852.098C1677.86,-787.56 1688.52,-630.614 1655,-593 1622.33,-556.344 1585.36,-604.353 1546,-575 1486.56,-530.677 1532.1,-469.772 1473,-425 1368.24,-345.633 1017.32,-362.036 887,-345 857.944,-341.202 826.456,-335.73 798.156,-330.306"/>
<polygon fill="none" stroke="#404040" points="798.018,-330.279 791.365,-333.061 786.239,-327.989 792.892,-325.208 798.018,-330.279"/>
<text text-anchor="middle" x="1593" y="-550.5" font-family="FreeSans" font-size="10.00"> +flagStaticDescriptor</text>
</g>
<!-- Node7 -->
<g id="node7" class="node"><title>Node7</title>
<polygon fill="white" stroke="#bfbfbf" points="1764,-852.5 1764,-909.5 1832,-909.5 1832,-852.5 1764,-852.5"/>
<text text-anchor="middle" x="1798" y="-897.5" font-family="FreeSans" font-size="10.00">unsigned int</text>
<polyline fill="none" stroke="#bfbfbf" points="1764,-890.5 1832,-890.5 "/>
<text text-anchor="middle" x="1798" y="-878.5" font-family="FreeSans" font-size="10.00"> </text>
<polyline fill="none" stroke="#bfbfbf" points="1764,-871.5 1832,-871.5 "/>
<text text-anchor="middle" x="1798" y="-859.5" font-family="FreeSans" font-size="10.00"> </text>
</g>
<!-- Node7&#45;&gt;Node5 -->
<g id="edge7" class="edge"><title>Node7&#45;&gt;Node5</title>
<path fill="none" stroke="#404040" d="M1795.03,-852.12C1790.78,-812.164 1782.91,-738.17 1777.82,-690.295"/>
<polygon fill="none" stroke="#404040" points="1777.79,-690.061 1773.18,-684.518 1776.52,-678.129 1781.14,-683.672 1777.79,-690.061"/>
<text text-anchor="middle" x="1824" y="-771" font-family="FreeSans" font-size="10.00"> +maxIteration</text>
</g>
<!-- Node8&#45;&gt;Node4 -->
<g id="edge8" class="edge"><title>Node8&#45;&gt;Node4</title>
<path fill="none" stroke="#404040" d="M1406.42,-434.81C1426.58,-411.26 1453.82,-379.45 1475.58,-354.038"/>
<polygon fill="none" stroke="#404040" points="1475.82,-353.757 1476.68,-346.598 1483.62,-344.642 1482.76,-351.801 1475.82,-353.757"/>
<text text-anchor="middle" x="1509" y="-382.5" font-family="FreeSans" font-size="10.00"> +ransacParameters</text>
</g>
<!-- Node9 -->
<g id="node9" class="node"><title>Node9</title>
<polygon fill="white" stroke="#bfbfbf" points="1020.5,-852.5 1020.5,-909.5 1049.5,-909.5 1049.5,-852.5 1020.5,-852.5"/>
<text text-anchor="middle" x="1035" y="-897.5" font-family="FreeSans" font-size="10.00">int</text>
<polyline fill="none" stroke="#bfbfbf" points="1020.5,-890.5 1049.5,-890.5 "/>
<text text-anchor="middle" x="1035" y="-878.5" font-family="FreeSans" font-size="10.00"> </text>
<polyline fill="none" stroke="#bfbfbf" points="1020.5,-871.5 1049.5,-871.5 "/>
<text text-anchor="middle" x="1035" y="-859.5" font-family="FreeSans" font-size="10.00"> </text>
</g>
<!-- Node9&#45;&gt;Node1 -->
<g id="edge36" class="edge"><title>Node9&#45;&gt;Node1</title>
<path fill="none" stroke="#404040" d="M1049.57,-879.338C1096.34,-876.897 1241.38,-866.77 1272,-834 1308.85,-794.566 1272.99,-638.507 1302,-593 1329.91,-549.224 1351.43,-546.429 1401,-531 1444.43,-517.481 1776.79,-544.09 1810,-513 1830.73,-493.594 1824,-414.393 1824,-386 1824,-386 1824,-386 1824,-182.5 1824,-98.0611 1217.26,-61.3442 982.876,-50.3107"/>
<polygon fill="none" stroke="#404040" points="982.646,-50.3001 976.466,-54.0172 970.659,-49.743 976.838,-46.0258 982.646,-50.3001"/>
<text text-anchor="middle" x="1866.5" y="-399" font-family="FreeSans" font-size="10.00"> +loGeneratorSize1</text>
<text text-anchor="middle" x="1866.5" y="-388" font-family="FreeSans" font-size="10.00">+loGeneratorSize2</text>
<text text-anchor="middle" x="1866.5" y="-377" font-family="FreeSans" font-size="10.00">+seed</text>
<text text-anchor="middle" x="1866.5" y="-366" font-family="FreeSans" font-size="10.00">+nThreads</text>
</g>
<!-- Node9&#45;&gt;Node2 -->
<g id="edge21" class="edge"><title>Node9&#45;&gt;Node2</title>
<path fill="none" stroke="#404040" d="M1046.7,-852.011C1048.95,-846.118 1051.17,-839.898 1053,-834 1069.32,-781.27 1043.33,-753.349 1081,-713 1099.71,-692.96 1123.69,-717.033 1140,-695 1159.17,-669.114 1157.96,-490.511 1130,-363 1120.59,-320.101 1101.66,-274.3 1085.43,-239.834"/>
<polygon fill="none" stroke="#404040" points="1085.24,-239.423 1079.04,-235.74 1080.05,-228.601 1086.25,-232.283 1085.24,-239.423"/>
<text text-anchor="middle" x="1207" y="-477.5" font-family="FreeSans" font-size="10.00"> +maxObservationDensity</text>
<text text-anchor="middle" x="1207" y="-466.5" font-family="FreeSans" font-size="10.00">+nThreads</text>
<text text-anchor="middle" x="1207" y="-455.5" font-family="FreeSans" font-size="10.00">+maxIteration</text>
</g>
<!-- Node9&#45;&gt;Node8 -->
<g id="edge10" class="edge"><title>Node9&#45;&gt;Node8</title>
<path fill="none" stroke="#404040" d="M1049.94,-880.606C1081.65,-880.996 1155.74,-876.987 1192,-834 1261.53,-751.576 1167.12,-686.978 1220,-593 1239.37,-558.567 1272.69,-530.465 1303.74,-509.859"/>
<polygon fill="none" stroke="#404040" points="1304.07,-509.648 1306.95,-503.039 1314.16,-503.16 1311.28,-509.769 1304.07,-509.648"/>
<text text-anchor="middle" x="1244.5" y="-641.5" font-family="FreeSans" font-size="10.00"> +nThreads</text>
</g>
<!-- Node9&#45;&gt;Node10 -->
<g id="edge15" class="edge"><title>Node9&#45;&gt;Node10</title>
<path fill="none" stroke="#404040" d="M1049.63,-879.588C1099.56,-877.868 1262.05,-869.585 1297,-834 1335.14,-795.162 1286.45,-758.72 1316,-713 1318.04,-709.841 1320.29,-706.796 1322.7,-703.866"/>
<polygon fill="none" stroke="#404040" points="1322.82,-703.736 1323.93,-696.611 1330.93,-694.893 1329.82,-702.018 1322.82,-703.736"/>
<text text-anchor="middle" x="1349" y="-793" font-family="FreeSans" font-size="10.00"> +minIteration</text>
<text text-anchor="middle" x="1349" y="-782" font-family="FreeSans" font-size="10.00">+maxSolution</text>
<text text-anchor="middle" x="1349" y="-771" font-family="FreeSans" font-size="10.00">+nLOIterations</text>
<text text-anchor="middle" x="1349" y="-760" font-family="FreeSans" font-size="10.00">+nThreads</text>
<text text-anchor="middle" x="1349" y="-749" font-family="FreeSans" font-size="10.00">+maxIteration</text>
</g>
<!-- Node9&#45;&gt;Node13 -->
<g id="edge20" class="edge"><title>Node9&#45;&gt;Node13</title>
<path fill="none" stroke="#404040" d="M1020.26,-863.361C1013.93,-855.13 1007.26,-844.684 1004,-834 988.287,-782.569 989.312,-764.733 1004,-713 1005.23,-708.674 1006.82,-704.354 1008.66,-700.107"/>
<polygon fill="none" stroke="#404040" points="1008.78,-699.867 1007.81,-692.721 1014.04,-689.084 1015,-696.231 1008.78,-699.867"/>
<text text-anchor="middle" x="1028.5" y="-771" font-family="FreeSans" font-size="10.00"> +nThreads</text>
</g>
<!-- Node9&#45;&gt;Node14 -->
<g id="edge25" class="edge"><title>Node9&#45;&gt;Node14</title>
<path fill="none" stroke="#404040" d="M1020.11,-868.649C1009.95,-860.151 996.936,-847.676 989,-834 961.022,-785.788 995.093,-752.735 956,-713 935.877,-692.546 913.785,-715.781 894,-695 842.339,-640.738 889.836,-597.33 855,-531 851.687,-524.692 847.572,-518.522 843.094,-512.677"/>
<polygon fill="none" stroke="#404040" points="842.91,-512.453 836.011,-510.356 835.293,-503.18 842.192,-505.278 842.91,-512.453"/>
<text text-anchor="middle" x="922.5" y="-647" font-family="FreeSans" font-size="10.00"> +nThreads</text>
<text text-anchor="middle" x="922.5" y="-636" font-family="FreeSans" font-size="10.00">+minQuorum</text>
</g>
<!-- Node9&#45;&gt;Node18 -->
<g id="edge33" class="edge"><title>Node9&#45;&gt;Node18</title>
<path fill="none" stroke="#404040" d="M1020.36,-879.229C956.184,-875.702 701.99,-860.152 679,-834 643.493,-793.61 658.239,-762.609 679,-713 682.92,-703.633 688.829,-694.902 695.571,-687.028"/>
<polygon fill="none" stroke="#404040" points="695.621,-686.974 696.782,-679.857 703.798,-678.191 702.637,-685.308 695.621,-686.974"/>
<text text-anchor="middle" x="729.5" y="-776.5" font-family="FreeSans" font-size="10.00"> +neighbourhoodSize21</text>
<text text-anchor="middle" x="729.5" y="-765.5" font-family="FreeSans" font-size="10.00">+neighbourhoodSize12</text>
</g>
<!-- Node9&#45;&gt;Node19 -->
<g id="edge40" class="edge"><title>Node9&#45;&gt;Node19</title>
<path fill="none" stroke="#404040" d="M1020.27,-879.807C939.965,-878.607 557.41,-870.971 522,-834 498.695,-809.667 497.872,-562.435 510,-531 538.728,-456.542 605.732,-391.709 654.063,-352.186"/>
<polygon fill="none" stroke="#404040" points="654.113,-352.145 656.281,-345.267 663.463,-344.623 661.296,-351.501 654.113,-352.145"/>
<text text-anchor="middle" x="560" y="-567" font-family="FreeSans" font-size="10.00"> +gracePeriod</text>
<text text-anchor="middle" x="560" y="-556" font-family="FreeSans" font-size="10.00">+nFeaturesPerPage</text>
<text text-anchor="middle" x="560" y="-545" font-family="FreeSans" font-size="10.00">+maxConsecutiveMiss</text>
<text text-anchor="middle" x="560" y="-534" font-family="FreeSans" font-size="10.00">+minLength</text>
</g>
<!-- Node10&#45;&gt;Node8 -->
<g id="edge11" class="edge"><title>Node10&#45;&gt;Node8</title>
<path fill="none" stroke="#404040" d="M1407.96,-593.425C1401.95,-568.655 1394.73,-538.911 1388.88,-514.829"/>
<polygon fill="none" stroke="#404040" points="1388.88,-514.821 1383.58,-509.934 1386.05,-503.159 1391.35,-508.046 1388.88,-514.821"/>
<text text-anchor="middle" x="1434.5" y="-556" font-family="FreeSans" font-size="10.00"> +parameters2</text>
<text text-anchor="middle" x="1434.5" y="-545" font-family="FreeSans" font-size="10.00">+parameters1</text>
</g>
<!-- Node11 -->
<g id="node11" class="node"><title>Node11</title>
<polygon fill="white" stroke="#bfbfbf" points="1275.5,-852.5 1275.5,-909.5 1370.5,-909.5 1370.5,-852.5 1275.5,-852.5"/>
<text text-anchor="middle" x="1323" y="-897.5" font-family="FreeSans" font-size="10.00">optional&lt; double &gt;</text>
<polyline fill="none" stroke="#bfbfbf" points="1275.5,-890.5 1370.5,-890.5 "/>
<text text-anchor="middle" x="1323" y="-878.5" font-family="FreeSans" font-size="10.00"> </text>
<polyline fill="none" stroke="#bfbfbf" points="1275.5,-871.5 1370.5,-871.5 "/>
<text text-anchor="middle" x="1323" y="-859.5" font-family="FreeSans" font-size="10.00"> </text>
</g>
<!-- Node11&#45;&gt;Node10 -->
<g id="edge13" class="edge"><title>Node11&#45;&gt;Node10</title>
<path fill="none" stroke="#404040" d="M1369.97,-852.238C1376.13,-846.869 1381.76,-840.774 1386,-834 1389.44,-828.494 1401.3,-759.636 1410.04,-706.607"/>
<polygon fill="none" stroke="#404040" points="1410.08,-706.382 1407.11,-699.813 1412.03,-694.541 1415,-701.11 1410.08,-706.382"/>
<text text-anchor="middle" x="1424" y="-771" font-family="FreeSans" font-size="10.00"> +topN</text>
</g>
<!-- Node11&#45;&gt;Node13 -->
<g id="edge19" class="edge"><title>Node11&#45;&gt;Node13</title>
<path fill="none" stroke="#404040" d="M1284.04,-852.459C1277.28,-846.773 1270.63,-840.517 1265,-834 1224.39,-786.98 1241,-754.765 1195,-713 1179.78,-699.178 1161.27,-687.739 1142.54,-678.44"/>
<polygon fill="none" stroke="#404040" points="1142.36,-678.352 1135.22,-679.395 1131.51,-673.21 1138.65,-672.167 1142.36,-678.352"/>
<text text-anchor="middle" x="1281" y="-771" font-family="FreeSans" font-size="10.00"> +alpha</text>
</g>
<!-- Node12 -->
<g id="node12" class="node"><title>Node12</title>
<polygon fill="white" stroke="#bfbfbf" points="1298,-957.5 1298,-1014.5 1348,-1014.5 1348,-957.5 1298,-957.5"/>
<text text-anchor="middle" x="1323" y="-1002.5" font-family="FreeSans" font-size="10.00">optional</text>
<polyline fill="none" stroke="#bfbfbf" points="1298,-995.5 1348,-995.5 "/>
<text text-anchor="middle" x="1323" y="-983.5" font-family="FreeSans" font-size="10.00"> </text>
<polyline fill="none" stroke="#bfbfbf" points="1298,-976.5 1348,-976.5 "/>
<text text-anchor="middle" x="1323" y="-964.5" font-family="FreeSans" font-size="10.00"> </text>
</g>
<!-- Node12&#45;&gt;Node11 -->
<g id="edge14" class="edge"><title>Node12&#45;&gt;Node11</title>
<path fill="none" stroke="orange" d="M1323,-947.286C1323,-934.839 1323,-921.233 1323,-909.678"/>
<polygon fill="orange" stroke="orange" points="1319.5,-947.398 1323,-957.398 1326.5,-947.398 1319.5,-947.398"/>
<text text-anchor="middle" x="1347" y="-931" font-family="FreeSans" font-size="10.00"> &lt; double &gt;</text>
</g>
<!-- Node13&#45;&gt;Node2 -->
<g id="edge17" class="edge"><title>Node13&#45;&gt;Node2</title>
<path fill="none" stroke="#404040" d="M1047.06,-598.62C1049.08,-514.717 1053.44,-332.986 1055.65,-240.707"/>
<polygon fill="none" stroke="#404040" points="1055.65,-240.564 1051.8,-234.47 1055.94,-228.567 1059.8,-234.662 1055.65,-240.564"/>
<text text-anchor="middle" x="1089.5" y="-382.5" font-family="FreeSans" font-size="10.00"> +sutParameters</text>
</g>
<!-- Node14&#45;&gt;Node1 -->
<g id="edge43" class="edge"><title>Node14&#45;&gt;Node1</title>
<path fill="none" stroke="#404040" d="M807.219,-434.926C822.932,-362.935 860.38,-191.37 879.82,-102.305"/>
<polygon fill="none" stroke="#404040" points="879.823,-102.287 877.195,-95.5724 882.382,-90.5635 885.011,-97.2785 879.823,-102.287"/>
<text text-anchor="middle" x="896" y="-250" font-family="FreeSans" font-size="10.00"> +matcherParameters</text>
</g>
<!-- Node14&#45;&gt;Node2 -->
<g id="edge23" class="edge"><title>Node14&#45;&gt;Node2</title>
<path fill="none" stroke="#404040" d="M822.593,-434.74C850.247,-395.071 899.526,-327.644 949,-276 961.899,-262.535 976.64,-249.013 990.998,-236.651"/>
<polygon fill="none" stroke="#404040" points="991.206,-236.474 993.191,-229.542 1000.35,-228.708 998.369,-235.64 991.206,-236.474"/>
<text text-anchor="middle" x="996" y="-308" font-family="FreeSans" font-size="10.00"> +matcherParameters</text>
</g>
<!-- Node14&#45;&gt;Node19 -->
<g id="edge42" class="edge"><title>Node14&#45;&gt;Node19</title>
<path fill="none" stroke="#404040" d="M742.271,-434.985C732.729,-427.019 724.004,-417.669 718,-407 709.604,-392.081 706.5,-373.745 705.791,-357.141"/>
<polygon fill="none" stroke="#404040" points="705.789,-356.867 701.729,-350.907 705.668,-344.868 709.728,-350.827 705.789,-356.867"/>
<text text-anchor="middle" x="765" y="-382.5" font-family="FreeSans" font-size="10.00"> +matcherParameters</text>
</g>
<!-- Node15&#45;&gt;Node14 -->
<g id="edge27" class="edge"><title>Node15&#45;&gt;Node14</title>
<path fill="none" stroke="#404040" d="M283.403,-615.487C301.329,-606.768 322.08,-598.083 342,-593 400.696,-578.023 563.251,-608.076 614,-575 632.486,-562.951 620.463,-545.61 637,-531 657.618,-512.784 684.191,-499.809 709.873,-490.652"/>
<polygon fill="none" stroke="#404040" points="710.213,-490.537 714.623,-484.831 721.586,-486.707 717.176,-492.413 710.213,-490.537"/>
<text text-anchor="middle" x="681.5" y="-550.5" font-family="FreeSans" font-size="10.00"> +bucketDimensions</text>
</g>
<!-- Node16 -->
<g id="node16" class="node"><title>Node16</title>
<g id="a_node16"><a xlink:title="STL class. ">
<polygon fill="white" stroke="#bfbfbf" points="0,-852.5 0,-909.5 78,-909.5 78,-852.5 0,-852.5"/>
<text text-anchor="middle" x="39" y="-897.5" font-family="FreeSans" font-size="10.00">std::array&lt; T &gt;</text>
<polyline fill="none" stroke="#bfbfbf" points="0,-890.5 78,-890.5 "/>
<text text-anchor="middle" x="39" y="-878.5" font-family="FreeSans" font-size="10.00"> </text>
<polyline fill="none" stroke="#bfbfbf" points="0,-871.5 78,-871.5 "/>
<text text-anchor="middle" x="39" y="-859.5" font-family="FreeSans" font-size="10.00"> </text>
</a>
</g>
</g>
<!-- Node16&#45;&gt;Node15 -->
<g id="edge29" class="edge"><title>Node16&#45;&gt;Node15</title>
<path fill="none" stroke="orange" d="M63.4841,-843.973C87.6341,-809.271 126.304,-755.875 164,-713 176.194,-699.131 190.695,-684.744 203.327,-672.795"/>
<polygon fill="orange" stroke="orange" points="60.4816,-842.161 57.6665,-852.375 66.2367,-846.146 60.4816,-842.161"/>
<text text-anchor="middle" x="193" y="-771" font-family="FreeSans" font-size="10.00"> &lt; double, 2 &gt;</text>
</g>
<!-- Node17 -->
<g id="node17" class="node"><title>Node17</title>
<polygon fill="white" stroke="#bfbfbf" points="24.5,-957.5 24.5,-1014.5 53.5,-1014.5 53.5,-957.5 24.5,-957.5"/>
<text text-anchor="middle" x="39" y="-1002.5" font-family="FreeSans" font-size="10.00">T</text>
<polyline fill="none" stroke="#bfbfbf" points="24.5,-995.5 53.5,-995.5 "/>
<text text-anchor="middle" x="39" y="-983.5" font-family="FreeSans" font-size="10.00"> </text>
<polyline fill="none" stroke="#bfbfbf" points="24.5,-976.5 53.5,-976.5 "/>
<text text-anchor="middle" x="39" y="-964.5" font-family="FreeSans" font-size="10.00"> </text>
</g>
<!-- Node17&#45;&gt;Node16 -->
<g id="edge30" class="edge"><title>Node17&#45;&gt;Node16</title>
<path fill="none" stroke="#404040" d="M39,-957.398C39,-946.545 39,-933.873 39,-922.049"/>
<polygon fill="none" stroke="#404040" points="39.0001,-921.678 35,-915.678 39,-909.678 43,-915.678 39.0001,-921.678"/>
<text text-anchor="middle" x="63.5" y="-931" font-family="FreeSans" font-size="10.00"> +elements</text>
</g>
<!-- Node18&#45;&gt;Node14 -->
<g id="edge31" class="edge"><title>Node18&#45;&gt;Node14</title>
<path fill="none" stroke="#404040" d="M758.026,-609.644C766.119,-582.719 777.583,-544.578 786.486,-514.959"/>
<polygon fill="none" stroke="#404040" points="786.55,-514.746 784.447,-507.848 790.005,-503.254 792.108,-510.151 786.55,-514.746"/>
<text text-anchor="middle" x="816" y="-550.5" font-family="FreeSans" font-size="10.00"> +nnParameters</text>
</g>
<!-- Node19&#45;&gt;Node1 -->
<g id="edge38" class="edge"><title>Node19&#45;&gt;Node1</title>
<path fill="none" stroke="#404040" d="M702.928,-276.214C698.063,-239.314 695.906,-179.534 723,-138 741.589,-109.503 772.185,-89.1902 802.273,-75.0631"/>
<polygon fill="none" stroke="#404040" points="802.354,-75.0269 806.202,-68.9283 813.312,-70.1346 809.464,-76.2333 802.354,-75.0269"/>
<text text-anchor="middle" x="767.5" y="-181" font-family="FreeSans" font-size="10.00"> +trackerParameters</text>
</g>
</g>
</svg>
