<?xml version="1.0" encoding="UTF-8" standalone="no"?>
<!DOCTYPE svg PUBLIC "-//W3C//DTD SVG 1.1//EN"
 "http://www.w3.org/Graphics/SVG/1.1/DTD/svg11.dtd">
<!-- Generated by graphviz version 2.38.0 (20140413.2041)
 -->
<!-- Title: SeeSawN::RANSACN::TwoStageRANSACDiagnosticsC Pages: 1 -->
<svg width="623pt" height="574pt"
 viewBox="0.00 0.00 622.50 574.00" xmlns="http://www.w3.org/2000/svg" xmlns:xlink="http://www.w3.org/1999/xlink">
<g id="graph0" class="graph" transform="scale(1 1) rotate(0) translate(4 570)">
<title>SeeSawN::RANSACN::TwoStageRANSACDiagnosticsC</title>
<polygon fill="white" stroke="none" points="-4,4 -4,-570 618.5,-570 618.5,4 -4,4"/>
<!-- Node1 -->
<g id="node1" class="node"><title>Node1</title>
<polygon fill="#bfbfbf" stroke="black" points="327.5,-0.5 327.5,-68.5 501.5,-68.5 501.5,-0.5 327.5,-0.5"/>
<text text-anchor="start" x="335.5" y="-56.5" font-family="FreeSans" font-size="10.00">SeeSawN::RANSACN::TwoStage</text>
<text text-anchor="middle" x="414.5" y="-45.5" font-family="FreeSans" font-size="10.00">RANSACDiagnosticsC</text>
<polyline fill="none" stroke="black" points="327.5,-38.5 501.5,-38.5 "/>
<text text-anchor="middle" x="414.5" y="-26.5" font-family="FreeSans" font-size="10.00"> </text>
<polyline fill="none" stroke="black" points="327.5,-19.5 501.5,-19.5 "/>
<text text-anchor="start" x="335.5" y="-7.5" font-family="FreeSans" font-size="10.00">+ TwoStageRANSACDiagnosticsC()</text>
</g>
<!-- Node2 -->
<g id="node2" class="node"><title>Node2</title>
<g id="a_node2"><a xlink:href="structSeeSawN_1_1RANSACN_1_1RANSACDiagnosticsC.html" target="_top" xlink:title="Diagnostics of RANSAC. ">
<polygon fill="white" stroke="black" points="126.5,-127.5 126.5,-195.5 344.5,-195.5 344.5,-127.5 126.5,-127.5"/>
<text text-anchor="middle" x="235.5" y="-183.5" font-family="FreeSans" font-size="10.00">SeeSawN::RANSACN::RANSACDiagnosticsC</text>
<polyline fill="none" stroke="black" points="126.5,-176.5 344.5,-176.5 "/>
<text text-anchor="middle" x="235.5" y="-164.5" font-family="FreeSans" font-size="10.00"> </text>
<polyline fill="none" stroke="black" points="126.5,-157.5 344.5,-157.5 "/>
<text text-anchor="start" x="134.5" y="-145.5" font-family="FreeSans" font-size="10.00">+ RANSACDiagnosticsC()</text>
<text text-anchor="start" x="134.5" y="-134.5" font-family="FreeSans" font-size="10.00">* IterationT</text>
</a>
</g>
</g>
<!-- Node2&#45;&gt;Node1 -->
<g id="edge1" class="edge"><title>Node2&#45;&gt;Node1</title>
<path fill="none" stroke="#404040" d="M279.935,-127.495C297.435,-114.672 317.788,-99.9758 336.5,-87 341.917,-83.2434 347.579,-79.3822 353.272,-75.5441"/>
<polygon fill="none" stroke="#404040" points="353.537,-75.367 356.295,-68.7044 363.506,-68.6882 360.748,-75.3509 353.537,-75.367"/>
<text text-anchor="middle" x="368.5" y="-101" font-family="FreeSans" font-size="10.00"> +diagnostics1</text>
<text text-anchor="middle" x="368.5" y="-90" font-family="FreeSans" font-size="10.00">+diagnostics2</text>
</g>
<!-- Node3 -->
<g id="node3" class="node"><title>Node3</title>
<polygon fill="white" stroke="#bfbfbf" points="87,-298.5 87,-355.5 132,-355.5 132,-298.5 87,-298.5"/>
<text text-anchor="middle" x="109.5" y="-343.5" font-family="FreeSans" font-size="10.00">double</text>
<polyline fill="none" stroke="#bfbfbf" points="87,-336.5 132,-336.5 "/>
<text text-anchor="middle" x="109.5" y="-324.5" font-family="FreeSans" font-size="10.00"> </text>
<polyline fill="none" stroke="#bfbfbf" points="87,-317.5 132,-317.5 "/>
<text text-anchor="middle" x="109.5" y="-305.5" font-family="FreeSans" font-size="10.00"> </text>
</g>
<!-- Node3&#45;&gt;Node2 -->
<g id="edge2" class="edge"><title>Node3&#45;&gt;Node2</title>
<path fill="none" stroke="#404040" d="M105.596,-298.434C103.655,-273.95 104.755,-238.37 122.5,-214 125.23,-210.25 128.3,-206.767 131.633,-203.532"/>
<polygon fill="none" stroke="#404040" points="131.883,-203.319 133.855,-196.383 141.016,-195.535 139.044,-202.471 131.883,-203.319"/>
<text text-anchor="middle" x="159" y="-272" font-family="FreeSans" font-size="10.00"> +finalEpsilonVl</text>
<text text-anchor="middle" x="159" y="-261" font-family="FreeSans" font-size="10.00">+finalEpsilonOb</text>
<text text-anchor="middle" x="159" y="-250" font-family="FreeSans" font-size="10.00">+error</text>
<text text-anchor="middle" x="159" y="-239" font-family="FreeSans" font-size="10.00">+inlierRatio</text>
<text text-anchor="middle" x="159" y="-228" font-family="FreeSans" font-size="10.00">+finalDecisionTh</text>
<text text-anchor="middle" x="159" y="-217" font-family="FreeSans" font-size="10.00">+finalDelta</text>
</g>
<!-- Node4 -->
<g id="node4" class="node"><title>Node4</title>
<polygon fill="white" stroke="#bfbfbf" points="273.5,-298.5 273.5,-355.5 369.5,-355.5 369.5,-298.5 273.5,-298.5"/>
<text text-anchor="middle" x="321.5" y="-343.5" font-family="FreeSans" font-size="10.00">unsigned long long</text>
<polyline fill="none" stroke="#bfbfbf" points="273.5,-336.5 369.5,-336.5 "/>
<text text-anchor="middle" x="321.5" y="-324.5" font-family="FreeSans" font-size="10.00"> </text>
<polyline fill="none" stroke="#bfbfbf" points="273.5,-317.5 369.5,-317.5 "/>
<text text-anchor="middle" x="321.5" y="-305.5" font-family="FreeSans" font-size="10.00"> </text>
</g>
<!-- Node4&#45;&gt;Node2 -->
<g id="edge3" class="edge"><title>Node4&#45;&gt;Node2</title>
<path fill="none" stroke="#404040" d="M282.025,-298.272C276.173,-292.766 270.706,-286.619 266.5,-280 258.787,-267.863 250.498,-235.332 244.433,-207.569"/>
<polygon fill="none" stroke="#404040" points="244.392,-207.376 239.232,-202.339 241.896,-195.638 247.057,-200.675 244.392,-207.376"/>
<text text-anchor="middle" x="291" y="-244.5" font-family="FreeSans" font-size="10.00"> +nLOCalls</text>
</g>
<!-- Node5 -->
<g id="node5" class="node"><title>Node5</title>
<polygon fill="white" stroke="#bfbfbf" points="0,-298.5 0,-355.5 29,-355.5 29,-298.5 0,-298.5"/>
<text text-anchor="middle" x="14.5" y="-343.5" font-family="FreeSans" font-size="10.00">int</text>
<polyline fill="none" stroke="#bfbfbf" points="0,-336.5 29,-336.5 "/>
<text text-anchor="middle" x="14.5" y="-324.5" font-family="FreeSans" font-size="10.00"> </text>
<polyline fill="none" stroke="#bfbfbf" points="0,-317.5 29,-317.5 "/>
<text text-anchor="middle" x="14.5" y="-305.5" font-family="FreeSans" font-size="10.00"> </text>
</g>
<!-- Node5&#45;&gt;Node2 -->
<g id="edge4" class="edge"><title>Node5&#45;&gt;Node2</title>
<path fill="none" stroke="#404040" d="M10.1985,-298.042C8.00973,-272.946 9.23369,-236.67 29.5,-214 41.969,-200.052 76.9337,-189.069 114.595,-180.892"/>
<polygon fill="none" stroke="#404040" points="114.6,-180.891 119.659,-175.751 126.348,-178.444 121.29,-183.583 114.6,-180.891"/>
<text text-anchor="middle" x="65.5" y="-272" font-family="FreeSans" font-size="10.00"> +iIteration</text>
<text text-anchor="middle" x="65.5" y="-261" font-family="FreeSans" font-size="10.00">+nIterations</text>
<text text-anchor="middle" x="65.5" y="-250" font-family="FreeSans" font-size="10.00">+iEta</text>
<text text-anchor="middle" x="65.5" y="-239" font-family="FreeSans" font-size="10.00">+nValidatorCalls</text>
<text text-anchor="middle" x="65.5" y="-228" font-family="FreeSans" font-size="10.00">+iGenerator</text>
<text text-anchor="middle" x="65.5" y="-217" font-family="FreeSans" font-size="10.00">+iError</text>
</g>
<!-- Node6 -->
<g id="node6" class="node"><title>Node6</title>
<g id="a_node6"><a xlink:href="classbool.html" target="_top" xlink:title="{bool\n||}">
<polygon fill="white" stroke="black" points="392,-298.5 392,-355.5 427,-355.5 427,-298.5 392,-298.5"/>
<text text-anchor="middle" x="409.5" y="-343.5" font-family="FreeSans" font-size="10.00">bool</text>
<polyline fill="none" stroke="black" points="392,-336.5 427,-336.5 "/>
<text text-anchor="middle" x="409.5" y="-324.5" font-family="FreeSans" font-size="10.00"> </text>
<polyline fill="none" stroke="black" points="392,-317.5 427,-317.5 "/>
<text text-anchor="middle" x="409.5" y="-305.5" font-family="FreeSans" font-size="10.00"> </text>
</a>
</g>
</g>
<!-- Node6&#45;&gt;Node1 -->
<g id="edge10" class="edge"><title>Node6&#45;&gt;Node1</title>
<path fill="none" stroke="#404040" d="M409.975,-298.409C410.837,-248.296 412.669,-141.885 413.718,-80.9213"/>
<polygon fill="none" stroke="#404040" points="413.723,-80.6371 409.827,-74.5691 413.93,-68.6389 417.826,-74.7069 413.723,-80.6371"/>
<text text-anchor="middle" x="444.5" y="-159" font-family="FreeSans" font-size="10.00"> +flagSuccess</text>
</g>
<!-- Node6&#45;&gt;Node2 -->
<g id="edge5" class="edge"><title>Node6&#45;&gt;Node2</title>
<path fill="none" stroke="#404040" d="M391.918,-308.409C387.721,-304.707 383.114,-301.015 378.5,-298 362.18,-287.337 351.669,-294.375 338.5,-280 317.517,-257.095 334.719,-238.405 315.5,-214 312.677,-210.415 309.531,-207.004 306.166,-203.771"/>
<polygon fill="none" stroke="#404040" points="305.867,-203.511 298.715,-202.59 296.815,-195.633 303.967,-196.555 305.867,-203.511"/>
<text text-anchor="middle" x="369.5" y="-244.5" font-family="FreeSans" font-size="10.00"> +flagSuccess</text>
</g>
<!-- Node7 -->
<g id="node7" class="node"><title>Node7</title>
<polygon fill="white" stroke="#bfbfbf" points="150,-298.5 150,-355.5 255,-355.5 255,-298.5 150,-298.5"/>
<text text-anchor="middle" x="202.5" y="-343.5" font-family="FreeSans" font-size="10.00">std::list&lt; IterationT &gt;</text>
<polyline fill="none" stroke="#bfbfbf" points="150,-336.5 255,-336.5 "/>
<text text-anchor="middle" x="202.5" y="-324.5" font-family="FreeSans" font-size="10.00"> </text>
<polyline fill="none" stroke="#bfbfbf" points="150,-317.5 255,-317.5 "/>
<text text-anchor="middle" x="202.5" y="-305.5" font-family="FreeSans" font-size="10.00"> </text>
</g>
<!-- Node7&#45;&gt;Node2 -->
<g id="edge6" class="edge"><title>Node7&#45;&gt;Node2</title>
<path fill="none" stroke="#404040" d="M199.897,-298.284C198.581,-275.27 198.648,-241.907 206.5,-214 207.184,-211.569 208.004,-209.13 208.929,-206.706"/>
<polygon fill="none" stroke="#404040" points="209.007,-206.529 207.795,-199.421 213.89,-195.568 215.103,-202.676 209.007,-206.529"/>
<text text-anchor="middle" x="225" y="-244.5" font-family="FreeSans" font-size="10.00"> +history</text>
</g>
<!-- Node8 -->
<g id="node8" class="node"><title>Node8</title>
<polygon fill="white" stroke="#bfbfbf" points="147.5,-403.5 147.5,-460.5 185.5,-460.5 185.5,-403.5 147.5,-403.5"/>
<text text-anchor="middle" x="166.5" y="-448.5" font-family="FreeSans" font-size="10.00">tuple</text>
<polyline fill="none" stroke="#bfbfbf" points="147.5,-441.5 185.5,-441.5 "/>
<text text-anchor="middle" x="166.5" y="-429.5" font-family="FreeSans" font-size="10.00"> </text>
<polyline fill="none" stroke="#bfbfbf" points="147.5,-422.5 185.5,-422.5 "/>
<text text-anchor="middle" x="166.5" y="-410.5" font-family="FreeSans" font-size="10.00"> </text>
</g>
<!-- Node8&#45;&gt;Node7 -->
<g id="edge7" class="edge"><title>Node8&#45;&gt;Node7</title>
<path fill="none" stroke="#404040" d="M163.543,-403.425C163.411,-393.879 164.288,-383.257 167.5,-374 168.444,-371.28 169.615,-368.592 170.952,-365.964"/>
<polygon fill="none" stroke="#404040" points="171.027,-365.838 170.694,-358.635 177.216,-355.557 177.549,-362.761 171.027,-365.838"/>
<text text-anchor="middle" x="192" y="-377" font-family="FreeSans" font-size="10.00"> +elements</text>
</g>
<!-- Node9 -->
<g id="node9" class="node"><title>Node9</title>
<g id="a_node9"><a xlink:title="STL class. ">
<polygon fill="white" stroke="#bfbfbf" points="203.5,-403.5 203.5,-460.5 273.5,-460.5 273.5,-403.5 203.5,-403.5"/>
<text text-anchor="middle" x="238.5" y="-448.5" font-family="FreeSans" font-size="10.00">std::list&lt; T &gt;</text>
<polyline fill="none" stroke="#bfbfbf" points="203.5,-441.5 273.5,-441.5 "/>
<text text-anchor="middle" x="238.5" y="-429.5" font-family="FreeSans" font-size="10.00"> </text>
<polyline fill="none" stroke="#bfbfbf" points="203.5,-422.5 273.5,-422.5 "/>
<text text-anchor="middle" x="238.5" y="-410.5" font-family="FreeSans" font-size="10.00"> </text>
</a>
</g>
</g>
<!-- Node9&#45;&gt;Node7 -->
<g id="edge8" class="edge"><title>Node9&#45;&gt;Node7</title>
<path fill="none" stroke="orange" d="M225.449,-393.659C221.063,-381.112 216.253,-367.348 212.174,-355.678"/>
<polygon fill="orange" stroke="orange" points="222.249,-395.113 228.853,-403.398 228.857,-392.803 222.249,-395.113"/>
<text text-anchor="middle" x="253" y="-377" font-family="FreeSans" font-size="10.00"> &lt; IterationT &gt;</text>
</g>
<!-- Node10 -->
<g id="node10" class="node"><title>Node10</title>
<polygon fill="white" stroke="#bfbfbf" points="224,-508.5 224,-565.5 253,-565.5 253,-508.5 224,-508.5"/>
<text text-anchor="middle" x="238.5" y="-553.5" font-family="FreeSans" font-size="10.00">T</text>
<polyline fill="none" stroke="#bfbfbf" points="224,-546.5 253,-546.5 "/>
<text text-anchor="middle" x="238.5" y="-534.5" font-family="FreeSans" font-size="10.00"> </text>
<polyline fill="none" stroke="#bfbfbf" points="224,-527.5 253,-527.5 "/>
<text text-anchor="middle" x="238.5" y="-515.5" font-family="FreeSans" font-size="10.00"> </text>
</g>
<!-- Node10&#45;&gt;Node9 -->
<g id="edge9" class="edge"><title>Node10&#45;&gt;Node9</title>
<path fill="none" stroke="#404040" d="M238.5,-508.398C238.5,-497.545 238.5,-484.873 238.5,-473.049"/>
<polygon fill="none" stroke="#404040" points="238.5,-472.678 234.5,-466.678 238.5,-460.678 242.5,-466.678 238.5,-472.678"/>
<text text-anchor="middle" x="263" y="-482" font-family="FreeSans" font-size="10.00"> +elements</text>
</g>
<!-- Node11 -->
<g id="node11" class="node"><title>Node11</title>
<polygon fill="white" stroke="#bfbfbf" points="494.5,-127.5 494.5,-195.5 592.5,-195.5 592.5,-127.5 494.5,-127.5"/>
<text text-anchor="start" x="502.5" y="-183.5" font-family="FreeSans" font-size="10.00">optional&lt; unsigned</text>
<text text-anchor="middle" x="543.5" y="-172.5" font-family="FreeSans" font-size="10.00"> int &gt;</text>
<polyline fill="none" stroke="#bfbfbf" points="494.5,-165.5 592.5,-165.5 "/>
<text text-anchor="middle" x="543.5" y="-153.5" font-family="FreeSans" font-size="10.00"> </text>
<polyline fill="none" stroke="#bfbfbf" points="494.5,-146.5 592.5,-146.5 "/>
<text text-anchor="middle" x="543.5" y="-134.5" font-family="FreeSans" font-size="10.00"> </text>
</g>
<!-- Node11&#45;&gt;Node1 -->
<g id="edge11" class="edge"><title>Node11&#45;&gt;Node1</title>
<path fill="none" stroke="#404040" d="M509.269,-127.33C493.524,-112.074 474.667,-93.8015 457.935,-77.588"/>
<polygon fill="none" stroke="#404040" points="457.509,-77.1752 450.416,-75.8725 448.891,-68.8245 455.983,-70.1272 457.509,-77.1752"/>
<text text-anchor="middle" x="526" y="-95.5" font-family="FreeSans" font-size="10.00"> +iStage1Solution</text>
</g>
<!-- Node12 -->
<g id="node12" class="node"><title>Node12</title>
<polygon fill="white" stroke="#bfbfbf" points="518.5,-298.5 518.5,-355.5 568.5,-355.5 568.5,-298.5 518.5,-298.5"/>
<text text-anchor="middle" x="543.5" y="-343.5" font-family="FreeSans" font-size="10.00">optional</text>
<polyline fill="none" stroke="#bfbfbf" points="518.5,-336.5 568.5,-336.5 "/>
<text text-anchor="middle" x="543.5" y="-324.5" font-family="FreeSans" font-size="10.00"> </text>
<polyline fill="none" stroke="#bfbfbf" points="518.5,-317.5 568.5,-317.5 "/>
<text text-anchor="middle" x="543.5" y="-305.5" font-family="FreeSans" font-size="10.00"> </text>
</g>
<!-- Node12&#45;&gt;Node11 -->
<g id="edge12" class="edge"><title>Node12&#45;&gt;Node11</title>
<path fill="none" stroke="orange" d="M543.5,-288.075C543.5,-260.138 543.5,-222.506 543.5,-195.742"/>
<polygon fill="orange" stroke="orange" points="540,-288.264 543.5,-298.264 547,-288.264 540,-288.264"/>
<text text-anchor="middle" x="579" y="-244.5" font-family="FreeSans" font-size="10.00"> &lt; unsigned int &gt;</text>
</g>
</g>
</svg>
