<?xml version="1.0" encoding="UTF-8" standalone="no"?>
<!DOCTYPE svg PUBLIC "-//W3C//DTD SVG 1.1//EN"
 "http://www.w3.org/Graphics/SVG/1.1/DTD/svg11.dtd">
<!-- Generated by graphviz version 2.38.0 (20140413.2041)
 -->
<!-- Title: src/Geometry/Triangulation.ipp Pages: 1 -->
<!--zoomable 843 -->
<svg id="main" version="1.1" xmlns="http://www.w3.org/2000/svg" xmlns:xlink="http://www.w3.org/1999/xlink" xml:space="preserve" onload="init(evt)">
<style type="text/css"><![CDATA[
.edge:hover path { stroke: red; }
.edge:hover polygon { stroke: red; fill: red; }
]]></style>
<script type="text/javascript"><![CDATA[
var edges = document.getElementsByTagName('g');
if (edges && edges.length) {
  for (var i=0;i<edges.length;i++) {
    if (edges[i].id.substr(0,4)=='edge') {
      edges[i].setAttribute('class','edge');
    }
  }
}
]]></script>
        <defs>
                <circle id="rim" cx="0" cy="0" r="7"/>
                <circle id="rim2" cx="0" cy="0" r="3.5"/>
                <g id="zoomPlus">
                        <use xlink:href="#rim" fill="#404040">
                                <set attributeName="fill" to="#808080" begin="zoomplus.mouseover" end="zoomplus.mouseout"/>
                        </use>
                        <path d="M-4,0h8M0,-4v8" fill="none" stroke="white" stroke-width="1.5" pointer-events="none"/>
                </g>
                <g id="zoomMin">
                        <use xlink:href="#rim" fill="#404040">
                                <set attributeName="fill" to="#808080" begin="zoomminus.mouseover" end="zoomminus.mouseout"/>
                        </use>
                        <path d="M-4,0h8" fill="none" stroke="white" stroke-width="1.5" pointer-events="none"/>
                </g>
                <g id="dirArrow">
                        <path fill="none" stroke="white" stroke-width="1.5" d="M0,-3.0v7 M-2.5,-0.5L0,-3.0L2.5,-0.5"/>
                </g>
               <g id="resetDef">
                       <use xlink:href="#rim2" fill="#404040">
                               <set attributeName="fill" to="#808080" begin="reset.mouseover" end="reset.mouseout"/>
                       </use>
               </g>
        </defs>

<script type="text/javascript">
var viewWidth = 1481;
var viewHeight = 843;
var sectionId = 'dynsection-1';
</script>
<script xlink:href="svgpan.js"/>
<svg id="graph" class="graph">
<g id="viewport">
<title>src/Geometry/Triangulation.ipp</title>
<polygon fill="white" stroke="none" points="-4,4 -4,-839 1476.5,-839 1476.5,4 -4,4"/>
<!-- Node97 -->
<g id="node1" class="node"><title>Node97</title>
<polygon fill="#bfbfbf" stroke="black" points="912,-815.5 912,-834.5 1061,-834.5 1061,-815.5 912,-815.5"/>
<text text-anchor="middle" x="986.5" y="-822.5" font-family="FreeSans" font-size="10.00">src/Geometry/Triangulation.ipp</text>
</g>
<!-- Node98 -->
<g id="node2" class="node"><title>Node98</title>
<g id="a_node2"><a xlink:href="Triangulation_8h.html" target="_top" xlink:title="src/Geometry/Triangulation.h">
<polygon fill="white" stroke="black" points="916,-759.5 916,-778.5 1057,-778.5 1057,-759.5 916,-759.5"/>
<text text-anchor="middle" x="986.5" y="-766.5" font-family="FreeSans" font-size="10.00">src/Geometry/Triangulation.h</text>
</a>
</g>
</g>
<!-- Node97&#45;&gt;Node98 -->
<g id="edge1" class="edge"><title>Node97&#45;&gt;Node98</title>
<path fill="none" stroke="midnightblue" d="M986.5,-804.805C986.5,-795.91 986.5,-785.78 986.5,-778.751"/>
<polygon fill="midnightblue" stroke="midnightblue" points="983,-805.083 986.5,-815.083 990,-805.083 983,-805.083"/>
</g>
<!-- Node99 -->
<g id="node3" class="node"><title>Node99</title>
<g id="a_node3"><a xlink:href="SUTTriangulationProblem_8ipp.html" target="_top" xlink:title="src/UncertaintyEstimation\l/SUTTriangulationProblem.ipp">
<polygon fill="white" stroke="black" points="913.5,-692.5 913.5,-722.5 1059.5,-722.5 1059.5,-692.5 913.5,-692.5"/>
<text text-anchor="start" x="921.5" y="-710.5" font-family="FreeSans" font-size="10.00">src/UncertaintyEstimation</text>
<text text-anchor="middle" x="986.5" y="-699.5" font-family="FreeSans" font-size="10.00">/SUTTriangulationProblem.ipp</text>
</a>
</g>
</g>
<!-- Node98&#45;&gt;Node99 -->
<g id="edge2" class="edge"><title>Node98&#45;&gt;Node99</title>
<path fill="none" stroke="midnightblue" d="M986.5,-749.235C986.5,-740.586 986.5,-730.497 986.5,-722.523"/>
<polygon fill="midnightblue" stroke="midnightblue" points="983,-749.475 986.5,-759.475 990,-749.475 983,-749.475"/>
</g>
<!-- Node101 -->
<g id="node5" class="node"><title>Node101</title>
<g id="a_node5"><a xlink:href="MultiviewTriangulation_8ipp.html" target="_top" xlink:title="src/Geometry/MultiviewTriangulation.ipp">
<polygon fill="white" stroke="black" points="496.5,-564 496.5,-583 686.5,-583 686.5,-564 496.5,-564"/>
<text text-anchor="middle" x="591.5" y="-571" font-family="FreeSans" font-size="10.00">src/Geometry/MultiviewTriangulation.ipp</text>
</a>
</g>
</g>
<!-- Node98&#45;&gt;Node101 -->
<g id="edge37" class="edge"><title>Node98&#45;&gt;Node101</title>
<path fill="none" stroke="midnightblue" d="M905.88,-762.176C833.669,-755.736 734.124,-743.469 700.5,-723 642.587,-687.745 605.841,-609.041 594.921,-583.028"/>
<polygon fill="midnightblue" stroke="midnightblue" points="905.612,-765.665 915.878,-763.046 906.219,-758.692 905.612,-765.665"/>
</g>
<!-- Node106 -->
<g id="node10" class="node"><title>Node106</title>
<g id="a_node10"><a xlink:href="SfMPipeline_8ipp.html" target="_top" xlink:title="src/GeometryEstimationPipeline\l/SfMPipeline.ipp">
<polygon fill="white" stroke="black" points="1058,-296 1058,-326 1213,-326 1213,-296 1058,-296"/>
<text text-anchor="start" x="1066" y="-314" font-family="FreeSans" font-size="10.00">src/GeometryEstimationPipeline</text>
<text text-anchor="middle" x="1135.5" y="-303" font-family="FreeSans" font-size="10.00">/SfMPipeline.ipp</text>
</a>
</g>
</g>
<!-- Node98&#45;&gt;Node106 -->
<g id="edge38" class="edge"><title>Node98&#45;&gt;Node106</title>
<path fill="none" stroke="midnightblue" d="M1067.09,-767.839C1157.75,-762.91 1292.5,-739.157 1292.5,-641.5 1292.5,-641.5 1292.5,-641.5 1292.5,-449.5 1292.5,-386.637 1220.39,-345.826 1173.91,-326.05"/>
<polygon fill="midnightblue" stroke="midnightblue" points="1066.91,-764.344 1057.09,-768.317 1067.24,-771.336 1066.91,-764.344"/>
</g>
<!-- Node120 -->
<g id="node24" class="node"><title>Node120</title>
<g id="a_node24"><a xlink:href="TestGeometry_8cpp.html" target="_top" xlink:title="src/Geometry/TestGeometry.cpp">
<polygon fill="white" stroke="black" points="891.5,-441 891.5,-460 1049.5,-460 1049.5,-441 891.5,-441"/>
<text text-anchor="middle" x="970.5" y="-448" font-family="FreeSans" font-size="10.00">src/Geometry/TestGeometry.cpp</text>
</a>
</g>
</g>
<!-- Node98&#45;&gt;Node120 -->
<g id="edge39" class="edge"><title>Node98&#45;&gt;Node120</title>
<path fill="none" stroke="midnightblue" d="M905.638,-763.74C825.459,-754.636 714.5,-726.653 714.5,-641.5 714.5,-641.5 714.5,-641.5 714.5,-572.5 714.5,-524.017 866.483,-478.412 936.24,-460.033"/>
<polygon fill="midnightblue" stroke="midnightblue" points="905.433,-767.238 915.745,-764.808 906.168,-760.277 905.433,-767.238"/>
</g>
<!-- Node128 -->
<g id="node32" class="node"><title>Node128</title>
<g id="a_node32"><a xlink:href="Triangulation_8cpp.html" target="_top" xlink:title="src/Geometry/Triangulation.cpp">
<polygon fill="white" stroke="black" points="1320.5,-698 1320.5,-717 1472.5,-717 1472.5,-698 1320.5,-698"/>
<text text-anchor="middle" x="1396.5" y="-705" font-family="FreeSans" font-size="10.00">src/Geometry/Triangulation.cpp</text>
</a>
</g>
</g>
<!-- Node98&#45;&gt;Node128 -->
<g id="edge40" class="edge"><title>Node98&#45;&gt;Node128</title>
<path fill="none" stroke="midnightblue" d="M1059.83,-758.113C1124.73,-749.261 1221.98,-735.749 1306.5,-723 1318.86,-721.135 1332.17,-719.04 1344.65,-717.035"/>
<polygon fill="midnightblue" stroke="midnightblue" points="1059.14,-754.675 1049.7,-759.493 1060.08,-761.611 1059.14,-754.675"/>
</g>
<!-- Node100 -->
<g id="node4" class="node"><title>Node100</title>
<g id="a_node4"><a xlink:href="SUTTriangulationProblem_8h.html" target="_top" xlink:title="src/UncertaintyEstimation\l/SUTTriangulationProblem.h">
<polygon fill="white" stroke="black" points="917,-625.5 917,-655.5 1056,-655.5 1056,-625.5 917,-625.5"/>
<text text-anchor="start" x="925" y="-643.5" font-family="FreeSans" font-size="10.00">src/UncertaintyEstimation</text>
<text text-anchor="middle" x="986.5" y="-632.5" font-family="FreeSans" font-size="10.00">/SUTTriangulationProblem.h</text>
</a>
</g>
</g>
<!-- Node99&#45;&gt;Node100 -->
<g id="edge3" class="edge"><title>Node99&#45;&gt;Node100</title>
<path fill="none" stroke="midnightblue" d="M986.5,-682.108C986.5,-673.154 986.5,-663.323 986.5,-655.577"/>
<polygon fill="midnightblue" stroke="midnightblue" points="983,-682.396 986.5,-692.396 990,-682.396 983,-682.396"/>
</g>
<!-- Node100&#45;&gt;Node101 -->
<g id="edge4" class="edge"><title>Node100&#45;&gt;Node101</title>
<path fill="none" stroke="midnightblue" d="M906.447,-626.327C827.837,-613.391 710.243,-594.04 643.211,-583.009"/>
<polygon fill="midnightblue" stroke="midnightblue" points="906.356,-629.859 916.791,-628.029 907.492,-622.952 906.356,-629.859"/>
</g>
<!-- Node100&#45;&gt;Node106 -->
<g id="edge33" class="edge"><title>Node100&#45;&gt;Node106</title>
<path fill="none" stroke="midnightblue" d="M1066.05,-632.553C1129.46,-625.393 1211.48,-611.967 1235.5,-589 1260.67,-564.939 1254.5,-547.817 1254.5,-513 1254.5,-513 1254.5,-513 1254.5,-449.5 1254.5,-392.674 1195.67,-347.782 1160.74,-326.135"/>
<polygon fill="midnightblue" stroke="midnightblue" points="1065.6,-629.081 1056.04,-633.649 1066.36,-636.039 1065.6,-629.081"/>
</g>
<!-- Node125 -->
<g id="node29" class="node"><title>Node125</title>
<g id="a_node29"><a xlink:href="TestNumeric_8cpp.html" target="_top" xlink:title="src/Numeric/TestNumeric.cpp">
<polygon fill="white" stroke="black" points="913,-564 913,-583 1060,-583 1060,-564 913,-564"/>
<text text-anchor="middle" x="986.5" y="-571" font-family="FreeSans" font-size="10.00">src/Numeric/TestNumeric.cpp</text>
</a>
</g>
</g>
<!-- Node100&#45;&gt;Node125 -->
<g id="edge34" class="edge"><title>Node100&#45;&gt;Node125</title>
<path fill="none" stroke="midnightblue" d="M986.5,-615.25C986.5,-604.017 986.5,-591.377 986.5,-583.195"/>
<polygon fill="midnightblue" stroke="midnightblue" points="983,-615.396 986.5,-625.396 990,-615.396 983,-615.396"/>
</g>
<!-- Node126 -->
<g id="node30" class="node"><title>Node126</title>
<g id="a_node30"><a xlink:href="SUTTriangulationProblem_8cpp.html" target="_top" xlink:title="src/UncertaintyEstimation\l/SUTTriangulationProblem.cpp">
<polygon fill="white" stroke="black" points="1078,-558.5 1078,-588.5 1227,-588.5 1227,-558.5 1078,-558.5"/>
<text text-anchor="start" x="1086" y="-576.5" font-family="FreeSans" font-size="10.00">src/UncertaintyEstimation</text>
<text text-anchor="middle" x="1152.5" y="-565.5" font-family="FreeSans" font-size="10.00">/SUTTriangulationProblem.cpp</text>
</a>
</g>
</g>
<!-- Node100&#45;&gt;Node126 -->
<g id="edge35" class="edge"><title>Node100&#45;&gt;Node126</title>
<path fill="none" stroke="midnightblue" d="M1032.01,-621.682C1058.63,-611.257 1091.77,-598.281 1116.55,-588.577"/>
<polygon fill="midnightblue" stroke="midnightblue" points="1030.55,-618.491 1022.52,-625.396 1033.11,-625.009 1030.55,-618.491"/>
</g>
<!-- Node127 -->
<g id="node31" class="node"><title>Node127</title>
<g id="a_node31"><a xlink:href="TestUncertaintyEstimation_8cpp.html" target="_top" xlink:title="src/UncertaintyEstimation\l/TestUncertaintyEstimation.cpp">
<polygon fill="white" stroke="black" points="742.5,-558.5 742.5,-588.5 894.5,-588.5 894.5,-558.5 742.5,-558.5"/>
<text text-anchor="start" x="750.5" y="-576.5" font-family="FreeSans" font-size="10.00">src/UncertaintyEstimation</text>
<text text-anchor="middle" x="818.5" y="-565.5" font-family="FreeSans" font-size="10.00">/TestUncertaintyEstimation.cpp</text>
</a>
</g>
</g>
<!-- Node100&#45;&gt;Node127 -->
<g id="edge36" class="edge"><title>Node100&#45;&gt;Node127</title>
<path fill="none" stroke="midnightblue" d="M940.446,-621.682C913.502,-611.257 879.964,-598.281 854.882,-588.577"/>
<polygon fill="midnightblue" stroke="midnightblue" points="939.457,-625.052 950.047,-625.396 941.983,-618.523 939.457,-625.052"/>
</g>
<!-- Node102 -->
<g id="node6" class="node"><title>Node102</title>
<g id="a_node6"><a xlink:href="MultiviewTriangulation_8h.html" target="_top" xlink:title="src/Geometry/MultiviewTriangulation.h">
<polygon fill="white" stroke="black" points="502.5,-502.5 502.5,-521.5 684.5,-521.5 684.5,-502.5 502.5,-502.5"/>
<text text-anchor="middle" x="593.5" y="-509.5" font-family="FreeSans" font-size="10.00">src/Geometry/MultiviewTriangulation.h</text>
</a>
</g>
</g>
<!-- Node101&#45;&gt;Node102 -->
<g id="edge5" class="edge"><title>Node101&#45;&gt;Node102</title>
<path fill="none" stroke="midnightblue" d="M592.128,-553.817C592.492,-542.996 592.932,-529.898 593.214,-521.509"/>
<polygon fill="midnightblue" stroke="midnightblue" points="588.625,-553.863 591.787,-563.975 595.621,-554.098 588.625,-553.863"/>
</g>
<!-- Node103 -->
<g id="node7" class="node"><title>Node103</title>
<g id="a_node7"><a xlink:href="Sparse3DReconstructionPipeline_8ipp.html" target="_top" xlink:title="src/GeometryEstimationPipeline\l/Sparse3DReconstructionPipeline.ipp">
<polygon fill="white" stroke="black" points="659,-435.5 659,-465.5 836,-465.5 836,-435.5 659,-435.5"/>
<text text-anchor="start" x="667" y="-453.5" font-family="FreeSans" font-size="10.00">src/GeometryEstimationPipeline</text>
<text text-anchor="middle" x="747.5" y="-442.5" font-family="FreeSans" font-size="10.00">/Sparse3DReconstructionPipeline.ipp</text>
</a>
</g>
</g>
<!-- Node102&#45;&gt;Node103 -->
<g id="edge6" class="edge"><title>Node102&#45;&gt;Node103</title>
<path fill="none" stroke="midnightblue" d="M624.954,-498.847C649.971,-489.182 685.002,-475.647 711.205,-465.523"/>
<polygon fill="midnightblue" stroke="midnightblue" points="623.631,-495.606 615.564,-502.475 626.154,-502.136 623.631,-495.606"/>
</g>
<!-- Node105 -->
<g id="node9" class="node"><title>Node105</title>
<g id="a_node9"><a xlink:href="AppSparseModelBuilder_8cpp.html" target="_top" xlink:title="src/Application/AppSparse\lModelBuilder.cpp">
<polygon fill="white" stroke="black" points="709.5,-296 709.5,-326 841.5,-326 841.5,-296 709.5,-296"/>
<text text-anchor="start" x="717.5" y="-314" font-family="FreeSans" font-size="10.00">src/Application/AppSparse</text>
<text text-anchor="middle" x="775.5" y="-303" font-family="FreeSans" font-size="10.00">ModelBuilder.cpp</text>
</a>
</g>
</g>
<!-- Node102&#45;&gt;Node105 -->
<g id="edge20" class="edge"><title>Node102&#45;&gt;Node105</title>
<path fill="none" stroke="midnightblue" d="M597.227,-492.55C604.1,-462.813 621.394,-403.99 656.5,-368 675.632,-348.386 702.975,-334.856 726.628,-326.015"/>
<polygon fill="midnightblue" stroke="midnightblue" points="593.787,-491.899 595.087,-502.414 600.627,-493.383 593.787,-491.899"/>
</g>
<!-- Node102&#45;&gt;Node106 -->
<g id="edge25" class="edge"><title>Node102&#45;&gt;Node106</title>
<path fill="none" stroke="midnightblue" d="M673.329,-501.119C734.974,-492.669 814.636,-479.727 844.5,-466 864.304,-456.897 864.131,-446.733 882.5,-435 955.97,-388.073 1049.99,-346.787 1100.18,-326.091"/>
<polygon fill="midnightblue" stroke="midnightblue" points="672.653,-497.678 663.212,-502.487 673.591,-504.615 672.653,-497.678"/>
</g>
<!-- Node116 -->
<g id="node20" class="node"><title>Node116</title>
<g id="a_node20"><a xlink:href="InterfaceMultiviewTriangulation_8ipp.html" target="_top" xlink:title="src/ApplicationInterface\l/InterfaceMultiviewTriangulation.ipp">
<polygon fill="white" stroke="black" points="25.5,-435.5 25.5,-465.5 195.5,-465.5 195.5,-435.5 25.5,-435.5"/>
<text text-anchor="start" x="33.5" y="-453.5" font-family="FreeSans" font-size="10.00">src/ApplicationInterface</text>
<text text-anchor="middle" x="110.5" y="-442.5" font-family="FreeSans" font-size="10.00">/InterfaceMultiviewTriangulation.ipp</text>
</a>
</g>
</g>
<!-- Node102&#45;&gt;Node116 -->
<g id="edge21" class="edge"><title>Node102&#45;&gt;Node116</title>
<path fill="none" stroke="midnightblue" d="M501.784,-501.381C422.879,-492.869 306.055,-479.702 204.5,-466 201.554,-465.603 198.558,-465.189 195.533,-464.765"/>
<polygon fill="midnightblue" stroke="midnightblue" points="501.861,-504.91 512.178,-502.499 502.61,-497.95 501.861,-504.91"/>
</g>
<!-- Node119 -->
<g id="node23" class="node"><title>Node119</title>
<g id="a_node23"><a xlink:href="MultiviewTriangulation_8cpp.html" target="_top" xlink:title="src/Geometry/MultiviewTriangulation.cpp">
<polygon fill="white" stroke="black" points="214,-441 214,-460 407,-460 407,-441 214,-441"/>
<text text-anchor="middle" x="310.5" y="-448" font-family="FreeSans" font-size="10.00">src/Geometry/MultiviewTriangulation.cpp</text>
</a>
</g>
</g>
<!-- Node102&#45;&gt;Node119 -->
<g id="edge26" class="edge"><title>Node102&#45;&gt;Node119</title>
<path fill="none" stroke="midnightblue" d="M543.094,-500.402C488.229,-488.867 401.582,-470.65 350.972,-460.009"/>
<polygon fill="midnightblue" stroke="midnightblue" points="542.447,-503.843 552.953,-502.475 543.887,-496.992 542.447,-503.843"/>
</g>
<!-- Node102&#45;&gt;Node120 -->
<g id="edge27" class="edge"><title>Node102&#45;&gt;Node120</title>
<path fill="none" stroke="midnightblue" d="M657.491,-500.901C730.374,-489.398 848.185,-470.804 916.585,-460.009"/>
<polygon fill="midnightblue" stroke="midnightblue" points="656.847,-497.459 647.515,-502.475 657.938,-504.373 656.847,-497.459"/>
</g>
<!-- Node121 -->
<g id="node25" class="node"><title>Node121</title>
<g id="a_node25"><a xlink:href="ZeroReconstructionEvaluationModule_8ipp.html" target="_top" xlink:title="src/Zero/ZeroReconstruction\lEvaluationModule.ipp">
<polygon fill="white" stroke="black" points="425.5,-435.5 425.5,-465.5 565.5,-465.5 565.5,-435.5 425.5,-435.5"/>
<text text-anchor="start" x="433.5" y="-453.5" font-family="FreeSans" font-size="10.00">src/Zero/ZeroReconstruction</text>
<text text-anchor="middle" x="495.5" y="-442.5" font-family="FreeSans" font-size="10.00">EvaluationModule.ipp</text>
</a>
</g>
</g>
<!-- Node102&#45;&gt;Node121 -->
<g id="edge28" class="edge"><title>Node102&#45;&gt;Node121</title>
<path fill="none" stroke="midnightblue" d="M570.896,-497.276C555.213,-487.754 534.386,-475.11 518.597,-465.523"/>
<polygon fill="midnightblue" stroke="midnightblue" points="569.095,-500.277 579.459,-502.475 572.728,-494.294 569.095,-500.277"/>
</g>
<!-- Node123 -->
<g id="node27" class="node"><title>Node123</title>
<g id="a_node27"><a xlink:href="AppZeroReconstructionEvaluation_8cpp.html" target="_top" xlink:title="src/Zero/AppZeroReconstruction\lEvaluation.cpp">
<polygon fill="white" stroke="black" points="349.5,-296 349.5,-326 507.5,-326 507.5,-296 349.5,-296"/>
<text text-anchor="start" x="357.5" y="-314" font-family="FreeSans" font-size="10.00">src/Zero/AppZeroReconstruction</text>
<text text-anchor="middle" x="428.5" y="-303" font-family="FreeSans" font-size="10.00">Evaluation.cpp</text>
</a>
</g>
</g>
<!-- Node102&#45;&gt;Node123 -->
<g id="edge32" class="edge"><title>Node102&#45;&gt;Node123</title>
<path fill="none" stroke="midnightblue" d="M591.652,-492.241C589.429,-476.188 584.637,-452.904 574.5,-435 546.005,-384.672 488.52,-345.805 454.806,-326.159"/>
<polygon fill="midnightblue" stroke="midnightblue" points="588.211,-492.95 592.857,-502.471 595.163,-492.131 588.211,-492.95"/>
</g>
<!-- Node104 -->
<g id="node8" class="node"><title>Node104</title>
<g id="a_node8"><a xlink:href="Sparse3DReconstructionPipeline_8h.html" target="_top" xlink:title="src/GeometryEstimationPipeline\l/Sparse3DReconstructionPipeline.h">
<polygon fill="white" stroke="black" points="665.5,-368.5 665.5,-398.5 835.5,-398.5 835.5,-368.5 665.5,-368.5"/>
<text text-anchor="start" x="673.5" y="-386.5" font-family="FreeSans" font-size="10.00">src/GeometryEstimationPipeline</text>
<text text-anchor="middle" x="750.5" y="-375.5" font-family="FreeSans" font-size="10.00">/Sparse3DReconstructionPipeline.h</text>
</a>
</g>
</g>
<!-- Node103&#45;&gt;Node104 -->
<g id="edge7" class="edge"><title>Node103&#45;&gt;Node104</title>
<path fill="none" stroke="midnightblue" d="M748.612,-425.403C749.029,-416.37 749.489,-406.408 749.85,-398.577"/>
<polygon fill="midnightblue" stroke="midnightblue" points="745.116,-425.245 748.151,-435.396 752.108,-425.568 745.116,-425.245"/>
</g>
<!-- Node104&#45;&gt;Node105 -->
<g id="edge8" class="edge"><title>Node104&#45;&gt;Node105</title>
<path fill="none" stroke="midnightblue" d="M758.988,-358.564C762.797,-347.821 767.163,-335.51 770.448,-326.246"/>
<polygon fill="midnightblue" stroke="midnightblue" points="755.603,-357.639 755.559,-368.233 762.2,-359.978 755.603,-357.639"/>
</g>
<!-- Node104&#45;&gt;Node106 -->
<g id="edge9" class="edge"><title>Node104&#45;&gt;Node106</title>
<path fill="none" stroke="midnightblue" d="M845.512,-367.842C904.17,-358.436 980.883,-345.49 1048.5,-332 1057.62,-330.181 1067.24,-328.116 1076.63,-326.02"/>
<polygon fill="midnightblue" stroke="midnightblue" points="844.841,-364.405 835.518,-369.439 845.945,-371.318 844.841,-364.405"/>
</g>
<!-- Node112 -->
<g id="node16" class="node"><title>Node112</title>
<g id="a_node16"><a xlink:href="InterfaceSparse3DReconstructionPipeline_8ipp.html" target="_top" xlink:title="src/ApplicationInterface\l/InterfaceSparse3DReconstruction\lPipeline.ipp">
<polygon fill="white" stroke="black" points="525.5,-290.5 525.5,-331.5 691.5,-331.5 691.5,-290.5 525.5,-290.5"/>
<text text-anchor="start" x="533.5" y="-319.5" font-family="FreeSans" font-size="10.00">src/ApplicationInterface</text>
<text text-anchor="start" x="533.5" y="-308.5" font-family="FreeSans" font-size="10.00">/InterfaceSparse3DReconstruction</text>
<text text-anchor="middle" x="608.5" y="-297.5" font-family="FreeSans" font-size="10.00">Pipeline.ipp</text>
</a>
</g>
</g>
<!-- Node104&#45;&gt;Node112 -->
<g id="edge15" class="edge"><title>Node104&#45;&gt;Node112</title>
<path fill="none" stroke="midnightblue" d="M712.956,-363.86C692.891,-353.898 668.205,-341.642 647.87,-331.546"/>
<polygon fill="midnightblue" stroke="midnightblue" points="711.592,-367.091 722.105,-368.403 714.705,-360.821 711.592,-367.091"/>
</g>
<!-- Node115 -->
<g id="node19" class="node"><title>Node115</title>
<g id="a_node19"><a xlink:href="Sparse3DReconstructionPipeline_8cpp.html" target="_top" xlink:title="src/GeometryEstimationPipeline\l/Sparse3DReconstructionPipeline.cpp">
<polygon fill="white" stroke="black" points="859.5,-296 859.5,-326 1039.5,-326 1039.5,-296 859.5,-296"/>
<text text-anchor="start" x="867.5" y="-314" font-family="FreeSans" font-size="10.00">src/GeometryEstimationPipeline</text>
<text text-anchor="middle" x="949.5" y="-303" font-family="FreeSans" font-size="10.00">/Sparse3DReconstructionPipeline.cpp</text>
</a>
</g>
</g>
<!-- Node104&#45;&gt;Node115 -->
<g id="edge19" class="edge"><title>Node104&#45;&gt;Node115</title>
<path fill="none" stroke="midnightblue" d="M799.997,-364.965C833.876,-352.962 878.206,-337.258 909.777,-326.073"/>
<polygon fill="midnightblue" stroke="midnightblue" points="798.55,-361.764 790.292,-368.403 800.887,-368.362 798.55,-361.764"/>
</g>
<!-- Node107 -->
<g id="node11" class="node"><title>Node107</title>
<g id="a_node11"><a xlink:href="SfMPipeline_8h.html" target="_top" xlink:title="src/GeometryEstimationPipeline\l/SfMPipeline.h">
<polygon fill="white" stroke="black" points="1032,-218 1032,-248 1187,-248 1187,-218 1032,-218"/>
<text text-anchor="start" x="1040" y="-236" font-family="FreeSans" font-size="10.00">src/GeometryEstimationPipeline</text>
<text text-anchor="middle" x="1109.5" y="-225" font-family="FreeSans" font-size="10.00">/SfMPipeline.h</text>
</a>
</g>
</g>
<!-- Node106&#45;&gt;Node107 -->
<g id="edge10" class="edge"><title>Node106&#45;&gt;Node107</title>
<path fill="none" stroke="midnightblue" d="M1127.28,-285.963C1123.03,-273.551 1117.99,-258.83 1114.37,-248.231"/>
<polygon fill="midnightblue" stroke="midnightblue" points="1124.06,-287.376 1130.61,-295.705 1130.68,-285.11 1124.06,-287.376"/>
</g>
<!-- Node108 -->
<g id="node12" class="node"><title>Node108</title>
<g id="a_node12"><a xlink:href="InterfaceSfMPipeline_8ipp.html" target="_top" xlink:title="src/ApplicationInterface\l/InterfaceSfMPipeline.ipp">
<polygon fill="white" stroke="black" points="863,-140 863,-170 988,-170 988,-140 863,-140"/>
<text text-anchor="start" x="871" y="-158" font-family="FreeSans" font-size="10.00">src/ApplicationInterface</text>
<text text-anchor="middle" x="925.5" y="-147" font-family="FreeSans" font-size="10.00">/InterfaceSfMPipeline.ipp</text>
</a>
</g>
</g>
<!-- Node107&#45;&gt;Node108 -->
<g id="edge11" class="edge"><title>Node107&#45;&gt;Node108</title>
<path fill="none" stroke="midnightblue" d="M1066.03,-214.046C1033.46,-200.593 989.518,-182.442 959.495,-170.041"/>
<polygon fill="midnightblue" stroke="midnightblue" points="1064.74,-217.3 1075.32,-217.883 1067.42,-210.831 1064.74,-217.3"/>
</g>
<!-- Node111 -->
<g id="node15" class="node"><title>Node111</title>
<g id="a_node15"><a xlink:href="SfMPipeline_8cpp.html" target="_top" xlink:title="src/GeometryEstimationPipeline\l/SfMPipeline.cpp">
<polygon fill="white" stroke="black" points="1032,-140 1032,-170 1187,-170 1187,-140 1032,-140"/>
<text text-anchor="start" x="1040" y="-158" font-family="FreeSans" font-size="10.00">src/GeometryEstimationPipeline</text>
<text text-anchor="middle" x="1109.5" y="-147" font-family="FreeSans" font-size="10.00">/SfMPipeline.cpp</text>
</a>
</g>
</g>
<!-- Node107&#45;&gt;Node111 -->
<g id="edge14" class="edge"><title>Node107&#45;&gt;Node111</title>
<path fill="none" stroke="midnightblue" d="M1109.5,-207.59C1109.5,-195.257 1109.5,-180.724 1109.5,-170.231"/>
<polygon fill="midnightblue" stroke="midnightblue" points="1106,-207.705 1109.5,-217.705 1113,-207.705 1106,-207.705"/>
</g>
<!-- Node109 -->
<g id="node13" class="node"><title>Node109</title>
<g id="a_node13"><a xlink:href="InterfaceSfMPipeline_8h.html" target="_top" xlink:title="src/ApplicationInterface\l/InterfaceSfMPipeline.h">
<polygon fill="white" stroke="black" points="866,-67.5 866,-97.5 985,-97.5 985,-67.5 866,-67.5"/>
<text text-anchor="start" x="874" y="-85.5" font-family="FreeSans" font-size="10.00">src/ApplicationInterface</text>
<text text-anchor="middle" x="925.5" y="-74.5" font-family="FreeSans" font-size="10.00">/InterfaceSfMPipeline.h</text>
</a>
</g>
</g>
<!-- Node108&#45;&gt;Node109 -->
<g id="edge12" class="edge"><title>Node108&#45;&gt;Node109</title>
<path fill="none" stroke="midnightblue" d="M925.5,-129.732C925.5,-119.068 925.5,-106.914 925.5,-97.7455"/>
<polygon fill="midnightblue" stroke="midnightblue" points="922,-129.733 925.5,-139.733 929,-129.733 922,-129.733"/>
</g>
<!-- Node110 -->
<g id="node14" class="node"><title>Node110</title>
<g id="a_node14"><a xlink:href="InterfaceSfMPipeline_8cpp.html" target="_top" xlink:title="src/ApplicationInterface\l/InterfaceSfMPipeline.cpp">
<polygon fill="white" stroke="black" points="861.5,-0.5 861.5,-30.5 989.5,-30.5 989.5,-0.5 861.5,-0.5"/>
<text text-anchor="start" x="869.5" y="-18.5" font-family="FreeSans" font-size="10.00">src/ApplicationInterface</text>
<text text-anchor="middle" x="925.5" y="-7.5" font-family="FreeSans" font-size="10.00">/InterfaceSfMPipeline.cpp</text>
</a>
</g>
</g>
<!-- Node109&#45;&gt;Node110 -->
<g id="edge13" class="edge"><title>Node109&#45;&gt;Node110</title>
<path fill="none" stroke="midnightblue" d="M925.5,-57.1081C925.5,-48.1539 925.5,-38.3227 925.5,-30.5765"/>
<polygon fill="midnightblue" stroke="midnightblue" points="922,-57.3959 925.5,-67.396 929,-57.396 922,-57.3959"/>
</g>
<!-- Node113 -->
<g id="node17" class="node"><title>Node113</title>
<g id="a_node17"><a xlink:href="InterfaceSparse3DReconstructionPipeline_8h.html" target="_top" xlink:title="src/ApplicationInterface\l/InterfaceSparse3DReconstruction\lPipeline.h">
<polygon fill="white" stroke="black" points="627.5,-212.5 627.5,-253.5 793.5,-253.5 793.5,-212.5 627.5,-212.5"/>
<text text-anchor="start" x="635.5" y="-241.5" font-family="FreeSans" font-size="10.00">src/ApplicationInterface</text>
<text text-anchor="start" x="635.5" y="-230.5" font-family="FreeSans" font-size="10.00">/InterfaceSparse3DReconstruction</text>
<text text-anchor="middle" x="710.5" y="-219.5" font-family="FreeSans" font-size="10.00">Pipeline.h</text>
</a>
</g>
</g>
<!-- Node112&#45;&gt;Node113 -->
<g id="edge16" class="edge"><title>Node112&#45;&gt;Node113</title>
<path fill="none" stroke="midnightblue" d="M642.925,-284.35C656.451,-274.272 671.723,-262.893 684.321,-253.506"/>
<polygon fill="midnightblue" stroke="midnightblue" points="640.695,-281.647 634.768,-290.428 644.878,-287.26 640.695,-281.647"/>
</g>
<!-- Node113&#45;&gt;Node108 -->
<g id="edge17" class="edge"><title>Node113&#45;&gt;Node108</title>
<path fill="none" stroke="midnightblue" d="M775.753,-208.934C811.559,-196.277 854.801,-180.991 885.593,-170.106"/>
<polygon fill="midnightblue" stroke="midnightblue" points="774.13,-205.795 765.868,-212.428 776.463,-212.395 774.13,-205.795"/>
</g>
<!-- Node114 -->
<g id="node18" class="node"><title>Node114</title>
<g id="a_node18"><a xlink:href="InterfaceSparse3DReconstructionPipeline_8cpp.html" target="_top" xlink:title="src/ApplicationInterface\l/InterfaceSparse3DReconstruction\lPipeline.cpp">
<polygon fill="white" stroke="black" points="627.5,-134.5 627.5,-175.5 793.5,-175.5 793.5,-134.5 627.5,-134.5"/>
<text text-anchor="start" x="635.5" y="-163.5" font-family="FreeSans" font-size="10.00">src/ApplicationInterface</text>
<text text-anchor="start" x="635.5" y="-152.5" font-family="FreeSans" font-size="10.00">/InterfaceSparse3DReconstruction</text>
<text text-anchor="middle" x="710.5" y="-141.5" font-family="FreeSans" font-size="10.00">Pipeline.cpp</text>
</a>
</g>
</g>
<!-- Node113&#45;&gt;Node114 -->
<g id="edge18" class="edge"><title>Node113&#45;&gt;Node114</title>
<path fill="none" stroke="midnightblue" d="M710.5,-202.297C710.5,-193.301 710.5,-183.653 710.5,-175.506"/>
<polygon fill="midnightblue" stroke="midnightblue" points="707,-202.428 710.5,-212.428 714,-202.428 707,-202.428"/>
</g>
<!-- Node117 -->
<g id="node21" class="node"><title>Node117</title>
<g id="a_node21"><a xlink:href="InterfaceMultiviewTriangulation_8h.html" target="_top" xlink:title="src/ApplicationInterface\l/InterfaceMultiviewTriangulation.h">
<polygon fill="white" stroke="black" points="29.5,-368.5 29.5,-398.5 191.5,-398.5 191.5,-368.5 29.5,-368.5"/>
<text text-anchor="start" x="37.5" y="-386.5" font-family="FreeSans" font-size="10.00">src/ApplicationInterface</text>
<text text-anchor="middle" x="110.5" y="-375.5" font-family="FreeSans" font-size="10.00">/InterfaceMultiviewTriangulation.h</text>
</a>
</g>
</g>
<!-- Node116&#45;&gt;Node117 -->
<g id="edge22" class="edge"><title>Node116&#45;&gt;Node117</title>
<path fill="none" stroke="midnightblue" d="M110.5,-425.108C110.5,-416.154 110.5,-406.323 110.5,-398.577"/>
<polygon fill="midnightblue" stroke="midnightblue" points="107,-425.396 110.5,-435.396 114,-425.396 107,-425.396"/>
</g>
<!-- Node117&#45;&gt;Node112 -->
<g id="edge24" class="edge"><title>Node117&#45;&gt;Node112</title>
<path fill="none" stroke="midnightblue" d="M201.799,-373.526C284.311,-364.851 408.956,-350.339 516.5,-332 519.4,-331.505 522.348,-330.982 525.321,-330.435"/>
<polygon fill="midnightblue" stroke="midnightblue" points="201.281,-370.061 191.698,-374.581 202.008,-377.023 201.281,-370.061"/>
</g>
<!-- Node118 -->
<g id="node22" class="node"><title>Node118</title>
<g id="a_node22"><a xlink:href="InterfaceMultiviewTriangulation_8cpp.html" target="_top" xlink:title="src/ApplicationInterface\l/InterfaceMultiviewTriangulation.cpp">
<polygon fill="white" stroke="black" points="0,-296 0,-326 173,-326 173,-296 0,-296"/>
<text text-anchor="start" x="8" y="-314" font-family="FreeSans" font-size="10.00">src/ApplicationInterface</text>
<text text-anchor="middle" x="86.5" y="-303" font-family="FreeSans" font-size="10.00">/InterfaceMultiviewTriangulation.cpp</text>
</a>
</g>
</g>
<!-- Node117&#45;&gt;Node118 -->
<g id="edge23" class="edge"><title>Node117&#45;&gt;Node118</title>
<path fill="none" stroke="midnightblue" d="M102.352,-358.564C98.6945,-347.821 94.5034,-335.51 91.3495,-326.246"/>
<polygon fill="midnightblue" stroke="midnightblue" points="99.1073,-359.895 105.643,-368.233 105.734,-357.639 99.1073,-359.895"/>
</g>
<!-- Node122 -->
<g id="node26" class="node"><title>Node122</title>
<g id="a_node26"><a xlink:href="ZeroReconstructionEvaluationModule_8h.html" target="_top" xlink:title="src/Zero/ZeroReconstruction\lEvaluationModule.h">
<polygon fill="white" stroke="black" points="358.5,-368.5 358.5,-398.5 498.5,-398.5 498.5,-368.5 358.5,-368.5"/>
<text text-anchor="start" x="366.5" y="-386.5" font-family="FreeSans" font-size="10.00">src/Zero/ZeroReconstruction</text>
<text text-anchor="middle" x="428.5" y="-375.5" font-family="FreeSans" font-size="10.00">EvaluationModule.h</text>
</a>
</g>
</g>
<!-- Node121&#45;&gt;Node122 -->
<g id="edge29" class="edge"><title>Node121&#45;&gt;Node122</title>
<path fill="none" stroke="midnightblue" d="M473.66,-428.311C463.609,-418.561 451.959,-407.259 443.01,-398.577"/>
<polygon fill="midnightblue" stroke="midnightblue" points="471.347,-430.945 480.962,-435.396 476.222,-425.921 471.347,-430.945"/>
</g>
<!-- Node122&#45;&gt;Node123 -->
<g id="edge30" class="edge"><title>Node122&#45;&gt;Node123</title>
<path fill="none" stroke="midnightblue" d="M428.5,-358.232C428.5,-347.568 428.5,-335.414 428.5,-326.246"/>
<polygon fill="midnightblue" stroke="midnightblue" points="425,-358.233 428.5,-368.233 432,-358.233 425,-358.233"/>
</g>
<!-- Node124 -->
<g id="node28" class="node"><title>Node124</title>
<g id="a_node28"><a xlink:href="ZeroReconstructionEvaluationModule_8cpp.html" target="_top" xlink:title="src/Zero/ZeroReconstruction\lEvaluationModule.cpp">
<polygon fill="white" stroke="black" points="191.5,-296 191.5,-326 331.5,-326 331.5,-296 191.5,-296"/>
<text text-anchor="start" x="199.5" y="-314" font-family="FreeSans" font-size="10.00">src/Zero/ZeroReconstruction</text>
<text text-anchor="middle" x="261.5" y="-303" font-family="FreeSans" font-size="10.00">EvaluationModule.cpp</text>
</a>
</g>
</g>
<!-- Node122&#45;&gt;Node124 -->
<g id="edge31" class="edge"><title>Node122&#45;&gt;Node124</title>
<path fill="none" stroke="midnightblue" d="M385.86,-364.499C357.575,-352.559 320.989,-337.114 294.836,-326.073"/>
<polygon fill="midnightblue" stroke="midnightblue" points="384.532,-367.738 395.106,-368.403 387.255,-361.289 384.532,-367.738"/>
</g>
</g>
</svg>
        <g id="navigator" transform="translate(0 0)" fill="#404254">
                <rect fill="#f2f5e9" fill-opacity="0.5" stroke="#606060" stroke-width=".5" x="0" y="0" width="60" height="60"/>
                <use id="zoomplus" xlink:href="#zoomPlus" x="17" y="9" onmousedown="handleZoom(evt,'in')"/>
                <use id="zoomminus" xlink:href="#zoomMin" x="42" y="9" onmousedown="handleZoom(evt,'out')"/>
                <use id="reset" xlink:href="#resetDef" x="30" y="36" onmousedown="handleReset()"/>
                <g id="arrowUp" xlink:href="#dirArrow" transform="translate(30 24)" onmousedown="handlePan(0,-1)">
                  <use xlink:href="#rim" fill="#404040">
                        <set attributeName="fill" to="#808080" begin="arrowUp.mouseover" end="arrowUp.mouseout"/>
                  </use>
                  <path fill="none" stroke="white" stroke-width="1.5" d="M0,-3.0v7 M-2.5,-0.5L0,-3.0L2.5,-0.5"/>
                </g>
                <g id="arrowRight" xlink:href="#dirArrow" transform="rotate(90) translate(36 -43)" onmousedown="handlePan(1,0)">
                  <use xlink:href="#rim" fill="#404040">
                        <set attributeName="fill" to="#808080" begin="arrowRight.mouseover" end="arrowRight.mouseout"/>
                  </use>
                  <path fill="none" stroke="white" stroke-width="1.5" d="M0,-3.0v7 M-2.5,-0.5L0,-3.0L2.5,-0.5"/>
                </g>
                <g id="arrowDown" xlink:href="#dirArrow" transform="rotate(180) translate(-30 -48)" onmousedown="handlePan(0,1)">
                  <use xlink:href="#rim" fill="#404040">
                        <set attributeName="fill" to="#808080" begin="arrowDown.mouseover" end="arrowDown.mouseout"/>
                  </use>
                  <path fill="none" stroke="white" stroke-width="1.5" d="M0,-3.0v7 M-2.5,-0.5L0,-3.0L2.5,-0.5"/>
                </g>
                <g id="arrowLeft" xlink:href="#dirArrow" transform="rotate(270) translate(-36 17)" onmousedown="handlePan(-1,0)">
                  <use xlink:href="#rim" fill="#404040">
                        <set attributeName="fill" to="#808080" begin="arrowLeft.mouseover" end="arrowLeft.mouseout"/>
                  </use>
                  <path fill="none" stroke="white" stroke-width="1.5" d="M0,-3.0v7 M-2.5,-0.5L0,-3.0L2.5,-0.5"/>
                </g>
        </g>
        <svg viewBox="0 0 15 15" width="100%" height="30px" preserveAspectRatio="xMaxYMin meet">
         <g id="arrow_out" transform="scale(0.3 0.3)">
          <a xlink:href="Triangulation_8ipp__dep__incl_org.svg" target="_base">
           <rect id="button" ry="5" rx="5" y="6" x="6" height="38" width="38"
                fill="#f2f5e9" fill-opacity="0.5" stroke="#606060" stroke-width="1.0"/>
           <path id="arrow"
             d="M 11.500037,31.436501 C 11.940474,20.09759 22.043105,11.32322 32.158766,21.979434 L 37.068811,17.246167 C 37.068811,17.246167 37.088388,32 37.088388,32 L 22.160133,31.978069 C 22.160133,31.978069 26.997745,27.140456 26.997745,27.140456 C 18.528582,18.264221 13.291696,25.230495 11.500037,31.436501 z"
             style="fill:#404040;"/>
          </a>
         </g>
        </svg>
</svg>
