<?xml version="1.0" encoding="UTF-8" standalone="no"?>
<!DOCTYPE svg PUBLIC "-//W3C//DTD SVG 1.1//EN"
 "http://www.w3.org/Graphics/SVG/1.1/DTD/svg11.dtd">
<!-- Generated by graphviz version 2.38.0 (20140413.2041)
 -->
<!-- Title: src/StateEstimation/UKFCameraTrackingProblemBase.h Pages: 1 -->
<svg width="332pt" height="240pt"
 viewBox="0.00 0.00 331.50 240.00" xmlns="http://www.w3.org/2000/svg" xmlns:xlink="http://www.w3.org/1999/xlink">
<g id="graph0" class="graph" transform="scale(1 1) rotate(0) translate(4 236)">
<title>src/StateEstimation/UKFCameraTrackingProblemBase.h</title>
<polygon fill="white" stroke="none" points="-4,4 -4,-236 327.5,-236 327.5,4 -4,4"/>
<!-- Node72 -->
<g id="node1" class="node"><title>Node72</title>
<polygon fill="#bfbfbf" stroke="black" points="32.5,-201.5 32.5,-231.5 209.5,-231.5 209.5,-201.5 32.5,-201.5"/>
<text text-anchor="start" x="40.5" y="-219.5" font-family="FreeSans" font-size="10.00">src/StateEstimation</text>
<text text-anchor="middle" x="121" y="-208.5" font-family="FreeSans" font-size="10.00">/UKFCameraTrackingProblemBase.h</text>
</g>
<!-- Node73 -->
<g id="node2" class="node"><title>Node73</title>
<g id="a_node2"><a xlink:href="TestStateEstimation_8cpp.html" target="_top" xlink:title="src/StateEstimation\l/TestStateEstimation.cpp">
<polygon fill="white" stroke="black" points="0,-0.5 0,-30.5 126,-30.5 126,-0.5 0,-0.5"/>
<text text-anchor="start" x="8" y="-18.5" font-family="FreeSans" font-size="10.00">src/StateEstimation</text>
<text text-anchor="middle" x="63" y="-7.5" font-family="FreeSans" font-size="10.00">/TestStateEstimation.cpp</text>
</a>
</g>
</g>
<!-- Node72&#45;&gt;Node73 -->
<g id="edge1" class="edge"><title>Node72&#45;&gt;Node73</title>
<path fill="none" stroke="midnightblue" d="M100.025,-193.624C93.1829,-185.28 86.2576,-175.287 82,-165 62.8157,-118.65 61.7586,-57.7834 62.4002,-30.6328"/>
<polygon fill="midnightblue" stroke="midnightblue" points="97.5434,-196.105 106.738,-201.369 102.833,-191.52 97.5434,-196.105"/>
</g>
<!-- Node74 -->
<g id="node3" class="node"><title>Node74</title>
<g id="a_node3"><a xlink:href="UKFOrientationTrackingProblem_8ipp.html" target="_top" xlink:title="src/StateEstimation\l/UKFOrientationTrackingProblem.ipp">
<polygon fill="white" stroke="black" points="91,-134.5 91,-164.5 267,-164.5 267,-134.5 91,-134.5"/>
<text text-anchor="start" x="99" y="-152.5" font-family="FreeSans" font-size="10.00">src/StateEstimation</text>
<text text-anchor="middle" x="179" y="-141.5" font-family="FreeSans" font-size="10.00">/UKFOrientationTrackingProblem.ipp</text>
</a>
</g>
</g>
<!-- Node72&#45;&gt;Node74 -->
<g id="edge2" class="edge"><title>Node72&#45;&gt;Node74</title>
<path fill="none" stroke="midnightblue" d="M140.42,-193.736C149.002,-184.119 158.844,-173.089 166.439,-164.577"/>
<polygon fill="midnightblue" stroke="midnightblue" points="137.632,-191.604 133.585,-201.396 142.855,-196.265 137.632,-191.604"/>
</g>
<!-- Node75 -->
<g id="node4" class="node"><title>Node75</title>
<g id="a_node4"><a xlink:href="UKFOrientationTrackingProblem_8h.html" target="_top" xlink:title="src/StateEstimation\l/UKFOrientationTrackingProblem.h">
<polygon fill="white" stroke="black" points="95,-67.5 95,-97.5 263,-97.5 263,-67.5 95,-67.5"/>
<text text-anchor="start" x="103" y="-85.5" font-family="FreeSans" font-size="10.00">src/StateEstimation</text>
<text text-anchor="middle" x="179" y="-74.5" font-family="FreeSans" font-size="10.00">/UKFOrientationTrackingProblem.h</text>
</a>
</g>
</g>
<!-- Node74&#45;&gt;Node75 -->
<g id="edge3" class="edge"><title>Node74&#45;&gt;Node75</title>
<path fill="none" stroke="midnightblue" d="M179,-124.108C179,-115.154 179,-105.323 179,-97.5765"/>
<polygon fill="midnightblue" stroke="midnightblue" points="175.5,-124.396 179,-134.396 182.5,-124.396 175.5,-124.396"/>
</g>
<!-- Node75&#45;&gt;Node73 -->
<g id="edge4" class="edge"><title>Node75&#45;&gt;Node73</title>
<path fill="none" stroke="midnightblue" d="M144.728,-62.2956C126.577,-52.1248 104.68,-39.8549 88.1212,-30.5765"/>
<polygon fill="midnightblue" stroke="midnightblue" points="143.395,-65.5609 153.83,-67.396 146.817,-59.4543 143.395,-65.5609"/>
</g>
<!-- Node76 -->
<g id="node5" class="node"><title>Node76</title>
<g id="a_node5"><a xlink:href="UKFOrientationTrackingProblem_8cpp.html" target="_top" xlink:title="src/StateEstimation\l/UKFOrientationTrackingProblem.cpp">
<polygon fill="white" stroke="black" points="144.5,-0.5 144.5,-30.5 323.5,-30.5 323.5,-0.5 144.5,-0.5"/>
<text text-anchor="start" x="152.5" y="-18.5" font-family="FreeSans" font-size="10.00">src/StateEstimation</text>
<text text-anchor="middle" x="234" y="-7.5" font-family="FreeSans" font-size="10.00">/UKFOrientationTrackingProblem.cpp</text>
</a>
</g>
</g>
<!-- Node75&#45;&gt;Node76 -->
<g id="edge5" class="edge"><title>Node75&#45;&gt;Node76</title>
<path fill="none" stroke="midnightblue" d="M197.416,-59.7362C205.553,-50.119 214.886,-39.0888 222.089,-30.5765"/>
<polygon fill="midnightblue" stroke="midnightblue" points="194.722,-57.5013 190.934,-67.396 200.065,-62.0229 194.722,-57.5013"/>
</g>
</g>
</svg>
