<?xml version="1.0" encoding="UTF-8" standalone="no"?>
<!DOCTYPE svg PUBLIC "-//W3C//DTD SVG 1.1//EN"
 "http://www.w3.org/Graphics/SVG/1.1/DTD/svg11.dtd">
<!-- Generated by graphviz version 2.38.0 (20140413.2041)
 -->
<!-- Title: src/StateEstimation/UKFCameraTrackingProblemBase.ipp Pages: 1 -->
<svg width="4087pt" height="542pt"
 viewBox="0.00 0.00 4086.50 542.00" xmlns="http://www.w3.org/2000/svg" xmlns:xlink="http://www.w3.org/1999/xlink">
<g id="graph0" class="graph" transform="scale(1 1) rotate(0) translate(4 538)">
<title>src/StateEstimation/UKFCameraTrackingProblemBase.ipp</title>
<polygon fill="white" stroke="none" points="-4,4 -4,-538 4082.5,-538 4082.5,4 -4,4"/>
<!-- Node0 -->
<g id="node1" class="node"><title>Node0</title>
<polygon fill="#bfbfbf" stroke="black" points="831,-503.5 831,-533.5 1016,-533.5 1016,-503.5 831,-503.5"/>
<text text-anchor="start" x="839" y="-521.5" font-family="FreeSans" font-size="10.00">src/StateEstimation</text>
<text text-anchor="middle" x="923.5" y="-510.5" font-family="FreeSans" font-size="10.00">/UKFCameraTrackingProblemBase.ipp</text>
</g>
<!-- Node1 -->
<g id="node2" class="node"><title>Node1</title>
<polygon fill="white" stroke="#bfbfbf" points="1151.5,-6 1151.5,-25 1279.5,-25 1279.5,-6 1151.5,-6"/>
<text text-anchor="middle" x="1215.5" y="-13" font-family="FreeSans" font-size="10.00">boost/concept_check.hpp</text>
</g>
<!-- Node0&#45;&gt;Node1 -->
<g id="edge1" class="edge"><title>Node0&#45;&gt;Node1</title>
<path fill="none" stroke="midnightblue" d="M922.34,-503.195C918.718,-450.436 911.698,-263.137 981.5,-134 999.819,-100.108 1004.26,-88.0877 1036.5,-67 1057.6,-53.1977 1119.59,-37.4395 1164.71,-27.2497"/>
<polygon fill="midnightblue" stroke="midnightblue" points="1165.64,-30.6293 1174.63,-25.0365 1164.11,-23.7971 1165.64,-30.6293"/>
</g>
<!-- Node2 -->
<g id="node3" class="node"><title>Node2</title>
<polygon fill="white" stroke="#bfbfbf" points="38,-140 38,-159 133,-159 133,-140 38,-140"/>
<text text-anchor="middle" x="85.5" y="-147" font-family="FreeSans" font-size="10.00">boost/optional.hpp</text>
</g>
<!-- Node0&#45;&gt;Node2 -->
<g id="edge2" class="edge"><title>Node0&#45;&gt;Node2</title>
<path fill="none" stroke="midnightblue" d="M830.892,-510.086C642.328,-493.743 231.5,-451.225 231.5,-391 231.5,-391 231.5,-391 231.5,-271.5 231.5,-214.726 165.243,-179.533 121.998,-162.609"/>
<polygon fill="midnightblue" stroke="midnightblue" points="123.211,-159.326 112.619,-159.081 120.747,-165.878 123.211,-159.326"/>
</g>
<!-- Node3 -->
<g id="node4" class="node"><title>Node3</title>
<polygon fill="white" stroke="#bfbfbf" points="1943,-6 1943,-25 2014,-25 2014,-6 1943,-6"/>
<text text-anchor="middle" x="1978.5" y="-13" font-family="FreeSans" font-size="10.00">Eigen/Dense</text>
</g>
<!-- Node0&#45;&gt;Node3 -->
<g id="edge3" class="edge"><title>Node0&#45;&gt;Node3</title>
<path fill="none" stroke="midnightblue" d="M1016.1,-516.52C1408.31,-511.773 2912.5,-487.288 2912.5,-391 2912.5,-391 2912.5,-391 2912.5,-148.5 2912.5,-76.8862 2842.14,-87.4188 2773.5,-67 2613.57,-19.4246 2187.67,-60.8464 2023.5,-31 2019.32,-30.2402 2014.99,-29.1951 2010.75,-28.011"/>
<polygon fill="midnightblue" stroke="midnightblue" points="2011.68,-24.637 2001.09,-25.0649 2009.64,-31.332 2011.68,-24.637"/>
</g>
<!-- Node4 -->
<g id="node5" class="node"><title>Node4</title>
<polygon fill="white" stroke="#bfbfbf" points="1914,-140 1914,-159 1953,-159 1953,-140 1914,-140"/>
<text text-anchor="middle" x="1933.5" y="-147" font-family="FreeSans" font-size="10.00">utility</text>
</g>
<!-- Node0&#45;&gt;Node4 -->
<g id="edge4" class="edge"><title>Node0&#45;&gt;Node4</title>
<path fill="none" stroke="midnightblue" d="M1016.1,-514.82C1350.15,-504.552 2473.5,-464.552 2473.5,-391 2473.5,-391 2473.5,-391 2473.5,-333 2473.5,-276.466 2422.87,-280.595 2371.5,-257 2201.79,-179.055 2136.98,-228.911 1961.5,-165 1960.26,-164.547 1959,-164.05 1957.74,-163.521"/>
<polygon fill="midnightblue" stroke="midnightblue" points="1958.83,-160.166 1948.29,-159.059 1955.84,-166.495 1958.83,-160.166"/>
</g>
<!-- Node5 -->
<g id="node6" class="node"><title>Node5</title>
<polygon fill="white" stroke="#bfbfbf" points="2106.5,-6 2106.5,-25 2150.5,-25 2150.5,-6 2106.5,-6"/>
<text text-anchor="middle" x="2128.5" y="-13" font-family="FreeSans" font-size="10.00">vector</text>
</g>
<!-- Node0&#45;&gt;Node5 -->
<g id="edge5" class="edge"><title>Node0&#45;&gt;Node5</title>
<path fill="none" stroke="midnightblue" d="M1016.12,-517.313C1328.92,-516.292 2344.64,-509.688 2668.5,-467 2813.42,-447.897 2988.5,-537.178 2988.5,-391 2988.5,-391 2988.5,-391 2988.5,-148.5 2988.5,-106.906 2977.93,-88.7918 2942.5,-67 2868.32,-21.3707 2244.06,-51.8481 2159.5,-31 2157.51,-30.5093 2155.49,-29.8875 2153.49,-29.1789"/>
<polygon fill="midnightblue" stroke="midnightblue" points="2154.41,-25.7666 2143.83,-25.1169 2151.69,-32.2194 2154.41,-25.7666"/>
</g>
<!-- Node6 -->
<g id="node7" class="node"><title>Node6</title>
<g id="a_node7"><a xlink:href="MultivariateGaussian_8h.html" target="_top" xlink:title="../UncertaintyEstimation\l/MultivariateGaussian.h">
<polygon fill="white" stroke="black" points="385,-257.5 385,-287.5 504,-287.5 504,-257.5 385,-257.5"/>
<text text-anchor="start" x="393" y="-275.5" font-family="FreeSans" font-size="10.00">../UncertaintyEstimation</text>
<text text-anchor="middle" x="444.5" y="-264.5" font-family="FreeSans" font-size="10.00">/MultivariateGaussian.h</text>
</a>
</g>
</g>
<!-- Node0&#45;&gt;Node6 -->
<g id="edge6" class="edge"><title>Node0&#45;&gt;Node6</title>
<path fill="none" stroke="midnightblue" d="M830.994,-516.973C725.892,-514.53 562.8,-504.561 515.5,-467 462.508,-424.919 449.063,-339.424 445.655,-297.615"/>
<polygon fill="midnightblue" stroke="midnightblue" points="449.139,-297.251 444.961,-287.515 442.155,-297.731 449.139,-297.251"/>
</g>
<!-- Node16 -->
<g id="node17" class="node"><title>Node16</title>
<g id="a_node17"><a xlink:href="GeometrySolverConcept_8h.html" target="_top" xlink:title="../Geometry/GeometrySolver\lConcept.h">
<polygon fill="white" stroke="black" points="962,-436.5 962,-466.5 1101,-466.5 1101,-436.5 962,-436.5"/>
<text text-anchor="start" x="970" y="-454.5" font-family="FreeSans" font-size="10.00">../Geometry/GeometrySolver</text>
<text text-anchor="middle" x="1031.5" y="-443.5" font-family="FreeSans" font-size="10.00">Concept.h</text>
</a>
</g>
</g>
<!-- Node0&#45;&gt;Node16 -->
<g id="edge23" class="edge"><title>Node0&#45;&gt;Node16</title>
<path fill="none" stroke="midnightblue" d="M946.934,-503.396C962.219,-494.197 982.375,-482.066 999.175,-471.955"/>
<polygon fill="midnightblue" stroke="midnightblue" points="1001.35,-474.732 1008.11,-466.577 997.739,-468.734 1001.35,-474.732"/>
</g>
<!-- Node66 -->
<g id="node67" class="node"><title>Node66</title>
<g id="a_node67"><a xlink:href="BoostRange_8h.html" target="_top" xlink:title="../Wrappers/BoostRange.h">
<polygon fill="white" stroke="black" points="525,-442 525,-461 654,-461 654,-442 525,-442"/>
<text text-anchor="middle" x="589.5" y="-449" font-family="FreeSans" font-size="10.00">../Wrappers/BoostRange.h</text>
</a>
</g>
</g>
<!-- Node0&#45;&gt;Node66 -->
<g id="edge121" class="edge"><title>Node0&#45;&gt;Node66</title>
<path fill="none" stroke="midnightblue" d="M851.438,-503.476C788.973,-491.32 699.972,-473.999 643.48,-463.005"/>
<polygon fill="midnightblue" stroke="midnightblue" points="643.809,-459.503 633.324,-461.029 642.471,-466.375 643.809,-459.503"/>
</g>
<!-- Node7 -->
<g id="node8" class="node"><title>Node7</title>
<g id="a_node8"><a xlink:href="MultivariateGaussian_8ipp.html" target="_top" xlink:title="MultivariateGaussian.ipp">
<polygon fill="white" stroke="black" points="383,-201.5 383,-220.5 506,-220.5 506,-201.5 383,-201.5"/>
<text text-anchor="middle" x="444.5" y="-208.5" font-family="FreeSans" font-size="10.00">MultivariateGaussian.ipp</text>
</a>
</g>
</g>
<!-- Node6&#45;&gt;Node7 -->
<g id="edge7" class="edge"><title>Node6&#45;&gt;Node7</title>
<path fill="none" stroke="midnightblue" d="M438.66,-257.399C437.63,-249.377 437.474,-239.233 438.193,-230.569"/>
<polygon fill="midnightblue" stroke="midnightblue" points="441.66,-231.044 439.571,-220.658 434.727,-230.081 441.66,-231.044"/>
</g>
<!-- Node12 -->
<g id="node13" class="node"><title>Node12</title>
<g id="a_node13"><a xlink:href="EigenMetafunction_8h.html" target="_top" xlink:title="../Wrappers/EigenMetafunction.h">
<polygon fill="white" stroke="black" points="600.5,-140 600.5,-159 756.5,-159 756.5,-140 600.5,-140"/>
<text text-anchor="middle" x="678.5" y="-147" font-family="FreeSans" font-size="10.00">../Wrappers/EigenMetafunction.h</text>
</a>
</g>
</g>
<!-- Node6&#45;&gt;Node12 -->
<g id="edge22" class="edge"><title>Node6&#45;&gt;Node12</title>
<path fill="none" stroke="midnightblue" d="M471.801,-257.383C517.402,-233.803 608.436,-186.729 652.888,-163.744"/>
<polygon fill="midnightblue" stroke="midnightblue" points="654.609,-166.794 661.884,-159.092 651.393,-160.576 654.609,-166.794"/>
</g>
<!-- Node14 -->
<g id="node15" class="node"><title>Node14</title>
<g id="a_node15"><a xlink:href="NumericFunctor_8h.html" target="_top" xlink:title="../Numeric/NumericFunctor.h">
<polygon fill="white" stroke="black" points="0,-201.5 0,-220.5 141,-220.5 141,-201.5 0,-201.5"/>
<text text-anchor="middle" x="70.5" y="-208.5" font-family="FreeSans" font-size="10.00">../Numeric/NumericFunctor.h</text>
</a>
</g>
</g>
<!-- Node6&#45;&gt;Node14 -->
<g id="edge19" class="edge"><title>Node6&#45;&gt;Node14</title>
<path fill="none" stroke="midnightblue" d="M384.825,-262.006C316.322,-251.108 204.408,-233.304 134.241,-222.141"/>
<polygon fill="midnightblue" stroke="midnightblue" points="134.627,-218.658 124.201,-220.543 133.527,-225.571 134.627,-218.658"/>
</g>
<!-- Node7&#45;&gt;Node1 -->
<g id="edge8" class="edge"><title>Node7&#45;&gt;Node1</title>
<path fill="none" stroke="midnightblue" d="M446.083,-201.166C449.514,-184.858 459.278,-150.216 482.5,-134 541.171,-93.0299 732.128,-110.981 802.5,-98 856.67,-88.0073 868.597,-78.3483 922.5,-67 1019.45,-46.5882 1045.01,-48.6539 1142.5,-31 1149.33,-29.7625 1156.52,-28.4054 1163.6,-27.0336"/>
<polygon fill="midnightblue" stroke="midnightblue" points="1164.71,-30.382 1173.85,-25.0253 1163.37,-23.5125 1164.71,-30.382"/>
</g>
<!-- Node7&#45;&gt;Node2 -->
<g id="edge11" class="edge"><title>Node7&#45;&gt;Node2</title>
<path fill="none" stroke="midnightblue" d="M382.942,-202.8C321.486,-195.157 224.496,-181.859 141.5,-165 136.462,-163.977 131.2,-162.783 126.005,-161.528"/>
<polygon fill="midnightblue" stroke="midnightblue" points="126.724,-158.1 116.173,-159.067 125.024,-164.89 126.724,-158.1"/>
</g>
<!-- Node7&#45;&gt;Node3 -->
<g id="edge12" class="edge"><title>Node7&#45;&gt;Node3</title>
<path fill="none" stroke="midnightblue" d="M466.049,-201.48C486.634,-193.068 518.312,-179.408 544.5,-165 566.424,-152.938 567.653,-141.583 591.5,-134 824.574,-59.8804 1451.38,-144.482 1691.5,-98 1730.98,-90.3577 1738.05,-78.7814 1776.5,-67 1829.55,-50.7436 1891.6,-35.8267 1932.79,-26.4871"/>
<polygon fill="midnightblue" stroke="midnightblue" points="1933.81,-29.846 1942.8,-24.2354 1932.27,-23.0168 1933.81,-29.846"/>
</g>
<!-- Node7&#45;&gt;Node6 -->
<g id="edge15" class="edge"><title>Node7&#45;&gt;Node6</title>
<path fill="none" stroke="midnightblue" d="M449.429,-220.658C450.935,-227.655 451.507,-237.857 451.145,-247.289"/>
<polygon fill="midnightblue" stroke="midnightblue" points="447.645,-247.153 450.34,-257.399 454.623,-247.709 447.645,-247.153"/>
</g>
<!-- Node8 -->
<g id="node9" class="node"><title>Node8</title>
<polygon fill="white" stroke="#bfbfbf" points="319,-134.5 319,-164.5 430,-164.5 430,-134.5 319,-134.5"/>
<text text-anchor="start" x="327" y="-152.5" font-family="FreeSans" font-size="10.00">boost/math/constants</text>
<text text-anchor="middle" x="374.5" y="-141.5" font-family="FreeSans" font-size="10.00">/constants.hpp</text>
</g>
<!-- Node7&#45;&gt;Node8 -->
<g id="edge9" class="edge"><title>Node7&#45;&gt;Node8</title>
<path fill="none" stroke="midnightblue" d="M434.471,-201.475C425.167,-193.567 410.953,-181.485 398.697,-171.067"/>
<polygon fill="midnightblue" stroke="midnightblue" points="400.884,-168.333 390.998,-164.523 396.35,-173.666 400.884,-168.333"/>
</g>
<!-- Node9 -->
<g id="node10" class="node"><title>Node9</title>
<polygon fill="white" stroke="#bfbfbf" points="151,-140 151,-159 262,-159 262,-140 151,-140"/>
<text text-anchor="middle" x="206.5" y="-147" font-family="FreeSans" font-size="10.00">boost/logic/tribool.hpp</text>
</g>
<!-- Node7&#45;&gt;Node9 -->
<g id="edge10" class="edge"><title>Node7&#45;&gt;Node9</title>
<path fill="none" stroke="midnightblue" d="M410.4,-201.475C368.249,-190.937 296.445,-172.986 250.266,-161.441"/>
<polygon fill="midnightblue" stroke="midnightblue" points="251.087,-158.039 240.536,-159.009 249.389,-164.83 251.087,-158.039"/>
</g>
<!-- Node10 -->
<g id="node11" class="node"><title>Node10</title>
<polygon fill="white" stroke="#bfbfbf" points="1297.5,-6 1297.5,-25 1341.5,-25 1341.5,-6 1297.5,-6"/>
<text text-anchor="middle" x="1319.5" y="-13" font-family="FreeSans" font-size="10.00">cmath</text>
</g>
<!-- Node7&#45;&gt;Node10 -->
<g id="edge13" class="edge"><title>Node7&#45;&gt;Node10</title>
<path fill="none" stroke="midnightblue" d="M453.98,-201.32C472.483,-184.952 515.381,-149.758 558.5,-134 692.095,-85.1788 735.596,-117.421 876.5,-98 968.39,-85.3347 1199.87,-58.3552 1288.5,-31 1290.37,-30.4218 1292.28,-29.7517 1294.18,-29.023"/>
<polygon fill="midnightblue" stroke="midnightblue" points="1295.62,-32.2117 1303.43,-25.0456 1292.86,-25.7812 1295.62,-32.2117"/>
</g>
<!-- Node11 -->
<g id="node12" class="node"><title>Node11</title>
<polygon fill="white" stroke="#bfbfbf" points="355.5,-6 355.5,-25 417.5,-25 417.5,-6 355.5,-6"/>
<text text-anchor="middle" x="386.5" y="-13" font-family="FreeSans" font-size="10.00">type_traits</text>
</g>
<!-- Node7&#45;&gt;Node11 -->
<g id="edge14" class="edge"><title>Node7&#45;&gt;Node11</title>
<path fill="none" stroke="midnightblue" d="M382.919,-205.276C355.799,-199.766 326.329,-188.349 309.5,-165 277.078,-120.017 335.854,-59.5256 367.825,-31.6835"/>
<polygon fill="midnightblue" stroke="midnightblue" points="370.303,-34.1713 375.669,-25.036 365.777,-28.8309 370.303,-34.1713"/>
</g>
<!-- Node7&#45;&gt;Node12 -->
<g id="edge16" class="edge"><title>Node7&#45;&gt;Node12</title>
<path fill="none" stroke="midnightblue" d="M478.026,-201.475C519.382,-190.959 589.771,-173.062 635.184,-161.514"/>
<polygon fill="midnightblue" stroke="midnightblue" points="636.207,-164.866 645.036,-159.009 634.482,-158.081 636.207,-164.866"/>
</g>
<!-- Node13 -->
<g id="node14" class="node"><title>Node13</title>
<g id="a_node14"><a xlink:href="EigenMetafunction_8ipp.html" target="_top" xlink:title="EigenMetafunction.ipp">
<polygon fill="white" stroke="black" points="416.5,-73 416.5,-92 528.5,-92 528.5,-73 416.5,-73"/>
<text text-anchor="middle" x="472.5" y="-80" font-family="FreeSans" font-size="10.00">EigenMetafunction.ipp</text>
</a>
</g>
</g>
<!-- Node12&#45;&gt;Node13 -->
<g id="edge17" class="edge"><title>Node12&#45;&gt;Node13</title>
<path fill="none" stroke="midnightblue" d="M651.145,-139.869C614.645,-128.351 549.899,-107.922 509.19,-95.077"/>
<polygon fill="midnightblue" stroke="midnightblue" points="510.23,-91.7351 499.64,-92.0637 508.124,-98.4106 510.23,-91.7351"/>
</g>
<!-- Node13&#45;&gt;Node11 -->
<g id="edge18" class="edge"><title>Node13&#45;&gt;Node11</title>
<path fill="none" stroke="midnightblue" d="M460.902,-72.7338C446.846,-62.1106 422.949,-44.0485 406.034,-31.2642"/>
<polygon fill="midnightblue" stroke="midnightblue" points="408.003,-28.3648 397.915,-25.1273 403.782,-33.9492 408.003,-28.3648"/>
</g>
<!-- Node15 -->
<g id="node16" class="node"><title>Node15</title>
<g id="a_node16"><a xlink:href="NumericFunctor_8ipp.html" target="_top" xlink:title="NumericFunctor.ipp">
<polygon fill="white" stroke="black" points="60,-73 60,-92 161,-92 161,-73 60,-73"/>
<text text-anchor="middle" x="110.5" y="-80" font-family="FreeSans" font-size="10.00">NumericFunctor.ipp</text>
</a>
</g>
</g>
<!-- Node14&#45;&gt;Node15 -->
<g id="edge20" class="edge"><title>Node14&#45;&gt;Node15</title>
<path fill="none" stroke="midnightblue" d="M58.2863,-201.236C48.1464,-193.143 34.4566,-180.112 28.5,-165 23.4476,-152.182 21.7812,-146.029 28.5,-134 38.3374,-116.388 57.1169,-104.16 74.2243,-96.1528"/>
<polygon fill="midnightblue" stroke="midnightblue" points="75.7096,-99.3236 83.489,-92.1312 72.9223,-92.9025 75.7096,-99.3236"/>
</g>
<!-- Node15&#45;&gt;Node11 -->
<g id="edge21" class="edge"><title>Node15&#45;&gt;Node11</title>
<path fill="none" stroke="midnightblue" d="M146.866,-72.9355C198.159,-60.8556 291.489,-38.8757 345.289,-26.2055"/>
<polygon fill="midnightblue" stroke="midnightblue" points="346.245,-29.5761 355.177,-23.8769 344.641,-22.7625 346.245,-29.5761"/>
</g>
<!-- Node17 -->
<g id="node18" class="node"><title>Node17</title>
<g id="a_node18"><a xlink:href="GeometrySolverConcept_8ipp.html" target="_top" xlink:title="GeometrySolverConcept.ipp">
<polygon fill="white" stroke="black" points="1253,-380.5 1253,-399.5 1390,-399.5 1390,-380.5 1253,-380.5"/>
<text text-anchor="middle" x="1321.5" y="-387.5" font-family="FreeSans" font-size="10.00">GeometrySolverConcept.ipp</text>
</a>
</g>
</g>
<!-- Node16&#45;&gt;Node17 -->
<g id="edge24" class="edge"><title>Node16&#45;&gt;Node17</title>
<path fill="none" stroke="midnightblue" d="M1099.86,-436.475C1151.97,-425.784 1222.6,-411.291 1270,-401.567"/>
<polygon fill="midnightblue" stroke="midnightblue" points="1270.95,-404.945 1280.04,-399.506 1269.54,-398.088 1270.95,-404.945"/>
</g>
<!-- Node17&#45;&gt;Node1 -->
<g id="edge25" class="edge"><title>Node17&#45;&gt;Node1</title>
<path fill="none" stroke="midnightblue" d="M1252.94,-384.501C1202.07,-379.285 1131.88,-368.066 1074.5,-344 1024.35,-322.967 974.5,-327.879 974.5,-273.5 974.5,-273.5 974.5,-273.5 974.5,-210 974.5,-108.226 1106.79,-51.042 1175.35,-28.2417"/>
<polygon fill="midnightblue" stroke="midnightblue" points="1176.54,-31.5347 1184.98,-25.126 1174.39,-24.8747 1176.54,-31.5347"/>
</g>
<!-- Node17&#45;&gt;Node3 -->
<g id="edge26" class="edge"><title>Node17&#45;&gt;Node3</title>
<path fill="none" stroke="midnightblue" d="M1390.24,-388.525C1530.54,-386.823 1859.71,-379.076 2133.5,-344 2258.08,-328.039 2288.34,-317.194 2410.5,-288 2610.07,-240.307 2731.23,-328.282 2855.5,-165 2968.92,-15.98 2206.36,-71.401 2023.5,-31 2019.64,-30.1478 2015.65,-29.1036 2011.7,-27.9697"/>
<polygon fill="midnightblue" stroke="midnightblue" points="2012.68,-24.6096 2002.09,-25.0245 2010.63,-31.3021 2012.68,-24.6096"/>
</g>
<!-- Node17&#45;&gt;Node5 -->
<g id="edge30" class="edge"><title>Node17&#45;&gt;Node5</title>
<path fill="none" stroke="midnightblue" d="M1390.27,-389.72C1581.97,-390.4 2137.7,-383.335 2586.5,-288 2755.83,-252.031 2870.41,-261.765 2926.5,-98 2930.96,-84.9657 2936.01,-76.9681 2926.5,-67 2867.6,-5.27443 2242.33,-51.4626 2159.5,-31 2157.51,-30.5084 2155.49,-29.8859 2153.49,-29.1768"/>
<polygon fill="midnightblue" stroke="midnightblue" points="2154.41,-25.7645 2143.83,-25.1138 2151.69,-32.217 2154.41,-25.7645"/>
</g>
<!-- Node17&#45;&gt;Node11 -->
<g id="edge31" class="edge"><title>Node17&#45;&gt;Node11</title>
<path fill="none" stroke="midnightblue" d="M1252.94,-388.473C1108.17,-385.502 784.5,-368.265 784.5,-273.5 784.5,-273.5 784.5,-273.5 784.5,-210 784.5,-175.183 789.497,-159.227 765.5,-134 758.717,-126.869 435.838,-34.1087 426.5,-31 424.108,-30.2038 421.644,-29.3622 419.168,-28.5015"/>
<polygon fill="midnightblue" stroke="midnightblue" points="420.289,-25.1856 409.694,-25.1425 417.949,-31.7831 420.289,-25.1856"/>
</g>
<!-- Node17&#45;&gt;Node12 -->
<g id="edge120" class="edge"><title>Node17&#45;&gt;Node12</title>
<path fill="none" stroke="midnightblue" d="M1252.86,-387.194C1113.95,-382.996 809.35,-370.821 770.5,-344 709.912,-302.172 688.017,-209.355 681.201,-169.397"/>
<polygon fill="midnightblue" stroke="midnightblue" points="684.642,-168.746 679.63,-159.411 677.727,-169.834 684.642,-168.746"/>
</g>
<!-- Node18 -->
<g id="node19" class="node"><title>Node18</title>
<polygon fill="white" stroke="#bfbfbf" points="2816.5,-140 2816.5,-159 2846.5,-159 2846.5,-140 2816.5,-140"/>
<text text-anchor="middle" x="2831.5" y="-147" font-family="FreeSans" font-size="10.00">set</text>
</g>
<!-- Node17&#45;&gt;Node18 -->
<g id="edge27" class="edge"><title>Node17&#45;&gt;Node18</title>
<path fill="none" stroke="midnightblue" d="M1390.1,-386.475C1593.13,-378.364 2188.33,-349.81 2371.5,-288 2396.27,-279.64 2397.44,-267.233 2421.5,-257 2514.35,-217.512 2543.4,-224.587 2641.5,-201 2711.95,-184.062 2731.96,-188.485 2800.5,-165 2802.65,-164.265 2804.84,-163.426 2807.03,-162.531"/>
<polygon fill="midnightblue" stroke="midnightblue" points="2808.6,-165.66 2816.32,-158.396 2805.76,-159.264 2808.6,-165.66"/>
</g>
<!-- Node19 -->
<g id="node20" class="node"><title>Node19</title>
<polygon fill="white" stroke="#bfbfbf" points="1540,-6 1540,-25 1589,-25 1589,-6 1540,-6"/>
<text text-anchor="middle" x="1564.5" y="-13" font-family="FreeSans" font-size="10.00">cstddef</text>
</g>
<!-- Node17&#45;&gt;Node19 -->
<g id="edge28" class="edge"><title>Node17&#45;&gt;Node19</title>
<path fill="none" stroke="midnightblue" d="M1252.85,-383.659C1184.12,-374.12 1088.5,-347.544 1088.5,-273.5 1088.5,-273.5 1088.5,-273.5 1088.5,-210 1088.5,-133.698 1118.24,-106.533 1183.5,-67 1248.86,-27.4059 1451.1,-48.4531 1525.5,-31 1528.57,-30.2808 1531.72,-29.3861 1534.84,-28.3965"/>
<polygon fill="midnightblue" stroke="midnightblue" points="1536.26,-31.6064 1544.56,-25.0107 1533.96,-24.9963 1536.26,-31.6064"/>
</g>
<!-- Node20 -->
<g id="node21" class="node"><title>Node20</title>
<polygon fill="white" stroke="#bfbfbf" points="2060,-140 2060,-159 2089,-159 2089,-140 2060,-140"/>
<text text-anchor="middle" x="2074.5" y="-147" font-family="FreeSans" font-size="10.00">list</text>
</g>
<!-- Node17&#45;&gt;Node20 -->
<g id="edge29" class="edge"><title>Node17&#45;&gt;Node20</title>
<path fill="none" stroke="midnightblue" d="M1362.17,-380.456C1400.82,-372.079 1460.47,-358.487 1511.5,-344 1754.33,-275.068 1821.28,-270.698 2050.5,-165 2051.2,-164.679 2051.9,-164.343 2052.6,-163.994"/>
<polygon fill="midnightblue" stroke="midnightblue" points="2054.53,-166.926 2061.59,-159.022 2051.14,-160.802 2054.53,-166.926"/>
</g>
<!-- Node21 -->
<g id="node22" class="node"><title>Node21</title>
<g id="a_node22"><a xlink:href="Correspondence_8h.html" target="_top" xlink:title="../Elements/Correspondence.h">
<polygon fill="white" stroke="black" points="1356.5,-324.5 1356.5,-343.5 1502.5,-343.5 1502.5,-324.5 1356.5,-324.5"/>
<text text-anchor="middle" x="1429.5" y="-331.5" font-family="FreeSans" font-size="10.00">../Elements/Correspondence.h</text>
</a>
</g>
</g>
<!-- Node17&#45;&gt;Node21 -->
<g id="edge32" class="edge"><title>Node17&#45;&gt;Node21</title>
<path fill="none" stroke="midnightblue" d="M1338.85,-380.324C1356.17,-371.664 1383.02,-358.242 1403,-348.249"/>
<polygon fill="midnightblue" stroke="midnightblue" points="1404.81,-351.257 1412.19,-343.655 1401.68,-344.996 1404.81,-351.257"/>
</g>
<!-- Node22 -->
<g id="node23" class="node"><title>Node22</title>
<g id="a_node23"><a xlink:href="Correspondence_8ipp.html" target="_top" xlink:title="Correspondence.ipp">
<polygon fill="white" stroke="black" points="1378.5,-201.5 1378.5,-220.5 1480.5,-220.5 1480.5,-201.5 1378.5,-201.5"/>
<text text-anchor="middle" x="1429.5" y="-208.5" font-family="FreeSans" font-size="10.00">Correspondence.ipp</text>
</a>
</g>
</g>
<!-- Node21&#45;&gt;Node22 -->
<g id="edge33" class="edge"><title>Node21&#45;&gt;Node22</title>
<path fill="none" stroke="midnightblue" d="M1429.5,-324.298C1429.5,-304.85 1429.5,-257.49 1429.5,-230.904"/>
<polygon fill="midnightblue" stroke="midnightblue" points="1433,-230.623 1429.5,-220.623 1426,-230.623 1433,-230.623"/>
</g>
<!-- Node34 -->
<g id="node35" class="node"><title>Node34</title>
<polygon fill="white" stroke="#bfbfbf" points="814,-0.5 814,-30.5 915,-30.5 915,-0.5 814,-0.5"/>
<text text-anchor="start" x="822" y="-18.5" font-family="FreeSans" font-size="10.00">boost/range/iterator</text>
<text text-anchor="middle" x="864.5" y="-7.5" font-family="FreeSans" font-size="10.00">_range.hpp</text>
</g>
<!-- Node21&#45;&gt;Node34 -->
<g id="edge54" class="edge"><title>Node21&#45;&gt;Node34</title>
<path fill="none" stroke="midnightblue" d="M1410.41,-324.474C1358.26,-300.987 1209.48,-232.597 1091.5,-165 1017.68,-122.706 935.008,-66.1554 892.735,-36.5296"/>
<polygon fill="midnightblue" stroke="midnightblue" points="894.539,-33.5195 884.346,-30.6313 890.513,-39.2459 894.539,-33.5195"/>
</g>
<!-- Node35 -->
<g id="node36" class="node"><title>Node35</title>
<g id="a_node36"><a xlink:href="Coordinate_8h.html" target="_top" xlink:title="Coordinate.h">
<polygon fill="white" stroke="black" points="1971,-140 1971,-159 2042,-159 2042,-140 1971,-140"/>
<text text-anchor="middle" x="2006.5" y="-147" font-family="FreeSans" font-size="10.00">Coordinate.h</text>
</a>
</g>
</g>
<!-- Node21&#45;&gt;Node35 -->
<g id="edge55" class="edge"><title>Node21&#45;&gt;Node35</title>
<path fill="none" stroke="midnightblue" d="M1456.65,-324.489C1534.98,-299.915 1768.18,-226.669 1961.5,-165 1964.29,-164.111 1967.17,-163.189 1970.07,-162.26"/>
<polygon fill="midnightblue" stroke="midnightblue" points="1971.41,-165.505 1979.86,-159.113 1969.27,-158.84 1971.41,-165.505"/>
</g>
<!-- Node40 -->
<g id="node41" class="node"><title>Node40</title>
<g id="a_node41"><a xlink:href="Feature_8h.html" target="_top" xlink:title="Feature.h">
<polygon fill="white" stroke="black" points="2306,-263 2306,-282 2363,-282 2363,-263 2306,-263"/>
<text text-anchor="middle" x="2334.5" y="-270" font-family="FreeSans" font-size="10.00">Feature.h</text>
</a>
</g>
</g>
<!-- Node21&#45;&gt;Node40 -->
<g id="edge70" class="edge"><title>Node21&#45;&gt;Node40</title>
<path fill="none" stroke="midnightblue" d="M1502.79,-328.181C1685.7,-316.156 2157.5,-285.137 2295.84,-276.042"/>
<polygon fill="midnightblue" stroke="midnightblue" points="2296.21,-279.525 2305.96,-275.377 2295.75,-272.54 2296.21,-279.525"/>
</g>
<!-- Node22&#45;&gt;Node1 -->
<g id="edge36" class="edge"><title>Node22&#45;&gt;Node1</title>
<path fill="none" stroke="midnightblue" d="M1378.22,-210.022C1301.12,-208.84 1160.99,-201.565 1129.5,-165 1117.54,-151.117 1123.78,-89.0108 1137.5,-67 1148.06,-50.0641 1166.63,-37.703 1183,-29.4505"/>
<polygon fill="midnightblue" stroke="midnightblue" points="1184.76,-32.4925 1192.31,-25.0628 1181.77,-26.1606 1184.76,-32.4925"/>
</g>
<!-- Node22&#45;&gt;Node3 -->
<g id="edge40" class="edge"><title>Node22&#45;&gt;Node3</title>
<path fill="none" stroke="midnightblue" d="M1480.51,-206.016C1528.68,-200.9 1602.17,-189.548 1661.5,-165 1684.28,-155.575 1685.88,-145.842 1707.5,-134 1790.11,-88.7585 1893.67,-47.954 1945.6,-28.5063"/>
<polygon fill="midnightblue" stroke="midnightblue" points="1946.83,-31.7845 1954.98,-25.0168 1944.39,-25.2239 1946.83,-31.7845"/>
</g>
<!-- Node22&#45;&gt;Node4 -->
<g id="edge47" class="edge"><title>Node22&#45;&gt;Node4</title>
<path fill="none" stroke="midnightblue" d="M1480.66,-207.533C1586.45,-202.044 1825.96,-187.503 1904.5,-165 1906.17,-164.52 1907.87,-163.945 1909.55,-163.304"/>
<polygon fill="midnightblue" stroke="midnightblue" points="1911.18,-166.408 1918.88,-159.123 1908.32,-160.02 1911.18,-166.408"/>
</g>
<!-- Node22&#45;&gt;Node5 -->
<g id="edge43" class="edge"><title>Node22&#45;&gt;Node5</title>
<path fill="none" stroke="midnightblue" d="M1480.54,-208.51C1536.16,-205.304 1626.78,-195.389 1698.5,-165 1719.86,-155.948 1719.69,-144.266 1740.5,-134 1814.55,-97.4647 2020.2,-60.0251 2097.5,-31 2098.93,-30.4648 2100.38,-29.8914 2101.83,-29.293"/>
<polygon fill="midnightblue" stroke="midnightblue" points="2103.58,-32.3471 2111.33,-25.1163 2100.76,-25.9398 2103.58,-32.3471"/>
</g>
<!-- Node22&#45;&gt;Node10 -->
<g id="edge41" class="edge"><title>Node22&#45;&gt;Node10</title>
<path fill="none" stroke="midnightblue" d="M1378.38,-209.719C1303.52,-208.099 1169.67,-200.208 1139.5,-165 1122.16,-144.758 1143.88,-79.8427 1156.5,-67 1199.12,-23.6211 1231.42,-51.9588 1288.5,-31 1290.11,-30.4087 1291.75,-29.7663 1293.4,-29.0919"/>
<polygon fill="midnightblue" stroke="midnightblue" points="1294.92,-32.2436 1302.67,-25.0115 1292.1,-25.8368 1294.92,-32.2436"/>
</g>
<!-- Node22&#45;&gt;Node11 -->
<g id="edge49" class="edge"><title>Node22&#45;&gt;Node11</title>
<path fill="none" stroke="midnightblue" d="M1378.45,-203.8C1312.2,-195.616 1193.04,-180.432 1091.5,-165 916.758,-138.444 862.505,-166.334 699.5,-98 677.772,-88.8914 678.291,-75.956 656.5,-67 560.801,-27.668 526.711,-56.7499 426.5,-31 423.52,-30.2342 420.45,-29.3337 417.4,-28.3627"/>
<polygon fill="midnightblue" stroke="midnightblue" points="418.445,-25.0214 407.851,-25.0988 416.181,-31.6451 418.445,-25.0214"/>
</g>
<!-- Node22&#45;&gt;Node12 -->
<g id="edge53" class="edge"><title>Node22&#45;&gt;Node12</title>
<path fill="none" stroke="midnightblue" d="M1378.41,-206.213C1276.98,-198.66 1043.04,-181.066 846.5,-165 820.613,-162.884 792.49,-160.493 766.791,-158.272"/>
<polygon fill="midnightblue" stroke="midnightblue" points="766.961,-154.773 756.696,-157.397 766.357,-161.747 766.961,-154.773"/>
</g>
<!-- Node22&#45;&gt;Node19 -->
<g id="edge45" class="edge"><title>Node22&#45;&gt;Node19</title>
<path fill="none" stroke="midnightblue" d="M1378.25,-210.352C1291.06,-209.244 1128.39,-198.768 1183.5,-134 1215.89,-95.9369 1358.02,-113.589 1405.5,-98 1457.09,-81.0626 1512.47,-49.1803 1542.34,-30.7117"/>
<polygon fill="midnightblue" stroke="midnightblue" points="1544.48,-33.4975 1551.1,-25.2227 1540.77,-27.5653 1544.48,-33.4975"/>
</g>
<!-- Node23 -->
<g id="node24" class="node"><title>Node23</title>
<polygon fill="white" stroke="#bfbfbf" points="1193,-140 1193,-159 1310,-159 1310,-140 1193,-140"/>
<text text-anchor="middle" x="1251.5" y="-147" font-family="FreeSans" font-size="10.00">boost/bimap/bimap.hpp</text>
</g>
<!-- Node22&#45;&gt;Node23 -->
<g id="edge34" class="edge"><title>Node22&#45;&gt;Node23</title>
<path fill="none" stroke="midnightblue" d="M1404,-201.475C1373.2,-191.18 1321.23,-173.81 1286.65,-162.25"/>
<polygon fill="midnightblue" stroke="midnightblue" points="1287.55,-158.86 1276.96,-159.009 1285.33,-165.499 1287.55,-158.86"/>
</g>
<!-- Node24 -->
<g id="node25" class="node"><title>Node24</title>
<polygon fill="white" stroke="#bfbfbf" points="1328,-140 1328,-159 1445,-159 1445,-140 1328,-140"/>
<text text-anchor="middle" x="1386.5" y="-147" font-family="FreeSans" font-size="10.00">boost/bimap/list_of.hpp</text>
</g>
<!-- Node22&#45;&gt;Node24 -->
<g id="edge35" class="edge"><title>Node22&#45;&gt;Node24</title>
<path fill="none" stroke="midnightblue" d="M1423.34,-201.475C1416.89,-192.55 1406.6,-178.307 1398.53,-167.143"/>
<polygon fill="midnightblue" stroke="midnightblue" points="1401.34,-165.064 1392.65,-159.009 1395.67,-169.164 1401.34,-165.064"/>
</g>
<!-- Node25 -->
<g id="node26" class="node"><title>Node25</title>
<polygon fill="white" stroke="#bfbfbf" points="1775.5,-6 1775.5,-25 1903.5,-25 1903.5,-6 1775.5,-6"/>
<text text-anchor="middle" x="1839.5" y="-13" font-family="FreeSans" font-size="10.00">boost/range/concepts.hpp</text>
</g>
<!-- Node22&#45;&gt;Node25 -->
<g id="edge37" class="edge"><title>Node22&#45;&gt;Node25</title>
<path fill="none" stroke="midnightblue" d="M1480.77,-203.784C1521.36,-197.568 1578.79,-185.843 1625.5,-165 1647.35,-155.252 1649.88,-147.69 1669.5,-134 1723.06,-96.6258 1786.4,-52.9935 1818.54,-30.8995"/>
<polygon fill="midnightblue" stroke="midnightblue" points="1820.84,-33.5616 1827.1,-25.0129 1816.88,-27.7928 1820.84,-33.5616"/>
</g>
<!-- Node26 -->
<g id="node27" class="node"><title>Node26</title>
<polygon fill="white" stroke="#bfbfbf" points="1366.5,-6 1366.5,-25 1516.5,-25 1516.5,-6 1366.5,-6"/>
<text text-anchor="middle" x="1441.5" y="-13" font-family="FreeSans" font-size="10.00">boost/range/metafunctions.hpp</text>
</g>
<!-- Node22&#45;&gt;Node26 -->
<g id="edge38" class="edge"><title>Node22&#45;&gt;Node26</title>
<path fill="none" stroke="midnightblue" d="M1378.2,-209.354C1305.78,-207.232 1179.17,-198.665 1150.5,-165 1125.63,-135.802 1173.68,-74.5151 1183.5,-67 1191.4,-60.9564 1308.14,-39.7319 1381.86,-26.8004"/>
<polygon fill="midnightblue" stroke="midnightblue" points="1382.71,-30.2045 1391.95,-25.0332 1381.5,-23.3093 1382.71,-30.2045"/>
</g>
<!-- Node27 -->
<g id="node28" class="node"><title>Node27</title>
<polygon fill="white" stroke="#bfbfbf" points="1005.5,-6 1005.5,-25 1133.5,-25 1133.5,-6 1005.5,-6"/>
<text text-anchor="middle" x="1069.5" y="-13" font-family="FreeSans" font-size="10.00">boost/range/functions.hpp</text>
</g>
<!-- Node22&#45;&gt;Node27 -->
<g id="edge39" class="edge"><title>Node22&#45;&gt;Node27</title>
<path fill="none" stroke="midnightblue" d="M1378.21,-208.906C1300.48,-206.221 1157.82,-196.957 1119.5,-165 1080.24,-132.259 1071.68,-67.5661 1069.9,-35.4736"/>
<polygon fill="midnightblue" stroke="midnightblue" points="1073.39,-35.1032 1069.51,-25.2447 1066.39,-35.3715 1073.39,-35.1032"/>
</g>
<!-- Node28 -->
<g id="node29" class="node"><title>Node28</title>
<polygon fill="white" stroke="#bfbfbf" points="1710,-6 1710,-25 1757,-25 1757,-6 1710,-6"/>
<text text-anchor="middle" x="1733.5" y="-13" font-family="FreeSans" font-size="10.00">iterator</text>
</g>
<!-- Node22&#45;&gt;Node28 -->
<g id="edge42" class="edge"><title>Node22&#45;&gt;Node28</title>
<path fill="none" stroke="midnightblue" d="M1434.02,-201.238C1442.86,-185.051 1464.09,-150.601 1492.5,-134 1570.1,-88.6549 1619.24,-151.457 1691.5,-98 1712.36,-82.5679 1723.68,-53.7444 1729.16,-34.8404"/>
<polygon fill="midnightblue" stroke="midnightblue" points="1732.58,-35.5935 1731.73,-25.0325 1725.81,-33.8157 1732.58,-35.5935"/>
</g>
<!-- Node29 -->
<g id="node30" class="node"><title>Node29</title>
<polygon fill="white" stroke="#bfbfbf" points="1861,-140 1861,-159 1896,-159 1896,-140 1861,-140"/>
<text text-anchor="middle" x="1878.5" y="-147" font-family="FreeSans" font-size="10.00">map</text>
</g>
<!-- Node22&#45;&gt;Node29 -->
<g id="edge44" class="edge"><title>Node22&#45;&gt;Node29</title>
<path fill="none" stroke="midnightblue" d="M1480.79,-210.816C1561.51,-210.718 1722.32,-204.895 1851.5,-165 1852.93,-164.558 1854.37,-164.039 1855.8,-163.464"/>
<polygon fill="midnightblue" stroke="midnightblue" points="1857.42,-166.57 1864.94,-159.101 1854.4,-160.254 1857.42,-166.57"/>
</g>
<!-- Node30 -->
<g id="node31" class="node"><title>Node30</title>
<polygon fill="white" stroke="#bfbfbf" points="1501.5,-140 1501.5,-159 1539.5,-159 1539.5,-140 1501.5,-140"/>
<text text-anchor="middle" x="1520.5" y="-147" font-family="FreeSans" font-size="10.00">tuple</text>
</g>
<!-- Node22&#45;&gt;Node30 -->
<g id="edge46" class="edge"><title>Node22&#45;&gt;Node30</title>
<path fill="none" stroke="midnightblue" d="M1442.54,-201.475C1457.27,-191.843 1481.47,-176.017 1499.01,-164.552"/>
<polygon fill="midnightblue" stroke="midnightblue" points="1501.03,-167.411 1507.49,-159.009 1497.2,-161.552 1501.03,-167.411"/>
</g>
<!-- Node31 -->
<g id="node32" class="node"><title>Node31</title>
<polygon fill="white" stroke="#bfbfbf" points="1558,-140 1558,-159 1617,-159 1617,-140 1558,-140"/>
<text text-anchor="middle" x="1587.5" y="-147" font-family="FreeSans" font-size="10.00">functional</text>
</g>
<!-- Node22&#45;&gt;Node31 -->
<g id="edge48" class="edge"><title>Node22&#45;&gt;Node31</title>
<path fill="none" stroke="midnightblue" d="M1452.14,-201.475C1479.24,-191.269 1524.81,-174.108 1555.5,-162.549"/>
<polygon fill="midnightblue" stroke="midnightblue" points="1556.78,-165.809 1564.9,-159.009 1554.31,-159.258 1556.78,-165.809"/>
</g>
<!-- Node32 -->
<g id="node33" class="node"><title>Node32</title>
<g id="a_node33"><a xlink:href="FeatureConcept_8h.html" target="_top" xlink:title="FeatureConcept.h">
<polygon fill="white" stroke="black" points="1750,-140 1750,-159 1843,-159 1843,-140 1750,-140"/>
<text text-anchor="middle" x="1796.5" y="-147" font-family="FreeSans" font-size="10.00">FeatureConcept.h</text>
</a>
</g>
</g>
<!-- Node22&#45;&gt;Node32 -->
<g id="edge50" class="edge"><title>Node22&#45;&gt;Node32</title>
<path fill="none" stroke="midnightblue" d="M1480.62,-203.869C1541.57,-196.241 1646.38,-182.111 1735.5,-165 1741.25,-163.895 1747.28,-162.615 1753.22,-161.28"/>
<polygon fill="midnightblue" stroke="midnightblue" points="1754.1,-164.669 1763.05,-159.006 1752.52,-157.849 1754.1,-164.669"/>
</g>
<!-- Node33 -->
<g id="node34" class="node"><title>Node33</title>
<g id="a_node34"><a xlink:href="FeatureConcept_8ipp.html" target="_top" xlink:title="FeatureConcept.ipp">
<polygon fill="white" stroke="black" points="1193,-73 1193,-92 1294,-92 1294,-73 1193,-73"/>
<text text-anchor="middle" x="1243.5" y="-80" font-family="FreeSans" font-size="10.00">FeatureConcept.ipp</text>
</a>
</g>
</g>
<!-- Node32&#45;&gt;Node33 -->
<g id="edge51" class="edge"><title>Node32&#45;&gt;Node33</title>
<path fill="none" stroke="midnightblue" d="M1749.81,-144.53C1644.04,-135.403 1388.73,-112.595 1303.5,-98 1297.61,-96.9919 1291.45,-95.7354 1285.4,-94.3866"/>
<polygon fill="midnightblue" stroke="midnightblue" points="1285.94,-90.9191 1275.41,-92.0568 1284.35,-97.7362 1285.94,-90.9191"/>
</g>
<!-- Node33&#45;&gt;Node1 -->
<g id="edge52" class="edge"><title>Node33&#45;&gt;Node1</title>
<path fill="none" stroke="midnightblue" d="M1239.72,-72.7338C1235.53,-62.9877 1228.63,-46.9805 1223.27,-34.5318"/>
<polygon fill="midnightblue" stroke="midnightblue" points="1226.39,-32.9267 1219.22,-25.1273 1219.96,-35.6961 1226.39,-32.9267"/>
</g>
<!-- Node36 -->
<g id="node37" class="node"><title>Node36</title>
<g id="a_node37"><a xlink:href="Coordinate_8ipp.html" target="_top" xlink:title="Coordinate.ipp">
<polygon fill="white" stroke="black" points="1604.5,-73 1604.5,-92 1682.5,-92 1682.5,-73 1604.5,-73"/>
<text text-anchor="middle" x="1643.5" y="-80" font-family="FreeSans" font-size="10.00">Coordinate.ipp</text>
</a>
</g>
</g>
<!-- Node35&#45;&gt;Node36 -->
<g id="edge56" class="edge"><title>Node35&#45;&gt;Node36</title>
<path fill="none" stroke="midnightblue" d="M1982.41,-139.981C1975.7,-137.816 1968.37,-135.641 1961.5,-134 1867.51,-111.536 1755.45,-96.3823 1692.58,-88.91"/>
<polygon fill="midnightblue" stroke="midnightblue" points="1692.89,-85.4224 1682.55,-87.7335 1692.07,-92.3747 1692.89,-85.4224"/>
</g>
<!-- Node36&#45;&gt;Node1 -->
<g id="edge57" class="edge"><title>Node36&#45;&gt;Node1</title>
<path fill="none" stroke="midnightblue" d="M1604.26,-76.6315C1538.69,-68.338 1402.8,-50.4664 1288.5,-31 1281.32,-29.777 1273.76,-28.3895 1266.34,-26.9692"/>
<polygon fill="midnightblue" stroke="midnightblue" points="1266.84,-23.5005 1256.35,-25.0245 1265.5,-30.3715 1266.84,-23.5005"/>
</g>
<!-- Node36&#45;&gt;Node3 -->
<g id="edge61" class="edge"><title>Node36&#45;&gt;Node3</title>
<path fill="none" stroke="midnightblue" d="M1672.53,-72.9858C1680.28,-70.87 1688.67,-68.7182 1696.5,-67 1791.56,-46.1316 1816.94,-49.4479 1912.5,-31 1919.16,-29.7151 1926.17,-28.2715 1933.04,-26.8064"/>
<polygon fill="midnightblue" stroke="midnightblue" points="1933.91,-30.1984 1942.95,-24.6603 1932.43,-23.3571 1933.91,-30.1984"/>
</g>
<!-- Node36&#45;&gt;Node5 -->
<g id="edge62" class="edge"><title>Node36&#45;&gt;Node5</title>
<path fill="none" stroke="midnightblue" d="M1682.58,-81.4045C1762.18,-80.2904 1948.25,-72.9735 2097.5,-31 2099.43,-30.4571 2101.39,-29.8054 2103.34,-29.0829"/>
<polygon fill="midnightblue" stroke="midnightblue" points="2104.96,-32.1952 2112.79,-25.0576 2102.22,-25.7546 2104.96,-32.1952"/>
</g>
<!-- Node36&#45;&gt;Node10 -->
<g id="edge65" class="edge"><title>Node36&#45;&gt;Node10</title>
<path fill="none" stroke="midnightblue" d="M1604.12,-76.951C1548.48,-69.984 1444.01,-54.9086 1357.5,-31 1354.85,-30.267 1352.12,-29.4211 1349.41,-28.5138"/>
<polygon fill="midnightblue" stroke="midnightblue" points="1350.37,-25.1394 1339.77,-25.0502 1348,-31.7267 1350.37,-25.1394"/>
</g>
<!-- Node36&#45;&gt;Node11 -->
<g id="edge63" class="edge"><title>Node36&#45;&gt;Node11</title>
<path fill="none" stroke="midnightblue" d="M1604.35,-78.8247C1557.2,-75.6698 1475.58,-70.4229 1405.5,-67 1188.06,-56.3798 640.191,-72.5984 426.5,-31 423.061,-30.3305 419.522,-29.4112 416.04,-28.3577"/>
<polygon fill="midnightblue" stroke="midnightblue" points="417.097,-25.0203 406.502,-25.1292 414.852,-31.6508 417.097,-25.0203"/>
</g>
<!-- Node36&#45;&gt;Node19 -->
<g id="edge64" class="edge"><title>Node36&#45;&gt;Node19</title>
<path fill="none" stroke="midnightblue" d="M1632.85,-72.7338C1620.05,-62.208 1598.38,-44.3793 1582.87,-31.6174"/>
<polygon fill="midnightblue" stroke="midnightblue" points="1584.93,-28.7782 1574.99,-25.1273 1580.48,-34.1837 1584.93,-28.7782"/>
</g>
<!-- Node36&#45;&gt;Node25 -->
<g id="edge58" class="edge"><title>Node36&#45;&gt;Node25</title>
<path fill="none" stroke="midnightblue" d="M1669.53,-72.8685C1704.04,-61.4245 1765.08,-41.1807 1803.85,-28.3223"/>
<polygon fill="midnightblue" stroke="midnightblue" points="1805.29,-31.5336 1813.68,-25.0637 1803.08,-24.8894 1805.29,-31.5336"/>
</g>
<!-- Node36&#45;&gt;Node26 -->
<g id="edge59" class="edge"><title>Node36&#45;&gt;Node26</title>
<path fill="none" stroke="midnightblue" d="M1616.68,-72.8685C1580.96,-61.3758 1517.66,-41.0082 1477.73,-28.1586"/>
<polygon fill="midnightblue" stroke="midnightblue" points="1478.7,-24.7951 1468.11,-25.0637 1476.56,-31.4586 1478.7,-24.7951"/>
</g>
<!-- Node36&#45;&gt;Node27 -->
<g id="edge60" class="edge"><title>Node36&#45;&gt;Node27</title>
<path fill="none" stroke="midnightblue" d="M1604.37,-78.8356C1519.77,-72.7958 1313.69,-56.5701 1142.5,-31 1134.77,-29.8458 1126.62,-28.4278 1118.68,-26.9351"/>
<polygon fill="midnightblue" stroke="midnightblue" points="1119.26,-23.483 1108.78,-25.0186 1117.93,-30.3554 1119.26,-23.483"/>
</g>
<!-- Node36&#45;&gt;Node28 -->
<g id="edge69" class="edge"><title>Node36&#45;&gt;Node28</title>
<path fill="none" stroke="midnightblue" d="M1655.64,-72.7338C1670.35,-62.1106 1695.36,-44.0485 1713.06,-31.2642"/>
<polygon fill="midnightblue" stroke="midnightblue" points="1715.5,-33.8196 1721.55,-25.1273 1711.4,-28.1449 1715.5,-33.8196"/>
</g>
<!-- Node37 -->
<g id="node38" class="node"><title>Node37</title>
<polygon fill="white" stroke="#bfbfbf" points="1624.5,-6 1624.5,-25 1662.5,-25 1662.5,-6 1624.5,-6"/>
<text text-anchor="middle" x="1643.5" y="-13" font-family="FreeSans" font-size="10.00">array</text>
</g>
<!-- Node36&#45;&gt;Node37 -->
<g id="edge66" class="edge"><title>Node36&#45;&gt;Node37</title>
<path fill="none" stroke="midnightblue" d="M1643.5,-72.7338C1643.5,-63.1826 1643.5,-47.6183 1643.5,-35.2829"/>
<polygon fill="midnightblue" stroke="midnightblue" points="1647,-35.1273 1643.5,-25.1273 1640,-35.1273 1647,-35.1273"/>
</g>
<!-- Node38 -->
<g id="node39" class="node"><title>Node38</title>
<polygon fill="white" stroke="#bfbfbf" points="2032.5,-6 2032.5,-25 2088.5,-25 2088.5,-6 2032.5,-6"/>
<text text-anchor="middle" x="2060.5" y="-13" font-family="FreeSans" font-size="10.00">algorithm</text>
</g>
<!-- Node36&#45;&gt;Node38 -->
<g id="edge67" class="edge"><title>Node36&#45;&gt;Node38</title>
<path fill="none" stroke="midnightblue" d="M1682.53,-79.2922C1751.88,-74.7106 1900.73,-61.8968 2022.5,-31 2025.32,-30.2836 2028.22,-29.4216 2031.1,-28.4796"/>
<polygon fill="midnightblue" stroke="midnightblue" points="2032.43,-31.7235 2040.67,-25.0633 2030.07,-25.1314 2032.43,-31.7235"/>
</g>
<!-- Node39 -->
<g id="node40" class="node"><title>Node39</title>
<polygon fill="white" stroke="#bfbfbf" points="2169,-6 2169,-25 2214,-25 2214,-6 2169,-6"/>
<text text-anchor="middle" x="2191.5" y="-13" font-family="FreeSans" font-size="10.00">climits</text>
</g>
<!-- Node36&#45;&gt;Node39 -->
<g id="edge68" class="edge"><title>Node36&#45;&gt;Node39</title>
<path fill="none" stroke="midnightblue" d="M1682.79,-81.991C1770.1,-82.1494 1986.25,-77.3673 2159.5,-31 2161.65,-30.4235 2163.85,-29.7158 2166.02,-28.9263"/>
<polygon fill="midnightblue" stroke="midnightblue" points="2167.37,-32.154 2175.27,-25.0935 2164.7,-25.6869 2167.37,-32.154"/>
</g>
<!-- Node41 -->
<g id="node42" class="node"><title>Node41</title>
<g id="a_node42"><a xlink:href="Feature_8ipp.html" target="_top" xlink:title="Feature.ipp">
<polygon fill="white" stroke="black" points="2304,-201.5 2304,-220.5 2369,-220.5 2369,-201.5 2304,-201.5"/>
<text text-anchor="middle" x="2336.5" y="-208.5" font-family="FreeSans" font-size="10.00">Feature.ipp</text>
</a>
</g>
</g>
<!-- Node40&#45;&gt;Node41 -->
<g id="edge71" class="edge"><title>Node40&#45;&gt;Node41</title>
<path fill="none" stroke="midnightblue" d="M2334.79,-262.975C2335.07,-254.58 2335.51,-241.481 2335.87,-230.663"/>
<polygon fill="midnightblue" stroke="midnightblue" points="2339.38,-230.621 2336.21,-220.509 2332.38,-230.386 2339.38,-230.621"/>
</g>
<!-- Node41&#45;&gt;Node1 -->
<g id="edge72" class="edge"><title>Node41&#45;&gt;Node1</title>
<path fill="none" stroke="midnightblue" d="M2332.54,-201.401C2324.4,-184.844 2304,-148.862 2274.5,-134 2121.71,-57.0348 1671.67,-138.676 1505.5,-98 1473.63,-90.1987 1469.56,-77.5708 1438.5,-67 1407.46,-56.4352 1323.6,-38.4731 1268.03,-27.0622"/>
<polygon fill="midnightblue" stroke="midnightblue" points="1268.5,-23.586 1258,-25.011 1267.1,-30.444 1268.5,-23.586"/>
</g>
<!-- Node41&#45;&gt;Node4 -->
<g id="edge105" class="edge"><title>Node41&#45;&gt;Node4</title>
<path fill="none" stroke="midnightblue" d="M2303.93,-206.411C2215.74,-196.652 1977.81,-170.022 1961.5,-165 1960.03,-164.547 1958.54,-164.019 1957.06,-163.437"/>
<polygon fill="midnightblue" stroke="midnightblue" points="1958.16,-160.086 1947.61,-159.055 1955.21,-166.437 1958.16,-160.086"/>
</g>
<!-- Node41&#45;&gt;Node5 -->
<g id="edge96" class="edge"><title>Node41&#45;&gt;Node5</title>
<path fill="none" stroke="midnightblue" d="M2369.03,-202.14C2409.91,-191.936 2475.61,-174.336 2482.5,-165 2490.68,-153.915 2490.63,-145.124 2482.5,-134 2393.6,-12.3417 2299.81,-85.9227 2159.5,-31 2158.08,-30.445 2156.64,-29.8559 2155.19,-29.245"/>
<polygon fill="midnightblue" stroke="midnightblue" points="2156.27,-25.8954 2145.71,-25.0287 2153.42,-32.2911 2156.27,-25.8954"/>
</g>
<!-- Node41&#45;&gt;Node12 -->
<g id="edge118" class="edge"><title>Node41&#45;&gt;Node12</title>
<path fill="none" stroke="midnightblue" d="M2303.75,-208.825C2106.7,-201.753 1076.75,-164.792 766.821,-153.67"/>
<polygon fill="midnightblue" stroke="midnightblue" points="766.66,-150.162 756.541,-153.301 766.409,-157.157 766.66,-150.162"/>
</g>
<!-- Node41&#45;&gt;Node18 -->
<g id="edge100" class="edge"><title>Node41&#45;&gt;Node18</title>
<path fill="none" stroke="midnightblue" d="M2369.04,-203.316C2373.88,-202.455 2378.81,-201.649 2383.5,-201 2568.65,-175.39 2622.6,-215.696 2802.5,-165 2804.18,-164.528 2805.87,-163.958 2807.55,-163.321"/>
<polygon fill="midnightblue" stroke="midnightblue" points="2809.18,-166.427 2816.88,-159.15 2806.33,-160.036 2809.18,-166.427"/>
</g>
<!-- Node41&#45;&gt;Node19 -->
<g id="edge98" class="edge"><title>Node41&#45;&gt;Node19</title>
<path fill="none" stroke="midnightblue" d="M2342.17,-201.376C2351.69,-185.724 2368.18,-152.546 2350.5,-134 2292.55,-73.2164 1663.49,-147.308 1595.5,-98 1575.52,-83.5121 1568.42,-54.4303 1565.89,-35.2141"/>
<polygon fill="midnightblue" stroke="midnightblue" points="1569.37,-34.8171 1564.87,-25.2248 1562.41,-35.5289 1569.37,-34.8171"/>
</g>
<!-- Node41&#45;&gt;Node20 -->
<g id="edge101" class="edge"><title>Node41&#45;&gt;Node20</title>
<path fill="none" stroke="midnightblue" d="M2303.89,-203.738C2299.06,-202.817 2294.15,-201.882 2289.5,-201 2204.2,-184.836 2178.32,-196.713 2097.5,-165 2096.77,-164.716 2096.05,-164.407 2095.32,-164.08"/>
<polygon fill="midnightblue" stroke="midnightblue" points="2096.67,-160.826 2086.22,-159.077 2093.3,-166.961 2096.67,-160.826"/>
</g>
<!-- Node41&#45;&gt;Node25 -->
<g id="edge73" class="edge"><title>Node41&#45;&gt;Node25</title>
<path fill="none" stroke="midnightblue" d="M2369.05,-202.929C2389.39,-196.647 2414.01,-185.21 2426.5,-165 2433.74,-153.28 2435.78,-144.184 2426.5,-134 2368.32,-70.1605 2123.4,-118.519 2039.5,-98 1974.14,-82.0147 1902.13,-48.3894 1864.91,-29.7121"/>
<polygon fill="midnightblue" stroke="midnightblue" points="1866.3,-26.4914 1855.8,-25.0864 1863.13,-32.7334 1866.3,-26.4914"/>
</g>
<!-- Node41&#45;&gt;Node26 -->
<g id="edge74" class="edge"><title>Node41&#45;&gt;Node26</title>
<path fill="none" stroke="midnightblue" d="M2336.7,-201.166C2336.52,-184.859 2333.54,-150.219 2312.5,-134 2247.13,-83.608 1649.21,-122.863 1570.5,-98 1526.4,-84.0706 1482.46,-51.2429 1458.97,-31.7665"/>
<polygon fill="midnightblue" stroke="midnightblue" points="1461.17,-29.0442 1451.28,-25.2548 1456.65,-34.3871 1461.17,-29.0442"/>
</g>
<!-- Node41&#45;&gt;Node28 -->
<g id="edge102" class="edge"><title>Node41&#45;&gt;Node28</title>
<path fill="none" stroke="midnightblue" d="M2349.87,-201.438C2371.28,-186.724 2408.88,-156.093 2388.5,-134 2354.87,-97.5365 1991.9,-108.888 1943.5,-98 1874.56,-82.4901 1798.32,-48.2736 1759.43,-29.4836"/>
<polygon fill="midnightblue" stroke="midnightblue" points="1760.9,-26.3045 1750.38,-25.0597 1757.82,-32.5941 1760.9,-26.3045"/>
</g>
<!-- Node41&#45;&gt;Node29 -->
<g id="edge99" class="edge"><title>Node41&#45;&gt;Node29</title>
<path fill="none" stroke="midnightblue" d="M2303.89,-208.306C2216.58,-203.502 1979.09,-188.587 1904.5,-165 1903.25,-164.606 1902,-164.147 1900.75,-163.642"/>
<polygon fill="midnightblue" stroke="midnightblue" points="1902.04,-160.379 1891.52,-159.115 1898.96,-166.663 1902.04,-160.379"/>
</g>
<!-- Node41&#45;&gt;Node32 -->
<g id="edge114" class="edge"><title>Node41&#45;&gt;Node32</title>
<path fill="none" stroke="midnightblue" d="M2303.9,-208.835C2225.45,-205.628 2020.12,-194.839 1851.5,-165 1846.09,-164.043 1840.44,-162.817 1834.9,-161.485"/>
<polygon fill="midnightblue" stroke="midnightblue" points="1835.68,-158.074 1825.13,-159.006 1833.96,-164.858 1835.68,-158.074"/>
</g>
<!-- Node41&#45;&gt;Node35 -->
<g id="edge106" class="edge"><title>Node41&#45;&gt;Node35</title>
<path fill="none" stroke="midnightblue" d="M2304,-206.626C2250.58,-200.695 2141.13,-186.91 2050.5,-165 2047.03,-164.162 2043.45,-163.179 2039.89,-162.127"/>
<polygon fill="midnightblue" stroke="midnightblue" points="2040.63,-158.693 2030.05,-159.04 2038.54,-165.372 2040.63,-158.693"/>
</g>
<!-- Node41&#45;&gt;Node39 -->
<g id="edge103" class="edge"><title>Node41&#45;&gt;Node39</title>
<path fill="none" stroke="midnightblue" d="M2369.06,-203.443C2373.89,-202.564 2378.82,-201.719 2383.5,-201 2452.05,-190.471 2647.38,-216.79 2693.5,-165 2702.66,-154.711 2700.32,-145.972 2693.5,-134 2664.6,-83.2673 2635.96,-85.2472 2580.5,-67 2429.02,-17.1614 2377.49,-72.4553 2223.5,-31 2221.35,-30.4203 2219.16,-29.7104 2216.98,-28.9193"/>
<polygon fill="midnightblue" stroke="midnightblue" points="2218.31,-25.6802 2207.73,-25.0837 2215.63,-32.1465 2218.31,-25.6802"/>
</g>
<!-- Node42 -->
<g id="node43" class="node"><title>Node42</title>
<g id="a_node43"><a xlink:href="boost__dynamic__bitset_8hpp.html" target="_top" xlink:title="../Modified/boost_dynamic\l_bitset.hpp">
<polygon fill="white" stroke="black" points="3016.5,-67.5 3016.5,-97.5 3144.5,-97.5 3144.5,-67.5 3016.5,-67.5"/>
<text text-anchor="start" x="3024.5" y="-85.5" font-family="FreeSans" font-size="10.00">../Modified/boost_dynamic</text>
<text text-anchor="middle" x="3080.5" y="-74.5" font-family="FreeSans" font-size="10.00">_bitset.hpp</text>
</a>
</g>
</g>
<!-- Node41&#45;&gt;Node42 -->
<g id="edge75" class="edge"><title>Node41&#45;&gt;Node42</title>
<path fill="none" stroke="midnightblue" d="M2369.06,-203.396C2373.89,-202.524 2378.82,-201.693 2383.5,-201 2535.13,-178.566 2581.94,-215.974 2726.5,-165 2750.45,-156.555 2750.81,-143.148 2774.5,-134 2850.15,-104.788 2942.71,-92.4686 3006.09,-87.2766"/>
<polygon fill="midnightblue" stroke="midnightblue" points="3006.7,-90.7399 3016.39,-86.474 3006.15,-83.761 3006.7,-90.7399"/>
</g>
<!-- Node49 -->
<g id="node50" class="node"><title>Node49</title>
<polygon fill="white" stroke="#bfbfbf" points="4026.5,-6 4026.5,-25 4078.5,-25 4078.5,-6 4026.5,-6"/>
<text text-anchor="middle" x="4052.5" y="-13" font-family="FreeSans" font-size="10.00">ostream</text>
</g>
<!-- Node41&#45;&gt;Node49 -->
<g id="edge97" class="edge"><title>Node41&#45;&gt;Node49</title>
<path fill="none" stroke="midnightblue" d="M2369.05,-203.352C2373.88,-202.486 2378.81,-201.669 2383.5,-201 2551.88,-176.979 2605.28,-224.825 2764.5,-165 2786.55,-156.713 2785.41,-142.184 2807.5,-134 2870.76,-110.564 3951.95,-46.9607 4017.5,-31 4020.02,-30.3873 4022.59,-29.6201 4025.13,-28.7603"/>
<polygon fill="midnightblue" stroke="midnightblue" points="4026.59,-31.9498 4034.69,-25.1172 4024.1,-25.409 4026.59,-31.9498"/>
</g>
<!-- Node60 -->
<g id="node61" class="node"><title>Node60</title>
<polygon fill="white" stroke="#bfbfbf" points="2555,-140 2555,-159 2598,-159 2598,-140 2555,-140"/>
<text text-anchor="middle" x="2576.5" y="-147" font-family="FreeSans" font-size="10.00">queue</text>
</g>
<!-- Node41&#45;&gt;Node60 -->
<g id="edge104" class="edge"><title>Node41&#45;&gt;Node60</title>
<path fill="none" stroke="midnightblue" d="M2369.07,-203.502C2418.18,-193.588 2508.8,-174.807 2540.5,-165 2542.78,-164.294 2545.12,-163.506 2547.46,-162.672"/>
<polygon fill="midnightblue" stroke="midnightblue" points="2548.81,-165.904 2556.91,-159.076 2546.32,-159.362 2548.81,-165.904"/>
</g>
<!-- Node61 -->
<g id="node62" class="node"><title>Node61</title>
<g id="a_node62"><a xlink:href="Descriptor_8h.html" target="_top" xlink:title="Descriptor.h">
<polygon fill="white" stroke="black" points="2616.5,-140 2616.5,-159 2684.5,-159 2684.5,-140 2616.5,-140"/>
<text text-anchor="middle" x="2650.5" y="-147" font-family="FreeSans" font-size="10.00">Descriptor.h</text>
</a>
</g>
</g>
<!-- Node41&#45;&gt;Node61 -->
<g id="edge107" class="edge"><title>Node41&#45;&gt;Node61</title>
<path fill="none" stroke="midnightblue" d="M2369.09,-203.631C2373.92,-202.725 2378.84,-201.823 2383.5,-201 2482.37,-183.557 2508.96,-188.786 2606.5,-165 2609.97,-164.155 2613.55,-163.168 2617.11,-162.113"/>
<polygon fill="midnightblue" stroke="midnightblue" points="2618.46,-165.357 2626.95,-159.022 2616.36,-158.679 2618.46,-165.357"/>
</g>
<!-- Node62 -->
<g id="node63" class="node"><title>Node62</title>
<g id="a_node63"><a xlink:href="RoI_8h.html" target="_top" xlink:title="RoI.h">
<polygon fill="white" stroke="black" points="2109,-73 2109,-92 2148,-92 2148,-73 2109,-73"/>
<text text-anchor="middle" x="2128.5" y="-80" font-family="FreeSans" font-size="10.00">RoI.h</text>
</a>
</g>
</g>
<!-- Node41&#45;&gt;Node62 -->
<g id="edge111" class="edge"><title>Node41&#45;&gt;Node62</title>
<path fill="none" stroke="midnightblue" d="M2369.32,-203.728C2416.69,-193.277 2495.36,-169.842 2464.5,-134 2425.07,-88.1963 2233.47,-83.3637 2158.58,-83.2586"/>
<polygon fill="midnightblue" stroke="midnightblue" points="2158.41,-79.7588 2148.41,-83.2731 2158.42,-86.7588 2158.41,-79.7588"/>
</g>
<!-- Node63 -->
<g id="node64" class="node"><title>Node63</title>
<g id="a_node64"><a xlink:href="TaggedData_8h.html" target="_top" xlink:title="../DataStructures/Tagged\lData.h">
<polygon fill="white" stroke="black" points="2107,-134.5 2107,-164.5 2232,-164.5 2232,-134.5 2107,-134.5"/>
<text text-anchor="start" x="2115" y="-152.5" font-family="FreeSans" font-size="10.00">../DataStructures/Tagged</text>
<text text-anchor="middle" x="2169.5" y="-141.5" font-family="FreeSans" font-size="10.00">Data.h</text>
</a>
</g>
</g>
<!-- Node41&#45;&gt;Node63 -->
<g id="edge115" class="edge"><title>Node41&#45;&gt;Node63</title>
<path fill="none" stroke="midnightblue" d="M2312.57,-201.475C2288.16,-192.776 2249.57,-179.026 2218.61,-167.998"/>
<polygon fill="midnightblue" stroke="midnightblue" points="2219.45,-164.582 2208.86,-164.523 2217.1,-171.176 2219.45,-164.582"/>
</g>
<!-- Node65 -->
<g id="node66" class="node"><title>Node65</title>
<polygon fill="white" stroke="#bfbfbf" points="933.5,-6 933.5,-25 987.5,-25 987.5,-6 933.5,-6"/>
<text text-anchor="middle" x="960.5" y="-13" font-family="FreeSans" font-size="10.00">iostream</text>
</g>
<!-- Node41&#45;&gt;Node65 -->
<g id="edge119" class="edge"><title>Node41&#45;&gt;Node65</title>
<path fill="none" stroke="midnightblue" d="M2323.84,-201.432C2311.09,-192.658 2291,-178.44 2274.5,-165 2258.65,-152.085 2259.4,-141.814 2240.5,-134 2075.64,-65.8328 1602.85,-167.392 1438.5,-98 1419.96,-90.1728 1423.87,-75.2233 1405.5,-67 1238.95,7.57092 1173.95,-73.5507 996.5,-31 993.828,-30.3593 991.094,-29.5547 988.385,-28.6548"/>
<polygon fill="midnightblue" stroke="midnightblue" points="989.434,-25.3109 978.842,-25.1 986.991,-31.8706 989.434,-25.3109"/>
</g>
<!-- Node42&#45;&gt;Node5 -->
<g id="edge80" class="edge"><title>Node42&#45;&gt;Node5</title>
<path fill="none" stroke="midnightblue" d="M3016.33,-68.8299C3011.66,-68.1357 3007.02,-67.5136 3002.5,-67 2816.2,-45.8126 2341.63,-75.5874 2159.5,-31 2157.51,-30.5126 2155.49,-29.8932 2153.49,-29.1862"/>
<polygon fill="midnightblue" stroke="midnightblue" points="2154.4,-25.7738 2143.83,-25.1276 2151.69,-32.2275 2154.4,-25.7738"/>
</g>
<!-- Node42&#45;&gt;Node38 -->
<g id="edge79" class="edge"><title>Node42&#45;&gt;Node38</title>
<path fill="none" stroke="midnightblue" d="M3016.5,-74.7447C2988.84,-72.015 2956.1,-69.0352 2926.5,-67 2742.54,-54.3532 2277.9,-69.1592 2097.5,-31 2094.49,-30.3638 2091.41,-29.5097 2088.37,-28.5328"/>
<polygon fill="midnightblue" stroke="midnightblue" points="2089.55,-25.2363 2078.95,-25.1107 2087.16,-31.8155 2089.55,-25.2363"/>
</g>
<!-- Node42&#45;&gt;Node39 -->
<g id="edge81" class="edge"><title>Node42&#45;&gt;Node39</title>
<path fill="none" stroke="midnightblue" d="M3016.33,-68.8479C3011.66,-68.1495 3007.02,-67.5215 3002.5,-67 2830.35,-47.1166 2392,-71.4881 2223.5,-31 2221.28,-30.4674 2219.03,-29.7813 2216.8,-28.9977"/>
<polygon fill="midnightblue" stroke="midnightblue" points="2217.93,-25.6786 2207.35,-25.1138 2215.27,-32.1529 2217.93,-25.6786"/>
</g>
<!-- Node43 -->
<g id="node44" class="node"><title>Node43</title>
<polygon fill="white" stroke="#bfbfbf" points="3315,-6 3315,-25 3366,-25 3366,-6 3315,-6"/>
<text text-anchor="middle" x="3340.5" y="-13" font-family="FreeSans" font-size="10.00">assert.h</text>
</g>
<!-- Node42&#45;&gt;Node43 -->
<g id="edge76" class="edge"><title>Node42&#45;&gt;Node43</title>
<path fill="none" stroke="midnightblue" d="M3144.66,-68.3837C3200.17,-56.7995 3276.02,-40.3393 3305.5,-31 3307.64,-30.3222 3309.83,-29.5675 3312.02,-28.7683"/>
<polygon fill="midnightblue" stroke="midnightblue" points="3313.42,-31.9788 3321.46,-25.0816 3310.88,-25.4582 3313.42,-31.9788"/>
</g>
<!-- Node44 -->
<g id="node45" class="node"><title>Node44</title>
<polygon fill="white" stroke="#bfbfbf" points="3384,-6 3384,-25 3425,-25 3425,-6 3384,-6"/>
<text text-anchor="middle" x="3404.5" y="-13" font-family="FreeSans" font-size="10.00">string</text>
</g>
<!-- Node42&#45;&gt;Node44 -->
<g id="edge77" class="edge"><title>Node42&#45;&gt;Node44</title>
<path fill="none" stroke="midnightblue" d="M3144.76,-69.453C3149.4,-68.6127 3154.02,-67.7873 3158.5,-67 3254.78,-50.0653 3282.52,-61.1978 3375.5,-31 3377.12,-30.474 3378.76,-29.8699 3380.4,-29.2134"/>
<polygon fill="midnightblue" stroke="midnightblue" points="3381.86,-32.3921 3389.51,-25.061 3378.96,-26.0221 3381.86,-32.3921"/>
</g>
<!-- Node45 -->
<g id="node46" class="node"><title>Node45</title>
<polygon fill="white" stroke="#bfbfbf" points="3443,-6 3443,-25 3502,-25 3502,-6 3443,-6"/>
<text text-anchor="middle" x="3472.5" y="-13" font-family="FreeSans" font-size="10.00">stdexcept</text>
</g>
<!-- Node42&#45;&gt;Node45 -->
<g id="edge78" class="edge"><title>Node42&#45;&gt;Node45</title>
<path fill="none" stroke="midnightblue" d="M3144.73,-69.276C3149.38,-68.4771 3154.01,-67.7096 3158.5,-67 3280.69,-47.6883 3314.55,-61.2593 3434.5,-31 3437.32,-30.2875 3440.22,-29.4282 3443.1,-28.4878"/>
<polygon fill="midnightblue" stroke="midnightblue" points="3444.43,-31.7321 3452.67,-25.074 3442.07,-25.1395 3444.43,-31.7321"/>
</g>
<!-- Node46 -->
<g id="node47" class="node"><title>Node46</title>
<polygon fill="white" stroke="#bfbfbf" points="3520,-0.5 3520,-30.5 3629,-30.5 3629,-0.5 3520,-0.5"/>
<text text-anchor="start" x="3528" y="-18.5" font-family="FreeSans" font-size="10.00">boost/dynamic_bitset</text>
<text text-anchor="middle" x="3574.5" y="-7.5" font-family="FreeSans" font-size="10.00">/config.hpp</text>
</g>
<!-- Node42&#45;&gt;Node46 -->
<g id="edge82" class="edge"><title>Node42&#45;&gt;Node46</title>
<path fill="none" stroke="midnightblue" d="M3144.7,-69.1324C3149.37,-68.3672 3154,-67.6465 3158.5,-67 3311.4,-45.0297 3354.17,-56.2514 3510.01,-31.1206"/>
<polygon fill="midnightblue" stroke="midnightblue" points="3510.64,-34.5632 3519.95,-29.4937 3509.51,-27.6551 3510.64,-34.5632"/>
</g>
<!-- Node47 -->
<g id="node48" class="node"><title>Node47</title>
<polygon fill="white" stroke="#bfbfbf" points="3647.5,-6 3647.5,-25 3689.5,-25 3689.5,-6 3647.5,-6"/>
<text text-anchor="middle" x="3668.5" y="-13" font-family="FreeSans" font-size="10.00">locale</text>
</g>
<!-- Node42&#45;&gt;Node47 -->
<g id="edge83" class="edge"><title>Node42&#45;&gt;Node47</title>
<path fill="none" stroke="midnightblue" d="M3144.69,-68.9952C3149.35,-68.2622 3153.99,-67.5862 3158.5,-67 3370.65,-39.4093 3431.9,-86.5234 3638.5,-31 3640.43,-30.482 3642.38,-29.8403 3644.32,-29.1176"/>
<polygon fill="midnightblue" stroke="midnightblue" points="3645.91,-32.2418 3653.67,-25.0273 3643.1,-25.8286 3645.91,-32.2418"/>
</g>
<!-- Node48 -->
<g id="node49" class="node"><title>Node48</title>
<polygon fill="white" stroke="#bfbfbf" points="3708,-6 3708,-25 3757,-25 3757,-6 3708,-6"/>
<text text-anchor="middle" x="3732.5" y="-13" font-family="FreeSans" font-size="10.00">istream</text>
</g>
<!-- Node42&#45;&gt;Node48 -->
<g id="edge84" class="edge"><title>Node42&#45;&gt;Node48</title>
<path fill="none" stroke="midnightblue" d="M3144.68,-68.9526C3149.35,-68.2297 3153.99,-67.5675 3158.5,-67 3397.15,-36.9678 3464.57,-86.9694 3698.5,-31 3701.01,-30.399 3703.57,-29.6285 3706.11,-28.7567"/>
<polygon fill="midnightblue" stroke="midnightblue" points="3707.56,-31.9487 3715.59,-25.0366 3705,-25.4328 3707.56,-31.9487"/>
</g>
<!-- Node42&#45;&gt;Node49 -->
<g id="edge85" class="edge"><title>Node42&#45;&gt;Node49</title>
<path fill="none" stroke="midnightblue" d="M3144.66,-68.8258C3149.34,-68.1326 3153.98,-67.5118 3158.5,-67 3348.34,-45.4865 3830.94,-72.1948 4017.5,-31 4020.18,-30.4088 4022.91,-29.6257 4025.61,-28.7287"/>
<polygon fill="midnightblue" stroke="midnightblue" points="4026.99,-31.9504 4035.09,-25.1216 4024.5,-25.4084 4026.99,-31.9504"/>
</g>
<!-- Node50 -->
<g id="node51" class="node"><title>Node50</title>
<polygon fill="white" stroke="#bfbfbf" points="3775,-0.5 3775,-30.5 3884,-30.5 3884,-0.5 3775,-0.5"/>
<text text-anchor="start" x="3783" y="-18.5" font-family="FreeSans" font-size="10.00">boost/dynamic_bitset</text>
<text text-anchor="middle" x="3829.5" y="-7.5" font-family="FreeSans" font-size="10.00">_fwd.hpp</text>
</g>
<!-- Node42&#45;&gt;Node50 -->
<g id="edge86" class="edge"><title>Node42&#45;&gt;Node50</title>
<path fill="none" stroke="midnightblue" d="M3144.68,-68.9145C3149.34,-68.2005 3153.99,-67.5508 3158.5,-67 3423.92,-34.5997 3496.78,-68.6405 3764.94,-31.0638"/>
<polygon fill="midnightblue" stroke="midnightblue" points="3765.56,-34.5103 3774.97,-29.6376 3764.58,-27.58 3765.56,-34.5103"/>
</g>
<!-- Node51 -->
<g id="node52" class="node"><title>Node51</title>
<polygon fill="white" stroke="#bfbfbf" points="3902.5,-0.5 3902.5,-30.5 4008.5,-30.5 4008.5,-0.5 3902.5,-0.5"/>
<text text-anchor="start" x="3910.5" y="-18.5" font-family="FreeSans" font-size="10.00">boost/detail/dynamic</text>
<text text-anchor="middle" x="3955.5" y="-7.5" font-family="FreeSans" font-size="10.00">_bitset.hpp</text>
</g>
<!-- Node42&#45;&gt;Node51 -->
<g id="edge87" class="edge"><title>Node42&#45;&gt;Node51</title>
<path fill="none" stroke="midnightblue" d="M3144.67,-68.8621C3149.34,-68.1604 3153.99,-67.5277 3158.5,-67 3480.02,-29.4155 3567.82,-75.4623 3892.03,-31.0255"/>
<polygon fill="midnightblue" stroke="midnightblue" points="3892.76,-34.4578 3902.18,-29.615 3891.79,-27.5243 3892.76,-34.4578"/>
</g>
<!-- Node52 -->
<g id="node53" class="node"><title>Node52</title>
<polygon fill="white" stroke="#bfbfbf" points="2232.5,-6 2232.5,-25 2350.5,-25 2350.5,-6 2232.5,-6"/>
<text text-anchor="middle" x="2291.5" y="-13" font-family="FreeSans" font-size="10.00">boost/detail/iterator.hpp</text>
</g>
<!-- Node42&#45;&gt;Node52 -->
<g id="edge88" class="edge"><title>Node42&#45;&gt;Node52</title>
<path fill="none" stroke="midnightblue" d="M3016.33,-68.898C3011.66,-68.1879 3007.01,-67.5435 3002.5,-67 2718.33,-32.7739 2643.2,-68.9584 2359.5,-31 2352.01,-29.9982 2344.12,-28.6198 2336.47,-27.1087"/>
<polygon fill="midnightblue" stroke="midnightblue" points="2337.12,-23.6672 2326.61,-25.0663 2335.7,-30.5217 2337.12,-23.6672"/>
</g>
<!-- Node53 -->
<g id="node54" class="node"><title>Node53</title>
<polygon fill="white" stroke="#bfbfbf" points="2369,-6 2369,-25 2482,-25 2482,-6 2369,-6"/>
<text text-anchor="middle" x="2425.5" y="-13" font-family="FreeSans" font-size="10.00">boost/move/move.hpp</text>
</g>
<!-- Node42&#45;&gt;Node53 -->
<g id="edge89" class="edge"><title>Node42&#45;&gt;Node53</title>
<path fill="none" stroke="midnightblue" d="M3016.32,-68.9712C3011.65,-68.2439 3007.01,-67.5757 3002.5,-67 2776.22,-38.1073 2716.23,-63.9251 2490.5,-31 2483.66,-30.0021 2476.47,-28.6793 2469.46,-27.2377"/>
<polygon fill="midnightblue" stroke="midnightblue" points="2469.91,-23.7535 2459.39,-25.0648 2468.43,-30.5959 2469.91,-23.7535"/>
</g>
<!-- Node54 -->
<g id="node55" class="node"><title>Node54</title>
<polygon fill="white" stroke="#bfbfbf" points="2500,-6 2500,-25 2585,-25 2585,-6 2500,-6"/>
<text text-anchor="middle" x="2542.5" y="-13" font-family="FreeSans" font-size="10.00">boost/limits.hpp</text>
</g>
<!-- Node42&#45;&gt;Node54 -->
<g id="edge90" class="edge"><title>Node42&#45;&gt;Node54</title>
<path fill="none" stroke="midnightblue" d="M3016.31,-69.0615C3011.64,-68.313 3007,-67.6153 3002.5,-67 2821.7,-42.2959 2772.95,-64.1 2593.5,-31 2588.72,-30.1177 2583.73,-28.9818 2578.84,-27.7346"/>
<polygon fill="midnightblue" stroke="midnightblue" points="2579.58,-24.3077 2569.01,-25.0638 2577.74,-31.0629 2579.58,-24.3077"/>
</g>
<!-- Node55 -->
<g id="node56" class="node"><title>Node55</title>
<polygon fill="white" stroke="#bfbfbf" points="2603,-0.5 2603,-30.5 2712,-30.5 2712,-0.5 2603,-0.5"/>
<text text-anchor="start" x="2611" y="-18.5" font-family="FreeSans" font-size="10.00">boost/pending/lowest</text>
<text text-anchor="middle" x="2657.5" y="-7.5" font-family="FreeSans" font-size="10.00">_bit.hpp</text>
</g>
<!-- Node42&#45;&gt;Node55 -->
<g id="edge91" class="edge"><title>Node42&#45;&gt;Node55</title>
<path fill="none" stroke="midnightblue" d="M3016.28,-69.2643C3011.62,-68.4682 3006.99,-67.7044 3002.5,-67 2881.27,-47.9817 2847.2,-52.675 2722.2,-31.0114"/>
<polygon fill="midnightblue" stroke="midnightblue" points="2722.7,-27.5452 2712.24,-29.2637 2721.49,-34.4398 2722.7,-27.5452"/>
</g>
<!-- Node56 -->
<g id="node57" class="node"><title>Node56</title>
<polygon fill="white" stroke="#bfbfbf" points="2730.5,-6 2730.5,-25 2848.5,-25 2848.5,-6 2730.5,-6"/>
<text text-anchor="middle" x="2789.5" y="-13" font-family="FreeSans" font-size="10.00">boost/static_assert.hpp</text>
</g>
<!-- Node42&#45;&gt;Node56 -->
<g id="edge92" class="edge"><title>Node42&#45;&gt;Node56</title>
<path fill="none" stroke="midnightblue" d="M3017.72,-67.476C2963.63,-55.3953 2886.71,-38.2145 2837.45,-27.2112"/>
<polygon fill="midnightblue" stroke="midnightblue" points="2838.2,-23.7929 2827.68,-25.0287 2836.68,-30.6245 2838.2,-23.7929"/>
</g>
<!-- Node57 -->
<g id="node58" class="node"><title>Node57</title>
<polygon fill="white" stroke="#bfbfbf" points="2866.5,-6 2866.5,-25 2996.5,-25 2996.5,-6 2866.5,-6"/>
<text text-anchor="middle" x="2931.5" y="-13" font-family="FreeSans" font-size="10.00">boost/utility/addressof.hpp</text>
</g>
<!-- Node42&#45;&gt;Node57 -->
<g id="edge93" class="edge"><title>Node42&#45;&gt;Node57</title>
<path fill="none" stroke="midnightblue" d="M3048.17,-67.396C3022.03,-55.991 2985.55,-40.0794 2960.38,-29.0976"/>
<polygon fill="midnightblue" stroke="midnightblue" points="2961.57,-25.7975 2951,-25.007 2958.77,-32.2136 2961.57,-25.7975"/>
</g>
<!-- Node58 -->
<g id="node59" class="node"><title>Node58</title>
<polygon fill="white" stroke="#bfbfbf" points="3014.5,-0.5 3014.5,-30.5 3146.5,-30.5 3146.5,-0.5 3014.5,-0.5"/>
<text text-anchor="start" x="3022.5" y="-18.5" font-family="FreeSans" font-size="10.00">boost/detail/no_exceptions</text>
<text text-anchor="middle" x="3080.5" y="-7.5" font-family="FreeSans" font-size="10.00">_support.hpp</text>
</g>
<!-- Node42&#45;&gt;Node58 -->
<g id="edge94" class="edge"><title>Node42&#45;&gt;Node58</title>
<path fill="none" stroke="midnightblue" d="M3080.5,-67.396C3080.5,-59.6448 3080.5,-49.8122 3080.5,-40.8601"/>
<polygon fill="midnightblue" stroke="midnightblue" points="3084,-40.5765 3080.5,-30.5765 3077,-40.5765 3084,-40.5765"/>
</g>
<!-- Node59 -->
<g id="node60" class="node"><title>Node59</title>
<polygon fill="white" stroke="#bfbfbf" points="3164.5,-6 3164.5,-25 3296.5,-25 3296.5,-6 3164.5,-6"/>
<text text-anchor="middle" x="3230.5" y="-13" font-family="FreeSans" font-size="10.00">boost/throw_exception.hpp</text>
</g>
<!-- Node42&#45;&gt;Node59 -->
<g id="edge95" class="edge"><title>Node42&#45;&gt;Node59</title>
<path fill="none" stroke="midnightblue" d="M3113.05,-67.396C3139.37,-55.991 3176.09,-40.0794 3201.43,-29.0976"/>
<polygon fill="midnightblue" stroke="midnightblue" points="3203.08,-32.1946 3210.87,-25.007 3200.3,-25.7717 3203.08,-32.1946"/>
</g>
<!-- Node61&#45;&gt;Node3 -->
<g id="edge109" class="edge"><title>Node61&#45;&gt;Node3</title>
<path fill="none" stroke="midnightblue" d="M2627.95,-139.882C2621.15,-137.608 2613.6,-135.4 2606.5,-134 2384.86,-90.3139 2313.08,-171.591 2099.5,-98 2057.88,-83.6602 2017,-51.2277 1995.04,-31.8777"/>
<polygon fill="midnightblue" stroke="midnightblue" points="1997.36,-29.2575 1987.59,-25.1672 1992.68,-34.4596 1997.36,-29.2575"/>
</g>
<!-- Node61&#45;&gt;Node5 -->
<g id="edge110" class="edge"><title>Node61&#45;&gt;Node5</title>
<path fill="none" stroke="midnightblue" d="M2642.37,-139.915C2625.37,-122.587 2584,-83.669 2540.5,-67 2381.67,-6.13916 2323.61,-75.6885 2159.5,-31 2157.57,-30.4731 2155.6,-29.8332 2153.65,-29.1191"/>
<polygon fill="midnightblue" stroke="midnightblue" points="2154.76,-25.7898 2144.19,-25.1114 2152.03,-32.2352 2154.76,-25.7898"/>
</g>
<!-- Node61&#45;&gt;Node42 -->
<g id="edge108" class="edge"><title>Node61&#45;&gt;Node42</title>
<path fill="none" stroke="midnightblue" d="M2684.79,-142.547C2700.53,-139.858 2719.45,-136.689 2736.5,-134 2829.42,-119.348 2936.68,-103.821 3006.4,-93.9141"/>
<polygon fill="midnightblue" stroke="midnightblue" points="3006.99,-97.3644 3016.4,-92.494 3006.01,-90.4339 3006.99,-97.3644"/>
</g>
<!-- Node62&#45;&gt;Node3 -->
<g id="edge112" class="edge"><title>Node62&#45;&gt;Node3</title>
<path fill="none" stroke="midnightblue" d="M2108.89,-73.0024C2083.21,-61.8722 2037.94,-42.2562 2008.08,-29.3173"/>
<polygon fill="midnightblue" stroke="midnightblue" points="2009.16,-25.9718 1998.59,-25.2072 2006.38,-32.3947 2009.16,-25.9718"/>
</g>
<!-- Node62&#45;&gt;Node5 -->
<g id="edge113" class="edge"><title>Node62&#45;&gt;Node5</title>
<path fill="none" stroke="midnightblue" d="M2128.5,-72.7338C2128.5,-63.1826 2128.5,-47.6183 2128.5,-35.2829"/>
<polygon fill="midnightblue" stroke="midnightblue" points="2132,-35.1273 2128.5,-25.1273 2125,-35.1273 2132,-35.1273"/>
</g>
<!-- Node64 -->
<g id="node65" class="node"><title>Node64</title>
<g id="a_node65"><a xlink:href="TaggedData_8ipp.html" target="_top" xlink:title="TaggedData.ipp">
<polygon fill="white" stroke="black" points="1312.5,-73 1312.5,-92 1396.5,-92 1396.5,-73 1312.5,-73"/>
<text text-anchor="middle" x="1354.5" y="-80" font-family="FreeSans" font-size="10.00">TaggedData.ipp</text>
</a>
</g>
</g>
<!-- Node63&#45;&gt;Node64 -->
<g id="edge116" class="edge"><title>Node63&#45;&gt;Node64</title>
<path fill="none" stroke="midnightblue" d="M2106.76,-135.303C2103.64,-134.822 2100.54,-134.383 2097.5,-134 1794.15,-95.7159 1712.69,-144.555 1410.5,-98 1404.71,-97.1085 1398.66,-95.8712 1392.76,-94.4916"/>
<polygon fill="midnightblue" stroke="midnightblue" points="1393.6,-91.0935 1383.05,-92.0718 1391.9,-97.8858 1393.6,-91.0935"/>
</g>
<!-- Node64&#45;&gt;Node1 -->
<g id="edge117" class="edge"><title>Node64&#45;&gt;Node1</title>
<path fill="none" stroke="midnightblue" d="M1336.04,-72.8685C1312.26,-61.7476 1270.71,-42.3167 1243.15,-29.4286"/>
<polygon fill="midnightblue" stroke="midnightblue" points="1244.58,-26.2328 1234.03,-25.1672 1241.61,-32.5737 1244.58,-26.2328"/>
</g>
<!-- Node67 -->
<g id="node68" class="node"><title>Node67</title>
<g id="a_node68"><a xlink:href="BoostRange_8ipp.html" target="_top" xlink:title="BoostRange.ipp">
<polygon fill="white" stroke="black" points="709,-73 709,-92 794,-92 794,-73 709,-73"/>
<text text-anchor="middle" x="751.5" y="-80" font-family="FreeSans" font-size="10.00">BoostRange.ipp</text>
</a>
</g>
</g>
<!-- Node66&#45;&gt;Node67 -->
<g id="edge122" class="edge"><title>Node66&#45;&gt;Node67</title>
<path fill="none" stroke="midnightblue" d="M582.082,-441.895C567.07,-423.564 534.5,-378.753 534.5,-335 534.5,-335 534.5,-335 534.5,-210 534.5,-134.147 634.684,-102.971 698.909,-90.7788"/>
<polygon fill="midnightblue" stroke="midnightblue" points="699.666,-94.1988 708.887,-88.981 698.425,-87.3098 699.666,-94.1988"/>
</g>
<!-- Node67&#45;&gt;Node1 -->
<g id="edge123" class="edge"><title>Node67&#45;&gt;Node1</title>
<path fill="none" stroke="midnightblue" d="M794.163,-76.9464C866.18,-69.0459 1016.36,-51.6498 1142.5,-31 1149.86,-29.7953 1157.61,-28.3969 1165.2,-26.9533"/>
<polygon fill="midnightblue" stroke="midnightblue" points="1165.9,-30.3841 1175.05,-25.042 1164.56,-23.5125 1165.9,-30.3841"/>
</g>
<!-- Node67&#45;&gt;Node11 -->
<g id="edge130" class="edge"><title>Node67&#45;&gt;Node11</title>
<path fill="none" stroke="midnightblue" d="M720.585,-72.9432C712.167,-70.8034 703.021,-68.6504 694.5,-67 576.512,-44.1475 543.218,-59.643 426.5,-31 423.442,-30.2496 420.294,-29.3471 417.17,-28.3639"/>
<polygon fill="midnightblue" stroke="midnightblue" points="418.008,-24.952 407.414,-25.0362 415.748,-31.5772 418.008,-24.952"/>
</g>
<!-- Node67&#45;&gt;Node26 -->
<g id="edge126" class="edge"><title>Node67&#45;&gt;Node26</title>
<path fill="none" stroke="midnightblue" d="M794.097,-78.9941C892.383,-72.9753 1142.53,-56.301 1350.5,-31 1360.73,-29.7555 1371.57,-28.2193 1382.07,-26.6169"/>
<polygon fill="midnightblue" stroke="midnightblue" points="1382.66,-30.0673 1392,-25.0677 1381.58,-23.151 1382.66,-30.0673"/>
</g>
<!-- Node67&#45;&gt;Node27 -->
<g id="edge127" class="edge"><title>Node67&#45;&gt;Node27</title>
<path fill="none" stroke="midnightblue" d="M793.4,-72.9355C851.153,-61.1306 955.159,-39.8716 1017.71,-27.0853"/>
<polygon fill="midnightblue" stroke="midnightblue" points="1018.66,-30.4635 1027.76,-25.0317 1017.26,-23.6053 1018.66,-30.4635"/>
</g>
<!-- Node67&#45;&gt;Node34 -->
<g id="edge125" class="edge"><title>Node67&#45;&gt;Node34</title>
<path fill="none" stroke="midnightblue" d="M766.74,-72.7338C783.186,-63.2736 809.888,-47.9142 831.232,-35.6362"/>
<polygon fill="midnightblue" stroke="midnightblue" points="833.084,-38.6091 840.007,-30.589 829.593,-32.5413 833.084,-38.6091"/>
</g>
<!-- Node67&#45;&gt;Node65 -->
<g id="edge131" class="edge"><title>Node67&#45;&gt;Node65</title>
<path fill="none" stroke="midnightblue" d="M783.783,-72.9345C818.548,-63.4985 875.354,-47.4663 923.5,-31 925.622,-30.2744 927.801,-29.4993 929.989,-28.699"/>
<polygon fill="midnightblue" stroke="midnightblue" points="931.373,-31.9175 939.487,-25.1043 928.895,-25.3707 931.373,-31.9175"/>
</g>
<!-- Node68 -->
<g id="node69" class="node"><title>Node68</title>
<polygon fill="white" stroke="#bfbfbf" points="582,-6 582,-25 689,-25 689,-6 582,-6"/>
<text text-anchor="middle" x="635.5" y="-13" font-family="FreeSans" font-size="10.00">boost/tuple/tuple.hpp</text>
</g>
<!-- Node67&#45;&gt;Node68 -->
<g id="edge124" class="edge"><title>Node67&#45;&gt;Node68</title>
<path fill="none" stroke="midnightblue" d="M735.856,-72.7338C716.289,-61.7695 682.58,-42.8809 659.681,-30.0495"/>
<polygon fill="midnightblue" stroke="midnightblue" points="661.331,-26.9623 650.896,-25.1273 657.909,-33.069 661.331,-26.9623"/>
</g>
<!-- Node69 -->
<g id="node70" class="node"><title>Node69</title>
<polygon fill="white" stroke="#bfbfbf" points="707,-0.5 707,-30.5 796,-30.5 796,-0.5 707,-0.5"/>
<text text-anchor="start" x="715" y="-18.5" font-family="FreeSans" font-size="10.00">boost/iterator/zip</text>
<text text-anchor="middle" x="751.5" y="-7.5" font-family="FreeSans" font-size="10.00">_iterator.hpp</text>
</g>
<!-- Node67&#45;&gt;Node69 -->
<g id="edge128" class="edge"><title>Node67&#45;&gt;Node69</title>
<path fill="none" stroke="midnightblue" d="M751.5,-72.7338C751.5,-64.5406 751.5,-51.9225 751.5,-40.7136"/>
<polygon fill="midnightblue" stroke="midnightblue" points="755,-40.589 751.5,-30.589 748,-40.5891 755,-40.589"/>
</g>
<!-- Node70 -->
<g id="node71" class="node"><title>Node70</title>
<polygon fill="white" stroke="#bfbfbf" points="435.5,-0.5 435.5,-30.5 563.5,-30.5 563.5,-0.5 435.5,-0.5"/>
<text text-anchor="start" x="443.5" y="-18.5" font-family="FreeSans" font-size="10.00">boost/iterator/permutation</text>
<text text-anchor="middle" x="499.5" y="-7.5" font-family="FreeSans" font-size="10.00">_iterator.hpp</text>
</g>
<!-- Node67&#45;&gt;Node70 -->
<g id="edge129" class="edge"><title>Node67&#45;&gt;Node70</title>
<path fill="none" stroke="midnightblue" d="M718.296,-72.9355C679.16,-62.8409 613.222,-45.833 563.94,-33.1215"/>
<polygon fill="midnightblue" stroke="midnightblue" points="564.564,-29.6678 554.006,-30.5592 562.815,-36.4459 564.564,-29.6678"/>
</g>
</g>
</svg>
