<?xml version="1.0" encoding="UTF-8" standalone="no"?>
<!DOCTYPE svg PUBLIC "-//W3C//DTD SVG 1.1//EN"
 "http://www.w3.org/Graphics/SVG/1.1/DTD/svg11.dtd">
<!-- Generated by graphviz version 2.38.0 (20140413.2041)
 -->
<!-- Title: src/StateEstimation/UnscentedKalmanFilterProblemConcept.h Pages: 1 -->
<svg width="525pt" height="173pt"
 viewBox="0.00 0.00 524.50 173.00" xmlns="http://www.w3.org/2000/svg" xmlns:xlink="http://www.w3.org/1999/xlink">
<g id="graph0" class="graph" transform="scale(1 1) rotate(0) translate(4 169)">
<title>src/StateEstimation/UnscentedKalmanFilterProblemConcept.h</title>
<polygon fill="white" stroke="none" points="-4,4 -4,-169 520.5,-169 520.5,4 -4,4"/>
<!-- Node0 -->
<g id="node1" class="node"><title>Node0</title>
<polygon fill="#bfbfbf" stroke="black" points="254,-123.5 254,-164.5 412,-164.5 412,-123.5 254,-123.5"/>
<text text-anchor="start" x="262" y="-152.5" font-family="FreeSans" font-size="10.00">src/StateEstimation</text>
<text text-anchor="start" x="262" y="-141.5" font-family="FreeSans" font-size="10.00">/UnscentedKalmanFilterProblem</text>
<text text-anchor="middle" x="333" y="-130.5" font-family="FreeSans" font-size="10.00">Concept.h</text>
</g>
<!-- Node1 -->
<g id="node2" class="node"><title>Node1</title>
<g id="a_node2"><a xlink:href="UnscentedKalmanFilterProblemConcept_8ipp.html" target="_top" xlink:title="UnscentedKalmanFilterProblem\lConcept.ipp">
<polygon fill="white" stroke="black" points="255.5,-56.5 255.5,-86.5 410.5,-86.5 410.5,-56.5 255.5,-56.5"/>
<text text-anchor="start" x="263.5" y="-74.5" font-family="FreeSans" font-size="10.00">UnscentedKalmanFilterProblem</text>
<text text-anchor="middle" x="333" y="-63.5" font-family="FreeSans" font-size="10.00">Concept.ipp</text>
</a>
</g>
</g>
<!-- Node0&#45;&gt;Node1 -->
<g id="edge1" class="edge"><title>Node0&#45;&gt;Node1</title>
<path fill="none" stroke="midnightblue" d="M333,-123.362C333,-115.226 333,-105.7 333,-97.105"/>
<polygon fill="midnightblue" stroke="midnightblue" points="336.5,-96.8916 333,-86.8916 329.5,-96.8916 336.5,-96.8916"/>
</g>
<!-- Node2 -->
<g id="node3" class="node"><title>Node2</title>
<polygon fill="white" stroke="#bfbfbf" points="0,-0.5 0,-19.5 128,-19.5 128,-0.5 0,-0.5"/>
<text text-anchor="middle" x="64" y="-7.5" font-family="FreeSans" font-size="10.00">boost/concept_check.hpp</text>
</g>
<!-- Node1&#45;&gt;Node2 -->
<g id="edge2" class="edge"><title>Node1&#45;&gt;Node2</title>
<path fill="none" stroke="midnightblue" d="M269.591,-56.4747C221.461,-45.8287 156.286,-31.4127 112.326,-21.6892"/>
<polygon fill="midnightblue" stroke="midnightblue" points="112.977,-18.2487 102.457,-19.5064 111.465,-25.0835 112.977,-18.2487"/>
</g>
<!-- Node3 -->
<g id="node4" class="node"><title>Node3</title>
<polygon fill="white" stroke="#bfbfbf" points="146.5,-0.5 146.5,-19.5 241.5,-19.5 241.5,-0.5 146.5,-0.5"/>
<text text-anchor="middle" x="194" y="-7.5" font-family="FreeSans" font-size="10.00">boost/optional.hpp</text>
</g>
<!-- Node1&#45;&gt;Node3 -->
<g id="edge3" class="edge"><title>Node1&#45;&gt;Node3</title>
<path fill="none" stroke="midnightblue" d="M300.059,-56.3993C276.841,-46.4608 246.014,-33.2649 223.581,-23.6625"/>
<polygon fill="midnightblue" stroke="midnightblue" points="224.796,-20.3754 214.226,-19.6578 222.042,-26.8106 224.796,-20.3754"/>
</g>
<!-- Node4 -->
<g id="node5" class="node"><title>Node4</title>
<polygon fill="white" stroke="#bfbfbf" points="259.5,-0.5 259.5,-19.5 330.5,-19.5 330.5,-0.5 259.5,-0.5"/>
<text text-anchor="middle" x="295" y="-7.5" font-family="FreeSans" font-size="10.00">Eigen/Dense</text>
</g>
<!-- Node1&#45;&gt;Node4 -->
<g id="edge4" class="edge"><title>Node1&#45;&gt;Node4</title>
<path fill="none" stroke="midnightblue" d="M323.995,-56.3993C318.587,-47.9315 311.668,-37.0991 305.946,-28.1393"/>
<polygon fill="midnightblue" stroke="midnightblue" points="308.862,-26.2018 300.529,-19.6578 302.962,-29.9695 308.862,-26.2018"/>
</g>
<!-- Node5 -->
<g id="node6" class="node"><title>Node5</title>
<polygon fill="white" stroke="#bfbfbf" points="349,-0.5 349,-19.5 393,-19.5 393,-0.5 349,-0.5"/>
<text text-anchor="middle" x="371" y="-7.5" font-family="FreeSans" font-size="10.00">vector</text>
</g>
<!-- Node1&#45;&gt;Node5 -->
<g id="edge5" class="edge"><title>Node1&#45;&gt;Node5</title>
<path fill="none" stroke="midnightblue" d="M342.005,-56.3993C347.413,-47.9315 354.332,-37.0991 360.054,-28.1393"/>
<polygon fill="midnightblue" stroke="midnightblue" points="363.038,-29.9695 365.471,-19.6578 357.138,-26.2018 363.038,-29.9695"/>
</g>
<!-- Node6 -->
<g id="node7" class="node"><title>Node6</title>
<polygon fill="white" stroke="#bfbfbf" points="411,-0.5 411,-19.5 449,-19.5 449,-0.5 411,-0.5"/>
<text text-anchor="middle" x="430" y="-7.5" font-family="FreeSans" font-size="10.00">tuple</text>
</g>
<!-- Node1&#45;&gt;Node6 -->
<g id="edge6" class="edge"><title>Node1&#45;&gt;Node6</title>
<path fill="none" stroke="midnightblue" d="M355.988,-56.3993C371.391,-46.9511 391.593,-34.5589 406.999,-25.1089"/>
<polygon fill="midnightblue" stroke="midnightblue" points="409.192,-27.87 415.886,-19.6578 405.531,-21.9031 409.192,-27.87"/>
</g>
<!-- Node7 -->
<g id="node8" class="node"><title>Node7</title>
<polygon fill="white" stroke="#bfbfbf" points="467.5,-0.5 467.5,-19.5 516.5,-19.5 516.5,-0.5 467.5,-0.5"/>
<text text-anchor="middle" x="492" y="-7.5" font-family="FreeSans" font-size="10.00">cstddef</text>
</g>
<!-- Node1&#45;&gt;Node7 -->
<g id="edge7" class="edge"><title>Node1&#45;&gt;Node7</title>
<path fill="none" stroke="midnightblue" d="M370.681,-56.3993C397.596,-46.3271 433.452,-32.9093 459.193,-23.2769"/>
<polygon fill="midnightblue" stroke="midnightblue" points="460.725,-26.4406 468.864,-19.6578 458.272,-19.8846 460.725,-26.4406"/>
</g>
</g>
</svg>
