<?xml version="1.0" encoding="UTF-8" standalone="no"?>
<!DOCTYPE svg PUBLIC "-//W3C//DTD SVG 1.1//EN"
 "http://www.w3.org/Graphics/SVG/1.1/DTD/svg11.dtd">
<!-- Generated by graphviz version 2.38.0 (20140413.2041)
 -->
<!-- Title: src/Elements/Viewpoint3D.h Pages: 1 -->
<!--zoomable 497 -->
<svg id="main" version="1.1" xmlns="http://www.w3.org/2000/svg" xmlns:xlink="http://www.w3.org/1999/xlink" xml:space="preserve" onload="init(evt)">
<style type="text/css"><![CDATA[
.edge:hover path { stroke: red; }
.edge:hover polygon { stroke: red; fill: red; }
]]></style>
<script type="text/javascript"><![CDATA[
var edges = document.getElementsByTagName('g');
if (edges && edges.length) {
  for (var i=0;i<edges.length;i++) {
    if (edges[i].id.substr(0,4)=='edge') {
      edges[i].setAttribute('class','edge');
    }
  }
}
]]></script>
        <defs>
                <circle id="rim" cx="0" cy="0" r="7"/>
                <circle id="rim2" cx="0" cy="0" r="3.5"/>
                <g id="zoomPlus">
                        <use xlink:href="#rim" fill="#404040">
                                <set attributeName="fill" to="#808080" begin="zoomplus.mouseover" end="zoomplus.mouseout"/>
                        </use>
                        <path d="M-4,0h8M0,-4v8" fill="none" stroke="white" stroke-width="1.5" pointer-events="none"/>
                </g>
                <g id="zoomMin">
                        <use xlink:href="#rim" fill="#404040">
                                <set attributeName="fill" to="#808080" begin="zoomminus.mouseover" end="zoomminus.mouseout"/>
                        </use>
                        <path d="M-4,0h8" fill="none" stroke="white" stroke-width="1.5" pointer-events="none"/>
                </g>
                <g id="dirArrow">
                        <path fill="none" stroke="white" stroke-width="1.5" d="M0,-3.0v7 M-2.5,-0.5L0,-3.0L2.5,-0.5"/>
                </g>
               <g id="resetDef">
                       <use xlink:href="#rim2" fill="#404040">
                               <set attributeName="fill" to="#808080" begin="reset.mouseover" end="reset.mouseout"/>
                       </use>
               </g>
        </defs>

<script type="text/javascript">
var viewWidth = 819;
var viewHeight = 497;
var sectionId = 'dynsection-1';
</script>
<script xlink:href="svgpan.js"/>
<svg id="graph" class="graph">
<g id="viewport">
<title>src/Elements/Viewpoint3D.h</title>
<polygon fill="white" stroke="none" points="-4,4 -4,-493 814.5,-493 814.5,4 -4,4"/>
<!-- Node92 -->
<g id="node1" class="node"><title>Node92</title>
<polygon fill="#bfbfbf" stroke="black" points="443.5,-469.5 443.5,-488.5 582.5,-488.5 582.5,-469.5 443.5,-469.5"/>
<text text-anchor="middle" x="513" y="-476.5" font-family="FreeSans" font-size="10.00">src/Elements/Viewpoint3D.h</text>
</g>
<!-- Node93 -->
<g id="node2" class="node"><title>Node93</title>
<g id="a_node2"><a xlink:href="PDLPoseGraphProblem_8ipp.html" target="_top" xlink:title="src/Optimisation/PDLPose\lGraphProblem.ipp">
<polygon fill="white" stroke="black" points="298.5,-402.5 298.5,-432.5 431.5,-432.5 431.5,-402.5 298.5,-402.5"/>
<text text-anchor="start" x="306.5" y="-420.5" font-family="FreeSans" font-size="10.00">src/Optimisation/PDLPose</text>
<text text-anchor="middle" x="365" y="-409.5" font-family="FreeSans" font-size="10.00">GraphProblem.ipp</text>
</a>
</g>
</g>
<!-- Node92&#45;&gt;Node93 -->
<g id="edge1" class="edge"><title>Node92&#45;&gt;Node93</title>
<path fill="none" stroke="midnightblue" d="M482.452,-465.719C458.432,-456.062 424.952,-442.602 399.881,-432.523"/>
<polygon fill="midnightblue" stroke="midnightblue" points="481.211,-468.992 491.795,-469.475 483.822,-462.498 481.211,-468.992"/>
</g>
<!-- Node102 -->
<g id="node11" class="node"><title>Node102</title>
<g id="a_node11"><a xlink:href="TestOptimisation_8cpp.html" target="_top" xlink:title="src/Optimisation/TestOptimisation.cpp">
<polygon fill="white" stroke="black" points="389.5,-274 389.5,-293 572.5,-293 572.5,-274 389.5,-274"/>
<text text-anchor="middle" x="481" y="-281" font-family="FreeSans" font-size="10.00">src/Optimisation/TestOptimisation.cpp</text>
</a>
</g>
</g>
<!-- Node92&#45;&gt;Node102 -->
<g id="edge13" class="edge"><title>Node92&#45;&gt;Node102</title>
<path fill="none" stroke="midnightblue" d="M497.286,-461.883C490.573,-453.883 483.49,-443.66 480,-433 463.396,-382.28 474.298,-316.491 479.079,-293.164"/>
<polygon fill="midnightblue" stroke="midnightblue" points="494.695,-464.237 503.98,-469.34 499.904,-459.561 494.695,-464.237"/>
</g>
<!-- Node103 -->
<g id="node12" class="node"><title>Node103</title>
<g id="a_node12"><a xlink:href="TestElements_8cpp.html" target="_top" xlink:title="src/Elements/TestElements.cpp">
<polygon fill="white" stroke="black" points="488.5,-408 488.5,-427 643.5,-427 643.5,-408 488.5,-408"/>
<text text-anchor="middle" x="566" y="-415" font-family="FreeSans" font-size="10.00">src/Elements/TestElements.cpp</text>
</a>
</g>
</g>
<!-- Node92&#45;&gt;Node103 -->
<g id="edge11" class="edge"><title>Node92&#45;&gt;Node103</title>
<path fill="none" stroke="midnightblue" d="M527.254,-461.997C537.286,-450.736 550.319,-436.104 558.42,-427.009"/>
<polygon fill="midnightblue" stroke="midnightblue" points="524.632,-459.68 520.594,-469.475 529.859,-464.336 524.632,-459.68"/>
</g>
<!-- Node104 -->
<g id="node13" class="node"><title>Node104</title>
<g id="a_node13"><a xlink:href="Viewpoint3D_8cpp.html" target="_top" xlink:title="src/Elements/Viewpoint3D.cpp">
<polygon fill="white" stroke="black" points="661.5,-408 661.5,-427 810.5,-427 810.5,-408 661.5,-408"/>
<text text-anchor="middle" x="736" y="-415" font-family="FreeSans" font-size="10.00">src/Elements/Viewpoint3D.cpp</text>
</a>
</g>
</g>
<!-- Node92&#45;&gt;Node104 -->
<g id="edge12" class="edge"><title>Node92&#45;&gt;Node104</title>
<path fill="none" stroke="midnightblue" d="M554.618,-466.896C597.929,-455.34 664.808,-437.495 704.109,-427.009"/>
<polygon fill="midnightblue" stroke="midnightblue" points="553.71,-463.515 544.95,-469.475 555.515,-470.279 553.71,-463.515"/>
</g>
<!-- Node94 -->
<g id="node3" class="node"><title>Node94</title>
<g id="a_node3"><a xlink:href="PDLPoseGraphProblem_8h.html" target="_top" xlink:title="src/Optimisation/PDLPose\lGraphProblem.h">
<polygon fill="white" stroke="black" points="258.5,-335.5 258.5,-365.5 391.5,-365.5 391.5,-335.5 258.5,-335.5"/>
<text text-anchor="start" x="266.5" y="-353.5" font-family="FreeSans" font-size="10.00">src/Optimisation/PDLPose</text>
<text text-anchor="middle" x="325" y="-342.5" font-family="FreeSans" font-size="10.00">GraphProblem.h</text>
</a>
</g>
</g>
<!-- Node93&#45;&gt;Node94 -->
<g id="edge2" class="edge"><title>Node93&#45;&gt;Node94</title>
<path fill="none" stroke="midnightblue" d="M351.072,-393.867C345.283,-384.459 338.744,-373.833 333.662,-365.577"/>
<polygon fill="midnightblue" stroke="midnightblue" points="348.099,-395.714 356.321,-402.396 354.06,-392.045 348.099,-395.714"/>
</g>
<!-- Node95 -->
<g id="node4" class="node"><title>Node95</title>
<g id="a_node4"><a xlink:href="SfMPipeline_8ipp.html" target="_top" xlink:title="src/GeometryEstimationPipeline\l/SfMPipeline.ipp">
<polygon fill="white" stroke="black" points="65.5,-268.5 65.5,-298.5 220.5,-298.5 220.5,-268.5 65.5,-268.5"/>
<text text-anchor="start" x="73.5" y="-286.5" font-family="FreeSans" font-size="10.00">src/GeometryEstimationPipeline</text>
<text text-anchor="middle" x="143" y="-275.5" font-family="FreeSans" font-size="10.00">/SfMPipeline.ipp</text>
</a>
</g>
</g>
<!-- Node94&#45;&gt;Node95 -->
<g id="edge3" class="edge"><title>Node94&#45;&gt;Node95</title>
<path fill="none" stroke="midnightblue" d="M275.875,-331.955C246.557,-321.485 209.824,-308.366 182.414,-298.577"/>
<polygon fill="midnightblue" stroke="midnightblue" points="274.914,-335.329 285.509,-335.396 277.268,-328.736 274.914,-335.329"/>
</g>
<!-- Node101 -->
<g id="node10" class="node"><title>Node101</title>
<g id="a_node10"><a xlink:href="PDLPoseGraphProblem_8cpp.html" target="_top" xlink:title="src/Optimisation/PDLPose\lGraphProblem.cpp">
<polygon fill="white" stroke="black" points="238.5,-268.5 238.5,-298.5 371.5,-298.5 371.5,-268.5 238.5,-268.5"/>
<text text-anchor="start" x="246.5" y="-286.5" font-family="FreeSans" font-size="10.00">src/Optimisation/PDLPose</text>
<text text-anchor="middle" x="305" y="-275.5" font-family="FreeSans" font-size="10.00">GraphProblem.cpp</text>
</a>
</g>
</g>
<!-- Node94&#45;&gt;Node101 -->
<g id="edge9" class="edge"><title>Node94&#45;&gt;Node101</title>
<path fill="none" stroke="midnightblue" d="M317.676,-325.697C314.873,-316.587 311.767,-306.493 309.331,-298.577"/>
<polygon fill="midnightblue" stroke="midnightblue" points="314.374,-326.867 320.66,-335.396 321.065,-324.809 314.374,-326.867"/>
</g>
<!-- Node94&#45;&gt;Node102 -->
<g id="edge10" class="edge"><title>Node94&#45;&gt;Node102</title>
<path fill="none" stroke="midnightblue" d="M368.3,-331.458C398.44,-318.9 437.262,-302.724 460.583,-293.007"/>
<polygon fill="midnightblue" stroke="midnightblue" points="366.734,-328.319 358.85,-335.396 369.427,-334.781 366.734,-328.319"/>
</g>
<!-- Node96 -->
<g id="node5" class="node"><title>Node96</title>
<g id="a_node5"><a xlink:href="SfMPipeline_8h.html" target="_top" xlink:title="src/GeometryEstimationPipeline\l/SfMPipeline.h">
<polygon fill="white" stroke="black" points="65.5,-201.5 65.5,-231.5 220.5,-231.5 220.5,-201.5 65.5,-201.5"/>
<text text-anchor="start" x="73.5" y="-219.5" font-family="FreeSans" font-size="10.00">src/GeometryEstimationPipeline</text>
<text text-anchor="middle" x="143" y="-208.5" font-family="FreeSans" font-size="10.00">/SfMPipeline.h</text>
</a>
</g>
</g>
<!-- Node95&#45;&gt;Node96 -->
<g id="edge4" class="edge"><title>Node95&#45;&gt;Node96</title>
<path fill="none" stroke="midnightblue" d="M143,-258.108C143,-249.154 143,-239.323 143,-231.577"/>
<polygon fill="midnightblue" stroke="midnightblue" points="139.5,-258.396 143,-268.396 146.5,-258.396 139.5,-258.396"/>
</g>
<!-- Node97 -->
<g id="node6" class="node"><title>Node97</title>
<g id="a_node6"><a xlink:href="InterfaceSfMPipeline_8ipp.html" target="_top" xlink:title="src/ApplicationInterface\l/InterfaceSfMPipeline.ipp">
<polygon fill="white" stroke="black" points="1.5,-134.5 1.5,-164.5 126.5,-164.5 126.5,-134.5 1.5,-134.5"/>
<text text-anchor="start" x="9.5" y="-152.5" font-family="FreeSans" font-size="10.00">src/ApplicationInterface</text>
<text text-anchor="middle" x="64" y="-141.5" font-family="FreeSans" font-size="10.00">/InterfaceSfMPipeline.ipp</text>
</a>
</g>
</g>
<!-- Node96&#45;&gt;Node97 -->
<g id="edge5" class="edge"><title>Node96&#45;&gt;Node97</title>
<path fill="none" stroke="midnightblue" d="M117.943,-194.883C105.937,-185.005 91.8679,-173.429 81.1084,-164.577"/>
<polygon fill="midnightblue" stroke="midnightblue" points="115.912,-197.745 125.858,-201.396 120.36,-192.34 115.912,-197.745"/>
</g>
<!-- Node100 -->
<g id="node9" class="node"><title>Node100</title>
<g id="a_node9"><a xlink:href="SfMPipeline_8cpp.html" target="_top" xlink:title="src/GeometryEstimationPipeline\l/SfMPipeline.cpp">
<polygon fill="white" stroke="black" points="144.5,-134.5 144.5,-164.5 299.5,-164.5 299.5,-134.5 144.5,-134.5"/>
<text text-anchor="start" x="152.5" y="-152.5" font-family="FreeSans" font-size="10.00">src/GeometryEstimationPipeline</text>
<text text-anchor="middle" x="222" y="-141.5" font-family="FreeSans" font-size="10.00">/SfMPipeline.cpp</text>
</a>
</g>
</g>
<!-- Node96&#45;&gt;Node100 -->
<g id="edge8" class="edge"><title>Node96&#45;&gt;Node100</title>
<path fill="none" stroke="midnightblue" d="M168.057,-194.883C180.063,-185.005 194.132,-173.429 204.892,-164.577"/>
<polygon fill="midnightblue" stroke="midnightblue" points="165.64,-192.34 160.142,-201.396 170.088,-197.745 165.64,-192.34"/>
</g>
<!-- Node98 -->
<g id="node7" class="node"><title>Node98</title>
<g id="a_node7"><a xlink:href="InterfaceSfMPipeline_8h.html" target="_top" xlink:title="src/ApplicationInterface\l/InterfaceSfMPipeline.h">
<polygon fill="white" stroke="black" points="4.5,-67.5 4.5,-97.5 123.5,-97.5 123.5,-67.5 4.5,-67.5"/>
<text text-anchor="start" x="12.5" y="-85.5" font-family="FreeSans" font-size="10.00">src/ApplicationInterface</text>
<text text-anchor="middle" x="64" y="-74.5" font-family="FreeSans" font-size="10.00">/InterfaceSfMPipeline.h</text>
</a>
</g>
</g>
<!-- Node97&#45;&gt;Node98 -->
<g id="edge6" class="edge"><title>Node97&#45;&gt;Node98</title>
<path fill="none" stroke="midnightblue" d="M64,-124.108C64,-115.154 64,-105.323 64,-97.5765"/>
<polygon fill="midnightblue" stroke="midnightblue" points="60.5001,-124.396 64,-134.396 67.5001,-124.396 60.5001,-124.396"/>
</g>
<!-- Node99 -->
<g id="node8" class="node"><title>Node99</title>
<g id="a_node8"><a xlink:href="InterfaceSfMPipeline_8cpp.html" target="_top" xlink:title="src/ApplicationInterface\l/InterfaceSfMPipeline.cpp">
<polygon fill="white" stroke="black" points="0,-0.5 0,-30.5 128,-30.5 128,-0.5 0,-0.5"/>
<text text-anchor="start" x="8" y="-18.5" font-family="FreeSans" font-size="10.00">src/ApplicationInterface</text>
<text text-anchor="middle" x="64" y="-7.5" font-family="FreeSans" font-size="10.00">/InterfaceSfMPipeline.cpp</text>
</a>
</g>
</g>
<!-- Node98&#45;&gt;Node99 -->
<g id="edge7" class="edge"><title>Node98&#45;&gt;Node99</title>
<path fill="none" stroke="midnightblue" d="M64,-57.1081C64,-48.1539 64,-38.3227 64,-30.5765"/>
<polygon fill="midnightblue" stroke="midnightblue" points="60.5001,-57.3959 64,-67.396 67.5001,-57.396 60.5001,-57.3959"/>
</g>
</g>
</svg>
        <g id="navigator" transform="translate(0 0)" fill="#404254">
                <rect fill="#f2f5e9" fill-opacity="0.5" stroke="#606060" stroke-width=".5" x="0" y="0" width="60" height="60"/>
                <use id="zoomplus" xlink:href="#zoomPlus" x="17" y="9" onmousedown="handleZoom(evt,'in')"/>
                <use id="zoomminus" xlink:href="#zoomMin" x="42" y="9" onmousedown="handleZoom(evt,'out')"/>
                <use id="reset" xlink:href="#resetDef" x="30" y="36" onmousedown="handleReset()"/>
                <g id="arrowUp" xlink:href="#dirArrow" transform="translate(30 24)" onmousedown="handlePan(0,-1)">
                  <use xlink:href="#rim" fill="#404040">
                        <set attributeName="fill" to="#808080" begin="arrowUp.mouseover" end="arrowUp.mouseout"/>
                  </use>
                  <path fill="none" stroke="white" stroke-width="1.5" d="M0,-3.0v7 M-2.5,-0.5L0,-3.0L2.5,-0.5"/>
                </g>
                <g id="arrowRight" xlink:href="#dirArrow" transform="rotate(90) translate(36 -43)" onmousedown="handlePan(1,0)">
                  <use xlink:href="#rim" fill="#404040">
                        <set attributeName="fill" to="#808080" begin="arrowRight.mouseover" end="arrowRight.mouseout"/>
                  </use>
                  <path fill="none" stroke="white" stroke-width="1.5" d="M0,-3.0v7 M-2.5,-0.5L0,-3.0L2.5,-0.5"/>
                </g>
                <g id="arrowDown" xlink:href="#dirArrow" transform="rotate(180) translate(-30 -48)" onmousedown="handlePan(0,1)">
                  <use xlink:href="#rim" fill="#404040">
                        <set attributeName="fill" to="#808080" begin="arrowDown.mouseover" end="arrowDown.mouseout"/>
                  </use>
                  <path fill="none" stroke="white" stroke-width="1.5" d="M0,-3.0v7 M-2.5,-0.5L0,-3.0L2.5,-0.5"/>
                </g>
                <g id="arrowLeft" xlink:href="#dirArrow" transform="rotate(270) translate(-36 17)" onmousedown="handlePan(-1,0)">
                  <use xlink:href="#rim" fill="#404040">
                        <set attributeName="fill" to="#808080" begin="arrowLeft.mouseover" end="arrowLeft.mouseout"/>
                  </use>
                  <path fill="none" stroke="white" stroke-width="1.5" d="M0,-3.0v7 M-2.5,-0.5L0,-3.0L2.5,-0.5"/>
                </g>
        </g>
        <svg viewBox="0 0 15 15" width="100%" height="30px" preserveAspectRatio="xMaxYMin meet">
         <g id="arrow_out" transform="scale(0.3 0.3)">
          <a xlink:href="Viewpoint3D_8h__dep__incl_org.svg" target="_base">
           <rect id="button" ry="5" rx="5" y="6" x="6" height="38" width="38"
                fill="#f2f5e9" fill-opacity="0.5" stroke="#606060" stroke-width="1.0"/>
           <path id="arrow"
             d="M 11.500037,31.436501 C 11.940474,20.09759 22.043105,11.32322 32.158766,21.979434 L 37.068811,17.246167 C 37.068811,17.246167 37.088388,32 37.088388,32 L 22.160133,31.978069 C 22.160133,31.978069 26.997745,27.140456 26.997745,27.140456 C 18.528582,18.264221 13.291696,25.230495 11.500037,31.436501 z"
             style="fill:#404040;"/>
          </a>
         </g>
        </svg>
</svg>
