<?xml version="1.0" encoding="UTF-8" standalone="no"?>
<!DOCTYPE svg PUBLIC "-//W3C//DTD SVG 1.1//EN"
 "http://www.w3.org/Graphics/SVG/1.1/DTD/svg11.dtd">
<!-- Generated by graphviz version 2.38.0 (20140413.2041)
 -->
<!-- Title: src/StateEstimation/ViterbiNormalisedHistogramMatchingProblem.h Pages: 1 -->
<!--zoomable 530 -->
<svg id="main" version="1.1" xmlns="http://www.w3.org/2000/svg" xmlns:xlink="http://www.w3.org/1999/xlink" xml:space="preserve" onload="init(evt)">
<style type="text/css"><![CDATA[
.edge:hover path { stroke: red; }
.edge:hover polygon { stroke: red; fill: red; }
]]></style>
<script type="text/javascript"><![CDATA[
var edges = document.getElementsByTagName('g');
if (edges && edges.length) {
  for (var i=0;i<edges.length;i++) {
    if (edges[i].id.substr(0,4)=='edge') {
      edges[i].setAttribute('class','edge');
    }
  }
}
]]></script>
        <defs>
                <circle id="rim" cx="0" cy="0" r="7"/>
                <circle id="rim2" cx="0" cy="0" r="3.5"/>
                <g id="zoomPlus">
                        <use xlink:href="#rim" fill="#404040">
                                <set attributeName="fill" to="#808080" begin="zoomplus.mouseover" end="zoomplus.mouseout"/>
                        </use>
                        <path d="M-4,0h8M0,-4v8" fill="none" stroke="white" stroke-width="1.5" pointer-events="none"/>
                </g>
                <g id="zoomMin">
                        <use xlink:href="#rim" fill="#404040">
                                <set attributeName="fill" to="#808080" begin="zoomminus.mouseover" end="zoomminus.mouseout"/>
                        </use>
                        <path d="M-4,0h8" fill="none" stroke="white" stroke-width="1.5" pointer-events="none"/>
                </g>
                <g id="dirArrow">
                        <path fill="none" stroke="white" stroke-width="1.5" d="M0,-3.0v7 M-2.5,-0.5L0,-3.0L2.5,-0.5"/>
                </g>
               <g id="resetDef">
                       <use xlink:href="#rim2" fill="#404040">
                               <set attributeName="fill" to="#808080" begin="reset.mouseover" end="reset.mouseout"/>
                       </use>
               </g>
        </defs>

<script type="text/javascript">
var viewWidth = 658;
var viewHeight = 530;
var sectionId = 'dynsection-1';
</script>
<script xlink:href="svgpan.js"/>
<svg id="graph" class="graph">
<g id="viewport">
<title>src/StateEstimation/ViterbiNormalisedHistogramMatchingProblem.h</title>
<polygon fill="white" stroke="none" points="-4,4 -4,-526 654,-526 654,4 -4,4"/>
<!-- Node11 -->
<g id="node1" class="node"><title>Node11</title>
<polygon fill="#bfbfbf" stroke="black" points="356,-480.5 356,-521.5 498,-521.5 498,-480.5 356,-480.5"/>
<text text-anchor="start" x="364" y="-509.5" font-family="FreeSans" font-size="10.00">src/StateEstimation</text>
<text text-anchor="start" x="364" y="-498.5" font-family="FreeSans" font-size="10.00">/ViterbiNormalisedHistogram</text>
<text text-anchor="middle" x="427" y="-487.5" font-family="FreeSans" font-size="10.00">MatchingProblem.h</text>
</g>
<!-- Node12 -->
<g id="node2" class="node"><title>Node12</title>
<g id="a_node2"><a xlink:href="RelativeSynchronisation_8ipp.html" target="_top" xlink:title="src/Synchronisation\l/RelativeSynchronisation.ipp">
<polygon fill="white" stroke="black" points="206.5,-408 206.5,-438 345.5,-438 345.5,-408 206.5,-408"/>
<text text-anchor="start" x="214.5" y="-426" font-family="FreeSans" font-size="10.00">src/Synchronisation</text>
<text text-anchor="middle" x="276" y="-415" font-family="FreeSans" font-size="10.00">/RelativeSynchronisation.ipp</text>
</a>
</g>
</g>
<!-- Node11&#45;&gt;Node12 -->
<g id="edge1" class="edge"><title>Node11&#45;&gt;Node12</title>
<path fill="none" stroke="midnightblue" d="M378.932,-475.807C354.332,-463.425 325.234,-448.78 304.264,-438.225"/>
<polygon fill="midnightblue" stroke="midnightblue" points="377.608,-479.059 388.114,-480.428 380.755,-472.806 377.608,-479.059"/>
</g>
<!-- Node25 -->
<g id="node15" class="node"><title>Node25</title>
<g id="a_node15"><a xlink:href="TestStateEstimation_8cpp.html" target="_top" xlink:title="src/StateEstimation\l/TestStateEstimation.cpp">
<polygon fill="white" stroke="black" points="364,-408 364,-438 490,-438 490,-408 364,-408"/>
<text text-anchor="start" x="372" y="-426" font-family="FreeSans" font-size="10.00">src/StateEstimation</text>
<text text-anchor="middle" x="427" y="-415" font-family="FreeSans" font-size="10.00">/TestStateEstimation.cpp</text>
</a>
</g>
</g>
<!-- Node11&#45;&gt;Node25 -->
<g id="edge17" class="edge"><title>Node11&#45;&gt;Node25</title>
<path fill="none" stroke="midnightblue" d="M427,-470.283C427,-459.254 427,-447.246 427,-438.225"/>
<polygon fill="midnightblue" stroke="midnightblue" points="423.5,-470.428 427,-480.428 430.5,-470.428 423.5,-470.428"/>
</g>
<!-- Node26 -->
<g id="node16" class="node"><title>Node26</title>
<g id="a_node16"><a xlink:href="ViterbiNormalisedHistogramMatchingProblem_8cpp.html" target="_top" xlink:title="src/StateEstimation\l/ViterbiNormalisedHistogram\lMatchingProblem.cpp">
<polygon fill="white" stroke="black" points="508,-402.5 508,-443.5 650,-443.5 650,-402.5 508,-402.5"/>
<text text-anchor="start" x="516" y="-431.5" font-family="FreeSans" font-size="10.00">src/StateEstimation</text>
<text text-anchor="start" x="516" y="-420.5" font-family="FreeSans" font-size="10.00">/ViterbiNormalisedHistogram</text>
<text text-anchor="middle" x="579" y="-409.5" font-family="FreeSans" font-size="10.00">MatchingProblem.cpp</text>
</a>
</g>
</g>
<!-- Node11&#45;&gt;Node26 -->
<g id="edge18" class="edge"><title>Node11&#45;&gt;Node26</title>
<path fill="none" stroke="midnightblue" d="M475.184,-475.908C496.084,-465.458 520.24,-453.38 539.989,-443.506"/>
<polygon fill="midnightblue" stroke="midnightblue" points="473.523,-472.825 466.144,-480.428 476.653,-479.086 473.523,-472.825"/>
</g>
<!-- Node13 -->
<g id="node3" class="node"><title>Node13</title>
<g id="a_node3"><a xlink:href="RelativeSynchronisation_8h.html" target="_top" xlink:title="src/Synchronisation\l/RelativeSynchronisation.h">
<polygon fill="white" stroke="black" points="210.5,-335.5 210.5,-365.5 341.5,-365.5 341.5,-335.5 210.5,-335.5"/>
<text text-anchor="start" x="218.5" y="-353.5" font-family="FreeSans" font-size="10.00">src/Synchronisation</text>
<text text-anchor="middle" x="276" y="-342.5" font-family="FreeSans" font-size="10.00">/RelativeSynchronisation.h</text>
</a>
</g>
</g>
<!-- Node12&#45;&gt;Node13 -->
<g id="edge2" class="edge"><title>Node12&#45;&gt;Node13</title>
<path fill="none" stroke="midnightblue" d="M276,-397.732C276,-387.068 276,-374.914 276,-365.746"/>
<polygon fill="midnightblue" stroke="midnightblue" points="272.5,-397.733 276,-407.733 279.5,-397.733 272.5,-397.733"/>
</g>
<!-- Node14 -->
<g id="node4" class="node"><title>Node14</title>
<g id="a_node4"><a xlink:href="MulticameraSynchronisation_8ipp.html" target="_top" xlink:title="src/Synchronisation\l/MulticameraSynchronisation.ipp">
<polygon fill="white" stroke="black" points="105.5,-268.5 105.5,-298.5 262.5,-298.5 262.5,-268.5 105.5,-268.5"/>
<text text-anchor="start" x="113.5" y="-286.5" font-family="FreeSans" font-size="10.00">src/Synchronisation</text>
<text text-anchor="middle" x="184" y="-275.5" font-family="FreeSans" font-size="10.00">/MulticameraSynchronisation.ipp</text>
</a>
</g>
</g>
<!-- Node13&#45;&gt;Node14 -->
<g id="edge3" class="edge"><title>Node13&#45;&gt;Node14</title>
<path fill="none" stroke="midnightblue" d="M247.623,-329.451C233.47,-319.452 216.695,-307.6 203.924,-298.577"/>
<polygon fill="midnightblue" stroke="midnightblue" points="245.851,-332.484 256.037,-335.396 249.89,-326.767 245.851,-332.484"/>
</g>
<!-- Node16 -->
<g id="node6" class="node"><title>Node16</title>
<g id="a_node6"><a xlink:href="AppMulticameraSynchronisation_8cpp.html" target="_top" xlink:title="src/Application/AppMulticamera\lSynchronisation.cpp">
<polygon fill="white" stroke="black" points="103.5,-0.5 103.5,-30.5 258.5,-30.5 258.5,-0.5 103.5,-0.5"/>
<text text-anchor="start" x="111.5" y="-18.5" font-family="FreeSans" font-size="10.00">src/Application/AppMulticamera</text>
<text text-anchor="middle" x="181" y="-7.5" font-family="FreeSans" font-size="10.00">Synchronisation.cpp</text>
</a>
</g>
</g>
<!-- Node13&#45;&gt;Node16 -->
<g id="edge11" class="edge"><title>Node13&#45;&gt;Node16</title>
<path fill="none" stroke="midnightblue" d="M199.972,-344.993C118.273,-335.551 0,-306.511 0,-217.5 0,-217.5 0,-217.5 0,-148.5 0,-84.522 74.7361,-48.2621 128.161,-30.5151"/>
<polygon fill="midnightblue" stroke="midnightblue" points="199.924,-348.508 210.242,-346.1 200.675,-341.548 199.924,-348.508"/>
</g>
<!-- Node21 -->
<g id="node11" class="node"><title>Node21</title>
<g id="a_node11"><a xlink:href="InterfaceRelativeSynchronisation_8ipp.html" target="_top" xlink:title="src/ApplicationInterface\l/InterfaceRelativeSynchronisation.ipp">
<polygon fill="white" stroke="black" points="280.5,-268.5 280.5,-298.5 457.5,-298.5 457.5,-268.5 280.5,-268.5"/>
<text text-anchor="start" x="288.5" y="-286.5" font-family="FreeSans" font-size="10.00">src/ApplicationInterface</text>
<text text-anchor="middle" x="369" y="-275.5" font-family="FreeSans" font-size="10.00">/InterfaceRelativeSynchronisation.ipp</text>
</a>
</g>
</g>
<!-- Node13&#45;&gt;Node21 -->
<g id="edge12" class="edge"><title>Node13&#45;&gt;Node21</title>
<path fill="none" stroke="midnightblue" d="M304.685,-329.451C318.992,-319.452 335.95,-307.6 348.86,-298.577"/>
<polygon fill="midnightblue" stroke="midnightblue" points="302.371,-326.798 296.18,-335.396 306.381,-332.536 302.371,-326.798"/>
</g>
<!-- Node24 -->
<g id="node14" class="node"><title>Node24</title>
<g id="a_node14"><a xlink:href="RelativeSynchronisation_8cpp.html" target="_top" xlink:title="src/Synchronisation\l/RelativeSynchronisation.cpp">
<polygon fill="white" stroke="black" points="476,-268.5 476,-298.5 618,-298.5 618,-268.5 476,-268.5"/>
<text text-anchor="start" x="484" y="-286.5" font-family="FreeSans" font-size="10.00">src/Synchronisation</text>
<text text-anchor="middle" x="547" y="-275.5" font-family="FreeSans" font-size="10.00">/RelativeSynchronisation.cpp</text>
</a>
</g>
</g>
<!-- Node13&#45;&gt;Node24 -->
<g id="edge16" class="edge"><title>Node13&#45;&gt;Node24</title>
<path fill="none" stroke="midnightblue" d="M344.298,-333.119C388.642,-322.483 445.843,-308.763 488.168,-298.611"/>
<polygon fill="midnightblue" stroke="midnightblue" points="343.377,-329.74 334.469,-335.476 345.01,-336.547 343.377,-329.74"/>
</g>
<!-- Node15 -->
<g id="node5" class="node"><title>Node15</title>
<g id="a_node5"><a xlink:href="MulticameraSynchronisation_8h.html" target="_top" xlink:title="src/Synchronisation\l/MulticameraSynchronisation.h">
<polygon fill="white" stroke="black" points="112.5,-201.5 112.5,-231.5 261.5,-231.5 261.5,-201.5 112.5,-201.5"/>
<text text-anchor="start" x="120.5" y="-219.5" font-family="FreeSans" font-size="10.00">src/Synchronisation</text>
<text text-anchor="middle" x="187" y="-208.5" font-family="FreeSans" font-size="10.00">/MulticameraSynchronisation.h</text>
</a>
</g>
</g>
<!-- Node14&#45;&gt;Node15 -->
<g id="edge4" class="edge"><title>Node14&#45;&gt;Node15</title>
<path fill="none" stroke="midnightblue" d="M185.112,-258.403C185.529,-249.37 185.989,-239.408 186.35,-231.577"/>
<polygon fill="midnightblue" stroke="midnightblue" points="181.616,-258.245 184.651,-268.396 188.608,-258.568 181.616,-258.245"/>
</g>
<!-- Node15&#45;&gt;Node16 -->
<g id="edge5" class="edge"><title>Node15&#45;&gt;Node16</title>
<path fill="none" stroke="midnightblue" d="M192.726,-191.609C194.465,-183.245 196.141,-173.756 197,-165 201.833,-115.709 190.548,-57.3061 184.505,-30.826"/>
<polygon fill="midnightblue" stroke="midnightblue" points="189.289,-190.941 190.547,-201.461 196.124,-192.453 189.289,-190.941"/>
</g>
<!-- Node17 -->
<g id="node7" class="node"><title>Node17</title>
<g id="a_node7"><a xlink:href="InterfaceMulticameraSynchronisation_8ipp.html" target="_top" xlink:title="src/ApplicationInterface\l/InterfaceMulticameraSynchronisation.ipp">
<polygon fill="white" stroke="black" points="243.5,-134.5 243.5,-164.5 438.5,-164.5 438.5,-134.5 243.5,-134.5"/>
<text text-anchor="start" x="251.5" y="-152.5" font-family="FreeSans" font-size="10.00">src/ApplicationInterface</text>
<text text-anchor="middle" x="341" y="-141.5" font-family="FreeSans" font-size="10.00">/InterfaceMulticameraSynchronisation.ipp</text>
</a>
</g>
</g>
<!-- Node15&#45;&gt;Node17 -->
<g id="edge6" class="edge"><title>Node15&#45;&gt;Node17</title>
<path fill="none" stroke="midnightblue" d="M229.867,-197.407C254.453,-187.029 284.86,-174.195 307.65,-164.577"/>
<polygon fill="midnightblue" stroke="midnightblue" points="228.268,-194.283 220.416,-201.396 230.99,-200.732 228.268,-194.283"/>
</g>
<!-- Node20 -->
<g id="node10" class="node"><title>Node20</title>
<g id="a_node10"><a xlink:href="MulticameraSynchronisation_8cpp.html" target="_top" xlink:title="src/Synchronisation\l/MulticameraSynchronisation.cpp">
<polygon fill="white" stroke="black" points="28,-134.5 28,-164.5 188,-164.5 188,-134.5 28,-134.5"/>
<text text-anchor="start" x="36" y="-152.5" font-family="FreeSans" font-size="10.00">src/Synchronisation</text>
<text text-anchor="middle" x="108" y="-141.5" font-family="FreeSans" font-size="10.00">/MulticameraSynchronisation.cpp</text>
</a>
</g>
</g>
<!-- Node15&#45;&gt;Node20 -->
<g id="edge10" class="edge"><title>Node15&#45;&gt;Node20</title>
<path fill="none" stroke="midnightblue" d="M161.943,-194.883C149.937,-185.005 135.868,-173.429 125.108,-164.577"/>
<polygon fill="midnightblue" stroke="midnightblue" points="159.912,-197.745 169.858,-201.396 164.36,-192.34 159.912,-197.745"/>
</g>
<!-- Node18 -->
<g id="node8" class="node"><title>Node18</title>
<g id="a_node8"><a xlink:href="InterfaceMulticameraSynchronisation_8h.html" target="_top" xlink:title="src/ApplicationInterface\l/InterfaceMulticameraSynchronisation.h">
<polygon fill="white" stroke="black" points="247,-67.5 247,-97.5 435,-97.5 435,-67.5 247,-67.5"/>
<text text-anchor="start" x="255" y="-85.5" font-family="FreeSans" font-size="10.00">src/ApplicationInterface</text>
<text text-anchor="middle" x="341" y="-74.5" font-family="FreeSans" font-size="10.00">/InterfaceMulticameraSynchronisation.h</text>
</a>
</g>
</g>
<!-- Node17&#45;&gt;Node18 -->
<g id="edge7" class="edge"><title>Node17&#45;&gt;Node18</title>
<path fill="none" stroke="midnightblue" d="M341,-124.108C341,-115.154 341,-105.323 341,-97.5765"/>
<polygon fill="midnightblue" stroke="midnightblue" points="337.5,-124.396 341,-134.396 344.5,-124.396 337.5,-124.396"/>
</g>
<!-- Node18&#45;&gt;Node16 -->
<g id="edge8" class="edge"><title>Node18&#45;&gt;Node16</title>
<path fill="none" stroke="midnightblue" d="M296.801,-63.5442C271.198,-53.143 239.432,-40.238 215.65,-30.5765"/>
<polygon fill="midnightblue" stroke="midnightblue" points="295.7,-66.8748 306.282,-67.396 298.335,-60.3895 295.7,-66.8748"/>
</g>
<!-- Node19 -->
<g id="node9" class="node"><title>Node19</title>
<g id="a_node9"><a xlink:href="InterfaceMulticameraSynchronisation_8cpp.html" target="_top" xlink:title="src/ApplicationInterface\l/InterfaceMulticameraSynchronisation.cpp">
<polygon fill="white" stroke="black" points="277,-0.5 277,-30.5 475,-30.5 475,-0.5 277,-0.5"/>
<text text-anchor="start" x="285" y="-18.5" font-family="FreeSans" font-size="10.00">src/ApplicationInterface</text>
<text text-anchor="middle" x="376" y="-7.5" font-family="FreeSans" font-size="10.00">/InterfaceMulticameraSynchronisation.cpp</text>
</a>
</g>
</g>
<!-- Node18&#45;&gt;Node19 -->
<g id="edge9" class="edge"><title>Node18&#45;&gt;Node19</title>
<path fill="none" stroke="midnightblue" d="M353.344,-58.5756C358.37,-49.2406 364.02,-38.7483 368.42,-30.5765"/>
<polygon fill="midnightblue" stroke="midnightblue" points="350.254,-56.9319 348.594,-67.396 356.417,-60.2506 350.254,-56.9319"/>
</g>
<!-- Node22 -->
<g id="node12" class="node"><title>Node22</title>
<g id="a_node12"><a xlink:href="InterfaceRelativeSynchronisation_8h.html" target="_top" xlink:title="src/ApplicationInterface\l/InterfaceRelativeSynchronisation.h">
<polygon fill="white" stroke="black" points="284,-201.5 284,-231.5 454,-231.5 454,-201.5 284,-201.5"/>
<text text-anchor="start" x="292" y="-219.5" font-family="FreeSans" font-size="10.00">src/ApplicationInterface</text>
<text text-anchor="middle" x="369" y="-208.5" font-family="FreeSans" font-size="10.00">/InterfaceRelativeSynchronisation.h</text>
</a>
</g>
</g>
<!-- Node21&#45;&gt;Node22 -->
<g id="edge13" class="edge"><title>Node21&#45;&gt;Node22</title>
<path fill="none" stroke="midnightblue" d="M369,-258.108C369,-249.154 369,-239.323 369,-231.577"/>
<polygon fill="midnightblue" stroke="midnightblue" points="365.5,-258.396 369,-268.396 372.5,-258.396 365.5,-258.396"/>
</g>
<!-- Node22&#45;&gt;Node17 -->
<g id="edge14" class="edge"><title>Node22&#45;&gt;Node17</title>
<path fill="none" stroke="midnightblue" d="M358.873,-191.991C354.916,-182.804 350.511,-172.578 347.064,-164.577"/>
<polygon fill="midnightblue" stroke="midnightblue" points="355.754,-193.597 362.924,-201.396 362.183,-190.827 355.754,-193.597"/>
</g>
<!-- Node23 -->
<g id="node13" class="node"><title>Node23</title>
<g id="a_node13"><a xlink:href="InterfaceRelativeSynchronisation_8cpp.html" target="_top" xlink:title="src/ApplicationInterface\l/InterfaceRelativeSynchronisation.cpp">
<polygon fill="white" stroke="black" points="457,-134.5 457,-164.5 637,-164.5 637,-134.5 457,-134.5"/>
<text text-anchor="start" x="465" y="-152.5" font-family="FreeSans" font-size="10.00">src/ApplicationInterface</text>
<text text-anchor="middle" x="547" y="-141.5" font-family="FreeSans" font-size="10.00">/InterfaceRelativeSynchronisation.cpp</text>
</a>
</g>
</g>
<!-- Node22&#45;&gt;Node23 -->
<g id="edge15" class="edge"><title>Node22&#45;&gt;Node23</title>
<path fill="none" stroke="midnightblue" d="M417.046,-197.955C445.719,-187.485 481.645,-174.366 508.452,-164.577"/>
<polygon fill="midnightblue" stroke="midnightblue" points="415.816,-194.678 407.623,-201.396 418.217,-201.253 415.816,-194.678"/>
</g>
</g>
</svg>
        <g id="navigator" transform="translate(0 0)" fill="#404254">
                <rect fill="#f2f5e9" fill-opacity="0.5" stroke="#606060" stroke-width=".5" x="0" y="0" width="60" height="60"/>
                <use id="zoomplus" xlink:href="#zoomPlus" x="17" y="9" onmousedown="handleZoom(evt,'in')"/>
                <use id="zoomminus" xlink:href="#zoomMin" x="42" y="9" onmousedown="handleZoom(evt,'out')"/>
                <use id="reset" xlink:href="#resetDef" x="30" y="36" onmousedown="handleReset()"/>
                <g id="arrowUp" xlink:href="#dirArrow" transform="translate(30 24)" onmousedown="handlePan(0,-1)">
                  <use xlink:href="#rim" fill="#404040">
                        <set attributeName="fill" to="#808080" begin="arrowUp.mouseover" end="arrowUp.mouseout"/>
                  </use>
                  <path fill="none" stroke="white" stroke-width="1.5" d="M0,-3.0v7 M-2.5,-0.5L0,-3.0L2.5,-0.5"/>
                </g>
                <g id="arrowRight" xlink:href="#dirArrow" transform="rotate(90) translate(36 -43)" onmousedown="handlePan(1,0)">
                  <use xlink:href="#rim" fill="#404040">
                        <set attributeName="fill" to="#808080" begin="arrowRight.mouseover" end="arrowRight.mouseout"/>
                  </use>
                  <path fill="none" stroke="white" stroke-width="1.5" d="M0,-3.0v7 M-2.5,-0.5L0,-3.0L2.5,-0.5"/>
                </g>
                <g id="arrowDown" xlink:href="#dirArrow" transform="rotate(180) translate(-30 -48)" onmousedown="handlePan(0,1)">
                  <use xlink:href="#rim" fill="#404040">
                        <set attributeName="fill" to="#808080" begin="arrowDown.mouseover" end="arrowDown.mouseout"/>
                  </use>
                  <path fill="none" stroke="white" stroke-width="1.5" d="M0,-3.0v7 M-2.5,-0.5L0,-3.0L2.5,-0.5"/>
                </g>
                <g id="arrowLeft" xlink:href="#dirArrow" transform="rotate(270) translate(-36 17)" onmousedown="handlePan(-1,0)">
                  <use xlink:href="#rim" fill="#404040">
                        <set attributeName="fill" to="#808080" begin="arrowLeft.mouseover" end="arrowLeft.mouseout"/>
                  </use>
                  <path fill="none" stroke="white" stroke-width="1.5" d="M0,-3.0v7 M-2.5,-0.5L0,-3.0L2.5,-0.5"/>
                </g>
        </g>
        <svg viewBox="0 0 15 15" width="100%" height="30px" preserveAspectRatio="xMaxYMin meet">
         <g id="arrow_out" transform="scale(0.3 0.3)">
          <a xlink:href="ViterbiNormalisedHistogramMatchingProblem_8h__dep__incl_org.svg" target="_base">
           <rect id="button" ry="5" rx="5" y="6" x="6" height="38" width="38"
                fill="#f2f5e9" fill-opacity="0.5" stroke="#606060" stroke-width="1.0"/>
           <path id="arrow"
             d="M 11.500037,31.436501 C 11.940474,20.09759 22.043105,11.32322 32.158766,21.979434 L 37.068811,17.246167 C 37.068811,17.246167 37.088388,32 37.088388,32 L 22.160133,31.978069 C 22.160133,31.978069 26.997745,27.140456 26.997745,27.140456 C 18.528582,18.264221 13.291696,25.230495 11.500037,31.436501 z"
             style="fill:#404040;"/>
          </a>
         </g>
        </svg>
</svg>
