<?xml version="1.0" encoding="UTF-8" standalone="no"?>
<!DOCTYPE svg PUBLIC "-//W3C//DTD SVG 1.1//EN"
 "http://www.w3.org/Graphics/SVG/1.1/DTD/svg11.dtd">
<!-- Generated by graphviz version 2.38.0 (20140413.2041)
 -->
<!-- Title: src/StateEstimation/Viterbi.h Pages: 1 -->
<!--zoomable 285 -->
<svg id="main" version="1.1" xmlns="http://www.w3.org/2000/svg" xmlns:xlink="http://www.w3.org/1999/xlink" xml:space="preserve" onload="init(evt)">
<style type="text/css"><![CDATA[
.edge:hover path { stroke: red; }
.edge:hover polygon { stroke: red; fill: red; }
]]></style>
<script type="text/javascript"><![CDATA[
var edges = document.getElementsByTagName('g');
if (edges && edges.length) {
  for (var i=0;i<edges.length;i++) {
    if (edges[i].id.substr(0,4)=='edge') {
      edges[i].setAttribute('class','edge');
    }
  }
}
]]></script>
        <defs>
                <circle id="rim" cx="0" cy="0" r="7"/>
                <circle id="rim2" cx="0" cy="0" r="3.5"/>
                <g id="zoomPlus">
                        <use xlink:href="#rim" fill="#404040">
                                <set attributeName="fill" to="#808080" begin="zoomplus.mouseover" end="zoomplus.mouseout"/>
                        </use>
                        <path d="M-4,0h8M0,-4v8" fill="none" stroke="white" stroke-width="1.5" pointer-events="none"/>
                </g>
                <g id="zoomMin">
                        <use xlink:href="#rim" fill="#404040">
                                <set attributeName="fill" to="#808080" begin="zoomminus.mouseover" end="zoomminus.mouseout"/>
                        </use>
                        <path d="M-4,0h8" fill="none" stroke="white" stroke-width="1.5" pointer-events="none"/>
                </g>
                <g id="dirArrow">
                        <path fill="none" stroke="white" stroke-width="1.5" d="M0,-3.0v7 M-2.5,-0.5L0,-3.0L2.5,-0.5"/>
                </g>
               <g id="resetDef">
                       <use xlink:href="#rim2" fill="#404040">
                               <set attributeName="fill" to="#808080" begin="reset.mouseover" end="reset.mouseout"/>
                       </use>
               </g>
        </defs>

<script type="text/javascript">
var viewWidth = 1550;
var viewHeight = 285;
var sectionId = 'dynsection-0';
</script>
<script xlink:href="svgpan.js"/>
<svg id="graph" class="graph">
<g id="viewport">
<title>src/StateEstimation/Viterbi.h</title>
<polygon fill="white" stroke="none" points="-4,4 -4,-281 1545.75,-281 1545.75,4 -4,4"/>
<!-- Node0 -->
<g id="node1" class="node"><title>Node0</title>
<polygon fill="#bfbfbf" stroke="black" points="482.753,-246.5 482.753,-276.5 584.753,-276.5 584.753,-246.5 482.753,-246.5"/>
<text text-anchor="start" x="490.753" y="-264.5" font-family="FreeSans" font-size="10.00">src/StateEstimation</text>
<text text-anchor="middle" x="533.753" y="-253.5" font-family="FreeSans" font-size="10.00">/Viterbi.h</text>
</g>
<!-- Node1 -->
<g id="node2" class="node"><title>Node1</title>
<g id="a_node2"><a xlink:href="Viterbi_8ipp.html" target="_top" xlink:title="Viterbi.ipp">
<polygon fill="white" stroke="black" points="504.253,-190.5 504.253,-209.5 563.253,-209.5 563.253,-190.5 504.253,-190.5"/>
<text text-anchor="middle" x="533.753" y="-197.5" font-family="FreeSans" font-size="10.00">Viterbi.ipp</text>
</a>
</g>
</g>
<!-- Node0&#45;&gt;Node1 -->
<g id="edge1" class="edge"><title>Node0&#45;&gt;Node1</title>
<path fill="none" stroke="midnightblue" d="M533.753,-246.399C533.753,-238.466 533.753,-228.458 533.753,-219.858"/>
<polygon fill="midnightblue" stroke="midnightblue" points="537.254,-219.658 533.753,-209.658 530.254,-219.658 537.254,-219.658"/>
</g>
<!-- Node2 -->
<g id="node3" class="node"><title>Node2</title>
<polygon fill="white" stroke="#bfbfbf" points="448.753,-6 448.753,-25 576.753,-25 576.753,-6 448.753,-6"/>
<text text-anchor="middle" x="512.753" y="-13" font-family="FreeSans" font-size="10.00">boost/concept_check.hpp</text>
</g>
<!-- Node1&#45;&gt;Node2 -->
<g id="edge2" class="edge"><title>Node1&#45;&gt;Node2</title>
<path fill="none" stroke="midnightblue" d="M503.929,-198.744C397.577,-197.525 41.4577,-190.711 7.75348,-154 -53.1819,-87.6289 283.359,-41.5727 438.111,-24.1876"/>
<polygon fill="midnightblue" stroke="midnightblue" points="438.932,-27.6181 448.484,-23.0348 438.158,-20.6609 438.932,-27.6181"/>
</g>
<!-- Node3 -->
<g id="node4" class="node"><title>Node3</title>
<polygon fill="white" stroke="#bfbfbf" points="16.7535,-123.5 16.7535,-153.5 130.753,-153.5 130.753,-123.5 16.7535,-123.5"/>
<text text-anchor="start" x="24.7535" y="-141.5" font-family="FreeSans" font-size="10.00">boost/graph/adjacency</text>
<text text-anchor="middle" x="73.7535" y="-130.5" font-family="FreeSans" font-size="10.00">_list.hpp</text>
</g>
<!-- Node1&#45;&gt;Node3 -->
<g id="edge3" class="edge"><title>Node1&#45;&gt;Node3</title>
<path fill="none" stroke="midnightblue" d="M503.953,-196.647C439.561,-191.34 282.492,-177.187 141.075,-154.112"/>
<polygon fill="midnightblue" stroke="midnightblue" points="141.358,-150.612 130.921,-152.436 140.217,-157.518 141.358,-150.612"/>
</g>
<!-- Node4 -->
<g id="node5" class="node"><title>Node4</title>
<polygon fill="white" stroke="#bfbfbf" points="148.753,-129 148.753,-148 276.753,-148 276.753,-129 148.753,-129"/>
<text text-anchor="middle" x="212.753" y="-136" font-family="FreeSans" font-size="10.00">boost/range/algorithm.hpp</text>
</g>
<!-- Node1&#45;&gt;Node4 -->
<g id="edge4" class="edge"><title>Node1&#45;&gt;Node4</title>
<path fill="none" stroke="midnightblue" d="M503.948,-193.756C457.349,-185.521 364.424,-168.95 285.753,-154 279.101,-152.736 272.113,-151.382 265.206,-150.027"/>
<polygon fill="midnightblue" stroke="midnightblue" points="265.68,-146.553 255.192,-148.053 264.326,-153.421 265.68,-146.553"/>
</g>
<!-- Node5 -->
<g id="node6" class="node"><title>Node5</title>
<polygon fill="white" stroke="#bfbfbf" points="295.253,-129 295.253,-148 338.253,-148 338.253,-129 295.253,-129"/>
<text text-anchor="middle" x="316.753" y="-136" font-family="FreeSans" font-size="10.00">omp.h</text>
</g>
<!-- Node1&#45;&gt;Node5 -->
<g id="edge5" class="edge"><title>Node1&#45;&gt;Node5</title>
<path fill="none" stroke="midnightblue" d="M504.234,-193.755C467.103,-186.729 401.675,-172.919 347.753,-154 346.135,-153.432 344.487,-152.808 342.836,-152.147"/>
<polygon fill="midnightblue" stroke="midnightblue" points="344.119,-148.888 333.553,-148.103 341.323,-155.306 344.119,-148.888"/>
</g>
<!-- Node6 -->
<g id="node7" class="node"><title>Node6</title>
<polygon fill="white" stroke="#bfbfbf" points="356.753,-129 356.753,-148 412.753,-148 412.753,-129 356.753,-129"/>
<text text-anchor="middle" x="384.753" y="-136" font-family="FreeSans" font-size="10.00">algorithm</text>
</g>
<!-- Node1&#45;&gt;Node6 -->
<g id="edge6" class="edge"><title>Node1&#45;&gt;Node6</title>
<path fill="none" stroke="midnightblue" d="M512.405,-190.475C487.068,-180.357 444.615,-163.405 415.682,-151.851"/>
<polygon fill="midnightblue" stroke="midnightblue" points="416.647,-148.467 406.062,-148.009 414.051,-154.968 416.647,-148.467"/>
</g>
<!-- Node7 -->
<g id="node8" class="node"><title>Node7</title>
<polygon fill="white" stroke="#bfbfbf" points="430.753,-129 430.753,-148 474.753,-148 474.753,-129 430.753,-129"/>
<text text-anchor="middle" x="452.753" y="-136" font-family="FreeSans" font-size="10.00">vector</text>
</g>
<!-- Node1&#45;&gt;Node7 -->
<g id="edge7" class="edge"><title>Node1&#45;&gt;Node7</title>
<path fill="none" stroke="midnightblue" d="M522.148,-190.475C509.276,-181.02 488.279,-165.596 472.748,-154.187"/>
<polygon fill="midnightblue" stroke="midnightblue" points="474.469,-151.108 464.337,-148.009 470.325,-156.75 474.469,-151.108"/>
</g>
<!-- Node8 -->
<g id="node9" class="node"><title>Node8</title>
<polygon fill="white" stroke="#bfbfbf" points="493.253,-129 493.253,-148 522.253,-148 522.253,-129 493.253,-129"/>
<text text-anchor="middle" x="507.753" y="-136" font-family="FreeSans" font-size="10.00">list</text>
</g>
<!-- Node1&#45;&gt;Node8 -->
<g id="edge8" class="edge"><title>Node1&#45;&gt;Node8</title>
<path fill="none" stroke="midnightblue" d="M530.028,-190.475C526.283,-181.904 520.394,-168.427 515.612,-157.483"/>
<polygon fill="midnightblue" stroke="midnightblue" points="518.683,-155.771 511.472,-148.009 512.269,-158.574 518.683,-155.771"/>
</g>
<!-- Node9 -->
<g id="node10" class="node"><title>Node9</title>
<polygon fill="white" stroke="#bfbfbf" points="540.753,-129 540.753,-148 578.753,-148 578.753,-129 540.753,-129"/>
<text text-anchor="middle" x="559.753" y="-136" font-family="FreeSans" font-size="10.00">tuple</text>
</g>
<!-- Node1&#45;&gt;Node9 -->
<g id="edge9" class="edge"><title>Node1&#45;&gt;Node9</title>
<path fill="none" stroke="midnightblue" d="M537.479,-190.475C541.224,-181.904 547.113,-168.427 551.895,-157.483"/>
<polygon fill="midnightblue" stroke="midnightblue" points="555.238,-158.574 556.035,-148.009 548.824,-155.771 555.238,-158.574"/>
</g>
<!-- Node10 -->
<g id="node11" class="node"><title>Node10</title>
<polygon fill="white" stroke="#bfbfbf" points="596.753,-129 596.753,-148 640.753,-148 640.753,-129 596.753,-129"/>
<text text-anchor="middle" x="618.753" y="-136" font-family="FreeSans" font-size="10.00">cmath</text>
</g>
<!-- Node1&#45;&gt;Node10 -->
<g id="edge10" class="edge"><title>Node1&#45;&gt;Node10</title>
<path fill="none" stroke="midnightblue" d="M545.932,-190.475C559.566,-180.931 581.886,-165.307 598.227,-153.868"/>
<polygon fill="midnightblue" stroke="midnightblue" points="600.412,-156.611 606.598,-148.009 596.398,-150.876 600.412,-156.611"/>
</g>
<!-- Node11 -->
<g id="node12" class="node"><title>Node11</title>
<polygon fill="white" stroke="#bfbfbf" points="659.253,-129 659.253,-148 704.253,-148 704.253,-129 659.253,-129"/>
<text text-anchor="middle" x="681.753" y="-136" font-family="FreeSans" font-size="10.00">climits</text>
</g>
<!-- Node1&#45;&gt;Node11 -->
<g id="edge11" class="edge"><title>Node1&#45;&gt;Node11</title>
<path fill="none" stroke="midnightblue" d="M557.014,-190.41C580.543,-181.619 617.89,-167.387 649.753,-154 651.124,-153.424 652.524,-152.826 653.935,-152.216"/>
<polygon fill="midnightblue" stroke="midnightblue" points="655.488,-155.356 663.217,-148.109 652.656,-148.955 655.488,-155.356"/>
</g>
<!-- Node12 -->
<g id="node13" class="node"><title>Node12</title>
<polygon fill="white" stroke="#bfbfbf" points="722.253,-129 722.253,-148 781.253,-148 781.253,-129 722.253,-129"/>
<text text-anchor="middle" x="751.753" y="-136" font-family="FreeSans" font-size="10.00">stdexcept</text>
</g>
<!-- Node1&#45;&gt;Node12 -->
<g id="edge12" class="edge"><title>Node1&#45;&gt;Node12</title>
<path fill="none" stroke="midnightblue" d="M563.486,-192.577C599.229,-184.614 660.884,-170.109 712.753,-154 715.317,-153.204 717.958,-152.333 720.599,-151.427"/>
<polygon fill="midnightblue" stroke="midnightblue" points="721.795,-154.716 730.034,-148.055 719.44,-148.125 721.795,-154.716"/>
</g>
<!-- Node13 -->
<g id="node14" class="node"><title>Node13</title>
<polygon fill="white" stroke="#bfbfbf" points="799.253,-129 799.253,-148 846.253,-148 846.253,-129 799.253,-129"/>
<text text-anchor="middle" x="822.753" y="-136" font-family="FreeSans" font-size="10.00">iterator</text>
</g>
<!-- Node1&#45;&gt;Node13 -->
<g id="edge13" class="edge"><title>Node1&#45;&gt;Node13</title>
<path fill="none" stroke="midnightblue" d="M563.467,-196.118C611.742,-190.919 709.853,-178.192 789.753,-154 791.685,-153.415 793.654,-152.748 795.619,-152.027"/>
<polygon fill="midnightblue" stroke="midnightblue" points="797.286,-155.128 805.238,-148.127 794.656,-148.641 797.286,-155.128"/>
</g>
<!-- Node14 -->
<g id="node15" class="node"><title>Node14</title>
<g id="a_node15"><a xlink:href="BoostRange_8h.html" target="_top" xlink:title="../Wrappers/BoostRange.h">
<polygon fill="white" stroke="black" points="1007.25,-129 1007.25,-148 1136.25,-148 1136.25,-129 1007.25,-129"/>
<text text-anchor="middle" x="1071.75" y="-136" font-family="FreeSans" font-size="10.00">../Wrappers/BoostRange.h</text>
</a>
</g>
</g>
<!-- Node1&#45;&gt;Node14 -->
<g id="edge14" class="edge"><title>Node1&#45;&gt;Node14</title>
<path fill="none" stroke="midnightblue" d="M563.459,-197.121C637.224,-192.238 834.584,-177.841 997.753,-154 1005.59,-152.855 1013.85,-151.443 1021.9,-149.952"/>
<polygon fill="midnightblue" stroke="midnightblue" points="1022.77,-153.349 1031.93,-148.037 1021.46,-146.474 1022.77,-153.349"/>
</g>
<!-- Node24 -->
<g id="node25" class="node"><title>Node24</title>
<g id="a_node25"><a xlink:href="ViterbiProblemConcept_8h.html" target="_top" xlink:title="ViterbiProblemConcept.h">
<polygon fill="white" stroke="black" points="864.753,-129 864.753,-148 988.753,-148 988.753,-129 864.753,-129"/>
<text text-anchor="middle" x="926.753" y="-136" font-family="FreeSans" font-size="10.00">ViterbiProblemConcept.h</text>
</a>
</g>
</g>
<!-- Node1&#45;&gt;Node24 -->
<g id="edge25" class="edge"><title>Node1&#45;&gt;Node24</title>
<path fill="none" stroke="midnightblue" d="M563.594,-195.464C620.557,-188.572 748.664,-172.4 855.753,-154 862.585,-152.826 869.764,-151.486 876.825,-150.106"/>
<polygon fill="midnightblue" stroke="midnightblue" points="877.91,-153.458 887.032,-148.069 876.54,-146.594 877.91,-153.458"/>
</g>
<!-- Node15 -->
<g id="node16" class="node"><title>Node15</title>
<g id="a_node16"><a xlink:href="BoostRange_8ipp.html" target="_top" xlink:title="BoostRange.ipp">
<polygon fill="white" stroke="black" points="1029.25,-67.5 1029.25,-86.5 1114.25,-86.5 1114.25,-67.5 1029.25,-67.5"/>
<text text-anchor="middle" x="1071.75" y="-74.5" font-family="FreeSans" font-size="10.00">BoostRange.ipp</text>
</a>
</g>
</g>
<!-- Node14&#45;&gt;Node15 -->
<g id="edge15" class="edge"><title>Node14&#45;&gt;Node15</title>
<path fill="none" stroke="midnightblue" d="M1071.75,-128.975C1071.75,-120.58 1071.75,-107.481 1071.75,-96.6631"/>
<polygon fill="midnightblue" stroke="midnightblue" points="1075.25,-96.5091 1071.75,-86.5091 1068.25,-96.5091 1075.25,-96.5091"/>
</g>
<!-- Node15&#45;&gt;Node2 -->
<g id="edge16" class="edge"><title>Node15&#45;&gt;Node2</title>
<path fill="none" stroke="midnightblue" d="M1029,-73.5371C944.155,-68.3203 748.645,-54.6537 585.753,-31 577.931,-29.8641 569.679,-28.4432 561.649,-26.9382"/>
<polygon fill="midnightblue" stroke="midnightblue" points="562.129,-23.4662 551.646,-25.0022 560.799,-30.3387 562.129,-23.4662"/>
</g>
<!-- Node16 -->
<g id="node17" class="node"><title>Node16</title>
<polygon fill="white" stroke="#bfbfbf" points="595.253,-6 595.253,-25 702.253,-25 702.253,-6 595.253,-6"/>
<text text-anchor="middle" x="648.753" y="-13" font-family="FreeSans" font-size="10.00">boost/tuple/tuple.hpp</text>
</g>
<!-- Node15&#45;&gt;Node16 -->
<g id="edge17" class="edge"><title>Node15&#45;&gt;Node16</title>
<path fill="none" stroke="midnightblue" d="M1029.02,-72.1498C961.225,-65.7104 824.997,-51.4205 710.753,-31 704.828,-29.9408 698.618,-28.6762 692.513,-27.3415"/>
<polygon fill="midnightblue" stroke="midnightblue" points="692.932,-23.8478 682.406,-25.0528 691.386,-30.675 692.932,-23.8478"/>
</g>
<!-- Node17 -->
<g id="node18" class="node"><title>Node17</title>
<polygon fill="white" stroke="#bfbfbf" points="720.253,-0.5 720.253,-30.5 821.253,-30.5 821.253,-0.5 720.253,-0.5"/>
<text text-anchor="start" x="728.253" y="-18.5" font-family="FreeSans" font-size="10.00">boost/range/iterator</text>
<text text-anchor="middle" x="770.753" y="-7.5" font-family="FreeSans" font-size="10.00">_range.hpp</text>
</g>
<!-- Node15&#45;&gt;Node17 -->
<g id="edge18" class="edge"><title>Node15&#45;&gt;Node17</title>
<path fill="none" stroke="midnightblue" d="M1028.96,-68.7084C982.741,-60.6796 906.729,-47.0255 831.566,-31.1071"/>
<polygon fill="midnightblue" stroke="midnightblue" points="831.96,-27.6125 821.45,-28.9496 830.5,-34.4585 831.96,-27.6125"/>
</g>
<!-- Node18 -->
<g id="node19" class="node"><title>Node18</title>
<polygon fill="white" stroke="#bfbfbf" points="839.753,-6 839.753,-25 989.753,-25 989.753,-6 839.753,-6"/>
<text text-anchor="middle" x="914.753" y="-13" font-family="FreeSans" font-size="10.00">boost/range/metafunctions.hpp</text>
</g>
<!-- Node15&#45;&gt;Node18 -->
<g id="edge19" class="edge"><title>Node15&#45;&gt;Node18</title>
<path fill="none" stroke="midnightblue" d="M1049.26,-67.4751C1022.44,-57.3129 977.438,-40.2564 946.944,-28.6996"/>
<polygon fill="midnightblue" stroke="midnightblue" points="947.797,-25.2801 937.206,-25.0091 945.317,-31.8258 947.797,-25.2801"/>
</g>
<!-- Node19 -->
<g id="node20" class="node"><title>Node19</title>
<polygon fill="white" stroke="#bfbfbf" points="1007.75,-6 1007.75,-25 1135.75,-25 1135.75,-6 1007.75,-6"/>
<text text-anchor="middle" x="1071.75" y="-13" font-family="FreeSans" font-size="10.00">boost/range/functions.hpp</text>
</g>
<!-- Node15&#45;&gt;Node19 -->
<g id="edge20" class="edge"><title>Node15&#45;&gt;Node19</title>
<path fill="none" stroke="midnightblue" d="M1071.75,-67.4751C1071.75,-59.0803 1071.75,-45.9806 1071.75,-35.1631"/>
<polygon fill="midnightblue" stroke="midnightblue" points="1075.25,-35.0091 1071.75,-25.0091 1068.25,-35.0091 1075.25,-35.0091"/>
</g>
<!-- Node20 -->
<g id="node21" class="node"><title>Node20</title>
<polygon fill="white" stroke="#bfbfbf" points="1154.25,-0.5 1154.25,-30.5 1243.25,-30.5 1243.25,-0.5 1154.25,-0.5"/>
<text text-anchor="start" x="1162.25" y="-18.5" font-family="FreeSans" font-size="10.00">boost/iterator/zip</text>
<text text-anchor="middle" x="1198.75" y="-7.5" font-family="FreeSans" font-size="10.00">_iterator.hpp</text>
</g>
<!-- Node15&#45;&gt;Node20 -->
<g id="edge21" class="edge"><title>Node15&#45;&gt;Node20</title>
<path fill="none" stroke="midnightblue" d="M1089.95,-67.4751C1108.03,-59.0024 1136.35,-45.7373 1159.56,-34.8628"/>
<polygon fill="midnightblue" stroke="midnightblue" points="1161.25,-37.9349 1168.82,-30.523 1158.28,-31.5961 1161.25,-37.9349"/>
</g>
<!-- Node21 -->
<g id="node22" class="node"><title>Node21</title>
<polygon fill="white" stroke="#bfbfbf" points="1261.75,-0.5 1261.75,-30.5 1389.75,-30.5 1389.75,-0.5 1261.75,-0.5"/>
<text text-anchor="start" x="1269.75" y="-18.5" font-family="FreeSans" font-size="10.00">boost/iterator/permutation</text>
<text text-anchor="middle" x="1325.75" y="-7.5" font-family="FreeSans" font-size="10.00">_iterator.hpp</text>
</g>
<!-- Node15&#45;&gt;Node21 -->
<g id="edge22" class="edge"><title>Node15&#45;&gt;Node21</title>
<path fill="none" stroke="midnightblue" d="M1108.15,-67.4751C1146.57,-58.4752 1208.07,-44.068 1255.9,-32.8624"/>
<polygon fill="midnightblue" stroke="midnightblue" points="1256.95,-36.2116 1265.89,-30.523 1255.36,-29.3961 1256.95,-36.2116"/>
</g>
<!-- Node22 -->
<g id="node23" class="node"><title>Node22</title>
<polygon fill="white" stroke="#bfbfbf" points="1407.75,-6 1407.75,-25 1469.75,-25 1469.75,-6 1407.75,-6"/>
<text text-anchor="middle" x="1438.75" y="-13" font-family="FreeSans" font-size="10.00">type_traits</text>
</g>
<!-- Node15&#45;&gt;Node22 -->
<g id="edge23" class="edge"><title>Node15&#45;&gt;Node22</title>
<path fill="none" stroke="midnightblue" d="M1114.36,-73.0206C1177.3,-67.9739 1298.48,-55.78 1398.75,-31 1401.81,-30.2447 1404.96,-29.3389 1408.08,-28.3537"/>
<polygon fill="midnightblue" stroke="midnightblue" points="1409.5,-31.5665 1417.84,-25.0231 1407.24,-24.9419 1409.5,-31.5665"/>
</g>
<!-- Node23 -->
<g id="node24" class="node"><title>Node23</title>
<polygon fill="white" stroke="#bfbfbf" points="1487.75,-6 1487.75,-25 1541.75,-25 1541.75,-6 1487.75,-6"/>
<text text-anchor="middle" x="1514.75" y="-13" font-family="FreeSans" font-size="10.00">iostream</text>
</g>
<!-- Node15&#45;&gt;Node23 -->
<g id="edge24" class="edge"><title>Node15&#45;&gt;Node23</title>
<path fill="none" stroke="midnightblue" d="M1114.32,-75.0941C1189.13,-72.6658 1348.63,-63.7432 1478.75,-31 1481.42,-30.3295 1484.15,-29.5046 1486.85,-28.5916"/>
<polygon fill="midnightblue" stroke="midnightblue" points="1488.26,-31.8038 1496.39,-25.0171 1485.8,-25.249 1488.26,-31.8038"/>
</g>
<!-- Node25 -->
<g id="node26" class="node"><title>Node25</title>
<g id="a_node26"><a xlink:href="ViterbiProblemConcept_8ipp.html" target="_top" xlink:title="ViterbiProblemConcept.ipp">
<polygon fill="white" stroke="black" points="654.253,-67.5 654.253,-86.5 785.253,-86.5 785.253,-67.5 654.253,-67.5"/>
<text text-anchor="middle" x="719.753" y="-74.5" font-family="FreeSans" font-size="10.00">ViterbiProblemConcept.ipp</text>
</a>
</g>
</g>
<!-- Node24&#45;&gt;Node25 -->
<g id="edge26" class="edge"><title>Node24&#45;&gt;Node25</title>
<path fill="none" stroke="midnightblue" d="M897.095,-128.975C860.819,-118.548 799.29,-100.862 759.089,-89.3066"/>
<polygon fill="midnightblue" stroke="midnightblue" points="759.934,-85.9079 749.357,-86.5091 758,-92.6355 759.934,-85.9079"/>
</g>
<!-- Node25&#45;&gt;Node2 -->
<g id="edge27" class="edge"><title>Node25&#45;&gt;Node2</title>
<path fill="none" stroke="midnightblue" d="M690.095,-67.4751C653.819,-57.0478 592.29,-39.3618 552.089,-27.8066"/>
<polygon fill="midnightblue" stroke="midnightblue" points="552.934,-24.4079 542.357,-25.0091 551,-31.1355 552.934,-24.4079"/>
</g>
</g>
</svg>
        <g id="navigator" transform="translate(0 0)" fill="#404254">
                <rect fill="#f2f5e9" fill-opacity="0.5" stroke="#606060" stroke-width=".5" x="0" y="0" width="60" height="60"/>
                <use id="zoomplus" xlink:href="#zoomPlus" x="17" y="9" onmousedown="handleZoom(evt,'in')"/>
                <use id="zoomminus" xlink:href="#zoomMin" x="42" y="9" onmousedown="handleZoom(evt,'out')"/>
                <use id="reset" xlink:href="#resetDef" x="30" y="36" onmousedown="handleReset()"/>
                <g id="arrowUp" xlink:href="#dirArrow" transform="translate(30 24)" onmousedown="handlePan(0,-1)">
                  <use xlink:href="#rim" fill="#404040">
                        <set attributeName="fill" to="#808080" begin="arrowUp.mouseover" end="arrowUp.mouseout"/>
                  </use>
                  <path fill="none" stroke="white" stroke-width="1.5" d="M0,-3.0v7 M-2.5,-0.5L0,-3.0L2.5,-0.5"/>
                </g>
                <g id="arrowRight" xlink:href="#dirArrow" transform="rotate(90) translate(36 -43)" onmousedown="handlePan(1,0)">
                  <use xlink:href="#rim" fill="#404040">
                        <set attributeName="fill" to="#808080" begin="arrowRight.mouseover" end="arrowRight.mouseout"/>
                  </use>
                  <path fill="none" stroke="white" stroke-width="1.5" d="M0,-3.0v7 M-2.5,-0.5L0,-3.0L2.5,-0.5"/>
                </g>
                <g id="arrowDown" xlink:href="#dirArrow" transform="rotate(180) translate(-30 -48)" onmousedown="handlePan(0,1)">
                  <use xlink:href="#rim" fill="#404040">
                        <set attributeName="fill" to="#808080" begin="arrowDown.mouseover" end="arrowDown.mouseout"/>
                  </use>
                  <path fill="none" stroke="white" stroke-width="1.5" d="M0,-3.0v7 M-2.5,-0.5L0,-3.0L2.5,-0.5"/>
                </g>
                <g id="arrowLeft" xlink:href="#dirArrow" transform="rotate(270) translate(-36 17)" onmousedown="handlePan(-1,0)">
                  <use xlink:href="#rim" fill="#404040">
                        <set attributeName="fill" to="#808080" begin="arrowLeft.mouseover" end="arrowLeft.mouseout"/>
                  </use>
                  <path fill="none" stroke="white" stroke-width="1.5" d="M0,-3.0v7 M-2.5,-0.5L0,-3.0L2.5,-0.5"/>
                </g>
        </g>
        <svg viewBox="0 0 15 15" width="100%" height="30px" preserveAspectRatio="xMaxYMin meet">
         <g id="arrow_out" transform="scale(0.3 0.3)">
          <a xlink:href="Viterbi_8h__incl_org.svg" target="_base">
           <rect id="button" ry="5" rx="5" y="6" x="6" height="38" width="38"
                fill="#f2f5e9" fill-opacity="0.5" stroke="#606060" stroke-width="1.0"/>
           <path id="arrow"
             d="M 11.500037,31.436501 C 11.940474,20.09759 22.043105,11.32322 32.158766,21.979434 L 37.068811,17.246167 C 37.068811,17.246167 37.088388,32 37.088388,32 L 22.160133,31.978069 C 22.160133,31.978069 26.997745,27.140456 26.997745,27.140456 C 18.528582,18.264221 13.291696,25.230495 11.500037,31.436501 z"
             style="fill:#404040;"/>
          </a>
         </g>
        </svg>
</svg>
