<?xml version="1.0" encoding="UTF-8" standalone="no"?>
<!DOCTYPE svg PUBLIC "-//W3C//DTD SVG 1.1//EN"
 "http://www.w3.org/Graphics/SVG/1.1/DTD/svg11.dtd">
<!-- Generated by graphviz version 2.38.0 (20140413.2041)
 -->
<!-- Title: src/StateEstimation/ViterbiProblemConcept.ipp Pages: 1 -->
<svg width="142pt" height="95pt"
 viewBox="0.00 0.00 142.00 95.00" xmlns="http://www.w3.org/2000/svg" xmlns:xlink="http://www.w3.org/1999/xlink">
<g id="graph0" class="graph" transform="scale(1 1) rotate(0) translate(4 91)">
<title>src/StateEstimation/ViterbiProblemConcept.ipp</title>
<polygon fill="white" stroke="none" points="-4,4 -4,-91 138,-91 138,4 -4,4"/>
<!-- Node0 -->
<g id="node1" class="node"><title>Node0</title>
<polygon fill="#bfbfbf" stroke="black" points="0,-56.5 0,-86.5 134,-86.5 134,-56.5 0,-56.5"/>
<text text-anchor="start" x="8" y="-74.5" font-family="FreeSans" font-size="10.00">src/StateEstimation</text>
<text text-anchor="middle" x="67" y="-63.5" font-family="FreeSans" font-size="10.00">/ViterbiProblemConcept.ipp</text>
</g>
<!-- Node1 -->
<g id="node2" class="node"><title>Node1</title>
<polygon fill="white" stroke="#bfbfbf" points="3,-0.5 3,-19.5 131,-19.5 131,-0.5 3,-0.5"/>
<text text-anchor="middle" x="67" y="-7.5" font-family="FreeSans" font-size="10.00">boost/concept_check.hpp</text>
</g>
<!-- Node0&#45;&gt;Node1 -->
<g id="edge1" class="edge"><title>Node0&#45;&gt;Node1</title>
<path fill="none" stroke="midnightblue" d="M67,-56.3993C67,-48.4664 67,-38.458 67,-29.8583"/>
<polygon fill="midnightblue" stroke="midnightblue" points="70.5001,-29.6577 67,-19.6578 63.5001,-29.6578 70.5001,-29.6577"/>
</g>
</g>
</svg>
