<?xml version="1.0" encoding="UTF-8" standalone="no"?>
<!DOCTYPE svg PUBLIC "-//W3C//DTD SVG 1.1//EN"
 "http://www.w3.org/Graphics/SVG/1.1/DTD/svg11.dtd">
<!-- Generated by graphviz version 2.38.0 (20140413.2041)
 -->
<!-- Title: src/Zero/ZeroReconstructionEvaluationModule.ipp Pages: 1 -->
<svg width="324pt" height="173pt"
 viewBox="0.00 0.00 324.00 173.00" xmlns="http://www.w3.org/2000/svg" xmlns:xlink="http://www.w3.org/1999/xlink">
<g id="graph0" class="graph" transform="scale(1 1) rotate(0) translate(4 169)">
<title>src/Zero/ZeroReconstructionEvaluationModule.ipp</title>
<polygon fill="white" stroke="none" points="-4,4 -4,-169 320,-169 320,4 -4,4"/>
<!-- Node245 -->
<g id="node1" class="node"><title>Node245</title>
<polygon fill="#bfbfbf" stroke="black" points="92,-134.5 92,-164.5 232,-164.5 232,-134.5 92,-134.5"/>
<text text-anchor="start" x="100" y="-152.5" font-family="FreeSans" font-size="10.00">src/Zero/ZeroReconstruction</text>
<text text-anchor="middle" x="162" y="-141.5" font-family="FreeSans" font-size="10.00">EvaluationModule.ipp</text>
</g>
<!-- Node246 -->
<g id="node2" class="node"><title>Node246</title>
<g id="a_node2"><a xlink:href="ZeroReconstructionEvaluationModule_8h.html" target="_top" xlink:title="src/Zero/ZeroReconstruction\lEvaluationModule.h">
<polygon fill="white" stroke="black" points="92,-67.5 92,-97.5 232,-97.5 232,-67.5 92,-67.5"/>
<text text-anchor="start" x="100" y="-85.5" font-family="FreeSans" font-size="10.00">src/Zero/ZeroReconstruction</text>
<text text-anchor="middle" x="162" y="-74.5" font-family="FreeSans" font-size="10.00">EvaluationModule.h</text>
</a>
</g>
</g>
<!-- Node245&#45;&gt;Node246 -->
<g id="edge1" class="edge"><title>Node245&#45;&gt;Node246</title>
<path fill="none" stroke="midnightblue" d="M162,-124.108C162,-115.154 162,-105.323 162,-97.5765"/>
<polygon fill="midnightblue" stroke="midnightblue" points="158.5,-124.396 162,-134.396 165.5,-124.396 158.5,-124.396"/>
</g>
<!-- Node247 -->
<g id="node3" class="node"><title>Node247</title>
<g id="a_node3"><a xlink:href="AppZeroReconstructionEvaluation_8cpp.html" target="_top" xlink:title="src/Zero/AppZeroReconstruction\lEvaluation.cpp">
<polygon fill="white" stroke="black" points="0,-0.5 0,-30.5 158,-30.5 158,-0.5 0,-0.5"/>
<text text-anchor="start" x="8" y="-18.5" font-family="FreeSans" font-size="10.00">src/Zero/AppZeroReconstruction</text>
<text text-anchor="middle" x="79" y="-7.5" font-family="FreeSans" font-size="10.00">Evaluation.cpp</text>
</a>
</g>
</g>
<!-- Node246&#45;&gt;Node247 -->
<g id="edge2" class="edge"><title>Node246&#45;&gt;Node247</title>
<path fill="none" stroke="midnightblue" d="M136.037,-61.1677C123.345,-51.2283 108.388,-39.5144 96.9746,-30.5765"/>
<polygon fill="midnightblue" stroke="midnightblue" points="133.959,-63.9859 143.99,-67.396 138.275,-58.4747 133.959,-63.9859"/>
</g>
<!-- Node248 -->
<g id="node4" class="node"><title>Node248</title>
<g id="a_node4"><a xlink:href="ZeroReconstructionEvaluationModule_8cpp.html" target="_top" xlink:title="src/Zero/ZeroReconstruction\lEvaluationModule.cpp">
<polygon fill="white" stroke="black" points="176,-0.5 176,-30.5 316,-30.5 316,-0.5 176,-0.5"/>
<text text-anchor="start" x="184" y="-18.5" font-family="FreeSans" font-size="10.00">src/Zero/ZeroReconstruction</text>
<text text-anchor="middle" x="246" y="-7.5" font-family="FreeSans" font-size="10.00">EvaluationModule.cpp</text>
</a>
</g>
</g>
<!-- Node246&#45;&gt;Node248 -->
<g id="edge3" class="edge"><title>Node246&#45;&gt;Node248</title>
<path fill="none" stroke="midnightblue" d="M188.276,-61.1677C201.12,-51.2283 216.258,-39.5144 227.809,-30.5765"/>
<polygon fill="midnightblue" stroke="midnightblue" points="185.994,-58.508 180.227,-67.396 190.277,-64.0442 185.994,-58.508"/>
</g>
</g>
</svg>
